[32;01m * [39;49;00mPackage:    acct-user/systemd-timesync-0
[32;01m * [39;49;00mRepository: gentoo
[32;01m * [39;49;00mUSE:        abi_x86_64 elibc_glibc kernel_linux userland_GNU amd64
[32;01m * [39;49;00mFEATURES:   network-sandbox preserve-libs sandbox userpriv usersandbox
