No package files given... Grabbing a set.
--- replaced obj /var/spool/mail/.keep_acct-user_postmaster-0
--- replaced dir /var/spool/mail
--- replaced dir /var/spool
--- replaced dir /var
>>> Regenerating /etc/ld.so.cache...
