[32;01m * [39;49;00mPackage:    acct-group/plex-0
[32;01m * [39;49;00mRepository: gentoo
[32;01m * [39;49;00mUSE:        userland_GNU abi_x86_64 kernel_linux amd64 elibc_glibc
[32;01m * [39;49;00mFEATURES:   ccache network-sandbox preserve-libs sandbox userpriv usersandbox
