[32;01m * [39;49;00mPackage:    acct-group/dialout-0
[32;01m * [39;49;00mRepository: gentoo
[32;01m * [39;49;00mMaintainer: systemd@gentoo.org
[32;01m * [39;49;00mUSE:        abi_x86_64 amd64 elibc_glibc kernel_linux userland_GNU
[32;01m * [39;49;00mFEATURES:   network-sandbox preserve-libs sandbox userpriv usersandbox
