[32;01m * [39;49;00mPackage:    acct-group/polkitd-0
[32;01m * [39;49;00mRepository: gentoo
[32;01m * [39;49;00mUSE:        abi_x86_64 userland_GNU kernel_linux amd64 elibc_glibc
[32;01m * [39;49;00mFEATURES:   network-sandbox preserve-libs sandbox userpriv usersandbox
