[32;01m * [39;49;00mPackage:    acct-user/znc-0
[32;01m * [39;49;00mRepository: gentoo
[32;01m * [39;49;00mUSE:        amd64 userland_GNU abi_x86_64 elibc_glibc kernel_linux
[32;01m * [39;49;00mFEATURES:   ccache preserve-libs userpriv
