 * Package:    acct-group/systemd-coredump-0
 * Repository: gentoo
 * Maintainer: systemd@gentoo.org
 * USE:        abi_x86_64 amd64 elibc_glibc kernel_linux userland_GNU
 * FEATURES:   ccache network-sandbox preserve-libs sandbox userpriv usersandbox
 * /etc/portage/package.cflags/ltoworkarounds.conf -> */*: *FLAGS+=-Wl,-O4 *FLAGS-=-Wl,-O1
 * FEATURES='assume-digests binpkg-docompress binpkg-dostrip binpkg-logs binpkg-multi-instance buildpkg ccache cgroup compress-index config-protect-if-modified distlocks fixlafiles ipc-sandbox merge-sync multilib-strict network-sandbox news nodoc parallel-fetch parallel-install pid-sandbox preserve-libs qa-unresolved-soname-deps sandbox sfperms strict strict-keepdir unknown-features-warn unmerge-logs unmerge-orphans userfetch userpriv usersandbox usersync xattr'
 * CFLAGS='-march=znver2 -pipe -g0 -O3 -fgraphite-identity -floop-nest-optimize -fdevirtualize-at-ltrans -fipa-pta -fno-semantic-interposition -flto=12 -fno-plt -fno-signed-zeros -fno-trapping-math -fassociative-math -freciprocal-math -fno-math-errno -ffinite-math-only -fno-rounding-math -fno-signaling-nans -fcx-limited-range -fexcess-precision=fast -falign-functions=32 -fno-stack-protector -fno-stack-clash-protection -fstack-check=no -fno-stack-check -fuse-linker-plugin -Wl,-O4 -Wl,--as-needed -Wl,-lpthread -Wl,-lgomp -Wl,-z,norelro -Wl,-z,now -Wl,--sort-common -s'
 * CXXFLAGS='-march=znver2 -pipe -g0 -O3 -fgraphite-identity -floop-nest-optimize -fdevirtualize-at-ltrans -fipa-pta -fno-semantic-interposition -flto=12 -fno-plt -fno-signed-zeros -fno-trapping-math -fassociative-math -freciprocal-math -fno-math-errno -ffinite-math-only -fno-rounding-math -fno-signaling-nans -fcx-limited-range -fexcess-precision=fast -falign-functions=32 -fno-stack-protector -fno-stack-clash-protection -fstack-check=no -fno-stack-check -fuse-linker-plugin -Wl,-O4 -Wl,--as-needed -Wl,-lpthread -Wl,-lgomp -Wl,-z,norelro -Wl,-z,now -Wl,--sort-common -s'
 * FFLAGS='-march=znver2 -pipe -g0 -O3 -fgraphite-identity -floop-nest-optimize -fdevirtualize-at-ltrans -fipa-pta -fno-semantic-interposition -flto=12 -fno-plt -fno-signed-zeros -fno-trapping-math -fassociative-math -freciprocal-math -fno-math-errno -ffinite-math-only -fno-rounding-math -fno-signaling-nans -fcx-limited-range -fexcess-precision=fast -falign-functions=32 -fno-stack-protector -fno-stack-clash-protection -fstack-check=no -fno-stack-check -fuse-linker-plugin -Wl,-O4 -Wl,--as-needed -Wl,-lpthread -Wl,-lgomp -Wl,-z,norelro -Wl,-z,now -Wl,--sort-common -s'
 * FCFLAGS='-march=znver2 -pipe -g0 -O3 -fgraphite-identity -floop-nest-optimize -fdevirtualize-at-ltrans -fipa-pta -fno-semantic-interposition -flto=12 -fno-plt -fno-signed-zeros -fno-trapping-math -fassociative-math -freciprocal-math -fno-math-errno -ffinite-math-only -fno-rounding-math -fno-signaling-nans -fcx-limited-range -fexcess-precision=fast -falign-functions=32 -fno-stack-protector -fno-stack-clash-protection -fstack-check=no -fno-stack-check -fuse-linker-plugin -Wl,-O4 -Wl,--as-needed -Wl,-lpthread -Wl,-lgomp -Wl,-z,norelro -Wl,-z,now -Wl,--sort-common -s'
 * F77FLAGS='-march=znver2 -pipe -g0 -O3 -fgraphite-identity -floop-nest-optimize -fdevirtualize-at-ltrans -fipa-pta -fno-semantic-interposition -flto=12 -fno-plt -fno-signed-zeros -fno-trapping-math -fassociative-math -freciprocal-math -fno-math-errno -ffinite-math-only -fno-rounding-math -fno-signaling-nans -fcx-limited-range -fexcess-precision=fast -falign-functions=32 -fno-stack-protector -fno-stack-clash-protection -fstack-check=no -fno-stack-check -fuse-linker-plugin -Wl,-O4 -Wl,--as-needed -Wl,-lpthread -Wl,-lgomp -Wl,-z,norelro -Wl,-z,now -Wl,--sort-common -s'
 * LDFLAGS='-march=znver2 -pipe -g0 -O3 -fgraphite-identity -floop-nest-optimize -fdevirtualize-at-ltrans -fipa-pta -fno-semantic-interposition -flto=12 -fno-plt -fno-signed-zeros -fno-trapping-math -fassociative-math -freciprocal-math -fno-math-errno -ffinite-math-only -fno-rounding-math -fno-signaling-nans -fcx-limited-range -fexcess-precision=fast -falign-functions=32 -fno-stack-protector -fno-stack-clash-protection -fstack-check=no -fno-stack-check -fuse-linker-plugin -Wl,-O4 -Wl,--as-needed -Wl,-lpthread -Wl,-lgomp -Wl,-z,norelro -Wl,-z,now -Wl,--sort-common -s'
 * MAKEOPTS='-j12 -l12'
 * gcc () 11.0.0 20200601 (experimental)
 * g++ () 11.0.0 20200601 (experimental)
 * GNU ld (Gentoo 2.34 p4) 2.34.0
 * Linux ryzen.gnum.org 5.4.36 #1 SMP Thu Apr 30 04:38:28 UTC 2020 x86_64 AMD Ryzen 5 3600 6-Core Processor AuthenticAMD GNU/Linux
acct-group/systemd-coredump: 5 minutes, 32 seconds average for 22 merges
2020-05-16T14:43:42 >>> acct-group/systemd-coredump: 5 seconds
2020-05-16T20:42:29 >>> acct-group/systemd-coredump: 8 seconds
2020-05-20T00:56:20 >>> acct-group/systemd-coredump: 4 minutes, 30 seconds
2020-05-21T05:51:53 >>> acct-group/systemd-coredump: 5 seconds
2020-05-22T01:55:47 >>> acct-group/systemd-coredump: 7 minutes, 25 seconds
2020-05-22T03:07:08 >>> acct-group/systemd-coredump: 8 minutes
2020-05-22T12:26:38 >>> acct-group/systemd-coredump: 7 minutes, 48 seconds
2020-05-23T03:28:42 >>> acct-group/systemd-coredump: 7 minutes, 24 seconds
2020-05-24T23:22:03 >>> acct-group/systemd-coredump: 9 minutes, 20 seconds
2020-05-25T03:01:44 >>> acct-group/systemd-coredump: 3 minutes, 25 seconds
2020-05-25T18:15:00 >>> acct-group/systemd-coredump: 6 minutes, 43 seconds
2020-05-25T19:51:14 >>> acct-group/systemd-coredump: 4 minutes, 26 seconds
2020-05-26T12:50:11 >>> acct-group/systemd-coredump: 5 minutes, 18 seconds
2020-05-26T13:46:32 >>> acct-group/systemd-coredump: 4 minutes, 55 seconds
2020-05-27T01:24:18 >>> acct-group/systemd-coredump: 5 minutes, 26 seconds
2020-05-27T03:01:19 >>> acct-group/systemd-coredump: 7 minutes, 41 seconds
2020-05-28T13:22:50 >>> acct-group/systemd-coredump: 7 minutes, 20 seconds
2020-05-28T14:11:45 >>> acct-group/systemd-coredump: 5 minutes, 4 seconds
2020-05-29T01:31:53 >>> acct-group/systemd-coredump: 5 minutes, 19 seconds
2020-05-30T12:27:40 >>> acct-group/systemd-coredump: 9 minutes, 14 seconds
2020-05-30T21:32:17 >>> acct-group/systemd-coredump: 4 minutes, 51 seconds
2020-06-01T01:44:46 >>> acct-group/systemd-coredump: 7 minutes, 36 seconds
]0;emerge 11:50:22 63|1515 systemd-coredump 07:14 (root@ryzen.gnum.org)kemerge 11:50:22 63|1515 systemd-coredump 07:14 (root@ryzen.gnum.org)\>>> Unpacking source...
>>> Source unpacked in /tmp/portage/acct-group/systemd-coredump-0/work
>>> Preparing source in /tmp/portage/acct-group/systemd-coredump-0/work ...
>>> Source prepared.
>>> Configuring source in /tmp/portage/acct-group/systemd-coredump-0/work ...
>>> Source configured.
>>> Compiling source in /tmp/portage/acct-group/systemd-coredump-0/work ...
>>> Source compiled.
>>> Test phase [not enabled]: acct-group/systemd-coredump-0

>>> Install acct-group/systemd-coredump-0 into /tmp/portage/acct-group/systemd-coredump-0/image
>>> Completed installing acct-group/systemd-coredump-0 into /tmp/portage/acct-group/systemd-coredump-0/image

 * Final size of build directory: 4 KiB
 * Final size of installed tree:  4 KiB

./
>>> Done.
 * checking 0 files for package collisions
>>> Merging acct-group/systemd-coredump-0 to /
 * removing unneeded *.la files
>>> Safely unmerging already-installed instance...
>>> Original instance of package unmerged safely.
>>> acct-group/systemd-coredump-0 merged.
