 * Package:    acct-group/systemd-coredump-0
 * Repository: gentoo
 * Maintainer: systemd@gentoo.org
 * USE:        abi_x86_64 amd64 elibc_glibc kernel_linux userland_GNU
 * FEATURES:   ccache network-sandbox preserve-libs sandbox userpriv usersandbox
 * FEATURES='assume-digests binpkg-docompress binpkg-dostrip binpkg-logs binpkg-multi-instance buildpkg ccache cgroup compress-index config-protect-if-modified distlocks downgrade-backup fail-clean fixlafiles ipc-sandbox merge-sync multilib-strict network-sandbox news nodoc parallel-fetch parallel-install pid-sandbox preserve-libs qa-unresolved-soname-deps sandbox sfperms strict strict-keepdir unknown-features-warn unmerge-backup unmerge-logs unmerge-orphans userfetch userpriv usersandbox usersync xattr'
 * CFLAGS='-march=native -O2 -pipe -pipe -g0 -fno-stack-protector -fno-stack-clash-protection -fstack-check=no -fno-stack-check -Wl,-O4,--hash-style=gnu,--sort-common,--as-needed,-z,relro,-z,now,-lgomp,-lpthread'
 * CXXFLAGS='-march=native -O2 -pipe -pipe -g0 -fno-stack-protector -fno-stack-clash-protection -fstack-check=no -fno-stack-check -Wl,-O4,--hash-style=gnu,--sort-common,--as-needed,-z,relro,-z,now,-lgomp,-lpthread'
 * FFLAGS='-march=native -O2 -pipe -pipe -g0 -fno-stack-protector -fno-stack-clash-protection -fstack-check=no -fno-stack-check -Wl,-O4,--hash-style=gnu,--sort-common,--as-needed,-z,relro,-z,now,-lgomp,-lpthread'
 * FCFLAGS='-march=native -O2 -pipe -pipe -g0 -fno-stack-protector -fno-stack-clash-protection -fstack-check=no -fno-stack-check -Wl,-O4,--hash-style=gnu,--sort-common,--as-needed,-z,relro,-z,now,-lgomp,-lpthread'
 * F77FLAGS='-march=native -O2 -pipe -pipe -g0 -fno-stack-protector -fno-stack-clash-protection -fstack-check=no -fno-stack-check -Wl,-O4,--hash-style=gnu,--sort-common,--as-needed,-z,relro,-z,now,-lgomp,-lpthread'
 * LDFLAGS='-Wl,-O4,--hash-style=gnu,--sort-common,--as-needed,-z,relro,-z,now,-lgomp,-lpthread'
 * MAKEOPTS='-j12'
 * gcc (Gentoo 10.1.0 p1) 10.1.0
 * g++ (Gentoo 10.1.0 p1) 10.1.0
 * GNU ld (Gentoo 9999 p5) 2.34.50.20200520
 * Linux ryzen.gnum.org 5.4.36 #1 SMP Thu Apr 30 04:38:28 UTC 2020 x86_64 AMD Ryzen 5 3600 6-Core Processor AuthenticAMD GNU/Linux
acct-group/systemd-coredump: 1 minute, 12 seconds average for 4 merges
2020-05-16T14:43:42 >>> acct-group/systemd-coredump: 5 seconds
2020-05-16T20:42:29 >>> acct-group/systemd-coredump: 8 seconds
2020-05-20T00:56:20 >>> acct-group/systemd-coredump: 4 minutes, 30 seconds
2020-05-21T05:51:53 >>> acct-group/systemd-coredump: 5 seconds
]0;emerge 01:55:47 68|1175 systemd-coredump 01:34 (root@ryzen.gnum.org)>>> Unpacking source...
>>> Source unpacked in /tmp/portage/acct-group/systemd-coredump-0/work
>>> Preparing source in /tmp/portage/acct-group/systemd-coredump-0/work ...
>>> Source prepared.
>>> Configuring source in /tmp/portage/acct-group/systemd-coredump-0/work ...
>>> Source configured.
>>> Compiling source in /tmp/portage/acct-group/systemd-coredump-0/work ...
>>> Source compiled.
>>> Test phase [not enabled]: acct-group/systemd-coredump-0

>>> Install acct-group/systemd-coredump-0 into /tmp/portage/acct-group/systemd-coredump-0/image
>>> Completed installing acct-group/systemd-coredump-0 into /tmp/portage/acct-group/systemd-coredump-0/image

 * Final size of build directory: 4 KiB
 * Final size of installed tree:  4 KiB

./
>>> Done.
 * checking 0 files for package collisions
>>> Merging acct-group/systemd-coredump-0 to /
 * removing unneeded *.la files
>>> Safely unmerging already-installed instance...
>>> Original instance of package unmerged safely.
>>> acct-group/systemd-coredump-0 merged.
