 * Package:    acct-user/systemd-resolve-0
 * Repository: gentoo
 * Maintainer: systemd@gentoo.org
 * USE:        abi_x86_64 amd64 elibc_glibc kernel_linux userland_GNU
 * FEATURES:   ccache network-sandbox preserve-libs sandbox userpriv usersandbox
 * FEATURES='assume-digests binpkg-docompress binpkg-dostrip binpkg-logs binpkg-multi-instance buildpkg ccache compress-index config-protect-if-modified distlocks downgrade-backup fixlafiles ipc-sandbox merge-sync multilib-strict network-sandbox news nodoc parallel-fetch parallel-install pid-sandbox preserve-libs qa-unresolved-soname-deps sandbox sfperms strict unknown-features-warn unmerge-backup unmerge-logs unmerge-orphans userfetch userpriv usersandbox usersync xattr'
 * CFLAGS='-march=znver2 -O3 -fgraphite-identity -floop-nest-optimize -fdevirtualize-at-ltrans -fipa-pta -fno-semantic-interposition -flto=12 -fno-plt -fno-signed-zeros -fno-trapping-math -fassociative-math -freciprocal-math -fno-math-errno -ffinite-math-only -fno-rounding-math -fno-signaling-nans -fcx-limited-range -fexcess-precision=fast -falign-functions=32 -fno-stack-protector -fno-stack-clash-protection -fstack-check=no -fno-stack-check -fuse-linker-plugin -pipe -g0 -Wl,-O1 -Wl,--as-needed -Wl,-z,norelro -Wl,-z,now -Wl,--sort-common -s'
 * CXXFLAGS='-march=znver2 -O3 -fgraphite-identity -floop-nest-optimize -fdevirtualize-at-ltrans -fipa-pta -fno-semantic-interposition -flto=12 -fno-plt -fno-signed-zeros -fno-trapping-math -fassociative-math -freciprocal-math -fno-math-errno -ffinite-math-only -fno-rounding-math -fno-signaling-nans -fcx-limited-range -fexcess-precision=fast -falign-functions=32 -fno-stack-protector -fno-stack-clash-protection -fstack-check=no -fno-stack-check -fuse-linker-plugin -pipe -g0 -Wl,-O1 -Wl,--as-needed -Wl,-z,norelro -Wl,-z,now -Wl,--sort-common -s'
 * FFLAGS='-march=znver2 -O3 -fgraphite-identity -floop-nest-optimize -fdevirtualize-at-ltrans -fipa-pta -fno-semantic-interposition -flto=12 -fno-plt -fno-signed-zeros -fno-trapping-math -fassociative-math -freciprocal-math -fno-math-errno -ffinite-math-only -fno-rounding-math -fno-signaling-nans -fcx-limited-range -fexcess-precision=fast -falign-functions=32 -fno-stack-protector -fno-stack-clash-protection -fstack-check=no -fno-stack-check -fuse-linker-plugin -pipe -g0 -Wl,-O1 -Wl,--as-needed -Wl,-z,norelro -Wl,-z,now -Wl,--sort-common -s'
 * FCFLAGS='-march=znver2 -O3 -fgraphite-identity -floop-nest-optimize -fdevirtualize-at-ltrans -fipa-pta -fno-semantic-interposition -flto=12 -fno-plt -fno-signed-zeros -fno-trapping-math -fassociative-math -freciprocal-math -fno-math-errno -ffinite-math-only -fno-rounding-math -fno-signaling-nans -fcx-limited-range -fexcess-precision=fast -falign-functions=32 -fno-stack-protector -fno-stack-clash-protection -fstack-check=no -fno-stack-check -fuse-linker-plugin -pipe -g0 -Wl,-O1 -Wl,--as-needed -Wl,-z,norelro -Wl,-z,now -Wl,--sort-common -s'
 * F77FLAGS='-march=znver2 -O3 -fgraphite-identity -floop-nest-optimize -fdevirtualize-at-ltrans -fipa-pta -fno-semantic-interposition -flto=12 -fno-plt -fno-signed-zeros -fno-trapping-math -fassociative-math -freciprocal-math -fno-math-errno -ffinite-math-only -fno-rounding-math -fno-signaling-nans -fcx-limited-range -fexcess-precision=fast -falign-functions=32 -fno-stack-protector -fno-stack-clash-protection -fstack-check=no -fno-stack-check -fuse-linker-plugin -pipe -g0 -Wl,-O1 -Wl,--as-needed -Wl,-z,norelro -Wl,-z,now -Wl,--sort-common -s'
 * LDFLAGS='-Wl,-O1 -Wl,--as-needed -Wl,-z,norelro -Wl,-z,now -Wl,--sort-common -s -march=znver2 -O3 -fgraphite-identity -floop-nest-optimize -fdevirtualize-at-ltrans -fipa-pta -fno-semantic-interposition -flto=12 -fno-plt -fno-signed-zeros -fno-trapping-math -fassociative-math -freciprocal-math -fno-math-errno -ffinite-math-only -fno-rounding-math -fno-signaling-nans -fcx-limited-range -fexcess-precision=fast -falign-functions=32 -fno-stack-protector -fno-stack-clash-protection -fstack-check=no -fno-stack-check -fuse-linker-plugin -pipe -g0'
 * MAKEOPTS='-j12 -l12'
 * gcc () 11.0.0 20200530 (experimental)
 * g++ () 11.0.0 20200530 (experimental)
 * GNU ld (Gentoo 2.34 p4) 2.34.0
 * Linux ryzen.gnum.org 5.4.36 #1 SMP Thu Apr 30 04:38:28 UTC 2020 x86_64 AMD Ryzen 5 3600 6-Core Processor AuthenticAMD GNU/Linux
acct-user/systemd-resolve: 1 minute, 39 seconds average for 19 merges
2020-05-16T14:44:09 >>> acct-user/systemd-resolve: 5 seconds
2020-05-16T20:48:23 >>> acct-user/systemd-resolve: 8 seconds
2020-05-20T01:01:16 >>> acct-user/systemd-resolve: 1 minute, 12 seconds
2020-05-21T05:59:10 >>> acct-user/systemd-resolve: 6 seconds
2020-05-22T02:04:18 >>> acct-user/systemd-resolve: 3 minutes, 12 seconds
2020-05-22T03:16:12 >>> acct-user/systemd-resolve: 2 minutes, 23 seconds
2020-05-22T12:35:31 >>> acct-user/systemd-resolve: 2 minutes, 15 seconds
2020-05-23T03:37:11 >>> acct-user/systemd-resolve: 2 minutes, 18 seconds
2020-05-24T23:32:45 >>> acct-user/systemd-resolve: 4 minutes, 47 seconds
2020-05-25T03:06:03 >>> acct-user/systemd-resolve: 31 seconds
2020-05-25T18:22:33 >>> acct-user/systemd-resolve: 2 minutes, 7 seconds
2020-05-25T19:56:51 >>> acct-user/systemd-resolve: 1 minute, 5 seconds
2020-05-26T12:56:48 >>> acct-user/systemd-resolve: 2 minutes, 18 seconds
2020-05-26T13:52:09 >>> acct-user/systemd-resolve: 1 minute, 13 seconds
2020-05-27T01:31:26 >>> acct-user/systemd-resolve: 43 seconds
2020-05-27T03:09:53 >>> acct-user/systemd-resolve: 2 minutes, 57 seconds
2020-05-28T13:30:51 >>> acct-user/systemd-resolve: 2 minutes, 8 seconds
2020-05-28T14:17:35 >>> acct-user/systemd-resolve: 1 minute, 12 seconds
2020-05-29T01:39:11 >>> acct-user/systemd-resolve: 46 seconds
]0;emerge 12:37:38 121|1110 systemd-resolve 01:22 (root@ryzen.gnum.org)kemerge 12:37:38 121|1110 systemd-resolve 01:22 (root@ryzen.gnum.org)\>>> Unpacking source...
>>> Source unpacked in /tmp/portage/acct-user/systemd-resolve-0/work
>>> Preparing source in /tmp/portage/acct-user/systemd-resolve-0/work ...
>>> Source prepared.
>>> Configuring source in /tmp/portage/acct-user/systemd-resolve-0/work ...
>>> Source configured.
>>> Compiling source in /tmp/portage/acct-user/systemd-resolve-0/work ...
>>> Source compiled.
>>> Test phase [not enabled]: acct-user/systemd-resolve-0

>>> Install acct-user/systemd-resolve-0 into /tmp/portage/acct-user/systemd-resolve-0/image
>>> Completed installing acct-user/systemd-resolve-0 into /tmp/portage/acct-user/systemd-resolve-0/image

 * Final size of build directory: 4 KiB
 * Final size of installed tree:  4 KiB

./
>>> Done.
 * checking 0 files for package collisions
>>> Merging acct-user/systemd-resolve-0 to /
 * removing unneeded *.la files
>>> Safely unmerging already-installed instance...
>>> Original instance of package unmerged safely.
>>> acct-user/systemd-resolve-0 merged.
