[32;01m * [39;49;00mPackage:    acct-group/audio-0
[32;01m * [39;49;00mRepository: gentoo
[32;01m * [39;49;00mUSE:        kernel_linux userland_GNU elibc_glibc amd64 abi_x86_64
[32;01m * [39;49;00mFEATURES:   network-sandbox preserve-libs sandbox userpriv usersandbox
