>>> Extracting info
 * Package:    acct-user/systemd-coredump-0
 * Repository: gentoo
 * USE:        userland_GNU abi_x86_64 kernel_linux amd64 elibc_glibc
 * FEATURES:   ccache network-sandbox preserve-libs sandbox userpriv usersandbox
 * FEATURES='assume-digests binpkg-docompress binpkg-dostrip binpkg-logs binpkg-multi-instance buildpkg ccache compress-index config-protect-if-modified distlocks downgrade-backup fixlafiles ipc-sandbox merge-sync multilib-strict network-sandbox news nodoc parallel-fetch parallel-install pid-sandbox preserve-libs qa-unresolved-soname-deps sandbox sfperms strict unknown-features-warn unmerge-backup unmerge-logs unmerge-orphans userfetch userpriv usersandbox usersync xattr'
 * CFLAGS='-march=znver2 -O3 -fgraphite-identity -floop-nest-optimize -fdevirtualize-at-ltrans -fipa-pta -fno-semantic-interposition -flto=12 -fno-plt -fno-signed-zeros -fno-trapping-math -fassociative-math -freciprocal-math -fno-math-errno -ffinite-math-only -fno-rounding-math -fno-signaling-nans -fcx-limited-range -fexcess-precision=fast -falign-functions=32 -fno-stack-protector -fno-stack-clash-protection -fstack-check=no -fno-stack-check -fuse-linker-plugin -pipe -g0 -Wl,-O1 -Wl,--as-needed -Wl,-z,norelro -Wl,-z,now -Wl,--sort-common -s'
 * CXXFLAGS='-march=znver2 -O3 -fgraphite-identity -floop-nest-optimize -fdevirtualize-at-ltrans -fipa-pta -fno-semantic-interposition -flto=12 -fno-plt -fno-signed-zeros -fno-trapping-math -fassociative-math -freciprocal-math -fno-math-errno -ffinite-math-only -fno-rounding-math -fno-signaling-nans -fcx-limited-range -fexcess-precision=fast -falign-functions=32 -fno-stack-protector -fno-stack-clash-protection -fstack-check=no -fno-stack-check -fuse-linker-plugin -pipe -g0 -Wl,-O1 -Wl,--as-needed -Wl,-z,norelro -Wl,-z,now -Wl,--sort-common -s'
 * FFLAGS='-march=znver2 -O3 -fgraphite-identity -floop-nest-optimize -fdevirtualize-at-ltrans -fipa-pta -fno-semantic-interposition -flto=12 -fno-plt -fno-signed-zeros -fno-trapping-math -fassociative-math -freciprocal-math -fno-math-errno -ffinite-math-only -fno-rounding-math -fno-signaling-nans -fcx-limited-range -fexcess-precision=fast -falign-functions=32 -fno-stack-protector -fno-stack-clash-protection -fstack-check=no -fno-stack-check -fuse-linker-plugin -pipe -g0 -Wl,-O1 -Wl,--as-needed -Wl,-z,norelro -Wl,-z,now -Wl,--sort-common -s'
 * FCFLAGS='-march=znver2 -O3 -fgraphite-identity -floop-nest-optimize -fdevirtualize-at-ltrans -fipa-pta -fno-semantic-interposition -flto=12 -fno-plt -fno-signed-zeros -fno-trapping-math -fassociative-math -freciprocal-math -fno-math-errno -ffinite-math-only -fno-rounding-math -fno-signaling-nans -fcx-limited-range -fexcess-precision=fast -falign-functions=32 -fno-stack-protector -fno-stack-clash-protection -fstack-check=no -fno-stack-check -fuse-linker-plugin -pipe -g0 -Wl,-O1 -Wl,--as-needed -Wl,-z,norelro -Wl,-z,now -Wl,--sort-common -s'
 * F77FLAGS='-march=znver2 -O3 -fgraphite-identity -floop-nest-optimize -fdevirtualize-at-ltrans -fipa-pta -fno-semantic-interposition -flto=12 -fno-plt -fno-signed-zeros -fno-trapping-math -fassociative-math -freciprocal-math -fno-math-errno -ffinite-math-only -fno-rounding-math -fno-signaling-nans -fcx-limited-range -fexcess-precision=fast -falign-functions=32 -fno-stack-protector -fno-stack-clash-protection -fstack-check=no -fno-stack-check -fuse-linker-plugin -pipe -g0 -Wl,-O1 -Wl,--as-needed -Wl,-z,norelro -Wl,-z,now -Wl,--sort-common -s'
 * LDFLAGS='-Wl,-O1 -Wl,--as-needed -Wl,-z,norelro -Wl,-z,now -Wl,--sort-common -s -march=znver2 -O3 -fgraphite-identity -floop-nest-optimize -fdevirtualize-at-ltrans -fipa-pta -fno-semantic-interposition -flto=12 -fno-plt -fno-signed-zeros -fno-trapping-math -fassociative-math -freciprocal-math -fno-math-errno -ffinite-math-only -fno-rounding-math -fno-signaling-nans -fcx-limited-range -fexcess-precision=fast -falign-functions=32 -fno-stack-protector -fno-stack-clash-protection -fstack-check=no -fno-stack-check -fuse-linker-plugin -pipe -g0'
 * MAKEOPTS='-j12 -l12'
 * gcc () 11.0.0 20200530 (experimental)
 * g++ () 11.0.0 20200530 (experimental)
 * GNU ld (Gentoo 2.34 p4) 2.34.0
 * Linux ryzen.gnum.org 5.4.36 #1 SMP Thu Apr 30 04:38:28 UTC 2020 x86_64 AMD Ryzen 5 3600 6-Core Processor AuthenticAMD GNU/Linux
acct-user/systemd-coredump: 1 minute, 39 seconds average for 20 merges
2020-05-16T14:43:58 >>> acct-user/systemd-coredump: 5 seconds
2020-05-16T20:48:08 >>> acct-user/systemd-coredump: 8 seconds
2020-05-20T01:01:15 >>> acct-user/systemd-coredump: 1 minute, 3 seconds
2020-05-21T05:58:58 >>> acct-user/systemd-coredump: 6 seconds
2020-05-22T02:04:16 >>> acct-user/systemd-coredump: 3 minutes, 6 seconds
2020-05-22T03:16:09 >>> acct-user/systemd-coredump: 2 minutes, 22 seconds
2020-05-22T12:35:28 >>> acct-user/systemd-coredump: 2 minutes, 10 seconds
2020-05-23T03:37:08 >>> acct-user/systemd-coredump: 2 minutes, 13 seconds
2020-05-24T23:32:44 >>> acct-user/systemd-coredump: 4 minutes, 40 seconds
2020-05-25T03:06:02 >>> acct-user/systemd-coredump: 24 seconds
2020-05-25T18:22:30 >>> acct-user/systemd-coredump: 2 minutes, 2 seconds
2020-05-25T19:56:50 >>> acct-user/systemd-coredump: 59 seconds
2020-05-26T12:56:46 >>> acct-user/systemd-coredump: 2 minutes, 12 seconds
2020-05-26T13:52:08 >>> acct-user/systemd-coredump: 1 minute, 7 seconds
2020-05-27T01:31:25 >>> acct-user/systemd-coredump: 33 seconds
2020-05-27T03:09:50 >>> acct-user/systemd-coredump: 2 minutes, 53 seconds
2020-05-28T13:30:53 >>> acct-user/systemd-coredump: 2 minutes, 14 seconds
2020-05-28T14:17:36 >>> acct-user/systemd-coredump: 1 minute, 19 seconds
2020-05-29T01:39:10 >>> acct-user/systemd-coredump: 34 seconds
2020-05-30T12:37:39 >>> acct-user/systemd-coredump: 2 minutes, 57 seconds
]0;emerge 21:37:46 125|1110 systemd-coredump 01:37 (root@ryzen.gnum.org)kemerge 21:37:46 125|1110 systemd-coredump 01:37 (root@ryzen.gnum.org)\>>> Extracting acct-user/systemd-coredump-0
 * checking 0 files for package collisions
>>> Merging acct-user/systemd-coredump-0 to /
 * removing unneeded *.la files
>>> Safely unmerging already-installed instance...
>>> Original instance of package unmerged safely.
>>> acct-user/systemd-coredump-0 merged.
