No package files given... Grabbing a set.
--- replaced obj /var/lib/strelaysrv/.keep_acct-user_strelaysrv-0
--- replaced dir /var/lib/strelaysrv
--- replaced dir /var/lib
--- replaced dir /var
>>> Regenerating /etc/ld.so.cache...
