>>> Extracting info
 * Package:    acct-group/tape-0
 * Repository: gentoo
 * USE:        abi_x86_64 elibc_glibc kernel_linux userland_GNU amd64
 * FEATURES:   network-sandbox preserve-libs sandbox userpriv usersandbox
 * FEATURES='assume-digests binpkg-docompress binpkg-dostrip binpkg-logs binpkg-multi-instance buildpkg compress-index config-protect-if-modified distlocks downgrade-backup fixlafiles ipc-sandbox merge-sync multilib-strict network-sandbox news nodoc parallel-fetch parallel-install pid-sandbox preserve-libs qa-unresolved-soname-deps sandbox sfperms strict unknown-features-warn unmerge-backup unmerge-logs unmerge-orphans userfetch userpriv usersandbox usersync xattr'
 * CFLAGS='-march=native -O3 -fgraphite-identity -floop-nest-optimize -fdevirtualize-at-ltrans -fipa-pta -fno-semantic-interposition -flto=12 -fno-plt -fno-math-errno -fno-trapping-math -fuse-linker-plugin -pipe -g0 -falign-functions=32 -Wl,-O1 -Wl,--as-needed -Wl,--hash-style=gnu,-z,norelro,--as-needed'
 * CXXFLAGS='-march=native -O3 -fgraphite-identity -floop-nest-optimize -fdevirtualize-at-ltrans -fipa-pta -fno-semantic-interposition -flto=12 -fno-plt -fno-math-errno -fno-trapping-math -fuse-linker-plugin -pipe -g0 -falign-functions=32 -Wl,-O1 -Wl,--as-needed -Wl,--hash-style=gnu,-z,norelro,--as-needed'
 * FFLAGS='-march=native -O3 -fgraphite-identity -floop-nest-optimize -fdevirtualize-at-ltrans -fipa-pta -fno-semantic-interposition -flto=12 -fno-plt -fno-math-errno -fno-trapping-math -fuse-linker-plugin -pipe -g0 -falign-functions=32 -Wl,-O1 -Wl,--as-needed -Wl,--hash-style=gnu,-z,norelro,--as-needed'
 * FCFLAGS='-march=native -O3 -fgraphite-identity -floop-nest-optimize -fdevirtualize-at-ltrans -fipa-pta -fno-semantic-interposition -flto=12 -fno-plt -fno-math-errno -fno-trapping-math -fuse-linker-plugin -pipe -g0 -falign-functions=32 -Wl,-O1 -Wl,--as-needed -Wl,--hash-style=gnu,-z,norelro,--as-needed'
 * F77FLAGS='-march=native -O3 -fgraphite-identity -floop-nest-optimize -fdevirtualize-at-ltrans -fipa-pta -fno-semantic-interposition -flto=12 -fno-plt -fno-math-errno -fno-trapping-math -fuse-linker-plugin -pipe -g0 -falign-functions=32 -Wl,-O1 -Wl,--as-needed -Wl,--hash-style=gnu,-z,norelro,--as-needed'
 * LDFLAGS='-Wl,-O1 -Wl,--as-needed -Wl,--hash-style=gnu,-z,norelro,--as-needed -march=native -O3 -fgraphite-identity -floop-nest-optimize -fdevirtualize-at-ltrans -fipa-pta -fno-semantic-interposition -flto=12 -fno-plt -fno-math-errno -fno-trapping-math -fuse-linker-plugin -pipe -g0 -falign-functions=32'
 * MAKEOPTS='-j12 -l12'
 * gcc () 11.0.0 20200526 (experimental)
 * g++ () 11.0.0 20200526 (experimental)
 * GNU ld (Gentoo 2.34 p4) 2.34.0
 * Linux ryzen.gnum.org 5.4.36 #1 SMP Thu Apr 30 04:38:28 UTC 2020 x86_64 AMD Ryzen 5 3600 6-Core Processor AuthenticAMD GNU/Linux
acct-group/tape: 5 minutes, 9 seconds average for 18 merges
2020-05-16T14:43:16 >>> acct-group/tape: 5 seconds
2020-05-16T20:41:34 >>> acct-group/tape: 8 seconds
2020-05-20T00:56:16 >>> acct-group/tape: 4 minutes, 11 seconds
2020-05-21T05:51:24 >>> acct-group/tape: 5 seconds
2020-05-22T01:55:33 >>> acct-group/tape: 7 minutes, 19 seconds
2020-05-22T03:06:52 >>> acct-group/tape: 7 minutes, 51 seconds
2020-05-22T12:26:24 >>> acct-group/tape: 7 minutes, 37 seconds
2020-05-23T03:28:29 >>> acct-group/tape: 7 minutes, 17 seconds
2020-05-24T23:21:50 >>> acct-group/tape: 9 minutes, 14 seconds
2020-05-25T03:01:40 >>> acct-group/tape: 3 minutes, 10 seconds
2020-05-25T18:14:41 >>> acct-group/tape: 6 minutes, 45 seconds
2020-05-25T19:50:55 >>> acct-group/tape: 4 minutes, 28 seconds
2020-05-26T12:50:05 >>> acct-group/tape: 5 minutes, 6 seconds
2020-05-26T13:46:27 >>> acct-group/tape: 4 minutes, 41 seconds
2020-05-27T01:24:14 >>> acct-group/tape: 5 minutes, 1 second
2020-05-27T03:01:02 >>> acct-group/tape: 7 minutes, 40 seconds
2020-05-28T13:22:35 >>> acct-group/tape: 7 minutes, 15 seconds
2020-05-28T14:11:40 >>> acct-group/tape: 4 minutes, 49 seconds
]0;emerge 01:31:50 42|557 tape 06:35 (root@ryzen.gnum.org)>>> Extracting acct-group/tape-0
 * checking 0 files for package collisions
[32;01m * [39;49;00mBuilding package for acct-group/tape-0 ...                            [34;01m[ [39;49;00m[32;01mok[39;49;00m[34;01m ][39;49;00m
[32;01m * [39;49;00mPackages now in '/usr/portage/packages':
[32;01m * [39;49;00macct-group/tape-0: 22.3K

>>> Merging acct-group/tape-0 to /
 * removing unneeded *.la files
>>> Safely unmerging already-installed instance...
>>> Original instance of package unmerged safely.
>>> acct-group/tape-0 merged.
