 * Package:    acct-group/systemd-resolve-0
 * Repository: gentoo
 * Maintainer: systemd@gentoo.org
 * USE:        abi_x86_64 amd64 elibc_glibc kernel_linux userland_GNU
 * FEATURES:   network-sandbox preserve-libs sandbox userpriv usersandbox
 * FEATURES='assume-digests binpkg-docompress binpkg-dostrip binpkg-logs buildpkg cgroup compress-index config-protect-if-modified distlocks ebuild-locks fixlafiles ipc-sandbox merge-sync multilib-strict network-sandbox news nodoc parallel-fetch pid-sandbox preserve-libs qa-unresolved-soname-deps sandbox sfperms strict strict-keepdir unknown-features-warn unmerge-logs unmerge-orphans userfetch userpriv usersandbox usersync xattr'
 * CFLAGS='-march=znver2 -O2 -pipe -fno-stack-protector -fno-stack-clash-protection -fstack-check=no -fno-stack-check -Wl,-O1 -Wl,--as-needed'
 * CXXFLAGS='-march=znver2 -O2 -pipe -fno-stack-protector -fno-stack-clash-protection -fstack-check=no -fno-stack-check -Wl,-O1 -Wl,--as-needed'
 * FFLAGS='-march=znver2 -O2 -pipe -fno-stack-protector -fno-stack-clash-protection -fstack-check=no -fno-stack-check -Wl,-O1 -Wl,--as-needed'
 * FCFLAGS='-march=znver2 -O2 -pipe -fno-stack-protector -fno-stack-clash-protection -fstack-check=no -fno-stack-check -Wl,-O1 -Wl,--as-needed'
 * F77FLAGS='-march=znver2 -O2 -pipe -fno-stack-protector -fno-stack-clash-protection -fstack-check=no -fno-stack-check -Wl,-O1 -Wl,--as-needed'
 * LDFLAGS='-Wl,-O1 -Wl,--as-needed'
 * MAKEOPTS='-j12 -l12'
 * gcc (Gentoo 10.1.0-r1 p2) 10.1.0
 * g++ (Gentoo 10.1.0-r1 p2) 10.1.0
 * GNU gold (Gentoo 2.34 p4 2.34.0) 1.16
 * Linux rescue 5.4.36 #1 SMP Thu Apr 30 04:38:28 UTC 2020 x86_64 AMD Ryzen 5 3600 6-Core Processor AuthenticAMD GNU/Linux
acct-group/systemd-resolve: 5 minutes, 52 seconds average for 28 merges
2020-05-16T14:43:32 >>> acct-group/systemd-resolve: 5 seconds
2020-05-16T20:42:13 >>> acct-group/systemd-resolve: 8 seconds
2020-05-20T00:56:18 >>> acct-group/systemd-resolve: 4 minutes, 23 seconds
2020-05-21T05:51:41 >>> acct-group/systemd-resolve: 6 seconds
2020-05-22T01:55:41 >>> acct-group/systemd-resolve: 7 minutes, 23 seconds
2020-05-22T03:07:02 >>> acct-group/systemd-resolve: 7 minutes, 58 seconds
2020-05-22T12:26:32 >>> acct-group/systemd-resolve: 7 minutes, 46 seconds
2020-05-23T03:28:37 >>> acct-group/systemd-resolve: 7 minutes, 21 seconds
2020-05-24T23:21:58 >>> acct-group/systemd-resolve: 9 minutes, 18 seconds
2020-05-25T03:01:43 >>> acct-group/systemd-resolve: 3 minutes, 18 seconds
2020-05-25T18:14:53 >>> acct-group/systemd-resolve: 6 minutes, 43 seconds
2020-05-25T19:51:06 >>> acct-group/systemd-resolve: 4 minutes, 28 seconds
2020-05-26T12:50:10 >>> acct-group/systemd-resolve: 5 minutes, 12 seconds
2020-05-26T13:46:30 >>> acct-group/systemd-resolve: 4 minutes, 50 seconds
2020-05-27T01:24:16 >>> acct-group/systemd-resolve: 5 minutes, 16 seconds
2020-05-27T03:01:13 >>> acct-group/systemd-resolve: 7 minutes, 40 seconds
2020-05-28T13:22:44 >>> acct-group/systemd-resolve: 7 minutes, 18 seconds
2020-05-28T14:11:43 >>> acct-group/systemd-resolve: 4 minutes, 58 seconds
2020-05-29T01:31:51 >>> acct-group/systemd-resolve: 5 minutes, 9 seconds
2020-05-30T12:27:33 >>> acct-group/systemd-resolve: 9 minutes, 14 seconds
2020-05-30T21:32:15 >>> acct-group/systemd-resolve: 4 minutes, 46 seconds
2020-06-01T01:44:42 >>> acct-group/systemd-resolve: 7 minutes, 28 seconds
2020-06-04T11:50:16 >>> acct-group/systemd-resolve: 18 minutes, 2 seconds
2020-06-12T01:22:19 >>> acct-group/systemd-resolve: 1 minute, 42 seconds
2020-06-13T03:16:52 >>> acct-group/systemd-resolve: 3 minutes, 42 seconds
2020-06-13T19:54:44 >>> acct-group/systemd-resolve: 7 minutes, 55 seconds
2020-06-14T04:31:54 >>> acct-group/systemd-resolve: 9 minutes, 6 seconds
2020-06-15T13:44:21 >>> acct-group/systemd-resolve: 3 minutes, 26 seconds
]0;emerge 13:33:49 48|895 systemd-resolve 06:49 (root@rescue)>>> Unpacking source...
>>> Source unpacked in /tmp/portage/acct-group/systemd-resolve-0/work
>>> Preparing source in /tmp/portage/acct-group/systemd-resolve-0/work ...
>>> Source prepared.
>>> Configuring source in /tmp/portage/acct-group/systemd-resolve-0/work ...
>>> Source configured.
>>> Compiling source in /tmp/portage/acct-group/systemd-resolve-0/work ...
>>> Source compiled.
>>> Test phase [not enabled]: acct-group/systemd-resolve-0

>>> Install acct-group/systemd-resolve-0 into /tmp/portage/acct-group/systemd-resolve-0/image
>>> Completed installing acct-group/systemd-resolve-0 into /tmp/portage/acct-group/systemd-resolve-0/image

 * Final size of build directory: 4 KiB
 * Final size of installed tree:  4 KiB

Parallel BZIP2 v1.1.13 [Dec 18, 2015]
By: Jeff Gilchrist [http://compression.ca]
Major contributions: Yavor Nikolov [http://javornikolov.wordpress.com]
Uses libbzip2 by Julian Seward

         # CPUs: 6
   Load Average: 5.74
 BWT Block Size: 200 KB
File Block Size: 900 KB
 Maximum Memory: 1024 MB
-------------------------------------------
         File #: 1 of 1
     Input Name: compressme
    Output Name: compressme.bz2

     Input Size: 3895 bytes
Compressing data (no threads)...
Completed: 100%                 Output Size: 918 bytes
-------------------------------------------

     Wall Clock: 0.010110 seconds
./
>>> Done.
 * checking 0 files for package collisions
>>> Merging acct-group/systemd-resolve-0 to /
 * removing unneeded *.la files
>>> Safely unmerging already-installed instance...
!!! File Not Found: '/etc/env.d/99lcdfilter'
>>> Original instance of package unmerged safely.
>>> acct-group/systemd-resolve-0 merged.
!!! File Not Found: '/etc/env.d/99lcdfilter'
