[32;01m * [39;49;00mPackage:    acct-user/systemd-coredump-0
[32;01m * [39;49;00mRepository: gentoo
[32;01m * [39;49;00mUSE:        amd64 abi_x86_64 kernel_linux userland_GNU elibc_glibc
[32;01m * [39;49;00mFEATURES:   ccache network-sandbox preserve-libs sandbox userpriv usersandbox
