 * Package:    acct-user/sshd-0
 * Repository: gentoo
 * Maintainer: base-system@gentoo.org
 * USE:        abi_x86_64 amd64 elibc_glibc kernel_linux userland_GNU
 * FEATURES:   ccache network-sandbox preserve-libs sandbox userpriv usersandbox
 * /etc/portage/package.cflags/ltoworkarounds.conf -> */*: *FLAGS+=-Wl,-O4 *FLAGS-=-Wl,-O1
 * FEATURES='assume-digests binpkg-docompress binpkg-dostrip binpkg-logs binpkg-multi-instance buildpkg ccache cgroup compress-index config-protect-if-modified distlocks fixlafiles ipc-sandbox merge-sync multilib-strict network-sandbox news nodoc parallel-fetch parallel-install pid-sandbox preserve-libs qa-unresolved-soname-deps sandbox sfperms strict unknown-features-warn unmerge-logs unmerge-orphans userfetch userpriv usersandbox usersync xattr'
 * CFLAGS='-march=znver2 -pipe -g0 -O3 -fgraphite-identity -floop-nest-optimize -fdevirtualize-at-ltrans -fipa-pta -fno-semantic-interposition -flto=12 -fno-plt -fno-signed-zeros -fno-trapping-math -fassociative-math -freciprocal-math -fno-math-errno -ffinite-math-only -fno-rounding-math -fno-signaling-nans -fcx-limited-range -fexcess-precision=fast -falign-functions=32 -fno-stack-protector -fno-stack-clash-protection -fstack-check=no -fno-stack-check -fuse-linker-plugin -Wl,-O4 -Wl,--as-needed -Wl,-lpthread -Wl,-lgomp -Wl,-z,norelro -Wl,-z,now -Wl,--sort-common -s'
 * CXXFLAGS='-march=znver2 -pipe -g0 -O3 -fgraphite-identity -floop-nest-optimize -fdevirtualize-at-ltrans -fipa-pta -fno-semantic-interposition -flto=12 -fno-plt -fno-signed-zeros -fno-trapping-math -fassociative-math -freciprocal-math -fno-math-errno -ffinite-math-only -fno-rounding-math -fno-signaling-nans -fcx-limited-range -fexcess-precision=fast -falign-functions=32 -fno-stack-protector -fno-stack-clash-protection -fstack-check=no -fno-stack-check -fuse-linker-plugin -Wl,-O4 -Wl,--as-needed -Wl,-lpthread -Wl,-lgomp -Wl,-z,norelro -Wl,-z,now -Wl,--sort-common -s'
 * FFLAGS='-march=znver2 -pipe -g0 -O3 -fgraphite-identity -floop-nest-optimize -fdevirtualize-at-ltrans -fipa-pta -fno-semantic-interposition -flto=12 -fno-plt -fno-signed-zeros -fno-trapping-math -fassociative-math -freciprocal-math -fno-math-errno -ffinite-math-only -fno-rounding-math -fno-signaling-nans -fcx-limited-range -fexcess-precision=fast -falign-functions=32 -fno-stack-protector -fno-stack-clash-protection -fstack-check=no -fno-stack-check -fuse-linker-plugin -Wl,-O4 -Wl,--as-needed -Wl,-lpthread -Wl,-lgomp -Wl,-z,norelro -Wl,-z,now -Wl,--sort-common -s'
 * FCFLAGS='-march=znver2 -pipe -g0 -O3 -fgraphite-identity -floop-nest-optimize -fdevirtualize-at-ltrans -fipa-pta -fno-semantic-interposition -flto=12 -fno-plt -fno-signed-zeros -fno-trapping-math -fassociative-math -freciprocal-math -fno-math-errno -ffinite-math-only -fno-rounding-math -fno-signaling-nans -fcx-limited-range -fexcess-precision=fast -falign-functions=32 -fno-stack-protector -fno-stack-clash-protection -fstack-check=no -fno-stack-check -fuse-linker-plugin -Wl,-O4 -Wl,--as-needed -Wl,-lpthread -Wl,-lgomp -Wl,-z,norelro -Wl,-z,now -Wl,--sort-common -s'
 * F77FLAGS='-march=znver2 -pipe -g0 -O3 -fgraphite-identity -floop-nest-optimize -fdevirtualize-at-ltrans -fipa-pta -fno-semantic-interposition -flto=12 -fno-plt -fno-signed-zeros -fno-trapping-math -fassociative-math -freciprocal-math -fno-math-errno -ffinite-math-only -fno-rounding-math -fno-signaling-nans -fcx-limited-range -fexcess-precision=fast -falign-functions=32 -fno-stack-protector -fno-stack-clash-protection -fstack-check=no -fno-stack-check -fuse-linker-plugin -Wl,-O4 -Wl,--as-needed -Wl,-lpthread -Wl,-lgomp -Wl,-z,norelro -Wl,-z,now -Wl,--sort-common -s'
 * LDFLAGS='-march=znver2 -pipe -g0 -O3 -fgraphite-identity -floop-nest-optimize -fdevirtualize-at-ltrans -fipa-pta -fno-semantic-interposition -flto=12 -fno-plt -fno-signed-zeros -fno-trapping-math -fassociative-math -freciprocal-math -fno-math-errno -ffinite-math-only -fno-rounding-math -fno-signaling-nans -fcx-limited-range -fexcess-precision=fast -falign-functions=32 -fno-stack-protector -fno-stack-clash-protection -fstack-check=no -fno-stack-check -fuse-linker-plugin -Wl,-O4 -Wl,--as-needed -Wl,-lpthread -Wl,-lgomp -Wl,-z,norelro -Wl,-z,now -Wl,--sort-common -s'
 * MAKEOPTS='-j12 -l12'
 * gcc () 11.0.0 20200531 (experimental)
 * g++ () 11.0.0 20200531 (experimental)
 * GNU ld (Gentoo 2.34 p4) 2.34.0
 * Linux ryzen.gnum.org 5.4.36 #1 SMP Thu Apr 30 04:38:28 UTC 2020 x86_64 AMD Ryzen 5 3600 6-Core Processor AuthenticAMD GNU/Linux
acct-user/sshd: 1 minute, 46 seconds average for 20 merges
2020-05-16T20:48:55 >>> acct-user/sshd: 8 seconds
2020-05-20T01:01:13 >>> acct-user/sshd: 56 seconds
2020-05-21T05:58:25 >>> acct-user/sshd: 6 seconds
2020-05-22T02:04:07 >>> acct-user/sshd: 2 minutes, 49 seconds
2020-05-22T03:16:00 >>> acct-user/sshd: 2 minutes, 2 seconds
2020-05-22T12:35:22 >>> acct-user/sshd: 1 minute, 51 seconds
2020-05-23T03:37:01 >>> acct-user/sshd: 1 minute, 54 seconds
2020-05-24T23:32:54 >>> acct-user/sshd: 5 minutes, 2 seconds
2020-05-25T03:06:07 >>> acct-user/sshd: 55 seconds
2020-05-25T18:22:22 >>> acct-user/sshd: 1 minute, 52 seconds
2020-05-25T19:57:01 >>> acct-user/sshd: 1 minute, 16 seconds
2020-05-26T12:52:52 >>> acct-user/sshd: 3 minutes, 24 seconds
2020-05-26T13:52:04 >>> acct-user/sshd: 52 seconds
2020-05-27T01:31:29 >>> acct-user/sshd: 1 minute, 14 seconds
2020-05-27T03:09:41 >>> acct-user/sshd: 2 minutes, 44 seconds
2020-05-28T13:30:43 >>> acct-user/sshd: 1 minute, 57 seconds
2020-05-28T14:17:32 >>> acct-user/sshd: 55 seconds
2020-05-29T01:39:15 >>> acct-user/sshd: 1 minute, 18 seconds
2020-05-30T12:37:42 >>> acct-user/sshd: 2 minutes, 58 seconds
2020-05-30T21:37:47 >>> acct-user/sshd: 1 minute, 11 seconds
]0;emerge 01:53:02 121|1172 sshd 01:49 (root@ryzen.gnum.org)kemerge 01:53:02 121|1172 sshd 01:49 (root@ryzen.gnum.org)\>>> Unpacking source...
>>> Source unpacked in /tmp/portage/acct-user/sshd-0/work
>>> Preparing source in /tmp/portage/acct-user/sshd-0/work ...
>>> Source prepared.
>>> Configuring source in /tmp/portage/acct-user/sshd-0/work ...
>>> Source configured.
>>> Compiling source in /tmp/portage/acct-user/sshd-0/work ...
>>> Source compiled.
>>> Test phase [not enabled]: acct-user/sshd-0

>>> Install acct-user/sshd-0 into /tmp/portage/acct-user/sshd-0/image
>>> Completed installing acct-user/sshd-0 into /tmp/portage/acct-user/sshd-0/image

 * Final size of build directory:  4 KiB
 * Final size of installed tree:  12 KiB

./
./var/
./var/empty/
./var/empty/.keep_acct-user_sshd-0
>>> Done.
 * checking 1 files for package collisions
>>> Merging acct-user/sshd-0 to /
 * removing unneeded *.la files
--- /var/
--- /var/empty/
>>> /var/empty/.keep_acct-user_sshd-0
>>> Safely unmerging already-installed instance...
>>> Original instance of package unmerged safely.
>>> acct-user/sshd-0 merged.
