 * Package:    acct-group/systemd-journal-remote-0
 * Repository: gentoo
 * Maintainer: systemd@gentoo.org
 * USE:        abi_x86_64 amd64 elibc_glibc kernel_linux userland_GNU
 * FEATURES:   network-sandbox preserve-libs sandbox userpriv usersandbox
 * FEATURES='assume-digests binpkg-docompress binpkg-dostrip binpkg-logs binpkg-multi-instance buildpkg cgroup compress-index config-protect-if-modified distlocks downgrade-backup fixlafiles ipc-sandbox merge-sync multilib-strict network-sandbox news nodoc parallel-fetch parallel-install pid-sandbox preserve-libs qa-unresolved-soname-deps sandbox sfperms strict strict-keepdir unknown-features-warn unmerge-backup unmerge-logs unmerge-orphans userfetch userpriv usersandbox usersync xattr'
 * CFLAGS='-march=native -O3 -fgraphite-identity -floop-nest-optimize -fdevirtualize-at-ltrans -fipa-pta -fno-semantic-interposition -flto=12 -fno-plt -fno-signed-zeros -fno-trapping-math -fassociative-math -freciprocal-math -fno-math-errno -ffinite-math-only -fno-rounding-math -fno-signaling-nans -fcx-limited-range -fexcess-precision=fast -fuse-linker-plugin -pipe -g0 -falign-functions=32 -Wl,-O1 -Wl,--as-needed -Wl,-O4,--hash-style=gnu,--sort-common,--as-needed,-z,relro,-z,now,-lgomp,-lpthread'
 * CXXFLAGS='-march=native -O3 -fgraphite-identity -floop-nest-optimize -fdevirtualize-at-ltrans -fipa-pta -fno-semantic-interposition -flto=12 -fno-plt -fno-signed-zeros -fno-trapping-math -fassociative-math -freciprocal-math -fno-math-errno -ffinite-math-only -fno-rounding-math -fno-signaling-nans -fcx-limited-range -fexcess-precision=fast -fuse-linker-plugin -pipe -g0 -falign-functions=32 -Wl,-O1 -Wl,--as-needed -Wl,-O4,--hash-style=gnu,--sort-common,--as-needed,-z,relro,-z,now,-lgomp,-lpthread'
 * FFLAGS='-march=native -O3 -fgraphite-identity -floop-nest-optimize -fdevirtualize-at-ltrans -fipa-pta -fno-semantic-interposition -flto=12 -fno-plt -fno-signed-zeros -fno-trapping-math -fassociative-math -freciprocal-math -fno-math-errno -ffinite-math-only -fno-rounding-math -fno-signaling-nans -fcx-limited-range -fexcess-precision=fast -fuse-linker-plugin -pipe -g0 -falign-functions=32 -Wl,-O1 -Wl,--as-needed -Wl,-O4,--hash-style=gnu,--sort-common,--as-needed,-z,relro,-z,now,-lgomp,-lpthread'
 * FCFLAGS='-march=native -O3 -fgraphite-identity -floop-nest-optimize -fdevirtualize-at-ltrans -fipa-pta -fno-semantic-interposition -flto=12 -fno-plt -fno-signed-zeros -fno-trapping-math -fassociative-math -freciprocal-math -fno-math-errno -ffinite-math-only -fno-rounding-math -fno-signaling-nans -fcx-limited-range -fexcess-precision=fast -fuse-linker-plugin -pipe -g0 -falign-functions=32 -Wl,-O1 -Wl,--as-needed -Wl,-O4,--hash-style=gnu,--sort-common,--as-needed,-z,relro,-z,now,-lgomp,-lpthread'
 * F77FLAGS='-march=native -O3 -fgraphite-identity -floop-nest-optimize -fdevirtualize-at-ltrans -fipa-pta -fno-semantic-interposition -flto=12 -fno-plt -fno-signed-zeros -fno-trapping-math -fassociative-math -freciprocal-math -fno-math-errno -ffinite-math-only -fno-rounding-math -fno-signaling-nans -fcx-limited-range -fexcess-precision=fast -fuse-linker-plugin -pipe -g0 -falign-functions=32 -Wl,-O1 -Wl,--as-needed -Wl,-O4,--hash-style=gnu,--sort-common,--as-needed,-z,relro,-z,now,-lgomp,-lpthread'
 * LDFLAGS='-Wl,-O1 -Wl,--as-needed -Wl,-O4,--hash-style=gnu,--sort-common,--as-needed,-z,relro,-z,now,-lgomp,-lpthread -march=native -O3 -fgraphite-identity -floop-nest-optimize -fdevirtualize-at-ltrans -fipa-pta -fno-semantic-interposition -flto=12 -fno-plt -fno-signed-zeros -fno-trapping-math -fassociative-math -freciprocal-math -fno-math-errno -ffinite-math-only -fno-rounding-math -fno-signaling-nans -fcx-limited-range -fexcess-precision=fast -fuse-linker-plugin -pipe -g0 -falign-functions=32'
 * MAKEOPTS='-j12 -l12'
 * gcc () 11.0.0 20200526 (experimental)
 * g++ () 11.0.0 20200526 (experimental)
 * GNU ld (Gentoo 2.34 p4) 2.34.0
 * Linux ryzen.gnum.org 5.4.36 #1 SMP Thu Apr 30 04:38:28 UTC 2020 x86_64 AMD Ryzen 5 3600 6-Core Processor AuthenticAMD GNU/Linux
acct-group/systemd-journal-remote: 5 minutes, 1 second average for 15 merges
2020-05-16T14:43:47 >>> acct-group/systemd-journal-remote: 6 seconds
2020-05-16T20:42:37 >>> acct-group/systemd-journal-remote: 8 seconds
2020-05-20T00:56:21 >>> acct-group/systemd-journal-remote: 4 minutes, 34 seconds
2020-05-21T05:51:58 >>> acct-group/systemd-journal-remote: 6 seconds
2020-05-22T01:55:49 >>> acct-group/systemd-journal-remote: 7 minutes, 27 seconds
2020-05-22T03:07:11 >>> acct-group/systemd-journal-remote: 8 minutes, 1 second
2020-05-22T12:26:40 >>> acct-group/systemd-journal-remote: 7 minutes, 50 seconds
2020-05-23T03:28:45 >>> acct-group/systemd-journal-remote: 7 minutes, 25 seconds
2020-05-24T23:22:05 >>> acct-group/systemd-journal-remote: 9 minutes, 22 seconds
2020-05-25T03:01:45 >>> acct-group/systemd-journal-remote: 3 minutes, 28 seconds
2020-05-25T18:15:03 >>> acct-group/systemd-journal-remote: 6 minutes, 44 seconds
2020-05-25T19:51:18 >>> acct-group/systemd-journal-remote: 4 minutes, 26 seconds
2020-05-26T12:50:14 >>> acct-group/systemd-journal-remote: 5 minutes, 18 seconds
2020-05-26T13:46:33 >>> acct-group/systemd-journal-remote: 4 minutes, 58 seconds
2020-05-27T01:24:19 >>> acct-group/systemd-journal-remote: 5 minutes, 31 seconds
]0;emerge 03:01:24 59|980 systemd-journal-remote 05:16 (root@ryzen.gnum.org)kemerge 03:01:24 59|980 systemd-journal-remote 05:16 (root@ryzen.gnum.org)\>>> Unpacking source...
>>> Source unpacked in /tmp/portage/acct-group/systemd-journal-remote-0/work
>>> Preparing source in /tmp/portage/acct-group/systemd-journal-remote-0/work ...
>>> Source prepared.
>>> Configuring source in /tmp/portage/acct-group/systemd-journal-remote-0/work ...
>>> Source configured.
>>> Compiling source in /tmp/portage/acct-group/systemd-journal-remote-0/work ...
>>> Source compiled.
>>> Test phase [not enabled]: acct-group/systemd-journal-remote-0

>>> Install acct-group/systemd-journal-remote-0 into /tmp/portage/acct-group/systemd-journal-remote-0/image
>>> Completed installing acct-group/systemd-journal-remote-0 into /tmp/portage/acct-group/systemd-journal-remote-0/image

 * Final size of build directory: 4 KiB
 * Final size of installed tree:  4 KiB

./
>>> Done.
 * checking 0 files for package collisions
>>> Merging acct-group/systemd-journal-remote-0 to /
 * removing unneeded *.la files
>>> Safely unmerging already-installed instance...
>>> Original instance of package unmerged safely.
>>> acct-group/systemd-journal-remote-0 merged.
