>>> Extracting info
 * Package:    acct-group/systemd-resolve-0
 * Repository: gentoo
 * USE:        abi_x86_64 userland_GNU amd64 kernel_linux elibc_glibc
 * FEATURES:   network-sandbox preserve-libs sandbox userpriv usersandbox
 * FEATURES='assume-digests binpkg-docompress binpkg-dostrip binpkg-logs binpkg-multi-instance buildpkg cgroup compress-index config-protect-if-modified distlocks downgrade-backup fixlafiles ipc-sandbox merge-sync multilib-strict network-sandbox news nodoc parallel-fetch parallel-install pid-sandbox preserve-libs qa-unresolved-soname-deps sandbox sfperms strict strict-keepdir unknown-features-warn unmerge-backup unmerge-logs unmerge-orphans userfetch userpriv usersandbox usersync xattr'
 * CFLAGS='-march=native -O3 -fgraphite-identity -floop-nest-optimize -fdevirtualize-at-ltrans -fipa-pta -fno-semantic-interposition -flto=12 -fno-plt -fno-math-errno -fno-trapping-math -fuse-linker-plugin -pipe -g0 -falign-functions=32 -Wl,-O1 -Wl,--as-needed -Wl,--hash-style=gnu,-z,norelro,--as-needed'
 * CXXFLAGS='-march=native -O3 -fgraphite-identity -floop-nest-optimize -fdevirtualize-at-ltrans -fipa-pta -fno-semantic-interposition -flto=12 -fno-plt -fno-math-errno -fno-trapping-math -fuse-linker-plugin -pipe -g0 -falign-functions=32 -Wl,-O1 -Wl,--as-needed -Wl,--hash-style=gnu,-z,norelro,--as-needed'
 * FFLAGS='-march=native -O3 -fgraphite-identity -floop-nest-optimize -fdevirtualize-at-ltrans -fipa-pta -fno-semantic-interposition -flto=12 -fno-plt -fno-math-errno -fno-trapping-math -fuse-linker-plugin -pipe -g0 -falign-functions=32 -Wl,-O1 -Wl,--as-needed -Wl,--hash-style=gnu,-z,norelro,--as-needed'
 * FCFLAGS='-march=native -O3 -fgraphite-identity -floop-nest-optimize -fdevirtualize-at-ltrans -fipa-pta -fno-semantic-interposition -flto=12 -fno-plt -fno-math-errno -fno-trapping-math -fuse-linker-plugin -pipe -g0 -falign-functions=32 -Wl,-O1 -Wl,--as-needed -Wl,--hash-style=gnu,-z,norelro,--as-needed'
 * F77FLAGS='-march=native -O3 -fgraphite-identity -floop-nest-optimize -fdevirtualize-at-ltrans -fipa-pta -fno-semantic-interposition -flto=12 -fno-plt -fno-math-errno -fno-trapping-math -fuse-linker-plugin -pipe -g0 -falign-functions=32 -Wl,-O1 -Wl,--as-needed -Wl,--hash-style=gnu,-z,norelro,--as-needed'
 * LDFLAGS='-Wl,-O1 -Wl,--as-needed -Wl,--hash-style=gnu,-z,norelro,--as-needed -march=native -O3 -fgraphite-identity -floop-nest-optimize -fdevirtualize-at-ltrans -fipa-pta -fno-semantic-interposition -flto=12 -fno-plt -fno-math-errno -fno-trapping-math -fuse-linker-plugin -pipe -g0 -falign-functions=32'
 * MAKEOPTS='-j12 -l12'
 * gcc () 11.0.0 20200526 (experimental)
 * g++ () 11.0.0 20200526 (experimental)
 * GNU ld (Gentoo 2.34 p4) 2.34.0
 * Linux ryzen.gnum.org 5.4.36 #1 SMP Thu Apr 30 04:38:28 UTC 2020 x86_64 AMD Ryzen 5 3600 6-Core Processor AuthenticAMD GNU/Linux
acct-group/systemd-resolve: 4 minutes, 55 seconds average for 14 merges
2020-05-16T14:43:32 >>> acct-group/systemd-resolve: 5 seconds
2020-05-16T20:42:13 >>> acct-group/systemd-resolve: 8 seconds
2020-05-20T00:56:18 >>> acct-group/systemd-resolve: 4 minutes, 23 seconds
2020-05-21T05:51:41 >>> acct-group/systemd-resolve: 6 seconds
2020-05-22T01:55:41 >>> acct-group/systemd-resolve: 7 minutes, 23 seconds
2020-05-22T03:07:02 >>> acct-group/systemd-resolve: 7 minutes, 58 seconds
2020-05-22T12:26:32 >>> acct-group/systemd-resolve: 7 minutes, 46 seconds
2020-05-23T03:28:37 >>> acct-group/systemd-resolve: 7 minutes, 21 seconds
2020-05-24T23:21:58 >>> acct-group/systemd-resolve: 9 minutes, 18 seconds
2020-05-25T03:01:43 >>> acct-group/systemd-resolve: 3 minutes, 18 seconds
2020-05-25T18:14:53 >>> acct-group/systemd-resolve: 6 minutes, 43 seconds
2020-05-25T19:51:06 >>> acct-group/systemd-resolve: 4 minutes, 28 seconds
2020-05-26T12:50:10 >>> acct-group/systemd-resolve: 5 minutes, 12 seconds
2020-05-26T13:46:30 >>> acct-group/systemd-resolve: 4 minutes, 50 seconds
]0;emerge 01:24:18 50|647 systemd-resolve 04:50 (root@ryzen.gnum.org)kemerge 01:24:18 50|647 systemd-resolve 04:50 (root@ryzen.gnum.org)\>>> Extracting acct-group/systemd-resolve-0
 * checking 0 files for package collisions
[32;01m * [39;49;00mBuilding package for acct-group/systemd-resolve-0 ...                 [34;01m[ [39;49;00m[32;01mok[39;49;00m[34;01m ][39;49;00m
[32;01m * [39;49;00mPackages now in '/usr/portage/packages':
[32;01m * [39;49;00macct-group/systemd-resolve-0: 22.6K

>>> Merging acct-group/systemd-resolve-0 to /
 * removing unneeded *.la files
>>> Safely unmerging already-installed instance...
>>> Original instance of package unmerged safely.
>>> acct-group/systemd-resolve-0 merged.
