No package files given... Grabbing a set.
--- replaced obj /var/lib/syncthing/.keep_acct-user_syncthing-0
--- replaced dir /var/lib/syncthing
--- replaced dir /var/lib
--- replaced dir /var
>>> Regenerating /etc/ld.so.cache...
