 * Package:    acct-user/mail-0
 * Repository: gentoo
 * Maintainer: eras@gentoo.org
 * USE:        abi_x86_64 amd64 elibc_glibc kernel_linux userland_GNU
 * FEATURES:   ccache network-sandbox preserve-libs sandbox userpriv usersandbox
 * FEATURES='assume-digests binpkg-docompress binpkg-dostrip binpkg-logs buildpkg ccache cgroup compress-index config-protect-if-modified distlocks ebuild-locks fixlafiles ipc-sandbox merge-sync multilib-strict network-sandbox news nodoc parallel-fetch pid-sandbox preserve-libs qa-unresolved-soname-deps sandbox sfperms strict strict-keepdir unknown-features-warn unmerge-logs unmerge-orphans userfetch userpriv usersandbox usersync xattr'
 * CFLAGS='-march=znver2 -O2 -pipe -g0 -falign-functions=32 -fno-stack-protector -fno-stack-clash-protection -fstack-check=no -fno-stack-check -Wl,-O1,--sort-common,--as-needed,-z,norelro,-z,now'
 * CXXFLAGS='-march=znver2 -O2 -pipe -g0 -falign-functions=32 -fno-stack-protector -fno-stack-clash-protection -fstack-check=no -fno-stack-check -Wl,-O1,--sort-common,--as-needed,-z,norelro,-z,now'
 * FFLAGS='-march=znver2 -O2 -pipe -g0 -falign-functions=32 -fno-stack-protector -fno-stack-clash-protection -fstack-check=no -fno-stack-check -Wl,-O1,--sort-common,--as-needed,-z,norelro,-z,now'
 * FCFLAGS='-march=znver2 -O2 -pipe -g0 -falign-functions=32 -fno-stack-protector -fno-stack-clash-protection -fstack-check=no -fno-stack-check -Wl,-O1,--sort-common,--as-needed,-z,norelro,-z,now'
 * F77FLAGS='-march=znver2 -O2 -pipe -g0 -falign-functions=32 -fno-stack-protector -fno-stack-clash-protection -fstack-check=no -fno-stack-check -Wl,-O1,--sort-common,--as-needed,-z,norelro,-z,now'
 * LDFLAGS='-Wl,-O1,--sort-common,--as-needed,-z,norelro,-z,now'
 * MAKEOPTS='-j12 -l12'
 * gcc (Gentoo 11.0.0_pre9999 p1, commit 184c21bf1cd04a108ed9bd04635e7d57ac39f616) 11.0.0 20200611 (experimental)
 * g++ (Gentoo 11.0.0_pre9999 p1, commit 184c21bf1cd04a108ed9bd04635e7d57ac39f616) 11.0.0 20200611 (experimental)
 * GNU ld (Gentoo 2.34 p4) 2.34.0
 * Linux rescue 5.4.36 #1 SMP Thu Apr 30 04:38:28 UTC 2020 x86_64 AMD Ryzen 5 3600 6-Core Processor AuthenticAMD GNU/Linux
acct-user/mail: 1 minute, 51 seconds average for 26 merges
2020-05-16T15:26:40 >>> acct-user/mail: 6 seconds
2020-05-16T20:49:10 >>> acct-user/mail: 8 seconds
2020-05-20T00:56:52 >>> acct-user/mail: 12 seconds
2020-05-20T07:31:45 >>> acct-user/mail: 4 seconds
2020-05-21T05:58:36 >>> acct-user/mail: 5 seconds
2020-05-22T02:04:11 >>> acct-user/mail: 2 minutes, 58 seconds
2020-05-22T03:16:04 >>> acct-user/mail: 2 minutes, 6 seconds
2020-05-22T12:35:23 >>> acct-user/mail: 1 minute, 58 seconds
2020-05-23T03:37:02 >>> acct-user/mail: 2 minutes, 2 seconds
2020-05-24T23:32:52 >>> acct-user/mail: 5 minutes
2020-05-25T03:06:06 >>> acct-user/mail: 48 seconds
2020-05-25T18:22:23 >>> acct-user/mail: 1 minute, 54 seconds
2020-05-25T19:56:58 >>> acct-user/mail: 1 minute, 12 seconds
2020-05-26T12:52:55 >>> acct-user/mail: 3 minutes, 24 seconds
2020-05-26T13:52:05 >>> acct-user/mail: 55 seconds
2020-05-27T01:31:28 >>> acct-user/mail: 1 minute, 4 seconds
2020-05-27T03:09:41 >>> acct-user/mail: 2 minutes, 47 seconds
2020-05-28T13:30:43 >>> acct-user/mail: 2 minutes, 1 second
2020-05-28T14:17:32 >>> acct-user/mail: 59 seconds
2020-05-29T01:39:14 >>> acct-user/mail: 1 minute, 7 seconds
2020-05-30T12:31:32 >>> acct-user/mail: 24 seconds
2020-05-30T21:33:10 >>> acct-user/mail: 15 seconds
2020-06-01T01:52:56 >>> acct-user/mail: 1 minute, 59 seconds
2020-06-04T12:09:18 >>> acct-user/mail: 11 minutes, 51 seconds
2020-06-13T03:22:59 >>> acct-user/mail: 1 minute, 12 seconds
2020-06-13T19:57:56 >>> acct-user/mail: 1 minute, 41 seconds
]0;emerge 04:37:16 106|887 mail 04:55 (root@rescue)>>> Unpacking source...
>>> Source unpacked in /tmp/portage/acct-user/mail-0/work
>>> Preparing source in /tmp/portage/acct-user/mail-0/work ...
>>> Source prepared.
>>> Configuring source in /tmp/portage/acct-user/mail-0/work ...
>>> Source configured.
>>> Compiling source in /tmp/portage/acct-user/mail-0/work ...
>>> Source compiled.
>>> Test phase [not enabled]: acct-user/mail-0

>>> Install acct-user/mail-0 into /tmp/portage/acct-user/mail-0/image
>>> Completed installing acct-user/mail-0 into /tmp/portage/acct-user/mail-0/image

 * Final size of build directory:  4 KiB
 * Final size of installed tree:  16 KiB

Parallel BZIP2 v1.1.13 [Dec 18, 2015]
By: Jeff Gilchrist [http://compression.ca]
Major contributions: Yavor Nikolov [http://javornikolov.wordpress.com]
Uses libbzip2 by Julian Seward

         # CPUs: 7
   Load Average: 5.43
 BWT Block Size: 200 KB
File Block Size: 900 KB
 Maximum Memory: 1024 MB
-------------------------------------------
         File #: 1 of 1
     Input Name: compressme
    Output Name: compressme.bz2

     Input Size: 3895 bytes
Compressing data (no threads)...
Completed: 100%                 Output Size: 918 bytes
-------------------------------------------

     Wall Clock: 0.001007 seconds
./
./var/
./var/spool/
./var/spool/mail/
./var/spool/mail/.keep_acct-user_mail-0
>>> Done.
 * checking 1 files for package collisions
>>> Merging acct-user/mail-0 to /
 * removing unneeded *.la files
--- /var/
--- /var/spool/
--- /var/spool/mail/
>>> /var/spool/mail/.keep_acct-user_mail-0
>>> Safely unmerging already-installed instance...
!!! File Not Found: '/etc/env.d/99lcdfilter'
>>> Original instance of package unmerged safely.
>>> acct-user/mail-0 merged.
!!! File Not Found: '/etc/env.d/99lcdfilter'
