>>> Extracting info
[32;01m * [39;49;00mPackage:    acct-group/disk-0
[32;01m * [39;49;00mRepository: gentoo
[32;01m * [39;49;00mUSE:        kernel_linux abi_x86_64 elibc_glibc amd64 userland_GNU
[32;01m * [39;49;00mFEATURES:   preserve-libs
 [32;01m*[0m /etc/portage/package.cflags/ltoworkarounds.conf -> */*: *FLAGS+=-Wl,-O4 *FLAGS-=-Wl,-O1
 [32;01m*[0m FEATURES='assume-digests binpkg-dostrip binpkg-logs config-protect-if-modified distlocks ebuild-locks fixlafiles merge-sync multilib-strict news nodoc parallel-fetch preserve-libs qa-unresolved-soname-deps sfperms strict strict-keepdir unknown-features-warn unmerge-logs unmerge-orphans xattr'
 [32;01m*[0m CFLAGS='-march=znver2 -O2 -pipe -g0 -fno-semantic-interposition -fno-plt -falign-functions=32 -fno-stack-protector -fno-stack-clash-protection -fstack-check=no -fno-stack-check -Wl,-O4 -Wl,-O4,--sort-common,--as-needed,-z,norelro,-z,now'
 [32;01m*[0m CXXFLAGS='-march=znver2 -O2 -pipe -g0 -fno-semantic-interposition -fno-plt -falign-functions=32 -fno-stack-protector -fno-stack-clash-protection -fstack-check=no -fno-stack-check -Wl,-O4 -Wl,-O4,--sort-common,--as-needed,-z,norelro,-z,now'
 [32;01m*[0m FFLAGS='-march=znver2 -O2 -pipe -g0 -fno-semantic-interposition -fno-plt -falign-functions=32 -fno-stack-protector -fno-stack-clash-protection -fstack-check=no -fno-stack-check -Wl,-O4 -Wl,-O4,--sort-common,--as-needed,-z,norelro,-z,now'
 [32;01m*[0m FCFLAGS='-march=znver2 -O2 -pipe -g0 -fno-semantic-interposition -fno-plt -falign-functions=32 -fno-stack-protector -fno-stack-clash-protection -fstack-check=no -fno-stack-check -Wl,-O4 -Wl,-O4,--sort-common,--as-needed,-z,norelro,-z,now'
 [32;01m*[0m F77FLAGS='-march=znver2 -O2 -pipe -g0 -fno-semantic-interposition -fno-plt -falign-functions=32 -fno-stack-protector -fno-stack-clash-protection -fstack-check=no -fno-stack-check -Wl,-O4 -Wl,-O4,--sort-common,--as-needed,-z,norelro,-z,now'
 [32;01m*[0m LDFLAGS='-Wl,-O4,--sort-common,--as-needed,-z,norelro,-z,now'
 [32;01m*[0m MAKEOPTS='-j12 -l12'
 [32;01m*[0m gcc () 11.0.0 20200606 (experimental)
 [32;01m*[0m g++ () 11.0.0 20200606 (experimental)
 [32;01m*[0m GNU ld (Gentoo 2.34 p4) 2.34.0
 [32;01m*[0m Linux rescue 5.4.36 #1 SMP Thu Apr 30 04:38:28 UTC 2020 x86_64 AMD Ryzen 5 3600 6-Core Processor AuthenticAMD GNU/Linux
[00;01macct-group/[00;00m[36;01mdisk[00;00m: [32;01m5[00;00m minutes, [32;01m51[00;00m seconds average for [32;01m23[00;00m merges
2020-05-16T14:43:11 >>> [00;01macct-group/[00;00m[36;01mdisk[00;00m: [32;01m5[00;00m seconds
2020-05-16T20:41:04 >>> [00;01macct-group/[00;00m[36;01mdisk[00;00m: [32;01m7[00;00m seconds
2020-05-20T00:56:13 >>> [00;01macct-group/[00;00m[36;01mdisk[00;00m: [32;01m3[00;00m minutes, [32;01m56[00;00m seconds
2020-05-21T05:51:12 >>> [00;01macct-group/[00;00m[36;01mdisk[00;00m: [32;01m6[00;00m seconds
2020-05-22T01:55:27 >>> [00;01macct-group/[00;00m[36;01mdisk[00;00m: [32;01m7[00;00m minutes, [32;01m12[00;00m seconds
2020-05-22T03:06:47 >>> [00;01macct-group/[00;00m[36;01mdisk[00;00m: [32;01m7[00;00m minutes, [32;01m48[00;00m seconds
2020-05-22T12:26:18 >>> [00;01macct-group/[00;00m[36;01mdisk[00;00m: [32;01m7[00;00m minutes, [32;01m35[00;00m seconds
2020-05-23T03:28:23 >>> [00;01macct-group/[00;00m[36;01mdisk[00;00m: [32;01m7[00;00m minutes, [32;01m15[00;00m seconds
2020-05-24T23:21:37 >>> [00;01macct-group/[00;00m[36;01mdisk[00;00m: [32;01m9[00;00m minutes, [32;01m12[00;00m seconds
2020-05-25T03:01:37 >>> [00;01macct-group/[00;00m[36;01mdisk[00;00m: [32;01m2[00;00m minutes, [32;01m58[00;00m seconds
2020-05-25T18:14:28 >>> [00;01macct-group/[00;00m[36;01mdisk[00;00m: [32;01m6[00;00m minutes, [32;01m47[00;00m seconds
2020-05-25T19:50:41 >>> [00;01macct-group/[00;00m[36;01mdisk[00;00m: [32;01m4[00;00m minutes, [32;01m28[00;00m seconds
2020-05-26T12:49:59 >>> [00;01macct-group/[00;00m[36;01mdisk[00;00m: [32;01m5[00;00m minutes, [32;01m1[00;00m second
2020-05-26T13:46:25 >>> [00;01macct-group/[00;00m[36;01mdisk[00;00m: [32;01m4[00;00m minutes, [32;01m33[00;00m seconds
2020-05-27T01:24:11 >>> [00;01macct-group/[00;00m[36;01mdisk[00;00m: [32;01m4[00;00m minutes, [32;01m41[00;00m seconds
2020-05-27T03:00:51 >>> [00;01macct-group/[00;00m[36;01mdisk[00;00m: [32;01m7[00;00m minutes, [32;01m41[00;00m seconds
2020-05-28T13:22:25 >>> [00;01macct-group/[00;00m[36;01mdisk[00;00m: [32;01m7[00;00m minutes, [32;01m13[00;00m seconds
2020-05-28T14:11:37 >>> [00;01macct-group/[00;00m[36;01mdisk[00;00m: [32;01m4[00;00m minutes, [32;01m39[00;00m seconds
2020-05-29T01:31:45 >>> [00;01macct-group/[00;00m[36;01mdisk[00;00m: [32;01m4[00;00m minutes, [32;01m33[00;00m seconds
2020-05-30T12:27:07 >>> [00;01macct-group/[00;00m[36;01mdisk[00;00m: [32;01m9[00;00m minutes, [32;01m14[00;00m seconds
2020-05-30T21:32:09 >>> [00;01macct-group/[00;00m[36;01mdisk[00;00m: [32;01m4[00;00m minutes, [32;01m26[00;00m seconds
2020-06-01T01:44:27 >>> [00;01macct-group/[00;00m[36;01mdisk[00;00m: [32;01m7[00;00m minutes, [32;01m19[00;00m seconds
2020-06-04T11:50:04 >>> [00;01macct-group/[00;00m[36;01mdisk[00;00m: [32;01m17[00;00m minutes, [32;01m53[00;00m seconds
]0;emerge 01:19:52 36|664 disk 09:53 (root@rescue)>>> Extracting acct-group/disk-0
 [32;01m*[39;49;00m checking 0 files for package collisions
>>> Merging acct-group/disk-0 to /
 [32;01m*[0m removing unneeded *.la files
>>> Safely unmerging already-installed instance...
No package files given... Grabbing a set.
>>> Regenerating /etc/ld.so.cache...
>>> Original instance of package unmerged safely.
>>> acct-group/disk-0 merged.
