[32;01m * [39;49;00mPackage:    acct-user/avahi-0
[32;01m * [39;49;00mRepository: gentoo
[32;01m * [39;49;00mUSE:        elibc_glibc amd64 userland_GNU kernel_linux abi_x86_64
[32;01m * [39;49;00mFEATURES:   preserve-libs
