>>> Extracting info
 * Package:    acct-group/ftp-0
 * Repository: gentoo
 * USE:        amd64 userland_GNU abi_x86_64 elibc_glibc kernel_linux
 * FEATURES:   ccache preserve-libs userpriv
 * FEATURES='assume-digests binpkg-docompress binpkg-dostrip binpkg-logs buildpkg ccache cgroup compress-index config-protect-if-modified distlocks ebuild-locks fixlafiles merge-sync multilib-strict news nodoc parallel-fetch preserve-libs qa-unresolved-soname-deps sfperms strict strict-keepdir unknown-features-warn unmerge-logs unmerge-orphans userfetch userpriv usersync xattr'
 * CFLAGS='-O2 -pipe -Wl,-O1,--sort-common,--as-needed,-z,norelro,-z,now'
 * CXXFLAGS='-O2 -pipe -Wl,-O1,--sort-common,--as-needed,-z,norelro,-z,now'
 * FFLAGS='-O2 -pipe -Wl,-O1,--sort-common,--as-needed,-z,norelro,-z,now'
 * FCFLAGS='-O2 -pipe -Wl,-O1,--sort-common,--as-needed,-z,norelro,-z,now'
 * F77FLAGS='-O2 -pipe -Wl,-O1,--sort-common,--as-needed,-z,norelro,-z,now'
 * LDFLAGS='-Wl,-O1,--sort-common,--as-needed,-z,norelro,-z,now'
 * MAKEOPTS='-j12 -l12'
 * gcc (Gentoo 11.0.0_pre9999 p1, commit 184c21bf1cd04a108ed9bd04635e7d57ac39f616) 11.0.0 20200611 (experimental)
 * g++ (Gentoo 11.0.0_pre9999 p1, commit 184c21bf1cd04a108ed9bd04635e7d57ac39f616) 11.0.0 20200611 (experimental)
 * GNU ld (Gentoo 2.34 p4) 2.34.0
 * Linux rescue 5.4.36 #1 SMP Thu Apr 30 04:38:28 UTC 2020 x86_64 AMD Ryzen 5 3600 6-Core Processor AuthenticAMD GNU/Linux
acct-group/ftp: 18 seconds average for 17 merges
2020-05-20T07:30:27 >>> acct-group/ftp: 16 seconds
2020-05-21T05:53:51 >>> acct-group/ftp: 5 seconds
2020-05-22T01:56:29 >>> acct-group/ftp: 17 seconds
2020-05-22T03:08:00 >>> acct-group/ftp: 15 seconds
2020-05-22T12:27:20 >>> acct-group/ftp: 19 seconds
2020-05-23T03:29:23 >>> acct-group/ftp: 17 seconds
2020-05-25T18:15:55 >>> acct-group/ftp: 13 seconds
2020-05-26T12:50:47 >>> acct-group/ftp: 15 seconds
2020-05-26T13:46:48 >>> acct-group/ftp: 11 seconds
2020-05-27T03:02:10 >>> acct-group/ftp: 20 seconds
2020-05-28T13:23:46 >>> acct-group/ftp: 15 seconds
2020-05-28T14:12:06 >>> acct-group/ftp: 15 seconds
2020-05-30T12:29:11 >>> acct-group/ftp: 26 seconds
2020-05-30T21:32:39 >>> acct-group/ftp: 14 seconds
2020-06-01T01:45:25 >>> acct-group/ftp: 21 seconds
2020-06-04T11:58:31 >>> acct-group/ftp: 17 seconds
2020-06-13T03:21:45 >>> acct-group/ftp: 1 minute, 6 seconds
]0;emerge 19:55:34 63|882 ftp 00:35 (root@rescue)>>> Extracting acct-group/ftp-0
 * checking 0 files for package collisions
>>> Merging acct-group/ftp-0 to /
 * removing unneeded *.la files
>>> Safely unmerging already-installed instance...
>>> Original instance of package unmerged safely.
>>> acct-group/ftp-0 merged.
