 * Package:    app-arch/bzip2-1.0.8-r1
 * Repository: gentoo
 * Maintainer: base-system@gentoo.org
 * USE:        abi_x86_64 amd64 elibc_glibc kernel_linux split-usr userland_GNU
 * FEATURES:   network-sandbox preserve-libs sandbox userpriv usersandbox
 * FEATURES='assume-digests binpkg-docompress binpkg-dostrip binpkg-logs binpkg-multi-instance buildpkg cgroup compress-index config-protect-if-modified distlocks downgrade-backup fixlafiles ipc-sandbox merge-sync multilib-strict network-sandbox news nodoc parallel-fetch parallel-install pid-sandbox preserve-libs qa-unresolved-soname-deps sandbox sfperms strict unknown-features-warn unmerge-backup unmerge-logs unmerge-orphans userfetch userpriv usersandbox usersync xattr'
 * CFLAGS='-march=znver2 -O3 -fgraphite-identity -floop-nest-optimize -fdevirtualize-at-ltrans -fipa-pta -fno-semantic-interposition -flto=12 -fno-plt -fno-signed-zeros -fno-trapping-math -fassociative-math -freciprocal-math -fno-math-errno -ffinite-math-only -fno-rounding-math -fno-signaling-nans -fcx-limited-range -fexcess-precision=fast -falign-functions=32 -fno-stack-protector -fno-stack-clash-protection -fstack-check=no -fno-stack-check -fbranch-target-load-optimize2 -freschedule-modulo-scheduled-loops -fsched-pressure -fsched-spec-load -fsched-stalled-insns=0 -fsched2-use-superblocks -fselective-scheduling -fselective-scheduling2 -fsel-sched-pipelining -fsel-sched-pipelining-outer-loops -fuse-linker-plugin -pipe -g0 -Wl,-O1 -Wl,--as-needed -Wl,--sort-common -s -Wl,-lpthread -Wl,-lgomp -Wl,-z,norelro -Wl,-z,now'
 * CXXFLAGS='-march=znver2 -O3 -fgraphite-identity -floop-nest-optimize -fdevirtualize-at-ltrans -fipa-pta -fno-semantic-interposition -flto=12 -fno-plt -fno-signed-zeros -fno-trapping-math -fassociative-math -freciprocal-math -fno-math-errno -ffinite-math-only -fno-rounding-math -fno-signaling-nans -fcx-limited-range -fexcess-precision=fast -falign-functions=32 -fno-stack-protector -fno-stack-clash-protection -fstack-check=no -fno-stack-check -fbranch-target-load-optimize2 -freschedule-modulo-scheduled-loops -fsched-pressure -fsched-spec-load -fsched-stalled-insns=0 -fsched2-use-superblocks -fselective-scheduling -fselective-scheduling2 -fsel-sched-pipelining -fsel-sched-pipelining-outer-loops -fuse-linker-plugin -pipe -g0 -Wl,-O1 -Wl,--as-needed -Wl,--sort-common -s -Wl,-lpthread -Wl,-lgomp -Wl,-z,norelro -Wl,-z,now'
 * FFLAGS='-march=znver2 -O3 -fgraphite-identity -floop-nest-optimize -fdevirtualize-at-ltrans -fipa-pta -fno-semantic-interposition -flto=12 -fno-plt -fno-signed-zeros -fno-trapping-math -fassociative-math -freciprocal-math -fno-math-errno -ffinite-math-only -fno-rounding-math -fno-signaling-nans -fcx-limited-range -fexcess-precision=fast -falign-functions=32 -fno-stack-protector -fno-stack-clash-protection -fstack-check=no -fno-stack-check -fbranch-target-load-optimize2 -freschedule-modulo-scheduled-loops -fsched-pressure -fsched-spec-load -fsched-stalled-insns=0 -fsched2-use-superblocks -fselective-scheduling -fselective-scheduling2 -fsel-sched-pipelining -fsel-sched-pipelining-outer-loops -fuse-linker-plugin -pipe -g0 -Wl,-O1 -Wl,--as-needed -Wl,--sort-common -s -Wl,-lpthread -Wl,-lgomp -Wl,-z,norelro -Wl,-z,now'
 * FCFLAGS='-march=znver2 -O3 -fgraphite-identity -floop-nest-optimize -fdevirtualize-at-ltrans -fipa-pta -fno-semantic-interposition -flto=12 -fno-plt -fno-signed-zeros -fno-trapping-math -fassociative-math -freciprocal-math -fno-math-errno -ffinite-math-only -fno-rounding-math -fno-signaling-nans -fcx-limited-range -fexcess-precision=fast -falign-functions=32 -fno-stack-protector -fno-stack-clash-protection -fstack-check=no -fno-stack-check -fbranch-target-load-optimize2 -freschedule-modulo-scheduled-loops -fsched-pressure -fsched-spec-load -fsched-stalled-insns=0 -fsched2-use-superblocks -fselective-scheduling -fselective-scheduling2 -fsel-sched-pipelining -fsel-sched-pipelining-outer-loops -fuse-linker-plugin -pipe -g0 -Wl,-O1 -Wl,--as-needed -Wl,--sort-common -s -Wl,-lpthread -Wl,-lgomp -Wl,-z,norelro -Wl,-z,now'
 * F77FLAGS='-march=znver2 -O3 -fgraphite-identity -floop-nest-optimize -fdevirtualize-at-ltrans -fipa-pta -fno-semantic-interposition -flto=12 -fno-plt -fno-signed-zeros -fno-trapping-math -fassociative-math -freciprocal-math -fno-math-errno -ffinite-math-only -fno-rounding-math -fno-signaling-nans -fcx-limited-range -fexcess-precision=fast -falign-functions=32 -fno-stack-protector -fno-stack-clash-protection -fstack-check=no -fno-stack-check -fbranch-target-load-optimize2 -freschedule-modulo-scheduled-loops -fsched-pressure -fsched-spec-load -fsched-stalled-insns=0 -fsched2-use-superblocks -fselective-scheduling -fselective-scheduling2 -fsel-sched-pipelining -fsel-sched-pipelining-outer-loops -fuse-linker-plugin -pipe -g0 -Wl,-O1 -Wl,--as-needed -Wl,--sort-common -s -Wl,-lpthread -Wl,-lgomp -Wl,-z,norelro -Wl,-z,now'
 * LDFLAGS='-Wl,-O1 -Wl,--as-needed -Wl,--sort-common -s -Wl,-lpthread -Wl,-lgomp -Wl,-z,norelro -Wl,-z,now -march=znver2 -O3 -fgraphite-identity -floop-nest-optimize -fdevirtualize-at-ltrans -fipa-pta -fno-semantic-interposition -flto=12 -fno-plt -fno-signed-zeros -fno-trapping-math -fassociative-math -freciprocal-math -fno-math-errno -ffinite-math-only -fno-rounding-math -fno-signaling-nans -fcx-limited-range -fexcess-precision=fast -falign-functions=32 -fno-stack-protector -fno-stack-clash-protection -fstack-check=no -fno-stack-check -fbranch-target-load-optimize2 -freschedule-modulo-scheduled-loops -fsched-pressure -fsched-spec-load -fsched-stalled-insns=0 -fsched2-use-superblocks -fselective-scheduling -fselective-scheduling2 -fsel-sched-pipelining -fsel-sched-pipelining-outer-loops -fuse-linker-plugin -pipe -g0'
 * MAKEOPTS='-j12 -l12'
 * gcc () 11.0.0 20200528 (experimental)
 * g++ () 11.0.0 20200528 (experimental)
 * GNU ld (Gentoo 2.34 p4) 2.34.0
 * Linux ryzen.gnum.org 5.4.36 #1 SMP Thu Apr 30 04:38:28 UTC 2020 x86_64 AMD Ryzen 5 3600 6-Core Processor AuthenticAMD GNU/Linux
app-arch/bzip2: 4 minutes, 22 seconds average for 19 merges
2020-05-16T20:32:27 >>> app-arch/bzip2: 12 seconds
2020-05-20T00:55:54 >>> app-arch/bzip2: 1 minute, 29 seconds
2020-05-21T05:45:41 >>> app-arch/bzip2: 6 seconds
2020-05-22T01:52:47 >>> app-arch/bzip2: 6 minutes
2020-05-22T02:39:05 >>> app-arch/bzip2: 2 minutes, 35 seconds
2020-05-22T02:58:42 >>> app-arch/bzip2: 2 minutes, 19 seconds
2020-05-22T03:03:53 >>> app-arch/bzip2: 6 minutes, 51 seconds
2020-05-22T12:23:36 >>> app-arch/bzip2: 6 minutes, 37 seconds
2020-05-23T03:25:18 >>> app-arch/bzip2: 6 minutes, 40 seconds
2020-05-24T22:34:16 >>> app-arch/bzip2: 8 minutes, 14 seconds
2020-05-24T23:19:25 >>> app-arch/bzip2: 9 minutes, 12 seconds
2020-05-25T03:01:16 >>> app-arch/bzip2: 1 minute, 9 seconds
2020-05-25T14:37:18 >>> app-arch/bzip2: 3 minutes, 30 seconds
2020-05-25T18:11:14 >>> app-arch/bzip2: 7 minutes, 24 seconds
2020-05-25T19:48:39 >>> app-arch/bzip2: 4 minutes, 28 seconds
2020-05-26T12:30:09 >>> app-arch/bzip2: 4 minutes, 17 seconds
2020-05-26T13:45:53 >>> app-arch/bzip2: 2 minutes, 11 seconds
2020-05-27T01:23:49 >>> app-arch/bzip2: 1 minute, 30 seconds
2020-05-27T02:57:32 >>> app-arch/bzip2: 8 minutes, 19 seconds
]0;emerge 13:20:36 5|1123 bzip2 04:00 (root@ryzen.gnum.org)kemerge 13:20:36 5|1123 bzip2 04:00 (root@ryzen.gnum.org)\>>> Unpacking source...
>>> Unpacking bzip2-1.0.8.tar.gz to /tmp/portage/app-arch/bzip2-1.0.8-r1/work
>>> Source unpacked in /tmp/portage/app-arch/bzip2-1.0.8-r1/work
>>> Preparing source in /tmp/portage/app-arch/bzip2-1.0.8-r1/work/bzip2-1.0.8 ...
 * Applying bzip2-1.0.4-makefile-CFLAGS.patch ...
 [ ok ]
 * Applying bzip2-1.0.8-saneso.patch ...
 [ ok ]
 * Applying bzip2-1.0.4-man-links.patch ...
patching file Makefile
Hunk #1 succeeded at 85 with fuzz 2.
 [ ok ]
 * Applying bzip2-1.0.6-progress.patch ...
patching file bzip2.1
patching file bzip2.c
Hunk #1 succeeded at 53 (offset -92 lines).
Hunk #2 succeeded at 210 with fuzz 2 (offset -92 lines).
Hunk #3 succeeded at 336 (offset -91 lines).
Hunk #4 succeeded at 349 (offset -91 lines).
Hunk #5 succeeded at 372 (offset -91 lines).
Hunk #6 succeeded at 472 with fuzz 2 (offset -87 lines).
Hunk #7 succeeded at 481 (offset -87 lines).
Hunk #8 succeeded at 509 (offset -87 lines).
Hunk #9 succeeded at 1858 (offset -69 lines).
Hunk #10 succeeded at 1936 (offset -69 lines).
Hunk #11 succeeded at 1973 (offset -69 lines).
 [ ok ]
 * Applying bzip2-1.0.3-no-test.patch ...
 [ ok ]
 * Applying bzip2-1.0.8-mingw.patch ...
 [ ok ]
 * Applying bzip2-1.0.8-out-of-tree-build.patch ...
 [ ok ]
>>> Source prepared.
>>> Configuring source in /tmp/portage/app-arch/bzip2-1.0.8-r1/work/bzip2-1.0.8 ...
 * abi_x86_64.amd64: running multilib-minimal_abi_src_configure
>>> Source configured.
>>> Compiling source in /tmp/portage/app-arch/bzip2-1.0.8-r1/work/bzip2-1.0.8 ...
 * abi_x86_64.amd64: running multilib-minimal_abi_src_compile
make -j12 -l12 VPATH=/tmp/portage/app-arch/bzip2-1.0.8-r1/work/bzip2-1.0.8 CC=x86_64-pc-linux-gnu-gcc AR=x86_64-pc-linux-gnu-ar RANLIB=x86_64-pc-linux-gnu-ranlib -f /tmp/portage/app-arch/bzip2-1.0.8-r1/work/bzip2-1.0.8/Makefile-libbz2_so all 
x86_64-pc-linux-gnu-gcc -march=znver2 -O3 -fgraphite-identity -floop-nest-optimize -fdevirtualize-at-ltrans -fipa-pta -fno-semantic-interposition -flto=12 -fno-plt -fno-signed-zeros -fno-trapping-math -fassociative-math -freciprocal-math -fno-math-errno -ffinite-math-only -fno-rounding-math -fno-signaling-nans -fcx-limited-range -fexcess-precision=fast -falign-functions=32 -fno-stack-protector -fno-stack-clash-protection -fstack-check=no -fno-stack-check -fbranch-target-load-optimize2 -freschedule-modulo-scheduled-loops -fsched-pressure -fsched-spec-load -fsched-stalled-insns=0 -fsched2-use-superblocks -fselective-scheduling -fselective-scheduling2 -fsel-sched-pipelining -fsel-sched-pipelining-outer-loops -fuse-linker-plugin -pipe -g0 -Wl,-O1 -Wl,--as-needed -Wl,--sort-common -s -Wl,-lpthread -Wl,-lgomp -Wl,-z,norelro -Wl,-z,now -fpic -fPIC -Wall -Winline -D_FILE_OFFSET_BITS=64  -c /tmp/portage/app-arch/bzip2-1.0.8-r1/work/bzip2-1.0.8/blocksort.c
x86_64-pc-linux-gnu-gcc -march=znver2 -O3 -fgraphite-identity -floop-nest-optimize -fdevirtualize-at-ltrans -fipa-pta -fno-semantic-interposition -flto=12 -fno-plt -fno-signed-zeros -fno-trapping-math -fassociative-math -freciprocal-math -fno-math-errno -ffinite-math-only -fno-rounding-math -fno-signaling-nans -fcx-limited-range -fexcess-precision=fast -falign-functions=32 -fno-stack-protector -fno-stack-clash-protection -fstack-check=no -fno-stack-check -fbranch-target-load-optimize2 -freschedule-modulo-scheduled-loops -fsched-pressure -fsched-spec-load -fsched-stalled-insns=0 -fsched2-use-superblocks -fselective-scheduling -fselective-scheduling2 -fsel-sched-pipelining -fsel-sched-pipelining-outer-loops -fuse-linker-plugin -pipe -g0 -Wl,-O1 -Wl,--as-needed -Wl,--sort-common -s -Wl,-lpthread -Wl,-lgomp -Wl,-z,norelro -Wl,-z,now -fpic -fPIC -Wall -Winline -D_FILE_OFFSET_BITS=64  -c /tmp/portage/app-arch/bzip2-1.0.8-r1/work/bzip2-1.0.8/huffman.c
x86_64-pc-linux-gnu-gcc -march=znver2 -O3 -fgraphite-identity -floop-nest-optimize -fdevirtualize-at-ltrans -fipa-pta -fno-semantic-interposition -flto=12 -fno-plt -fno-signed-zeros -fno-trapping-math -fassociative-math -freciprocal-math -fno-math-errno -ffinite-math-only -fno-rounding-math -fno-signaling-nans -fcx-limited-range -fexcess-precision=fast -falign-functions=32 -fno-stack-protector -fno-stack-clash-protection -fstack-check=no -fno-stack-check -fbranch-target-load-optimize2 -freschedule-modulo-scheduled-loops -fsched-pressure -fsched-spec-load -fsched-stalled-insns=0 -fsched2-use-superblocks -fselective-scheduling -fselective-scheduling2 -fsel-sched-pipelining -fsel-sched-pipelining-outer-loops -fuse-linker-plugin -pipe -g0 -Wl,-O1 -Wl,--as-needed -Wl,--sort-common -s -Wl,-lpthread -Wl,-lgomp -Wl,-z,norelro -Wl,-z,now -fpic -fPIC -Wall -Winline -D_FILE_OFFSET_BITS=64  -c /tmp/portage/app-arch/bzip2-1.0.8-r1/work/bzip2-1.0.8/crctable.c
x86_64-pc-linux-gnu-gcc -march=znver2 -O3 -fgraphite-identity -floop-nest-optimize -fdevirtualize-at-ltrans -fipa-pta -fno-semantic-interposition -flto=12 -fno-plt -fno-signed-zeros -fno-trapping-math -fassociative-math -freciprocal-math -fno-math-errno -ffinite-math-only -fno-rounding-math -fno-signaling-nans -fcx-limited-range -fexcess-precision=fast -falign-functions=32 -fno-stack-protector -fno-stack-clash-protection -fstack-check=no -fno-stack-check -fbranch-target-load-optimize2 -freschedule-modulo-scheduled-loops -fsched-pressure -fsched-spec-load -fsched-stalled-insns=0 -fsched2-use-superblocks -fselective-scheduling -fselective-scheduling2 -fsel-sched-pipelining -fsel-sched-pipelining-outer-loops -fuse-linker-plugin -pipe -g0 -Wl,-O1 -Wl,--as-needed -Wl,--sort-common -s -Wl,-lpthread -Wl,-lgomp -Wl,-z,norelro -Wl,-z,now -fpic -fPIC -Wall -Winline -D_FILE_OFFSET_BITS=64  -c /tmp/portage/app-arch/bzip2-1.0.8-r1/work/bzip2-1.0.8/randtable.c
x86_64-pc-linux-gnu-gcc -march=znver2 -O3 -fgraphite-identity -floop-nest-optimize -fdevirtualize-at-ltrans -fipa-pta -fno-semantic-interposition -flto=12 -fno-plt -fno-signed-zeros -fno-trapping-math -fassociative-math -freciprocal-math -fno-math-errno -ffinite-math-only -fno-rounding-math -fno-signaling-nans -fcx-limited-range -fexcess-precision=fast -falign-functions=32 -fno-stack-protector -fno-stack-clash-protection -fstack-check=no -fno-stack-check -fbranch-target-load-optimize2 -freschedule-modulo-scheduled-loops -fsched-pressure -fsched-spec-load -fsched-stalled-insns=0 -fsched2-use-superblocks -fselective-scheduling -fselective-scheduling2 -fsel-sched-pipelining -fsel-sched-pipelining-outer-loops -fuse-linker-plugin -pipe -g0 -Wl,-O1 -Wl,--as-needed -Wl,--sort-common -s -Wl,-lpthread -Wl,-lgomp -Wl,-z,norelro -Wl,-z,now -fpic -fPIC -Wall -Winline -D_FILE_OFFSET_BITS=64  -c /tmp/portage/app-arch/bzip2-1.0.8-r1/work/bzip2-1.0.8/compress.c
x86_64-pc-linux-gnu-gcc -march=znver2 -O3 -fgraphite-identity -floop-nest-optimize -fdevirtualize-at-ltrans -fipa-pta -fno-semantic-interposition -flto=12 -fno-plt -fno-signed-zeros -fno-trapping-math -fassociative-math -freciprocal-math -fno-math-errno -ffinite-math-only -fno-rounding-math -fno-signaling-nans -fcx-limited-range -fexcess-precision=fast -falign-functions=32 -fno-stack-protector -fno-stack-clash-protection -fstack-check=no -fno-stack-check -fbranch-target-load-optimize2 -freschedule-modulo-scheduled-loops -fsched-pressure -fsched-spec-load -fsched-stalled-insns=0 -fsched2-use-superblocks -fselective-scheduling -fselective-scheduling2 -fsel-sched-pipelining -fsel-sched-pipelining-outer-loops -fuse-linker-plugin -pipe -g0 -Wl,-O1 -Wl,--as-needed -Wl,--sort-common -s -Wl,-lpthread -Wl,-lgomp -Wl,-z,norelro -Wl,-z,now -fpic -fPIC -Wall -Winline -D_FILE_OFFSET_BITS=64  -c /tmp/portage/app-arch/bzip2-1.0.8-r1/work/bzip2-1.0.8/decompress.c
x86_64-pc-linux-gnu-gcc -march=znver2 -O3 -fgraphite-identity -floop-nest-optimize -fdevirtualize-at-ltrans -fipa-pta -fno-semantic-interposition -flto=12 -fno-plt -fno-signed-zeros -fno-trapping-math -fassociative-math -freciprocal-math -fno-math-errno -ffinite-math-only -fno-rounding-math -fno-signaling-nans -fcx-limited-range -fexcess-precision=fast -falign-functions=32 -fno-stack-protector -fno-stack-clash-protection -fstack-check=no -fno-stack-check -fbranch-target-load-optimize2 -freschedule-modulo-scheduled-loops -fsched-pressure -fsched-spec-load -fsched-stalled-insns=0 -fsched2-use-superblocks -fselective-scheduling -fselective-scheduling2 -fsel-sched-pipelining -fsel-sched-pipelining-outer-loops -fuse-linker-plugin -pipe -g0 -Wl,-O1 -Wl,--as-needed -Wl,--sort-common -s -Wl,-lpthread -Wl,-lgomp -Wl,-z,norelro -Wl,-z,now -fpic -fPIC -Wall -Winline -D_FILE_OFFSET_BITS=64  -c /tmp/portage/app-arch/bzip2-1.0.8-r1/work/bzip2-1.0.8/bzlib.c
x86_64-pc-linux-gnu-gcc -Wl,-O1 -Wl,--as-needed -Wl,--sort-common -s -Wl,-lpthread -Wl,-lgomp -Wl,-z,norelro -Wl,-z,now -march=znver2 -O3 -fgraphite-identity -floop-nest-optimize -fdevirtualize-at-ltrans -fipa-pta -fno-semantic-interposition -flto=12 -fno-plt -fno-signed-zeros -fno-trapping-math -fassociative-math -freciprocal-math -fno-math-errno -ffinite-math-only -fno-rounding-math -fno-signaling-nans -fcx-limited-range -fexcess-precision=fast -falign-functions=32 -fno-stack-protector -fno-stack-clash-protection -fstack-check=no -fno-stack-check -fbranch-target-load-optimize2 -freschedule-modulo-scheduled-loops -fsched-pressure -fsched-spec-load -fsched-stalled-insns=0 -fsched2-use-superblocks -fselective-scheduling -fselective-scheduling2 -fsel-sched-pipelining -fsel-sched-pipelining-outer-loops -fuse-linker-plugin -pipe -g0 -shared -Wl,-soname -Wl,libbz2.so.1 -o libbz2.so.1.0.8 blocksort.o huffman.o crctable.o randtable.o compress.o decompress.o bzlib.o
/tmp/portage/app-arch/bzip2-1.0.8-r1/work/bzip2-1.0.8/decompress.c: In function 'BZ2_decompress':
/tmp/portage/app-arch/bzip2-1.0.8-r1/work/bzip2-1.0.8/bzlib.c:687:18: warning: inlining failed in call to 'BZ2_indexIntoF.localalias': call is unlikely and code size would grow [-Winline]
  687 | __inline__ Int32 BZ2_indexIntoF ( Int32 indx, Int32 *cftab )
      |                  ^
/tmp/portage/app-arch/bzip2-1.0.8-r1/work/bzip2-1.0.8/decompress.c:557:13: note: called from here
  557 |             BZ_GET_SMALL(s->k0); s->nblock_used++;
      |             ^
/tmp/portage/app-arch/bzip2-1.0.8-r1/work/bzip2-1.0.8/bzlib.c:687:18: warning: inlining failed in call to 'BZ2_indexIntoF.localalias': call is unlikely and code size would grow [-Winline]
  687 | __inline__ Int32 BZ2_indexIntoF ( Int32 indx, Int32 *cftab )
      |                  ^
/tmp/portage/app-arch/bzip2-1.0.8-r1/work/bzip2-1.0.8/decompress.c:560:13: note: called from here
  560 |             BZ_GET_SMALL(s->k0); s->nblock_used++;
      |             ^
ln -sf libbz2.so.1.0.8 libbz2.so.1.0
make -j12 -l12 VPATH=/tmp/portage/app-arch/bzip2-1.0.8-r1/work/bzip2-1.0.8 CC=x86_64-pc-linux-gnu-gcc AR=x86_64-pc-linux-gnu-ar RANLIB=x86_64-pc-linux-gnu-ranlib -f /tmp/portage/app-arch/bzip2-1.0.8-r1/work/bzip2-1.0.8/Makefile all 'LDFLAGS=-Wl,-O1 -Wl,--as-needed -Wl,--sort-common -s -Wl,-lpthread -Wl,-lgomp -Wl,-z,norelro -Wl,-z,now -march=znver2 -O3 -fgraphite-identity -floop-nest-optimize -fdevirtualize-at-ltrans -fipa-pta -fno-semantic-interposition -flto=12 -fno-plt -fno-signed-zeros -fno-trapping-math -fassociative-math -freciprocal-math -fno-math-errno -ffinite-math-only -fno-rounding-math -fno-signaling-nans -fcx-limited-range -fexcess-precision=fast -falign-functions=32 -fno-stack-protector -fno-stack-clash-protection -fstack-check=no -fno-stack-check -fbranch-target-load-optimize2 -freschedule-modulo-scheduled-loops -fsched-pressure -fsched-spec-load -fsched-stalled-insns=0 -fsched2-use-superblocks -fselective-scheduling -fselective-scheduling2 -fsel-sched-pipelining -fsel-sched-pipelining-outer-loops -fuse-linker-plugin -pipe -g0 ' 
rm -f libbz2.a
x86_64-pc-linux-gnu-gcc -march=znver2 -O3 -fgraphite-identity -floop-nest-optimize -fdevirtualize-at-ltrans -fipa-pta -fno-semantic-interposition -flto=12 -fno-plt -fno-signed-zeros -fno-trapping-math -fassociative-math -freciprocal-math -fno-math-errno -ffinite-math-only -fno-rounding-math -fno-signaling-nans -fcx-limited-range -fexcess-precision=fast -falign-functions=32 -fno-stack-protector -fno-stack-clash-protection -fstack-check=no -fno-stack-check -fbranch-target-load-optimize2 -freschedule-modulo-scheduled-loops -fsched-pressure -fsched-spec-load -fsched-stalled-insns=0 -fsched2-use-superblocks -fselective-scheduling -fselective-scheduling2 -fsel-sched-pipelining -fsel-sched-pipelining-outer-loops -fuse-linker-plugin -pipe -g0 -Wl,-O1 -Wl,--as-needed -Wl,--sort-common -s -Wl,-lpthread -Wl,-lgomp -Wl,-z,norelro -Wl,-z,now -Wall -Winline -D_FILE_OFFSET_BITS=64  -c /tmp/portage/app-arch/bzip2-1.0.8-r1/work/bzip2-1.0.8/bzip2.c
x86_64-pc-linux-gnu-gcc -march=znver2 -O3 -fgraphite-identity -floop-nest-optimize -fdevirtualize-at-ltrans -fipa-pta -fno-semantic-interposition -flto=12 -fno-plt -fno-signed-zeros -fno-trapping-math -fassociative-math -freciprocal-math -fno-math-errno -ffinite-math-only -fno-rounding-math -fno-signaling-nans -fcx-limited-range -fexcess-precision=fast -falign-functions=32 -fno-stack-protector -fno-stack-clash-protection -fstack-check=no -fno-stack-check -fbranch-target-load-optimize2 -freschedule-modulo-scheduled-loops -fsched-pressure -fsched-spec-load -fsched-stalled-insns=0 -fsched2-use-superblocks -fselective-scheduling -fselective-scheduling2 -fsel-sched-pipelining -fsel-sched-pipelining-outer-loops -fuse-linker-plugin -pipe -g0 -Wl,-O1 -Wl,--as-needed -Wl,--sort-common -s -Wl,-lpthread -Wl,-lgomp -Wl,-z,norelro -Wl,-z,now -Wall -Winline -D_FILE_OFFSET_BITS=64  -c /tmp/portage/app-arch/bzip2-1.0.8-r1/work/bzip2-1.0.8/bzip2recover.c
x86_64-pc-linux-gnu-ar cq libbz2.a blocksort.o huffman.o crctable.o randtable.o compress.o decompress.o bzlib.o
x86_64-pc-linux-gnu-ranlib libbz2.a
x86_64-pc-linux-gnu-gcc -march=znver2 -O3 -fgraphite-identity -floop-nest-optimize -fdevirtualize-at-ltrans -fipa-pta -fno-semantic-interposition -flto=12 -fno-plt -fno-signed-zeros -fno-trapping-math -fassociative-math -freciprocal-math -fno-math-errno -ffinite-math-only -fno-rounding-math -fno-signaling-nans -fcx-limited-range -fexcess-precision=fast -falign-functions=32 -fno-stack-protector -fno-stack-clash-protection -fstack-check=no -fno-stack-check -fbranch-target-load-optimize2 -freschedule-modulo-scheduled-loops -fsched-pressure -fsched-spec-load -fsched-stalled-insns=0 -fsched2-use-superblocks -fselective-scheduling -fselective-scheduling2 -fsel-sched-pipelining -fsel-sched-pipelining-outer-loops -fuse-linker-plugin -pipe -g0 -Wl,-O1 -Wl,--as-needed -Wl,--sort-common -s -Wl,-lpthread -Wl,-lgomp -Wl,-z,norelro -Wl,-z,now -Wall -Winline -D_FILE_OFFSET_BITS=64  -Wl,-O1 -Wl,--as-needed -Wl,--sort-common -s -Wl,-lpthread -Wl,-lgomp -Wl,-z,norelro -Wl,-z,now -march=znver2 -O3 -fgraphite-identity -floop-nest-optimize -fdevirtualize-at-ltrans -fipa-pta -fno-semantic-interposition -flto=12 -fno-plt -fno-signed-zeros -fno-trapping-math -fassociative-math -freciprocal-math -fno-math-errno -ffinite-math-only -fno-rounding-math -fno-signaling-nans -fcx-limited-range -fexcess-precision=fast -falign-functions=32 -fno-stack-protector -fno-stack-clash-protection -fstack-check=no -fno-stack-check -fbranch-target-load-optimize2 -freschedule-modulo-scheduled-loops -fsched-pressure -fsched-spec-load -fsched-stalled-insns=0 -fsched2-use-superblocks -fselective-scheduling -fselective-scheduling2 -fsel-sched-pipelining -fsel-sched-pipelining-outer-loops -fuse-linker-plugin -pipe -g0  -o bzip2recover bzip2recover.o
x86_64-pc-linux-gnu-gcc -march=znver2 -O3 -fgraphite-identity -floop-nest-optimize -fdevirtualize-at-ltrans -fipa-pta -fno-semantic-interposition -flto=12 -fno-plt -fno-signed-zeros -fno-trapping-math -fassociative-math -freciprocal-math -fno-math-errno -ffinite-math-only -fno-rounding-math -fno-signaling-nans -fcx-limited-range -fexcess-precision=fast -falign-functions=32 -fno-stack-protector -fno-stack-clash-protection -fstack-check=no -fno-stack-check -fbranch-target-load-optimize2 -freschedule-modulo-scheduled-loops -fsched-pressure -fsched-spec-load -fsched-stalled-insns=0 -fsched2-use-superblocks -fselective-scheduling -fselective-scheduling2 -fsel-sched-pipelining -fsel-sched-pipelining-outer-loops -fuse-linker-plugin -pipe -g0 -Wl,-O1 -Wl,--as-needed -Wl,--sort-common -s -Wl,-lpthread -Wl,-lgomp -Wl,-z,norelro -Wl,-z,now -Wall -Winline -D_FILE_OFFSET_BITS=64  -Wl,-O1 -Wl,--as-needed -Wl,--sort-common -s -Wl,-lpthread -Wl,-lgomp -Wl,-z,norelro -Wl,-z,now -march=znver2 -O3 -fgraphite-identity -floop-nest-optimize -fdevirtualize-at-ltrans -fipa-pta -fno-semantic-interposition -flto=12 -fno-plt -fno-signed-zeros -fno-trapping-math -fassociative-math -freciprocal-math -fno-math-errno -ffinite-math-only -fno-rounding-math -fno-signaling-nans -fcx-limited-range -fexcess-precision=fast -falign-functions=32 -fno-stack-protector -fno-stack-clash-protection -fstack-check=no -fno-stack-check -fbranch-target-load-optimize2 -freschedule-modulo-scheduled-loops -fsched-pressure -fsched-spec-load -fsched-stalled-insns=0 -fsched2-use-superblocks -fselective-scheduling -fselective-scheduling2 -fsel-sched-pipelining -fsel-sched-pipelining-outer-loops -fuse-linker-plugin -pipe -g0  -o bzip2 bzip2.o -L. -lbz2
>>> Source compiled.
>>> Test phase [not enabled]: app-arch/bzip2-1.0.8-r1

>>> Install app-arch/bzip2-1.0.8-r1 into /tmp/portage/app-arch/bzip2-1.0.8-r1/image
 * abi_x86_64.amd64: running multilib-minimal_abi_src_install
>>> Completed installing app-arch/bzip2-1.0.8-r1 into /tmp/portage/app-arch/bzip2-1.0.8-r1/image

 * Final size of build directory: 3988 KiB (3.8 MiB)
 * Final size of installed tree:   600 KiB



 * QA Notice: Pre-stripped files found:
 * /bin/bzip2
 * /usr/bin/bzip2recover
 * /lib64/libbz2.so.1.0.8
./
./bin/
./bin/bzip2
./bin/bzcat
./bin/bunzip2
./usr/
./usr/bin/
./usr/bin/bzcmp
./usr/bin/bzfgrep
./usr/bin/bzgrep
./usr/bin/bzdiff
./usr/bin/bzless
./usr/bin/bzmore
./usr/bin/bzip2recover
./usr/bin/bzegrep
./usr/include/
./usr/include/bzlib.h
./usr/share/
./usr/share/man/
./usr/share/man/man1/
./usr/share/man/man1/bzegrep.1.bz2
./usr/share/man/man1/bzfgrep.1.bz2
./usr/share/man/man1/bzdiff.1.bz2
./usr/share/man/man1/bzcat.1.bz2
./usr/share/man/man1/bzcmp.1.bz2
./usr/share/man/man1/bzip2recover.1.bz2
./usr/share/man/man1/bzip2.1.bz2
./usr/share/man/man1/bzgrep.1.bz2
./usr/share/man/man1/bzless.1.bz2
./usr/share/man/man1/bunzip2.1.bz2
./usr/share/man/man1/bzmore.1.bz2
./usr/share/doc/
./usr/share/doc/bzip2-1.0.8-r1/
./usr/share/doc/bzip2-1.0.8-r1/README.COMPILATION.PROBLEMS.bz2
./usr/share/doc/bzip2-1.0.8-r1/README.bz2
./usr/share/doc/bzip2-1.0.8-r1/README.XML.STUFF.bz2
./usr/share/doc/bzip2-1.0.8-r1/manual.pdf
./usr/share/doc/bzip2-1.0.8-r1/CHANGES.bz2
./usr/share/doc/bzip2-1.0.8-r1/html/
./usr/share/doc/bzip2-1.0.8-r1/html/manual.html
./usr/lib64/
./usr/lib64/libbz2.so
./lib64/
./lib64/libbz2.so.1
./lib64/libbz2.so.1.0
./lib64/libbz2.so.1.0.8
>>> Done.
 * checking 27 files for package collisions
>>> Merging app-arch/bzip2-1.0.8-r1 to /
 * removing unneeded *.la files
--- /lib64/
>>> /lib64/libbz2.so.1.0.8
>>> /lib64/libbz2.so.1.0 -> libbz2.so.1.0.8
>>> /lib64/libbz2.so.1 -> libbz2.so.1.0.8
--- /usr/
--- /usr/lib64/
>>> /usr/lib64/libbz2.so
--- /usr/share/
--- /usr/share/man/
--- /usr/share/man/man1/
>>> /usr/share/man/man1/bzmore.1.bz2
>>> /usr/share/man/man1/bunzip2.1.bz2 -> bzip2.1.bz2
>>> /usr/share/man/man1/bzless.1.bz2 -> bzmore.1.bz2
>>> /usr/share/man/man1/bzgrep.1.bz2
>>> /usr/share/man/man1/bzip2.1.bz2
>>> /usr/share/man/man1/bzip2recover.1.bz2 -> bzip2.1.bz2
>>> /usr/share/man/man1/bzcmp.1.bz2 -> bzdiff.1.bz2
>>> /usr/share/man/man1/bzcat.1.bz2 -> bzip2.1.bz2
>>> /usr/share/man/man1/bzdiff.1.bz2
>>> /usr/share/man/man1/bzfgrep.1.bz2 -> bzgrep.1.bz2
>>> /usr/share/man/man1/bzegrep.1.bz2 -> bzgrep.1.bz2
--- /usr/include/
>>> /usr/include/bzlib.h
--- /usr/bin/
>>> /usr/bin/bzegrep -> bzgrep
>>> /usr/bin/bzip2recover
>>> /usr/bin/bzmore
>>> /usr/bin/bzless -> bzmore
>>> /usr/bin/bzdiff
>>> /usr/bin/bzgrep
>>> /usr/bin/bzfgrep -> bzgrep
>>> /usr/bin/bzcmp -> bzdiff
--- /bin/
>>> /bin/bunzip2 -> bzip2
>>> /bin/bzcat -> bzip2
>>> /bin/bzip2
>>> Safely unmerging already-installed instance...
>>> Original instance of package unmerged safely.
>>> app-arch/bzip2-1.0.8-r1 merged.
>>> Regenerating /etc/ld.so.cache...
