No package files given... Grabbing a set.
--- replaced obj /usr/share/man/man5/hunspell.5.bz2
--- replaced dir /usr/share/man/man5
--- replaced obj /usr/share/man/man3/hunspell.3.bz2
--- replaced dir /usr/share/man/man3
--- replaced obj /usr/share/man/man1/hzip.1.bz2
--- replaced obj /usr/share/man/man1/hunzip.1.bz2
--- replaced obj /usr/share/man/man1/hunspell.1.bz2
--- replaced dir /usr/share/man/man1
--- replaced obj /usr/share/man/hu/man1/hunspell.1.bz2
--- replaced dir /usr/share/man/hu/man1
--- replaced dir /usr/share/man/hu
--- replaced dir /usr/share/man
--- replaced dir /usr/share
--- replaced obj /usr/lib64/pkgconfig/hunspell.pc
--- replaced dir /usr/lib64/pkgconfig
--- replaced sym /usr/lib64/libhunspell.so
--- replaced obj /usr/lib64/libhunspell-1.7.so.0.0.1
--- replaced sym /usr/lib64/libhunspell-1.7.so.0
--- replaced sym /usr/lib64/libhunspell-1.7.so
--- replaced dir /usr/lib64
--- replaced obj /usr/include/hunspell/w_char.hxx
--- replaced obj /usr/include/hunspell/hunvisapi.h
--- replaced obj /usr/include/hunspell/hunspell.hxx
--- replaced obj /usr/include/hunspell/hunspell.h
--- replaced obj /usr/include/hunspell/atypes.hxx
--- replaced dir /usr/include/hunspell
--- replaced dir /usr/include
--- replaced obj /usr/bin/wordlist2hunspell
--- replaced obj /usr/bin/wordforms
--- replaced obj /usr/bin/makealias
--- replaced obj /usr/bin/ispellaff2myspell
--- replaced obj /usr/bin/hzip
--- replaced obj /usr/bin/hunzip
--- replaced obj /usr/bin/hunspell-unmunch
--- replaced obj /usr/bin/hunspell-munch
--- replaced obj /usr/bin/hunspell-chmorph
--- replaced obj /usr/bin/hunspell-analyze
--- replaced obj /usr/bin/hunspell
--- replaced obj /usr/bin/affixcompress
--- replaced dir /usr/bin
--- replaced dir /usr
>>> Regenerating /etc/ld.so.cache...
