No package files given... Grabbing a set.
--- replaced obj /usr/share/man/man8/paperconfig.8.bz2
--- replaced dir /usr/share/man/man8
--- replaced obj /usr/share/man/man5/papersize.5.bz2
--- replaced dir /usr/share/man/man5
--- replaced obj /usr/share/man/man3/systempapersizefile.3
--- replaced obj /usr/share/man/man3/systempapername.3.bz2
--- replaced obj /usr/share/man/man3/paperwithsize.3
--- replaced obj /usr/share/man/man3/paperpswidth.3
--- replaced obj /usr/share/man/man3/paperpsname.3
--- replaced obj /usr/share/man/man3/paperpsheight.3
--- replaced obj /usr/share/man/man3/paperprev.3
--- replaced obj /usr/share/man/man3/papernext.3
--- replaced obj /usr/share/man/man3/paperlast.3
--- replaced obj /usr/share/man/man3/paperinit.3.bz2
--- replaced obj /usr/share/man/man3/paperinfo.3.bz2
--- replaced obj /usr/share/man/man3/paperfirst.3
--- replaced obj /usr/share/man/man3/paperdone.3
--- replaced obj /usr/share/man/man3/defaultpapersizefile.3
--- replaced obj /usr/share/man/man3/defaultpapername.3
--- replaced dir /usr/share/man/man3
--- replaced obj /usr/share/man/man1/paperconf.1.bz2
--- replaced dir /usr/share/man/man1
--- replaced dir /usr/share/man
--- replaced dir /usr/share
--- replaced obj /usr/sbin/paperconfig
--- replaced dir /usr/sbin
--- replaced obj /usr/lib64/libpaper.so.1.1.2
--- replaced sym /usr/lib64/libpaper.so.1
--- replaced sym /usr/lib64/libpaper.so
--- replaced dir /usr/lib64
--- replaced obj /usr/include/paper.h
--- replaced dir /usr/include
--- replaced obj /usr/bin/paperconf
--- replaced dir /usr/bin
--- replaced dir /usr
--- replaced obj /etc/papersize
--- replaced dir /etc
>>> Regenerating /etc/ld.so.cache...
