No package files given... Grabbing a set.
--- replaced obj /usr/share/tlpkg/tlpobj/dvips.tlpobj
--- replaced dir /usr/share/tlpkg/tlpobj
--- replaced dir /usr/share/tlpkg
--- replaced obj /usr/share/texmf-dist/tex/generic/dvips/rotate.tex
--- replaced obj /usr/share/texmf-dist/tex/generic/dvips/rotate.sty
--- replaced obj /usr/share/texmf-dist/tex/generic/dvips/colordvi.tex
--- replaced obj /usr/share/texmf-dist/tex/generic/dvips/colordvi.sty
--- replaced obj /usr/share/texmf-dist/tex/generic/dvips/blackdvi.tex
--- replaced obj /usr/share/texmf-dist/tex/generic/dvips/blackdvi.sty
--- replaced dir /usr/share/texmf-dist/tex/generic/dvips
--- replaced dir /usr/share/texmf-dist/tex/generic
--- replaced dir /usr/share/texmf-dist/tex
--- replaced obj /usr/share/texmf-dist/fonts/enc/dvips/base/texnansx.enc
--- replaced obj /usr/share/texmf-dist/fonts/enc/dvips/base/texmsym.enc
--- replaced obj /usr/share/texmf-dist/fonts/enc/dvips/base/texmital.enc
--- replaced obj /usr/share/texmf-dist/fonts/enc/dvips/base/texmext.enc
--- replaced obj /usr/share/texmf-dist/fonts/enc/dvips/base/tex256.enc
--- replaced obj /usr/share/texmf-dist/fonts/enc/dvips/base/stormex.enc
--- replaced obj /usr/share/texmf-dist/fonts/enc/dvips/base/qx.enc
--- replaced obj /usr/share/texmf-dist/fonts/enc/dvips/base/q-ts1-uni.enc
--- replaced obj /usr/share/texmf-dist/fonts/enc/dvips/base/q-texnansi-uni.enc
--- replaced obj /usr/share/texmf-dist/fonts/enc/dvips/base/q-t5-uni.enc
--- replaced obj /usr/share/texmf-dist/fonts/enc/dvips/base/q-t2c-uni.enc
--- replaced obj /usr/share/texmf-dist/fonts/enc/dvips/base/q-t2b-uni.enc
--- replaced obj /usr/share/texmf-dist/fonts/enc/dvips/base/q-t2a-uni.enc
--- replaced obj /usr/share/texmf-dist/fonts/enc/dvips/base/q-rm-uni.enc
--- replaced obj /usr/share/texmf-dist/fonts/enc/dvips/base/q-qx-uni.enc
--- replaced obj /usr/share/texmf-dist/fonts/enc/dvips/base/q-l7x-uni.enc
--- replaced obj /usr/share/texmf-dist/fonts/enc/dvips/base/q-ec-uni.enc
--- replaced obj /usr/share/texmf-dist/fonts/enc/dvips/base/q-cs-uni.enc
--- replaced obj /usr/share/texmf-dist/fonts/enc/dvips/base/odvips.enc
--- replaced obj /usr/share/texmf-dist/fonts/enc/dvips/base/funky.enc
--- replaced obj /usr/share/texmf-dist/fonts/enc/dvips/base/extex.enc
--- replaced obj /usr/share/texmf-dist/fonts/enc/dvips/base/ec.enc
--- replaced obj /usr/share/texmf-dist/fonts/enc/dvips/base/dvips.enc
--- replaced obj /usr/share/texmf-dist/fonts/enc/dvips/base/dvips-all.enc
--- replaced obj /usr/share/texmf-dist/fonts/enc/dvips/base/dc.enc
--- replaced obj /usr/share/texmf-dist/fonts/enc/dvips/base/asexp.enc
--- replaced obj /usr/share/texmf-dist/fonts/enc/dvips/base/asex.enc
--- replaced obj /usr/share/texmf-dist/fonts/enc/dvips/base/ansinew.enc
--- replaced obj /usr/share/texmf-dist/fonts/enc/dvips/base/ad.enc
--- replaced obj /usr/share/texmf-dist/fonts/enc/dvips/base/8r.enc
--- replaced obj /usr/share/texmf-dist/fonts/enc/dvips/base/8a.enc
--- replaced obj /usr/share/texmf-dist/fonts/enc/dvips/base/7t.enc
--- replaced obj /usr/share/texmf-dist/fonts/enc/dvips/base/6w.enc
--- replaced dir /usr/share/texmf-dist/fonts/enc/dvips/base
--- replaced dir /usr/share/texmf-dist/fonts/enc/dvips
--- replaced dir /usr/share/texmf-dist/fonts/enc
--- replaced dir /usr/share/texmf-dist/fonts
--- replaced obj /usr/share/texmf-dist/dvips/config/toshiba.cfg
--- replaced obj /usr/share/texmf-dist/dvips/config/qms.cfg
--- replaced obj /usr/share/texmf-dist/dvips/config/ljfour.cfg
--- replaced obj /usr/share/texmf-dist/dvips/config/ibmvga.cfg
--- replaced obj /usr/share/texmf-dist/dvips/config/epson.cfg
--- replaced obj /usr/share/texmf-dist/dvips/config/dvired.cfg
--- replaced obj /usr/share/texmf-dist/dvips/config/dfaxhigh.cfg
--- replaced obj /usr/share/texmf-dist/dvips/config/deskjet.cfg
--- replaced obj /usr/share/texmf-dist/dvips/config/cx.cfg
--- replaced obj /usr/share/texmf-dist/dvips/config/config.xyp
--- replaced obj /usr/share/texmf-dist/dvips/config/config.unms
--- replaced obj /usr/share/texmf-dist/dvips/config/config.toshiba
--- replaced obj /usr/share/texmf-dist/dvips/config/config.qms
--- replaced obj /usr/share/texmf-dist/dvips/config/config.ps
--- replaced obj /usr/share/texmf-dist/dvips/config/config.ot2
--- replaced obj /usr/share/texmf-dist/dvips/config/config.mirrorprint
--- replaced obj /usr/share/texmf-dist/dvips/config/config.mga
--- replaced obj /usr/share/texmf-dist/dvips/config/config.mbn
--- replaced obj /usr/share/texmf-dist/dvips/config/config.luc
--- replaced obj /usr/share/texmf-dist/dvips/config/config.ljfour
--- replaced obj /usr/share/texmf-dist/dvips/config/config.ibmvga
--- replaced obj /usr/share/texmf-dist/dvips/config/config.epson
--- replaced obj /usr/share/texmf-dist/dvips/config/config.dvired
--- replaced obj /usr/share/texmf-dist/dvips/config/config.deskjet
--- replaced obj /usr/share/texmf-dist/dvips/config/config.cx
--- replaced obj /usr/share/texmf-dist/dvips/config/config.canonex
--- replaced obj /usr/share/texmf-dist/dvips/config/config.bakoma
--- replaced obj /usr/share/texmf-dist/dvips/config/canonex.cfg
--- replaced obj /usr/share/texmf-dist/dvips/config/alt-rule.pro
--- replaced dir /usr/share/texmf-dist/dvips/config
--- replaced obj /usr/share/texmf-dist/dvips/base/texps.pro
--- replaced obj /usr/share/texmf-dist/dvips/base/texc.pro
--- replaced obj /usr/share/texmf-dist/dvips/base/tex.pro
--- replaced obj /usr/share/texmf-dist/dvips/base/special.pro
--- replaced obj /usr/share/texmf-dist/dvips/base/resolution400.ps
--- replaced obj /usr/share/texmf-dist/dvips/base/hps.pro
--- replaced obj /usr/share/texmf-dist/dvips/base/finclude.pro
--- replaced obj /usr/share/texmf-dist/dvips/base/crop.pro
--- replaced obj /usr/share/texmf-dist/dvips/base/color.pro
--- replaced dir /usr/share/texmf-dist/dvips/base
--- replaced dir /usr/share/texmf-dist/dvips
--- replaced dir /usr/share/texmf-dist
--- replaced obj /usr/share/man/man1/dvips.1.bz2
--- replaced obj /usr/share/man/man1/afm2tfm.1.bz2
--- replaced dir /usr/share/man/man1
--- replaced dir /usr/share/man
--- replaced obj /usr/share/info/dvips.info.bz2
--- replaced dir /usr/share/info
--- replaced dir /usr/share
--- replaced obj /usr/bin/dvips
--- replaced obj /usr/bin/afm2tfm
--- replaced dir /usr/bin
--- replaced dir /usr
Configuring TeXLive ...
Generating /etc/texmf/web2c/texmf.cnf from /etc/texmf/texmf.d ...
Generating /etc/texmf/web2c/fmtutil.cnf from /etc/texmf/fmtutil.d ...
Generating /etc/texmf/web2c/updmap.cfg from /etc/texmf/updmap.d ...
Generating ls-R files
Generating language.dat file
Generating language.def file
Generating language.dat.lua file
Skipping format files, since they are unchanged
Skipping font maps, since they are unchanged

Use 'texconfig font ro'(rw) to disable (enable) font generation for users

>>> Regenerating /etc/ld.so.cache...
