No package files given... Grabbing a set.
--- replaced obj /usr/share/man/man5/html2textrc.5.bz2
--- replaced dir /usr/share/man/man5
--- replaced obj /usr/share/man/man1/html2text.1.bz2
--- replaced dir /usr/share/man/man1
--- replaced dir /usr/share/man
--- replaced dir /usr/share
--- replaced obj /usr/bin/html2text
--- replaced dir /usr/bin
--- replaced dir /usr
>>> Regenerating /etc/ld.so.cache...
