No package files given... Grabbing a set.
--- replaced sym /usr/share/man/man1/whirlpool-hash.1.bz2
--- replaced sym /usr/share/man/man1/tth-hash.1.bz2
--- replaced sym /usr/share/man/man1/tiger-hash.1.bz2
--- replaced sym /usr/share/man/man1/sfv-hash.1.bz2
--- replaced obj /usr/share/man/man1/rhash.1.bz2
--- replaced sym /usr/share/man/man1/magnet-link.1.bz2
--- replaced sym /usr/share/man/man1/has160-hash.1.bz2
--- replaced sym /usr/share/man/man1/gost12-512-hash.1.bz2
--- replaced sym /usr/share/man/man1/gost12-256-hash.1.bz2
--- replaced sym /usr/share/man/man1/edonr512-hash.1.bz2
--- replaced sym /usr/share/man/man1/edonr256-hash.1.bz2
--- replaced sym /usr/share/man/man1/ed2k-link.1.bz2
--- replaced dir /usr/share/man/man1
--- replaced dir /usr/share/man
--- replaced dir /usr/share
--- replaced obj /usr/lib64/pkgconfig/librhash.pc
--- replaced dir /usr/lib64/pkgconfig
--- replaced obj /usr/lib64/librhash.so.0
--- replaced sym /usr/lib64/librhash.so
--- replaced dir /usr/lib64
--- replaced obj /usr/include/rhash_torrent.h
--- replaced obj /usr/include/rhash.h
--- replaced dir /usr/include
--- replaced sym /usr/bin/whirlpool-hash
--- replaced sym /usr/bin/tth-hash
--- replaced sym /usr/bin/tiger-hash
--- replaced sym /usr/bin/sfv-hash
--- replaced obj /usr/bin/rhash
--- replaced sym /usr/bin/magnet-link
--- replaced sym /usr/bin/has160-hash
--- replaced sym /usr/bin/gost12-512-hash
--- replaced sym /usr/bin/gost12-256-hash
--- replaced sym /usr/bin/edonr512-hash
--- replaced sym /usr/bin/edonr256-hash
--- replaced sym /usr/bin/ed2k-link
--- replaced dir /usr/bin
--- replaced dir /usr
--- replaced obj /etc/rhashrc
--- replaced dir /etc
>>> Regenerating /etc/ld.so.cache...
