No package files given... Grabbing a set.
--- replaced obj /usr/share/sgml/docbook/xml-dtd-4.1.2/soextblx.dtd
--- replaced obj /usr/share/sgml/docbook/xml-dtd-4.1.2/ent/iso-tech.ent
--- replaced obj /usr/share/sgml/docbook/xml-dtd-4.1.2/ent/iso-pub.ent
--- replaced obj /usr/share/sgml/docbook/xml-dtd-4.1.2/ent/iso-num.ent
--- replaced obj /usr/share/sgml/docbook/xml-dtd-4.1.2/ent/iso-lat2.ent
--- replaced obj /usr/share/sgml/docbook/xml-dtd-4.1.2/ent/iso-lat1.ent
--- replaced obj /usr/share/sgml/docbook/xml-dtd-4.1.2/ent/iso-grk4.ent
--- replaced obj /usr/share/sgml/docbook/xml-dtd-4.1.2/ent/iso-grk3.ent
--- replaced obj /usr/share/sgml/docbook/xml-dtd-4.1.2/ent/iso-grk2.ent
--- replaced obj /usr/share/sgml/docbook/xml-dtd-4.1.2/ent/iso-grk1.ent
--- replaced obj /usr/share/sgml/docbook/xml-dtd-4.1.2/ent/iso-dia.ent
--- replaced obj /usr/share/sgml/docbook/xml-dtd-4.1.2/ent/iso-cyr2.ent
--- replaced obj /usr/share/sgml/docbook/xml-dtd-4.1.2/ent/iso-cyr1.ent
--- replaced obj /usr/share/sgml/docbook/xml-dtd-4.1.2/ent/iso-box.ent
--- replaced obj /usr/share/sgml/docbook/xml-dtd-4.1.2/ent/iso-amsr.ent
--- replaced obj /usr/share/sgml/docbook/xml-dtd-4.1.2/ent/iso-amso.ent
--- replaced obj /usr/share/sgml/docbook/xml-dtd-4.1.2/ent/iso-amsn.ent
--- replaced obj /usr/share/sgml/docbook/xml-dtd-4.1.2/ent/iso-amsc.ent
--- replaced obj /usr/share/sgml/docbook/xml-dtd-4.1.2/ent/iso-amsb.ent
--- replaced obj /usr/share/sgml/docbook/xml-dtd-4.1.2/ent/iso-amsa.ent
--- replaced dir /usr/share/sgml/docbook/xml-dtd-4.1.2/ent
--- replaced obj /usr/share/sgml/docbook/xml-dtd-4.1.2/docbookx.dtd
--- replaced obj /usr/share/sgml/docbook/xml-dtd-4.1.2/docbook.cat
--- replaced obj /usr/share/sgml/docbook/xml-dtd-4.1.2/dbpoolx.mod
--- replaced obj /usr/share/sgml/docbook/xml-dtd-4.1.2/dbnotnx.mod
--- replaced obj /usr/share/sgml/docbook/xml-dtd-4.1.2/dbhierx.mod
--- replaced obj /usr/share/sgml/docbook/xml-dtd-4.1.2/dbgenent.mod
--- replaced obj /usr/share/sgml/docbook/xml-dtd-4.1.2/dbcentx.mod
--- replaced obj /usr/share/sgml/docbook/xml-dtd-4.1.2/calstblx.dtd
--- replaced dir /usr/share/sgml/docbook/xml-dtd-4.1.2
--- replaced dir /usr/share/sgml/docbook
--- replaced dir /usr/share/sgml
--- replaced dir /usr/share
--- replaced dir /usr
--- replaced obj /etc/xml/.keep_app-text_docbook-xml-dtd-4.1.2
--- replaced dir /etc/xml
--- replaced obj /etc/sgml/xml-docbook-4.1.2.cat
--- replaced dir /etc/sgml
--- replaced dir /etc
Found DocBook XSL stylesheets (xsl) in /usr/share/sgml/docbook/xsl-stylesheets
Found DocBook XSL stylesheets (xsl-ns) in /usr/share/sgml/docbook/xsl-ns-stylesheets
DocBook XSL stylesheets (xsl-saxon) not found
DocBook XSL stylesheets (xsl-xalan) not found
find: ‘xml-simple-dtd-*/’: No such file or directory
Found DocBook XML 4.1.2 in /usr/share/sgml/docbook/xml-dtd-4.1.2
Found DocBook XML 4.2 in /usr/share/sgml/docbook/xml-dtd-4.2
Found DocBook XML 4.3 in /usr/share/sgml/docbook/xml-dtd-4.3
Found DocBook XML 4.4 in /usr/share/sgml/docbook/xml-dtd-4.4
Found DocBook XML 4.5 in /usr/share/sgml/docbook/xml-dtd-4.5
Using ISO DocBook entities from /usr/share/sgml/docbook/xml-dtd-4.3/ent
 * Updating /etc/sgml/catalog ...
 [ ok ]
>>> Regenerating /etc/ld.so.cache...
