>>> Extracting info
 * Package:    app-portage/gemato-14.4
 * Repository: gentoo
 * USE:        abi_x86_64 python_targets_pypy3 python_targets_python3_8 userland_GNU amd64 python_targets_python3_7 gpg kernel_linux elibc_glibc
 * FEATURES:   network-sandbox preserve-libs sandbox userpriv usersandbox
 * FEATURES='nodoc binpkg-multi-instance usersandbox distlocks sfperms buildpkg strict-keepdir network-sandbox assume-digests unmerge-logs multilib-strict fixlafiles binpkg-logs binpkg-dostrip unknown-features-warn strict compress-index unmerge-orphans sandbox pid-sandbox downgrade-backup ipc-sandbox preserve-libs news userpriv parallel-install cgroup unmerge-backup parallel-fetch usersync binpkg-docompress qa-unresolved-soname-deps merge-sync xattr userfetch config-protect-if-modified'
 * CFLAGS='-march=native -O3 -fgraphite-identity -floop-nest-optimize -fdevirtualize-at-ltrans -fipa-pta -fno-semantic-interposition -flto=12 -fno-plt -fno-math-errno -fno-trapping-math -fuse-linker-plugin -pipe -g0 -falign-functions=32 -Wl,-O1 -Wl,--as-needed -Wl,--hash-style=gnu,-z,norelro,--as-needed'
 * CXXFLAGS='-march=native -O3 -fgraphite-identity -floop-nest-optimize -fdevirtualize-at-ltrans -fipa-pta -fno-semantic-interposition -flto=12 -fno-plt -fno-math-errno -fno-trapping-math -fuse-linker-plugin -pipe -g0 -falign-functions=32 -Wl,-O1 -Wl,--as-needed -Wl,--hash-style=gnu,-z,norelro,--as-needed'
 * FFLAGS='-march=native -O3 -fgraphite-identity -floop-nest-optimize -fdevirtualize-at-ltrans -fipa-pta -fno-semantic-interposition -flto=12 -fno-plt -fno-math-errno -fno-trapping-math -fuse-linker-plugin -pipe -g0 -falign-functions=32 -Wl,-O1 -Wl,--as-needed -Wl,--hash-style=gnu,-z,norelro,--as-needed'
 * FCFLAGS='-march=native -O3 -fgraphite-identity -floop-nest-optimize -fdevirtualize-at-ltrans -fipa-pta -fno-semantic-interposition -flto=12 -fno-plt -fno-math-errno -fno-trapping-math -fuse-linker-plugin -pipe -g0 -falign-functions=32 -Wl,-O1 -Wl,--as-needed -Wl,--hash-style=gnu,-z,norelro,--as-needed'
 * F77FLAGS='-march=native -O3 -fgraphite-identity -floop-nest-optimize -fdevirtualize-at-ltrans -fipa-pta -fno-semantic-interposition -flto=12 -fno-plt -fno-math-errno -fno-trapping-math -fuse-linker-plugin -pipe -g0 -falign-functions=32 -Wl,-O1 -Wl,--as-needed -Wl,--hash-style=gnu,-z,norelro,--as-needed'
 * LDFLAGS='-Wl,-O1 -Wl,--as-needed -Wl,--hash-style=gnu,-z,norelro,--as-needed -march=native -O3 -fgraphite-identity -floop-nest-optimize -fdevirtualize-at-ltrans -fipa-pta -fno-semantic-interposition -flto=12 -fno-plt -fno-math-errno -fno-trapping-math -fuse-linker-plugin -pipe -g0 -falign-functions=32'
 * MAKEOPTS='-j12 -l12'
 * gcc () 11.0.0 20200526 (experimental)
 * g++ () 11.0.0 20200526 (experimental)
 * GNU ld (Gentoo 2.34 p4) 2.34.0
 * Linux ryzen.gnum.org 5.4.36 #1 SMP Thu Apr 30 04:38:28 UTC 2020 x86_64 AMD Ryzen 5 3600 6-Core Processor AuthenticAMD GNU/Linux
app-portage/gemato: 15 seconds average for 11 merges
2020-05-16T00:57:16 >>> app-portage/gemato: 10 seconds
2020-05-16T16:49:20 >>> app-portage/gemato: 9 seconds
2020-05-16T21:32:54 >>> app-portage/gemato: 12 seconds
2020-05-19T23:51:30 >>> app-portage/gemato: 5 seconds
2020-05-20T02:25:43 >>> app-portage/gemato: 18 seconds
2020-05-20T14:35:25 >>> app-portage/gemato: 17 seconds
2020-05-23T12:35:12 >>> app-portage/gemato: 11 seconds
2020-05-23T22:13:45 >>> app-portage/gemato: 53 seconds
2020-05-25T03:52:07 >>> app-portage/gemato: 15 seconds
2020-05-25T04:01:16 >>> app-portage/gemato: 5 seconds
2020-05-26T00:47:50 >>> app-portage/gemato: 15 seconds
]0;emerge 02:32:40 633|647 gemato 00:12 (root@ryzen.gnum.org)kemerge 02:32:40 633|647 gemato 00:12 (root@ryzen.gnum.org)\>>> Extracting app-portage/gemato-14.4
 * checking 166 files for package collisions
>>> Merging app-portage/gemato-14.4 to /
 * removing unneeded *.la files
--- /usr/
--- /usr/bin/
>>> /usr/bin/gemato -> ../lib/python-exec/python-exec2
--- /usr/lib/
--- /usr/lib/python-exec/
--- /usr/lib/python-exec/python3.7/
>>> /usr/lib/python-exec/python3.7/gemato
--- /usr/lib/python-exec/pypy3/
>>> /usr/lib/python-exec/pypy3/gemato
--- /usr/lib/python-exec/python3.8/
>>> /usr/lib/python-exec/python3.8/gemato
--- /usr/lib/pypy3.6/
--- /usr/lib/pypy3.6/site-packages/
--- /usr/lib/pypy3.6/site-packages/gemato/
>>> /usr/lib/pypy3.6/site-packages/gemato/openpgp.py
>>> /usr/lib/pypy3.6/site-packages/gemato/verify.py
>>> /usr/lib/pypy3.6/site-packages/gemato/exceptions.py
>>> /usr/lib/pypy3.6/site-packages/gemato/profile.py
--- /usr/lib/pypy3.6/site-packages/gemato/__pycache__/
>>> /usr/lib/pypy3.6/site-packages/gemato/__pycache__/find_top_level.pypy36.pyc
>>> /usr/lib/pypy3.6/site-packages/gemato/__pycache__/__init__.pypy36.opt-1.pyc
>>> /usr/lib/pypy3.6/site-packages/gemato/__pycache__/cli.pypy36.pyc
>>> /usr/lib/pypy3.6/site-packages/gemato/__pycache__/exceptions.pypy36.opt-2.pyc
>>> /usr/lib/pypy3.6/site-packages/gemato/__pycache__/compression.pypy36.opt-2.pyc
>>> /usr/lib/pypy3.6/site-packages/gemato/__pycache__/__init__.pypy36.opt-2.pyc
>>> /usr/lib/pypy3.6/site-packages/gemato/__pycache__/profile.pypy36.opt-1.pyc
>>> /usr/lib/pypy3.6/site-packages/gemato/__pycache__/recursiveloader.pypy36.opt-1.pyc
>>> /usr/lib/pypy3.6/site-packages/gemato/__pycache__/exceptions.pypy36.opt-1.pyc
>>> /usr/lib/pypy3.6/site-packages/gemato/__pycache__/hash.pypy36.opt-1.pyc
>>> /usr/lib/pypy3.6/site-packages/gemato/__pycache__/profile.pypy36.opt-2.pyc
>>> /usr/lib/pypy3.6/site-packages/gemato/__pycache__/util.pypy36.pyc
>>> /usr/lib/pypy3.6/site-packages/gemato/__pycache__/verify.pypy36.pyc
>>> /usr/lib/pypy3.6/site-packages/gemato/__pycache__/__init__.pypy36.pyc
>>> /usr/lib/pypy3.6/site-packages/gemato/__pycache__/profile.pypy36.pyc
>>> /usr/lib/pypy3.6/site-packages/gemato/__pycache__/manifest.pypy36.opt-1.pyc
>>> /usr/lib/pypy3.6/site-packages/gemato/__pycache__/find_top_level.pypy36.opt-2.pyc
>>> /usr/lib/pypy3.6/site-packages/gemato/__pycache__/verify.pypy36.opt-2.pyc
>>> /usr/lib/pypy3.6/site-packages/gemato/__pycache__/hash.pypy36.opt-2.pyc
>>> /usr/lib/pypy3.6/site-packages/gemato/__pycache__/exceptions.pypy36.pyc
>>> /usr/lib/pypy3.6/site-packages/gemato/__pycache__/verify.pypy36.opt-1.pyc
>>> /usr/lib/pypy3.6/site-packages/gemato/__pycache__/find_top_level.pypy36.opt-1.pyc
>>> /usr/lib/pypy3.6/site-packages/gemato/__pycache__/util.pypy36.opt-2.pyc
>>> /usr/lib/pypy3.6/site-packages/gemato/__pycache__/manifest.pypy36.opt-2.pyc
>>> /usr/lib/pypy3.6/site-packages/gemato/__pycache__/openpgp.pypy36.opt-1.pyc
>>> /usr/lib/pypy3.6/site-packages/gemato/__pycache__/recursiveloader.pypy36.opt-2.pyc
>>> /usr/lib/pypy3.6/site-packages/gemato/__pycache__/hash.pypy36.pyc
>>> /usr/lib/pypy3.6/site-packages/gemato/__pycache__/recursiveloader.pypy36.pyc
>>> /usr/lib/pypy3.6/site-packages/gemato/__pycache__/cli.pypy36.opt-2.pyc
>>> /usr/lib/pypy3.6/site-packages/gemato/__pycache__/manifest.pypy36.pyc
>>> /usr/lib/pypy3.6/site-packages/gemato/__pycache__/util.pypy36.opt-1.pyc
>>> /usr/lib/pypy3.6/site-packages/gemato/__pycache__/openpgp.pypy36.pyc
>>> /usr/lib/pypy3.6/site-packages/gemato/__pycache__/openpgp.pypy36.opt-2.pyc
>>> /usr/lib/pypy3.6/site-packages/gemato/__pycache__/compression.pypy36.opt-1.pyc
>>> /usr/lib/pypy3.6/site-packages/gemato/__pycache__/compression.pypy36.pyc
>>> /usr/lib/pypy3.6/site-packages/gemato/__pycache__/cli.pypy36.opt-1.pyc
>>> /usr/lib/pypy3.6/site-packages/gemato/util.py
>>> /usr/lib/pypy3.6/site-packages/gemato/find_top_level.py
>>> /usr/lib/pypy3.6/site-packages/gemato/recursiveloader.py
>>> /usr/lib/pypy3.6/site-packages/gemato/hash.py
>>> /usr/lib/pypy3.6/site-packages/gemato/manifest.py
>>> /usr/lib/pypy3.6/site-packages/gemato/__init__.py
>>> /usr/lib/pypy3.6/site-packages/gemato/cli.py
>>> /usr/lib/pypy3.6/site-packages/gemato/compression.py
--- /usr/lib/pypy3.6/site-packages/gemato-14.4-py3.6.egg-info/
>>> /usr/lib/pypy3.6/site-packages/gemato-14.4-py3.6.egg-info/requires.txt
>>> /usr/lib/pypy3.6/site-packages/gemato-14.4-py3.6.egg-info/entry_points.txt
>>> /usr/lib/pypy3.6/site-packages/gemato-14.4-py3.6.egg-info/PKG-INFO
>>> /usr/lib/pypy3.6/site-packages/gemato-14.4-py3.6.egg-info/dependency_links.txt
>>> /usr/lib/pypy3.6/site-packages/gemato-14.4-py3.6.egg-info/SOURCES.txt
>>> /usr/lib/pypy3.6/site-packages/gemato-14.4-py3.6.egg-info/top_level.txt
--- /usr/lib/python3.7/
--- /usr/lib/python3.7/site-packages/
--- /usr/lib/python3.7/site-packages/gemato-14.4-py3.7.egg-info/
>>> /usr/lib/python3.7/site-packages/gemato-14.4-py3.7.egg-info/requires.txt
>>> /usr/lib/python3.7/site-packages/gemato-14.4-py3.7.egg-info/entry_points.txt
>>> /usr/lib/python3.7/site-packages/gemato-14.4-py3.7.egg-info/PKG-INFO
>>> /usr/lib/python3.7/site-packages/gemato-14.4-py3.7.egg-info/dependency_links.txt
>>> /usr/lib/python3.7/site-packages/gemato-14.4-py3.7.egg-info/SOURCES.txt
>>> /usr/lib/python3.7/site-packages/gemato-14.4-py3.7.egg-info/top_level.txt
--- /usr/lib/python3.7/site-packages/gemato/
>>> /usr/lib/python3.7/site-packages/gemato/openpgp.py
>>> /usr/lib/python3.7/site-packages/gemato/verify.py
>>> /usr/lib/python3.7/site-packages/gemato/exceptions.py
>>> /usr/lib/python3.7/site-packages/gemato/profile.py
--- /usr/lib/python3.7/site-packages/gemato/__pycache__/
>>> /usr/lib/python3.7/site-packages/gemato/__pycache__/cli.cpython-37.opt-1.pyc
>>> /usr/lib/python3.7/site-packages/gemato/__pycache__/openpgp.cpython-37.pyc
>>> /usr/lib/python3.7/site-packages/gemato/__pycache__/find_top_level.cpython-37.opt-2.pyc
>>> /usr/lib/python3.7/site-packages/gemato/__pycache__/manifest.cpython-37.pyc
>>> /usr/lib/python3.7/site-packages/gemato/__pycache__/verify.cpython-37.opt-1.pyc
>>> /usr/lib/python3.7/site-packages/gemato/__pycache__/hash.cpython-37.opt-2.pyc
>>> /usr/lib/python3.7/site-packages/gemato/__pycache__/profile.cpython-37.opt-2.pyc
>>> /usr/lib/python3.7/site-packages/gemato/__pycache__/openpgp.cpython-37.opt-2.pyc
>>> /usr/lib/python3.7/site-packages/gemato/__pycache__/__init__.cpython-37.pyc
>>> /usr/lib/python3.7/site-packages/gemato/__pycache__/compression.cpython-37.opt-2.pyc
>>> /usr/lib/python3.7/site-packages/gemato/__pycache__/verify.cpython-37.opt-2.pyc
>>> /usr/lib/python3.7/site-packages/gemato/__pycache__/compression.cpython-37.pyc
>>> /usr/lib/python3.7/site-packages/gemato/__pycache__/util.cpython-37.opt-2.pyc
>>> /usr/lib/python3.7/site-packages/gemato/__pycache__/exceptions.cpython-37.opt-2.pyc
>>> /usr/lib/python3.7/site-packages/gemato/__pycache__/profile.cpython-37.pyc
>>> /usr/lib/python3.7/site-packages/gemato/__pycache__/verify.cpython-37.pyc
>>> /usr/lib/python3.7/site-packages/gemato/__pycache__/cli.cpython-37.pyc
>>> /usr/lib/python3.7/site-packages/gemato/__pycache__/profile.cpython-37.opt-1.pyc
>>> /usr/lib/python3.7/site-packages/gemato/__pycache__/cli.cpython-37.opt-2.pyc
>>> /usr/lib/python3.7/site-packages/gemato/__pycache__/find_top_level.cpython-37.opt-1.pyc
>>> /usr/lib/python3.7/site-packages/gemato/__pycache__/__init__.cpython-37.opt-2.pyc
>>> /usr/lib/python3.7/site-packages/gemato/__pycache__/__init__.cpython-37.opt-1.pyc
>>> /usr/lib/python3.7/site-packages/gemato/__pycache__/recursiveloader.cpython-37.opt-1.pyc
>>> /usr/lib/python3.7/site-packages/gemato/__pycache__/util.cpython-37.pyc
>>> /usr/lib/python3.7/site-packages/gemato/__pycache__/hash.cpython-37.opt-1.pyc
>>> /usr/lib/python3.7/site-packages/gemato/__pycache__/recursiveloader.cpython-37.pyc
>>> /usr/lib/python3.7/site-packages/gemato/__pycache__/openpgp.cpython-37.opt-1.pyc
>>> /usr/lib/python3.7/site-packages/gemato/__pycache__/manifest.cpython-37.opt-1.pyc
>>> /usr/lib/python3.7/site-packages/gemato/__pycache__/exceptions.cpython-37.opt-1.pyc
>>> /usr/lib/python3.7/site-packages/gemato/__pycache__/recursiveloader.cpython-37.opt-2.pyc
>>> /usr/lib/python3.7/site-packages/gemato/__pycache__/util.cpython-37.opt-1.pyc
>>> /usr/lib/python3.7/site-packages/gemato/__pycache__/compression.cpython-37.opt-1.pyc
>>> /usr/lib/python3.7/site-packages/gemato/__pycache__/find_top_level.cpython-37.pyc
>>> /usr/lib/python3.7/site-packages/gemato/__pycache__/exceptions.cpython-37.pyc
>>> /usr/lib/python3.7/site-packages/gemato/__pycache__/manifest.cpython-37.opt-2.pyc
>>> /usr/lib/python3.7/site-packages/gemato/__pycache__/hash.cpython-37.pyc
>>> /usr/lib/python3.7/site-packages/gemato/util.py
>>> /usr/lib/python3.7/site-packages/gemato/find_top_level.py
>>> /usr/lib/python3.7/site-packages/gemato/recursiveloader.py
>>> /usr/lib/python3.7/site-packages/gemato/hash.py
>>> /usr/lib/python3.7/site-packages/gemato/manifest.py
>>> /usr/lib/python3.7/site-packages/gemato/__init__.py
>>> /usr/lib/python3.7/site-packages/gemato/cli.py
>>> /usr/lib/python3.7/site-packages/gemato/compression.py
--- /usr/lib/python3.8/
--- /usr/lib/python3.8/site-packages/
--- /usr/lib/python3.8/site-packages/gemato/
>>> /usr/lib/python3.8/site-packages/gemato/openpgp.py
>>> /usr/lib/python3.8/site-packages/gemato/verify.py
>>> /usr/lib/python3.8/site-packages/gemato/exceptions.py
>>> /usr/lib/python3.8/site-packages/gemato/profile.py
--- /usr/lib/python3.8/site-packages/gemato/__pycache__/
>>> /usr/lib/python3.8/site-packages/gemato/__pycache__/recursiveloader.cpython-38.opt-2.pyc
>>> /usr/lib/python3.8/site-packages/gemato/__pycache__/recursiveloader.cpython-38.opt-1.pyc
>>> /usr/lib/python3.8/site-packages/gemato/__pycache__/recursiveloader.cpython-38.pyc
>>> /usr/lib/python3.8/site-packages/gemato/__pycache__/openpgp.cpython-38.opt-2.pyc
>>> /usr/lib/python3.8/site-packages/gemato/__pycache__/find_top_level.cpython-38.pyc
>>> /usr/lib/python3.8/site-packages/gemato/__pycache__/compression.cpython-38.pyc
>>> /usr/lib/python3.8/site-packages/gemato/__pycache__/manifest.cpython-38.opt-2.pyc
>>> /usr/lib/python3.8/site-packages/gemato/__pycache__/hash.cpython-38.opt-1.pyc
>>> /usr/lib/python3.8/site-packages/gemato/__pycache__/profile.cpython-38.opt-2.pyc
>>> /usr/lib/python3.8/site-packages/gemato/__pycache__/cli.cpython-38.opt-2.pyc
>>> /usr/lib/python3.8/site-packages/gemato/__pycache__/util.cpython-38.opt-2.pyc
>>> /usr/lib/python3.8/site-packages/gemato/__pycache__/find_top_level.cpython-38.opt-2.pyc
>>> /usr/lib/python3.8/site-packages/gemato/__pycache__/exceptions.cpython-38.opt-1.pyc
>>> /usr/lib/python3.8/site-packages/gemato/__pycache__/verify.cpython-38.pyc
>>> /usr/lib/python3.8/site-packages/gemato/__pycache__/util.cpython-38.opt-1.pyc
>>> /usr/lib/python3.8/site-packages/gemato/__pycache__/find_top_level.cpython-38.opt-1.pyc
>>> /usr/lib/python3.8/site-packages/gemato/__pycache__/compression.cpython-38.opt-2.pyc
>>> /usr/lib/python3.8/site-packages/gemato/__pycache__/cli.cpython-38.pyc
>>> /usr/lib/python3.8/site-packages/gemato/__pycache__/profile.cpython-38.pyc
>>> /usr/lib/python3.8/site-packages/gemato/__pycache__/__init__.cpython-38.opt-2.pyc
>>> /usr/lib/python3.8/site-packages/gemato/__pycache__/compression.cpython-38.opt-1.pyc
>>> /usr/lib/python3.8/site-packages/gemato/__pycache__/openpgp.cpython-38.opt-1.pyc
>>> /usr/lib/python3.8/site-packages/gemato/__pycache__/cli.cpython-38.opt-1.pyc
>>> /usr/lib/python3.8/site-packages/gemato/__pycache__/hash.cpython-38.opt-2.pyc
>>> /usr/lib/python3.8/site-packages/gemato/__pycache__/__init__.cpython-38.pyc
>>> /usr/lib/python3.8/site-packages/gemato/__pycache__/openpgp.cpython-38.pyc
>>> /usr/lib/python3.8/site-packages/gemato/__pycache__/hash.cpython-38.pyc
>>> /usr/lib/python3.8/site-packages/gemato/__pycache__/__init__.cpython-38.opt-1.pyc
>>> /usr/lib/python3.8/site-packages/gemato/__pycache__/exceptions.cpython-38.pyc
>>> /usr/lib/python3.8/site-packages/gemato/__pycache__/manifest.cpython-38.opt-1.pyc
>>> /usr/lib/python3.8/site-packages/gemato/__pycache__/manifest.cpython-38.pyc
>>> /usr/lib/python3.8/site-packages/gemato/__pycache__/verify.cpython-38.opt-1.pyc
>>> /usr/lib/python3.8/site-packages/gemato/__pycache__/verify.cpython-38.opt-2.pyc
>>> /usr/lib/python3.8/site-packages/gemato/__pycache__/profile.cpython-38.opt-1.pyc
>>> /usr/lib/python3.8/site-packages/gemato/__pycache__/util.cpython-38.pyc
>>> /usr/lib/python3.8/site-packages/gemato/__pycache__/exceptions.cpython-38.opt-2.pyc
>>> /usr/lib/python3.8/site-packages/gemato/util.py
>>> /usr/lib/python3.8/site-packages/gemato/find_top_level.py
>>> /usr/lib/python3.8/site-packages/gemato/recursiveloader.py
>>> /usr/lib/python3.8/site-packages/gemato/hash.py
>>> /usr/lib/python3.8/site-packages/gemato/manifest.py
>>> /usr/lib/python3.8/site-packages/gemato/__init__.py
>>> /usr/lib/python3.8/site-packages/gemato/cli.py
>>> /usr/lib/python3.8/site-packages/gemato/compression.py
--- /usr/lib/python3.8/site-packages/gemato-14.4-py3.8.egg-info/
>>> /usr/lib/python3.8/site-packages/gemato-14.4-py3.8.egg-info/requires.txt
>>> /usr/lib/python3.8/site-packages/gemato-14.4-py3.8.egg-info/entry_points.txt
>>> /usr/lib/python3.8/site-packages/gemato-14.4-py3.8.egg-info/PKG-INFO
>>> /usr/lib/python3.8/site-packages/gemato-14.4-py3.8.egg-info/dependency_links.txt
>>> /usr/lib/python3.8/site-packages/gemato-14.4-py3.8.egg-info/SOURCES.txt
>>> /usr/lib/python3.8/site-packages/gemato-14.4-py3.8.egg-info/top_level.txt
>>> Safely unmerging already-installed instance...
>>> Original instance of package unmerged safely.
>>> app-portage/gemato-14.4 merged.
