>>> Extracting info
 * Package:    app-text/build-docbook-catalog-1.21
 * Repository: gentoo
 * USE:        amd64 userland_GNU abi_x86_64 elibc_glibc kernel_linux
 * FEATURES:   ccache preserve-libs userpriv
 * FEATURES='assume-digests binpkg-docompress binpkg-dostrip binpkg-logs buildpkg ccache cgroup compress-index config-protect-if-modified distlocks ebuild-locks fixlafiles merge-sync multilib-strict news nodoc parallel-fetch preserve-libs qa-unresolved-soname-deps sfperms strict strict-keepdir unknown-features-warn unmerge-logs unmerge-orphans userfetch userpriv usersync xattr'
 * CFLAGS='-march=znver2 -O2 -pipe -g0 -fno-semantic-interposition -fno-plt -falign-functions=32 -fno-stack-protector -fno-stack-clash-protection -fstack-check=no -fno-stack-check -Wl,-O4 -Wl,-O4,--sort-common,--as-needed,-z,norelro,-z,now'
 * CXXFLAGS='-march=znver2 -O2 -pipe -g0 -fno-semantic-interposition -fno-plt -falign-functions=32 -fno-stack-protector -fno-stack-clash-protection -fstack-check=no -fno-stack-check -Wl,-O4 -Wl,-O4,--sort-common,--as-needed,-z,norelro,-z,now'
 * FFLAGS='-march=znver2 -O2 -pipe -g0 -fno-semantic-interposition -fno-plt -falign-functions=32 -fno-stack-protector -fno-stack-clash-protection -fstack-check=no -fno-stack-check -Wl,-O4 -Wl,-O4,--sort-common,--as-needed,-z,norelro,-z,now'
 * FCFLAGS='-march=znver2 -O2 -pipe -g0 -fno-semantic-interposition -fno-plt -falign-functions=32 -fno-stack-protector -fno-stack-clash-protection -fstack-check=no -fno-stack-check -Wl,-O4 -Wl,-O4,--sort-common,--as-needed,-z,norelro,-z,now'
 * F77FLAGS='-march=znver2 -O2 -pipe -g0 -fno-semantic-interposition -fno-plt -falign-functions=32 -fno-stack-protector -fno-stack-clash-protection -fstack-check=no -fno-stack-check -Wl,-O4 -Wl,-O4,--sort-common,--as-needed,-z,norelro,-z,now'
 * LDFLAGS='-Wl,-O4,--sort-common,--as-needed,-z,norelro,-z,now'
 * MAKEOPTS='-j12 -l12 EPREFIX='
 * gcc (Gentoo 11.0.0_pre9999 p1, commit 184c21bf1cd04a108ed9bd04635e7d57ac39f616) 11.0.0 20200611 (experimental)
 * g++ (Gentoo 11.0.0_pre9999 p1, commit 184c21bf1cd04a108ed9bd04635e7d57ac39f616) 11.0.0 20200611 (experimental)
 * GNU ld (Gentoo 2.34 p4) 2.34.0
 * Linux rescue 5.4.36 #1 SMP Thu Apr 30 04:38:28 UTC 2020 x86_64 AMD Ryzen 5 3600 6-Core Processor AuthenticAMD GNU/Linux
app-text/build-docbook-catalog: 9 seconds average for 13 merges
2020-05-16T20:51:09 >>> app-text/build-docbook-catalog: 8 seconds
2020-05-20T01:27:08 >>> app-text/build-docbook-catalog: 6 seconds
2020-05-23T11:33:19 >>> app-text/build-docbook-catalog: 14 seconds
2020-05-24T23:56:17 >>> app-text/build-docbook-catalog: 10 seconds
2020-05-25T18:37:51 >>> app-text/build-docbook-catalog: 10 seconds
2020-05-25T20:15:30 >>> app-text/build-docbook-catalog: 10 seconds
2020-05-26T14:39:27 >>> app-text/build-docbook-catalog: 6 seconds
2020-05-27T02:15:48 >>> app-text/build-docbook-catalog: 7 seconds
2020-05-27T03:24:24 >>> app-text/build-docbook-catalog: 11 seconds
2020-05-30T13:03:12 >>> app-text/build-docbook-catalog: 13 seconds
2020-06-01T02:18:28 >>> app-text/build-docbook-catalog: 11 seconds
2020-06-12T02:06:14 >>> app-text/build-docbook-catalog: 5 seconds
2020-06-13T03:32:38 >>> app-text/build-docbook-catalog: 7 seconds
]0;emerge 20:44:21 616|882 build-docbook-catalog 00:08 (root@rescue)>>> Extracting app-text/build-docbook-catalog-1.21
 * checking 1 files for package collisions
>>> Merging app-text/build-docbook-catalog-1.21 to /
 * removing unneeded *.la files
--- /usr/
--- /usr/sbin/
>>> /usr/sbin/build-docbook-catalog
>>> Safely unmerging already-installed instance...
>>> Original instance of package unmerged safely.
Found DocBook XSL stylesheets (xsl) in /usr/share/sgml/docbook/xsl-stylesheets
Found DocBook XSL stylesheets (xsl-ns) in /usr/share/sgml/docbook/xsl-ns-stylesheets
DocBook XSL stylesheets (xsl-saxon) not found
DocBook XSL stylesheets (xsl-xalan) not found
find: ‘xml-simple-dtd-*/’: No such file or directory
Found DocBook XML 4.1.2 in /usr/share/sgml/docbook/xml-dtd-4.1.2
Found DocBook XML 4.2 in /usr/share/sgml/docbook/xml-dtd-4.2
Found DocBook XML 4.3 in /usr/share/sgml/docbook/xml-dtd-4.3
Found DocBook XML 4.4 in /usr/share/sgml/docbook/xml-dtd-4.4
Found DocBook XML 4.5 in /usr/share/sgml/docbook/xml-dtd-4.5
Using ISO DocBook entities from /usr/share/sgml/docbook/xml-dtd-4.3/ent
>>> app-text/build-docbook-catalog-1.21 merged.
