No package files given... Grabbing a set.
--- replaced obj /usr/share/eselect/modules/lcdfilter.eselect
--- replaced dir /usr/share/eselect/modules
--- replaced obj /usr/share/eselect-lcdfilter/env.d/windows-xp-light
--- replaced obj /usr/share/eselect-lcdfilter/env.d/windows-xp
--- replaced obj /usr/share/eselect-lcdfilter/env.d/windows-7-light
--- replaced obj /usr/share/eselect-lcdfilter/env.d/windows-7
--- replaced obj /usr/share/eselect-lcdfilter/env.d/vanilla
--- replaced obj /usr/share/eselect-lcdfilter/env.d/ubuntu
--- replaced obj /usr/share/eselect-lcdfilter/env.d/osx
--- replaced obj /usr/share/eselect-lcdfilter/env.d/nyx
--- replaced obj /usr/share/eselect-lcdfilter/env.d/linux
--- replaced obj /usr/share/eselect-lcdfilter/env.d/ipad
--- replaced obj /usr/share/eselect-lcdfilter/env.d/infinality-shove
--- replaced obj /usr/share/eselect-lcdfilter/env.d/infinality-sharpened
--- replaced obj /usr/share/eselect-lcdfilter/env.d/infinality-push
--- replaced obj /usr/share/eselect-lcdfilter/env.d/infinality-nudge
--- replaced obj /usr/share/eselect-lcdfilter/env.d/infinality-classic
--- replaced obj /usr/share/eselect-lcdfilter/env.d/infinality
--- replaced obj /usr/share/eselect-lcdfilter/env.d/default
--- replaced obj /usr/share/eselect-lcdfilter/env.d/custom
--- replaced dir /usr/share/eselect-lcdfilter/env.d
--- replaced dir /usr/share/eselect-lcdfilter
--- replaced dir /usr/share/eselect
--- replaced dir /usr/share
--- replaced dir /usr
>>> Regenerating /etc/ld.so.cache...
