>>> Extracting info
 * Package:    app-arch/gzip-1.10
 * Repository: gentoo
 * USE:        amd64 pic userland_GNU abi_x86_64 elibc_glibc kernel_linux
 * FEATURES:   ccache preserve-libs userpriv
 * FEATURES='assume-digests binpkg-docompress binpkg-dostrip binpkg-logs buildpkg ccache cgroup compress-index config-protect-if-modified distlocks ebuild-locks fixlafiles merge-sync multilib-strict news nodoc parallel-fetch preserve-libs qa-unresolved-soname-deps sfperms strict strict-keepdir unknown-features-warn unmerge-logs unmerge-orphans userfetch userpriv usersync xattr'
 * CFLAGS='-march=znver2 -O2 -pipe -g0 -fno-semantic-interposition -fno-plt -falign-functions=32 -fno-stack-protector -fno-stack-clash-protection -fstack-check=no -fno-stack-check -Wl,-O4 -Wl,-O4,--sort-common,--as-needed,-z,norelro,-z,now'
 * CXXFLAGS='-march=znver2 -O2 -pipe -g0 -fno-semantic-interposition -fno-plt -falign-functions=32 -fno-stack-protector -fno-stack-clash-protection -fstack-check=no -fno-stack-check -Wl,-O4 -Wl,-O4,--sort-common,--as-needed,-z,norelro,-z,now'
 * FFLAGS='-march=znver2 -O2 -pipe -g0 -fno-semantic-interposition -fno-plt -falign-functions=32 -fno-stack-protector -fno-stack-clash-protection -fstack-check=no -fno-stack-check -Wl,-O4 -Wl,-O4,--sort-common,--as-needed,-z,norelro,-z,now'
 * FCFLAGS='-march=znver2 -O2 -pipe -g0 -fno-semantic-interposition -fno-plt -falign-functions=32 -fno-stack-protector -fno-stack-clash-protection -fstack-check=no -fno-stack-check -Wl,-O4 -Wl,-O4,--sort-common,--as-needed,-z,norelro,-z,now'
 * F77FLAGS='-march=znver2 -O2 -pipe -g0 -fno-semantic-interposition -fno-plt -falign-functions=32 -fno-stack-protector -fno-stack-clash-protection -fstack-check=no -fno-stack-check -Wl,-O4 -Wl,-O4,--sort-common,--as-needed,-z,norelro,-z,now'
 * LDFLAGS='-Wl,-O4,--sort-common,--as-needed,-z,norelro,-z,now'
 * MAKEOPTS='-j12 -l12'
 * gcc (Gentoo 11.0.0_pre9999 p1, commit 184c21bf1cd04a108ed9bd04635e7d57ac39f616) 11.0.0 20200611 (experimental)
 * g++ (Gentoo 11.0.0_pre9999 p1, commit 184c21bf1cd04a108ed9bd04635e7d57ac39f616) 11.0.0 20200611 (experimental)
 * GNU ld (Gentoo 2.34 p4) 2.34.0
 * Linux rescue 5.4.36 #1 SMP Thu Apr 30 04:38:28 UTC 2020 x86_64 AMD Ryzen 5 3600 6-Core Processor AuthenticAMD GNU/Linux
app-arch/gzip: 4 minutes, 44 seconds average for 29 merges
2020-05-16T20:33:57 >>> app-arch/gzip: 36 seconds
2020-05-20T00:55:57 >>> app-arch/gzip: 2 minutes, 8 seconds
2020-05-21T05:46:57 >>> app-arch/gzip: 6 seconds
2020-05-22T01:53:09 >>> app-arch/gzip: 6 minutes, 49 seconds
2020-05-22T02:39:27 >>> app-arch/gzip: 3 minutes, 24 seconds
2020-05-22T03:04:16 >>> app-arch/gzip: 7 minutes, 40 seconds
2020-05-22T12:23:51 >>> app-arch/gzip: 7 minutes, 25 seconds
2020-05-23T03:25:33 >>> app-arch/gzip: 7 minutes, 24 seconds
2020-05-24T23:19:39 >>> app-arch/gzip: 9 minutes, 34 seconds
2020-05-25T03:01:24 >>> app-arch/gzip: 1 minute, 52 seconds
2020-05-25T18:11:38 >>> app-arch/gzip: 7 minutes, 54 seconds
2020-05-25T19:48:54 >>> app-arch/gzip: 4 minutes, 59 seconds
2020-05-26T12:30:34 >>> app-arch/gzip: 4 minutes, 47 seconds
2020-05-26T13:45:58 >>> app-arch/gzip: 2 minutes, 48 seconds
2020-05-27T01:23:52 >>> app-arch/gzip: 2 minutes, 8 seconds
2020-05-27T02:57:57 >>> app-arch/gzip: 8 minutes, 45 seconds
2020-05-28T13:20:51 >>> app-arch/gzip: 7 minutes, 1 second
2020-05-28T14:11:13 >>> app-arch/gzip: 2 minutes, 54 seconds
2020-05-29T01:31:26 >>> app-arch/gzip: 2 minutes, 15 seconds
2020-05-30T12:25:36 >>> app-arch/gzip: 9 minutes, 29 seconds
2020-05-30T21:31:46 >>> app-arch/gzip: 3 minutes, 18 seconds
2020-05-31T11:13:39 >>> app-arch/gzip: 57 seconds
2020-06-01T01:42:54 >>> app-arch/gzip: 7 minutes, 15 seconds
2020-06-04T11:46:31 >>> app-arch/gzip: 19 minutes, 6 seconds
2020-06-09T04:02:03 >>> app-arch/gzip: 6 seconds
2020-06-12T01:17:44 >>> app-arch/gzip: 5 seconds
2020-06-13T03:01:37 >>> app-arch/gzip: 3 minutes, 1 second
2020-06-13T03:15:28 >>> app-arch/gzip: 3 minutes, 30 seconds
2020-06-13T19:17:08 >>> app-arch/gzip: 14 seconds
]0;emerge 19:54:16 24|882 gzip 02:15 (root@rescue)>>> Extracting app-arch/gzip-1.10
 * checking 26 files for package collisions
>>> Merging app-arch/gzip-1.10 to /
 * removing unneeded *.la files
--- /usr/
--- /usr/share/
--- /usr/share/man/
--- /usr/share/man/man1/
>>> /usr/share/man/man1/zgrep.1.bz2
>>> /usr/share/man/man1/zdiff.1.bz2
>>> /usr/share/man/man1/zcat.1
>>> /usr/share/man/man1/znew.1.bz2
>>> /usr/share/man/man1/zmore.1.bz2
>>> /usr/share/man/man1/zcmp.1
>>> /usr/share/man/man1/gzip.1.bz2
>>> /usr/share/man/man1/gzexe.1.bz2
>>> /usr/share/man/man1/zforce.1.bz2
>>> /usr/share/man/man1/gunzip.1
>>> /usr/share/man/man1/zless.1.bz2
--- /usr/share/info/
>>> /usr/share/info/gzip.info.bz2
--- /usr/bin/
>>> /usr/bin/gzexe
>>> /usr/bin/zless
>>> /usr/bin/zgrep
>>> /usr/bin/zegrep
>>> /usr/bin/zdiff
>>> /usr/bin/zcmp
>>> /usr/bin/zforce
>>> /usr/bin/zfgrep
>>> /usr/bin/zmore
>>> /usr/bin/znew
--- /bin/
>>> /bin/gunzip
>>> /bin/zcat
>>> /bin/uncompress -> gunzip
>>> /bin/gzip
>>> Safely unmerging already-installed instance...
>>> Original instance of package unmerged safely.
>>> app-arch/gzip-1.10 merged.
