No package files given... Grabbing a set.
--- replaced obj /usr/share/pkgconfig/bash-completion.pc
--- replaced dir /usr/share/pkgconfig
--- replaced obj /usr/share/man/man5/bashcomp.eselect.5.bz2
--- replaced obj /usr/share/man/man5/bashcomp.eselect.5
--- replaced dir /usr/share/man/man5
--- replaced dir /usr/share/man
--- replaced obj /usr/share/eselect/modules/bashcomp.eselect
--- replaced dir /usr/share/eselect/modules
--- replaced dir /usr/share/eselect
--- replaced obj /usr/share/cmake/bash-completion/bash-completion-config.cmake
--- replaced obj /usr/share/cmake/bash-completion/bash-completion-config-version.cmake
--- replaced dir /usr/share/cmake/bash-completion
--- replaced dir /usr/share/cmake
--- replaced obj /usr/share/bash-completion/helpers/python
--- replaced obj /usr/share/bash-completion/helpers/perl
--- replaced dir /usr/share/bash-completion/helpers
--- replaced obj /usr/share/bash-completion/completions/zopflipng
--- replaced obj /usr/share/bash-completion/completions/zopfli
--- replaced obj /usr/share/bash-completion/completions/yum-arch
--- replaced obj /usr/share/bash-completion/completions/ypmatch
--- replaced sym /usr/share/bash-completion/completions/ypcat
--- replaced obj /usr/share/bash-completion/completions/xzdec
--- replaced obj /usr/share/bash-completion/completions/xz
--- replaced sym /usr/share/bash-completion/completions/xvnc4viewer
--- replaced obj /usr/share/bash-completion/completions/xvfb-run
--- replaced obj /usr/share/bash-completion/completions/xsltproc
--- replaced obj /usr/share/bash-completion/completions/xrdb
--- replaced obj /usr/share/bash-completion/completions/xrandr
--- replaced sym /usr/share/bash-completion/completions/xpovray
--- replaced obj /usr/share/bash-completion/completions/xmodmap
--- replaced obj /usr/share/bash-completion/completions/xmms
--- replaced obj /usr/share/bash-completion/completions/xmlwf
--- replaced obj /usr/share/bash-completion/completions/xmllint
--- replaced obj /usr/share/bash-completion/completions/xhost
--- replaced obj /usr/share/bash-completion/completions/xgamma
--- replaced obj /usr/share/bash-completion/completions/xfreerdp
--- replaced obj /usr/share/bash-completion/completions/xdg-settings
--- replaced obj /usr/share/bash-completion/completions/xdg-mime
--- replaced obj /usr/share/bash-completion/completions/wvdial
--- replaced obj /usr/share/bash-completion/completions/wtf
--- replaced obj /usr/share/bash-completion/completions/wsimport
--- replaced obj /usr/share/bash-completion/completions/wol
--- replaced obj /usr/share/bash-completion/completions/wodim
--- replaced obj /usr/share/bash-completion/completions/withlist
--- replaced sym /usr/share/bash-completion/completions/wine-stable
--- replaced sym /usr/share/bash-completion/completions/wine-development
--- replaced obj /usr/share/bash-completion/completions/wine
--- replaced sym /usr/share/bash-completion/completions/whatis
--- replaced obj /usr/share/bash-completion/completions/wget
--- replaced obj /usr/share/bash-completion/completions/webmitm
--- replaced obj /usr/share/bash-completion/completions/watch
--- replaced obj /usr/share/bash-completion/completions/vpnc
--- replaced obj /usr/share/bash-completion/completions/vncviewer
--- replaced obj /usr/share/bash-completion/completions/vmstat
--- replaced obj /usr/share/bash-completion/completions/vipw
--- replaced sym /usr/share/bash-completion/completions/vigr
--- replaced sym /usr/share/bash-completion/completions/vgsplit
--- replaced sym /usr/share/bash-completion/completions/vgscan
--- replaced sym /usr/share/bash-completion/completions/vgs
--- replaced sym /usr/share/bash-completion/completions/vgrename
--- replaced sym /usr/share/bash-completion/completions/vgremove
--- replaced sym /usr/share/bash-completion/completions/vgreduce
--- replaced sym /usr/share/bash-completion/completions/vgmknodes
--- replaced sym /usr/share/bash-completion/completions/vgmerge
--- replaced sym /usr/share/bash-completion/completions/vgimport
--- replaced sym /usr/share/bash-completion/completions/vgextend
--- replaced sym /usr/share/bash-completion/completions/vgexport
--- replaced sym /usr/share/bash-completion/completions/vgdisplay
--- replaced sym /usr/share/bash-completion/completions/vgcreate
--- replaced sym /usr/share/bash-completion/completions/vgconvert
--- replaced sym /usr/share/bash-completion/completions/vgck
--- replaced sym /usr/share/bash-completion/completions/vgchange
--- replaced sym /usr/share/bash-completion/completions/vgcfgrestore
--- replaced sym /usr/share/bash-completion/completions/vgcfgbackup
--- replaced obj /usr/share/bash-completion/completions/valgrind
--- replaced obj /usr/share/bash-completion/completions/usermod
--- replaced obj /usr/share/bash-completion/completions/userdel
--- replaced obj /usr/share/bash-completion/completions/useradd
--- replaced obj /usr/share/bash-completion/completions/urlsnarf
--- replaced obj /usr/share/bash-completion/completions/update-rc.d
--- replaced obj /usr/share/bash-completion/completions/update-alternatives
--- replaced obj /usr/share/bash-completion/completions/unshunt
--- replaced obj /usr/share/bash-completion/completions/unrar
--- replaced obj /usr/share/bash-completion/completions/unpack200
--- replaced obj /usr/share/bash-completion/completions/unace
--- replaced obj /usr/share/bash-completion/completions/ulimit
--- replaced sym /usr/share/bash-completion/completions/typeset
--- replaced obj /usr/share/bash-completion/completions/tune2fs
--- replaced obj /usr/share/bash-completion/completions/tshark
--- replaced sym /usr/share/bash-completion/completions/tracepath6
--- replaced obj /usr/share/bash-completion/completions/tracepath
--- replaced obj /usr/share/bash-completion/completions/tox
--- replaced obj /usr/share/bash-completion/completions/tipc
--- replaced obj /usr/share/bash-completion/completions/timeout
--- replaced sym /usr/share/bash-completion/completions/tightvncviewer
--- replaced obj /usr/share/bash-completion/completions/tcpnice
--- replaced obj /usr/share/bash-completion/completions/tcpkill
--- replaced obj /usr/share/bash-completion/completions/tcpdump
--- replaced obj /usr/share/bash-completion/completions/tar
--- replaced obj /usr/share/bash-completion/completions/sysctl
--- replaced obj /usr/share/bash-completion/completions/sysbench
--- replaced obj /usr/share/bash-completion/completions/synclient
--- replaced obj /usr/share/bash-completion/completions/sync_members
--- replaced obj /usr/share/bash-completion/completions/svk
--- replaced obj /usr/share/bash-completion/completions/svcadm
--- replaced sym /usr/share/bash-completion/completions/sudoedit
--- replaced obj /usr/share/bash-completion/completions/sudo
--- replaced obj /usr/share/bash-completion/completions/strings
--- replaced sym /usr/share/bash-completion/completions/stream
--- replaced obj /usr/share/bash-completion/completions/strace
--- replaced sym /usr/share/bash-completion/completions/star
--- replaced obj /usr/share/bash-completion/completions/sshow
--- replaced obj /usr/share/bash-completion/completions/sshmitm
--- replaced obj /usr/share/bash-completion/completions/sshfs
--- replaced obj /usr/share/bash-completion/completions/ssh-keygen
--- replaced obj /usr/share/bash-completion/completions/ssh-copy-id
--- replaced obj /usr/share/bash-completion/completions/ssh-add
--- replaced obj /usr/share/bash-completion/completions/ssh
--- replaced obj /usr/share/bash-completion/completions/ss
--- replaced obj /usr/share/bash-completion/completions/sqlite3
--- replaced sym /usr/share/bash-completion/completions/spovray
--- replaced sym /usr/share/bash-completion/completions/sparc-koji
--- replaced obj /usr/share/bash-completion/completions/snownews
--- replaced sym /usr/share/bash-completion/completions/smbtree
--- replaced sym /usr/share/bash-completion/completions/smbtar
--- replaced sym /usr/share/bash-completion/completions/smbpasswd
--- replaced sym /usr/share/bash-completion/completions/smbget
--- replaced sym /usr/share/bash-completion/completions/smbcquotas
--- replaced obj /usr/share/bash-completion/completions/smbclient
--- replaced sym /usr/share/bash-completion/completions/smbcacls
--- replaced obj /usr/share/bash-completion/completions/smartctl
--- replaced sym /usr/share/bash-completion/completions/slogin
--- replaced obj /usr/share/bash-completion/completions/slapt-src
--- replaced obj /usr/share/bash-completion/completions/slapt-get
--- replaced obj /usr/share/bash-completion/completions/slackpkg
--- replaced obj /usr/share/bash-completion/completions/sitecopy
--- replaced sym /usr/share/bash-completion/completions/sidedoor
--- replaced obj /usr/share/bash-completion/completions/shellcheck
--- replaced obj /usr/share/bash-completion/completions/sh
--- replaced sym /usr/share/bash-completion/completions/sftp
--- replaced sym /usr/share/bash-completion/completions/setquota
--- replaced sym /usr/share/bash-completion/completions/sdptool
--- replaced obj /usr/share/bash-completion/completions/scrub
--- replaced obj /usr/share/bash-completion/completions/screen
--- replaced sym /usr/share/bash-completion/completions/scp
--- replaced obj /usr/share/bash-completion/completions/sbopkg
--- replaced sym /usr/share/bash-completion/completions/sbcl-mt
--- replaced obj /usr/share/bash-completion/completions/sbcl
--- replaced sym /usr/share/bash-completion/completions/s390-koji
--- replaced obj /usr/share/bash-completion/completions/rsync
--- replaced obj /usr/share/bash-completion/completions/rrdtool
--- replaced obj /usr/share/bash-completion/completions/rpmcheck
--- replaced sym /usr/share/bash-completion/completions/rpmbuild-md5
--- replaced sym /usr/share/bash-completion/completions/rpmbuild
--- replaced sym /usr/share/bash-completion/completions/rpm2txz
--- replaced obj /usr/share/bash-completion/completions/rpm2tgz
--- replaced sym /usr/share/bash-completion/completions/rpm2targz
--- replaced obj /usr/share/bash-completion/completions/rpm
--- replaced obj /usr/share/bash-completion/completions/rpcdebug
--- replaced obj /usr/share/bash-completion/completions/route
--- replaced obj /usr/share/bash-completion/completions/rmmod
--- replaced obj /usr/share/bash-completion/completions/rmlist
--- replaced sym /usr/share/bash-completion/completions/rlog
--- replaced obj /usr/share/bash-completion/completions/ri
--- replaced sym /usr/share/bash-completion/completions/rfcomm
--- replaced obj /usr/share/bash-completion/completions/resolvconf
--- replaced sym /usr/share/bash-completion/completions/repquota
--- replaced obj /usr/share/bash-completion/completions/reportbug
--- replaced obj /usr/share/bash-completion/completions/remove_members
--- replaced sym /usr/share/bash-completion/completions/rdict
--- replaced obj /usr/share/bash-completion/completions/rdesktop
--- replaced sym /usr/share/bash-completion/completions/rcsdiff
--- replaced obj /usr/share/bash-completion/completions/rcs
--- replaced sym /usr/share/bash-completion/completions/ralsh
--- replaced obj /usr/share/bash-completion/completions/radvdump
--- replaced sym /usr/share/bash-completion/completions/quotaon
--- replaced sym /usr/share/bash-completion/completions/quotaoff
--- replaced sym /usr/share/bash-completion/completions/quotacheck
--- replaced obj /usr/share/bash-completion/completions/quota
--- replaced obj /usr/share/bash-completion/completions/querybts
--- replaced obj /usr/share/bash-completion/completions/qrunner
--- replaced sym /usr/share/bash-completion/completions/qemu-system-x86_64
--- replaced sym /usr/share/bash-completion/completions/qemu-system-i386
--- replaced sym /usr/share/bash-completion/completions/qemu-kvm
--- replaced obj /usr/share/bash-completion/completions/qemu
--- replaced obj /usr/share/bash-completion/completions/qdbus
--- replaced sym /usr/share/bash-completion/completions/pyvenv-3.8
--- replaced sym /usr/share/bash-completion/completions/pyvenv-3.7
--- replaced sym /usr/share/bash-completion/completions/pyvenv-3.6
--- replaced sym /usr/share/bash-completion/completions/pyvenv-3.5
--- replaced sym /usr/share/bash-completion/completions/pyvenv-3.4
--- replaced obj /usr/share/bash-completion/completions/pyvenv
--- replaced sym /usr/share/bash-completion/completions/python3
--- replaced sym /usr/share/bash-completion/completions/python2
--- replaced obj /usr/share/bash-completion/completions/python
--- replaced sym /usr/share/bash-completion/completions/pytest-3
--- replaced sym /usr/share/bash-completion/completions/pytest-2
--- replaced obj /usr/share/bash-completion/completions/pytest
--- replaced sym /usr/share/bash-completion/completions/pypy3
--- replaced sym /usr/share/bash-completion/completions/pypy
--- replaced sym /usr/share/bash-completion/completions/pylint-3
--- replaced sym /usr/share/bash-completion/completions/pylint-2
--- replaced obj /usr/share/bash-completion/completions/pylint
--- replaced obj /usr/share/bash-completion/completions/pyflakes
--- replaced obj /usr/share/bash-completion/completions/pydocstyle
--- replaced sym /usr/share/bash-completion/completions/pydoc3
--- replaced obj /usr/share/bash-completion/completions/pydoc
--- replaced obj /usr/share/bash-completion/completions/pycodestyle
--- replaced sym /usr/share/bash-completion/completions/py.test-3
--- replaced sym /usr/share/bash-completion/completions/py.test-2
--- replaced sym /usr/share/bash-completion/completions/py.test
--- replaced sym /usr/share/bash-completion/completions/pxz
--- replaced obj /usr/share/bash-completion/completions/pwgen
--- replaced obj /usr/share/bash-completion/completions/pwdx
--- replaced obj /usr/share/bash-completion/completions/pwd
--- replaced obj /usr/share/bash-completion/completions/pwck
--- replaced sym /usr/share/bash-completion/completions/pvscan
--- replaced sym /usr/share/bash-completion/completions/pvs
--- replaced sym /usr/share/bash-completion/completions/pvremove
--- replaced sym /usr/share/bash-completion/completions/pvmove
--- replaced sym /usr/share/bash-completion/completions/pvdisplay
--- replaced sym /usr/share/bash-completion/completions/pvcreate
--- replaced sym /usr/share/bash-completion/completions/pvchange
--- replaced obj /usr/share/bash-completion/completions/pv
--- replaced sym /usr/share/bash-completion/completions/puppetrun
--- replaced sym /usr/share/bash-completion/completions/puppetqd
--- replaced sym /usr/share/bash-completion/completions/puppetmasterd
--- replaced sym /usr/share/bash-completion/completions/puppetdoc
--- replaced sym /usr/share/bash-completion/completions/puppetd
--- replaced sym /usr/share/bash-completion/completions/puppetca
--- replaced obj /usr/share/bash-completion/completions/puppet
--- replaced obj /usr/share/bash-completion/completions/psql
--- replaced obj /usr/share/bash-completion/completions/protoc
--- replaced obj /usr/share/bash-completion/completions/prelink
--- replaced sym /usr/share/bash-completion/completions/ppc-koji
--- replaced obj /usr/share/bash-completion/completions/povray
--- replaced obj /usr/share/bash-completion/completions/postsuper
--- replaced obj /usr/share/bash-completion/completions/postmap
--- replaced obj /usr/share/bash-completion/completions/postfix
--- replaced obj /usr/share/bash-completion/completions/postconf
--- replaced obj /usr/share/bash-completion/completions/postcat
--- replaced sym /usr/share/bash-completion/completions/postalias
--- replaced obj /usr/share/bash-completion/completions/portupgrade
--- replaced obj /usr/share/bash-completion/completions/pngfix
--- replaced sym /usr/share/bash-completion/completions/pmake
--- replaced sym /usr/share/bash-completion/completions/pm-suspend-hybrid
--- replaced sym /usr/share/bash-completion/completions/pm-suspend
--- replaced obj /usr/share/bash-completion/completions/pm-powersave
--- replaced obj /usr/share/bash-completion/completions/pm-is-supported
--- replaced obj /usr/share/bash-completion/completions/pm-hibernate
--- replaced sym /usr/share/bash-completion/completions/plzip
--- replaced obj /usr/share/bash-completion/completions/plague-client
--- replaced sym /usr/share/bash-completion/completions/pkill
--- replaced obj /usr/share/bash-completion/completions/pkgutil
--- replaced obj /usr/share/bash-completion/completions/pkgrm
--- replaced obj /usr/share/bash-completion/completions/pkgadd
--- replaced obj /usr/share/bash-completion/completions/pkg-get
--- replaced obj /usr/share/bash-completion/completions/pkg-config
--- replaced sym /usr/share/bash-completion/completions/ping6
--- replaced obj /usr/share/bash-completion/completions/ping
--- replaced sym /usr/share/bash-completion/completions/pinfo
--- replaced obj /usr/share/bash-completion/completions/pine
--- replaced sym /usr/share/bash-completion/completions/pigz
--- replaced obj /usr/share/bash-completion/completions/pidof
--- replaced sym /usr/share/bash-completion/completions/phing
--- replaced obj /usr/share/bash-completion/completions/pgrep
--- replaced obj /usr/share/bash-completion/completions/perltidy
--- replaced sym /usr/share/bash-completion/completions/perldoc
--- replaced obj /usr/share/bash-completion/completions/perlcritic
--- replaced obj /usr/share/bash-completion/completions/perl
--- replaced sym /usr/share/bash-completion/completions/pdlzip
--- replaced obj /usr/share/bash-completion/completions/pdftotext
--- replaced sym /usr/share/bash-completion/completions/pccardctl
--- replaced sym /usr/share/bash-completion/completions/pbzip2
--- replaced obj /usr/share/bash-completion/completions/patch
--- replaced obj /usr/share/bash-completion/completions/passwd
--- replaced obj /usr/share/bash-completion/completions/pack200
--- replaced obj /usr/share/bash-completion/completions/p4
--- replaced obj /usr/share/bash-completion/completions/optipng
--- replaced obj /usr/share/bash-completion/completions/opera
--- replaced obj /usr/share/bash-completion/completions/openssl
--- replaced obj /usr/share/bash-completion/completions/op
--- replaced obj /usr/share/bash-completion/completions/oggdec
--- replaced obj /usr/share/bash-completion/completions/ntpdate
--- replaced obj /usr/share/bash-completion/completions/nsupdate
--- replaced obj /usr/share/bash-completion/completions/nslookup
--- replaced obj /usr/share/bash-completion/completions/nproc
--- replaced obj /usr/share/bash-completion/completions/nmap
--- replaced obj /usr/share/bash-completion/completions/ngrep
--- replaced obj /usr/share/bash-completion/completions/newusers
--- replaced obj /usr/share/bash-completion/completions/newlist
--- replaced obj /usr/share/bash-completion/completions/nethogs
--- replaced obj /usr/share/bash-completion/completions/ncftp
--- replaced obj /usr/share/bash-completion/completions/nc
--- replaced obj /usr/share/bash-completion/completions/mysqladmin
--- replaced obj /usr/share/bash-completion/completions/mysql
--- replaced obj /usr/share/bash-completion/completions/mypy
--- replaced sym /usr/share/bash-completion/completions/muttng
--- replaced obj /usr/share/bash-completion/completions/mutt
--- replaced obj /usr/share/bash-completion/completions/mussh
--- replaced obj /usr/share/bash-completion/completions/munindoc
--- replaced obj /usr/share/bash-completion/completions/munin-update
--- replaced obj /usr/share/bash-completion/completions/munin-run
--- replaced obj /usr/share/bash-completion/completions/munin-node-configure
--- replaced obj /usr/share/bash-completion/completions/mtx
--- replaced obj /usr/share/bash-completion/completions/msynctool
--- replaced sym /usr/share/bash-completion/completions/msgsnarf
--- replaced obj /usr/share/bash-completion/completions/mr
--- replaced sym /usr/share/bash-completion/completions/mplayer2
--- replaced obj /usr/share/bash-completion/completions/mplayer
--- replaced sym /usr/share/bash-completion/completions/mozilla-firefox
--- replaced sym /usr/share/bash-completion/completions/montage
--- replaced obj /usr/share/bash-completion/completions/monodevelop
--- replaced sym /usr/share/bash-completion/completions/mogrify
--- replaced obj /usr/share/bash-completion/completions/modprobe
--- replaced obj /usr/share/bash-completion/completions/modinfo
--- replaced obj /usr/share/bash-completion/completions/mmsitepass
--- replaced obj /usr/share/bash-completion/completions/mktemp
--- replaced sym /usr/share/bash-completion/completions/mkisofs
--- replaced obj /usr/share/bash-completion/completions/mkinitrd
--- replaced obj /usr/share/bash-completion/completions/minicom
--- replaced obj /usr/share/bash-completion/completions/mii-tool
--- replaced obj /usr/share/bash-completion/completions/mii-diag
--- replaced sym /usr/share/bash-completion/completions/micropython
--- replaced sym /usr/share/bash-completion/completions/mencoder
--- replaced obj /usr/share/bash-completion/completions/medusa
--- replaced obj /usr/share/bash-completion/completions/mdtool
--- replaced sym /usr/share/bash-completion/completions/mdecrypt
--- replaced obj /usr/share/bash-completion/completions/mdadm
--- replaced obj /usr/share/bash-completion/completions/mcrypt
--- replaced obj /usr/share/bash-completion/completions/mc
--- replaced obj /usr/share/bash-completion/completions/man
--- replaced obj /usr/share/bash-completion/completions/make
--- replaced sym /usr/share/bash-completion/completions/mailsnarf
--- replaced obj /usr/share/bash-completion/completions/mailmanctl
--- replaced obj /usr/share/bash-completion/completions/macof
--- replaced obj /usr/share/bash-completion/completions/lzop
--- replaced obj /usr/share/bash-completion/completions/lzma
--- replaced obj /usr/share/bash-completion/completions/lzip
--- replaced sym /usr/share/bash-completion/completions/lz4c
--- replaced obj /usr/share/bash-completion/completions/lz4
--- replaced sym /usr/share/bash-completion/completions/lvscan
--- replaced sym /usr/share/bash-completion/completions/lvs
--- replaced sym /usr/share/bash-completion/completions/lvresize
--- replaced sym /usr/share/bash-completion/completions/lvrename
--- replaced sym /usr/share/bash-completion/completions/lvremove
--- replaced sym /usr/share/bash-completion/completions/lvreduce
--- replaced sym /usr/share/bash-completion/completions/lvmdiskscan
--- replaced obj /usr/share/bash-completion/completions/lvm
--- replaced sym /usr/share/bash-completion/completions/lvextend
--- replaced sym /usr/share/bash-completion/completions/lvdisplay
--- replaced sym /usr/share/bash-completion/completions/lvcreate
--- replaced sym /usr/share/bash-completion/completions/lvchange
--- replaced sym /usr/share/bash-completion/completions/lusermod
--- replaced obj /usr/share/bash-completion/completions/luserdel
--- replaced obj /usr/share/bash-completion/completions/luseradd
--- replaced obj /usr/share/bash-completion/completions/luac
--- replaced obj /usr/share/bash-completion/completions/lua
--- replaced obj /usr/share/bash-completion/completions/lsusb
--- replaced obj /usr/share/bash-completion/completions/lsscsi
--- replaced obj /usr/share/bash-completion/completions/lsof
--- replaced obj /usr/share/bash-completion/completions/lrzip
--- replaced obj /usr/share/bash-completion/completions/lpr
--- replaced obj /usr/share/bash-completion/completions/lpq
--- replaced obj /usr/share/bash-completion/completions/locale-gen
--- replaced obj /usr/share/bash-completion/completions/list_owners
--- replaced obj /usr/share/bash-completion/completions/list_members
--- replaced obj /usr/share/bash-completion/completions/list_lists
--- replaced obj /usr/share/bash-completion/completions/list_admins
--- replaced obj /usr/share/bash-completion/completions/lisp
--- replaced sym /usr/share/bash-completion/completions/lintian-info
--- replaced obj /usr/share/bash-completion/completions/lintian
--- replaced sym /usr/share/bash-completion/completions/links2
--- replaced obj /usr/share/bash-completion/completions/links
--- replaced obj /usr/share/bash-completion/completions/lilo
--- replaced obj /usr/share/bash-completion/completions/lftpget
--- replaced obj /usr/share/bash-completion/completions/lftp
--- replaced sym /usr/share/bash-completion/completions/ldapwhoami
--- replaced obj /usr/share/bash-completion/completions/ldapvi
--- replaced obj /usr/share/bash-completion/completions/ldapsearch
--- replaced sym /usr/share/bash-completion/completions/ldappasswd
--- replaced sym /usr/share/bash-completion/completions/ldapmodrdn
--- replaced sym /usr/share/bash-completion/completions/ldapmodify
--- replaced sym /usr/share/bash-completion/completions/ldapdelete
--- replaced sym /usr/share/bash-completion/completions/ldapcompare
--- replaced sym /usr/share/bash-completion/completions/ldapadd
--- replaced sym /usr/share/bash-completion/completions/lbzip2
--- replaced obj /usr/share/bash-completion/completions/lastlog
--- replaced obj /usr/share/bash-completion/completions/larch
--- replaced sym /usr/share/bash-completion/completions/l2ping
--- replaced obj /usr/share/bash-completion/completions/ktutil
--- replaced sym /usr/share/bash-completion/completions/kplayer
--- replaced obj /usr/share/bash-completion/completions/koji
--- replaced obj /usr/share/bash-completion/completions/killall
--- replaced obj /usr/share/bash-completion/completions/kill
--- replaced obj /usr/share/bash-completion/completions/kcov
--- replaced obj /usr/share/bash-completion/completions/k3b
--- replaced obj /usr/share/bash-completion/completions/jsonschema
--- replaced obj /usr/share/bash-completion/completions/json_xs
--- replaced obj /usr/share/bash-completion/completions/jshint
--- replaced obj /usr/share/bash-completion/completions/jq
--- replaced obj /usr/share/bash-completion/completions/jps
--- replaced obj /usr/share/bash-completion/completions/jpegoptim
--- replaced obj /usr/share/bash-completion/completions/javaws
--- replaced sym /usr/share/bash-completion/completions/javadoc
--- replaced sym /usr/share/bash-completion/completions/javac
--- replaced obj /usr/share/bash-completion/completions/java
--- replaced obj /usr/share/bash-completion/completions/jarsigner
--- replaced obj /usr/share/bash-completion/completions/jar
--- replaced obj /usr/share/bash-completion/completions/iwspy
--- replaced obj /usr/share/bash-completion/completions/iwpriv
--- replaced obj /usr/share/bash-completion/completions/iwlist
--- replaced obj /usr/share/bash-completion/completions/iwconfig
--- replaced obj /usr/share/bash-completion/completions/isql
--- replaced obj /usr/share/bash-completion/completions/isort
--- replaced obj /usr/share/bash-completion/completions/iscsiadm
--- replaced obj /usr/share/bash-completion/completions/ipv6calc
--- replaced obj /usr/share/bash-completion/completions/iptables
--- replaced obj /usr/share/bash-completion/completions/ipsec
--- replaced obj /usr/share/bash-completion/completions/ipmitool
--- replaced sym /usr/share/bash-completion/completions/iperf3
--- replaced obj /usr/share/bash-completion/completions/iperf
--- replaced obj /usr/share/bash-completion/completions/ip
--- replaced obj /usr/share/bash-completion/completions/invoke-rc.d
--- replaced obj /usr/share/bash-completion/completions/interdiff
--- replaced sym /usr/share/bash-completion/completions/insmod.static
--- replaced obj /usr/share/bash-completion/completions/insmod
--- replaced sym /usr/share/bash-completion/completions/inotifywatch
--- replaced obj /usr/share/bash-completion/completions/inotifywait
--- replaced obj /usr/share/bash-completion/completions/inject
--- replaced obj /usr/share/bash-completion/completions/info
--- replaced obj /usr/share/bash-completion/completions/influx
--- replaced sym /usr/share/bash-completion/completions/import
--- replaced obj /usr/share/bash-completion/completions/iftop
--- replaced obj /usr/share/bash-completion/completions/ifstat
--- replaced obj /usr/share/bash-completion/completions/idn
--- replaced sym /usr/share/bash-completion/completions/identify
--- replaced obj /usr/share/bash-completion/completions/id
--- replaced obj /usr/share/bash-completion/completions/iconv
--- replaced sym /usr/share/bash-completion/completions/iceweasel
--- replaced obj /usr/share/bash-completion/completions/hunspell
--- replaced obj /usr/share/bash-completion/completions/htpasswd
--- replaced obj /usr/share/bash-completion/completions/htop
--- replaced sym /usr/share/bash-completion/completions/hping3
--- replaced obj /usr/share/bash-completion/completions/hping2
--- replaced sym /usr/share/bash-completion/completions/hping
--- replaced obj /usr/share/bash-completion/completions/hostname
--- replaced sym /usr/share/bash-completion/completions/host
--- replaced obj /usr/share/bash-completion/completions/hid2hci
--- replaced obj /usr/share/bash-completion/completions/hddtemp
--- replaced obj /usr/share/bash-completion/completions/hcitool
--- replaced sym /usr/share/bash-completion/completions/hciconfig
--- replaced sym /usr/share/bash-completion/completions/hciattach
--- replaced obj /usr/share/bash-completion/completions/gzip
--- replaced sym /usr/share/bash-completion/completions/gtar
--- replaced obj /usr/share/bash-completion/completions/gssdp-discover
--- replaced obj /usr/share/bash-completion/completions/grpck
--- replaced obj /usr/share/bash-completion/completions/growisofs
--- replaced obj /usr/share/bash-completion/completions/groupmod
--- replaced obj /usr/share/bash-completion/completions/groupmems
--- replaced obj /usr/share/bash-completion/completions/groupdel
--- replaced obj /usr/share/bash-completion/completions/groupadd
--- replaced obj /usr/share/bash-completion/completions/gprof
--- replaced obj /usr/share/bash-completion/completions/gphoto2
--- replaced sym /usr/share/bash-completion/completions/gpgv2
--- replaced obj /usr/share/bash-completion/completions/gpgv
--- replaced obj /usr/share/bash-completion/completions/gpg2
--- replaced obj /usr/share/bash-completion/completions/gpg
--- replaced sym /usr/share/bash-completion/completions/gpc
--- replaced obj /usr/share/bash-completion/completions/gpasswd
--- replaced sym /usr/share/bash-completion/completions/google-chrome-stable
--- replaced sym /usr/share/bash-completion/completions/google-chrome
--- replaced sym /usr/share/bash-completion/completions/gnumake
--- replaced obj /usr/share/bash-completion/completions/gnome-screenshot
--- replaced obj /usr/share/bash-completion/completions/gnome-mplayer
--- replaced obj /usr/share/bash-completion/completions/gnokii
--- replaced obj /usr/share/bash-completion/completions/gnatmake
--- replaced sym /usr/share/bash-completion/completions/gmplayer
--- replaced sym /usr/share/bash-completion/completions/gmake
--- replaced obj /usr/share/bash-completion/completions/gm
--- replaced sym /usr/share/bash-completion/completions/gkrellm2
--- replaced obj /usr/share/bash-completion/completions/gkrellm
--- replaced sym /usr/share/bash-completion/completions/gfortran-8
--- replaced sym /usr/share/bash-completion/completions/gfortran-7
--- replaced sym /usr/share/bash-completion/completions/gfortran-6
--- replaced sym /usr/share/bash-completion/completions/gfortran-5
--- replaced sym /usr/share/bash-completion/completions/gfortran
--- replaced obj /usr/share/bash-completion/completions/getent
--- replaced obj /usr/share/bash-completion/completions/getconf
--- replaced sym /usr/share/bash-completion/completions/geoiplookup6
--- replaced obj /usr/share/bash-completion/completions/geoiplookup
--- replaced obj /usr/share/bash-completion/completions/genisoimage
--- replaced obj /usr/share/bash-completion/completions/gendiff
--- replaced obj /usr/share/bash-completion/completions/genaliases
--- replaced obj /usr/share/bash-completion/completions/gdb
--- replaced obj /usr/share/bash-completion/completions/gcl
--- replaced sym /usr/share/bash-completion/completions/gcj
--- replaced sym /usr/share/bash-completion/completions/gccgo-8
--- replaced sym /usr/share/bash-completion/completions/gccgo-7
--- replaced sym /usr/share/bash-completion/completions/gccgo-6
--- replaced sym /usr/share/bash-completion/completions/gccgo-5
--- replaced sym /usr/share/bash-completion/completions/gccgo
--- replaced sym /usr/share/bash-completion/completions/gcc-8
--- replaced sym /usr/share/bash-completion/completions/gcc-7
--- replaced sym /usr/share/bash-completion/completions/gcc-6
--- replaced sym /usr/share/bash-completion/completions/gcc-5
--- replaced obj /usr/share/bash-completion/completions/gcc
--- replaced sym /usr/share/bash-completion/completions/g95
--- replaced sym /usr/share/bash-completion/completions/g77
--- replaced sym /usr/share/bash-completion/completions/g4
--- replaced sym /usr/share/bash-completion/completions/g++-8
--- replaced sym /usr/share/bash-completion/completions/g++-7
--- replaced sym /usr/share/bash-completion/completions/g++-6
--- replaced sym /usr/share/bash-completion/completions/g++-5
--- replaced sym /usr/share/bash-completion/completions/g++
--- replaced obj /usr/share/bash-completion/completions/fusermount
--- replaced obj /usr/share/bash-completion/completions/function
--- replaced sym /usr/share/bash-completion/completions/freeciv-xaw
--- replaced obj /usr/share/bash-completion/completions/freeciv-server
--- replaced sym /usr/share/bash-completion/completions/freeciv-sdl
--- replaced sym /usr/share/bash-completion/completions/freeciv-gtk3
--- replaced sym /usr/share/bash-completion/completions/freeciv-gtk2
--- replaced obj /usr/share/bash-completion/completions/freeciv
--- replaced obj /usr/share/bash-completion/completions/flake8
--- replaced obj /usr/share/bash-completion/completions/firefox
--- replaced obj /usr/share/bash-completion/completions/fio
--- replaced obj /usr/share/bash-completion/completions/find_member
--- replaced obj /usr/share/bash-completion/completions/find
--- replaced obj /usr/share/bash-completion/completions/filesnarf
--- replaced obj /usr/share/bash-completion/completions/filefrag
--- replaced sym /usr/share/bash-completion/completions/filebucket
--- replaced obj /usr/share/bash-completion/completions/file-roller
--- replaced obj /usr/share/bash-completion/completions/file
--- replaced obj /usr/share/bash-completion/completions/feh
--- replaced obj /usr/share/bash-completion/completions/fbi
--- replaced obj /usr/share/bash-completion/completions/fbgs
--- replaced obj /usr/share/bash-completion/completions/faillog
--- replaced sym /usr/share/bash-completion/completions/f95
--- replaced sym /usr/share/bash-completion/completions/f77
--- replaced obj /usr/share/bash-completion/completions/export
--- replaced obj /usr/share/bash-completion/completions/evince
--- replaced sym /usr/share/bash-completion/completions/etherwake
--- replaced obj /usr/share/bash-completion/completions/ether-wake
--- replaced obj /usr/share/bash-completion/completions/eog
--- replaced sym /usr/share/bash-completion/completions/edquota
--- replaced obj /usr/share/bash-completion/completions/ecryptfs-migrate-home
--- replaced obj /usr/share/bash-completion/completions/ebtables
--- replaced obj /usr/share/bash-completion/completions/e2label
--- replaced obj /usr/share/bash-completion/completions/e2freefrag
--- replaced obj /usr/share/bash-completion/completions/dumpe2fs
--- replaced obj /usr/share/bash-completion/completions/dumpdb
--- replaced obj /usr/share/bash-completion/completions/dsniff
--- replaced obj /usr/share/bash-completion/completions/dselect
--- replaced sym /usr/share/bash-completion/completions/dropuser
--- replaced sym /usr/share/bash-completion/completions/dropdb
--- replaced obj /usr/share/bash-completion/completions/dpkg-source
--- replaced sym /usr/share/bash-completion/completions/dpkg-reconfigure
--- replaced sym /usr/share/bash-completion/completions/dpkg-query
--- replaced sym /usr/share/bash-completion/completions/dpkg-deb
--- replaced obj /usr/share/bash-completion/completions/dpkg
--- replaced obj /usr/share/bash-completion/completions/dot
--- replaced obj /usr/share/bash-completion/completions/dnsspoof
--- replaced obj /usr/share/bash-completion/completions/dnssec-keygen
--- replaced obj /usr/share/bash-completion/completions/dmypy
--- replaced sym /usr/share/bash-completion/completions/display
--- replaced obj /usr/share/bash-completion/completions/dict
--- replaced obj /usr/share/bash-completion/completions/dhclient
--- replaced sym /usr/share/bash-completion/completions/dfutool
--- replaced obj /usr/share/bash-completion/completions/desktop-file-validate
--- replaced obj /usr/share/bash-completion/completions/deja-dup
--- replaced sym /usr/share/bash-completion/completions/declare
--- replaced obj /usr/share/bash-completion/completions/dd
--- replaced sym /usr/share/bash-completion/completions/dcop
--- replaced obj /usr/share/bash-completion/completions/cvsps
--- replaced obj /usr/share/bash-completion/completions/cvs
--- replaced obj /usr/share/bash-completion/completions/curl
--- replaced obj /usr/share/bash-completion/completions/cryptsetup
--- replaced obj /usr/share/bash-completion/completions/crontab
--- replaced sym /usr/share/bash-completion/completions/createuser
--- replaced sym /usr/share/bash-completion/completions/createdb
--- replaced obj /usr/share/bash-completion/completions/cppcheck
--- replaced obj /usr/share/bash-completion/completions/cpio
--- replaced obj /usr/share/bash-completion/completions/cpan2dist
--- replaced sym /usr/share/bash-completion/completions/cowthink
--- replaced obj /usr/share/bash-completion/completions/cowsay
--- replaced obj /usr/share/bash-completion/completions/convert
--- replaced sym /usr/share/bash-completion/completions/conjure
--- replaced obj /usr/share/bash-completion/completions/configure
--- replaced obj /usr/share/bash-completion/completions/config_list
--- replaced sym /usr/share/bash-completion/completions/composite
--- replaced obj /usr/share/bash-completion/completions/complete
--- replaced sym /usr/share/bash-completion/completions/compgen
--- replaced sym /usr/share/bash-completion/completions/compare
--- replaced sym /usr/share/bash-completion/completions/colormake
--- replaced sym /usr/share/bash-completion/completions/co
--- replaced sym /usr/share/bash-completion/completions/clzip
--- replaced obj /usr/share/bash-completion/completions/clone_member
--- replaced obj /usr/share/bash-completion/completions/clisp
--- replaced obj /usr/share/bash-completion/completions/cleanarch
--- replaced obj /usr/share/bash-completion/completions/cksfv
--- replaced sym /usr/share/bash-completion/completions/civserver
--- replaced sym /usr/share/bash-completion/completions/civclient
--- replaced sym /usr/share/bash-completion/completions/ciptool
--- replaced sym /usr/share/bash-completion/completions/ci
--- replaced obj /usr/share/bash-completion/completions/chrpath
--- replaced obj /usr/share/bash-completion/completions/chronyc
--- replaced obj /usr/share/bash-completion/completions/chromium-browser
--- replaced sym /usr/share/bash-completion/completions/chromium
--- replaced sym /usr/share/bash-completion/completions/chrome
--- replaced obj /usr/share/bash-completion/completions/chpasswd
--- replaced obj /usr/share/bash-completion/completions/chown
--- replaced obj /usr/share/bash-completion/completions/chmod
--- replaced obj /usr/share/bash-completion/completions/chkconfig
--- replaced obj /usr/share/bash-completion/completions/chgrp
--- replaced obj /usr/share/bash-completion/completions/checksec
--- replaced obj /usr/share/bash-completion/completions/check_perms
--- replaced obj /usr/share/bash-completion/completions/check_db
--- replaced obj /usr/share/bash-completion/completions/change_pw
--- replaced obj /usr/share/bash-completion/completions/chage
--- replaced obj /usr/share/bash-completion/completions/cfrun
--- replaced obj /usr/share/bash-completion/completions/cfagent
--- replaced sym /usr/share/bash-completion/completions/cdrecord
--- replaced obj /usr/share/bash-completion/completions/ccze
--- replaced obj /usr/share/bash-completion/completions/ccache
--- replaced sym /usr/share/bash-completion/completions/cc
--- replaced obj /usr/share/bash-completion/completions/carton
--- replaced obj /usr/share/bash-completion/completions/cardctl
--- replaced obj /usr/share/bash-completion/completions/cancel
--- replaced sym /usr/share/bash-completion/completions/c++
--- replaced obj /usr/share/bash-completion/completions/bzip2
--- replaced obj /usr/share/bash-completion/completions/bts
--- replaced obj /usr/share/bash-completion/completions/btdownloadheadless.py
--- replaced sym /usr/share/bash-completion/completions/btdownloadgui.py
--- replaced sym /usr/share/bash-completion/completions/btdownloadcurses.py
--- replaced sym /usr/share/bash-completion/completions/bsdtar
--- replaced obj /usr/share/bash-completion/completions/brctl
--- replaced obj /usr/share/bash-completion/completions/bk
--- replaced obj /usr/share/bash-completion/completions/bind
--- replaced obj /usr/share/bash-completion/completions/badblocks
--- replaced obj /usr/share/bash-completion/completions/avctrl
--- replaced sym /usr/share/bash-completion/completions/autoupdate
--- replaced sym /usr/share/bash-completion/completions/autossh
--- replaced obj /usr/share/bash-completion/completions/autoscan
--- replaced obj /usr/share/bash-completion/completions/autorpm
--- replaced obj /usr/share/bash-completion/completions/autoreconf
--- replaced sym /usr/share/bash-completion/completions/automake-1.16
--- replaced sym /usr/share/bash-completion/completions/automake-1.15
--- replaced sym /usr/share/bash-completion/completions/automake-1.14
--- replaced sym /usr/share/bash-completion/completions/automake-1.13
--- replaced sym /usr/share/bash-completion/completions/automake-1.12
--- replaced sym /usr/share/bash-completion/completions/automake-1.11
--- replaced sym /usr/share/bash-completion/completions/automake-1.10
--- replaced obj /usr/share/bash-completion/completions/automake
--- replaced sym /usr/share/bash-completion/completions/autoheader
--- replaced obj /usr/share/bash-completion/completions/autoconf
--- replaced obj /usr/share/bash-completion/completions/aspell
--- replaced sym /usr/share/bash-completion/completions/asciidoc.py
--- replaced obj /usr/share/bash-completion/completions/asciidoc
--- replaced obj /usr/share/bash-completion/completions/arpspoof
--- replaced obj /usr/share/bash-completion/completions/arping
--- replaced obj /usr/share/bash-completion/completions/arp
--- replaced sym /usr/share/bash-completion/completions/arm-koji
--- replaced obj /usr/share/bash-completion/completions/arch
--- replaced sym /usr/share/bash-completion/completions/aptitude-curses
--- replaced obj /usr/share/bash-completion/completions/aptitude
--- replaced obj /usr/share/bash-completion/completions/apt-get
--- replaced obj /usr/share/bash-completion/completions/apt-cache
--- replaced obj /usr/share/bash-completion/completions/apt-build
--- replaced sym /usr/share/bash-completion/completions/apropos
--- replaced obj /usr/share/bash-completion/completions/appdata-validate
--- replaced obj /usr/share/bash-completion/completions/apache2ctl
--- replaced obj /usr/share/bash-completion/completions/ant
--- replaced sym /usr/share/bash-completion/completions/animate
--- replaced sym /usr/share/bash-completion/completions/alternatives
--- replaced sym /usr/share/bash-completion/completions/alpine
--- replaced obj /usr/share/bash-completion/completions/alias
--- replaced obj /usr/share/bash-completion/completions/add_members
--- replaced obj /usr/share/bash-completion/completions/acpi
--- replaced sym /usr/share/bash-completion/completions/aclocal-1.16
--- replaced sym /usr/share/bash-completion/completions/aclocal-1.15
--- replaced sym /usr/share/bash-completion/completions/aclocal-1.14
--- replaced sym /usr/share/bash-completion/completions/aclocal-1.13
--- replaced sym /usr/share/bash-completion/completions/aclocal-1.12
--- replaced sym /usr/share/bash-completion/completions/aclocal-1.11
--- replaced sym /usr/share/bash-completion/completions/aclocal-1.10
--- replaced obj /usr/share/bash-completion/completions/aclocal
--- replaced obj /usr/share/bash-completion/completions/abook
--- replaced obj /usr/share/bash-completion/completions/a2x
--- replaced sym /usr/share/bash-completion/completions/7za
--- replaced obj /usr/share/bash-completion/completions/7z
--- replaced obj /usr/share/bash-completion/completions/2to3
--- replaced dir /usr/share/bash-completion/completions
--- replaced obj /usr/share/bash-completion/bash_completion
--- replaced dir /usr/share/bash-completion
--- replaced dir /usr/share
--- replaced dir /usr
--- replaced obj /etc/bash/bashrc.d/bash_completion.sh
--- replaced dir /etc/bash/bashrc.d
--- replaced dir /etc/bash
--- replaced dir /etc
>>> Regenerating /etc/ld.so.cache...
