 * Package:    app-misc/mime-types-9
 * Repository: gentoo
 * Maintainer: djc@gentoo.org
 * USE:        abi_x86_64 amd64 elibc_glibc kernel_linux userland_GNU
 * FEATURES:   network-sandbox preserve-libs sandbox userpriv usersandbox
 * FEATURES='assume-digests binpkg-docompress binpkg-dostrip binpkg-logs buildpkg cgroup compress-index config-protect-if-modified distlocks ebuild-locks fixlafiles ipc-sandbox merge-sync multilib-strict network-sandbox news nodoc parallel-fetch pid-sandbox preserve-libs qa-unresolved-soname-deps sandbox sfperms strict strict-keepdir unknown-features-warn unmerge-logs unmerge-orphans userfetch userpriv usersandbox usersync xattr'
 * CFLAGS='-march=znver2 -O2 -pipe -fno-stack-protector -fno-stack-clash-protection -fstack-check=no -fno-stack-check -Wl,-O1 -Wl,--as-needed'
 * CXXFLAGS='-march=znver2 -O2 -pipe -fno-stack-protector -fno-stack-clash-protection -fstack-check=no -fno-stack-check -Wl,-O1 -Wl,--as-needed'
 * FFLAGS='-march=znver2 -O2 -pipe -fno-stack-protector -fno-stack-clash-protection -fstack-check=no -fno-stack-check -Wl,-O1 -Wl,--as-needed'
 * FCFLAGS='-march=znver2 -O2 -pipe -fno-stack-protector -fno-stack-clash-protection -fstack-check=no -fno-stack-check -Wl,-O1 -Wl,--as-needed'
 * F77FLAGS='-march=znver2 -O2 -pipe -fno-stack-protector -fno-stack-clash-protection -fstack-check=no -fno-stack-check -Wl,-O1 -Wl,--as-needed'
 * LDFLAGS='-Wl,-O1 -Wl,--as-needed'
 * MAKEOPTS='-j12 -l12'
 * gcc (Gentoo 10.1.0-r1 p2) 10.1.0
 * g++ (Gentoo 10.1.0-r1 p2) 10.1.0
 * GNU gold (Gentoo 2.34 p4 2.34.0) 1.16
 * Linux rescue 5.4.36 #1 SMP Thu Apr 30 04:38:28 UTC 2020 x86_64 AMD Ryzen 5 3600 6-Core Processor AuthenticAMD GNU/Linux
app-misc/mime-types: 4 minutes, 52 seconds average for 29 merges
2020-05-16T20:35:00 >>> app-misc/mime-types: 8 seconds
2020-05-20T00:55:56 >>> app-misc/mime-types: 2 minutes
2020-05-21T05:46:51 >>> app-misc/mime-types: 6 seconds
2020-05-22T01:53:05 >>> app-misc/mime-types: 6 minutes, 7 seconds
2020-05-22T02:39:24 >>> app-misc/mime-types: 2 minutes, 37 seconds
2020-05-22T03:04:12 >>> app-misc/mime-types: 6 minutes, 53 seconds
2020-05-22T12:23:48 >>> app-misc/mime-types: 6 minutes, 38 seconds
2020-05-23T03:25:30 >>> app-misc/mime-types: 6 minutes, 36 seconds
2020-05-24T23:19:40 >>> app-misc/mime-types: 9 minutes, 9 seconds
2020-05-25T03:01:19 >>> app-misc/mime-types: 1 minute, 26 seconds
2020-05-25T18:11:31 >>> app-misc/mime-types: 7 minutes, 18 seconds
2020-05-25T19:48:51 >>> app-misc/mime-types: 4 minutes, 31 seconds
2020-05-26T12:30:27 >>> app-misc/mime-types: 4 minutes, 10 seconds
2020-05-26T13:45:57 >>> app-misc/mime-types: 2 minutes, 38 seconds
2020-05-27T01:23:52 >>> app-misc/mime-types: 2 minutes, 1 second
2020-05-27T02:57:50 >>> app-misc/mime-types: 8 minutes, 12 seconds
2020-05-28T13:20:49 >>> app-misc/mime-types: 6 minutes, 23 seconds
2020-05-28T14:11:11 >>> app-misc/mime-types: 2 minutes, 43 seconds
2020-05-29T01:31:25 >>> app-misc/mime-types: 2 minutes, 11 seconds
2020-05-30T12:25:29 >>> app-misc/mime-types: 9 minutes, 1 second
2020-05-30T21:31:44 >>> app-misc/mime-types: 3 minutes, 8 seconds
2020-06-01T01:42:45 >>> app-misc/mime-types: 6 minutes, 27 seconds
2020-06-04T11:46:10 >>> app-misc/mime-types: 18 minutes, 22 seconds
2020-06-12T01:17:29 >>> app-misc/mime-types: 5 seconds
2020-06-13T03:01:35 >>> app-misc/mime-types: 2 minutes, 31 seconds
2020-06-13T03:15:25 >>> app-misc/mime-types: 2 minutes, 43 seconds
2020-06-13T19:54:05 >>> app-misc/mime-types: 6 minutes, 23 seconds
2020-06-14T04:30:00 >>> app-misc/mime-types: 8 minutes, 31 seconds
2020-06-15T13:43:50 >>> app-misc/mime-types: 2 minutes, 15 seconds
]0;emerge 13:32:44 18|895 mime-types 05:43 (root@rescue)>>> Unpacking source...
>>> Unpacking mime-types-9.tar.bz2 to /tmp/portage/app-misc/mime-types-9/work
>>> Source unpacked in /tmp/portage/app-misc/mime-types-9/work
>>> Preparing source in /tmp/portage/app-misc/mime-types-9/work/mime-types-9 ...
>>> Source prepared.
>>> Configuring source in /tmp/portage/app-misc/mime-types-9/work/mime-types-9 ...
>>> Source configured.
>>> Compiling source in /tmp/portage/app-misc/mime-types-9/work/mime-types-9 ...
>>> Source compiled.
>>> Test phase [not enabled]: app-misc/mime-types-9

>>> Install app-misc/mime-types-9 into /tmp/portage/app-misc/mime-types-9/image/
>>> Completed installing app-misc/mime-types-9 into /tmp/portage/app-misc/mime-types-9/image/

 * Final size of build directory: 72 KiB
 * Final size of installed tree:  72 KiB

Parallel BZIP2 v1.1.13 [Dec 18, 2015]
By: Jeff Gilchrist [http://compression.ca]
Major contributions: Yavor Nikolov [http://javornikolov.wordpress.com]
Uses libbzip2 by Julian Seward

         # CPUs: 10
   Load Average: 2.05
 BWT Block Size: 200 KB
File Block Size: 900 KB
 Maximum Memory: 1024 MB
-------------------------------------------
         File #: 1 of 1
     Input Name: compressme
    Output Name: compressme.bz2

     Input Size: 3895 bytes
Compressing data (no threads)...
Completed: 100%                 Output Size: 918 bytes
-------------------------------------------

     Wall Clock: 0.000978 seconds
./
./etc/
./etc/mime.types
>>> Done.
 * checking 1 files for package collisions
>>> Merging app-misc/mime-types-9 to /
 * removing unneeded *.la files
--- /etc/
>>> /etc/mime.types
>>> Safely unmerging already-installed instance...
!!! File Not Found: '/etc/env.d/99lcdfilter'
>>> Original instance of package unmerged safely.
>>> app-misc/mime-types-9 merged.
!!! File Not Found: '/etc/env.d/99lcdfilter'
