No package files given... Grabbing a set.
--- replaced obj /usr/share/eselect/modules/ruby.eselect
--- replaced dir /usr/share/eselect/modules
--- replaced dir /usr/share/eselect
--- replaced dir /usr/share
--- replaced dir /usr
>>> Regenerating /etc/ld.so.cache...
