No package files given... Grabbing a set.
--- replaced obj /usr/share/zsh/site-functions/_zcash-cli
--- replaced obj /usr/share/zsh/site-functions/_yarn
--- replaced obj /usr/share/zsh/site-functions/_yaourt
--- replaced obj /usr/share/zsh/site-functions/_xsel
--- replaced obj /usr/share/zsh/site-functions/_xinput
--- replaced obj /usr/share/zsh/site-functions/_wg-quick
--- replaced obj /usr/share/zsh/site-functions/_wemux
--- replaced obj /usr/share/zsh/site-functions/_vnstat
--- replaced obj /usr/share/zsh/site-functions/_virtualbox
--- replaced obj /usr/share/zsh/site-functions/_vagrant
--- replaced obj /usr/share/zsh/site-functions/_ufw
--- replaced obj /usr/share/zsh/site-functions/_udisksctl
--- replaced obj /usr/share/zsh/site-functions/_trash-restore
--- replaced obj /usr/share/zsh/site-functions/_trash-put
--- replaced obj /usr/share/zsh/site-functions/_trash-list
--- replaced obj /usr/share/zsh/site-functions/_trash-empty
--- replaced obj /usr/share/zsh/site-functions/_tox
--- replaced obj /usr/share/zsh/site-functions/_tmuxp
--- replaced obj /usr/share/zsh/site-functions/_tmuxinator
--- replaced obj /usr/share/zsh/site-functions/_thor
--- replaced obj /usr/share/zsh/site-functions/_teamocil
--- replaced obj /usr/share/zsh/site-functions/_tarsnap
--- replaced obj /usr/share/zsh/site-functions/_svm
--- replaced obj /usr/share/zsh/site-functions/_supervisorctl
--- replaced obj /usr/share/zsh/site-functions/_subliminal
--- replaced obj /usr/share/zsh/site-functions/_subl
--- replaced obj /usr/share/zsh/site-functions/_stack
--- replaced obj /usr/share/zsh/site-functions/_srm
--- replaced obj /usr/share/zsh/site-functions/_showoff
--- replaced obj /usr/share/zsh/site-functions/_sfdx
--- replaced obj /usr/share/zsh/site-functions/_setup.py
--- replaced obj /usr/share/zsh/site-functions/_setcap
--- replaced obj /usr/share/zsh/site-functions/_sdd
--- replaced obj /usr/share/zsh/site-functions/_scrub
--- replaced obj /usr/share/zsh/site-functions/_scala
--- replaced obj /usr/share/zsh/site-functions/_sbt
--- replaced obj /usr/share/zsh/site-functions/_rubocop
--- replaced obj /usr/share/zsh/site-functions/_rsvm
--- replaced obj /usr/share/zsh/site-functions/_rspec
--- replaced obj /usr/share/zsh/site-functions/_rslsync
--- replaced obj /usr/share/zsh/site-functions/_rkt
--- replaced obj /usr/share/zsh/site-functions/_rfkill
--- replaced obj /usr/share/zsh/site-functions/_redis-cli
--- replaced obj /usr/share/zsh/site-functions/_ralio
--- replaced obj /usr/share/zsh/site-functions/_rails
--- replaced obj /usr/share/zsh/site-functions/_pygmentize
--- replaced obj /usr/share/zsh/site-functions/_port
--- replaced obj /usr/share/zsh/site-functions/_pm2
--- replaced obj /usr/share/zsh/site-functions/_play
--- replaced obj /usr/share/zsh/site-functions/_pkcon
--- replaced obj /usr/share/zsh/site-functions/_pixz
--- replaced obj /usr/share/zsh/site-functions/_phing
--- replaced obj /usr/share/zsh/site-functions/_pgsql_utils
--- replaced obj /usr/share/zsh/site-functions/_periscope
--- replaced obj /usr/share/zsh/site-functions/_perf
--- replaced obj /usr/share/zsh/site-functions/_patool
--- replaced obj /usr/share/zsh/site-functions/_optirun
--- replaced obj /usr/share/zsh/site-functions/_openssl
--- replaced obj /usr/share/zsh/site-functions/_nvm
--- replaced obj /usr/share/zsh/site-functions/_node
--- replaced obj /usr/share/zsh/site-functions/_nftables
--- replaced obj /usr/share/zsh/site-functions/_nano
--- replaced obj /usr/share/zsh/site-functions/_mvn
--- replaced obj /usr/share/zsh/site-functions/_mussh
--- replaced obj /usr/share/zsh/site-functions/_mix
--- replaced obj /usr/share/zsh/site-functions/_mina
--- replaced obj /usr/share/zsh/site-functions/_middleman
--- replaced obj /usr/share/zsh/site-functions/_lunchy
--- replaced obj /usr/share/zsh/site-functions/_language_codes
--- replaced obj /usr/share/zsh/site-functions/_knife
--- replaced obj /usr/share/zsh/site-functions/_kitchen
--- replaced obj /usr/share/zsh/site-functions/_kak
--- replaced obj /usr/share/zsh/site-functions/_jrnl
--- replaced obj /usr/share/zsh/site-functions/_jonas
--- replaced obj /usr/share/zsh/site-functions/_jmeter-plugins
--- replaced obj /usr/share/zsh/site-functions/_jmeter
--- replaced obj /usr/share/zsh/site-functions/_inxi
--- replaced obj /usr/share/zsh/site-functions/_include-what-you-use
--- replaced obj /usr/share/zsh/site-functions/_ibus
--- replaced obj /usr/share/zsh/site-functions/_httpie
--- replaced obj /usr/share/zsh/site-functions/_homestead
--- replaced obj /usr/share/zsh/site-functions/_hledger
--- replaced obj /usr/share/zsh/site-functions/_gtk-launch
--- replaced obj /usr/share/zsh/site-functions/_google
--- replaced obj /usr/share/zsh/site-functions/_golang
--- replaced obj /usr/share/zsh/site-functions/_glances
--- replaced obj /usr/share/zsh/site-functions/_git-wtf
--- replaced obj /usr/share/zsh/site-functions/_git-pulls
--- replaced obj /usr/share/zsh/site-functions/_git-journal
--- replaced obj /usr/share/zsh/site-functions/_git-flow
--- replaced obj /usr/share/zsh/site-functions/_gist
--- replaced obj /usr/share/zsh/site-functions/_ghc
--- replaced obj /usr/share/zsh/site-functions/_gas
--- replaced obj /usr/share/zsh/site-functions/_fwupdmgr
--- replaced obj /usr/share/zsh/site-functions/_force
--- replaced obj /usr/share/zsh/site-functions/_flutter
--- replaced obj /usr/share/zsh/site-functions/_fleetctl
--- replaced obj /usr/share/zsh/site-functions/_ffind
--- replaced obj /usr/share/zsh/site-functions/_fab
--- replaced obj /usr/share/zsh/site-functions/_exportfs
--- replaced obj /usr/share/zsh/site-functions/_envdir
--- replaced obj /usr/share/zsh/site-functions/_emulator
--- replaced obj /usr/share/zsh/site-functions/_ecdsautil
--- replaced obj /usr/share/zsh/site-functions/_drush
--- replaced obj /usr/share/zsh/site-functions/_docpad
--- replaced obj /usr/share/zsh/site-functions/_diana
--- replaced obj /usr/share/zsh/site-functions/_dhcpcd
--- replaced obj /usr/share/zsh/site-functions/_dget
--- replaced obj /usr/share/zsh/site-functions/_debuild
--- replaced obj /usr/share/zsh/site-functions/_dad
--- replaced obj /usr/share/zsh/site-functions/_console
--- replaced obj /usr/share/zsh/site-functions/_concourse
--- replaced obj /usr/share/zsh/site-functions/_conan
--- replaced obj /usr/share/zsh/site-functions/_composer
--- replaced obj /usr/share/zsh/site-functions/_coffee
--- replaced obj /usr/share/zsh/site-functions/_cmake
--- replaced obj /usr/share/zsh/site-functions/_chromium
--- replaced obj /usr/share/zsh/site-functions/_choc
--- replaced obj /usr/share/zsh/site-functions/_cheat
--- replaced obj /usr/share/zsh/site-functions/_cf
--- replaced obj /usr/share/zsh/site-functions/_ccache
--- replaced obj /usr/share/zsh/site-functions/_cask
--- replaced obj /usr/share/zsh/site-functions/_cap
--- replaced obj /usr/share/zsh/site-functions/_caffeinate
--- replaced obj /usr/share/zsh/site-functions/_bundle
--- replaced obj /usr/share/zsh/site-functions/_bower
--- replaced obj /usr/share/zsh/site-functions/_bitcoin-cli
--- replaced obj /usr/share/zsh/site-functions/_atach
--- replaced obj /usr/share/zsh/site-functions/_artisan
--- replaced obj /usr/share/zsh/site-functions/_archlinux-java
--- replaced obj /usr/share/zsh/site-functions/_android
--- replaced obj /usr/share/zsh/site-functions/_afew
--- replaced dir /usr/share/zsh/site-functions
--- replaced dir /usr/share/zsh
--- replaced dir /usr/share
--- replaced dir /usr
>>> Regenerating /etc/ld.so.cache...
