No package files given... Grabbing a set.
--- replaced obj /usr/share/eselect/modules/maven.eselect
--- replaced obj /usr/share/eselect/modules/java-vm.eselect
--- replaced obj /usr/share/eselect/modules/ecj.eselect
--- replaced dir /usr/share/eselect/modules
--- replaced dir /usr/share/eselect
--- replaced dir /usr/share
--- replaced obj /usr/libexec/eselect-java/run-java-tool.bash
--- replaced dir /usr/libexec/eselect-java
--- replaced dir /usr/libexec
--- replaced sym /usr/bin/xjc
--- replaced sym /usr/bin/wsimport
--- replaced sym /usr/bin/wsgen
--- replaced sym /usr/bin/tnameserv
--- replaced sym /usr/bin/servertool
--- replaced sym /usr/bin/serialver
--- replaced sym /usr/bin/schemagen
--- replaced sym /usr/bin/rmiregistry
--- replaced sym /usr/bin/rmid
--- replaced sym /usr/bin/rmic
--- replaced sym /usr/bin/policytool
--- replaced sym /usr/bin/pack200
--- replaced sym /usr/bin/orbd
--- replaced sym /usr/bin/native2ascii
--- replaced sym /usr/bin/keytool
--- replaced sym /usr/bin/jvisualvm
--- replaced sym /usr/bin/jstatd
--- replaced sym /usr/bin/jstat
--- replaced sym /usr/bin/jstack
--- replaced sym /usr/bin/jsadebugd
--- replaced sym /usr/bin/jrunscript
--- replaced sym /usr/bin/jps
--- replaced sym /usr/bin/jmap
--- replaced sym /usr/bin/jinfo
--- replaced sym /usr/bin/jhat
--- replaced sym /usr/bin/jdb
--- replaced sym /usr/bin/jcontrol
--- replaced sym /usr/bin/jconsole
--- replaced sym /usr/bin/javaws
--- replaced sym /usr/bin/javap
--- replaced sym /usr/bin/javah
--- replaced sym /usr/bin/javadoc
--- replaced sym /usr/bin/javac
--- replaced sym /usr/bin/java
--- replaced sym /usr/bin/jarsigner
--- replaced sym /usr/bin/jar
--- replaced sym /usr/bin/idlj
--- replaced sym /usr/bin/extcheck
--- replaced sym /usr/bin/apt
--- replaced sym /usr/bin/appletviewer
--- replaced sym /usr/bin/HtmlConverter
--- replaced sym /usr/bin/ControlPanel
--- replaced dir /usr/bin
--- replaced dir /usr
>>> Regenerating /etc/ld.so.cache...
