No package files given... Grabbing a set.
<<<          obj /usr/share/sgml/opensp-1.5.2/OpenSP/xml.soc
<<<          obj /usr/share/sgml/opensp-1.5.2/OpenSP/xml.dcl
<<<          obj /usr/share/sgml/opensp-1.5.2/OpenSP/unicode.syn
<<<          obj /usr/share/sgml/opensp-1.5.2/OpenSP/unicode.sd
<<<          obj /usr/share/sgml/opensp-1.5.2/OpenSP/opensp-implied.dcl
<<<          obj /usr/share/sgml/opensp-1.5.2/OpenSP/japan.dcl
<<<          obj /usr/share/sgml/opensp-1.5.2/OpenSP/html.soc
<<<          obj /usr/share/sgml/opensp-1.5.2/OpenSP/html.dtd
<<<          obj /usr/share/sgml/opensp-1.5.2/OpenSP/html.dcl
<<<          obj /usr/share/sgml/opensp-1.5.2/OpenSP/html-s.dtd
<<<          obj /usr/share/sgml/opensp-1.5.2/OpenSP/html-1s.dtd
<<<          obj /usr/share/sgml/opensp-1.5.2/OpenSP/html-1.dtd
<<<          obj /usr/share/sgml/opensp-1.5.2/OpenSP/gensyntax.pl
<<<          obj /usr/share/sgml/opensp-1.5.2/OpenSP/demo.sgm
<<<          obj /usr/share/sgml/opensp-1.5.2/OpenSP/catalog
<<<          obj /usr/share/sgml/opensp-1.5.2/OpenSP/ISOlat1.sgm
<<<          obj /usr/share/sgml/opensp-1.5.2/OpenSP/ISOlat1.ent
<<<          obj /usr/share/sgml/opensp-1.5.2/OpenSP/HTMLsym.ent
<<<          obj /usr/share/sgml/opensp-1.5.2/OpenSP/HTMLspec.ent
<<<          obj /usr/share/sgml/opensp-1.5.2/OpenSP/HTMLlat1.ent
<<<          obj /usr/share/sgml/opensp-1.5.2/OpenSP/HTML4.soc
<<<          obj /usr/share/sgml/opensp-1.5.2/OpenSP/HTML4.dtd
<<<          obj /usr/share/sgml/opensp-1.5.2/OpenSP/HTML4.dcl
<<<          obj /usr/share/sgml/opensp-1.5.2/OpenSP/HTML4-s.dtd
<<<          obj /usr/share/sgml/opensp-1.5.2/OpenSP/HTML4-f.dtd
<<<          obj /usr/share/sgml/opensp-1.5.2/OpenSP/HTML32.soc
<<<          obj /usr/share/sgml/opensp-1.5.2/OpenSP/HTML32.dtd
<<<          obj /usr/share/sgml/opensp-1.5.2/OpenSP/HTML32.dcl
<<<          obj /usr/lib64/libosp.so.5.0.0
<<<          sym /usr/lib64/libosp.so.5
<<<          sym /usr/lib64/libosp.so
<<<          obj /usr/include/OpenSP/xnew.h
<<<          obj /usr/include/OpenSP/types.h
<<<          obj /usr/include/OpenSP/sptchar.h
<<<          obj /usr/include/OpenSP/rtti.h
<<<          obj /usr/include/OpenSP/macros.h
<<<          obj /usr/include/OpenSP/constant.h
<<<          obj /usr/include/OpenSP/config.h
<<<          obj /usr/include/OpenSP/XcharMap.h
<<<          obj /usr/include/OpenSP/XcharMap.cxx
<<<          obj /usr/include/OpenSP/XMLCodingSystem.h
<<<          obj /usr/include/OpenSP/Vector.h
<<<          obj /usr/include/OpenSP/Vector.cxx
<<<          obj /usr/include/OpenSP/UnivCharsetDesc.h
<<<          obj /usr/include/OpenSP/UnicodeCodingSystem.h
<<<          obj /usr/include/OpenSP/UTF8CodingSystem.h
<<<          obj /usr/include/OpenSP/UTF16CodingSystem.h
<<<          obj /usr/include/OpenSP/URLStorage.h
<<<          obj /usr/include/OpenSP/TypeId.h
<<<          obj /usr/include/OpenSP/TranslateCodingSystem.h
<<<          obj /usr/include/OpenSP/Text.h
<<<          obj /usr/include/OpenSP/Syntax.h
<<<          obj /usr/include/OpenSP/SubstTable.h
<<<          obj /usr/include/OpenSP/StringResource.h
<<<          obj /usr/include/OpenSP/StringOf.h
<<<          obj /usr/include/OpenSP/StringOf.cxx
<<<          obj /usr/include/OpenSP/StringC.h
<<<          obj /usr/include/OpenSP/StorageManager.h
<<<          obj /usr/include/OpenSP/StdioStorage.h
<<<          obj /usr/include/OpenSP/ShortReferenceMap.h
<<<          obj /usr/include/OpenSP/SgmlParser.h
<<<          obj /usr/include/OpenSP/SearchResultMessageArg.h
<<<          obj /usr/include/OpenSP/SdText.h
<<<          obj /usr/include/OpenSP/Sd.h
<<<          obj /usr/include/OpenSP/SOEntityCatalog.h
<<<          obj /usr/include/OpenSP/SJISCodingSystem.h
<<<          obj /usr/include/OpenSP/SGMLApplication.h
<<<          obj /usr/include/OpenSP/RewindStorageObject.h
<<<          obj /usr/include/OpenSP/Resource.h
<<<          obj /usr/include/OpenSP/RangeMap.h
<<<          obj /usr/include/OpenSP/RangeMap.cxx
<<<          obj /usr/include/OpenSP/Ptr.h
<<<          obj /usr/include/OpenSP/Ptr.cxx
<<<          obj /usr/include/OpenSP/PosixStorage.h
<<<          obj /usr/include/OpenSP/PointerTable.h
<<<          obj /usr/include/OpenSP/PointerTable.cxx
<<<          obj /usr/include/OpenSP/ParserOptions.h
<<<          obj /usr/include/OpenSP/ParserEventGeneratorKit.h
<<<          obj /usr/include/OpenSP/ParserApp.h
<<<          obj /usr/include/OpenSP/OwnerTable.h
<<<          obj /usr/include/OpenSP/OwnerTable.cxx
<<<          obj /usr/include/OpenSP/Owner.h
<<<          obj /usr/include/OpenSP/Owner.cxx
<<<          obj /usr/include/OpenSP/OutputCharStream.h
<<<          obj /usr/include/OpenSP/OutputByteStream.h
<<<          obj /usr/include/OpenSP/Options.h
<<<          obj /usr/include/OpenSP/Options.cxx
<<<          obj /usr/include/OpenSP/OpenElement.h
<<<          obj /usr/include/OpenSP/NotationStorage.h
<<<          obj /usr/include/OpenSP/Notation.h
<<<          obj /usr/include/OpenSP/NamedTable.h
<<<          obj /usr/include/OpenSP/NamedResourceTable.h
<<<          obj /usr/include/OpenSP/NamedResource.h
<<<          obj /usr/include/OpenSP/Named.h
<<<          obj /usr/include/OpenSP/NCVector.h
<<<          obj /usr/include/OpenSP/Mode.h
<<<          obj /usr/include/OpenSP/MessageTable.h
<<<          obj /usr/include/OpenSP/MessageReporter.h
<<<          obj /usr/include/OpenSP/MessageModule.h
<<<          obj /usr/include/OpenSP/MessageFormatter.h
<<<          obj /usr/include/OpenSP/MessageEventHandler.h
<<<          obj /usr/include/OpenSP/MessageBuilder.h
<<<          obj /usr/include/OpenSP/MessageArg.h
<<<          obj /usr/include/OpenSP/Message.h
<<<          obj /usr/include/OpenSP/Markup.h
<<<          obj /usr/include/OpenSP/Lpd.h
<<<          obj /usr/include/OpenSP/Location.h
<<<          obj /usr/include/OpenSP/LiteralStorage.h
<<<          obj /usr/include/OpenSP/ListIter.h
<<<          obj /usr/include/OpenSP/List.h
<<<          obj /usr/include/OpenSP/List.cxx
<<<          obj /usr/include/OpenSP/LinkProcess.h
<<<          obj /usr/include/OpenSP/Link.h
<<<          obj /usr/include/OpenSP/InternalInputSource.h
<<<          obj /usr/include/OpenSP/InputSource.h
<<<          obj /usr/include/OpenSP/IdentityCodingSystem.h
<<<          obj /usr/include/OpenSP/ISetIter.h
<<<          obj /usr/include/OpenSP/ISet.h
<<<          obj /usr/include/OpenSP/ISet.cxx
<<<          obj /usr/include/OpenSP/IQueue.h
<<<          obj /usr/include/OpenSP/IQueue.cxx
<<<          obj /usr/include/OpenSP/IListIterBase.h
<<<          obj /usr/include/OpenSP/IListIter.h
<<<          obj /usr/include/OpenSP/IListBase.h
<<<          obj /usr/include/OpenSP/IList.h
<<<          obj /usr/include/OpenSP/HashTableItemBase.h
<<<          obj /usr/include/OpenSP/HashTableItemBase.cxx
<<<          obj /usr/include/OpenSP/HashTable.h
<<<          obj /usr/include/OpenSP/HashTable.cxx
<<<          obj /usr/include/OpenSP/Hash.h
<<<          obj /usr/include/OpenSP/GenericEventHandler.h
<<<          obj /usr/include/OpenSP/Fixed4CodingSystem.h
<<<          obj /usr/include/OpenSP/Fixed2CodingSystem.h
<<<          obj /usr/include/OpenSP/ExternalId.h
<<<          obj /usr/include/OpenSP/ExtendEntityManager.h
<<<          obj /usr/include/OpenSP/EventsWanted.h
<<<          obj /usr/include/OpenSP/EventGenerator.h
<<<          obj /usr/include/OpenSP/Event.h
<<<          obj /usr/include/OpenSP/ErrorCountEventHandler.h
<<<          obj /usr/include/OpenSP/ErrnoMessageArg.h
<<<          obj /usr/include/OpenSP/EntityManager.h
<<<          obj /usr/include/OpenSP/EntityDecl.h
<<<          obj /usr/include/OpenSP/EntityCatalog.h
<<<          obj /usr/include/OpenSP/EntityApp.h
<<<          obj /usr/include/OpenSP/Entity.h
<<<          obj /usr/include/OpenSP/ElementType.h
<<<          obj /usr/include/OpenSP/EUCJPCodingSystem.h
<<<          obj /usr/include/OpenSP/Dtd.h
<<<          obj /usr/include/OpenSP/DescriptorManager.h
<<<          obj /usr/include/OpenSP/CopyOwner.h
<<<          obj /usr/include/OpenSP/CopyOwner.cxx
<<<          obj /usr/include/OpenSP/ContentToken.h
<<<          obj /usr/include/OpenSP/ContentState.h
<<<          obj /usr/include/OpenSP/ConsoleOutput.h
<<<          obj /usr/include/OpenSP/CodingSystemKit.h
<<<          obj /usr/include/OpenSP/CodingSystem.h
<<<          obj /usr/include/OpenSP/CmdLineApp.h
<<<          obj /usr/include/OpenSP/CharsetRegistry.h
<<<          obj /usr/include/OpenSP/CharsetInfo.h
<<<          obj /usr/include/OpenSP/CharsetDecl.h
<<<          obj /usr/include/OpenSP/CharMap.h
<<<          obj /usr/include/OpenSP/CharMap.cxx
<<<          obj /usr/include/OpenSP/Boolean.h
<<<          obj /usr/include/OpenSP/Big5CodingSystem.h
<<<          obj /usr/include/OpenSP/Attributed.h
<<<          obj /usr/include/OpenSP/Attribute.h
<<<          obj /usr/include/OpenSP/ArcEngine.h
<<<          obj /usr/include/OpenSP/Allocator.h
<<<          obj /usr/bin/osx
<<<          obj /usr/bin/ospent
<<<          obj /usr/bin/ospcat
<<<          obj /usr/bin/ospam
<<<          obj /usr/bin/osgmlnorm
<<<          obj /usr/bin/onsgmls
<<<          dir /usr/share/sgml/opensp-1.5.2/OpenSP
<<<          dir /usr/share/sgml/opensp-1.5.2
--- !empty   dir /usr/share/sgml
--- !empty   dir /usr/share
--- !empty   dir /usr/lib64
<<<          dir /usr/include/OpenSP
--- !empty   dir /usr/include
--- !empty   dir /usr/bin
--- !empty   dir /usr
>>> Regenerating /etc/ld.so.cache...
