[32;01m * [39;49;00mPackage:    app-admin/eselect-1.4.16
[32;01m * [39;49;00mRepository: gentoo
[32;01m * [39;49;00mMaintainer: eselect@gentoo.org
[32;01m * [39;49;00mUSE:        abi_x86_64 amd64 elibc_glibc kernel_linux userland_GNU vim-syntax
[32;01m * [39;49;00mFEATURES:   ccache network-sandbox preserve-libs sandbox userpriv usersandbox
 [32;01m*[0m FEATURES='assume-digests binpkg-docompress binpkg-dostrip binpkg-logs binpkg-multi-instance buildpkg ccache cgroup compress-index config-protect-if-modified distlocks downgrade-backup fixlafiles ipc-sandbox merge-sync multilib-strict network-sandbox news nodoc parallel-fetch parallel-install pid-sandbox preserve-libs qa-unresolved-soname-deps sandbox sfperms strict strict-keepdir unknown-features-warn unmerge-backup unmerge-logs unmerge-orphans userfetch userpriv usersandbox usersync xattr'
 [32;01m*[0m CFLAGS='-march=native -O3 -fgraphite-identity -floop-nest-optimize -fdevirtualize-at-ltrans -fipa-pta -fno-semantic-interposition -flto=12 -fno-signed-zeros -fno-trapping-math -fassociative-math -freciprocal-math -fno-math-errno -ffinite-math-only -fno-rounding-math -fno-signaling-nans -fcx-limited-range -fexcess-precision=fast -fno-plt -fuse-linker-plugin -pipe -g0 -fno-stack-protector -fno-stack-clash-protection -fstack-check=no -fno-stack-check -Wl,-O4,--hash-style=gnu,--sort-common,--as-needed,-z,relro,-z,now,-lgomp,-lpthread'
 [32;01m*[0m CXXFLAGS='-march=native -O3 -fgraphite-identity -floop-nest-optimize -fdevirtualize-at-ltrans -fipa-pta -fno-semantic-interposition -flto=12 -fno-signed-zeros -fno-trapping-math -fassociative-math -freciprocal-math -fno-math-errno -ffinite-math-only -fno-rounding-math -fno-signaling-nans -fcx-limited-range -fexcess-precision=fast -fno-plt -fuse-linker-plugin -pipe -g0 -fno-stack-protector -fno-stack-clash-protection -fstack-check=no -fno-stack-check -Wl,-O4,--hash-style=gnu,--sort-common,--as-needed,-z,relro,-z,now,-lgomp,-lpthread'
 [32;01m*[0m FFLAGS='-march=native -O3 -fgraphite-identity -floop-nest-optimize -fdevirtualize-at-ltrans -fipa-pta -fno-semantic-interposition -flto=12 -fno-signed-zeros -fno-trapping-math -fassociative-math -freciprocal-math -fno-math-errno -ffinite-math-only -fno-rounding-math -fno-signaling-nans -fcx-limited-range -fexcess-precision=fast -fno-plt -fuse-linker-plugin -pipe -g0 -fno-stack-protector -fno-stack-clash-protection -fstack-check=no -fno-stack-check -Wl,-O4,--hash-style=gnu,--sort-common,--as-needed,-z,relro,-z,now,-lgomp,-lpthread'
 [32;01m*[0m FCFLAGS='-march=native -O3 -fgraphite-identity -floop-nest-optimize -fdevirtualize-at-ltrans -fipa-pta -fno-semantic-interposition -flto=12 -fno-signed-zeros -fno-trapping-math -fassociative-math -freciprocal-math -fno-math-errno -ffinite-math-only -fno-rounding-math -fno-signaling-nans -fcx-limited-range -fexcess-precision=fast -fno-plt -fuse-linker-plugin -pipe -g0 -fno-stack-protector -fno-stack-clash-protection -fstack-check=no -fno-stack-check -Wl,-O4,--hash-style=gnu,--sort-common,--as-needed,-z,relro,-z,now,-lgomp,-lpthread'
 [32;01m*[0m F77FLAGS='-march=native -O3 -fgraphite-identity -floop-nest-optimize -fdevirtualize-at-ltrans -fipa-pta -fno-semantic-interposition -flto=12 -fno-signed-zeros -fno-trapping-math -fassociative-math -freciprocal-math -fno-math-errno -ffinite-math-only -fno-rounding-math -fno-signaling-nans -fcx-limited-range -fexcess-precision=fast -fno-plt -fuse-linker-plugin -pipe -g0 -fno-stack-protector -fno-stack-clash-protection -fstack-check=no -fno-stack-check -Wl,-O4,--hash-style=gnu,--sort-common,--as-needed,-z,relro,-z,now,-lgomp,-lpthread'
 [32;01m*[0m LDFLAGS='-Wl,-O4,--hash-style=gnu,--sort-common,--as-needed,-z,relro,-z,now,-lgomp,-lpthread -march=native -O3 -fgraphite-identity -floop-nest-optimize -fdevirtualize-at-ltrans -fipa-pta -fno-semantic-interposition -flto=12 -fno-signed-zeros -fno-trapping-math -fassociative-math -freciprocal-math -fno-math-errno -ffinite-math-only -fno-rounding-math -fno-signaling-nans -fcx-limited-range -fexcess-precision=fast -fno-plt -fuse-linker-plugin -pipe -g0 -fno-stack-protector -fno-stack-clash-protection -fstack-check=no -fno-stack-check'
 [32;01m*[0m MAKEOPTS='-j12'
 [32;01m*[0m gcc (Gentoo 10.1.0 p1) 10.1.0
 [32;01m*[0m g++ (Gentoo 10.1.0 p1) 10.1.0
 [32;01m*[0m GNU ld (Gentoo 9999 p5) 2.34.50.20200520
 [32;01m*[0m Linux ryzen.gnum.org 5.4.36 #1 SMP Thu Apr 30 04:38:28 UTC 2020 x86_64 AMD Ryzen 5 3600 6-Core Processor AuthenticAMD GNU/Linux
]0;emerge 12:27:13 4|246 eselect (root@ryzen.gnum.org)>>> Unpacking source...
>>> Unpacking eselect-1.4.16.tar.xz to /tmp/portage/app-admin/eselect-1.4.16/work
>>> Source unpacked in /tmp/portage/app-admin/eselect-1.4.16/work
>>> Preparing source in /tmp/portage/app-admin/eselect-1.4.16/work/eselect-1.4.16 ...
>>> Source prepared.
>>> Configuring source in /tmp/portage/app-admin/eselect-1.4.16/work/eselect-1.4.16 ...
./configure --prefix=/usr --build=x86_64-pc-linux-gnu --host=x86_64-pc-linux-gnu --mandir=/usr/share/man --infodir=/usr/share/info --datadir=/usr/share --sysconfdir=/etc --localstatedir=/var/lib --disable-silent-rules --docdir=/usr/share/doc/eselect-1.4.16 --htmldir=/usr/share/doc/eselect-1.4.16/html --libdir=/usr/lib64
checking for a BSD-compatible install... /usr/lib/portage/python3.8/ebuild-helpers/xattr/install -c
checking whether build environment is sane... yes
checking for a thread-safe mkdir -p... /bin/mkdir -p
checking for gawk... gawk
checking whether make sets $(MAKE)... yes
checking whether make supports nested variables... yes
checking for bash... /bin/bash
checking for gsed... no
checking for sed... sed
checking whether sed is GNU sed... yes
checking for env-update... /usr/sbin/env-update
checking for greadlink... no
checking for readlink... readlink
checking whether readlink supports -f... yes
checking for rst2html... no
checking for rst2html.py... rst2html.py
checking if target installation is in an offset prefix... nope
checking whether building from git... no
checking that generated files are newer than configure... done
configure: creating ./config.status
config.status: creating Makefile
config.status: creating doc/Makefile
config.status: creating man/Makefile
config.status: creating misc/Makefile
config.status: creating bin/Makefile
config.status: creating libs/Makefile
config.status: creating modules/Makefile
>>> Source configured.
>>> Compiling source in /tmp/portage/app-admin/eselect-1.4.16/work/eselect-1.4.16 ...
make -j12 
Making all in doc
make[1]: Entering directory '/tmp/portage/app-admin/eselect-1.4.16/work/eselect-1.4.16/doc'
make[1]: Nothing to be done for 'all'.
make[1]: Leaving directory '/tmp/portage/app-admin/eselect-1.4.16/work/eselect-1.4.16/doc'
Making all in man
make[1]: Entering directory '/tmp/portage/app-admin/eselect-1.4.16/work/eselect-1.4.16/man'
make[1]: Nothing to be done for 'all'.
make[1]: Leaving directory '/tmp/portage/app-admin/eselect-1.4.16/work/eselect-1.4.16/man'
Making all in misc
make[1]: Entering directory '/tmp/portage/app-admin/eselect-1.4.16/work/eselect-1.4.16/misc'
make[1]: Nothing to be done for 'all'.
make[1]: Leaving directory '/tmp/portage/app-admin/eselect-1.4.16/work/eselect-1.4.16/misc'
Making all in bin
make[1]: Entering directory '/tmp/portage/app-admin/eselect-1.4.16/work/eselect-1.4.16/bin'
Building eselect...
make[1]: Leaving directory '/tmp/portage/app-admin/eselect-1.4.16/work/eselect-1.4.16/bin'
Making all in libs
make[1]: Entering directory '/tmp/portage/app-admin/eselect-1.4.16/work/eselect-1.4.16/libs'
cp default.eselect.in default.eselect
make[1]: Leaving directory '/tmp/portage/app-admin/eselect-1.4.16/work/eselect-1.4.16/libs'
Making all in modules
make[1]: Entering directory '/tmp/portage/app-admin/eselect-1.4.16/work/eselect-1.4.16/modules'
make[1]: Nothing to be done for 'all'.
make[1]: Leaving directory '/tmp/portage/app-admin/eselect-1.4.16/work/eselect-1.4.16/modules'
make[1]: Entering directory '/tmp/portage/app-admin/eselect-1.4.16/work/eselect-1.4.16'
make[1]: Nothing to be done for 'all-am'.
make[1]: Leaving directory '/tmp/portage/app-admin/eselect-1.4.16/work/eselect-1.4.16'
>>> Source compiled.
>>> Test phase [not enabled]: app-admin/eselect-1.4.16

>>> Install app-admin/eselect-1.4.16 into /tmp/portage/app-admin/eselect-1.4.16/image/
make -j12 DESTDIR=/tmp/portage/app-admin/eselect-1.4.16/image/ install 
Making install in doc
make[1]: Entering directory '/tmp/portage/app-admin/eselect-1.4.16/work/eselect-1.4.16/doc'
make[2]: Entering directory '/tmp/portage/app-admin/eselect-1.4.16/work/eselect-1.4.16/doc'
make[2]: Nothing to be done for 'install-exec-am'.
make[2]: Nothing to be done for 'install-data-am'.
make[2]: Leaving directory '/tmp/portage/app-admin/eselect-1.4.16/work/eselect-1.4.16/doc'
make[1]: Leaving directory '/tmp/portage/app-admin/eselect-1.4.16/work/eselect-1.4.16/doc'
Making install in man
make[1]: Entering directory '/tmp/portage/app-admin/eselect-1.4.16/work/eselect-1.4.16/man'
make[2]: Entering directory '/tmp/portage/app-admin/eselect-1.4.16/work/eselect-1.4.16/man'
make[2]: Nothing to be done for 'install-exec-am'.
 /bin/mkdir -p '/tmp/portage/app-admin/eselect-1.4.16/image//usr/share/man/man1'
 /bin/mkdir -p '/tmp/portage/app-admin/eselect-1.4.16/image//usr/share/man/man5'
 /usr/lib/portage/python3.8/ebuild-helpers/xattr/install -c -m 644 eselect.1 '/tmp/portage/app-admin/eselect-1.4.16/image//usr/share/man/man1'
 /usr/lib/portage/python3.8/ebuild-helpers/xattr/install -c -m 644 editor.eselect.5 env.eselect.5 kernel.eselect.5 news.eselect.5 pager.eselect.5 profile.eselect.5 rc.eselect.5 visual.eselect.5 '/tmp/portage/app-admin/eselect-1.4.16/image//usr/share/man/man5'
ln -snf \
	../man5/kernel.eselect.5 \
	/tmp/portage/app-admin/eselect-1.4.16/image//usr/share/man/man1/kernel-config.1
ln -snf \
	../man5/profile.eselect.5 \
	/tmp/portage/app-admin/eselect-1.4.16/image//usr/share/man/man1/profile-config.1
ln -snf \
	../man5/rc.eselect.5 \
	/tmp/portage/app-admin/eselect-1.4.16/image//usr/share/man/man1/rc-config.1
make[2]: Leaving directory '/tmp/portage/app-admin/eselect-1.4.16/work/eselect-1.4.16/man'
make[1]: Leaving directory '/tmp/portage/app-admin/eselect-1.4.16/work/eselect-1.4.16/man'
Making install in misc
make[1]: Entering directory '/tmp/portage/app-admin/eselect-1.4.16/work/eselect-1.4.16/misc'
make[2]: Entering directory '/tmp/portage/app-admin/eselect-1.4.16/work/eselect-1.4.16/misc'
make[2]: Nothing to be done for 'install-exec-am'.
make[2]: Nothing to be done for 'install-data-am'.
make[2]: Leaving directory '/tmp/portage/app-admin/eselect-1.4.16/work/eselect-1.4.16/misc'
make[1]: Leaving directory '/tmp/portage/app-admin/eselect-1.4.16/work/eselect-1.4.16/misc'
Making install in bin
make[1]: Entering directory '/tmp/portage/app-admin/eselect-1.4.16/work/eselect-1.4.16/bin'
make[2]: Entering directory '/tmp/portage/app-admin/eselect-1.4.16/work/eselect-1.4.16/bin'
 /bin/mkdir -p '/tmp/portage/app-admin/eselect-1.4.16/image//usr/bin'
 /usr/lib/portage/python3.8/ebuild-helpers/xattr/install -c eselect '/tmp/portage/app-admin/eselect-1.4.16/image//usr/bin'
ln -snf eselect /tmp/portage/app-admin/eselect-1.4.16/image//usr/bin/kernel-config
ln -snf eselect /tmp/portage/app-admin/eselect-1.4.16/image//usr/bin/profile-config
ln -snf eselect /tmp/portage/app-admin/eselect-1.4.16/image//usr/bin/rc-config
make[2]: Leaving directory '/tmp/portage/app-admin/eselect-1.4.16/work/eselect-1.4.16/bin'
make[1]: Leaving directory '/tmp/portage/app-admin/eselect-1.4.16/work/eselect-1.4.16/bin'
Making install in libs
make[1]: Entering directory '/tmp/portage/app-admin/eselect-1.4.16/work/eselect-1.4.16/libs'
make[2]: Entering directory '/tmp/portage/app-admin/eselect-1.4.16/work/eselect-1.4.16/libs'
make[2]: Nothing to be done for 'install-exec-am'.
 /bin/mkdir -p '/tmp/portage/app-admin/eselect-1.4.16/image//usr/share/eselect/libs/'
 /usr/lib/portage/python3.8/ebuild-helpers/xattr/install -c -m 644 config.bash core.bash default.eselect editor-variable.bash manip.bash multilib.bash output.bash package-manager.bash path-manipulation.bash skel.bash tests.bash '/tmp/portage/app-admin/eselect-1.4.16/image//usr/share/eselect/libs/'
make[2]: Leaving directory '/tmp/portage/app-admin/eselect-1.4.16/work/eselect-1.4.16/libs'
make[1]: Leaving directory '/tmp/portage/app-admin/eselect-1.4.16/work/eselect-1.4.16/libs'
Making install in modules
make[1]: Entering directory '/tmp/portage/app-admin/eselect-1.4.16/work/eselect-1.4.16/modules'
make[2]: Entering directory '/tmp/portage/app-admin/eselect-1.4.16/work/eselect-1.4.16/modules'
make[2]: Nothing to be done for 'install-exec-am'.
 /bin/mkdir -p '/tmp/portage/app-admin/eselect-1.4.16/image//usr/share/eselect/modules/'
 /usr/lib/portage/python3.8/ebuild-helpers/xattr/install -c -m 644 editor.eselect env.eselect kernel.eselect locale.eselect modules.eselect news.eselect pager.eselect profile.eselect rc.eselect visual.eselect '/tmp/portage/app-admin/eselect-1.4.16/image//usr/share/eselect/modules/'
make[2]: Leaving directory '/tmp/portage/app-admin/eselect-1.4.16/work/eselect-1.4.16/modules'
make[1]: Leaving directory '/tmp/portage/app-admin/eselect-1.4.16/work/eselect-1.4.16/modules'
make[1]: Entering directory '/tmp/portage/app-admin/eselect-1.4.16/work/eselect-1.4.16'
make[2]: Entering directory '/tmp/portage/app-admin/eselect-1.4.16/work/eselect-1.4.16'
make[2]: Nothing to be done for 'install-exec-am'.
make[2]: Nothing to be done for 'install-data-am'.
make[2]: Leaving directory '/tmp/portage/app-admin/eselect-1.4.16/work/eselect-1.4.16'
make[1]: Leaving directory '/tmp/portage/app-admin/eselect-1.4.16/work/eselect-1.4.16'
>>> Completed installing app-admin/eselect-1.4.16 into /tmp/portage/app-admin/eselect-1.4.16/image/

 [32;01m*[0m Final size of build directory: 1268 KiB (1.2 MiB)
 [32;01m*[0m Final size of installed tree:   400 KiB

./
./usr/
./usr/bin/
./usr/bin/profile-config
./usr/bin/kernel-config
./usr/bin/rc-config
./usr/bin/eselect
./usr/share/
./usr/share/bash-completion/
./usr/share/bash-completion/completions/
./usr/share/bash-completion/completions/eselect
./usr/share/man/
./usr/share/man/man1/
./usr/share/man/man1/profile-config.1.bz2
./usr/share/man/man1/rc-config.1.bz2
./usr/share/man/man1/eselect.1.bz2
./usr/share/man/man1/kernel-config.1.bz2
./usr/share/man/man5/
./usr/share/man/man5/pager.eselect.5.bz2
./usr/share/man/man5/visual.eselect.5.bz2
./usr/share/man/man5/profile.eselect.5.bz2
./usr/share/man/man5/editor.eselect.5.bz2
./usr/share/man/man5/news.eselect.5.bz2
./usr/share/man/man5/rc.eselect.5.bz2
./usr/share/man/man5/env.eselect.5.bz2
./usr/share/man/man5/kernel.eselect.5.bz2
./usr/share/eselect/
./usr/share/eselect/modules/
./usr/share/eselect/modules/visual.eselect
./usr/share/eselect/modules/pager.eselect
./usr/share/eselect/modules/kernel.eselect
./usr/share/eselect/modules/rc.eselect
./usr/share/eselect/modules/env.eselect
./usr/share/eselect/modules/profile.eselect
./usr/share/eselect/modules/modules.eselect
./usr/share/eselect/modules/news.eselect
./usr/share/eselect/modules/locale.eselect
./usr/share/eselect/modules/editor.eselect
./usr/share/eselect/libs/
./usr/share/eselect/libs/package-manager.bash
./usr/share/eselect/libs/config.bash
./usr/share/eselect/libs/manip.bash
./usr/share/eselect/libs/editor-variable.bash
./usr/share/eselect/libs/tests.bash
./usr/share/eselect/libs/multilib.bash
./usr/share/eselect/libs/core.bash
./usr/share/eselect/libs/path-manipulation.bash
./usr/share/eselect/libs/default.eselect
./usr/share/eselect/libs/output.bash
./usr/share/eselect/libs/skel.bash
./usr/share/doc/
./usr/share/doc/eselect-1.4.16/
./usr/share/doc/eselect-1.4.16/TODO.bz2
./usr/share/doc/eselect-1.4.16/README.bz2
./usr/share/doc/eselect-1.4.16/ChangeLog.bz2
./usr/share/doc/eselect-1.4.16/user-guide.txt.bz2
./usr/share/doc/eselect-1.4.16/developer-guide.txt.bz2
./usr/share/doc/eselect-1.4.16/AUTHORS.bz2
./usr/share/doc/eselect-1.4.16/NEWS.bz2
./usr/share/doc/eselect-1.4.16/release-guide.txt.bz2
./var/
./var/lib/
./var/lib/gentoo/
./var/lib/gentoo/news/
./var/lib/gentoo/news/.keep_app-admin_eselect-0
>>> Done.
 [32;01m*[39;49;00m checking 39 files for package collisions
[32;01m * [39;49;00mBuilding package for app-admin/eselect-1.4.16 ...                     [34;01m[ [39;49;00m[32;01mok[39;49;00m[34;01m ][39;49;00m
[32;01m * [39;49;00mPackages now in '/usr/portage/packages':
[32;01m * [39;49;00mapp-admin/eselect-1.4.16: 85.1K

>>> Merging app-admin/eselect-1.4.16 to /
 [32;01m*[0m removing unneeded *.la files
--- /var/
--- /var/lib/
--- /var/lib/gentoo/
--- /var/lib/gentoo/news/
>>> /var/lib/gentoo/news/.keep_app-admin_eselect-0
--- /usr/
--- /usr/share/
--- /usr/share/eselect/
--- /usr/share/eselect/libs/
>>> /usr/share/eselect/libs/skel.bash
>>> /usr/share/eselect/libs/output.bash
>>> /usr/share/eselect/libs/default.eselect
>>> /usr/share/eselect/libs/path-manipulation.bash
>>> /usr/share/eselect/libs/core.bash
>>> /usr/share/eselect/libs/multilib.bash
>>> /usr/share/eselect/libs/tests.bash
>>> /usr/share/eselect/libs/editor-variable.bash
>>> /usr/share/eselect/libs/manip.bash
>>> /usr/share/eselect/libs/config.bash
>>> /usr/share/eselect/libs/package-manager.bash
--- /usr/share/eselect/modules/
>>> /usr/share/eselect/modules/editor.eselect
>>> /usr/share/eselect/modules/locale.eselect
>>> /usr/share/eselect/modules/news.eselect
>>> /usr/share/eselect/modules/modules.eselect
>>> /usr/share/eselect/modules/profile.eselect
>>> /usr/share/eselect/modules/env.eselect
>>> /usr/share/eselect/modules/rc.eselect
>>> /usr/share/eselect/modules/kernel.eselect
>>> /usr/share/eselect/modules/pager.eselect
>>> /usr/share/eselect/modules/visual.eselect
--- /usr/share/man/
--- /usr/share/man/man5/
>>> /usr/share/man/man5/kernel.eselect.5.bz2
>>> /usr/share/man/man5/env.eselect.5.bz2
>>> /usr/share/man/man5/rc.eselect.5.bz2
>>> /usr/share/man/man5/news.eselect.5.bz2
>>> /usr/share/man/man5/editor.eselect.5.bz2
>>> /usr/share/man/man5/profile.eselect.5.bz2
>>> /usr/share/man/man5/visual.eselect.5.bz2
>>> /usr/share/man/man5/pager.eselect.5.bz2
--- /usr/share/man/man1/
>>> /usr/share/man/man1/kernel-config.1.bz2 -> ../man5/kernel.eselect.5.bz2
>>> /usr/share/man/man1/eselect.1.bz2
>>> /usr/share/man/man1/rc-config.1.bz2 -> ../man5/rc.eselect.5.bz2
>>> /usr/share/man/man1/profile-config.1.bz2 -> ../man5/profile.eselect.5.bz2
--- /usr/share/bash-completion/
--- /usr/share/bash-completion/completions/
>>> /usr/share/bash-completion/completions/eselect
--- /usr/bin/
>>> /usr/bin/eselect
>>> /usr/bin/rc-config -> eselect
>>> /usr/bin/kernel-config -> eselect
>>> /usr/bin/profile-config -> eselect
>>> Safely unmerging already-installed instance...
No package files given... Grabbing a set.
--- replaced obj /var/lib/gentoo/news/.keep_app-admin_eselect-0
--- replaced dir /var/lib/gentoo/news
--- replaced dir /var/lib/gentoo
--- replaced dir /var/lib
--- replaced dir /var
--- replaced obj /usr/share/man/man5/visual.eselect.5.bz2
--- replaced obj /usr/share/man/man5/rc.eselect.5.bz2
--- replaced obj /usr/share/man/man5/profile.eselect.5.bz2
--- replaced obj /usr/share/man/man5/pager.eselect.5.bz2
--- replaced obj /usr/share/man/man5/news.eselect.5.bz2
--- replaced obj /usr/share/man/man5/kernel.eselect.5.bz2
--- replaced obj /usr/share/man/man5/env.eselect.5.bz2
--- replaced obj /usr/share/man/man5/editor.eselect.5.bz2
--- replaced dir /usr/share/man/man5
--- replaced sym /usr/share/man/man1/rc-config.1.bz2
--- replaced sym /usr/share/man/man1/profile-config.1.bz2
--- replaced sym /usr/share/man/man1/kernel-config.1.bz2
--- replaced obj /usr/share/man/man1/eselect.1.bz2
--- replaced dir /usr/share/man/man1
--- replaced dir /usr/share/man
--- replaced obj /usr/share/eselect/modules/visual.eselect
--- replaced obj /usr/share/eselect/modules/rc.eselect
--- replaced obj /usr/share/eselect/modules/profile.eselect
--- replaced obj /usr/share/eselect/modules/pager.eselect
--- replaced obj /usr/share/eselect/modules/news.eselect
--- replaced obj /usr/share/eselect/modules/modules.eselect
--- replaced obj /usr/share/eselect/modules/locale.eselect
--- replaced obj /usr/share/eselect/modules/kernel.eselect
--- replaced obj /usr/share/eselect/modules/env.eselect
--- replaced obj /usr/share/eselect/modules/editor.eselect
--- replaced dir /usr/share/eselect/modules
--- replaced obj /usr/share/eselect/libs/tests.bash
--- replaced obj /usr/share/eselect/libs/skel.bash
--- replaced obj /usr/share/eselect/libs/path-manipulation.bash
--- replaced obj /usr/share/eselect/libs/package-manager.bash
--- replaced obj /usr/share/eselect/libs/output.bash
--- replaced obj /usr/share/eselect/libs/multilib.bash
--- replaced obj /usr/share/eselect/libs/manip.bash
--- replaced obj /usr/share/eselect/libs/editor-variable.bash
--- replaced obj /usr/share/eselect/libs/default.eselect
--- replaced obj /usr/share/eselect/libs/core.bash
--- replaced obj /usr/share/eselect/libs/config.bash
--- replaced dir /usr/share/eselect/libs
--- replaced dir /usr/share/eselect
<<<          obj /usr/share/doc/eselect-1.4.16/user-guide.txt.bz2
<<<          obj /usr/share/doc/eselect-1.4.16/release-guide.txt.bz2
<<<          obj /usr/share/doc/eselect-1.4.16/developer-guide.txt.bz2
<<<          obj /usr/share/doc/eselect-1.4.16/TODO.bz2
<<<          obj /usr/share/doc/eselect-1.4.16/README.bz2
<<<          obj /usr/share/doc/eselect-1.4.16/NEWS.bz2
<<<          obj /usr/share/doc/eselect-1.4.16/ChangeLog.bz2
<<<          obj /usr/share/doc/eselect-1.4.16/AUTHORS.bz2
--- replaced obj /usr/share/bash-completion/completions/eselect
--- replaced dir /usr/share/bash-completion/completions
--- replaced dir /usr/share/bash-completion
--- replaced dir /usr/share
--- replaced sym /usr/bin/rc-config
--- replaced sym /usr/bin/profile-config
--- replaced sym /usr/bin/kernel-config
--- replaced obj /usr/bin/eselect
--- replaced dir /usr/bin
--- replaced dir /usr
<<<          dir /usr/share/doc/eselect-1.4.16
--- !empty   dir /usr/share/doc
>>> Regenerating /etc/ld.so.cache...
>>> Original instance of package unmerged safely.
>>> app-admin/eselect-1.4.16 merged.
