No package files given... Grabbing a set.
--- replaced obj /usr/share/vim/vimfiles/syntax/xlib.vim
--- replaced obj /usr/share/vim/vimfiles/syntax/vte.vim
--- replaced obj /usr/share/vim/vimfiles/syntax/poppler.vim
--- replaced obj /usr/share/vim/vimfiles/syntax/pango.vim
--- replaced obj /usr/share/vim/vimfiles/syntax/libwnck.vim
--- replaced obj /usr/share/vim/vimfiles/syntax/libunique.vim
--- replaced obj /usr/share/vim/vimfiles/syntax/libsoup.vim
--- replaced obj /usr/share/vim/vimfiles/syntax/librsvg.vim
--- replaced obj /usr/share/vim/vimfiles/syntax/libnotify.vim
--- replaced obj /usr/share/vim/vimfiles/syntax/libgsf.vim
--- replaced obj /usr/share/vim/vimfiles/syntax/jsonglib.vim
--- replaced obj /usr/share/vim/vimfiles/syntax/gusb.vim
--- replaced obj /usr/share/vim/vimfiles/syntax/gudev.vim
--- replaced obj /usr/share/vim/vimfiles/syntax/gtksourceview.vim
--- replaced obj /usr/share/vim/vimfiles/syntax/gtkglext.vim
--- replaced obj /usr/share/vim/vimfiles/syntax/gtk3.vim
--- replaced obj /usr/share/vim/vimfiles/syntax/gtk2.vim
--- replaced obj /usr/share/vim/vimfiles/syntax/gstreamer.vim
--- replaced obj /usr/share/vim/vimfiles/syntax/gobjectintrospection.vim
--- replaced obj /usr/share/vim/vimfiles/syntax/gnomedesktop.vim
--- replaced obj /usr/share/vim/vimfiles/syntax/glib.vim
--- replaced obj /usr/share/vim/vimfiles/syntax/gimp.vim
--- replaced obj /usr/share/vim/vimfiles/syntax/gdkpixbuf.vim
--- replaced obj /usr/share/vim/vimfiles/syntax/fftw3.vim
--- replaced obj /usr/share/vim/vimfiles/syntax/evince.vim
--- replaced obj /usr/share/vim/vimfiles/syntax/dbusglib.vim
--- replaced obj /usr/share/vim/vimfiles/syntax/colord.vim
--- replaced obj /usr/share/vim/vimfiles/syntax/clutter.vim
--- replaced obj /usr/share/vim/vimfiles/syntax/cairo.vim
--- replaced obj /usr/share/vim/vimfiles/syntax/atspi.vim
--- replaced obj /usr/share/vim/vimfiles/syntax/atk.vim
--- replaced dir /usr/share/vim/vimfiles/syntax
--- replaced obj /usr/share/vim/vimfiles/after/syntax/c.vim
--- replaced dir /usr/share/vim/vimfiles/after/syntax
--- replaced dir /usr/share/vim/vimfiles/after
--- replaced dir /usr/share/vim/vimfiles
--- replaced dir /usr/share/vim
--- replaced dir /usr/share
--- replaced dir /usr
 * Updating documentation tags in /usr/share/vim/vim82
 * Updating scripts in /usr/share/vim/vimfiles/after
 * Removing dead scripts in /usr/share/vim/vimfiles/after
>>> Regenerating /etc/ld.so.cache...
