No package files given... Grabbing a set.
--- replaced obj /usr/share/systemtap/tapset/qemu-x86_64.stp
--- replaced obj /usr/share/systemtap/tapset/qemu-x86_64-simpletrace.stp
--- replaced obj /usr/share/systemtap/tapset/qemu-x86_64-log.stp
--- replaced obj /usr/share/systemtap/tapset/qemu-system-x86_64.stp
--- replaced obj /usr/share/systemtap/tapset/qemu-system-x86_64-simpletrace.stp
--- replaced obj /usr/share/systemtap/tapset/qemu-system-x86_64-log.stp
--- replaced obj /usr/share/systemtap/tapset/qemu-system-arm.stp
--- replaced obj /usr/share/systemtap/tapset/qemu-system-arm-simpletrace.stp
--- replaced obj /usr/share/systemtap/tapset/qemu-system-arm-log.stp
--- replaced obj /usr/share/systemtap/tapset/qemu-system-aarch64.stp
--- replaced obj /usr/share/systemtap/tapset/qemu-system-aarch64-simpletrace.stp
--- replaced obj /usr/share/systemtap/tapset/qemu-system-aarch64-log.stp
--- replaced obj /usr/share/systemtap/tapset/qemu-arm.stp
--- replaced obj /usr/share/systemtap/tapset/qemu-arm-simpletrace.stp
--- replaced obj /usr/share/systemtap/tapset/qemu-arm-log.stp
--- replaced obj /usr/share/systemtap/tapset/qemu-aarch64.stp
--- replaced obj /usr/share/systemtap/tapset/qemu-aarch64-simpletrace.stp
--- replaced obj /usr/share/systemtap/tapset/qemu-aarch64-log.stp
--- replaced dir /usr/share/systemtap/tapset
--- replaced dir /usr/share/systemtap
--- replaced obj /usr/share/qemu/vhost-user/50-qemu-virtiofsd.json
--- replaced dir /usr/share/qemu/vhost-user
--- replaced sym /usr/share/qemu/vgabios.bin
--- replaced sym /usr/share/qemu/vgabios-vmware.bin
--- replaced sym /usr/share/qemu/vgabios-virtio.bin
--- replaced sym /usr/share/qemu/vgabios-stdvga.bin
--- replaced obj /usr/share/qemu/vgabios-ramfb.bin
--- replaced sym /usr/share/qemu/vgabios-qxl.bin
--- replaced sym /usr/share/qemu/vgabios-cirrus.bin
--- replaced obj /usr/share/qemu/vgabios-bochs-display.bin
--- replaced obj /usr/share/qemu/vgabios-ati.bin
--- replaced obj /usr/share/qemu/u-boot.e500
--- replaced obj /usr/share/qemu/u-boot-sam460-20100605.bin
--- replaced obj /usr/share/qemu/trace-events-all
--- replaced obj /usr/share/qemu/slof.bin
--- replaced obj /usr/share/qemu/skiboot.lid
--- replaced sym /usr/share/qemu/sgabios.bin
--- replaced obj /usr/share/qemu/s390-netboot.img
--- replaced obj /usr/share/qemu/s390-ccw.img
--- replaced obj /usr/share/qemu/qemu_vga.ndrv
--- replaced obj /usr/share/qemu/qemu-nsis.bmp
--- replaced sym /usr/share/qemu/pxe-virtio.rom
--- replaced sym /usr/share/qemu/pxe-rtl8139.rom
--- replaced sym /usr/share/qemu/pxe-pcnet.rom
--- replaced sym /usr/share/qemu/pxe-ne2k_pci.rom
--- replaced sym /usr/share/qemu/pxe-eepro100.rom
--- replaced sym /usr/share/qemu/pxe-e1000.rom
--- replaced obj /usr/share/qemu/pvh.bin
--- replaced obj /usr/share/qemu/petalogix-s3adsp1800.dtb
--- replaced obj /usr/share/qemu/petalogix-ml605.dtb
--- replaced obj /usr/share/qemu/palcode-clipper
--- replaced obj /usr/share/qemu/opensbi-riscv64-virt-fw_jump.bin
--- replaced obj /usr/share/qemu/opensbi-riscv64-sifive_u-fw_jump.bin
--- replaced obj /usr/share/qemu/opensbi-riscv32-virt-fw_jump.bin
--- replaced obj /usr/share/qemu/opensbi-riscv32-sifive_u-fw_jump.bin
--- replaced obj /usr/share/qemu/openbios-sparc64
--- replaced obj /usr/share/qemu/openbios-sparc32
--- replaced obj /usr/share/qemu/openbios-ppc
--- replaced obj /usr/share/qemu/multiboot.bin
--- replaced obj /usr/share/qemu/linuxboot_dma.bin
--- replaced obj /usr/share/qemu/linuxboot.bin
--- replaced obj /usr/share/qemu/kvmvapic.bin
--- replaced obj /usr/share/qemu/keymaps/tr
--- replaced obj /usr/share/qemu/keymaps/th
--- replaced obj /usr/share/qemu/keymaps/sv
--- replaced obj /usr/share/qemu/keymaps/sl
--- replaced obj /usr/share/qemu/keymaps/ru
--- replaced obj /usr/share/qemu/keymaps/pt-br
--- replaced obj /usr/share/qemu/keymaps/pt
--- replaced obj /usr/share/qemu/keymaps/pl
--- replaced obj /usr/share/qemu/keymaps/no
--- replaced obj /usr/share/qemu/keymaps/nl
--- replaced obj /usr/share/qemu/keymaps/mk
--- replaced obj /usr/share/qemu/keymaps/lv
--- replaced obj /usr/share/qemu/keymaps/lt
--- replaced obj /usr/share/qemu/keymaps/ja
--- replaced obj /usr/share/qemu/keymaps/it
--- replaced obj /usr/share/qemu/keymaps/is
--- replaced obj /usr/share/qemu/keymaps/hu
--- replaced obj /usr/share/qemu/keymaps/hr
--- replaced obj /usr/share/qemu/keymaps/fr-ch
--- replaced obj /usr/share/qemu/keymaps/fr-ca
--- replaced obj /usr/share/qemu/keymaps/fr-be
--- replaced obj /usr/share/qemu/keymaps/fr
--- replaced obj /usr/share/qemu/keymaps/fo
--- replaced obj /usr/share/qemu/keymaps/fi
--- replaced obj /usr/share/qemu/keymaps/et
--- replaced obj /usr/share/qemu/keymaps/es
--- replaced obj /usr/share/qemu/keymaps/en-us
--- replaced obj /usr/share/qemu/keymaps/en-gb
--- replaced obj /usr/share/qemu/keymaps/de-ch
--- replaced obj /usr/share/qemu/keymaps/de
--- replaced obj /usr/share/qemu/keymaps/da
--- replaced obj /usr/share/qemu/keymaps/cz
--- replaced obj /usr/share/qemu/keymaps/bepo
--- replaced obj /usr/share/qemu/keymaps/ar
--- replaced dir /usr/share/qemu/keymaps
--- replaced obj /usr/share/qemu/hppa-firmware.img
--- replaced obj /usr/share/qemu/firmware/60-edk2-x86_64.json
--- replaced obj /usr/share/qemu/firmware/60-edk2-i386.json
--- replaced obj /usr/share/qemu/firmware/60-edk2-arm.json
--- replaced obj /usr/share/qemu/firmware/60-edk2-aarch64.json
--- replaced obj /usr/share/qemu/firmware/50-edk2-x86_64-secure.json
--- replaced obj /usr/share/qemu/firmware/50-edk2-i386-secure.json
--- replaced dir /usr/share/qemu/firmware
--- replaced obj /usr/share/qemu/efi-vmxnet3.rom
--- replaced obj /usr/share/qemu/efi-virtio.rom
--- replaced obj /usr/share/qemu/efi-rtl8139.rom
--- replaced obj /usr/share/qemu/efi-pcnet.rom
--- replaced obj /usr/share/qemu/efi-ne2k_pci.rom
--- replaced obj /usr/share/qemu/efi-eepro100.rom
--- replaced obj /usr/share/qemu/efi-e1000e.rom
--- replaced obj /usr/share/qemu/efi-e1000.rom
--- replaced obj /usr/share/qemu/edk2-x86_64-secure-code.fd
--- replaced obj /usr/share/qemu/edk2-x86_64-code.fd
--- replaced obj /usr/share/qemu/edk2-licenses.txt
--- replaced obj /usr/share/qemu/edk2-i386-vars.fd
--- replaced obj /usr/share/qemu/edk2-i386-secure-code.fd
--- replaced obj /usr/share/qemu/edk2-i386-code.fd
--- replaced obj /usr/share/qemu/edk2-arm-vars.fd
--- replaced obj /usr/share/qemu/edk2-arm-code.fd
--- replaced obj /usr/share/qemu/edk2-aarch64-code.fd
--- replaced obj /usr/share/qemu/canyonlands.dtb
--- replaced sym /usr/share/qemu/bios.bin
--- replaced obj /usr/share/qemu/bios-microvm.bin
--- replaced sym /usr/share/qemu/bios-256k.bin
--- replaced obj /usr/share/qemu/binfmt.d/qemu.conf
--- replaced dir /usr/share/qemu/binfmt.d
--- replaced obj /usr/share/qemu/bamboo.dtb
--- replaced obj /usr/share/qemu/QEMU,tcx.bin
--- replaced obj /usr/share/qemu/QEMU,cgthree.bin
--- replaced dir /usr/share/qemu
--- replaced obj /usr/share/icons/hicolor/scalable/apps/qemu.svg
--- replaced dir /usr/share/icons/hicolor/scalable/apps
--- replaced dir /usr/share/icons/hicolor/scalable
--- replaced obj /usr/share/icons/hicolor/64x64/apps/qemu.png
--- replaced dir /usr/share/icons/hicolor/64x64/apps
--- replaced dir /usr/share/icons/hicolor/64x64
--- replaced obj /usr/share/icons/hicolor/512x512/apps/qemu.png
--- replaced dir /usr/share/icons/hicolor/512x512/apps
--- replaced dir /usr/share/icons/hicolor/512x512
--- replaced obj /usr/share/icons/hicolor/48x48/apps/qemu.png
--- replaced dir /usr/share/icons/hicolor/48x48/apps
--- replaced dir /usr/share/icons/hicolor/48x48
--- replaced obj /usr/share/icons/hicolor/32x32/apps/qemu.png
--- replaced obj /usr/share/icons/hicolor/32x32/apps/qemu.bmp
--- replaced dir /usr/share/icons/hicolor/32x32/apps
--- replaced dir /usr/share/icons/hicolor/32x32
--- replaced obj /usr/share/icons/hicolor/256x256/apps/qemu.png
--- replaced dir /usr/share/icons/hicolor/256x256/apps
--- replaced dir /usr/share/icons/hicolor/256x256
--- replaced obj /usr/share/icons/hicolor/24x24/apps/qemu.png
--- replaced dir /usr/share/icons/hicolor/24x24/apps
--- replaced dir /usr/share/icons/hicolor/24x24
--- replaced obj /usr/share/icons/hicolor/16x16/apps/qemu.png
--- replaced dir /usr/share/icons/hicolor/16x16/apps
--- replaced dir /usr/share/icons/hicolor/16x16
--- replaced obj /usr/share/icons/hicolor/128x128/apps/qemu.png
--- replaced dir /usr/share/icons/hicolor/128x128/apps
--- replaced dir /usr/share/icons/hicolor/128x128
--- replaced dir /usr/share/icons/hicolor
--- replaced dir /usr/share/icons
--- replaced obj /usr/share/applications/qemu.desktop
--- replaced dir /usr/share/applications
--- replaced dir /usr/share
--- replaced obj /usr/libexec/virtiofsd
--- replaced obj /usr/libexec/qemu-bridge-helper
--- replaced dir /usr/libexec
--- replaced dir /usr/include
--- replaced obj /usr/bin/qemu-x86_64
--- replaced obj /usr/bin/qemu-trace-stap
--- replaced obj /usr/bin/qemu-system-x86_64
--- replaced obj /usr/bin/qemu-system-arm
--- replaced obj /usr/bin/qemu-system-aarch64
--- replaced obj /usr/bin/qemu-storage-daemon
--- replaced obj /usr/bin/qemu-pr-helper
--- replaced obj /usr/bin/qemu-nbd
--- replaced obj /usr/bin/qemu-keymap
--- replaced obj /usr/bin/qemu-io
--- replaced obj /usr/bin/qemu-img
--- replaced obj /usr/bin/qemu-edid
--- replaced obj /usr/bin/qemu-arm
--- replaced obj /usr/bin/qemu-aarch64
--- replaced obj /usr/bin/ivshmem-server
--- replaced obj /usr/bin/ivshmem-client
--- replaced obj /usr/bin/elf2dmp
--- replaced dir /usr/bin
--- replaced dir /usr
--- replaced obj /lib/udev/rules.d/65-kvm.rules
--- replaced dir /lib/udev/rules.d
--- replaced dir /lib/udev
--- replaced dir /lib
--- replaced obj /etc/qemu/bridge.conf
--- replaced dir /etc/qemu
--- replaced obj /etc/init.d/qemu-binfmt
--- replaced dir /etc/init.d
--- replaced dir /etc
 * Updating icons cache ...
 [ ok ]
>>> Regenerating /etc/ld.so.cache...
