>>> Extracting info
 * Package:    app-shells/bash-5.0_p17
 * Repository: gentoo
 * USE:        abi_x86_64 elibc_glibc net kernel_linux userland_GNU amd64 readline
 * FEATURES:   network-sandbox preserve-libs sandbox userpriv usersandbox
 * FEATURES='assume-digests binpkg-docompress binpkg-dostrip binpkg-logs binpkg-multi-instance buildpkg cgroup compress-index config-protect-if-modified distlocks downgrade-backup fixlafiles ipc-sandbox merge-sync multilib-strict network-sandbox news nodoc parallel-fetch parallel-install pid-sandbox preserve-libs qa-unresolved-soname-deps sandbox sfperms strict unknown-features-warn unmerge-backup unmerge-logs unmerge-orphans userfetch userpriv usersandbox usersync xattr'
 * CFLAGS='-march=native -O3 -fdevirtualize-at-ltrans -fipa-pta -fno-semantic-interposition -fno-signed-zeros -fno-trapping-math -fassociative-math -freciprocal-math -fno-math-errno -ffinite-math-only -fno-rounding-math -fno-signaling-nans -fcx-limited-range -fexcess-precision=fast -fno-plt -fno-common -pipe -g0 -fno-stack-protector -fno-stack-clash-protection -fstack-check=no -fno-stack-check -Wl,-O1 -Wl,--as-needed -Wl,--defsym=__gentoo_check_ldflags__=0 -Wl,--hash-style=gnu -Wl,-z,norelro'
 * CXXFLAGS='-march=native -O3 -fdevirtualize-at-ltrans -fipa-pta -fno-semantic-interposition -fno-signed-zeros -fno-trapping-math -fassociative-math -freciprocal-math -fno-math-errno -ffinite-math-only -fno-rounding-math -fno-signaling-nans -fcx-limited-range -fexcess-precision=fast -fno-plt -fno-common -pipe -g0 -fno-stack-protector -fno-stack-clash-protection -fstack-check=no -fno-stack-check -Wl,-O1 -Wl,--as-needed -Wl,--defsym=__gentoo_check_ldflags__=0 -Wl,--hash-style=gnu -Wl,-z,norelro'
 * CPPFLAGS='-DDEFAULT_PATH_VALUE='"/usr/local/sbin:/usr/local/bin:/usr/sbin:/usr/bin:/sbin:/bin"' -DSTANDARD_UTILS_PATH='"/bin:/usr/bin:/sbin:/usr/sbin"' -DSYS_BASHRC='"/etc/bash/bashrc"' -DSYS_BASH_LOGOUT='"/etc/bash/bash_logout"' -DNON_INTERACTIVE_LOGIN_SHELLS -DSSH_SOURCE_BASHRC'
 * FFLAGS='-march=native -O3 -fdevirtualize-at-ltrans -fipa-pta -fno-semantic-interposition -fno-signed-zeros -fno-trapping-math -fassociative-math -freciprocal-math -fno-math-errno -ffinite-math-only -fno-rounding-math -fno-signaling-nans -fcx-limited-range -fexcess-precision=fast -fno-plt -fno-common -pipe -g0 -fno-stack-protector -fno-stack-clash-protection -fstack-check=no -fno-stack-check -Wl,-O1 -Wl,--as-needed -Wl,--defsym=__gentoo_check_ldflags__=0 -Wl,--hash-style=gnu -Wl,-z,norelro'
 * FCFLAGS='-march=native -O3 -fdevirtualize-at-ltrans -fipa-pta -fno-semantic-interposition -fno-signed-zeros -fno-trapping-math -fassociative-math -freciprocal-math -fno-math-errno -ffinite-math-only -fno-rounding-math -fno-signaling-nans -fcx-limited-range -fexcess-precision=fast -fno-plt -fno-common -pipe -g0 -fno-stack-protector -fno-stack-clash-protection -fstack-check=no -fno-stack-check -Wl,-O1 -Wl,--as-needed -Wl,--defsym=__gentoo_check_ldflags__=0 -Wl,--hash-style=gnu -Wl,-z,norelro'
 * F77FLAGS='-march=native -O3 -fdevirtualize-at-ltrans -fipa-pta -fno-semantic-interposition -fno-signed-zeros -fno-trapping-math -fassociative-math -freciprocal-math -fno-math-errno -ffinite-math-only -fno-rounding-math -fno-signaling-nans -fcx-limited-range -fexcess-precision=fast -fno-plt -fno-common -pipe -g0 -fno-stack-protector -fno-stack-clash-protection -fstack-check=no -fno-stack-check -Wl,-O1 -Wl,--as-needed -Wl,--defsym=__gentoo_check_ldflags__=0 -Wl,--hash-style=gnu -Wl,-z,norelro'
 * LDFLAGS='-Wl,-O1 -Wl,--as-needed -Wl,--defsym=__gentoo_check_ldflags__=0 -Wl,--hash-style=gnu -Wl,-z,norelro'
 * MAKEOPTS='-j12'
 * gcc () 11.0.0 20200526 (experimental)
 * g++ () 11.0.0 20200526 (experimental)
 * GNU ld (Gentoo 2.34 p4) 2.34.0
 * Linux ryzen.gnum.org 5.4.36 #1 SMP Thu Apr 30 04:38:28 UTC 2020 x86_64 AMD Ryzen 5 3600 6-Core Processor AuthenticAMD GNU/Linux
app-shells/bash: 49 seconds average for 12 merges
2020-05-16T21:39:23 >>> app-shells/bash: 52 seconds
2020-05-20T01:14:22 >>> app-shells/bash: 4 seconds
2020-05-21T06:19:44 >>> app-shells/bash: 1 minute, 2 seconds
2020-05-23T14:05:02 >>> app-shells/bash: 57 seconds
2020-05-24T23:44:27 >>> app-shells/bash: 2 minutes, 37 seconds
2020-05-25T03:09:15 >>> app-shells/bash: 12 seconds
2020-05-25T18:29:00 >>> app-shells/bash: 1 minute, 50 seconds
2020-05-25T20:05:09 >>> app-shells/bash: 1 minute
2020-05-26T13:56:22 >>> app-shells/bash: 7 seconds
2020-05-27T01:36:18 >>> app-shells/bash: 6 seconds
2020-05-27T03:35:21 >>> app-shells/bash: 1 minute
2020-05-28T02:52:32 >>> app-shells/bash: 5 seconds
]0;emerge 14:37:55 323|889 bash 00:24 (root@ryzen.gnum.org)kemerge 14:37:55 323|889 bash 00:24 (root@ryzen.gnum.org)\>>> Extracting app-shells/bash-5.0_p17
 * checking 15 files for package collisions
>>> Merging app-shells/bash-5.0_p17 to /
 * removing unneeded *.la files
--- /etc/
--- /etc/skel/
>>> /etc/skel/.bashrc
>>> /etc/skel/.bash_profile
>>> /etc/skel/.bash_logout
--- /etc/bash/
>>> /etc/bash/bash_logout
>>> /etc/bash/bashrc
--- /etc/bash/bashrc.d/
>>> /etc/bash/bashrc.d/.keep_app-shells_bash-0
--- /usr/
--- /usr/share/
--- /usr/share/man/
--- /usr/share/man/man1/
>>> /usr/share/man/man1/rbash.1.bz2
>>> /usr/share/man/man1/bash.1.bz2
>>> /usr/share/man/man1/builtins.1.bz2
>>> /usr/share/man/man1/bashbug.1.bz2
--- /usr/share/info/
>>> /usr/share/info/bashref.info.bz2 -> bash.info.bz2
>>> /usr/share/info/bash.info.bz2
--- /usr/bin/
>>> /usr/bin/bashbug
--- /bin/
>>> /bin/bash
>>> /bin/rbash -> bash
>>> Safely unmerging already-installed instance...
>>> Original instance of package unmerged safely.
>>> app-shells/bash-5.0_p17 merged.
