No package files given... Grabbing a set.
--- replaced obj /usr/share/bash-completion/helpers/gentoo-common.sh
--- replaced dir /usr/share/bash-completion/helpers
--- replaced obj /usr/share/bash-completion/completions/webapp-config
--- replaced obj /usr/share/bash-completion/completions/splat
--- replaced obj /usr/share/bash-completion/completions/revdep-rebuild
--- replaced obj /usr/share/bash-completion/completions/repoman
--- replaced obj /usr/share/bash-completion/completions/portageq
--- replaced obj /usr/share/bash-completion/completions/metagen
--- replaced obj /usr/share/bash-completion/completions/layman
--- replaced obj /usr/share/bash-completion/completions/java-config
--- replaced obj /usr/share/bash-completion/completions/glsa-check
--- replaced obj /usr/share/bash-completion/completions/gcc-config
--- replaced obj /usr/share/bash-completion/completions/euse
--- replaced obj /usr/share/bash-completion/completions/equery
--- replaced obj /usr/share/bash-completion/completions/epm
--- replaced obj /usr/share/bash-completion/completions/epkginfo
--- replaced obj /usr/share/bash-completion/completions/emerge
--- replaced obj /usr/share/bash-completion/completions/ekeyword
--- replaced obj /usr/share/bash-completion/completions/ebuild
--- replaced obj /usr/share/bash-completion/completions/distcc-config
--- replaced obj /usr/share/bash-completion/completions/browser-config
--- replaced dir /usr/share/bash-completion/completions
--- replaced dir /usr/share/bash-completion
--- replaced dir /usr/share
--- replaced dir /usr
--- replaced obj /etc/bash_completion.d/gentoo-style-init
--- replaced dir /etc/bash_completion.d
--- replaced dir /etc
>>> Regenerating /etc/ld.so.cache...
