 * Package:    app-misc/mime-types-9
 * Repository: gentoo
 * Maintainer: djc@gentoo.org
 * USE:        abi_x86_64 amd64 elibc_glibc kernel_linux userland_GNU
 * FEATURES:   ccache network-sandbox preserve-libs sandbox userpriv usersandbox
 * /etc/portage/package.cflags/ltoworkarounds.conf -> */*: *FLAGS+=-Wl,-O4 *FLAGS-=-Wl,-O1
 * FEATURES='assume-digests binpkg-docompress binpkg-dostrip binpkg-logs binpkg-multi-instance buildpkg ccache cgroup compress-index config-protect-if-modified distlocks fixlafiles ipc-sandbox merge-sync multilib-strict network-sandbox news nodoc parallel-fetch parallel-install pid-sandbox preserve-libs qa-unresolved-soname-deps sandbox sfperms strict unknown-features-warn unmerge-logs unmerge-orphans userfetch userpriv usersandbox usersync xattr'
 * CFLAGS='-march=znver2 -pipe -g0 -O3 -fgraphite-identity -floop-nest-optimize -fdevirtualize-at-ltrans -fipa-pta -fno-semantic-interposition -flto=12 -fno-plt -fno-signed-zeros -fno-trapping-math -fassociative-math -freciprocal-math -fno-math-errno -ffinite-math-only -fno-rounding-math -fno-signaling-nans -fcx-limited-range -fexcess-precision=fast -falign-functions=32 -fno-stack-protector -fno-stack-clash-protection -fstack-check=no -fno-stack-check -fuse-linker-plugin -Wl,-O4 -Wl,--as-needed -Wl,-lpthread -Wl,-lgomp -Wl,-z,norelro -Wl,-z,now -Wl,--sort-common -s'
 * CXXFLAGS='-march=znver2 -pipe -g0 -O3 -fgraphite-identity -floop-nest-optimize -fdevirtualize-at-ltrans -fipa-pta -fno-semantic-interposition -flto=12 -fno-plt -fno-signed-zeros -fno-trapping-math -fassociative-math -freciprocal-math -fno-math-errno -ffinite-math-only -fno-rounding-math -fno-signaling-nans -fcx-limited-range -fexcess-precision=fast -falign-functions=32 -fno-stack-protector -fno-stack-clash-protection -fstack-check=no -fno-stack-check -fuse-linker-plugin -Wl,-O4 -Wl,--as-needed -Wl,-lpthread -Wl,-lgomp -Wl,-z,norelro -Wl,-z,now -Wl,--sort-common -s'
 * FFLAGS='-march=znver2 -pipe -g0 -O3 -fgraphite-identity -floop-nest-optimize -fdevirtualize-at-ltrans -fipa-pta -fno-semantic-interposition -flto=12 -fno-plt -fno-signed-zeros -fno-trapping-math -fassociative-math -freciprocal-math -fno-math-errno -ffinite-math-only -fno-rounding-math -fno-signaling-nans -fcx-limited-range -fexcess-precision=fast -falign-functions=32 -fno-stack-protector -fno-stack-clash-protection -fstack-check=no -fno-stack-check -fuse-linker-plugin -Wl,-O4 -Wl,--as-needed -Wl,-lpthread -Wl,-lgomp -Wl,-z,norelro -Wl,-z,now -Wl,--sort-common -s'
 * FCFLAGS='-march=znver2 -pipe -g0 -O3 -fgraphite-identity -floop-nest-optimize -fdevirtualize-at-ltrans -fipa-pta -fno-semantic-interposition -flto=12 -fno-plt -fno-signed-zeros -fno-trapping-math -fassociative-math -freciprocal-math -fno-math-errno -ffinite-math-only -fno-rounding-math -fno-signaling-nans -fcx-limited-range -fexcess-precision=fast -falign-functions=32 -fno-stack-protector -fno-stack-clash-protection -fstack-check=no -fno-stack-check -fuse-linker-plugin -Wl,-O4 -Wl,--as-needed -Wl,-lpthread -Wl,-lgomp -Wl,-z,norelro -Wl,-z,now -Wl,--sort-common -s'
 * F77FLAGS='-march=znver2 -pipe -g0 -O3 -fgraphite-identity -floop-nest-optimize -fdevirtualize-at-ltrans -fipa-pta -fno-semantic-interposition -flto=12 -fno-plt -fno-signed-zeros -fno-trapping-math -fassociative-math -freciprocal-math -fno-math-errno -ffinite-math-only -fno-rounding-math -fno-signaling-nans -fcx-limited-range -fexcess-precision=fast -falign-functions=32 -fno-stack-protector -fno-stack-clash-protection -fstack-check=no -fno-stack-check -fuse-linker-plugin -Wl,-O4 -Wl,--as-needed -Wl,-lpthread -Wl,-lgomp -Wl,-z,norelro -Wl,-z,now -Wl,--sort-common -s'
 * LDFLAGS='-march=znver2 -pipe -g0 -O3 -fgraphite-identity -floop-nest-optimize -fdevirtualize-at-ltrans -fipa-pta -fno-semantic-interposition -flto=12 -fno-plt -fno-signed-zeros -fno-trapping-math -fassociative-math -freciprocal-math -fno-math-errno -ffinite-math-only -fno-rounding-math -fno-signaling-nans -fcx-limited-range -fexcess-precision=fast -falign-functions=32 -fno-stack-protector -fno-stack-clash-protection -fstack-check=no -fno-stack-check -fuse-linker-plugin -Wl,-O4 -Wl,--as-needed -Wl,-lpthread -Wl,-lgomp -Wl,-z,norelro -Wl,-z,now -Wl,--sort-common -s'
 * MAKEOPTS='-j12 -l12'
 * gcc () 11.0.0 20200531 (experimental)
 * g++ () 11.0.0 20200531 (experimental)
 * GNU ld (Gentoo 2.34 p4) 2.34.0
 * Linux ryzen.gnum.org 5.4.36 #1 SMP Thu Apr 30 04:38:28 UTC 2020 x86_64 AMD Ryzen 5 3600 6-Core Processor AuthenticAMD GNU/Linux
app-misc/mime-types: 4 minutes, 28 seconds average for 21 merges
2020-05-16T20:35:00 >>> app-misc/mime-types: 8 seconds
2020-05-20T00:55:56 >>> app-misc/mime-types: 2 minutes
2020-05-21T05:46:51 >>> app-misc/mime-types: 6 seconds
2020-05-22T01:53:05 >>> app-misc/mime-types: 6 minutes, 7 seconds
2020-05-22T02:39:24 >>> app-misc/mime-types: 2 minutes, 37 seconds
2020-05-22T03:04:12 >>> app-misc/mime-types: 6 minutes, 53 seconds
2020-05-22T12:23:48 >>> app-misc/mime-types: 6 minutes, 38 seconds
2020-05-23T03:25:30 >>> app-misc/mime-types: 6 minutes, 36 seconds
2020-05-24T23:19:40 >>> app-misc/mime-types: 9 minutes, 9 seconds
2020-05-25T03:01:19 >>> app-misc/mime-types: 1 minute, 26 seconds
2020-05-25T18:11:31 >>> app-misc/mime-types: 7 minutes, 18 seconds
2020-05-25T19:48:51 >>> app-misc/mime-types: 4 minutes, 31 seconds
2020-05-26T12:30:27 >>> app-misc/mime-types: 4 minutes, 10 seconds
2020-05-26T13:45:57 >>> app-misc/mime-types: 2 minutes, 38 seconds
2020-05-27T01:23:52 >>> app-misc/mime-types: 2 minutes, 1 second
2020-05-27T02:57:50 >>> app-misc/mime-types: 8 minutes, 12 seconds
2020-05-28T13:20:49 >>> app-misc/mime-types: 6 minutes, 23 seconds
2020-05-28T14:11:11 >>> app-misc/mime-types: 2 minutes, 43 seconds
2020-05-29T01:31:25 >>> app-misc/mime-types: 2 minutes, 11 seconds
2020-05-30T12:25:29 >>> app-misc/mime-types: 9 minutes, 1 second
2020-05-30T21:31:44 >>> app-misc/mime-types: 3 minutes, 8 seconds
]0;emerge 01:42:46 7|1172 mime-types 04:47 (root@ryzen.gnum.org)kemerge 01:42:46 7|1172 mime-types 04:47 (root@ryzen.gnum.org)\>>> Unpacking source...
>>> Unpacking mime-types-9.tar.bz2 to /tmp/portage/app-misc/mime-types-9/work
>>> Source unpacked in /tmp/portage/app-misc/mime-types-9/work
>>> Preparing source in /tmp/portage/app-misc/mime-types-9/work/mime-types-9 ...
>>> Source prepared.
>>> Configuring source in /tmp/portage/app-misc/mime-types-9/work/mime-types-9 ...
>>> Source configured.
>>> Compiling source in /tmp/portage/app-misc/mime-types-9/work/mime-types-9 ...
>>> Source compiled.
>>> Test phase [not enabled]: app-misc/mime-types-9

>>> Install app-misc/mime-types-9 into /tmp/portage/app-misc/mime-types-9/image/
>>> Completed installing app-misc/mime-types-9 into /tmp/portage/app-misc/mime-types-9/image/

 * Final size of build directory: 72 KiB
 * Final size of installed tree:  72 KiB

./
./etc/
./etc/mime.types
>>> Done.
 * checking 1 files for package collisions
>>> Merging app-misc/mime-types-9 to /
 * removing unneeded *.la files
--- /etc/
>>> /etc/mime.types
>>> Safely unmerging already-installed instance...
>>> Original instance of package unmerged safely.
>>> app-misc/mime-types-9 merged.
