No package files given... Grabbing a set.
--- replaced obj /usr/lib64/pkgconfig/libb2.pc
--- replaced dir /usr/lib64/pkgconfig
--- replaced obj /usr/lib64/libb2.so.1.0.4
--- replaced sym /usr/lib64/libb2.so.1
--- replaced sym /usr/lib64/libb2.so
--- replaced dir /usr/lib64
--- replaced obj /usr/include/blake2.h
--- replaced dir /usr/include
--- replaced dir /usr
>>> Regenerating /etc/ld.so.cache...
