No package files given... Grabbing a set.
--- replaced obj /usr/share/man/man1/ps2pk.1.bz2
--- replaced obj /usr/share/man/man1/pk2bm.1.bz2
--- replaced obj /usr/share/man/man1/pfb2pfa.1.bz2
--- replaced obj /usr/share/man/man1/mag.1.bz2
--- replaced dir /usr/share/man/man1
--- replaced dir /usr/share/man
--- replaced dir /usr/share
--- replaced obj /usr/bin/ps2pk
--- replaced obj /usr/bin/pk2bm
--- replaced obj /usr/bin/pfb2pfa
--- replaced obj /usr/bin/mag
--- replaced dir /usr/bin
--- replaced dir /usr
>>> Regenerating /etc/ld.so.cache...
