>>> Extracting info
[32;01m * [39;49;00mPackage:    app-arch/unrar-5.9.2
[32;01m * [39;49;00mRepository: gentoo
[32;01m * [39;49;00mUSE:        userland_GNU abi_x86_64 elibc_glibc kernel_linux amd64
[32;01m * [39;49;00mFEATURES:   ccache network-sandbox preserve-libs sandbox userpriv usersandbox
 [32;01m*[0m FEATURES='assume-digests binpkg-docompress binpkg-dostrip binpkg-logs binpkg-multi-instance buildpkg ccache cgroup compress-index config-protect-if-modified distlocks downgrade-backup fixlafiles ipc-sandbox merge-sync multilib-strict network-sandbox news nodoc parallel-fetch parallel-install pid-sandbox preserve-libs qa-unresolved-soname-deps sandbox sfperms strict strict-keepdir unknown-features-warn unmerge-backup unmerge-logs unmerge-orphans userfetch userpriv usersandbox usersync xattr'
 [32;01m*[0m CFLAGS='-march=native -O3 -fgraphite-identity -floop-nest-optimize -fdevirtualize-at-ltrans -fipa-pta -fno-semantic-interposition -flto=12 -fno-signed-zeros -fno-trapping-math -fassociative-math -freciprocal-math -fno-math-errno -ffinite-math-only -fno-rounding-math -fno-signaling-nans -fcx-limited-range -fexcess-precision=fast -fno-plt -fno-common -fuse-linker-plugin -pipe -g0 -fno-stack-protector -fno-stack-clash-protection -fstack-check=no -fno-stack-check -Wl,-O4,--hash-style=gnu,--sort-common,--as-needed,-z,relro,-z,now,-lgomp,-lpthread'
 [32;01m*[0m CXXFLAGS='-march=native -O3 -fgraphite-identity -floop-nest-optimize -fdevirtualize-at-ltrans -fipa-pta -fno-semantic-interposition -flto=12 -fno-signed-zeros -fno-trapping-math -fassociative-math -freciprocal-math -fno-math-errno -ffinite-math-only -fno-rounding-math -fno-signaling-nans -fcx-limited-range -fexcess-precision=fast -fno-plt -fno-common -fuse-linker-plugin -pipe -g0 -fno-stack-protector -fno-stack-clash-protection -fstack-check=no -fno-stack-check -Wl,-O4,--hash-style=gnu,--sort-common,--as-needed,-z,relro,-z,now,-lgomp,-lpthread'
 [32;01m*[0m FFLAGS='-march=native -O3 -fgraphite-identity -floop-nest-optimize -fdevirtualize-at-ltrans -fipa-pta -fno-semantic-interposition -flto=12 -fno-signed-zeros -fno-trapping-math -fassociative-math -freciprocal-math -fno-math-errno -ffinite-math-only -fno-rounding-math -fno-signaling-nans -fcx-limited-range -fexcess-precision=fast -fno-plt -fno-common -fuse-linker-plugin -pipe -g0 -fno-stack-protector -fno-stack-clash-protection -fstack-check=no -fno-stack-check -Wl,-O4,--hash-style=gnu,--sort-common,--as-needed,-z,relro,-z,now,-lgomp,-lpthread'
 [32;01m*[0m FCFLAGS='-march=native -O3 -fgraphite-identity -floop-nest-optimize -fdevirtualize-at-ltrans -fipa-pta -fno-semantic-interposition -flto=12 -fno-signed-zeros -fno-trapping-math -fassociative-math -freciprocal-math -fno-math-errno -ffinite-math-only -fno-rounding-math -fno-signaling-nans -fcx-limited-range -fexcess-precision=fast -fno-plt -fno-common -fuse-linker-plugin -pipe -g0 -fno-stack-protector -fno-stack-clash-protection -fstack-check=no -fno-stack-check -Wl,-O4,--hash-style=gnu,--sort-common,--as-needed,-z,relro,-z,now,-lgomp,-lpthread'
 [32;01m*[0m F77FLAGS='-march=native -O3 -fgraphite-identity -floop-nest-optimize -fdevirtualize-at-ltrans -fipa-pta -fno-semantic-interposition -flto=12 -fno-signed-zeros -fno-trapping-math -fassociative-math -freciprocal-math -fno-math-errno -ffinite-math-only -fno-rounding-math -fno-signaling-nans -fcx-limited-range -fexcess-precision=fast -fno-plt -fno-common -fuse-linker-plugin -pipe -g0 -fno-stack-protector -fno-stack-clash-protection -fstack-check=no -fno-stack-check -Wl,-O4,--hash-style=gnu,--sort-common,--as-needed,-z,relro,-z,now,-lgomp,-lpthread'
 [32;01m*[0m LDFLAGS='-Wl,-O4,--hash-style=gnu,--sort-common,--as-needed,-z,relro,-z,now,-lgomp,-lpthread -march=native -O3 -fgraphite-identity -floop-nest-optimize -fdevirtualize-at-ltrans -fipa-pta -fno-semantic-interposition -flto=12 -fno-signed-zeros -fno-trapping-math -fassociative-math -freciprocal-math -fno-math-errno -ffinite-math-only -fno-rounding-math -fno-signaling-nans -fcx-limited-range -fexcess-precision=fast -fno-plt -fno-common -fuse-linker-plugin -pipe -g0 -fno-stack-protector -fno-stack-clash-protection -fstack-check=no -fno-stack-check'
 [32;01m*[0m MAKEOPTS='-j12'
 [32;01m*[0m gcc (Gentoo 10.1.0 p1) 10.1.0
 [32;01m*[0m g++ (Gentoo 10.1.0 p1) 10.1.0
 [32;01m*[0m GNU ld (Gentoo 9999 p5) 2.34.50.20200520
 [32;01m*[0m Linux ryzen.gnum.org 5.4.36 #1 SMP Thu Apr 30 04:38:28 UTC 2020 x86_64 AMD Ryzen 5 3600 6-Core Processor AuthenticAMD GNU/Linux
[00;01mapp-arch/[00;00m[36;01munrar[00;00m: [32;01m10[00;00m seconds average for [32;01m4[00;00m merges
2020-05-20T00:56:47 >>> [00;01mapp-arch/[00;00m[36;01munrar[00;00m: [32;01m19[00;00m seconds
2020-05-20T02:40:18 >>> [00;01mapp-arch/[00;00m[36;01munrar[00;00m: [32;01m9[00;00m seconds
2020-05-20T02:42:06 >>> [00;01mapp-arch/[00;00m[36;01munrar[00;00m: [32;01m6[00;00m seconds
2020-05-20T02:44:36 >>> [00;01mapp-arch/[00;00m[36;01munrar[00;00m: [32;01m7[00;00m seconds
]0;emerge 05:54:09 87|1170 unrar 00:07 (root@ryzen.gnum.org)>>> Extracting app-arch/unrar-5.9.2
 [32;01m*[39;49;00m checking 69 files for package collisions
>>> Merging app-arch/unrar-5.9.2 to /
 [32;01m*[0m removing unneeded *.la files
--- /usr/
--- /usr/lib64/
>>> /usr/lib64/libunrar.so -> libunrar.so.5
>>> /usr/lib64/libunrar.so.5.9.2 -> libunrar.so.5
>>> /usr/lib64/libunrar.so.5
--- /usr/include/
--- /usr/include/libunrar5/
>>> /usr/include/libunrar5/strfn.hpp
>>> /usr/include/libunrar5/sha1.hpp
>>> /usr/include/libunrar5/crc.hpp
>>> /usr/include/libunrar5/crypt.hpp
>>> /usr/include/libunrar5/rar.hpp
>>> /usr/include/libunrar5/savepos.hpp
>>> /usr/include/libunrar5/dll.hpp
>>> /usr/include/libunrar5/filefn.hpp
>>> /usr/include/libunrar5/match.hpp
>>> /usr/include/libunrar5/headers.hpp
>>> /usr/include/libunrar5/find.hpp
>>> /usr/include/libunrar5/filcreat.hpp
>>> /usr/include/libunrar5/encname.hpp
>>> /usr/include/libunrar5/rijndael.hpp
>>> /usr/include/libunrar5/os.hpp
>>> /usr/include/libunrar5/smallfn.hpp
>>> /usr/include/libunrar5/version.hpp
>>> /usr/include/libunrar5/rarvm.hpp
>>> /usr/include/libunrar5/sha256.hpp
>>> /usr/include/libunrar5/recvol.hpp
>>> /usr/include/libunrar5/scantree.hpp
>>> /usr/include/libunrar5/system.hpp
>>> /usr/include/libunrar5/extinfo.hpp
>>> /usr/include/libunrar5/log.hpp
>>> /usr/include/libunrar5/rarlang.hpp
>>> /usr/include/libunrar5/ui.hpp
>>> /usr/include/libunrar5/global.hpp
>>> /usr/include/libunrar5/headers5.hpp
>>> /usr/include/libunrar5/rawint.hpp
>>> /usr/include/libunrar5/archive.hpp
>>> /usr/include/libunrar5/consio.hpp
>>> /usr/include/libunrar5/list.hpp
>>> /usr/include/libunrar5/strlist.hpp
>>> /usr/include/libunrar5/options.hpp
>>> /usr/include/libunrar5/unpack.hpp
>>> /usr/include/libunrar5/getbits.hpp
>>> /usr/include/libunrar5/unicode.hpp
>>> /usr/include/libunrar5/rs.hpp
>>> /usr/include/libunrar5/loclang.hpp
>>> /usr/include/libunrar5/volume.hpp
>>> /usr/include/libunrar5/extract.hpp
>>> /usr/include/libunrar5/blake2s.hpp
>>> /usr/include/libunrar5/raros.hpp
>>> /usr/include/libunrar5/rardefs.hpp
>>> /usr/include/libunrar5/isnt.hpp
>>> /usr/include/libunrar5/qopen.hpp
>>> /usr/include/libunrar5/file.hpp
>>> /usr/include/libunrar5/hash.hpp
>>> /usr/include/libunrar5/array.hpp
>>> /usr/include/libunrar5/filestr.hpp
>>> /usr/include/libunrar5/rs16.hpp
>>> /usr/include/libunrar5/suballoc.hpp
>>> /usr/include/libunrar5/coder.hpp
>>> /usr/include/libunrar5/errhnd.hpp
>>> /usr/include/libunrar5/compress.hpp
>>> /usr/include/libunrar5/resource.hpp
>>> /usr/include/libunrar5/pathfn.hpp
>>> /usr/include/libunrar5/rdwrfn.hpp
>>> /usr/include/libunrar5/timefn.hpp
>>> /usr/include/libunrar5/secpassword.hpp
>>> /usr/include/libunrar5/rawread.hpp
>>> /usr/include/libunrar5/threadpool.hpp
>>> /usr/include/libunrar5/model.hpp
>>> /usr/include/libunrar5/rartypes.hpp
>>> /usr/include/libunrar5/cmddata.hpp
>>> /usr/include/libunrar -> libunrar5
--- /usr/bin/
>>> /usr/bin/unrar
>>> Safely unmerging already-installed instance...
No package files given... Grabbing a set.
--- replaced sym /usr/lib64/libunrar.so.5.9.2
--- replaced obj /usr/lib64/libunrar.so.5
--- replaced sym /usr/lib64/libunrar.so
--- replaced dir /usr/lib64
--- replaced obj /usr/include/libunrar5/volume.hpp
--- replaced obj /usr/include/libunrar5/version.hpp
--- replaced obj /usr/include/libunrar5/unpack.hpp
--- replaced obj /usr/include/libunrar5/unicode.hpp
--- replaced obj /usr/include/libunrar5/ui.hpp
--- replaced obj /usr/include/libunrar5/timefn.hpp
--- replaced obj /usr/include/libunrar5/threadpool.hpp
--- replaced obj /usr/include/libunrar5/system.hpp
--- replaced obj /usr/include/libunrar5/suballoc.hpp
--- replaced obj /usr/include/libunrar5/strlist.hpp
--- replaced obj /usr/include/libunrar5/strfn.hpp
--- replaced obj /usr/include/libunrar5/smallfn.hpp
--- replaced obj /usr/include/libunrar5/sha256.hpp
--- replaced obj /usr/include/libunrar5/sha1.hpp
--- replaced obj /usr/include/libunrar5/secpassword.hpp
--- replaced obj /usr/include/libunrar5/scantree.hpp
--- replaced obj /usr/include/libunrar5/savepos.hpp
--- replaced obj /usr/include/libunrar5/rs16.hpp
--- replaced obj /usr/include/libunrar5/rs.hpp
--- replaced obj /usr/include/libunrar5/rijndael.hpp
--- replaced obj /usr/include/libunrar5/resource.hpp
--- replaced obj /usr/include/libunrar5/recvol.hpp
--- replaced obj /usr/include/libunrar5/rdwrfn.hpp
--- replaced obj /usr/include/libunrar5/rawread.hpp
--- replaced obj /usr/include/libunrar5/rawint.hpp
--- replaced obj /usr/include/libunrar5/rarvm.hpp
--- replaced obj /usr/include/libunrar5/rartypes.hpp
--- replaced obj /usr/include/libunrar5/raros.hpp
--- replaced obj /usr/include/libunrar5/rarlang.hpp
--- replaced obj /usr/include/libunrar5/rardefs.hpp
--- replaced obj /usr/include/libunrar5/rar.hpp
--- replaced obj /usr/include/libunrar5/qopen.hpp
--- replaced obj /usr/include/libunrar5/pathfn.hpp
--- replaced obj /usr/include/libunrar5/os.hpp
--- replaced obj /usr/include/libunrar5/options.hpp
--- replaced obj /usr/include/libunrar5/model.hpp
--- replaced obj /usr/include/libunrar5/match.hpp
--- replaced obj /usr/include/libunrar5/log.hpp
--- replaced obj /usr/include/libunrar5/loclang.hpp
--- replaced obj /usr/include/libunrar5/list.hpp
--- replaced obj /usr/include/libunrar5/isnt.hpp
--- replaced obj /usr/include/libunrar5/headers5.hpp
--- replaced obj /usr/include/libunrar5/headers.hpp
--- replaced obj /usr/include/libunrar5/hash.hpp
--- replaced obj /usr/include/libunrar5/global.hpp
--- replaced obj /usr/include/libunrar5/getbits.hpp
--- replaced obj /usr/include/libunrar5/find.hpp
--- replaced obj /usr/include/libunrar5/filestr.hpp
--- replaced obj /usr/include/libunrar5/filefn.hpp
--- replaced obj /usr/include/libunrar5/file.hpp
--- replaced obj /usr/include/libunrar5/filcreat.hpp
--- replaced obj /usr/include/libunrar5/extract.hpp
--- replaced obj /usr/include/libunrar5/extinfo.hpp
--- replaced obj /usr/include/libunrar5/errhnd.hpp
--- replaced obj /usr/include/libunrar5/encname.hpp
--- replaced obj /usr/include/libunrar5/dll.hpp
--- replaced obj /usr/include/libunrar5/crypt.hpp
--- replaced obj /usr/include/libunrar5/crc.hpp
--- replaced obj /usr/include/libunrar5/consio.hpp
--- replaced obj /usr/include/libunrar5/compress.hpp
--- replaced obj /usr/include/libunrar5/coder.hpp
--- replaced obj /usr/include/libunrar5/cmddata.hpp
--- replaced obj /usr/include/libunrar5/blake2s.hpp
--- replaced obj /usr/include/libunrar5/array.hpp
--- replaced obj /usr/include/libunrar5/archive.hpp
--- replaced dir /usr/include/libunrar5
--- replaced sym /usr/include/libunrar
--- replaced dir /usr/include
--- replaced obj /usr/bin/unrar
--- replaced dir /usr/bin
--- replaced dir /usr
>>> Regenerating /etc/ld.so.cache...
>>> Original instance of package unmerged safely.
>>> app-arch/unrar-5.9.2 merged.
>>> Regenerating /etc/ld.so.cache...
