[32;01m * [39;49;00mPackage:    app-portage/layman-2.4.3
[32;01m * [39;49;00mRepository: gentoo
[32;01m * [39;49;00mMaintainer: layman@gentoo.org
[32;01m * [39;49;00mUSE:        abi_x86_64 amd64 elibc_glibc git kernel_linux python_targets_python3_6 python_targets_python3_7 python_targets_python3_8 sqlite userland_GNU
[32;01m * [39;49;00mFEATURES:   ccache network-sandbox preserve-libs userpriv
