[32;01m * [39;49;00mPackage:    app-text/tesseract-4.1.1
[32;01m * [39;49;00mRepository: gentoo
[32;01m * [39;49;00mMaintainer: voyageur@gentoo.org chutzpah@gentoo.org
[32;01m * [39;49;00mUSE:        abi_x86_64 amd64 elibc_glibc jpeg kernel_linux opencl openmp png tiff userland_GNU
[32;01m * [39;49;00mFEATURES:   ccache network-sandbox preserve-libs sandbox userpriv usersandbox
