 * Package:    app-arch/unzip-6.0_p25-r1
 * Repository: gentoo
 * Maintainer: base-system@gentoo.org
 * USE:        abi_x86_64 amd64 bzip2 elibc_glibc kernel_linux natspec unicode userland_GNU
 * FEATURES:   network-sandbox preserve-libs sandbox userpriv usersandbox
 * FEATURES='assume-digests binpkg-docompress binpkg-dostrip binpkg-logs binpkg-multi-instance buildpkg cgroup compress-index config-protect-if-modified distlocks downgrade-backup fixlafiles ipc-sandbox merge-sync multilib-strict network-sandbox news nodoc parallel-fetch parallel-install pid-sandbox preserve-libs qa-unresolved-soname-deps sandbox sfperms strict strict-keepdir unknown-features-warn unmerge-backup unmerge-logs unmerge-orphans userfetch userpriv usersandbox usersync xattr'
 * CFLAGS='-march=native -O3 -fgraphite-identity -floop-nest-optimize -fdevirtualize-at-ltrans -fipa-pta -fno-semantic-interposition -flto=12 -fno-plt -fno-signed-zeros -fno-trapping-math -fassociative-math -freciprocal-math -fno-math-errno -ffinite-math-only -fno-rounding-math -fno-signaling-nans -fcx-limited-range -fexcess-precision=fast -fuse-linker-plugin -pipe -g0 -falign-functions=32 -Wl,-O1 -Wl,--as-needed -Wl,-O4,--hash-style=gnu,--sort-common,--as-needed,-z,relro,-z,now,-lgomp,-lpthread'
 * CXXFLAGS='-march=native -O3 -fgraphite-identity -floop-nest-optimize -fdevirtualize-at-ltrans -fipa-pta -fno-semantic-interposition -flto=12 -fno-plt -fno-signed-zeros -fno-trapping-math -fassociative-math -freciprocal-math -fno-math-errno -ffinite-math-only -fno-rounding-math -fno-signaling-nans -fcx-limited-range -fexcess-precision=fast -fuse-linker-plugin -pipe -g0 -falign-functions=32 -Wl,-O1 -Wl,--as-needed -Wl,-O4,--hash-style=gnu,--sort-common,--as-needed,-z,relro,-z,now,-lgomp,-lpthread'
 * FFLAGS='-march=native -O3 -fgraphite-identity -floop-nest-optimize -fdevirtualize-at-ltrans -fipa-pta -fno-semantic-interposition -flto=12 -fno-plt -fno-signed-zeros -fno-trapping-math -fassociative-math -freciprocal-math -fno-math-errno -ffinite-math-only -fno-rounding-math -fno-signaling-nans -fcx-limited-range -fexcess-precision=fast -fuse-linker-plugin -pipe -g0 -falign-functions=32 -Wl,-O1 -Wl,--as-needed -Wl,-O4,--hash-style=gnu,--sort-common,--as-needed,-z,relro,-z,now,-lgomp,-lpthread'
 * FCFLAGS='-march=native -O3 -fgraphite-identity -floop-nest-optimize -fdevirtualize-at-ltrans -fipa-pta -fno-semantic-interposition -flto=12 -fno-plt -fno-signed-zeros -fno-trapping-math -fassociative-math -freciprocal-math -fno-math-errno -ffinite-math-only -fno-rounding-math -fno-signaling-nans -fcx-limited-range -fexcess-precision=fast -fuse-linker-plugin -pipe -g0 -falign-functions=32 -Wl,-O1 -Wl,--as-needed -Wl,-O4,--hash-style=gnu,--sort-common,--as-needed,-z,relro,-z,now,-lgomp,-lpthread'
 * F77FLAGS='-march=native -O3 -fgraphite-identity -floop-nest-optimize -fdevirtualize-at-ltrans -fipa-pta -fno-semantic-interposition -flto=12 -fno-plt -fno-signed-zeros -fno-trapping-math -fassociative-math -freciprocal-math -fno-math-errno -ffinite-math-only -fno-rounding-math -fno-signaling-nans -fcx-limited-range -fexcess-precision=fast -fuse-linker-plugin -pipe -g0 -falign-functions=32 -Wl,-O1 -Wl,--as-needed -Wl,-O4,--hash-style=gnu,--sort-common,--as-needed,-z,relro,-z,now,-lgomp,-lpthread'
 * LDFLAGS='-Wl,-O1 -Wl,--as-needed -Wl,-O4,--hash-style=gnu,--sort-common,--as-needed,-z,relro,-z,now,-lgomp,-lpthread -march=native -O3 -fgraphite-identity -floop-nest-optimize -fdevirtualize-at-ltrans -fipa-pta -fno-semantic-interposition -flto=12 -fno-plt -fno-signed-zeros -fno-trapping-math -fassociative-math -freciprocal-math -fno-math-errno -ffinite-math-only -fno-rounding-math -fno-signaling-nans -fcx-limited-range -fexcess-precision=fast -fuse-linker-plugin -pipe -g0 -falign-functions=32'
 * MAKEOPTS='-j12 -l12'
 * gcc () 11.0.0 20200526 (experimental)
 * g++ () 11.0.0 20200526 (experimental)
 * GNU ld (Gentoo 2.34 p4) 2.34.0
 * Linux ryzen.gnum.org 5.4.36 #1 SMP Thu Apr 30 04:38:28 UTC 2020 x86_64 AMD Ryzen 5 3600 6-Core Processor AuthenticAMD GNU/Linux
app-arch/unzip: 8 seconds average for 7 merges
2020-05-15T04:16:41 >>> app-arch/unzip: 8 seconds
2020-05-20T01:34:58 >>> app-arch/unzip: 5 seconds
2020-05-20T02:42:42 >>> app-arch/unzip: 7 seconds
2020-05-20T02:45:01 >>> app-arch/unzip: 9 seconds
2020-05-25T19:16:20 >>> app-arch/unzip: 12 seconds
2020-05-25T20:34:02 >>> app-arch/unzip: 12 seconds
2020-05-27T02:16:31 >>> app-arch/unzip: 6 seconds
]0;emerge 04:39:53 439|980 unzip 00:10 (root@ryzen.gnum.org)kemerge 04:39:53 439|980 unzip 00:10 (root@ryzen.gnum.org)\>>> Unpacking source...
>>> Unpacking unzip60.tar.gz to /tmp/portage/app-arch/unzip-6.0_p25-r1/work
>>> Unpacking unzip_6.0-25.debian.tar.xz to /tmp/portage/app-arch/unzip-6.0_p25-r1/work
>>> Source unpacked in /tmp/portage/app-arch/unzip-6.0_p25-r1/work
>>> Preparing source in /tmp/portage/app-arch/unzip-6.0_p25-r1/work/unzip60 ...
 * Applying 01-manpages-in-section-1-not-in-section-1l.patch ...
 [ ok ]
 * Applying 03-include-unistd-for-kfreebsd.patch ...
 [ ok ]
 * Applying 04-handle-pkware-verification-bit.patch ...
 [ ok ]
 * Applying 05-fix-uid-gid-handling.patch ...
 [ ok ]
 * Applying 06-initialize-the-symlink-flag.patch ...
 [ ok ]
 * Applying 07-increase-size-of-cfactorstr.patch ...
 [ ok ]
 * Applying 08-allow-greater-hostver-values.patch ...
 [ ok ]
 * Applying 09-cve-2014-8139-crc-overflow.patch ...
 [ ok ]
 * Applying 10-cve-2014-8140-test-compr-eb.patch ...
 [ ok ]
 * Applying 11-cve-2014-8141-getzip64data.patch ...
 [ ok ]
 * Applying 12-cve-2014-9636-test-compr-eb.patch ...
 [ ok ]
 * Applying 13-remove-build-date.patch ...
 [ ok ]
 * Applying 14-cve-2015-7696.patch ...
 [ ok ]
 * Applying 15-cve-2015-7697.patch ...
 [ ok ]
 * Applying 16-fix-integer-underflow-csiz-decrypted.patch ...
 [ ok ]
 * Applying 17-restore-unix-timestamps-accurately.patch ...
 [ ok ]
 * Applying 18-cve-2014-9913-unzip-buffer-overflow.patch ...
 [ ok ]
 * Applying 19-cve-2016-9844-zipinfo-buffer-overflow.patch ...
 [ ok ]
 * Applying 20-cve-2018-1000035-unzip-buffer-overflow.patch ...
 [ ok ]
 * Applying 21-fix-warning-messages-on-big-files.patch ...
 [ ok ]
 * Applying 22-cve-2019-13232-fix-bug-in-undefer-input.patch ...
 [ ok ]
 * Applying 23-cve-2019-13232-zip-bomb-with-overlapped-entries.patch ...
 [ ok ]
 * Applying 24-cve-2019-13232-do-not-raise-alert-for-misplaced-central-directory.patch ...
 [ ok ]
 * Applying unzip-6.0-no-exec-stack.patch ...
 [ ok ]
 * Applying unzip-6.0-format-security.patch ...
 [ ok ]
 * Applying unzip-6.0-fix-false-overlap-detection-on-32bit-systems.patch ...
 [ ok ]
 * Applying unzip-6.0-natspec.patch ...
 [ ok ]
>>> Source prepared.
>>> Configuring source in /tmp/portage/app-arch/unzip-6.0_p25-r1/work/unzip60 ...
>>> Source configured.
>>> Compiling source in /tmp/portage/app-arch/unzip-6.0_p25-r1/work/unzip60 ...
make -j12 -l12 -f unix/Makefile linux_noasm 
make unzips CC="x86_64-pc-linux-gnu-gcc" LD="x86_64-pc-linux-gnu-gcc" CFLAGS="-march=native -O3 -fgraphite-identity -floop-nest-optimize -fdevirtualize-at-ltrans -fipa-pta -fno-semantic-interposition -flto=12 -fno-plt -fno-signed-zeros -fno-trapping-math -fassociative-math -freciprocal-math -fno-math-errno -ffinite-math-only -fno-rounding-math -fno-signaling-nans -fcx-limited-range -fexcess-precision=fast -fuse-linker-plugin -pipe -g0 -falign-functions=32 -Wl,-O1 -Wl,--as-needed -Wl,-O4,--hash-style=gnu,--sort-common,--as-needed,-z,relro,-z,now,-lgomp,-lpthread  -DNO_LCHMOD -DUSE_BZIP2 -DUNICODE_SUPPORT -DUNICODE_WCHAR -DUTF8_MAYBE_NATIVE -DUSE_ICONV_MAPPING -DLARGE_FILE_SUPPORT -Wall"
make[1]: Entering directory '/tmp/portage/app-arch/unzip-6.0_p25-r1/work/unzip60'
x86_64-pc-linux-gnu-gcc -c -march=native -O3 -fgraphite-identity -floop-nest-optimize -fdevirtualize-at-ltrans -fipa-pta -fno-semantic-interposition -flto=12 -fno-plt -fno-signed-zeros -fno-trapping-math -fassociative-math -freciprocal-math -fno-math-errno -ffinite-math-only -fno-rounding-math -fno-signaling-nans -fcx-limited-range -fexcess-precision=fast -fuse-linker-plugin -pipe -g0 -falign-functions=32 -Wl,-O1 -Wl,--as-needed -Wl,-O4,--hash-style=gnu,--sort-common,--as-needed,-z,relro,-z,now,-lgomp,-lpthread  -DNO_LCHMOD -DUSE_BZIP2 -DUNICODE_SUPPORT -DUNICODE_WCHAR -DUTF8_MAYBE_NATIVE -DUSE_ICONV_MAPPING -DLARGE_FILE_SUPPORT -Wall -I. -Ibzip2 -DUNIX  -DNO_SETLOCALE  unzip.c
x86_64-pc-linux-gnu-gcc -c -march=native -O3 -fgraphite-identity -floop-nest-optimize -fdevirtualize-at-ltrans -fipa-pta -fno-semantic-interposition -flto=12 -fno-plt -fno-signed-zeros -fno-trapping-math -fassociative-math -freciprocal-math -fno-math-errno -ffinite-math-only -fno-rounding-math -fno-signaling-nans -fcx-limited-range -fexcess-precision=fast -fuse-linker-plugin -pipe -g0 -falign-functions=32 -Wl,-O1 -Wl,--as-needed -Wl,-O4,--hash-style=gnu,--sort-common,--as-needed,-z,relro,-z,now,-lgomp,-lpthread  -DNO_LCHMOD -DUSE_BZIP2 -DUNICODE_SUPPORT -DUNICODE_WCHAR -DUTF8_MAYBE_NATIVE -DUSE_ICONV_MAPPING -DLARGE_FILE_SUPPORT -Wall -I. -Ibzip2 -DUNIX  -DNO_SETLOCALE  crc32.c
x86_64-pc-linux-gnu-gcc -c -march=native -O3 -fgraphite-identity -floop-nest-optimize -fdevirtualize-at-ltrans -fipa-pta -fno-semantic-interposition -flto=12 -fno-plt -fno-signed-zeros -fno-trapping-math -fassociative-math -freciprocal-math -fno-math-errno -ffinite-math-only -fno-rounding-math -fno-signaling-nans -fcx-limited-range -fexcess-precision=fast -fuse-linker-plugin -pipe -g0 -falign-functions=32 -Wl,-O1 -Wl,--as-needed -Wl,-O4,--hash-style=gnu,--sort-common,--as-needed,-z,relro,-z,now,-lgomp,-lpthread  -DNO_LCHMOD -DUSE_BZIP2 -DUNICODE_SUPPORT -DUNICODE_WCHAR -DUTF8_MAYBE_NATIVE -DUSE_ICONV_MAPPING -DLARGE_FILE_SUPPORT -Wall -I. -Ibzip2 -DUNIX  -DNO_SETLOCALE  crypt.c
x86_64-pc-linux-gnu-gcc -c -march=native -O3 -fgraphite-identity -floop-nest-optimize -fdevirtualize-at-ltrans -fipa-pta -fno-semantic-interposition -flto=12 -fno-plt -fno-signed-zeros -fno-trapping-math -fassociative-math -freciprocal-math -fno-math-errno -ffinite-math-only -fno-rounding-math -fno-signaling-nans -fcx-limited-range -fexcess-precision=fast -fuse-linker-plugin -pipe -g0 -falign-functions=32 -Wl,-O1 -Wl,--as-needed -Wl,-O4,--hash-style=gnu,--sort-common,--as-needed,-z,relro,-z,now,-lgomp,-lpthread  -DNO_LCHMOD -DUSE_BZIP2 -DUNICODE_SUPPORT -DUNICODE_WCHAR -DUTF8_MAYBE_NATIVE -DUSE_ICONV_MAPPING -DLARGE_FILE_SUPPORT -Wall -I. -Ibzip2 -DUNIX  -DNO_SETLOCALE  envargs.c
x86_64-pc-linux-gnu-gcc -c -march=native -O3 -fgraphite-identity -floop-nest-optimize -fdevirtualize-at-ltrans -fipa-pta -fno-semantic-interposition -flto=12 -fno-plt -fno-signed-zeros -fno-trapping-math -fassociative-math -freciprocal-math -fno-math-errno -ffinite-math-only -fno-rounding-math -fno-signaling-nans -fcx-limited-range -fexcess-precision=fast -fuse-linker-plugin -pipe -g0 -falign-functions=32 -Wl,-O1 -Wl,--as-needed -Wl,-O4,--hash-style=gnu,--sort-common,--as-needed,-z,relro,-z,now,-lgomp,-lpthread  -DNO_LCHMOD -DUSE_BZIP2 -DUNICODE_SUPPORT -DUNICODE_WCHAR -DUTF8_MAYBE_NATIVE -DUSE_ICONV_MAPPING -DLARGE_FILE_SUPPORT -Wall -I. -Ibzip2 -DUNIX  -DNO_SETLOCALE  explode.c
x86_64-pc-linux-gnu-gcc -c -march=native -O3 -fgraphite-identity -floop-nest-optimize -fdevirtualize-at-ltrans -fipa-pta -fno-semantic-interposition -flto=12 -fno-plt -fno-signed-zeros -fno-trapping-math -fassociative-math -freciprocal-math -fno-math-errno -ffinite-math-only -fno-rounding-math -fno-signaling-nans -fcx-limited-range -fexcess-precision=fast -fuse-linker-plugin -pipe -g0 -falign-functions=32 -Wl,-O1 -Wl,--as-needed -Wl,-O4,--hash-style=gnu,--sort-common,--as-needed,-z,relro,-z,now,-lgomp,-lpthread  -DNO_LCHMOD -DUSE_BZIP2 -DUNICODE_SUPPORT -DUNICODE_WCHAR -DUTF8_MAYBE_NATIVE -DUSE_ICONV_MAPPING -DLARGE_FILE_SUPPORT -Wall -I. -Ibzip2 -DUNIX  -DNO_SETLOCALE  extract.c
x86_64-pc-linux-gnu-gcc -c -march=native -O3 -fgraphite-identity -floop-nest-optimize -fdevirtualize-at-ltrans -fipa-pta -fno-semantic-interposition -flto=12 -fno-plt -fno-signed-zeros -fno-trapping-math -fassociative-math -freciprocal-math -fno-math-errno -ffinite-math-only -fno-rounding-math -fno-signaling-nans -fcx-limited-range -fexcess-precision=fast -fuse-linker-plugin -pipe -g0 -falign-functions=32 -Wl,-O1 -Wl,--as-needed -Wl,-O4,--hash-style=gnu,--sort-common,--as-needed,-z,relro,-z,now,-lgomp,-lpthread  -DNO_LCHMOD -DUSE_BZIP2 -DUNICODE_SUPPORT -DUNICODE_WCHAR -DUTF8_MAYBE_NATIVE -DUSE_ICONV_MAPPING -DLARGE_FILE_SUPPORT -Wall -I. -Ibzip2 -DUNIX  -DNO_SETLOCALE  fileio.c
x86_64-pc-linux-gnu-gcc -c -march=native -O3 -fgraphite-identity -floop-nest-optimize -fdevirtualize-at-ltrans -fipa-pta -fno-semantic-interposition -flto=12 -fno-plt -fno-signed-zeros -fno-trapping-math -fassociative-math -freciprocal-math -fno-math-errno -ffinite-math-only -fno-rounding-math -fno-signaling-nans -fcx-limited-range -fexcess-precision=fast -fuse-linker-plugin -pipe -g0 -falign-functions=32 -Wl,-O1 -Wl,--as-needed -Wl,-O4,--hash-style=gnu,--sort-common,--as-needed,-z,relro,-z,now,-lgomp,-lpthread  -DNO_LCHMOD -DUSE_BZIP2 -DUNICODE_SUPPORT -DUNICODE_WCHAR -DUTF8_MAYBE_NATIVE -DUSE_ICONV_MAPPING -DLARGE_FILE_SUPPORT -Wall -I. -Ibzip2 -DUNIX  -DNO_SETLOCALE  globals.c
x86_64-pc-linux-gnu-gcc -c -march=native -O3 -fgraphite-identity -floop-nest-optimize -fdevirtualize-at-ltrans -fipa-pta -fno-semantic-interposition -flto=12 -fno-plt -fno-signed-zeros -fno-trapping-math -fassociative-math -freciprocal-math -fno-math-errno -ffinite-math-only -fno-rounding-math -fno-signaling-nans -fcx-limited-range -fexcess-precision=fast -fuse-linker-plugin -pipe -g0 -falign-functions=32 -Wl,-O1 -Wl,--as-needed -Wl,-O4,--hash-style=gnu,--sort-common,--as-needed,-z,relro,-z,now,-lgomp,-lpthread  -DNO_LCHMOD -DUSE_BZIP2 -DUNICODE_SUPPORT -DUNICODE_WCHAR -DUTF8_MAYBE_NATIVE -DUSE_ICONV_MAPPING -DLARGE_FILE_SUPPORT -Wall -I. -Ibzip2 -DUNIX  -DNO_SETLOCALE  inflate.c
x86_64-pc-linux-gnu-gcc -c -march=native -O3 -fgraphite-identity -floop-nest-optimize -fdevirtualize-at-ltrans -fipa-pta -fno-semantic-interposition -flto=12 -fno-plt -fno-signed-zeros -fno-trapping-math -fassociative-math -freciprocal-math -fno-math-errno -ffinite-math-only -fno-rounding-math -fno-signaling-nans -fcx-limited-range -fexcess-precision=fast -fuse-linker-plugin -pipe -g0 -falign-functions=32 -Wl,-O1 -Wl,--as-needed -Wl,-O4,--hash-style=gnu,--sort-common,--as-needed,-z,relro,-z,now,-lgomp,-lpthread  -DNO_LCHMOD -DUSE_BZIP2 -DUNICODE_SUPPORT -DUNICODE_WCHAR -DUTF8_MAYBE_NATIVE -DUSE_ICONV_MAPPING -DLARGE_FILE_SUPPORT -Wall -I. -Ibzip2 -DUNIX  -DNO_SETLOCALE  list.c
x86_64-pc-linux-gnu-gcc -c -march=native -O3 -fgraphite-identity -floop-nest-optimize -fdevirtualize-at-ltrans -fipa-pta -fno-semantic-interposition -flto=12 -fno-plt -fno-signed-zeros -fno-trapping-math -fassociative-math -freciprocal-math -fno-math-errno -ffinite-math-only -fno-rounding-math -fno-signaling-nans -fcx-limited-range -fexcess-precision=fast -fuse-linker-plugin -pipe -g0 -falign-functions=32 -Wl,-O1 -Wl,--as-needed -Wl,-O4,--hash-style=gnu,--sort-common,--as-needed,-z,relro,-z,now,-lgomp,-lpthread  -DNO_LCHMOD -DUSE_BZIP2 -DUNICODE_SUPPORT -DUNICODE_WCHAR -DUTF8_MAYBE_NATIVE -DUSE_ICONV_MAPPING -DLARGE_FILE_SUPPORT -Wall -I. -Ibzip2 -DUNIX  -DNO_SETLOCALE  match.c
x86_64-pc-linux-gnu-gcc -c -march=native -O3 -fgraphite-identity -floop-nest-optimize -fdevirtualize-at-ltrans -fipa-pta -fno-semantic-interposition -flto=12 -fno-plt -fno-signed-zeros -fno-trapping-math -fassociative-math -freciprocal-math -fno-math-errno -ffinite-math-only -fno-rounding-math -fno-signaling-nans -fcx-limited-range -fexcess-precision=fast -fuse-linker-plugin -pipe -g0 -falign-functions=32 -Wl,-O1 -Wl,--as-needed -Wl,-O4,--hash-style=gnu,--sort-common,--as-needed,-z,relro,-z,now,-lgomp,-lpthread  -DNO_LCHMOD -DUSE_BZIP2 -DUNICODE_SUPPORT -DUNICODE_WCHAR -DUTF8_MAYBE_NATIVE -DUSE_ICONV_MAPPING -DLARGE_FILE_SUPPORT -Wall -I. -Ibzip2 -DUNIX  -DNO_SETLOCALE  process.c
process.c: In function 'wide_to_local_string':
process.c:2504:7: warning: variable 'state_dependent' set but not used [-Wunused-but-set-variable]
 2504 |   int state_dependent;
      |       ^~~~~~~~~~~~~~~
x86_64-pc-linux-gnu-gcc -c -march=native -O3 -fgraphite-identity -floop-nest-optimize -fdevirtualize-at-ltrans -fipa-pta -fno-semantic-interposition -flto=12 -fno-plt -fno-signed-zeros -fno-trapping-math -fassociative-math -freciprocal-math -fno-math-errno -ffinite-math-only -fno-rounding-math -fno-signaling-nans -fcx-limited-range -fexcess-precision=fast -fuse-linker-plugin -pipe -g0 -falign-functions=32 -Wl,-O1 -Wl,--as-needed -Wl,-O4,--hash-style=gnu,--sort-common,--as-needed,-z,relro,-z,now,-lgomp,-lpthread  -DNO_LCHMOD -DUSE_BZIP2 -DUNICODE_SUPPORT -DUNICODE_WCHAR -DUTF8_MAYBE_NATIVE -DUSE_ICONV_MAPPING -DLARGE_FILE_SUPPORT -Wall -I. -Ibzip2 -DUNIX  -DNO_SETLOCALE  ttyio.c
x86_64-pc-linux-gnu-gcc -c -march=native -O3 -fgraphite-identity -floop-nest-optimize -fdevirtualize-at-ltrans -fipa-pta -fno-semantic-interposition -flto=12 -fno-plt -fno-signed-zeros -fno-trapping-math -fassociative-math -freciprocal-math -fno-math-errno -ffinite-math-only -fno-rounding-math -fno-signaling-nans -fcx-limited-range -fexcess-precision=fast -fuse-linker-plugin -pipe -g0 -falign-functions=32 -Wl,-O1 -Wl,--as-needed -Wl,-O4,--hash-style=gnu,--sort-common,--as-needed,-z,relro,-z,now,-lgomp,-lpthread  -DNO_LCHMOD -DUSE_BZIP2 -DUNICODE_SUPPORT -DUNICODE_WCHAR -DUTF8_MAYBE_NATIVE -DUSE_ICONV_MAPPING -DLARGE_FILE_SUPPORT -Wall -I. -Ibzip2 -DUNIX  -DNO_SETLOCALE  ubz2err.c
x86_64-pc-linux-gnu-gcc -c -march=native -O3 -fgraphite-identity -floop-nest-optimize -fdevirtualize-at-ltrans -fipa-pta -fno-semantic-interposition -flto=12 -fno-plt -fno-signed-zeros -fno-trapping-math -fassociative-math -freciprocal-math -fno-math-errno -ffinite-math-only -fno-rounding-math -fno-signaling-nans -fcx-limited-range -fexcess-precision=fast -fuse-linker-plugin -pipe -g0 -falign-functions=32 -Wl,-O1 -Wl,--as-needed -Wl,-O4,--hash-style=gnu,--sort-common,--as-needed,-z,relro,-z,now,-lgomp,-lpthread  -DNO_LCHMOD -DUSE_BZIP2 -DUNICODE_SUPPORT -DUNICODE_WCHAR -DUTF8_MAYBE_NATIVE -DUSE_ICONV_MAPPING -DLARGE_FILE_SUPPORT -Wall -I. -Ibzip2 -DUNIX  -DNO_SETLOCALE  unreduce.c
x86_64-pc-linux-gnu-gcc -c -march=native -O3 -fgraphite-identity -floop-nest-optimize -fdevirtualize-at-ltrans -fipa-pta -fno-semantic-interposition -flto=12 -fno-plt -fno-signed-zeros -fno-trapping-math -fassociative-math -freciprocal-math -fno-math-errno -ffinite-math-only -fno-rounding-math -fno-signaling-nans -fcx-limited-range -fexcess-precision=fast -fuse-linker-plugin -pipe -g0 -falign-functions=32 -Wl,-O1 -Wl,--as-needed -Wl,-O4,--hash-style=gnu,--sort-common,--as-needed,-z,relro,-z,now,-lgomp,-lpthread  -DNO_LCHMOD -DUSE_BZIP2 -DUNICODE_SUPPORT -DUNICODE_WCHAR -DUTF8_MAYBE_NATIVE -DUSE_ICONV_MAPPING -DLARGE_FILE_SUPPORT -Wall -I. -Ibzip2 -DUNIX  -DNO_SETLOCALE  unshrink.c
extract.c: In function 'UZbunzip2':
extract.c:2940:9: warning: variable 'repeated_buf_err' set but not used [-Wunused-but-set-variable]
 2940 |     int repeated_buf_err;
      |         ^~~~~~~~~~~~~~~~
x86_64-pc-linux-gnu-gcc -c -march=native -O3 -fgraphite-identity -floop-nest-optimize -fdevirtualize-at-ltrans -fipa-pta -fno-semantic-interposition -flto=12 -fno-plt -fno-signed-zeros -fno-trapping-math -fassociative-math -freciprocal-math -fno-math-errno -ffinite-math-only -fno-rounding-math -fno-signaling-nans -fcx-limited-range -fexcess-precision=fast -fuse-linker-plugin -pipe -g0 -falign-functions=32 -Wl,-O1 -Wl,--as-needed -Wl,-O4,--hash-style=gnu,--sort-common,--as-needed,-z,relro,-z,now,-lgomp,-lpthread  -DNO_LCHMOD -DUSE_BZIP2 -DUNICODE_SUPPORT -DUNICODE_WCHAR -DUTF8_MAYBE_NATIVE -DUSE_ICONV_MAPPING -DLARGE_FILE_SUPPORT -Wall -I. -Ibzip2 -DUNIX  -DNO_SETLOCALE  zipinfo.c
x86_64-pc-linux-gnu-gcc -c -march=native -O3 -fgraphite-identity -floop-nest-optimize -fdevirtualize-at-ltrans -fipa-pta -fno-semantic-interposition -flto=12 -fno-plt -fno-signed-zeros -fno-trapping-math -fassociative-math -freciprocal-math -fno-math-errno -ffinite-math-only -fno-rounding-math -fno-signaling-nans -fcx-limited-range -fexcess-precision=fast -fuse-linker-plugin -pipe -g0 -falign-functions=32 -Wl,-O1 -Wl,--as-needed -Wl,-O4,--hash-style=gnu,--sort-common,--as-needed,-z,relro,-z,now,-lgomp,-lpthread  -DNO_LCHMOD -DUSE_BZIP2 -DUNICODE_SUPPORT -DUNICODE_WCHAR -DUTF8_MAYBE_NATIVE -DUSE_ICONV_MAPPING -DLARGE_FILE_SUPPORT -Wall -I. -Ibzip2 -DUNIX  -DNO_SETLOCALE  unix/unix.c
x86_64-pc-linux-gnu-gcc -c -march=native -O3 -fgraphite-identity -floop-nest-optimize -fdevirtualize-at-ltrans -fipa-pta -fno-semantic-interposition -flto=12 -fno-plt -fno-signed-zeros -fno-trapping-math -fassociative-math -freciprocal-math -fno-math-errno -ffinite-math-only -fno-rounding-math -fno-signaling-nans -fcx-limited-range -fexcess-precision=fast -fuse-linker-plugin -pipe -g0 -falign-functions=32 -Wl,-O1 -Wl,--as-needed -Wl,-O4,--hash-style=gnu,--sort-common,--as-needed,-z,relro,-z,now,-lgomp,-lpthread  -DNO_LCHMOD -DUSE_BZIP2 -DUNICODE_SUPPORT -DUNICODE_WCHAR -DUTF8_MAYBE_NATIVE -DUSE_ICONV_MAPPING -DLARGE_FILE_SUPPORT -Wall -I. -Ibzip2 -DUNIX  -DNO_SETLOCALE  funzip.c
x86_64-pc-linux-gnu-gcc -c -march=native -O3 -fgraphite-identity -floop-nest-optimize -fdevirtualize-at-ltrans -fipa-pta -fno-semantic-interposition -flto=12 -fno-plt -fno-signed-zeros -fno-trapping-math -fassociative-math -freciprocal-math -fno-math-errno -ffinite-math-only -fno-rounding-math -fno-signaling-nans -fcx-limited-range -fexcess-precision=fast -fuse-linker-plugin -pipe -g0 -falign-functions=32 -Wl,-O1 -Wl,--as-needed -Wl,-O4,--hash-style=gnu,--sort-common,--as-needed,-z,relro,-z,now,-lgomp,-lpthread  -DNO_LCHMOD -DUSE_BZIP2 -DUNICODE_SUPPORT -DUNICODE_WCHAR -DUTF8_MAYBE_NATIVE -DUSE_ICONV_MAPPING -DLARGE_FILE_SUPPORT -Wall -I. -Ibzip2 -DUNIX  -DNO_SETLOCALE  -DFUNZIP -o cryptf.o crypt.c
x86_64-pc-linux-gnu-gcc -c -march=native -O3 -fgraphite-identity -floop-nest-optimize -fdevirtualize-at-ltrans -fipa-pta -fno-semantic-interposition -flto=12 -fno-plt -fno-signed-zeros -fno-trapping-math -fassociative-math -freciprocal-math -fno-math-errno -ffinite-math-only -fno-rounding-math -fno-signaling-nans -fcx-limited-range -fexcess-precision=fast -fuse-linker-plugin -pipe -g0 -falign-functions=32 -Wl,-O1 -Wl,--as-needed -Wl,-O4,--hash-style=gnu,--sort-common,--as-needed,-z,relro,-z,now,-lgomp,-lpthread  -DNO_LCHMOD -DUSE_BZIP2 -DUNICODE_SUPPORT -DUNICODE_WCHAR -DUTF8_MAYBE_NATIVE -DUSE_ICONV_MAPPING -DLARGE_FILE_SUPPORT -Wall -I. -Ibzip2 -DUNIX  -DNO_SETLOCALE  -DFUNZIP -o globalsf.o globals.c
x86_64-pc-linux-gnu-gcc -c -march=native -O3 -fgraphite-identity -floop-nest-optimize -fdevirtualize-at-ltrans -fipa-pta -fno-semantic-interposition -flto=12 -fno-plt -fno-signed-zeros -fno-trapping-math -fassociative-math -freciprocal-math -fno-math-errno -ffinite-math-only -fno-rounding-math -fno-signaling-nans -fcx-limited-range -fexcess-precision=fast -fuse-linker-plugin -pipe -g0 -falign-functions=32 -Wl,-O1 -Wl,--as-needed -Wl,-O4,--hash-style=gnu,--sort-common,--as-needed,-z,relro,-z,now,-lgomp,-lpthread  -DNO_LCHMOD -DUSE_BZIP2 -DUNICODE_SUPPORT -DUNICODE_WCHAR -DUTF8_MAYBE_NATIVE -DUSE_ICONV_MAPPING -DLARGE_FILE_SUPPORT -Wall -I. -Ibzip2 -DUNIX  -DNO_SETLOCALE  -DFUNZIP -o inflatef.o inflate.c
x86_64-pc-linux-gnu-gcc -c -march=native -O3 -fgraphite-identity -floop-nest-optimize -fdevirtualize-at-ltrans -fipa-pta -fno-semantic-interposition -flto=12 -fno-plt -fno-signed-zeros -fno-trapping-math -fassociative-math -freciprocal-math -fno-math-errno -ffinite-math-only -fno-rounding-math -fno-signaling-nans -fcx-limited-range -fexcess-precision=fast -fuse-linker-plugin -pipe -g0 -falign-functions=32 -Wl,-O1 -Wl,--as-needed -Wl,-O4,--hash-style=gnu,--sort-common,--as-needed,-z,relro,-z,now,-lgomp,-lpthread  -DNO_LCHMOD -DUSE_BZIP2 -DUNICODE_SUPPORT -DUNICODE_WCHAR -DUTF8_MAYBE_NATIVE -DUSE_ICONV_MAPPING -DLARGE_FILE_SUPPORT -Wall -I. -Ibzip2 -DUNIX  -DNO_SETLOCALE  -DFUNZIP -o ttyiof.o ttyio.c
x86_64-pc-linux-gnu-gcc -c -march=native -O3 -fgraphite-identity -floop-nest-optimize -fdevirtualize-at-ltrans -fipa-pta -fno-semantic-interposition -flto=12 -fno-plt -fno-signed-zeros -fno-trapping-math -fassociative-math -freciprocal-math -fno-math-errno -ffinite-math-only -fno-rounding-math -fno-signaling-nans -fcx-limited-range -fexcess-precision=fast -fuse-linker-plugin -pipe -g0 -falign-functions=32 -Wl,-O1 -Wl,--as-needed -Wl,-O4,--hash-style=gnu,--sort-common,--as-needed,-z,relro,-z,now,-lgomp,-lpthread  -DNO_LCHMOD -DUSE_BZIP2 -DUNICODE_SUPPORT -DUNICODE_WCHAR -DUTF8_MAYBE_NATIVE -DUSE_ICONV_MAPPING -DLARGE_FILE_SUPPORT -Wall -I. -Ibzip2 -DUNIX  -DNO_SETLOCALE  -DSFX -o unzipsfx.o unzip.c
x86_64-pc-linux-gnu-gcc -c -march=native -O3 -fgraphite-identity -floop-nest-optimize -fdevirtualize-at-ltrans -fipa-pta -fno-semantic-interposition -flto=12 -fno-plt -fno-signed-zeros -fno-trapping-math -fassociative-math -freciprocal-math -fno-math-errno -ffinite-math-only -fno-rounding-math -fno-signaling-nans -fcx-limited-range -fexcess-precision=fast -fuse-linker-plugin -pipe -g0 -falign-functions=32 -Wl,-O1 -Wl,--as-needed -Wl,-O4,--hash-style=gnu,--sort-common,--as-needed,-z,relro,-z,now,-lgomp,-lpthread  -DNO_LCHMOD -DUSE_BZIP2 -DUNICODE_SUPPORT -DUNICODE_WCHAR -DUTF8_MAYBE_NATIVE -DUSE_ICONV_MAPPING -DLARGE_FILE_SUPPORT -Wall -I. -Ibzip2 -DUNIX  -DNO_SETLOCALE  -DSFX -o crc32_.o crc32.c
x86_64-pc-linux-gnu-gcc -c -march=native -O3 -fgraphite-identity -floop-nest-optimize -fdevirtualize-at-ltrans -fipa-pta -fno-semantic-interposition -flto=12 -fno-plt -fno-signed-zeros -fno-trapping-math -fassociative-math -freciprocal-math -fno-math-errno -ffinite-math-only -fno-rounding-math -fno-signaling-nans -fcx-limited-range -fexcess-precision=fast -fuse-linker-plugin -pipe -g0 -falign-functions=32 -Wl,-O1 -Wl,--as-needed -Wl,-O4,--hash-style=gnu,--sort-common,--as-needed,-z,relro,-z,now,-lgomp,-lpthread  -DNO_LCHMOD -DUSE_BZIP2 -DUNICODE_SUPPORT -DUNICODE_WCHAR -DUTF8_MAYBE_NATIVE -DUSE_ICONV_MAPPING -DLARGE_FILE_SUPPORT -Wall -I. -Ibzip2 -DUNIX  -DNO_SETLOCALE  -DSFX -o crypt_.o crypt.c
x86_64-pc-linux-gnu-gcc -c -march=native -O3 -fgraphite-identity -floop-nest-optimize -fdevirtualize-at-ltrans -fipa-pta -fno-semantic-interposition -flto=12 -fno-plt -fno-signed-zeros -fno-trapping-math -fassociative-math -freciprocal-math -fno-math-errno -ffinite-math-only -fno-rounding-math -fno-signaling-nans -fcx-limited-range -fexcess-precision=fast -fuse-linker-plugin -pipe -g0 -falign-functions=32 -Wl,-O1 -Wl,--as-needed -Wl,-O4,--hash-style=gnu,--sort-common,--as-needed,-z,relro,-z,now,-lgomp,-lpthread  -DNO_LCHMOD -DUSE_BZIP2 -DUNICODE_SUPPORT -DUNICODE_WCHAR -DUTF8_MAYBE_NATIVE -DUSE_ICONV_MAPPING -DLARGE_FILE_SUPPORT -Wall -I. -Ibzip2 -DUNIX  -DNO_SETLOCALE  -DSFX -o extract_.o extract.c
x86_64-pc-linux-gnu-gcc -c -march=native -O3 -fgraphite-identity -floop-nest-optimize -fdevirtualize-at-ltrans -fipa-pta -fno-semantic-interposition -flto=12 -fno-plt -fno-signed-zeros -fno-trapping-math -fassociative-math -freciprocal-math -fno-math-errno -ffinite-math-only -fno-rounding-math -fno-signaling-nans -fcx-limited-range -fexcess-precision=fast -fuse-linker-plugin -pipe -g0 -falign-functions=32 -Wl,-O1 -Wl,--as-needed -Wl,-O4,--hash-style=gnu,--sort-common,--as-needed,-z,relro,-z,now,-lgomp,-lpthread  -DNO_LCHMOD -DUSE_BZIP2 -DUNICODE_SUPPORT -DUNICODE_WCHAR -DUTF8_MAYBE_NATIVE -DUSE_ICONV_MAPPING -DLARGE_FILE_SUPPORT -Wall -I. -Ibzip2 -DUNIX  -DNO_SETLOCALE  -DSFX -o fileio_.o fileio.c
x86_64-pc-linux-gnu-gcc -c -march=native -O3 -fgraphite-identity -floop-nest-optimize -fdevirtualize-at-ltrans -fipa-pta -fno-semantic-interposition -flto=12 -fno-plt -fno-signed-zeros -fno-trapping-math -fassociative-math -freciprocal-math -fno-math-errno -ffinite-math-only -fno-rounding-math -fno-signaling-nans -fcx-limited-range -fexcess-precision=fast -fuse-linker-plugin -pipe -g0 -falign-functions=32 -Wl,-O1 -Wl,--as-needed -Wl,-O4,--hash-style=gnu,--sort-common,--as-needed,-z,relro,-z,now,-lgomp,-lpthread  -DNO_LCHMOD -DUSE_BZIP2 -DUNICODE_SUPPORT -DUNICODE_WCHAR -DUTF8_MAYBE_NATIVE -DUSE_ICONV_MAPPING -DLARGE_FILE_SUPPORT -Wall -I. -Ibzip2 -DUNIX  -DNO_SETLOCALE  -DSFX -o globals_.o globals.c
x86_64-pc-linux-gnu-gcc -c -march=native -O3 -fgraphite-identity -floop-nest-optimize -fdevirtualize-at-ltrans -fipa-pta -fno-semantic-interposition -flto=12 -fno-plt -fno-signed-zeros -fno-trapping-math -fassociative-math -freciprocal-math -fno-math-errno -ffinite-math-only -fno-rounding-math -fno-signaling-nans -fcx-limited-range -fexcess-precision=fast -fuse-linker-plugin -pipe -g0 -falign-functions=32 -Wl,-O1 -Wl,--as-needed -Wl,-O4,--hash-style=gnu,--sort-common,--as-needed,-z,relro,-z,now,-lgomp,-lpthread  -DNO_LCHMOD -DUSE_BZIP2 -DUNICODE_SUPPORT -DUNICODE_WCHAR -DUTF8_MAYBE_NATIVE -DUSE_ICONV_MAPPING -DLARGE_FILE_SUPPORT -Wall -I. -Ibzip2 -DUNIX  -DNO_SETLOCALE  -DSFX -o inflate_.o inflate.c
x86_64-pc-linux-gnu-gcc -c -march=native -O3 -fgraphite-identity -floop-nest-optimize -fdevirtualize-at-ltrans -fipa-pta -fno-semantic-interposition -flto=12 -fno-plt -fno-signed-zeros -fno-trapping-math -fassociative-math -freciprocal-math -fno-math-errno -ffinite-math-only -fno-rounding-math -fno-signaling-nans -fcx-limited-range -fexcess-precision=fast -fuse-linker-plugin -pipe -g0 -falign-functions=32 -Wl,-O1 -Wl,--as-needed -Wl,-O4,--hash-style=gnu,--sort-common,--as-needed,-z,relro,-z,now,-lgomp,-lpthread  -DNO_LCHMOD -DUSE_BZIP2 -DUNICODE_SUPPORT -DUNICODE_WCHAR -DUTF8_MAYBE_NATIVE -DUSE_ICONV_MAPPING -DLARGE_FILE_SUPPORT -Wall -I. -Ibzip2 -DUNIX  -DNO_SETLOCALE  -DSFX -o match_.o match.c
x86_64-pc-linux-gnu-gcc -c -march=native -O3 -fgraphite-identity -floop-nest-optimize -fdevirtualize-at-ltrans -fipa-pta -fno-semantic-interposition -flto=12 -fno-plt -fno-signed-zeros -fno-trapping-math -fassociative-math -freciprocal-math -fno-math-errno -ffinite-math-only -fno-rounding-math -fno-signaling-nans -fcx-limited-range -fexcess-precision=fast -fuse-linker-plugin -pipe -g0 -falign-functions=32 -Wl,-O1 -Wl,--as-needed -Wl,-O4,--hash-style=gnu,--sort-common,--as-needed,-z,relro,-z,now,-lgomp,-lpthread  -DNO_LCHMOD -DUSE_BZIP2 -DUNICODE_SUPPORT -DUNICODE_WCHAR -DUTF8_MAYBE_NATIVE -DUSE_ICONV_MAPPING -DLARGE_FILE_SUPPORT -Wall -I. -Ibzip2 -DUNIX  -DNO_SETLOCALE  -DSFX -o process_.o process.c
x86_64-pc-linux-gnu-gcc -c -march=native -O3 -fgraphite-identity -floop-nest-optimize -fdevirtualize-at-ltrans -fipa-pta -fno-semantic-interposition -flto=12 -fno-plt -fno-signed-zeros -fno-trapping-math -fassociative-math -freciprocal-math -fno-math-errno -ffinite-math-only -fno-rounding-math -fno-signaling-nans -fcx-limited-range -fexcess-precision=fast -fuse-linker-plugin -pipe -g0 -falign-functions=32 -Wl,-O1 -Wl,--as-needed -Wl,-O4,--hash-style=gnu,--sort-common,--as-needed,-z,relro,-z,now,-lgomp,-lpthread  -DNO_LCHMOD -DUSE_BZIP2 -DUNICODE_SUPPORT -DUNICODE_WCHAR -DUTF8_MAYBE_NATIVE -DUSE_ICONV_MAPPING -DLARGE_FILE_SUPPORT -Wall -I. -Ibzip2 -DUNIX  -DNO_SETLOCALE  -DSFX -o ttyio_.o ttyio.c
x86_64-pc-linux-gnu-gcc -c -march=native -O3 -fgraphite-identity -floop-nest-optimize -fdevirtualize-at-ltrans -fipa-pta -fno-semantic-interposition -flto=12 -fno-plt -fno-signed-zeros -fno-trapping-math -fassociative-math -freciprocal-math -fno-math-errno -ffinite-math-only -fno-rounding-math -fno-signaling-nans -fcx-limited-range -fexcess-precision=fast -fuse-linker-plugin -pipe -g0 -falign-functions=32 -Wl,-O1 -Wl,--as-needed -Wl,-O4,--hash-style=gnu,--sort-common,--as-needed,-z,relro,-z,now,-lgomp,-lpthread  -DNO_LCHMOD -DUSE_BZIP2 -DUNICODE_SUPPORT -DUNICODE_WCHAR -DUTF8_MAYBE_NATIVE -DUSE_ICONV_MAPPING -DLARGE_FILE_SUPPORT -Wall -I. -Ibzip2 -DUNIX  -DNO_SETLOCALE  -DSFX -o ubz2err_.o ubz2err.c
x86_64-pc-linux-gnu-gcc -c -march=native -O3 -fgraphite-identity -floop-nest-optimize -fdevirtualize-at-ltrans -fipa-pta -fno-semantic-interposition -flto=12 -fno-plt -fno-signed-zeros -fno-trapping-math -fassociative-math -freciprocal-math -fno-math-errno -ffinite-math-only -fno-rounding-math -fno-signaling-nans -fcx-limited-range -fexcess-precision=fast -fuse-linker-plugin -pipe -g0 -falign-functions=32 -Wl,-O1 -Wl,--as-needed -Wl,-O4,--hash-style=gnu,--sort-common,--as-needed,-z,relro,-z,now,-lgomp,-lpthread  -DNO_LCHMOD -DUSE_BZIP2 -DUNICODE_SUPPORT -DUNICODE_WCHAR -DUTF8_MAYBE_NATIVE -DUSE_ICONV_MAPPING -DLARGE_FILE_SUPPORT -Wall -I. -Ibzip2 -DUNIX  -DNO_SETLOCALE  -DSFX -o unix_.o unix/unix.c
x86_64-pc-linux-gnu-gcc -Wl,-O1 -Wl,--as-needed -Wl,-O4,--hash-style=gnu,--sort-common,--as-needed,-z,relro,-z,now,-lgomp,-lpthread -march=native -O3 -fgraphite-identity -floop-nest-optimize -fdevirtualize-at-ltrans -fipa-pta -fno-semantic-interposition -flto=12 -fno-plt -fno-signed-zeros -fno-trapping-math -fassociative-math -freciprocal-math -fno-math-errno -ffinite-math-only -fno-rounding-math -fno-signaling-nans -fcx-limited-range -fexcess-precision=fast -fuse-linker-plugin -pipe -g0 -falign-functions=32 -o funzip  funzip.o crc32.o  cryptf.o globalsf.o inflatef.o ttyiof.o -l natspec
x86_64-pc-linux-gnu-gcc -Wl,-O1 -Wl,--as-needed -Wl,-O4,--hash-style=gnu,--sort-common,--as-needed,-z,relro,-z,now,-lgomp,-lpthread -march=native -O3 -fgraphite-identity -floop-nest-optimize -fdevirtualize-at-ltrans -fipa-pta -fno-semantic-interposition -flto=12 -fno-plt -fno-signed-zeros -fno-trapping-math -fassociative-math -freciprocal-math -fno-math-errno -ffinite-math-only -fno-rounding-math -fno-signaling-nans -fcx-limited-range -fexcess-precision=fast -fuse-linker-plugin -pipe -g0 -falign-functions=32 -o unzip  -Lbzip2 unzip.o crc32.o  crypt.o envargs.o explode.o extract.o fileio.o globals.o inflate.o list.o match.o process.o ttyio.o ubz2err.o unreduce.o unshrink.o zipinfo.o unix.o -lbz2 -l natspec
process.c: In function 'wide_to_local_string':
process.c:2504:7: warning: variable 'state_dependent' set but not used [-Wunused-but-set-variable]
 2504 |   int state_dependent;
      |       ^~~~~~~~~~~~~~~
x86_64-pc-linux-gnu-gcc -Wl,-O1 -Wl,--as-needed -Wl,-O4,--hash-style=gnu,--sort-common,--as-needed,-z,relro,-z,now,-lgomp,-lpthread -march=native -O3 -fgraphite-identity -floop-nest-optimize -fdevirtualize-at-ltrans -fipa-pta -fno-semantic-interposition -flto=12 -fno-plt -fno-signed-zeros -fno-trapping-math -fassociative-math -freciprocal-math -fno-math-errno -ffinite-math-only -fno-rounding-math -fno-signaling-nans -fcx-limited-range -fexcess-precision=fast -fuse-linker-plugin -pipe -g0 -falign-functions=32 -o unzipsfx  unzipsfx.o crc32_.o  crypt_.o extract_.o fileio_.o globals_.o inflate_.o match_.o process_.o ttyio_.o ubz2err_.o unix_.o -l natspec
make[1]: Leaving directory '/tmp/portage/app-arch/unzip-6.0_p25-r1/work/unzip60'
>>> Source compiled.
>>> Test phase [not enabled]: app-arch/unzip-6.0_p25-r1

>>> Install app-arch/unzip-6.0_p25-r1 into /tmp/portage/app-arch/unzip-6.0_p25-r1/image
>>> Completed installing app-arch/unzip-6.0_p25-r1 into /tmp/portage/app-arch/unzip-6.0_p25-r1/image

 * Final size of build directory: 9148 KiB (8.9 MiB)
 * Final size of installed tree:   608 KiB

strip: x86_64-pc-linux-gnu-strip --strip-unneeded -N __gentoo_check_ldflags__ -R .comment -R .GCC.command.line -R .note.gnu.gold-version
   /usr/bin/funzip
   /usr/bin/unzip
   /usr/bin/unzipsfx
./
./usr/
./usr/bin/
./usr/bin/zipgrep
./usr/bin/unzip
./usr/bin/zipinfo
./usr/bin/funzip
./usr/bin/unzipsfx
./usr/share/
./usr/share/man/
./usr/share/man/man1/
./usr/share/man/man1/zipgrep.1.bz2
./usr/share/man/man1/unzip.1.bz2
./usr/share/man/man1/funzip.1.bz2
./usr/share/man/man1/unzipsfx.1.bz2
./usr/share/man/man1/zipinfo.1.bz2
./usr/share/doc/
./usr/share/doc/unzip-6.0_p25-r1/
./usr/share/doc/unzip-6.0_p25-r1/README.bz2
./usr/share/doc/unzip-6.0_p25-r1/History.600.bz2
./usr/share/doc/unzip-6.0_p25-r1/WHERE.bz2
./usr/share/doc/unzip-6.0_p25-r1/ToDo.bz2
./usr/share/doc/unzip-6.0_p25-r1/BUGS.bz2
>>> Done.
 * checking 10 files for package collisions
>>> Merging app-arch/unzip-6.0_p25-r1 to /
 * removing unneeded *.la files
--- /usr/
--- /usr/share/
--- /usr/share/man/
--- /usr/share/man/man1/
>>> /usr/share/man/man1/zipinfo.1.bz2
>>> /usr/share/man/man1/unzipsfx.1.bz2
>>> /usr/share/man/man1/funzip.1.bz2
>>> /usr/share/man/man1/unzip.1.bz2
>>> /usr/share/man/man1/zipgrep.1.bz2
--- /usr/bin/
>>> /usr/bin/unzipsfx
>>> /usr/bin/funzip
>>> /usr/bin/zipinfo -> unzip
>>> /usr/bin/unzip
>>> /usr/bin/zipgrep
>>> Safely unmerging already-installed instance...
>>> Original instance of package unmerged safely.
>>> app-arch/unzip-6.0_p25-r1 merged.
