No package files given... Grabbing a set.
--- replaced obj /usr/share/man/man1/tidy.1.bz2
--- replaced dir /usr/share/man/man1
--- replaced dir /usr/share/man
--- replaced dir /usr/share
--- replaced sym /usr/lib64/libtidy.so
--- replaced obj /usr/lib64/libtidy-0.99.so.0.0.0
--- replaced sym /usr/lib64/libtidy-0.99.so.0
--- replaced dir /usr/lib64
--- replaced obj /usr/include/tidyenum.h
--- replaced obj /usr/include/tidy.h
--- replaced obj /usr/include/platform.h
--- replaced obj /usr/include/buffio.h
--- replaced dir /usr/include
--- replaced obj /usr/bin/tidy
--- replaced obj /usr/bin/tab2space
--- replaced dir /usr/bin
--- replaced dir /usr
>>> Regenerating /etc/ld.so.cache...
