No package files given... Grabbing a set.
--- replaced obj /usr/share/man/man1/rbash.1.bz2
--- replaced obj /usr/share/man/man1/builtins.1.bz2
--- replaced obj /usr/share/man/man1/bashbug.1.bz2
--- replaced obj /usr/share/man/man1/bash.1.bz2
--- replaced dir /usr/share/man/man1
--- replaced dir /usr/share/man
--- replaced sym /usr/share/info/bashref.info.bz2
--- replaced obj /usr/share/info/bash.info.bz2
--- replaced dir /usr/share/info
--- replaced dir /usr/share
--- replaced obj /usr/bin/bashbug
--- replaced dir /usr/bin
--- replaced dir /usr
--- replaced obj /etc/skel/.bashrc
--- replaced obj /etc/skel/.bash_profile
--- replaced obj /etc/skel/.bash_logout
--- replaced dir /etc/skel
--- replaced obj /etc/bash/bashrc.d/.keep_app-shells_bash-0
--- replaced dir /etc/bash/bashrc.d
--- replaced obj /etc/bash/bashrc
--- replaced obj /etc/bash/bash_logout
--- replaced dir /etc/bash
--- replaced dir /etc
--- replaced sym /bin/rbash
--- replaced obj /bin/bash
--- replaced dir /bin
>>> Regenerating /etc/ld.so.cache...
