>>> Extracting info
 * Package:    app-shells/zsh-5.8
 * Repository: gentoo
 * USE:        unicode abi_x86_64 caps elibc_glibc gdbm kernel_linux userland_GNU pcre amd64
 * FEATURES:   network-sandbox preserve-libs sandbox userpriv usersandbox
 * FEATURES='assume-digests binpkg-docompress binpkg-dostrip binpkg-logs binpkg-multi-instance buildpkg cgroup compress-index config-protect-if-modified distlocks downgrade-backup fixlafiles ipc-sandbox merge-sync multilib-strict network-sandbox news nodoc parallel-fetch parallel-install pid-sandbox preserve-libs qa-unresolved-soname-deps sandbox sfperms strict unknown-features-warn unmerge-backup unmerge-logs unmerge-orphans userfetch userpriv usersandbox usersync xattr'
 * CFLAGS='-march=native -O3 -fgraphite-identity -floop-nest-optimize -fdevirtualize-at-ltrans -fipa-pta -fno-semantic-interposition -flto=12 -fno-plt -fno-math-errno -fno-trapping-math -fuse-linker-plugin -pipe -g0 -falign-functions=32 -Wl,-O1 -Wl,--as-needed'
 * CXXFLAGS='-march=native -O3 -fgraphite-identity -floop-nest-optimize -fdevirtualize-at-ltrans -fipa-pta -fno-semantic-interposition -flto=12 -fno-plt -fno-math-errno -fno-trapping-math -fuse-linker-plugin -pipe -g0 -falign-functions=32 -Wl,-O1 -Wl,--as-needed'
 * FFLAGS='-march=native -O3 -fgraphite-identity -floop-nest-optimize -fdevirtualize-at-ltrans -fipa-pta -fno-semantic-interposition -flto=12 -fno-plt -fno-math-errno -fno-trapping-math -fuse-linker-plugin -pipe -g0 -falign-functions=32 -Wl,-O1 -Wl,--as-needed'
 * FCFLAGS='-march=native -O3 -fgraphite-identity -floop-nest-optimize -fdevirtualize-at-ltrans -fipa-pta -fno-semantic-interposition -flto=12 -fno-plt -fno-math-errno -fno-trapping-math -fuse-linker-plugin -pipe -g0 -falign-functions=32 -Wl,-O1 -Wl,--as-needed'
 * F77FLAGS='-march=native -O3 -fgraphite-identity -floop-nest-optimize -fdevirtualize-at-ltrans -fipa-pta -fno-semantic-interposition -flto=12 -fno-plt -fno-math-errno -fno-trapping-math -fuse-linker-plugin -pipe -g0 -falign-functions=32 -Wl,-O1 -Wl,--as-needed'
 * LDFLAGS='-Wl,-O1 -Wl,--as-needed -march=native -O3 -fgraphite-identity -floop-nest-optimize -fdevirtualize-at-ltrans -fipa-pta -fno-semantic-interposition -flto=12 -fno-plt -fno-math-errno -fno-trapping-math -fuse-linker-plugin -pipe -g0 -falign-functions=32'
 * MAKEOPTS='-j12 -l12'
 * gcc () 11.0.0 20200526 (experimental)
 * g++ () 11.0.0 20200526 (experimental)
 * GNU ld (Gentoo 2.34 p4) 2.34.0
 * Linux ryzen.gnum.org 5.4.36 #1 SMP Thu Apr 30 04:38:28 UTC 2020 x86_64 AMD Ryzen 5 3600 6-Core Processor AuthenticAMD GNU/Linux
app-shells/zsh: 1 minute, 6 seconds average for 7 merges
2020-05-20T02:00:23 >>> app-shells/zsh: 2 minutes, 3 seconds
2020-05-20T02:40:43 >>> app-shells/zsh: 9 seconds
2020-05-20T02:42:31 >>> app-shells/zsh: 7 seconds
2020-05-20T02:45:01 >>> app-shells/zsh: 5 seconds
2020-05-21T13:09:07 >>> app-shells/zsh: 3 minutes, 18 seconds
2020-05-26T14:27:09 >>> app-shells/zsh: 7 seconds
2020-05-28T03:04:58 >>> app-shells/zsh: 1 minute, 54 seconds
]0;emerge 14:39:50 339|889 zsh 01:46 (root@ryzen.gnum.org)kemerge 14:39:50 339|889 zsh 01:46 (root@ryzen.gnum.org)\>>> Extracting app-shells/zsh-5.8
 * checking 1397 files for package collisions
>>> Merging app-shells/zsh-5.8 to /
 * removing unneeded *.la files
--- /etc/
--- /etc/zsh/
>>> /etc/zsh/zprofile
--- /usr/
--- /usr/lib64/
--- /usr/lib64/zsh/
--- /usr/lib64/zsh/5.8/
--- /usr/lib64/zsh/5.8/zsh/
>>> /usr/lib64/zsh/5.8/zsh/computil.so
>>> /usr/lib64/zsh/5.8/zsh/cap.so
>>> /usr/lib64/zsh/5.8/zsh/deltochar.so
>>> /usr/lib64/zsh/5.8/zsh/nearcolor.so
>>> /usr/lib64/zsh/5.8/zsh/zutil.so
>>> /usr/lib64/zsh/5.8/zsh/langinfo.so
>>> /usr/lib64/zsh/5.8/zsh/sched.so
>>> /usr/lib64/zsh/5.8/zsh/zftp.so
>>> /usr/lib64/zsh/5.8/zsh/regex.so
>>> /usr/lib64/zsh/5.8/zsh/zle.so
>>> /usr/lib64/zsh/5.8/zsh/example.so
>>> /usr/lib64/zsh/5.8/zsh/complete.so
>>> /usr/lib64/zsh/5.8/zsh/system.so
>>> /usr/lib64/zsh/5.8/zsh/complist.so
>>> /usr/lib64/zsh/5.8/zsh/files.so
>>> /usr/lib64/zsh/5.8/zsh/datetime.so
>>> /usr/lib64/zsh/5.8/zsh/termcap.so
--- /usr/lib64/zsh/5.8/zsh/net/
>>> /usr/lib64/zsh/5.8/zsh/net/tcp.so
>>> /usr/lib64/zsh/5.8/zsh/net/socket.so
>>> /usr/lib64/zsh/5.8/zsh/stat.so
>>> /usr/lib64/zsh/5.8/zsh/attr.so
>>> /usr/lib64/zsh/5.8/zsh/terminfo.so
>>> /usr/lib64/zsh/5.8/zsh/clone.so
--- /usr/lib64/zsh/5.8/zsh/db/
>>> /usr/lib64/zsh/5.8/zsh/db/gdbm.so
>>> /usr/lib64/zsh/5.8/zsh/rlimits.so
>>> /usr/lib64/zsh/5.8/zsh/zselect.so
>>> /usr/lib64/zsh/5.8/zsh/zpty.so
>>> /usr/lib64/zsh/5.8/zsh/zprof.so
>>> /usr/lib64/zsh/5.8/zsh/mapfile.so
>>> /usr/lib64/zsh/5.8/zsh/compctl.so
>>> /usr/lib64/zsh/5.8/zsh/parameter.so
>>> /usr/lib64/zsh/5.8/zsh/curses.so
>>> /usr/lib64/zsh/5.8/zsh/newuser.so
>>> /usr/lib64/zsh/5.8/zsh/pcre.so
--- /usr/lib64/zsh/5.8/zsh/param/
>>> /usr/lib64/zsh/5.8/zsh/param/private.so
>>> /usr/lib64/zsh/5.8/zsh/mathfunc.so
>>> /usr/lib64/zsh/5.8/zsh/zleparameter.so
--- /usr/share/
--- /usr/share/zsh/
--- /usr/share/zsh/5.8/
--- /usr/share/zsh/5.8/Util/
>>> /usr/share/zsh/5.8/Util/check_exports
>>> /usr/share/zsh/5.8/Util/check-tmux-state
>>> /usr/share/zsh/5.8/Util/mkdisttree.sh
>>> /usr/share/zsh/5.8/Util/preconfig
>>> /usr/share/zsh/5.8/Util/helpfiles
>>> /usr/share/zsh/5.8/Util/ztst-ftplugin.vim
>>> /usr/share/zsh/5.8/Util/reporter
>>> /usr/share/zsh/5.8/Util/zyodl.vim
>>> /usr/share/zsh/5.8/Util/ztst-syntax.vim
--- /usr/share/zsh/5.8/Misc/
>>> /usr/share/zsh/5.8/Misc/compctl-examples
>>> /usr/share/zsh/5.8/Misc/c2z
>>> /usr/share/zsh/5.8/Misc/vcs_info-examples
>>> /usr/share/zsh/5.8/Misc/make-zsh-urls
>>> /usr/share/zsh/5.8/Misc/job-control-tests
>>> /usr/share/zsh/5.8/Misc/lete2ctl
>>> /usr/share/zsh/5.8/Misc/globtests.ksh
>>> /usr/share/zsh/5.8/Misc/bash2zshprompt
>>> /usr/share/zsh/5.8/Misc/globtests
--- /usr/share/zsh/5.8/functions/
--- /usr/share/zsh/5.8/functions/Calendar/
>>> /usr/share/zsh/5.8/functions/Calendar/calendar_show
>>> /usr/share/zsh/5.8/functions/Calendar/calendar_scandate
>>> /usr/share/zsh/5.8/functions/Calendar/calendar
>>> /usr/share/zsh/5.8/functions/Calendar/calendar_parse
>>> /usr/share/zsh/5.8/functions/Calendar/calendar_read
>>> /usr/share/zsh/5.8/functions/Calendar/calendar_lockfiles
>>> /usr/share/zsh/5.8/functions/Calendar/calendar_showdate
>>> /usr/share/zsh/5.8/functions/Calendar/age
>>> /usr/share/zsh/5.8/functions/Calendar/calendar_sort
>>> /usr/share/zsh/5.8/functions/Calendar/calendar_edit
>>> /usr/share/zsh/5.8/functions/Calendar/before
>>> /usr/share/zsh/5.8/functions/Calendar/calendar_add
>>> /usr/share/zsh/5.8/functions/Calendar/after
--- /usr/share/zsh/5.8/functions/Misc/
>>> /usr/share/zsh/5.8/functions/Misc/nslookup
>>> /usr/share/zsh/5.8/functions/Misc/checkmail
>>> /usr/share/zsh/5.8/functions/Misc/getjobs
>>> /usr/share/zsh/5.8/functions/Misc/ztodo
>>> /usr/share/zsh/5.8/functions/Misc/relative
>>> /usr/share/zsh/5.8/functions/Misc/colors
>>> /usr/share/zsh/5.8/functions/Misc/regexp-replace
>>> /usr/share/zsh/5.8/functions/Misc/tetris
>>> /usr/share/zsh/5.8/functions/Misc/mere
>>> /usr/share/zsh/5.8/functions/Misc/zargs
>>> /usr/share/zsh/5.8/functions/Misc/run-help
>>> /usr/share/zsh/5.8/functions/Misc/run-help-svn
>>> /usr/share/zsh/5.8/functions/Misc/run-help-p4
>>> /usr/share/zsh/5.8/functions/Misc/add-zsh-hook
>>> /usr/share/zsh/5.8/functions/Misc/add-zle-hook-widget
>>> /usr/share/zsh/5.8/functions/Misc/zkbd
>>> /usr/share/zsh/5.8/functions/Misc/sticky-note
>>> /usr/share/zsh/5.8/functions/Misc/zmathfuncdef
>>> /usr/share/zsh/5.8/functions/Misc/zmv
>>> /usr/share/zsh/5.8/functions/Misc/run-help-svk
>>> /usr/share/zsh/5.8/functions/Misc/run-help-openssl
>>> /usr/share/zsh/5.8/functions/Misc/is-at-least
>>> /usr/share/zsh/5.8/functions/Misc/promptnl
>>> /usr/share/zsh/5.8/functions/Misc/run-help-sudo
>>> /usr/share/zsh/5.8/functions/Misc/zcalc
>>> /usr/share/zsh/5.8/functions/Misc/tetriscurses
>>> /usr/share/zsh/5.8/functions/Misc/zrecompile
>>> /usr/share/zsh/5.8/functions/Misc/xtermctl
>>> /usr/share/zsh/5.8/functions/Misc/zstyle+
>>> /usr/share/zsh/5.8/functions/Misc/run-help-ip
>>> /usr/share/zsh/5.8/functions/Misc/run-help-git
>>> /usr/share/zsh/5.8/functions/Misc/zed
>>> /usr/share/zsh/5.8/functions/Misc/harden
>>> /usr/share/zsh/5.8/functions/Misc/allopt
--- /usr/share/zsh/5.8/functions/TCP/
>>> /usr/share/zsh/5.8/functions/TCP/tcp_rename
>>> /usr/share/zsh/5.8/functions/TCP/tcp_command
>>> /usr/share/zsh/5.8/functions/TCP/tcp_shoot
>>> /usr/share/zsh/5.8/functions/TCP/tcp_alias
>>> /usr/share/zsh/5.8/functions/TCP/tcp_expect
>>> /usr/share/zsh/5.8/functions/TCP/tcp_wait
>>> /usr/share/zsh/5.8/functions/TCP/tcp_open
>>> /usr/share/zsh/5.8/functions/TCP/tcp_talk
>>> /usr/share/zsh/5.8/functions/TCP/tcp_output
>>> /usr/share/zsh/5.8/functions/TCP/tcp_proxy
>>> /usr/share/zsh/5.8/functions/TCP/tcp_sess
>>> /usr/share/zsh/5.8/functions/TCP/tcp_close
>>> /usr/share/zsh/5.8/functions/TCP/tcp_send
>>> /usr/share/zsh/5.8/functions/TCP/tcp_read
>>> /usr/share/zsh/5.8/functions/TCP/tcp_spam
>>> /usr/share/zsh/5.8/functions/TCP/tcp_point
>>> /usr/share/zsh/5.8/functions/TCP/tcp_log
>>> /usr/share/zsh/5.8/functions/TCP/tcp_fd_handler
--- /usr/share/zsh/5.8/functions/Prompts/
>>> /usr/share/zsh/5.8/functions/Prompts/prompt_restore_setup
>>> /usr/share/zsh/5.8/functions/Prompts/prompt_bart_setup
>>> /usr/share/zsh/5.8/functions/Prompts/prompt_fire_setup
>>> /usr/share/zsh/5.8/functions/Prompts/prompt_redhat_setup
>>> /usr/share/zsh/5.8/functions/Prompts/prompt_elite_setup
>>> /usr/share/zsh/5.8/functions/Prompts/prompt_oliver_setup
>>> /usr/share/zsh/5.8/functions/Prompts/prompt_walters_setup
>>> /usr/share/zsh/5.8/functions/Prompts/prompt_zefram_setup
>>> /usr/share/zsh/5.8/functions/Prompts/prompt_fade_setup
>>> /usr/share/zsh/5.8/functions/Prompts/prompt_clint_setup
>>> /usr/share/zsh/5.8/functions/Prompts/prompt_bigfade_setup
>>> /usr/share/zsh/5.8/functions/Prompts/prompt_off_setup
>>> /usr/share/zsh/5.8/functions/Prompts/prompt_gentoo_setup
>>> /usr/share/zsh/5.8/functions/Prompts/prompt_elite2_setup
>>> /usr/share/zsh/5.8/functions/Prompts/prompt_adam2_setup
>>> /usr/share/zsh/5.8/functions/Prompts/prompt_suse_setup
>>> /usr/share/zsh/5.8/functions/Prompts/promptinit
>>> /usr/share/zsh/5.8/functions/Prompts/prompt_adam1_setup
>>> /usr/share/zsh/5.8/functions/Prompts/prompt_default_setup
>>> /usr/share/zsh/5.8/functions/Prompts/prompt_pws_setup
>>> /usr/share/zsh/5.8/functions/Prompts/prompt_special_chars
--- /usr/share/zsh/5.8/functions/Newuser/
>>> /usr/share/zsh/5.8/functions/Newuser/zsh-newuser-install
--- /usr/share/zsh/5.8/functions/Completion/
--- /usr/share/zsh/5.8/functions/Completion/Unix/
>>> /usr/share/zsh/5.8/functions/Completion/Unix/_mtr
>>> /usr/share/zsh/5.8/functions/Completion/Unix/_zpool
>>> /usr/share/zsh/5.8/functions/Completion/Unix/_pack
>>> /usr/share/zsh/5.8/functions/Completion/Unix/_whereis
>>> /usr/share/zsh/5.8/functions/Completion/Unix/_ack
>>> /usr/share/zsh/5.8/functions/Completion/Unix/_ports
>>> /usr/share/zsh/5.8/functions/Completion/Unix/_split
>>> /usr/share/zsh/5.8/functions/Completion/Unix/_hosts
>>> /usr/share/zsh/5.8/functions/Completion/Unix/_bibtex
>>> /usr/share/zsh/5.8/functions/Completion/Unix/_cdcd
>>> /usr/share/zsh/5.8/functions/Completion/Unix/_rcs
>>> /usr/share/zsh/5.8/functions/Completion/Unix/_ctags_tags
>>> /usr/share/zsh/5.8/functions/Completion/Unix/_topgit
>>> /usr/share/zsh/5.8/functions/Completion/Unix/_files
>>> /usr/share/zsh/5.8/functions/Completion/Unix/_pv
>>> /usr/share/zsh/5.8/functions/Completion/Unix/_apachectl
>>> /usr/share/zsh/5.8/functions/Completion/Unix/_libvirt
>>> /usr/share/zsh/5.8/functions/Completion/Unix/_stgit
>>> /usr/share/zsh/5.8/functions/Completion/Unix/_elinks
>>> /usr/share/zsh/5.8/functions/Completion/Unix/_patchutils
>>> /usr/share/zsh/5.8/functions/Completion/Unix/_at
>>> /usr/share/zsh/5.8/functions/Completion/Unix/_pon
>>> /usr/share/zsh/5.8/functions/Completion/Unix/_tardy
>>> /usr/share/zsh/5.8/functions/Completion/Unix/_twidge
>>> /usr/share/zsh/5.8/functions/Completion/Unix/_awk
>>> /usr/share/zsh/5.8/functions/Completion/Unix/_rclone
>>> /usr/share/zsh/5.8/functions/Completion/Unix/_todo.sh
>>> /usr/share/zsh/5.8/functions/Completion/Unix/_ssh_hosts
>>> /usr/share/zsh/5.8/functions/Completion/Unix/_mpc
>>> /usr/share/zsh/5.8/functions/Completion/Unix/_ssh
>>> /usr/share/zsh/5.8/functions/Completion/Unix/_file_modes
>>> /usr/share/zsh/5.8/functions/Completion/Unix/_finger
>>> /usr/share/zsh/5.8/functions/Completion/Unix/_date
>>> /usr/share/zsh/5.8/functions/Completion/Unix/_gradle
>>> /usr/share/zsh/5.8/functions/Completion/Unix/_terminals
>>> /usr/share/zsh/5.8/functions/Completion/Unix/_twisted
>>> /usr/share/zsh/5.8/functions/Completion/Unix/_yodl
>>> /usr/share/zsh/5.8/functions/Completion/Unix/_newsgroups
>>> /usr/share/zsh/5.8/functions/Completion/Unix/_etags
>>> /usr/share/zsh/5.8/functions/Completion/Unix/_lp
>>> /usr/share/zsh/5.8/functions/Completion/Unix/_ccal
>>> /usr/share/zsh/5.8/functions/Completion/Unix/_getent
>>> /usr/share/zsh/5.8/functions/Completion/Unix/_init_d
>>> /usr/share/zsh/5.8/functions/Completion/Unix/_getfacl
>>> /usr/share/zsh/5.8/functions/Completion/Unix/_luarocks
>>> /usr/share/zsh/5.8/functions/Completion/Unix/_myrepos
>>> /usr/share/zsh/5.8/functions/Completion/Unix/_elfdump
>>> /usr/share/zsh/5.8/functions/Completion/Unix/_stdbuf
>>> /usr/share/zsh/5.8/functions/Completion/Unix/_calendar
>>> /usr/share/zsh/5.8/functions/Completion/Unix/_flac
>>> /usr/share/zsh/5.8/functions/Completion/Unix/_strip
>>> /usr/share/zsh/5.8/functions/Completion/Unix/_chmod
>>> /usr/share/zsh/5.8/functions/Completion/Unix/_mime_types
>>> /usr/share/zsh/5.8/functions/Completion/Unix/_initctl
>>> /usr/share/zsh/5.8/functions/Completion/Unix/_apm
>>> /usr/share/zsh/5.8/functions/Completion/Unix/_java
>>> /usr/share/zsh/5.8/functions/Completion/Unix/_asciinema
>>> /usr/share/zsh/5.8/functions/Completion/Unix/_cksum
>>> /usr/share/zsh/5.8/functions/Completion/Unix/_ldd
>>> /usr/share/zsh/5.8/functions/Completion/Unix/_head
>>> /usr/share/zsh/5.8/functions/Completion/Unix/_links
>>> /usr/share/zsh/5.8/functions/Completion/Unix/_sccs
>>> /usr/share/zsh/5.8/functions/Completion/Unix/_shred
>>> /usr/share/zsh/5.8/functions/Completion/Unix/_ifconfig
>>> /usr/share/zsh/5.8/functions/Completion/Unix/_gprof
>>> /usr/share/zsh/5.8/functions/Completion/Unix/_path_commands
>>> /usr/share/zsh/5.8/functions/Completion/Unix/_dhclient
>>> /usr/share/zsh/5.8/functions/Completion/Unix/_tidy
>>> /usr/share/zsh/5.8/functions/Completion/Unix/_services
>>> /usr/share/zsh/5.8/functions/Completion/Unix/_sqlite
>>> /usr/share/zsh/5.8/functions/Completion/Unix/_comm
>>> /usr/share/zsh/5.8/functions/Completion/Unix/_iostat
>>> /usr/share/zsh/5.8/functions/Completion/Unix/_dict_words
>>> /usr/share/zsh/5.8/functions/Completion/Unix/_numfmt
>>> /usr/share/zsh/5.8/functions/Completion/Unix/_nice
>>> /usr/share/zsh/5.8/functions/Completion/Unix/_gzip
>>> /usr/share/zsh/5.8/functions/Completion/Unix/_zfs_keysource_props
>>> /usr/share/zsh/5.8/functions/Completion/Unix/_ed
>>> /usr/share/zsh/5.8/functions/Completion/Unix/_my_accounts
>>> /usr/share/zsh/5.8/functions/Completion/Unix/_readlink
>>> /usr/share/zsh/5.8/functions/Completion/Unix/_python_modules
>>> /usr/share/zsh/5.8/functions/Completion/Unix/_zsh
>>> /usr/share/zsh/5.8/functions/Completion/Unix/_global
>>> /usr/share/zsh/5.8/functions/Completion/Unix/_wc
>>> /usr/share/zsh/5.8/functions/Completion/Unix/_surfraw
>>> /usr/share/zsh/5.8/functions/Completion/Unix/_mysql_utils
>>> /usr/share/zsh/5.8/functions/Completion/Unix/_adb
>>> /usr/share/zsh/5.8/functions/Completion/Unix/_git
>>> /usr/share/zsh/5.8/functions/Completion/Unix/_ri
>>> /usr/share/zsh/5.8/functions/Completion/Unix/_ant
>>> /usr/share/zsh/5.8/functions/Completion/Unix/_imagemagick
>>> /usr/share/zsh/5.8/functions/Completion/Unix/_smartmontools
>>> /usr/share/zsh/5.8/functions/Completion/Unix/_swift
>>> /usr/share/zsh/5.8/functions/Completion/Unix/_espeak
>>> /usr/share/zsh/5.8/functions/Completion/Unix/_psutils
>>> /usr/share/zsh/5.8/functions/Completion/Unix/_avahi
>>> /usr/share/zsh/5.8/functions/Completion/Unix/_gnu_generic
>>> /usr/share/zsh/5.8/functions/Completion/Unix/_xz
>>> /usr/share/zsh/5.8/functions/Completion/Unix/_dsh
>>> /usr/share/zsh/5.8/functions/Completion/Unix/_dir_list
>>> /usr/share/zsh/5.8/functions/Completion/Unix/_sys_calls
>>> /usr/share/zsh/5.8/functions/Completion/Unix/_perforce
>>> /usr/share/zsh/5.8/functions/Completion/Unix/_killall
>>> /usr/share/zsh/5.8/functions/Completion/Unix/_du
>>> /usr/share/zsh/5.8/functions/Completion/Unix/_rubber
>>> /usr/share/zsh/5.8/functions/Completion/Unix/_user_admin
>>> /usr/share/zsh/5.8/functions/Completion/Unix/_getconf
>>> /usr/share/zsh/5.8/functions/Completion/Unix/_dig
>>> /usr/share/zsh/5.8/functions/Completion/Unix/_ln
>>> /usr/share/zsh/5.8/functions/Completion/Unix/_column
>>> /usr/share/zsh/5.8/functions/Completion/Unix/_ipsec
>>> /usr/share/zsh/5.8/functions/Completion/Unix/_yp
>>> /usr/share/zsh/5.8/functions/Completion/Unix/_urls
>>> /usr/share/zsh/5.8/functions/Completion/Unix/_pkginfo
>>> /usr/share/zsh/5.8/functions/Completion/Unix/_mkdir
>>> /usr/share/zsh/5.8/functions/Completion/Unix/_growisofs
>>> /usr/share/zsh/5.8/functions/Completion/Unix/_graphicsmagick
>>> /usr/share/zsh/5.8/functions/Completion/Unix/_webbrowser
>>> /usr/share/zsh/5.8/functions/Completion/Unix/_tr
>>> /usr/share/zsh/5.8/functions/Completion/Unix/_chroot
>>> /usr/share/zsh/5.8/functions/Completion/Unix/_pump
>>> /usr/share/zsh/5.8/functions/Completion/Unix/_objdump
>>> /usr/share/zsh/5.8/functions/Completion/Unix/_uname
>>> /usr/share/zsh/5.8/functions/Completion/Unix/_iftop
>>> /usr/share/zsh/5.8/functions/Completion/Unix/_cssh
>>> /usr/share/zsh/5.8/functions/Completion/Unix/_lz4
>>> /usr/share/zsh/5.8/functions/Completion/Unix/_perldoc
>>> /usr/share/zsh/5.8/functions/Completion/Unix/_pax
>>> /usr/share/zsh/5.8/functions/Completion/Unix/_base64
>>> /usr/share/zsh/5.8/functions/Completion/Unix/_nslookup
>>> /usr/share/zsh/5.8/functions/Completion/Unix/_dd
>>> /usr/share/zsh/5.8/functions/Completion/Unix/_clay
>>> /usr/share/zsh/5.8/functions/Completion/Unix/_guilt
>>> /usr/share/zsh/5.8/functions/Completion/Unix/_mail
>>> /usr/share/zsh/5.8/functions/Completion/Unix/_ngrep
>>> /usr/share/zsh/5.8/functions/Completion/Unix/_tree
>>> /usr/share/zsh/5.8/functions/Completion/Unix/_gsettings
>>> /usr/share/zsh/5.8/functions/Completion/Unix/_find_net_interfaces
>>> /usr/share/zsh/5.8/functions/Completion/Unix/_bzr
>>> /usr/share/zsh/5.8/functions/Completion/Unix/_zfs_dataset
>>> /usr/share/zsh/5.8/functions/Completion/Unix/_diffstat
>>> /usr/share/zsh/5.8/functions/Completion/Unix/_arp
>>> /usr/share/zsh/5.8/functions/Completion/Unix/_route
>>> /usr/share/zsh/5.8/functions/Completion/Unix/_mencal
>>> /usr/share/zsh/5.8/functions/Completion/Unix/_printers
>>> /usr/share/zsh/5.8/functions/Completion/Unix/_socket
>>> /usr/share/zsh/5.8/functions/Completion/Unix/_abcde
>>> /usr/share/zsh/5.8/functions/Completion/Unix/_printenv
>>> /usr/share/zsh/5.8/functions/Completion/Unix/_postgresql
>>> /usr/share/zsh/5.8/functions/Completion/Unix/_net_interfaces
>>> /usr/share/zsh/5.8/functions/Completion/Unix/_mh
>>> /usr/share/zsh/5.8/functions/Completion/Unix/_perl_modules
>>> /usr/share/zsh/5.8/functions/Completion/Unix/_less
>>> /usr/share/zsh/5.8/functions/Completion/Unix/_getopt
>>> /usr/share/zsh/5.8/functions/Completion/Unix/_md5sum
>>> /usr/share/zsh/5.8/functions/Completion/Unix/_unison
>>> /usr/share/zsh/5.8/functions/Completion/Unix/_picocom
>>> /usr/share/zsh/5.8/functions/Completion/Unix/_rmdir
>>> /usr/share/zsh/5.8/functions/Completion/Unix/_cvs
>>> /usr/share/zsh/5.8/functions/Completion/Unix/_lzop
>>> /usr/share/zsh/5.8/functions/Completion/Unix/_tmux
>>> /usr/share/zsh/5.8/functions/Completion/Unix/_rlogin
>>> /usr/share/zsh/5.8/functions/Completion/Unix/_lua
>>> /usr/share/zsh/5.8/functions/Completion/Unix/_setfacl
>>> /usr/share/zsh/5.8/functions/Completion/Unix/_gdb
>>> /usr/share/zsh/5.8/functions/Completion/Unix/_hexdump
>>> /usr/share/zsh/5.8/functions/Completion/Unix/_tcpdump
>>> /usr/share/zsh/5.8/functions/Completion/Unix/_baz
>>> /usr/share/zsh/5.8/functions/Completion/Unix/_service
>>> /usr/share/zsh/5.8/functions/Completion/Unix/_process_names
>>> /usr/share/zsh/5.8/functions/Completion/Unix/_sisu
>>> /usr/share/zsh/5.8/functions/Completion/Unix/_php
>>> /usr/share/zsh/5.8/functions/Completion/Unix/_date_formats
>>> /usr/share/zsh/5.8/functions/Completion/Unix/_postscript
>>> /usr/share/zsh/5.8/functions/Completion/Unix/_ruby
>>> /usr/share/zsh/5.8/functions/Completion/Unix/_gphoto2
>>> /usr/share/zsh/5.8/functions/Completion/Unix/_dvi
>>> /usr/share/zsh/5.8/functions/Completion/Unix/_swaks
>>> /usr/share/zsh/5.8/functions/Completion/Unix/_w3m
>>> /usr/share/zsh/5.8/functions/Completion/Unix/_patch
>>> /usr/share/zsh/5.8/functions/Completion/Unix/_screen
>>> /usr/share/zsh/5.8/functions/Completion/Unix/_nginx
>>> /usr/share/zsh/5.8/functions/Completion/Unix/_uniq
>>> /usr/share/zsh/5.8/functions/Completion/Unix/_pydoc
>>> /usr/share/zsh/5.8/functions/Completion/Unix/_cmdstring
>>> /usr/share/zsh/5.8/functions/Completion/Unix/_lldb
>>> /usr/share/zsh/5.8/functions/Completion/Unix/_mknod
>>> /usr/share/zsh/5.8/functions/Completion/Unix/_bzip2
>>> /usr/share/zsh/5.8/functions/Completion/Unix/_pgrep
>>> /usr/share/zsh/5.8/functions/Completion/Unix/_pspdf
>>> /usr/share/zsh/5.8/functions/Completion/Unix/_gnupod
>>> /usr/share/zsh/5.8/functions/Completion/Unix/_zfs
>>> /usr/share/zsh/5.8/functions/Completion/Unix/_stat
>>> /usr/share/zsh/5.8/functions/Completion/Unix/_vmstat
>>> /usr/share/zsh/5.8/functions/Completion/Unix/_tput
>>> /usr/share/zsh/5.8/functions/Completion/Unix/_pkg_instance
>>> /usr/share/zsh/5.8/functions/Completion/Unix/_shutdown
>>> /usr/share/zsh/5.8/functions/Completion/Unix/_ldconfig
>>> /usr/share/zsh/5.8/functions/Completion/Unix/_cdrdao
>>> /usr/share/zsh/5.8/functions/Completion/Unix/_unexpand
>>> /usr/share/zsh/5.8/functions/Completion/Unix/_basename
>>> /usr/share/zsh/5.8/functions/Completion/Unix/_java_class
>>> /usr/share/zsh/5.8/functions/Completion/Unix/_netstat
>>> /usr/share/zsh/5.8/functions/Completion/Unix/_mtools
>>> /usr/share/zsh/5.8/functions/Completion/Unix/_groups
>>> /usr/share/zsh/5.8/functions/Completion/Unix/_sysctl
>>> /usr/share/zsh/5.8/functions/Completion/Unix/_touch
>>> /usr/share/zsh/5.8/functions/Completion/Unix/_rrdtool
>>> /usr/share/zsh/5.8/functions/Completion/Unix/_pine
>>> /usr/share/zsh/5.8/functions/Completion/Unix/_compress
>>> /usr/share/zsh/5.8/functions/Completion/Unix/_bogofilter
>>> /usr/share/zsh/5.8/functions/Completion/Unix/_nkf
>>> /usr/share/zsh/5.8/functions/Completion/Unix/_pkgrm
>>> /usr/share/zsh/5.8/functions/Completion/Unix/_joe
>>> /usr/share/zsh/5.8/functions/Completion/Unix/_npm
>>> /usr/share/zsh/5.8/functions/Completion/Unix/_fold
>>> /usr/share/zsh/5.8/functions/Completion/Unix/_a2ps
>>> /usr/share/zsh/5.8/functions/Completion/Unix/_env
>>> /usr/share/zsh/5.8/functions/Completion/Unix/_loadkeys
>>> /usr/share/zsh/5.8/functions/Completion/Unix/_zcat
>>> /usr/share/zsh/5.8/functions/Completion/Unix/_openstack
>>> /usr/share/zsh/5.8/functions/Completion/Unix/_sudo
>>> /usr/share/zsh/5.8/functions/Completion/Unix/_chsh
>>> /usr/share/zsh/5.8/functions/Completion/Unix/_python
>>> /usr/share/zsh/5.8/functions/Completion/Unix/_other_accounts
>>> /usr/share/zsh/5.8/functions/Completion/Unix/_rake
>>> /usr/share/zsh/5.8/functions/Completion/Unix/_w
>>> /usr/share/zsh/5.8/functions/Completion/Unix/_rar
>>> /usr/share/zsh/5.8/functions/Completion/Unix/_fuser
>>> /usr/share/zsh/5.8/functions/Completion/Unix/_cplay
>>> /usr/share/zsh/5.8/functions/Completion/Unix/_uptime
>>> /usr/share/zsh/5.8/functions/Completion/Unix/_dmesg
>>> /usr/share/zsh/5.8/functions/Completion/Unix/_figlet
>>> /usr/share/zsh/5.8/functions/Completion/Unix/_mutt
>>> /usr/share/zsh/5.8/functions/Completion/Unix/_ranlib
>>> /usr/share/zsh/5.8/functions/Completion/Unix/_mysqldiff
>>> /usr/share/zsh/5.8/functions/Completion/Unix/_diff3
>>> /usr/share/zsh/5.8/functions/Completion/Unix/_baudrates
>>> /usr/share/zsh/5.8/functions/Completion/Unix/_dates
>>> /usr/share/zsh/5.8/functions/Completion/Unix/_flex
>>> /usr/share/zsh/5.8/functions/Completion/Unix/_asciidoctor
>>> /usr/share/zsh/5.8/functions/Completion/Unix/_domains
>>> /usr/share/zsh/5.8/functions/Completion/Unix/_cscope
>>> /usr/share/zsh/5.8/functions/Completion/Unix/_swanctl
>>> /usr/share/zsh/5.8/functions/Completion/Unix/_od
>>> /usr/share/zsh/5.8/functions/Completion/Unix/_slrn
>>> /usr/share/zsh/5.8/functions/Completion/Unix/_ncftp
>>> /usr/share/zsh/5.8/functions/Completion/Unix/_script
>>> /usr/share/zsh/5.8/functions/Completion/Unix/_seafile
>>> /usr/share/zsh/5.8/functions/Completion/Unix/_pids
>>> /usr/share/zsh/5.8/functions/Completion/Unix/_cat
>>> /usr/share/zsh/5.8/functions/Completion/Unix/_knock
>>> /usr/share/zsh/5.8/functions/Completion/Unix/_ansible
>>> /usr/share/zsh/5.8/functions/Completion/Unix/_subversion
>>> /usr/share/zsh/5.8/functions/Completion/Unix/_vpnc
>>> /usr/share/zsh/5.8/functions/Completion/Unix/_mktemp
>>> /usr/share/zsh/5.8/functions/Completion/Unix/_locale
>>> /usr/share/zsh/5.8/functions/Completion/Unix/_texi
>>> /usr/share/zsh/5.8/functions/Completion/Unix/_shuf
>>> /usr/share/zsh/5.8/functions/Completion/Unix/_crontab
>>> /usr/share/zsh/5.8/functions/Completion/Unix/_genisoimage
>>> /usr/share/zsh/5.8/functions/Completion/Unix/_global_tags
>>> /usr/share/zsh/5.8/functions/Completion/Unix/_qemu
>>> /usr/share/zsh/5.8/functions/Completion/Unix/_tee
>>> /usr/share/zsh/5.8/functions/Completion/Unix/_feh
>>> /usr/share/zsh/5.8/functions/Completion/Unix/_django
>>> /usr/share/zsh/5.8/functions/Completion/Unix/_ip
>>> /usr/share/zsh/5.8/functions/Completion/Unix/_showmount
>>> /usr/share/zsh/5.8/functions/Completion/Unix/_iconv
>>> /usr/share/zsh/5.8/functions/Completion/Unix/_lha
>>> /usr/share/zsh/5.8/functions/Completion/Unix/_watch
>>> /usr/share/zsh/5.8/functions/Completion/Unix/_have_glob_qual
>>> /usr/share/zsh/5.8/functions/Completion/Unix/_perl_basepods
>>> /usr/share/zsh/5.8/functions/Completion/Unix/_nm
>>> /usr/share/zsh/5.8/functions/Completion/Unix/_mkfifo
>>> /usr/share/zsh/5.8/functions/Completion/Unix/_find
>>> /usr/share/zsh/5.8/functions/Completion/Unix/_gem
>>> /usr/share/zsh/5.8/functions/Completion/Unix/_object_files
>>> /usr/share/zsh/5.8/functions/Completion/Unix/_vcsh
>>> /usr/share/zsh/5.8/functions/Completion/Unix/_man
>>> /usr/share/zsh/5.8/functions/Completion/Unix/_wget
>>> /usr/share/zsh/5.8/functions/Completion/Unix/_wiggle
>>> /usr/share/zsh/5.8/functions/Completion/Unix/_cabal
>>> /usr/share/zsh/5.8/functions/Completion/Unix/_ps
>>> /usr/share/zsh/5.8/functions/Completion/Unix/_gcore
>>> /usr/share/zsh/5.8/functions/Completion/Unix/_xxd
>>> /usr/share/zsh/5.8/functions/Completion/Unix/_zdump
>>> /usr/share/zsh/5.8/functions/Completion/Unix/_users
>>> /usr/share/zsh/5.8/functions/Completion/Unix/_canonical_paths
>>> /usr/share/zsh/5.8/functions/Completion/Unix/_rm
>>> /usr/share/zsh/5.8/functions/Completion/Unix/_ls
>>> /usr/share/zsh/5.8/functions/Completion/Unix/_devtodo
>>> /usr/share/zsh/5.8/functions/Completion/Unix/_texinfo
>>> /usr/share/zsh/5.8/functions/Completion/Unix/_diff
>>> /usr/share/zsh/5.8/functions/Completion/Unix/_who
>>> /usr/share/zsh/5.8/functions/Completion/Unix/_cmdambivalent
>>> /usr/share/zsh/5.8/functions/Completion/Unix/_install
>>> /usr/share/zsh/5.8/functions/Completion/Unix/_postfix
>>> /usr/share/zsh/5.8/functions/Completion/Unix/_path_files
>>> /usr/share/zsh/5.8/functions/Completion/Unix/_monotone
>>> /usr/share/zsh/5.8/functions/Completion/Unix/_user_at_host
>>> /usr/share/zsh/5.8/functions/Completion/Unix/_tty
>>> /usr/share/zsh/5.8/functions/Completion/Unix/_paste
>>> /usr/share/zsh/5.8/functions/Completion/Unix/_gcc
>>> /usr/share/zsh/5.8/functions/Completion/Unix/_tcptraceroute
>>> /usr/share/zsh/5.8/functions/Completion/Unix/_pdf
>>> /usr/share/zsh/5.8/functions/Completion/Unix/_readelf
>>> /usr/share/zsh/5.8/functions/Completion/Unix/_bpf_filters
>>> /usr/share/zsh/5.8/functions/Completion/Unix/_stty
>>> /usr/share/zsh/5.8/functions/Completion/Unix/_pbm
>>> /usr/share/zsh/5.8/functions/Completion/Unix/_go
>>> /usr/share/zsh/5.8/functions/Completion/Unix/_locales
>>> /usr/share/zsh/5.8/functions/Completion/Unix/_samba
>>> /usr/share/zsh/5.8/functions/Completion/Unix/_diff_options
>>> /usr/share/zsh/5.8/functions/Completion/Unix/_module
>>> /usr/share/zsh/5.8/functions/Completion/Unix/_whois
>>> /usr/share/zsh/5.8/functions/Completion/Unix/_sqsh
>>> /usr/share/zsh/5.8/functions/Completion/Unix/_xmms2
>>> /usr/share/zsh/5.8/functions/Completion/Unix/_totd
>>> /usr/share/zsh/5.8/functions/Completion/Unix/_augeas
>>> /usr/share/zsh/5.8/functions/Completion/Unix/_tail
>>> /usr/share/zsh/5.8/functions/Completion/Unix/_tac
>>> /usr/share/zsh/5.8/functions/Completion/Unix/_bpython
>>> /usr/share/zsh/5.8/functions/Completion/Unix/_host
>>> /usr/share/zsh/5.8/functions/Completion/Unix/_locate
>>> /usr/share/zsh/5.8/functions/Completion/Unix/_absolute_command_paths
>>> /usr/share/zsh/5.8/functions/Completion/Unix/_bash
>>> /usr/share/zsh/5.8/functions/Completion/Unix/_cpio
>>> /usr/share/zsh/5.8/functions/Completion/Unix/_antiword
>>> /usr/share/zsh/5.8/functions/Completion/Unix/_ld_debug
>>> /usr/share/zsh/5.8/functions/Completion/Unix/_email_addresses
>>> /usr/share/zsh/5.8/functions/Completion/Unix/_strings
>>> /usr/share/zsh/5.8/functions/Completion/Unix/_nmap
>>> /usr/share/zsh/5.8/functions/Completion/Unix/_mv
>>> /usr/share/zsh/5.8/functions/Completion/Unix/_su
>>> /usr/share/zsh/5.8/functions/Completion/Unix/_jq
>>> /usr/share/zsh/5.8/functions/Completion/Unix/_fmt
>>> /usr/share/zsh/5.8/functions/Completion/Unix/_top
>>> /usr/share/zsh/5.8/functions/Completion/Unix/_ecasound
>>> /usr/share/zsh/5.8/functions/Completion/Unix/_prove
>>> /usr/share/zsh/5.8/functions/Completion/Unix/_seq
>>> /usr/share/zsh/5.8/functions/Completion/Unix/_sort
>>> /usr/share/zsh/5.8/functions/Completion/Unix/_unace
>>> /usr/share/zsh/5.8/functions/Completion/Unix/_lsof
>>> /usr/share/zsh/5.8/functions/Completion/Unix/_fetchmail
>>> /usr/share/zsh/5.8/functions/Completion/Unix/_xmlstarlet
>>> /usr/share/zsh/5.8/functions/Completion/Unix/_cowsay
>>> /usr/share/zsh/5.8/functions/Completion/Unix/_tla
>>> /usr/share/zsh/5.8/functions/Completion/Unix/_ping
>>> /usr/share/zsh/5.8/functions/Completion/Unix/_darcs
>>> /usr/share/zsh/5.8/functions/Completion/Unix/_tar
>>> /usr/share/zsh/5.8/functions/Completion/Unix/_cp
>>> /usr/share/zsh/5.8/functions/Completion/Unix/_time_zone
>>> /usr/share/zsh/5.8/functions/Completion/Unix/_transmission
>>> /usr/share/zsh/5.8/functions/Completion/Unix/_rsync
>>> /usr/share/zsh/5.8/functions/Completion/Unix/_lynx
>>> /usr/share/zsh/5.8/functions/Completion/Unix/_mailboxes
>>> /usr/share/zsh/5.8/functions/Completion/Unix/_vim
>>> /usr/share/zsh/5.8/functions/Completion/Unix/_pkgadd
>>> /usr/share/zsh/5.8/functions/Completion/Unix/_dbus
>>> /usr/share/zsh/5.8/functions/Completion/Unix/_getmail
>>> /usr/share/zsh/5.8/functions/Completion/Unix/_cut
>>> /usr/share/zsh/5.8/functions/Completion/Unix/_fakeroot
>>> /usr/share/zsh/5.8/functions/Completion/Unix/_beep
>>> /usr/share/zsh/5.8/functions/Completion/Unix/_tiff
>>> /usr/share/zsh/5.8/functions/Completion/Unix/_directories
>>> /usr/share/zsh/5.8/functions/Completion/Unix/_arping
>>> /usr/share/zsh/5.8/functions/Completion/Unix/_spamassassin
>>> /usr/share/zsh/5.8/functions/Completion/Unix/_runit
>>> /usr/share/zsh/5.8/functions/Completion/Unix/_kvno
>>> /usr/share/zsh/5.8/functions/Completion/Unix/_stow
>>> /usr/share/zsh/5.8/functions/Completion/Unix/_timeout
>>> /usr/share/zsh/5.8/functions/Completion/Unix/_users_on
>>> /usr/share/zsh/5.8/functions/Completion/Unix/_chown
>>> /usr/share/zsh/5.8/functions/Completion/Unix/_cal
>>> /usr/share/zsh/5.8/functions/Completion/Unix/_pwgen
>>> /usr/share/zsh/5.8/functions/Completion/Unix/_look
>>> /usr/share/zsh/5.8/functions/Completion/Unix/_dmidecode
>>> /usr/share/zsh/5.8/functions/Completion/Unix/_telnet
>>> /usr/share/zsh/5.8/functions/Completion/Unix/_visudo
>>> /usr/share/zsh/5.8/functions/Completion/Unix/_xmlsoft
>>> /usr/share/zsh/5.8/functions/Completion/Unix/_entr
>>> /usr/share/zsh/5.8/functions/Completion/Unix/_last
>>> /usr/share/zsh/5.8/functions/Completion/Unix/_hostname
>>> /usr/share/zsh/5.8/functions/Completion/Unix/_file_systems
>>> /usr/share/zsh/5.8/functions/Completion/Unix/_make
>>> /usr/share/zsh/5.8/functions/Completion/Unix/_pkg-config
>>> /usr/share/zsh/5.8/functions/Completion/Unix/_tar_archive
>>> /usr/share/zsh/5.8/functions/Completion/Unix/_toilet
>>> /usr/share/zsh/5.8/functions/Completion/Unix/_aap
>>> /usr/share/zsh/5.8/functions/Completion/Unix/_remote_files
>>> /usr/share/zsh/5.8/functions/Completion/Unix/_yafc
>>> /usr/share/zsh/5.8/functions/Completion/Unix/_chkconfig
>>> /usr/share/zsh/5.8/functions/Completion/Unix/_ghostscript
>>> /usr/share/zsh/5.8/functions/Completion/Unix/_enscript
>>> /usr/share/zsh/5.8/functions/Completion/Unix/_bittorrent
>>> /usr/share/zsh/5.8/functions/Completion/Unix/_bison
>>> /usr/share/zsh/5.8/functions/Completion/Unix/_localedef
>>> /usr/share/zsh/5.8/functions/Completion/Unix/_groff
>>> /usr/share/zsh/5.8/functions/Completion/Unix/_mount
>>> /usr/share/zsh/5.8/functions/Completion/Unix/_id
>>> /usr/share/zsh/5.8/functions/Completion/Unix/_drill
>>> /usr/share/zsh/5.8/functions/Completion/Unix/_quilt
>>> /usr/share/zsh/5.8/functions/Completion/Unix/_umountable
>>> /usr/share/zsh/5.8/functions/Completion/Unix/_dns_types
>>> /usr/share/zsh/5.8/functions/Completion/Unix/_renice
>>> /usr/share/zsh/5.8/functions/Completion/Unix/_fsh
>>> /usr/share/zsh/5.8/functions/Completion/Unix/_zip
>>> /usr/share/zsh/5.8/functions/Completion/Unix/_signals
>>> /usr/share/zsh/5.8/functions/Completion/Unix/_dos2unix
>>> /usr/share/zsh/5.8/functions/Completion/Unix/_nl
>>> /usr/share/zsh/5.8/functions/Completion/Unix/_composer
>>> /usr/share/zsh/5.8/functions/Completion/Unix/_perl
>>> /usr/share/zsh/5.8/functions/Completion/Unix/_cmp
>>> /usr/share/zsh/5.8/functions/Completion/Unix/_sed
>>> /usr/share/zsh/5.8/functions/Completion/Unix/_sh
>>> /usr/share/zsh/5.8/functions/Completion/Unix/_configure
>>> /usr/share/zsh/5.8/functions/Completion/Unix/_ttys
>>> /usr/share/zsh/5.8/functions/Completion/Unix/_df
>>> /usr/share/zsh/5.8/functions/Completion/Unix/_pandoc
>>> /usr/share/zsh/5.8/functions/Completion/Unix/_units
>>> /usr/share/zsh/5.8/functions/Completion/Unix/_moosic
>>> /usr/share/zsh/5.8/functions/Completion/Unix/_gnutls
>>> /usr/share/zsh/5.8/functions/Completion/Unix/_tin
>>> /usr/share/zsh/5.8/functions/Completion/Unix/_shasum
>>> /usr/share/zsh/5.8/functions/Completion/Unix/_curl
>>> /usr/share/zsh/5.8/functions/Completion/Unix/_arch_namespace
>>> /usr/share/zsh/5.8/functions/Completion/Unix/_scons
>>> /usr/share/zsh/5.8/functions/Completion/Unix/_tex
>>> /usr/share/zsh/5.8/functions/Completion/Unix/_mt
>>> /usr/share/zsh/5.8/functions/Completion/Unix/_dconf
>>> /usr/share/zsh/5.8/functions/Completion/Unix/_irssi
>>> /usr/share/zsh/5.8/functions/Completion/Unix/_gpg
>>> /usr/share/zsh/5.8/functions/Completion/Unix/_fortune
>>> /usr/share/zsh/5.8/functions/Completion/Unix/_grep
>>> /usr/share/zsh/5.8/functions/Completion/Unix/_list_files
>>> /usr/share/zsh/5.8/functions/Completion/Unix/_xargs
>>> /usr/share/zsh/5.8/functions/Completion/Unix/_doas
>>> /usr/share/zsh/5.8/functions/Completion/Unix/_mosh
>>> /usr/share/zsh/5.8/functions/Completion/Unix/_join
>>> /usr/share/zsh/5.8/functions/Completion/Unix/_ispell
>>> /usr/share/zsh/5.8/functions/Completion/Unix/_zfs_pool
>>> /usr/share/zsh/5.8/functions/Completion/Unix/_bind_addresses
>>> /usr/share/zsh/5.8/functions/Completion/Unix/_netcat
>>> /usr/share/zsh/5.8/functions/Completion/Unix/_truss
>>> /usr/share/zsh/5.8/functions/Completion/Unix/_attr
>>> /usr/share/zsh/5.8/functions/Completion/Unix/_arch_archives
>>> /usr/share/zsh/5.8/functions/Completion/Unix/_vorbis
>>> /usr/share/zsh/5.8/functions/Completion/Unix/_dict
>>> /usr/share/zsh/5.8/functions/Completion/Unix/_tilde_files
>>> /usr/share/zsh/5.8/functions/Completion/Unix/_ffmpeg
>>> /usr/share/zsh/5.8/functions/Completion/Unix/_cdrecord
>>> /usr/share/zsh/5.8/functions/Completion/Unix/_dtruss
--- /usr/share/zsh/5.8/functions/Completion/Zsh/
>>> /usr/share/zsh/5.8/functions/Completion/Zsh/_set
>>> /usr/share/zsh/5.8/functions/Completion/Zsh/_print
>>> /usr/share/zsh/5.8/functions/Completion/Zsh/_file_descriptors
>>> /usr/share/zsh/5.8/functions/Completion/Zsh/_delimiters
>>> /usr/share/zsh/5.8/functions/Completion/Zsh/_run-help
>>> /usr/share/zsh/5.8/functions/Completion/Zsh/_compdef
>>> /usr/share/zsh/5.8/functions/Completion/Zsh/_zmv
>>> /usr/share/zsh/5.8/functions/Completion/Zsh/_strftime
>>> /usr/share/zsh/5.8/functions/Completion/Zsh/_condition
>>> /usr/share/zsh/5.8/functions/Completion/Zsh/_cd
>>> /usr/share/zsh/5.8/functions/Completion/Zsh/_redirect
>>> /usr/share/zsh/5.8/functions/Completion/Zsh/_zparseopts
>>> /usr/share/zsh/5.8/functions/Completion/Zsh/_ulimit
>>> /usr/share/zsh/5.8/functions/Completion/Zsh/_math
>>> /usr/share/zsh/5.8/functions/Completion/Zsh/_ps1234
>>> /usr/share/zsh/5.8/functions/Completion/Zsh/_compadd
>>> /usr/share/zsh/5.8/functions/Completion/Zsh/_zattr
>>> /usr/share/zsh/5.8/functions/Completion/Zsh/_options
>>> /usr/share/zsh/5.8/functions/Completion/Zsh/_add-zle-hook-widget
>>> /usr/share/zsh/5.8/functions/Completion/Zsh/_assign
>>> /usr/share/zsh/5.8/functions/Completion/Zsh/_widgets
>>> /usr/share/zsh/5.8/functions/Completion/Zsh/_builtin
>>> /usr/share/zsh/5.8/functions/Completion/Zsh/_echotc
>>> /usr/share/zsh/5.8/functions/Completion/Zsh/_equal
>>> /usr/share/zsh/5.8/functions/Completion/Zsh/_enable
>>> /usr/share/zsh/5.8/functions/Completion/Zsh/_zed
>>> /usr/share/zsh/5.8/functions/Completion/Zsh/_dirs
>>> /usr/share/zsh/5.8/functions/Completion/Zsh/_dynamic_directory_name
>>> /usr/share/zsh/5.8/functions/Completion/Zsh/_exec
>>> /usr/share/zsh/5.8/functions/Completion/Zsh/_zcalc_line
>>> /usr/share/zsh/5.8/functions/Completion/Zsh/_limit
>>> /usr/share/zsh/5.8/functions/Completion/Zsh/_setopt
>>> /usr/share/zsh/5.8/functions/Completion/Zsh/_read
>>> /usr/share/zsh/5.8/functions/Completion/Zsh/_command_names
>>> /usr/share/zsh/5.8/functions/Completion/Zsh/_wait
>>> /usr/share/zsh/5.8/functions/Completion/Zsh/_bindkey
>>> /usr/share/zsh/5.8/functions/Completion/Zsh/_tcpsys
>>> /usr/share/zsh/5.8/functions/Completion/Zsh/_alias
>>> /usr/share/zsh/5.8/functions/Completion/Zsh/_zstyle
>>> /usr/share/zsh/5.8/functions/Completion/Zsh/_prompt
>>> /usr/share/zsh/5.8/functions/Completion/Zsh/_command
>>> /usr/share/zsh/5.8/functions/Completion/Zsh/_kill
>>> /usr/share/zsh/5.8/functions/Completion/Zsh/_jobs_builtin
>>> /usr/share/zsh/5.8/functions/Completion/Zsh/_globqual_delims
>>> /usr/share/zsh/5.8/functions/Completion/Zsh/_options_unset
>>> /usr/share/zsh/5.8/functions/Completion/Zsh/_zle
>>> /usr/share/zsh/5.8/functions/Completion/Zsh/_in_vared
>>> /usr/share/zsh/5.8/functions/Completion/Zsh/_precommand
>>> /usr/share/zsh/5.8/functions/Completion/Zsh/_limits
>>> /usr/share/zsh/5.8/functions/Completion/Zsh/_math_params
>>> /usr/share/zsh/5.8/functions/Completion/Zsh/_trap
>>> /usr/share/zsh/5.8/functions/Completion/Zsh/_zpty
>>> /usr/share/zsh/5.8/functions/Completion/Zsh/_functions
>>> /usr/share/zsh/5.8/functions/Completion/Zsh/_globquals
>>> /usr/share/zsh/5.8/functions/Completion/Zsh/_zsh-mime-handler
>>> /usr/share/zsh/5.8/functions/Completion/Zsh/_jobs_bg
>>> /usr/share/zsh/5.8/functions/Completion/Zsh/_which
>>> /usr/share/zsh/5.8/functions/Completion/Zsh/_unhash
>>> /usr/share/zsh/5.8/functions/Completion/Zsh/_aliases
>>> /usr/share/zsh/5.8/functions/Completion/Zsh/_suffix_alias_files
>>> /usr/share/zsh/5.8/functions/Completion/Zsh/_parameters
>>> /usr/share/zsh/5.8/functions/Completion/Zsh/_user_math_func
>>> /usr/share/zsh/5.8/functions/Completion/Zsh/_ttyctl
>>> /usr/share/zsh/5.8/functions/Completion/Zsh/_options_set
>>> /usr/share/zsh/5.8/functions/Completion/Zsh/_subscript
>>> /usr/share/zsh/5.8/functions/Completion/Zsh/_source
>>> /usr/share/zsh/5.8/functions/Completion/Zsh/_value
>>> /usr/share/zsh/5.8/functions/Completion/Zsh/_mere
>>> /usr/share/zsh/5.8/functions/Completion/Zsh/_jobs_fg
>>> /usr/share/zsh/5.8/functions/Completion/Zsh/_default
>>> /usr/share/zsh/5.8/functions/Completion/Zsh/_vars
>>> /usr/share/zsh/5.8/functions/Completion/Zsh/_completers
>>> /usr/share/zsh/5.8/functions/Completion/Zsh/_jobs
>>> /usr/share/zsh/5.8/functions/Completion/Zsh/_globflags
>>> /usr/share/zsh/5.8/functions/Completion/Zsh/_typeset
>>> /usr/share/zsh/5.8/functions/Completion/Zsh/_ztodo
>>> /usr/share/zsh/5.8/functions/Completion/Zsh/_fc
>>> /usr/share/zsh/5.8/functions/Completion/Zsh/_brace_parameter
>>> /usr/share/zsh/5.8/functions/Completion/Zsh/_first
>>> /usr/share/zsh/5.8/functions/Completion/Zsh/_emulate
>>> /usr/share/zsh/5.8/functions/Completion/Zsh/_tilde
>>> /usr/share/zsh/5.8/functions/Completion/Zsh/_module_math_func
>>> /usr/share/zsh/5.8/functions/Completion/Zsh/_zcompile
>>> /usr/share/zsh/5.8/functions/Completion/Zsh/_parameter
>>> /usr/share/zsh/5.8/functions/Completion/Zsh/_echoti
>>> /usr/share/zsh/5.8/functions/Completion/Zsh/_hash
>>> /usr/share/zsh/5.8/functions/Completion/Zsh/_zmodload
>>> /usr/share/zsh/5.8/functions/Completion/Zsh/_history_modifiers
>>> /usr/share/zsh/5.8/functions/Completion/Zsh/_zcalc
>>> /usr/share/zsh/5.8/functions/Completion/Zsh/_autocd
>>> /usr/share/zsh/5.8/functions/Completion/Zsh/_zargs
>>> /usr/share/zsh/5.8/functions/Completion/Zsh/_arrays
>>> /usr/share/zsh/5.8/functions/Completion/Zsh/_sched
>>> /usr/share/zsh/5.8/functions/Completion/Zsh/_zftp
>>> /usr/share/zsh/5.8/functions/Completion/Zsh/_add-zsh-hook
>>> /usr/share/zsh/5.8/functions/Completion/Zsh/_directory_stack
>>> /usr/share/zsh/5.8/functions/Completion/Zsh/_disable
>>> /usr/share/zsh/5.8/functions/Completion/Zsh/_vared
>>> /usr/share/zsh/5.8/functions/Completion/Zsh/_zsocket
--- /usr/share/zsh/5.8/functions/Completion/Redhat/
>>> /usr/share/zsh/5.8/functions/Completion/Redhat/_dnf
>>> /usr/share/zsh/5.8/functions/Completion/Redhat/_rpm
>>> /usr/share/zsh/5.8/functions/Completion/Redhat/_yum
>>> /usr/share/zsh/5.8/functions/Completion/Redhat/_scl
--- /usr/share/zsh/5.8/functions/Completion/BSD/
>>> /usr/share/zsh/5.8/functions/Completion/BSD/_cu
>>> /usr/share/zsh/5.8/functions/Completion/BSD/_bsdinstall
>>> /usr/share/zsh/5.8/functions/Completion/BSD/_obsd_architectures
>>> /usr/share/zsh/5.8/functions/Completion/BSD/_fbsd_device_types
>>> /usr/share/zsh/5.8/functions/Completion/BSD/_fetch
>>> /usr/share/zsh/5.8/functions/Completion/BSD/_gstat
>>> /usr/share/zsh/5.8/functions/Completion/BSD/_bsd_disks
>>> /usr/share/zsh/5.8/functions/Completion/BSD/_jot
>>> /usr/share/zsh/5.8/functions/Completion/BSD/_sysrc
>>> /usr/share/zsh/5.8/functions/Completion/BSD/_watch-snoop
>>> /usr/share/zsh/5.8/functions/Completion/BSD/_portmaster
>>> /usr/share/zsh/5.8/functions/Completion/BSD/_mixerctl
>>> /usr/share/zsh/5.8/functions/Completion/BSD/_jails
>>> /usr/share/zsh/5.8/functions/Completion/BSD/_ldap
>>> /usr/share/zsh/5.8/functions/Completion/BSD/_jls
>>> /usr/share/zsh/5.8/functions/Completion/BSD/_csup
>>> /usr/share/zsh/5.8/functions/Completion/BSD/_fw_update
>>> /usr/share/zsh/5.8/functions/Completion/BSD/_signify
>>> /usr/share/zsh/5.8/functions/Completion/BSD/_vmctl
>>> /usr/share/zsh/5.8/functions/Completion/BSD/_pkgin
>>> /usr/share/zsh/5.8/functions/Completion/BSD/_powerd
>>> /usr/share/zsh/5.8/functions/Completion/BSD/_freebsd-update
>>> /usr/share/zsh/5.8/functions/Completion/BSD/_portaudit
>>> /usr/share/zsh/5.8/functions/Completion/BSD/_bsdconfig
>>> /usr/share/zsh/5.8/functions/Completion/BSD/_pfctl
>>> /usr/share/zsh/5.8/functions/Completion/BSD/_nbsd_architectures
>>> /usr/share/zsh/5.8/functions/Completion/BSD/_jexec
>>> /usr/share/zsh/5.8/functions/Completion/BSD/_portsnap
>>> /usr/share/zsh/5.8/functions/Completion/BSD/_rcctl
>>> /usr/share/zsh/5.8/functions/Completion/BSD/_cvsup
>>> /usr/share/zsh/5.8/functions/Completion/BSD/_chflags
>>> /usr/share/zsh/5.8/functions/Completion/BSD/_file_flags
>>> /usr/share/zsh/5.8/functions/Completion/BSD/_fstat
>>> /usr/share/zsh/5.8/functions/Completion/BSD/_systat
>>> /usr/share/zsh/5.8/functions/Completion/BSD/_fbsd_architectures
>>> /usr/share/zsh/5.8/functions/Completion/BSD/_sockstat
>>> /usr/share/zsh/5.8/functions/Completion/BSD/_portlint
>>> /usr/share/zsh/5.8/functions/Completion/BSD/_procstat
>>> /usr/share/zsh/5.8/functions/Completion/BSD/_jail
>>> /usr/share/zsh/5.8/functions/Completion/BSD/_kld
>>> /usr/share/zsh/5.8/functions/Completion/BSD/_bsd_pkg
--- /usr/share/zsh/5.8/functions/Completion/Solaris/
>>> /usr/share/zsh/5.8/functions/Completion/Solaris/_pkg5
>>> /usr/share/zsh/5.8/functions/Completion/Solaris/_dhcpinfo
>>> /usr/share/zsh/5.8/functions/Completion/Solaris/_ptree
>>> /usr/share/zsh/5.8/functions/Completion/Solaris/_coreadm
>>> /usr/share/zsh/5.8/functions/Completion/Solaris/_inetadm
>>> /usr/share/zsh/5.8/functions/Completion/Solaris/_ipadm
>>> /usr/share/zsh/5.8/functions/Completion/Solaris/_zlogin
>>> /usr/share/zsh/5.8/functions/Completion/Solaris/_snoop
>>> /usr/share/zsh/5.8/functions/Completion/Solaris/_pfexec
>>> /usr/share/zsh/5.8/functions/Completion/Solaris/_zones
>>> /usr/share/zsh/5.8/functions/Completion/Solaris/_zoneadm
>>> /usr/share/zsh/5.8/functions/Completion/Solaris/_dladm
>>> /usr/share/zsh/5.8/functions/Completion/Solaris/_svcs_fmri
>>> /usr/share/zsh/5.8/functions/Completion/Solaris/_flowadm
>>> /usr/share/zsh/5.8/functions/Completion/Solaris/_prstat
>>> /usr/share/zsh/5.8/functions/Completion/Solaris/_svcadm
>>> /usr/share/zsh/5.8/functions/Completion/Solaris/_savecore
>>> /usr/share/zsh/5.8/functions/Completion/Solaris/_svccfg
>>> /usr/share/zsh/5.8/functions/Completion/Solaris/_fmadm
>>> /usr/share/zsh/5.8/functions/Completion/Solaris/_svcs
>>> /usr/share/zsh/5.8/functions/Completion/Solaris/_dtrace
>>> /usr/share/zsh/5.8/functions/Completion/Solaris/_beadm
>>> /usr/share/zsh/5.8/functions/Completion/Solaris/_svcprop
>>> /usr/share/zsh/5.8/functions/Completion/Solaris/_be_name
>>> /usr/share/zsh/5.8/functions/Completion/Solaris/_dumpadm
--- /usr/share/zsh/5.8/functions/Completion/Mandriva/
>>> /usr/share/zsh/5.8/functions/Completion/Mandriva/_urpmi
>>> /usr/share/zsh/5.8/functions/Completion/Mandriva/_rebootin
>>> /usr/share/zsh/5.8/functions/Completion/compaudit
>>> /usr/share/zsh/5.8/functions/Completion/compinit
--- /usr/share/zsh/5.8/functions/Completion/Darwin/
>>> /usr/share/zsh/5.8/functions/Completion/Darwin/_trash
>>> /usr/share/zsh/5.8/functions/Completion/Darwin/_sc_usage
>>> /usr/share/zsh/5.8/functions/Completion/Darwin/_networksetup
>>> /usr/share/zsh/5.8/functions/Completion/Darwin/_xcode-select
>>> /usr/share/zsh/5.8/functions/Completion/Darwin/_nvram
>>> /usr/share/zsh/5.8/functions/Completion/Darwin/_mac_applications
>>> /usr/share/zsh/5.8/functions/Completion/Darwin/_otool
>>> /usr/share/zsh/5.8/functions/Completion/Darwin/_fs_usage
>>> /usr/share/zsh/5.8/functions/Completion/Darwin/_mdfind
>>> /usr/share/zsh/5.8/functions/Completion/Darwin/_scutil
>>> /usr/share/zsh/5.8/functions/Completion/Darwin/_retrieve_mac_apps
>>> /usr/share/zsh/5.8/functions/Completion/Darwin/_defaults
>>> /usr/share/zsh/5.8/functions/Completion/Darwin/_qtplay
>>> /usr/share/zsh/5.8/functions/Completion/Darwin/_mdutil
>>> /usr/share/zsh/5.8/functions/Completion/Darwin/_plutil
>>> /usr/share/zsh/5.8/functions/Completion/Darwin/_osascript
>>> /usr/share/zsh/5.8/functions/Completion/Darwin/_fink
>>> /usr/share/zsh/5.8/functions/Completion/Darwin/_system_profiler
>>> /usr/share/zsh/5.8/functions/Completion/Darwin/_say
>>> /usr/share/zsh/5.8/functions/Completion/Darwin/_hdiutil
>>> /usr/share/zsh/5.8/functions/Completion/Darwin/_mac_files_for_application
>>> /usr/share/zsh/5.8/functions/Completion/Darwin/_open
>>> /usr/share/zsh/5.8/functions/Completion/Darwin/_mdls
>>> /usr/share/zsh/5.8/functions/Completion/Darwin/_softwareupdate
>>> /usr/share/zsh/5.8/functions/Completion/Darwin/_pbcopy
>>> /usr/share/zsh/5.8/functions/Completion/Darwin/_scselect
>>> /usr/share/zsh/5.8/functions/Completion/Darwin/_sw_vers
>>> /usr/share/zsh/5.8/functions/Completion/Darwin/_caffeinate
--- /usr/share/zsh/5.8/functions/Completion/Debian/
>>> /usr/share/zsh/5.8/functions/Completion/Debian/_vim-addons
>>> /usr/share/zsh/5.8/functions/Completion/Debian/_module-assistant
>>> /usr/share/zsh/5.8/functions/Completion/Debian/_dput
>>> /usr/share/zsh/5.8/functions/Completion/Debian/_dchroot-dsa
>>> /usr/share/zsh/5.8/functions/Completion/Debian/_dpkg_source
>>> /usr/share/zsh/5.8/functions/Completion/Debian/_members
>>> /usr/share/zsh/5.8/functions/Completion/Debian/_wanna-build
>>> /usr/share/zsh/5.8/functions/Completion/Debian/_mergechanges
>>> /usr/share/zsh/5.8/functions/Completion/Debian/_dpkg-cross
>>> /usr/share/zsh/5.8/functions/Completion/Debian/_lighttpd
>>> /usr/share/zsh/5.8/functions/Completion/Debian/_wajig
>>> /usr/share/zsh/5.8/functions/Completion/Debian/_debuild
>>> /usr/share/zsh/5.8/functions/Completion/Debian/_invoke-rc.d
>>> /usr/share/zsh/5.8/functions/Completion/Debian/_dpkg-buildpackage
>>> /usr/share/zsh/5.8/functions/Completion/Debian/_pbuilder
>>> /usr/share/zsh/5.8/functions/Completion/Debian/_schroot
>>> /usr/share/zsh/5.8/functions/Completion/Debian/_grep-excuses
>>> /usr/share/zsh/5.8/functions/Completion/Debian/_dupload
>>> /usr/share/zsh/5.8/functions/Completion/Debian/_update-rc.d
>>> /usr/share/zsh/5.8/functions/Completion/Debian/_a2utils
>>> /usr/share/zsh/5.8/functions/Completion/Debian/_update-alternatives
>>> /usr/share/zsh/5.8/functions/Completion/Debian/_deb_architectures
>>> /usr/share/zsh/5.8/functions/Completion/Debian/_deb_codenames
>>> /usr/share/zsh/5.8/functions/Completion/Debian/_madison
>>> /usr/share/zsh/5.8/functions/Completion/Debian/_debbugs_bugnumber
>>> /usr/share/zsh/5.8/functions/Completion/Debian/_aptitude
>>> /usr/share/zsh/5.8/functions/Completion/Debian/_debsign
>>> /usr/share/zsh/5.8/functions/Completion/Debian/_uscan
>>> /usr/share/zsh/5.8/functions/Completion/Debian/_dchroot
>>> /usr/share/zsh/5.8/functions/Completion/Debian/_apt-file
>>> /usr/share/zsh/5.8/functions/Completion/Debian/_apt-show-versions
>>> /usr/share/zsh/5.8/functions/Completion/Debian/_dpkg-repack
>>> /usr/share/zsh/5.8/functions/Completion/Debian/_apt-move
>>> /usr/share/zsh/5.8/functions/Completion/Debian/_sbuild
>>> /usr/share/zsh/5.8/functions/Completion/Debian/_make-kpkg
>>> /usr/share/zsh/5.8/functions/Completion/Debian/_dak
>>> /usr/share/zsh/5.8/functions/Completion/Debian/_piuparts
>>> /usr/share/zsh/5.8/functions/Completion/Debian/_dpatch-edit-patch
>>> /usr/share/zsh/5.8/functions/Completion/Debian/_dcut
>>> /usr/share/zsh/5.8/functions/Completion/Debian/_svn-buildpackage
>>> /usr/share/zsh/5.8/functions/Completion/Debian/_deb_files
>>> /usr/share/zsh/5.8/functions/Completion/Debian/_cdbs-edit-patch
>>> /usr/share/zsh/5.8/functions/Completion/Debian/_debfoster
>>> /usr/share/zsh/5.8/functions/Completion/Debian/_toolchain-source
>>> /usr/share/zsh/5.8/functions/Completion/Debian/_apt
>>> /usr/share/zsh/5.8/functions/Completion/Debian/_reprepro
>>> /usr/share/zsh/5.8/functions/Completion/Debian/_lintian
>>> /usr/share/zsh/5.8/functions/Completion/Debian/_axi-cache
>>> /usr/share/zsh/5.8/functions/Completion/Debian/_dlocate
>>> /usr/share/zsh/5.8/functions/Completion/Debian/_debdiff
>>> /usr/share/zsh/5.8/functions/Completion/Debian/_bug
>>> /usr/share/zsh/5.8/functions/Completion/Debian/_deb_packages
>>> /usr/share/zsh/5.8/functions/Completion/Debian/_git-buildpackage
>>> /usr/share/zsh/5.8/functions/Completion/Debian/_dpkg
>>> /usr/share/zsh/5.8/functions/Completion/Debian/_auto-apt
>>> /usr/share/zsh/5.8/functions/Completion/Debian/_deborphan
>>> /usr/share/zsh/5.8/functions/Completion/Debian/_bts
>>> /usr/share/zsh/5.8/functions/Completion/Debian/_debchange
>>> /usr/share/zsh/5.8/functions/Completion/Debian/_debcheckout
--- /usr/share/zsh/5.8/functions/Completion/Base/
>>> /usr/share/zsh/5.8/functions/Completion/Base/_complete_help_generic
>>> /usr/share/zsh/5.8/functions/Completion/Base/_multi_parts
>>> /usr/share/zsh/5.8/functions/Completion/Base/_set_command
>>> /usr/share/zsh/5.8/functions/Completion/Base/_match
>>> /usr/share/zsh/5.8/functions/Completion/Base/_menu
>>> /usr/share/zsh/5.8/functions/Completion/Base/_sequence
>>> /usr/share/zsh/5.8/functions/Completion/Base/_main_complete
>>> /usr/share/zsh/5.8/functions/Completion/Base/_history_complete_word
>>> /usr/share/zsh/5.8/functions/Completion/Base/_most_recent_file
>>> /usr/share/zsh/5.8/functions/Completion/Base/_values
>>> /usr/share/zsh/5.8/functions/Completion/Base/_external_pwds
>>> /usr/share/zsh/5.8/functions/Completion/Base/_normal
>>> /usr/share/zsh/5.8/functions/Completion/Base/_arguments
>>> /usr/share/zsh/5.8/functions/Completion/Base/_description
>>> /usr/share/zsh/5.8/functions/Completion/Base/_expand
>>> /usr/share/zsh/5.8/functions/Completion/Base/_cache_invalid
>>> /usr/share/zsh/5.8/functions/Completion/Base/_pick_variant
>>> /usr/share/zsh/5.8/functions/Completion/Base/_call_function
>>> /usr/share/zsh/5.8/functions/Completion/Base/_regex_arguments
>>> /usr/share/zsh/5.8/functions/Completion/Base/_history
>>> /usr/share/zsh/5.8/functions/Completion/Base/_expand_word
>>> /usr/share/zsh/5.8/functions/Completion/Base/_setup
>>> /usr/share/zsh/5.8/functions/Completion/Base/_next_tags
>>> /usr/share/zsh/5.8/functions/Completion/Base/_sub_commands
>>> /usr/share/zsh/5.8/functions/Completion/Base/_complete_debug
>>> /usr/share/zsh/5.8/functions/Completion/Base/_wanted
>>> /usr/share/zsh/5.8/functions/Completion/Base/_tags
>>> /usr/share/zsh/5.8/functions/Completion/Base/_all_labels
>>> /usr/share/zsh/5.8/functions/Completion/Base/_dispatch
>>> /usr/share/zsh/5.8/functions/Completion/Base/_complete
>>> /usr/share/zsh/5.8/functions/Completion/Base/_message
>>> /usr/share/zsh/5.8/functions/Completion/Base/_describe
>>> /usr/share/zsh/5.8/functions/Completion/Base/_alternative
>>> /usr/share/zsh/5.8/functions/Completion/Base/_generic
>>> /usr/share/zsh/5.8/functions/Completion/Base/_complete_tag
>>> /usr/share/zsh/5.8/functions/Completion/Base/_user_expand
>>> /usr/share/zsh/5.8/functions/Completion/Base/_correct
>>> /usr/share/zsh/5.8/functions/Completion/Base/_expand_alias
>>> /usr/share/zsh/5.8/functions/Completion/Base/_correct_word
>>> /usr/share/zsh/5.8/functions/Completion/Base/_requested
>>> /usr/share/zsh/5.8/functions/Completion/Base/_correct_filename
>>> /usr/share/zsh/5.8/functions/Completion/Base/_complete_help
>>> /usr/share/zsh/5.8/functions/Completion/Base/_list
>>> /usr/share/zsh/5.8/functions/Completion/Base/_next_label
>>> /usr/share/zsh/5.8/functions/Completion/Base/_prefix
>>> /usr/share/zsh/5.8/functions/Completion/Base/_retrieve_cache
>>> /usr/share/zsh/5.8/functions/Completion/Base/_bash_completions
>>> /usr/share/zsh/5.8/functions/Completion/Base/_store_cache
>>> /usr/share/zsh/5.8/functions/Completion/Base/_sep_parts
>>> /usr/share/zsh/5.8/functions/Completion/Base/_combination
>>> /usr/share/zsh/5.8/functions/Completion/Base/_oldlist
>>> /usr/share/zsh/5.8/functions/Completion/Base/_arg_compile
>>> /usr/share/zsh/5.8/functions/Completion/Base/_approximate
>>> /usr/share/zsh/5.8/functions/Completion/Base/_all_matches
>>> /usr/share/zsh/5.8/functions/Completion/Base/_guard
>>> /usr/share/zsh/5.8/functions/Completion/Base/_read_comp
>>> /usr/share/zsh/5.8/functions/Completion/Base/_extensions
>>> /usr/share/zsh/5.8/functions/Completion/Base/_nothing
>>> /usr/share/zsh/5.8/functions/Completion/Base/_regex_words
>>> /usr/share/zsh/5.8/functions/Completion/Base/_call_program
>>> /usr/share/zsh/5.8/functions/Completion/Base/_comp_locale
>>> /usr/share/zsh/5.8/functions/Completion/Base/_ignored
--- /usr/share/zsh/5.8/functions/Completion/openSUSE/
>>> /usr/share/zsh/5.8/functions/Completion/openSUSE/_SUSEconfig
>>> /usr/share/zsh/5.8/functions/Completion/openSUSE/_yast
>>> /usr/share/zsh/5.8/functions/Completion/openSUSE/_zypper
>>> /usr/share/zsh/5.8/functions/Completion/openSUSE/_hwinfo
>>> /usr/share/zsh/5.8/functions/Completion/openSUSE/_osc
--- /usr/share/zsh/5.8/functions/Completion/Cygwin/
>>> /usr/share/zsh/5.8/functions/Completion/Cygwin/_mkshortcut
>>> /usr/share/zsh/5.8/functions/Completion/Cygwin/_cygrunsrv
>>> /usr/share/zsh/5.8/functions/Completion/Cygwin/_putclip
>>> /usr/share/zsh/5.8/functions/Completion/Cygwin/_cygstart
>>> /usr/share/zsh/5.8/functions/Completion/Cygwin/_getclip
>>> /usr/share/zsh/5.8/functions/Completion/Cygwin/_dumper
>>> /usr/share/zsh/5.8/functions/Completion/Cygwin/_pscp
>>> /usr/share/zsh/5.8/functions/Completion/Cygwin/_readshortcut
>>> /usr/share/zsh/5.8/functions/Completion/Cygwin/_mkzsh
>>> /usr/share/zsh/5.8/functions/Completion/Cygwin/_cygserver
>>> /usr/share/zsh/5.8/functions/Completion/Cygwin/_cygcheck
>>> /usr/share/zsh/5.8/functions/Completion/Cygwin/_cygpath
--- /usr/share/zsh/5.8/functions/Completion/AIX/
>>> /usr/share/zsh/5.8/functions/Completion/AIX/_logical_volumes
>>> /usr/share/zsh/5.8/functions/Completion/AIX/_lspv
>>> /usr/share/zsh/5.8/functions/Completion/AIX/_lslv
>>> /usr/share/zsh/5.8/functions/Completion/AIX/_lscfg
>>> /usr/share/zsh/5.8/functions/Completion/AIX/_volume_groups
>>> /usr/share/zsh/5.8/functions/Completion/AIX/_physical_volumes
>>> /usr/share/zsh/5.8/functions/Completion/AIX/_object_classes
>>> /usr/share/zsh/5.8/functions/Completion/AIX/_lsvg
>>> /usr/share/zsh/5.8/functions/Completion/AIX/_smit
>>> /usr/share/zsh/5.8/functions/Completion/AIX/_lsdev
>>> /usr/share/zsh/5.8/functions/Completion/AIX/_floppy
--- /usr/share/zsh/5.8/functions/Completion/Linux/
>>> /usr/share/zsh/5.8/functions/Completion/Linux/_pidof
>>> /usr/share/zsh/5.8/functions/Completion/Linux/_kpartx
>>> /usr/share/zsh/5.8/functions/Completion/Linux/_wpa_cli
>>> /usr/share/zsh/5.8/functions/Completion/Linux/_lsusb
>>> /usr/share/zsh/5.8/functions/Completion/Linux/_sshfs
>>> /usr/share/zsh/5.8/functions/Completion/Linux/_wipefs
>>> /usr/share/zsh/5.8/functions/Completion/Linux/_tune2fs
>>> /usr/share/zsh/5.8/functions/Completion/Linux/_pmap
>>> /usr/share/zsh/5.8/functions/Completion/Linux/_acpitool
>>> /usr/share/zsh/5.8/functions/Completion/Linux/_brctl
>>> /usr/share/zsh/5.8/functions/Completion/Linux/_strace
>>> /usr/share/zsh/5.8/functions/Completion/Linux/_selinux_contexts
>>> /usr/share/zsh/5.8/functions/Completion/Linux/_valgrind
>>> /usr/share/zsh/5.8/functions/Completion/Linux/_mondo
>>> /usr/share/zsh/5.8/functions/Completion/Linux/_lsblk
>>> /usr/share/zsh/5.8/functions/Completion/Linux/_alsa-utils
>>> /usr/share/zsh/5.8/functions/Completion/Linux/_htop
>>> /usr/share/zsh/5.8/functions/Completion/Linux/_slabtop
>>> /usr/share/zsh/5.8/functions/Completion/Linux/_cpupower
>>> /usr/share/zsh/5.8/functions/Completion/Linux/_mii-tool
>>> /usr/share/zsh/5.8/functions/Completion/Linux/_schedtool
>>> /usr/share/zsh/5.8/functions/Completion/Linux/_vserver
>>> /usr/share/zsh/5.8/functions/Completion/Linux/_lsattr
>>> /usr/share/zsh/5.8/functions/Completion/Linux/_gpasswd
>>> /usr/share/zsh/5.8/functions/Completion/Linux/_networkmanager
>>> /usr/share/zsh/5.8/functions/Completion/Linux/_fuse_values
>>> /usr/share/zsh/5.8/functions/Completion/Linux/_modutils
>>> /usr/share/zsh/5.8/functions/Completion/Linux/_tpb
>>> /usr/share/zsh/5.8/functions/Completion/Linux/_ethtool
>>> /usr/share/zsh/5.8/functions/Completion/Linux/_ionice
>>> /usr/share/zsh/5.8/functions/Completion/Linux/_tload
>>> /usr/share/zsh/5.8/functions/Completion/Linux/_acpi
>>> /usr/share/zsh/5.8/functions/Completion/Linux/_ss
>>> /usr/share/zsh/5.8/functions/Completion/Linux/_setsid
>>> /usr/share/zsh/5.8/functions/Completion/Linux/_sysstat
>>> /usr/share/zsh/5.8/functions/Completion/Linux/_ltrace
>>> /usr/share/zsh/5.8/functions/Completion/Linux/_fusermount
>>> /usr/share/zsh/5.8/functions/Completion/Linux/_btrfs
>>> /usr/share/zsh/5.8/functions/Completion/Linux/_selinux_users
>>> /usr/share/zsh/5.8/functions/Completion/Linux/_analyseplugin
>>> /usr/share/zsh/5.8/functions/Completion/Linux/_fuse_arguments
>>> /usr/share/zsh/5.8/functions/Completion/Linux/_selinux_roles
>>> /usr/share/zsh/5.8/functions/Completion/Linux/_mdadm
>>> /usr/share/zsh/5.8/functions/Completion/Linux/_iconvconfig
>>> /usr/share/zsh/5.8/functions/Completion/Linux/_e2label
>>> /usr/share/zsh/5.8/functions/Completion/Linux/_opkg
>>> /usr/share/zsh/5.8/functions/Completion/Linux/_dkms
>>> /usr/share/zsh/5.8/functions/Completion/Linux/_findmnt
>>> /usr/share/zsh/5.8/functions/Completion/Linux/_selinux_types
>>> /usr/share/zsh/5.8/functions/Completion/Linux/_iptables
>>> /usr/share/zsh/5.8/functions/Completion/Linux/_uml
>>> /usr/share/zsh/5.8/functions/Completion/Linux/_ipset
>>> /usr/share/zsh/5.8/functions/Completion/Linux/_qdbus
>>> /usr/share/zsh/5.8/functions/Completion/Linux/_chattr
>>> /usr/share/zsh/5.8/functions/Completion/Linux/_wakeup_capable_devices
>>> /usr/share/zsh/5.8/functions/Completion/Linux/_free
>>> /usr/share/zsh/5.8/functions/Completion/Linux/_cryptsetup
>>> /usr/share/zsh/5.8/functions/Completion/Linux/_iwconfig
>>> /usr/share/zsh/5.8/functions/Completion/Linux/_chcon
>>> /usr/share/zsh/5.8/functions/Completion/Linux/_pkgtool
>>> /usr/share/zsh/5.8/functions/Completion/Linux/_losetup
>>> /usr/share/zsh/5.8/functions/Completion/Linux/_chrt
>>> /usr/share/zsh/5.8/functions/Completion/Linux/_tracepath
>>> /usr/share/zsh/5.8/functions/Completion/compdump
>>> /usr/share/zsh/5.8/functions/Completion/compinstall
>>> /usr/share/zsh/5.8/functions/Completion/bashcompinit
--- /usr/share/zsh/5.8/functions/Completion/X/
>>> /usr/share/zsh/5.8/functions/Completion/X/_gv
>>> /usr/share/zsh/5.8/functions/Completion/X/_pdftk
>>> /usr/share/zsh/5.8/functions/Completion/X/_x_display
>>> /usr/share/zsh/5.8/functions/Completion/X/_x_arguments
>>> /usr/share/zsh/5.8/functions/Completion/X/_mozilla
>>> /usr/share/zsh/5.8/functions/Completion/X/_x_resource
>>> /usr/share/zsh/5.8/functions/Completion/X/_setxkbmap
>>> /usr/share/zsh/5.8/functions/Completion/X/_x_cursor
>>> /usr/share/zsh/5.8/functions/Completion/X/_kfmclient
>>> /usr/share/zsh/5.8/functions/Completion/X/_dcop
>>> /usr/share/zsh/5.8/functions/Completion/X/_x_visual
>>> /usr/share/zsh/5.8/functions/Completion/X/_gqview
>>> /usr/share/zsh/5.8/functions/Completion/X/_xv
>>> /usr/share/zsh/5.8/functions/Completion/X/_netscape
>>> /usr/share/zsh/5.8/functions/Completion/X/_xfig
>>> /usr/share/zsh/5.8/functions/Completion/X/_gnome-gv
>>> /usr/share/zsh/5.8/functions/Completion/X/_x_color
>>> /usr/share/zsh/5.8/functions/Completion/X/_xscreensaver
>>> /usr/share/zsh/5.8/functions/Completion/X/_xt_session_id
>>> /usr/share/zsh/5.8/functions/Completion/X/_qiv
>>> /usr/share/zsh/5.8/functions/Completion/X/_x_name
>>> /usr/share/zsh/5.8/functions/Completion/X/_geany
>>> /usr/share/zsh/5.8/functions/Completion/X/_x_geometry
>>> /usr/share/zsh/5.8/functions/Completion/X/_x_extension
>>> /usr/share/zsh/5.8/functions/Completion/X/_urxvt
>>> /usr/share/zsh/5.8/functions/Completion/X/_okular
>>> /usr/share/zsh/5.8/functions/Completion/X/_mupdf
>>> /usr/share/zsh/5.8/functions/Completion/X/_acroread
>>> /usr/share/zsh/5.8/functions/Completion/X/_xmodmap
>>> /usr/share/zsh/5.8/functions/Completion/X/_xloadimage
>>> /usr/share/zsh/5.8/functions/Completion/X/_x_colormapid
>>> /usr/share/zsh/5.8/functions/Completion/X/_xt_arguments
>>> /usr/share/zsh/5.8/functions/Completion/X/_x_locale
>>> /usr/share/zsh/5.8/functions/Completion/X/_xclip
>>> /usr/share/zsh/5.8/functions/Completion/X/_xauth
>>> /usr/share/zsh/5.8/functions/Completion/X/_xrandr
>>> /usr/share/zsh/5.8/functions/Completion/X/_xautolock
>>> /usr/share/zsh/5.8/functions/Completion/X/_x_font
>>> /usr/share/zsh/5.8/functions/Completion/X/_matlab
>>> /usr/share/zsh/5.8/functions/Completion/X/_xdvi
>>> /usr/share/zsh/5.8/functions/Completion/X/_x_window
>>> /usr/share/zsh/5.8/functions/Completion/X/_xterm
>>> /usr/share/zsh/5.8/functions/Completion/X/_xpdf
>>> /usr/share/zsh/5.8/functions/Completion/X/_vnc
>>> /usr/share/zsh/5.8/functions/Completion/X/_xset
>>> /usr/share/zsh/5.8/functions/Completion/X/_x_title
>>> /usr/share/zsh/5.8/functions/Completion/X/_x_keysym
>>> /usr/share/zsh/5.8/functions/Completion/X/_x_borderwidth
>>> /usr/share/zsh/5.8/functions/Completion/X/_evince
>>> /usr/share/zsh/5.8/functions/Completion/X/_xwit
>>> /usr/share/zsh/5.8/functions/Completion/X/_nedit
>>> /usr/share/zsh/5.8/functions/Completion/X/_sublimetext
>>> /usr/share/zsh/5.8/functions/Completion/X/_code
>>> /usr/share/zsh/5.8/functions/Completion/X/_xft_fonts
>>> /usr/share/zsh/5.8/functions/Completion/X/_kdeconnect
>>> /usr/share/zsh/5.8/functions/Completion/X/_eog
>>> /usr/share/zsh/5.8/functions/Completion/X/_x_utils
>>> /usr/share/zsh/5.8/functions/Completion/X/_x_selection_timeout
>>> /usr/share/zsh/5.8/functions/Completion/X/_mplayer
>>> /usr/share/zsh/5.8/functions/Completion/X/_x_modifier
>>> /usr/share/zsh/5.8/functions/Completion/X/_zeal
>>> /usr/share/zsh/5.8/functions/Completion/X/_rdesktop
>>> /usr/share/zsh/5.8/functions/Completion/X/_nautilus
>>> /usr/share/zsh/5.8/functions/Completion/X/_xournal
--- /usr/share/zsh/5.8/functions/Exceptions/
>>> /usr/share/zsh/5.8/functions/Exceptions/throw
>>> /usr/share/zsh/5.8/functions/Exceptions/catch
--- /usr/share/zsh/5.8/functions/Zftp/
>>> /usr/share/zsh/5.8/functions/Zftp/zfput
>>> /usr/share/zsh/5.8/functions/Zftp/zftp_progress
>>> /usr/share/zsh/5.8/functions/Zftp/zfget
>>> /usr/share/zsh/5.8/functions/Zftp/zfmark
>>> /usr/share/zsh/5.8/functions/Zftp/zfinit
>>> /usr/share/zsh/5.8/functions/Zftp/zfstat
>>> /usr/share/zsh/5.8/functions/Zftp/zfsession
>>> /usr/share/zsh/5.8/functions/Zftp/zfdir
>>> /usr/share/zsh/5.8/functions/Zftp/zfcd_match
>>> /usr/share/zsh/5.8/functions/Zftp/zfclose
>>> /usr/share/zsh/5.8/functions/Zftp/zffcache
>>> /usr/share/zsh/5.8/functions/Zftp/zfuget
>>> /usr/share/zsh/5.8/functions/Zftp/zfget_match
>>> /usr/share/zsh/5.8/functions/Zftp/zfcput
>>> /usr/share/zsh/5.8/functions/Zftp/zfopen
>>> /usr/share/zsh/5.8/functions/Zftp/zfautocheck
>>> /usr/share/zsh/5.8/functions/Zftp/zftransfer
>>> /usr/share/zsh/5.8/functions/Zftp/zfrtime
>>> /usr/share/zsh/5.8/functions/Zftp/zftype
>>> /usr/share/zsh/5.8/functions/Zftp/zfcget
>>> /usr/share/zsh/5.8/functions/Zftp/zfhere
>>> /usr/share/zsh/5.8/functions/Zftp/zfrglob
>>> /usr/share/zsh/5.8/functions/Zftp/zfuput
>>> /usr/share/zsh/5.8/functions/Zftp/zftp_chpwd
>>> /usr/share/zsh/5.8/functions/Zftp/zfgcp
>>> /usr/share/zsh/5.8/functions/Zftp/zfgoto
>>> /usr/share/zsh/5.8/functions/Zftp/zfcd
>>> /usr/share/zsh/5.8/functions/Zftp/zfls
>>> /usr/share/zsh/5.8/functions/Zftp/zfparams
>>> /usr/share/zsh/5.8/functions/Zftp/zfanon
>>> /usr/share/zsh/5.8/functions/Zftp/zfpcp
--- /usr/share/zsh/5.8/functions/Zle/
>>> /usr/share/zsh/5.8/functions/Zle/match-word-context
>>> /usr/share/zsh/5.8/functions/Zle/cycle-completion-positions
>>> /usr/share/zsh/5.8/functions/Zle/match-words-by-style
>>> /usr/share/zsh/5.8/functions/Zle/down-case-word-match
>>> /usr/share/zsh/5.8/functions/Zle/surround
>>> /usr/share/zsh/5.8/functions/Zle/quote-and-complete-word
>>> /usr/share/zsh/5.8/functions/Zle/send-invisible
>>> /usr/share/zsh/5.8/functions/Zle/backward-kill-word-match
>>> /usr/share/zsh/5.8/functions/Zle/up-line-or-beginning-search
>>> /usr/share/zsh/5.8/functions/Zle/delete-whole-word-match
>>> /usr/share/zsh/5.8/functions/Zle/define-composed-chars
>>> /usr/share/zsh/5.8/functions/Zle/bracketed-paste-url-magic
>>> /usr/share/zsh/5.8/functions/Zle/replace-string
>>> /usr/share/zsh/5.8/functions/Zle/history-search-end
>>> /usr/share/zsh/5.8/functions/Zle/forward-word-match
>>> /usr/share/zsh/5.8/functions/Zle/down-line-or-beginning-search
>>> /usr/share/zsh/5.8/functions/Zle/insert-composed-char
>>> /usr/share/zsh/5.8/functions/Zle/up-case-word-match
>>> /usr/share/zsh/5.8/functions/Zle/select-word-match
>>> /usr/share/zsh/5.8/functions/Zle/edit-command-line
>>> /usr/share/zsh/5.8/functions/Zle/narrow-to-region-invisible
>>> /usr/share/zsh/5.8/functions/Zle/select-word-style
>>> /usr/share/zsh/5.8/functions/Zle/split-shell-arguments
>>> /usr/share/zsh/5.8/functions/Zle/predict-on
>>> /usr/share/zsh/5.8/functions/Zle/move-line-in-buffer
>>> /usr/share/zsh/5.8/functions/Zle/insert-unicode-char
>>> /usr/share/zsh/5.8/functions/Zle/history-pattern-search
>>> /usr/share/zsh/5.8/functions/Zle/transpose-words-match
>>> /usr/share/zsh/5.8/functions/Zle/select-bracketed
>>> /usr/share/zsh/5.8/functions/Zle/modify-current-argument
>>> /usr/share/zsh/5.8/functions/Zle/history-beginning-search-menu
>>> /usr/share/zsh/5.8/functions/Zle/vi-pipe
>>> /usr/share/zsh/5.8/functions/Zle/replace-argument
>>> /usr/share/zsh/5.8/functions/Zle/read-from-minibuffer
>>> /usr/share/zsh/5.8/functions/Zle/which-command
>>> /usr/share/zsh/5.8/functions/Zle/select-quoted
>>> /usr/share/zsh/5.8/functions/Zle/bracketed-paste-magic
>>> /usr/share/zsh/5.8/functions/Zle/copy-earlier-word
>>> /usr/share/zsh/5.8/functions/Zle/kill-word-match
>>> /usr/share/zsh/5.8/functions/Zle/narrow-to-region
>>> /usr/share/zsh/5.8/functions/Zle/url-quote-magic
>>> /usr/share/zsh/5.8/functions/Zle/smart-insert-last-word
>>> /usr/share/zsh/5.8/functions/Zle/expand-absolute-path
>>> /usr/share/zsh/5.8/functions/Zle/incremental-complete-word
>>> /usr/share/zsh/5.8/functions/Zle/incarg
>>> /usr/share/zsh/5.8/functions/Zle/zcalc-auto-insert
>>> /usr/share/zsh/5.8/functions/Zle/replace-string-again
>>> /usr/share/zsh/5.8/functions/Zle/capitalize-word-match
>>> /usr/share/zsh/5.8/functions/Zle/keymap+widget
>>> /usr/share/zsh/5.8/functions/Zle/zed-set-file-name
>>> /usr/share/zsh/5.8/functions/Zle/keeper
>>> /usr/share/zsh/5.8/functions/Zle/insert-files
>>> /usr/share/zsh/5.8/functions/Zle/transpose-lines
>>> /usr/share/zsh/5.8/functions/Zle/backward-word-match
--- /usr/share/zsh/5.8/functions/Chpwd/
>>> /usr/share/zsh/5.8/functions/Chpwd/zsh_directory_name_generic
>>> /usr/share/zsh/5.8/functions/Chpwd/chpwd_recent_filehandler
>>> /usr/share/zsh/5.8/functions/Chpwd/zsh_directory_name_cdr
>>> /usr/share/zsh/5.8/functions/Chpwd/_cdr
>>> /usr/share/zsh/5.8/functions/Chpwd/cdr
>>> /usr/share/zsh/5.8/functions/Chpwd/chpwd_recent_dirs
>>> /usr/share/zsh/5.8/functions/Chpwd/chpwd_recent_add
--- /usr/share/zsh/5.8/functions/VCS_Info/
>>> /usr/share/zsh/5.8/functions/VCS_Info/VCS_INFO_reposub
>>> /usr/share/zsh/5.8/functions/VCS_Info/VCS_INFO_hexdump
>>> /usr/share/zsh/5.8/functions/VCS_Info/VCS_INFO_nvcsformats
>>> /usr/share/zsh/5.8/functions/VCS_Info/vcs_info_setsys
>>> /usr/share/zsh/5.8/functions/VCS_Info/VCS_INFO_adjust
>>> /usr/share/zsh/5.8/functions/VCS_Info/VCS_INFO_bydir_detect
>>> /usr/share/zsh/5.8/functions/VCS_Info/vcs_info_hookadd
>>> /usr/share/zsh/5.8/functions/VCS_Info/vcs_info_lastmsg
>>> /usr/share/zsh/5.8/functions/VCS_Info/VCS_INFO_hook
>>> /usr/share/zsh/5.8/functions/VCS_Info/VCS_INFO_patch2subject
>>> /usr/share/zsh/5.8/functions/VCS_Info/VCS_INFO_set
>>> /usr/share/zsh/5.8/functions/VCS_Info/VCS_INFO_get_cmd
>>> /usr/share/zsh/5.8/functions/VCS_Info/VCS_INFO_check_com
>>> /usr/share/zsh/5.8/functions/VCS_Info/vcs_info_hookdel
>>> /usr/share/zsh/5.8/functions/VCS_Info/vcs_info
>>> /usr/share/zsh/5.8/functions/VCS_Info/VCS_INFO_quilt
--- /usr/share/zsh/5.8/functions/VCS_Info/Backends/
>>> /usr/share/zsh/5.8/functions/VCS_Info/Backends/VCS_INFO_get_data_git
>>> /usr/share/zsh/5.8/functions/VCS_Info/Backends/VCS_INFO_get_data_tla
>>> /usr/share/zsh/5.8/functions/VCS_Info/Backends/VCS_INFO_get_data_svk
>>> /usr/share/zsh/5.8/functions/VCS_Info/Backends/VCS_INFO_get_data_mtn
>>> /usr/share/zsh/5.8/functions/VCS_Info/Backends/VCS_INFO_detect_tla
>>> /usr/share/zsh/5.8/functions/VCS_Info/Backends/VCS_INFO_get_data_hg
>>> /usr/share/zsh/5.8/functions/VCS_Info/Backends/VCS_INFO_detect_svk
>>> /usr/share/zsh/5.8/functions/VCS_Info/Backends/VCS_INFO_detect_hg
>>> /usr/share/zsh/5.8/functions/VCS_Info/Backends/VCS_INFO_detect_cvs
>>> /usr/share/zsh/5.8/functions/VCS_Info/Backends/VCS_INFO_detect_mtn
>>> /usr/share/zsh/5.8/functions/VCS_Info/Backends/VCS_INFO_detect_git
>>> /usr/share/zsh/5.8/functions/VCS_Info/Backends/VCS_INFO_get_data_fossil
>>> /usr/share/zsh/5.8/functions/VCS_Info/Backends/VCS_INFO_detect_p4
>>> /usr/share/zsh/5.8/functions/VCS_Info/Backends/VCS_INFO_detect_bzr
>>> /usr/share/zsh/5.8/functions/VCS_Info/Backends/VCS_INFO_get_data_p4
>>> /usr/share/zsh/5.8/functions/VCS_Info/Backends/VCS_INFO_detect_darcs
>>> /usr/share/zsh/5.8/functions/VCS_Info/Backends/VCS_INFO_get_data_bzr
>>> /usr/share/zsh/5.8/functions/VCS_Info/Backends/VCS_INFO_detect_fossil
>>> /usr/share/zsh/5.8/functions/VCS_Info/Backends/VCS_INFO_get_data_cdv
>>> /usr/share/zsh/5.8/functions/VCS_Info/Backends/VCS_INFO_get_data_svn
>>> /usr/share/zsh/5.8/functions/VCS_Info/Backends/VCS_INFO_get_data_darcs
>>> /usr/share/zsh/5.8/functions/VCS_Info/Backends/VCS_INFO_detect_svn
>>> /usr/share/zsh/5.8/functions/VCS_Info/Backends/VCS_INFO_detect_cdv
>>> /usr/share/zsh/5.8/functions/VCS_Info/Backends/VCS_INFO_get_data_cvs
>>> /usr/share/zsh/5.8/functions/VCS_Info/vcs_info_printsys
>>> /usr/share/zsh/5.8/functions/VCS_Info/VCS_INFO_set-patch-format
>>> /usr/share/zsh/5.8/functions/VCS_Info/VCS_INFO_formats
>>> /usr/share/zsh/5.8/functions/VCS_Info/VCS_INFO_maxexports
--- /usr/share/zsh/5.8/functions/Math/
>>> /usr/share/zsh/5.8/functions/Math/zmathfunc
--- /usr/share/zsh/5.8/functions/MIME/
>>> /usr/share/zsh/5.8/functions/MIME/zsh-mime-handler
>>> /usr/share/zsh/5.8/functions/MIME/zsh-mime-setup
>>> /usr/share/zsh/5.8/functions/MIME/zsh-mime-contexts
>>> /usr/share/zsh/5.8/functions/MIME/pick-web-browser
--- /usr/share/zsh/5.8/scripts/
>>> /usr/share/zsh/5.8/scripts/newuser
--- /usr/share/zsh/5.8/help/
>>> /usr/share/zsh/5.8/help/ztcp
>>> /usr/share/zsh/5.8/help/which -> whence
>>> /usr/share/zsh/5.8/help/unalias -> unhash
>>> /usr/share/zsh/5.8/help/dot
>>> /usr/share/zsh/5.8/help/unfunction -> unhash
>>> /usr/share/zsh/5.8/help/compgroups
>>> /usr/share/zsh/5.8/help/clone
>>> /usr/share/zsh/5.8/help/zprof
>>> /usr/share/zsh/5.8/help/ulimit
>>> /usr/share/zsh/5.8/help/builtin
>>> /usr/share/zsh/5.8/help/compvalues
>>> /usr/share/zsh/5.8/help/jobs
>>> /usr/share/zsh/5.8/help/let
>>> /usr/share/zsh/5.8/help/where -> whence
>>> /usr/share/zsh/5.8/help/suspend
>>> /usr/share/zsh/5.8/help/emulate
>>> /usr/share/zsh/5.8/help/functions
>>> /usr/share/zsh/5.8/help/wait
>>> /usr/share/zsh/5.8/help/pushd
>>> /usr/share/zsh/5.8/help/fg
>>> /usr/share/zsh/5.8/help/setcap
>>> /usr/share/zsh/5.8/help/zftp
>>> /usr/share/zsh/5.8/help/cd
>>> /usr/share/zsh/5.8/help/command
>>> /usr/share/zsh/5.8/help/type -> whence
>>> /usr/share/zsh/5.8/help/set
>>> /usr/share/zsh/5.8/help/zregexparse
>>> /usr/share/zsh/5.8/help/r -> fc
>>> /usr/share/zsh/5.8/help/disable
>>> /usr/share/zsh/5.8/help/getcap
>>> /usr/share/zsh/5.8/help/vared
>>> /usr/share/zsh/5.8/help/read
>>> /usr/share/zsh/5.8/help/unset
>>> /usr/share/zsh/5.8/help/zsocket
>>> /usr/share/zsh/5.8/help/getln
>>> /usr/share/zsh/5.8/help/true
>>> /usr/share/zsh/5.8/help/unlimit
>>> /usr/share/zsh/5.8/help/log
>>> /usr/share/zsh/5.8/help/comptags
>>> /usr/share/zsh/5.8/help/readonly -> typeset
>>> /usr/share/zsh/5.8/help/ttyctl
>>> /usr/share/zsh/5.8/help/pwd
>>> /usr/share/zsh/5.8/help/zparseopts
>>> /usr/share/zsh/5.8/help/local -> typeset
>>> /usr/share/zsh/5.8/help/trap
>>> /usr/share/zsh/5.8/help/whence
>>> /usr/share/zsh/5.8/help/getopts
>>> /usr/share/zsh/5.8/help/compcall
>>> /usr/share/zsh/5.8/help/umask
>>> /usr/share/zsh/5.8/help/typeset
>>> /usr/share/zsh/5.8/help/comptry
>>> /usr/share/zsh/5.8/help/hash
>>> /usr/share/zsh/5.8/help/print
>>> /usr/share/zsh/5.8/help/float -> typeset
>>> /usr/share/zsh/5.8/help/source
>>> /usr/share/zsh/5.8/help/zmodload
>>> /usr/share/zsh/5.8/help/alias
>>> /usr/share/zsh/5.8/help/rehash -> hash
>>> /usr/share/zsh/5.8/help/exit
>>> /usr/share/zsh/5.8/help/setopt
>>> /usr/share/zsh/5.8/help/logout -> exit
>>> /usr/share/zsh/5.8/help/integer -> typeset
>>> /usr/share/zsh/5.8/help/unhash
>>> /usr/share/zsh/5.8/help/continue
>>> /usr/share/zsh/5.8/help/return
>>> /usr/share/zsh/5.8/help/disown
>>> /usr/share/zsh/5.8/help/break
>>> /usr/share/zsh/5.8/help/compctl
>>> /usr/share/zsh/5.8/help/sched
>>> /usr/share/zsh/5.8/help/declare -> typeset
>>> /usr/share/zsh/5.8/help/exec
>>> /usr/share/zsh/5.8/help/times
>>> /usr/share/zsh/5.8/help/test
>>> /usr/share/zsh/5.8/help/eval
>>> /usr/share/zsh/5.8/help/printf
>>> /usr/share/zsh/5.8/help/bg
>>> /usr/share/zsh/5.8/help/dirs
>>> /usr/share/zsh/5.8/help/autoload
>>> /usr/share/zsh/5.8/help/history -> fc
>>> /usr/share/zsh/5.8/help/compquote
>>> /usr/share/zsh/5.8/help/echotc
>>> /usr/share/zsh/5.8/help/zle
>>> /usr/share/zsh/5.8/help/compdescribe
>>> /usr/share/zsh/5.8/help/popd
>>> /usr/share/zsh/5.8/help/zpty
>>> /usr/share/zsh/5.8/help/cap
>>> /usr/share/zsh/5.8/help/zcompile
>>> /usr/share/zsh/5.8/help/shift
>>> /usr/share/zsh/5.8/help/zformat
>>> /usr/share/zsh/5.8/help/colon
>>> /usr/share/zsh/5.8/help/noglob
>>> /usr/share/zsh/5.8/help/bindkey
>>> /usr/share/zsh/5.8/help/bye -> exit
>>> /usr/share/zsh/5.8/help/comparguments
>>> /usr/share/zsh/5.8/help/echo
>>> /usr/share/zsh/5.8/help/kill
>>> /usr/share/zsh/5.8/help/pushln -> print
>>> /usr/share/zsh/5.8/help/chdir -> cd
>>> /usr/share/zsh/5.8/help/compfiles
>>> /usr/share/zsh/5.8/help/false
>>> /usr/share/zsh/5.8/help/stat
>>> /usr/share/zsh/5.8/help/enable
>>> /usr/share/zsh/5.8/help/echoti
>>> /usr/share/zsh/5.8/help/zstyle
>>> /usr/share/zsh/5.8/help/limit
>>> /usr/share/zsh/5.8/help/export
>>> /usr/share/zsh/5.8/help/fc
>>> /usr/share/zsh/5.8/help/unsetopt
--- /usr/share/zsh/site-functions/
>>> /usr/share/zsh/site-functions/.keep_app-shells_zsh-0
--- /usr/share/man/
--- /usr/share/man/man1/
>>> /usr/share/man/man1/zshcompwid.1.bz2
>>> /usr/share/man/man1/zsh.1.bz2
>>> /usr/share/man/man1/zshall.1.bz2
>>> /usr/share/man/man1/zshcompsys.1.bz2
>>> /usr/share/man/man1/zshcontrib.1.bz2
>>> /usr/share/man/man1/zshexpn.1.bz2
>>> /usr/share/man/man1/zshtcpsys.1.bz2
>>> /usr/share/man/man1/zshzle.1.bz2
>>> /usr/share/man/man1/zshmisc.1.bz2
>>> /usr/share/man/man1/zshroadmap.1.bz2
>>> /usr/share/man/man1/zshoptions.1.bz2
>>> /usr/share/man/man1/zshzftpsys.1.bz2
>>> /usr/share/man/man1/zshcompctl.1.bz2
>>> /usr/share/man/man1/zshparam.1.bz2
>>> /usr/share/man/man1/zshbuiltins.1.bz2
>>> /usr/share/man/man1/zshmodules.1.bz2
>>> /usr/share/man/man1/zshcalsys.1.bz2
--- /usr/include/
--- /usr/include/zsh/
>>> /usr/include/zsh/hashnameddir.epro
>>> /usr/include/zsh/lex.epro
>>> /usr/include/zsh/version.h
>>> /usr/include/zsh/options.epro
>>> /usr/include/zsh/openssh_bsd_setres_id.epro
>>> /usr/include/zsh/mem.epro
>>> /usr/include/zsh/wcwidth9.h
>>> /usr/include/zsh/utils.epro
>>> /usr/include/zsh/hashtable.h
>>> /usr/include/zsh/input.epro
>>> /usr/include/zsh/zsh_system.h
>>> /usr/include/zsh/compat.epro
>>> /usr/include/zsh/zshpaths.h
>>> /usr/include/zsh/signals.h
>>> /usr/include/zsh/loop.epro
>>> /usr/include/zsh/watch.epro
>>> /usr/include/zsh/hashtable.epro
>>> /usr/include/zsh/pattern.epro
>>> /usr/include/zsh/zsh.h
>>> /usr/include/zsh/zshxmods.h
>>> /usr/include/zsh/hist.epro
>>> /usr/include/zsh/exec.epro
>>> /usr/include/zsh/signals.epro
>>> /usr/include/zsh/glob.epro
>>> /usr/include/zsh/sort.epro
>>> /usr/include/zsh/text.epro
>>> /usr/include/zsh/math.epro
>>> /usr/include/zsh/string.epro
>>> /usr/include/zsh/prototypes.h
>>> /usr/include/zsh/main.epro
>>> /usr/include/zsh/module.epro
>>> /usr/include/zsh/ztype.h
>>> /usr/include/zsh/patchlevel.h
>>> /usr/include/zsh/subst.epro
>>> /usr/include/zsh/zshterm.h
>>> /usr/include/zsh/context.epro
>>> /usr/include/zsh/prompt.epro
>>> /usr/include/zsh/parse.epro
>>> /usr/include/zsh/jobs.epro
>>> /usr/include/zsh/params.epro
>>> /usr/include/zsh/sigcount.h
>>> /usr/include/zsh/cond.epro
>>> /usr/include/zsh/zshcurses.h
>>> /usr/include/zsh/builtin.epro
>>> /usr/include/zsh/init.epro
>>> /usr/include/zsh/config.h
>>> /usr/include/zsh/signames.epro
>>> /usr/include/zsh/zsh.mdh
>>> /usr/include/zsh/linklist.epro
--- /bin/
>>> /bin/zsh-5.8
>>> /bin/zsh
>>> Safely unmerging already-installed instance...
>>> Original instance of package unmerged safely.
>>> app-shells/zsh-5.8 merged.
