 * Package:    app-eselect/eselect-infinality-1.1
 * Repository: gentoo
 * Maintainer: fonts@gentoo.org
 * USE:        abi_x86_64 amd64 elibc_glibc kernel_linux userland_GNU
 * FEATURES:   ccache network-sandbox preserve-libs sandbox userpriv usersandbox
 * FEATURES='assume-digests binpkg-docompress binpkg-dostrip binpkg-logs binpkg-multi-instance buildpkg ccache compress-index config-protect-if-modified distlocks downgrade-backup fixlafiles ipc-sandbox merge-sync multilib-strict network-sandbox news nodoc parallel-fetch parallel-install pid-sandbox preserve-libs qa-unresolved-soname-deps sandbox sfperms strict unknown-features-warn unmerge-backup unmerge-logs unmerge-orphans userfetch userpriv usersandbox usersync xattr'
 * CFLAGS='-march=znver2 -O3 -fgraphite-identity -floop-nest-optimize -fdevirtualize-at-ltrans -fipa-pta -fno-semantic-interposition -flto=12 -fno-plt -fno-signed-zeros -fno-trapping-math -fassociative-math -freciprocal-math -fno-math-errno -ffinite-math-only -fno-rounding-math -fno-signaling-nans -fcx-limited-range -fexcess-precision=fast -falign-functions=32 -fno-stack-protector -fno-stack-clash-protection -fstack-check=no -fno-stack-check -fuse-linker-plugin -pipe -g0 -Wl,-O1 -Wl,--as-needed -Wl,-z,norelro -Wl,-z,now -Wl,--sort-common -s'
 * CXXFLAGS='-march=znver2 -O3 -fgraphite-identity -floop-nest-optimize -fdevirtualize-at-ltrans -fipa-pta -fno-semantic-interposition -flto=12 -fno-plt -fno-signed-zeros -fno-trapping-math -fassociative-math -freciprocal-math -fno-math-errno -ffinite-math-only -fno-rounding-math -fno-signaling-nans -fcx-limited-range -fexcess-precision=fast -falign-functions=32 -fno-stack-protector -fno-stack-clash-protection -fstack-check=no -fno-stack-check -fuse-linker-plugin -pipe -g0 -Wl,-O1 -Wl,--as-needed -Wl,-z,norelro -Wl,-z,now -Wl,--sort-common -s'
 * FFLAGS='-march=znver2 -O3 -fgraphite-identity -floop-nest-optimize -fdevirtualize-at-ltrans -fipa-pta -fno-semantic-interposition -flto=12 -fno-plt -fno-signed-zeros -fno-trapping-math -fassociative-math -freciprocal-math -fno-math-errno -ffinite-math-only -fno-rounding-math -fno-signaling-nans -fcx-limited-range -fexcess-precision=fast -falign-functions=32 -fno-stack-protector -fno-stack-clash-protection -fstack-check=no -fno-stack-check -fuse-linker-plugin -pipe -g0 -Wl,-O1 -Wl,--as-needed -Wl,-z,norelro -Wl,-z,now -Wl,--sort-common -s'
 * FCFLAGS='-march=znver2 -O3 -fgraphite-identity -floop-nest-optimize -fdevirtualize-at-ltrans -fipa-pta -fno-semantic-interposition -flto=12 -fno-plt -fno-signed-zeros -fno-trapping-math -fassociative-math -freciprocal-math -fno-math-errno -ffinite-math-only -fno-rounding-math -fno-signaling-nans -fcx-limited-range -fexcess-precision=fast -falign-functions=32 -fno-stack-protector -fno-stack-clash-protection -fstack-check=no -fno-stack-check -fuse-linker-plugin -pipe -g0 -Wl,-O1 -Wl,--as-needed -Wl,-z,norelro -Wl,-z,now -Wl,--sort-common -s'
 * F77FLAGS='-march=znver2 -O3 -fgraphite-identity -floop-nest-optimize -fdevirtualize-at-ltrans -fipa-pta -fno-semantic-interposition -flto=12 -fno-plt -fno-signed-zeros -fno-trapping-math -fassociative-math -freciprocal-math -fno-math-errno -ffinite-math-only -fno-rounding-math -fno-signaling-nans -fcx-limited-range -fexcess-precision=fast -falign-functions=32 -fno-stack-protector -fno-stack-clash-protection -fstack-check=no -fno-stack-check -fuse-linker-plugin -pipe -g0 -Wl,-O1 -Wl,--as-needed -Wl,-z,norelro -Wl,-z,now -Wl,--sort-common -s'
 * LDFLAGS='-Wl,-O1 -Wl,--as-needed -Wl,-z,norelro -Wl,-z,now -Wl,--sort-common -s -march=znver2 -O3 -fgraphite-identity -floop-nest-optimize -fdevirtualize-at-ltrans -fipa-pta -fno-semantic-interposition -flto=12 -fno-plt -fno-signed-zeros -fno-trapping-math -fassociative-math -freciprocal-math -fno-math-errno -ffinite-math-only -fno-rounding-math -fno-signaling-nans -fcx-limited-range -fexcess-precision=fast -falign-functions=32 -fno-stack-protector -fno-stack-clash-protection -fstack-check=no -fno-stack-check -fuse-linker-plugin -pipe -g0'
 * MAKEOPTS='-j12 -l12'
 * gcc () 11.0.0 20200530 (experimental)
 * g++ () 11.0.0 20200530 (experimental)
 * GNU ld (Gentoo 2.34 p4) 2.34.0
 * Linux ryzen.gnum.org 5.4.36 #1 SMP Thu Apr 30 04:38:28 UTC 2020 x86_64 AMD Ryzen 5 3600 6-Core Processor AuthenticAMD GNU/Linux
app-eselect/eselect-infinality: 8 seconds average for 10 merges
2020-05-19T23:51:39 >>> app-eselect/eselect-infinality: 4 seconds
2020-05-20T01:37:45 >>> app-eselect/eselect-infinality: 5 seconds
2020-05-23T12:32:48 >>> app-eselect/eselect-infinality: 14 seconds
2020-05-25T00:07:02 >>> app-eselect/eselect-infinality: 10 seconds
2020-05-25T18:43:27 >>> app-eselect/eselect-infinality: 9 seconds
2020-05-25T20:14:17 >>> app-eselect/eselect-infinality: 9 seconds
2020-05-27T02:26:05 >>> app-eselect/eselect-infinality: 6 seconds
2020-05-27T03:31:56 >>> app-eselect/eselect-infinality: 16 seconds
2020-05-28T14:40:29 >>> app-eselect/eselect-infinality: 6 seconds
2020-05-29T02:03:23 >>> app-eselect/eselect-infinality: 9 seconds
]0;emerge 23:42:55 1590874975:  >>> unmerge success: app-shells/gentoo-zsh-completions-20180228 eselect-infinality 00:10 (root@ryzen.gnum.org)kemerge 23:42:55 1590874975:  >>> unmerge success: app-shells/gentoo-zsh-completions-20180228 eselect-infinality 00:10 (root@ryzen.gnum.org)\>>> Unpacking source...
>>> Unpacking eselect-infinality-1.1.tar.gz to /tmp/portage/app-eselect/eselect-infinality-1.1/work
>>> Source unpacked in /tmp/portage/app-eselect/eselect-infinality-1.1/work
>>> Preparing source in /tmp/portage/app-eselect/eselect-infinality-1.1/work/eselect-infinality-1.1 ...
>>> Source prepared.
>>> Configuring source in /tmp/portage/app-eselect/eselect-infinality-1.1/work/eselect-infinality-1.1 ...
>>> Source configured.
>>> Compiling source in /tmp/portage/app-eselect/eselect-infinality-1.1/work/eselect-infinality-1.1 ...
>>> Source compiled.
>>> Test phase [not enabled]: app-eselect/eselect-infinality-1.1

>>> Install app-eselect/eselect-infinality-1.1 into /tmp/portage/app-eselect/eselect-infinality-1.1/image/
>>> Completed installing app-eselect/eselect-infinality-1.1 into /tmp/portage/app-eselect/eselect-infinality-1.1/image/

 * Final size of build directory: 36 KiB
 * Final size of installed tree:  40 KiB

./
./usr/
./usr/share/
./usr/share/eselect/
./usr/share/eselect/modules/
./usr/share/eselect/modules/infinality.eselect
./usr/share/doc/
./usr/share/doc/eselect-infinality-1.1/
./usr/share/doc/eselect-infinality-1.1/README.rst.bz2
./usr/share/doc/eselect-infinality-1.1/README.gentoo
>>> Done.
 * checking 1 files for package collisions
[32;01m * [39;49;00mBuilding package for app-eselect/eselect-infinality-1.1 ...           [34;01m[ [39;49;00m[32;01mok[39;49;00m[34;01m ][39;49;00m
[32;01m * [39;49;00mPackages now in '/usr/portage/packages':
[32;01m * [39;49;00mapp-eselect/eselect-infinality-1.1: 18.8K

>>> Merging app-eselect/eselect-infinality-1.1 to /
 * removing unneeded *.la files
--- /usr/
--- /usr/share/
--- /usr/share/eselect/
--- /usr/share/eselect/modules/
>>> /usr/share/eselect/modules/infinality.eselect
>>> Safely unmerging already-installed instance...
>>> Original instance of package unmerged safely.
>>> app-eselect/eselect-infinality-1.1 merged.
