 * Package:    app-eselect/eselect-vi-1.1.9-r1
 * Repository: gentoo
 * Maintainer: vim@gentoo.org
 * USE:        abi_x86_64 amd64 elibc_glibc kernel_linux userland_GNU
 * FEATURES:   ccache network-sandbox preserve-libs sandbox userpriv usersandbox
 * FEATURES='assume-digests binpkg-docompress binpkg-dostrip binpkg-logs binpkg-multi-instance buildpkg ccache cgroup collision-protect compress-index config-protect-if-modified distlocks downgrade-backup fixlafiles ipc-sandbox merge-sync multilib-strict network-sandbox news nodoc parallel-fetch parallel-install pid-sandbox preserve-libs protect-owned qa-unresolved-soname-deps sandbox sfperms strict strict-keepdir unknown-features-warn unmerge-backup unmerge-logs unmerge-orphans userfetch userpriv usersandbox usersync xattr'
 * CFLAGS='-march=native -O3 -fgraphite-identity -floop-nest-optimize -fdevirtualize-at-ltrans -fipa-pta -fno-semantic-interposition -flto=12 -fno-plt -fno-math-errno -fno-trapping-math -fuse-linker-plugin -pipe -g0 -Wl,-O1 -Wl,--as-needed -Wl,--hash-style=gnu,-z,norelro,--as-needed'
 * CXXFLAGS='-march=native -O3 -fgraphite-identity -floop-nest-optimize -fdevirtualize-at-ltrans -fipa-pta -fno-semantic-interposition -flto=12 -fno-plt -fno-math-errno -fno-trapping-math -fuse-linker-plugin -pipe -g0 -Wl,-O1 -Wl,--as-needed -Wl,--hash-style=gnu,-z,norelro,--as-needed'
 * FFLAGS='-march=native -O3 -fgraphite-identity -floop-nest-optimize -fdevirtualize-at-ltrans -fipa-pta -fno-semantic-interposition -flto=12 -fno-plt -fno-math-errno -fno-trapping-math -fuse-linker-plugin -pipe -g0 -Wl,-O1 -Wl,--as-needed -Wl,--hash-style=gnu,-z,norelro,--as-needed'
 * FCFLAGS='-march=native -O3 -fgraphite-identity -floop-nest-optimize -fdevirtualize-at-ltrans -fipa-pta -fno-semantic-interposition -flto=12 -fno-plt -fno-math-errno -fno-trapping-math -fuse-linker-plugin -pipe -g0 -Wl,-O1 -Wl,--as-needed -Wl,--hash-style=gnu,-z,norelro,--as-needed'
 * F77FLAGS='-march=native -O3 -fgraphite-identity -floop-nest-optimize -fdevirtualize-at-ltrans -fipa-pta -fno-semantic-interposition -flto=12 -fno-plt -fno-math-errno -fno-trapping-math -fuse-linker-plugin -pipe -g0 -Wl,-O1 -Wl,--as-needed -Wl,--hash-style=gnu,-z,norelro,--as-needed'
 * LDFLAGS='-Wl,-O1 -Wl,--as-needed -Wl,--hash-style=gnu,-z,norelro,--as-needed -march=native -O3 -fgraphite-identity -floop-nest-optimize -fdevirtualize-at-ltrans -fipa-pta -fno-semantic-interposition -flto=12 -fno-plt -fno-math-errno -fno-trapping-math -fuse-linker-plugin -pipe -g0'
 * MAKEOPTS='-j12 -l12'
 * gcc (Gentoo 11.0.0_pre9999 p1, commit 584d52b088f9fcf78704b504c3f1f07e17c1cded) 11.0.0 20200523 (experimental)
 * g++ (Gentoo 11.0.0_pre9999 p1, commit 584d52b088f9fcf78704b504c3f1f07e17c1cded) 11.0.0 20200523 (experimental)
 * GNU ld (Gentoo 2.34 p4) 2.34.0
 * Linux ryzen.gnum.org 5.4.36 #1 SMP Thu Apr 30 04:38:28 UTC 2020 x86_64 AMD Ryzen 5 3600 6-Core Processor AuthenticAMD GNU/Linux
app-eselect/eselect-vi: 2 minutes, 42 seconds average for 3 merges
2020-05-20T08:19:05 >>> app-eselect/eselect-vi: 7 minutes, 48 seconds
2020-05-21T06:32:10 >>> app-eselect/eselect-vi: 6 seconds
2020-05-23T03:45:42 >>> app-eselect/eselect-vi: 13 seconds
]0;emerge 23:56:38 59|525 eselect-vi 02:42 (root@ryzen.gnum.org)>>> Unpacking source...
>>> Unpacking eselect-vi-1.1.9.tar.xz to /tmp/portage/app-eselect/eselect-vi-1.1.9-r1/work
>>> Source unpacked in /tmp/portage/app-eselect/eselect-vi-1.1.9-r1/work
>>> Preparing source in /tmp/portage/app-eselect/eselect-vi-1.1.9-r1/work/eselect-vi-1.1.9 ...
>>> Source prepared.
>>> Configuring source in /tmp/portage/app-eselect/eselect-vi-1.1.9-r1/work/eselect-vi-1.1.9 ...
>>> Source configured.
>>> Compiling source in /tmp/portage/app-eselect/eselect-vi-1.1.9-r1/work/eselect-vi-1.1.9 ...
>>> Source compiled.
>>> Test phase [not enabled]: app-eselect/eselect-vi-1.1.9-r1

>>> Install app-eselect/eselect-vi-1.1.9-r1 into /tmp/portage/app-eselect/eselect-vi-1.1.9-r1/image
>>> Completed installing app-eselect/eselect-vi-1.1.9-r1 into /tmp/portage/app-eselect/eselect-vi-1.1.9-r1/image

 * Final size of build directory: 40 KiB
 * Final size of installed tree:  28 KiB

./
./usr/
./usr/share/
./usr/share/eselect/
./usr/share/eselect/modules/
./usr/share/eselect/modules/vi.eselect
>>> Done.
 * checking 1 files for package collisions
>>> Merging app-eselect/eselect-vi-1.1.9-r1 to /
 * removing unneeded *.la files
--- /usr/
--- /usr/share/
--- /usr/share/eselect/
--- /usr/share/eselect/modules/
>>> /usr/share/eselect/modules/vi.eselect
>>> Safely unmerging already-installed instance...
>>> Original instance of package unmerged safely.
>>> app-eselect/eselect-vi-1.1.9-r1 merged.
