 * Package:    app-arch/pbzip2-1.1.13
 * Repository: gentoo
 * Maintainer: polynomial-c@gentoo.org
 * USE:        abi_x86_64 amd64 elibc_glibc kernel_linux symlink userland_GNU
 * FEATURES:   ccache network-sandbox preserve-libs userpriv
 * /etc/portage/package.cflags/ltoworkarounds.conf -> */*: *FLAGS+=-Wl,-O4 *FLAGS-=-Wl,-O1
 * FEATURES='assume-digests binpkg-docompress binpkg-dostrip binpkg-logs buildpkg ccache cgroup compress-index config-protect-if-modified distlocks ebuild-locks fixlafiles merge-sync multilib-strict network-sandbox news nodoc parallel-fetch preserve-libs qa-unresolved-soname-deps sfperms strict strict-keepdir unknown-features-warn unmerge-logs unmerge-orphans userfetch userpriv usersync xattr'
 * CFLAGS='-march=znver2 -Ofast -pipe -g0 -fgraphite-identity -floop-interchange -floop-nest-optimize -floop-parallelize-all -ftree-parallelize-loops=12 -ftree-vectorize -fdevirtualize-at-ltrans -fipa-pta -fno-semantic-interposition -flto=12 -fno-plt -falign-functions=32 -fno-stack-protector -fno-stack-clash-protection -fstack-check=no -fno-stack-check -fuse-linker-plugin -Wl,-O4 -Wl,-O4,--sort-common,--as-needed,-z,norelro,-z,now'
 * CXXFLAGS='-march=znver2 -Ofast -pipe -g0 -fgraphite-identity -floop-interchange -floop-nest-optimize -floop-parallelize-all -ftree-parallelize-loops=12 -ftree-vectorize -fdevirtualize-at-ltrans -fipa-pta -fno-semantic-interposition -flto=12 -fno-plt -falign-functions=32 -fno-stack-protector -fno-stack-clash-protection -fstack-check=no -fno-stack-check -fuse-linker-plugin -Wl,-O4 -Wl,-O4,--sort-common,--as-needed,-z,norelro,-z,now'
 * FFLAGS='-march=znver2 -Ofast -pipe -g0 -fgraphite-identity -floop-interchange -floop-nest-optimize -floop-parallelize-all -ftree-parallelize-loops=12 -ftree-vectorize -fdevirtualize-at-ltrans -fipa-pta -fno-semantic-interposition -flto=12 -fno-plt -falign-functions=32 -fno-stack-protector -fno-stack-clash-protection -fstack-check=no -fno-stack-check -fuse-linker-plugin -Wl,-O4 -Wl,-O4,--sort-common,--as-needed,-z,norelro,-z,now'
 * FCFLAGS='-march=znver2 -Ofast -pipe -g0 -fgraphite-identity -floop-interchange -floop-nest-optimize -floop-parallelize-all -ftree-parallelize-loops=12 -ftree-vectorize -fdevirtualize-at-ltrans -fipa-pta -fno-semantic-interposition -flto=12 -fno-plt -falign-functions=32 -fno-stack-protector -fno-stack-clash-protection -fstack-check=no -fno-stack-check -fuse-linker-plugin -Wl,-O4 -Wl,-O4,--sort-common,--as-needed,-z,norelro,-z,now'
 * F77FLAGS='-march=znver2 -Ofast -pipe -g0 -fgraphite-identity -floop-interchange -floop-nest-optimize -floop-parallelize-all -ftree-parallelize-loops=12 -ftree-vectorize -fdevirtualize-at-ltrans -fipa-pta -fno-semantic-interposition -flto=12 -fno-plt -falign-functions=32 -fno-stack-protector -fno-stack-clash-protection -fstack-check=no -fno-stack-check -fuse-linker-plugin -Wl,-O4 -Wl,-O4,--sort-common,--as-needed,-z,norelro,-z,now'
 * LDFLAGS='-Wl,-O4,--sort-common,--as-needed,-z,norelro,-z,now -march=znver2 -Ofast -pipe -g0 -fgraphite-identity -floop-interchange -floop-nest-optimize -floop-parallelize-all -ftree-parallelize-loops=12 -ftree-vectorize -fdevirtualize-at-ltrans -fipa-pta -fno-semantic-interposition -flto=12 -fno-plt -falign-functions=32 -fno-stack-protector -fno-stack-clash-protection -fstack-check=no -fno-stack-check -fuse-linker-plugin -Wl,-O4'
 * MAKEOPTS='-j12 -l12'
 * gcc (Gentoo 11.0.0_pre9999 p1, commit 184c21bf1cd04a108ed9bd04635e7d57ac39f616) 11.0.0 20200611 (experimental)
 * g++ (Gentoo 11.0.0_pre9999 p1, commit 184c21bf1cd04a108ed9bd04635e7d57ac39f616) 11.0.0 20200611 (experimental)
 * GNU ld (Gentoo 2.34 p4) 2.34.0
 * Linux rescue 5.4.36 #1 SMP Thu Apr 30 04:38:28 UTC 2020 x86_64 AMD Ryzen 5 3600 6-Core Processor AuthenticAMD GNU/Linux
app-arch/pbzip2: 12 seconds average for 1 merge
2020-06-06T20:58:18 >>> app-arch/pbzip2: 12 seconds
]0;emerge 03:07:09 6|262 pbzip2 00:12 (root@rescue)>>> Unpacking source...
>>> Unpacking pbzip2-1.1.13.tar.gz to /tmp/portage/app-arch/pbzip2-1.1.13/work
>>> Source unpacked in /tmp/portage/app-arch/pbzip2-1.1.13/work
>>> Preparing source in /tmp/portage/app-arch/pbzip2-1.1.13/work/pbzip2-1.1.13 ...
 * Applying pbzip2-1.1.10-makefile.patch ...
 [ ok ]
>>> Source prepared.
>>> Configuring source in /tmp/portage/app-arch/pbzip2-1.1.13/work/pbzip2-1.1.13 ...
>>> Source configured.
>>> Compiling source in /tmp/portage/app-arch/pbzip2-1.1.13/work/pbzip2-1.1.13 ...
make -j12 -l12 
x86_64-pc-linux-gnu-g++ -march=znver2 -Ofast -pipe -g0 -fgraphite-identity -floop-interchange -floop-nest-optimize -floop-parallelize-all -ftree-parallelize-loops=12 -ftree-vectorize -fdevirtualize-at-ltrans -fipa-pta -fno-semantic-interposition -flto=12 -fno-plt -falign-functions=32 -fno-stack-protector -fno-stack-clash-protection -fstack-check=no -fno-stack-check -fuse-linker-plugin -Wl,-O4 -Wl,-O4,--sort-common,--as-needed,-z,norelro,-z,now -D_LARGEFILE64_SOURCE -D_FILE_OFFSET_BITS=64 -DUSE_STACKSIZE_CUSTOMIZATION -pthread -D_POSIX_PTHREAD_SEMANTICS -Wl,-O4,--sort-common,--as-needed,-z,norelro,-z,now -march=znver2 -Ofast -pipe -g0 -fgraphite-identity -floop-interchange -floop-nest-optimize -floop-parallelize-all -ftree-parallelize-loops=12 -ftree-vectorize -fdevirtualize-at-ltrans -fipa-pta -fno-semantic-interposition -flto=12 -fno-plt -falign-functions=32 -fno-stack-protector -fno-stack-clash-protection -fstack-check=no -fno-stack-check -fuse-linker-plugin -Wl,-O4 pbzip2.cpp BZ2StreamScanner.cpp ErrorContext.cpp -o pbzip2 -lbz2 -lpthread
>>> Source compiled.
>>> Test phase [not enabled]: app-arch/pbzip2-1.1.13

>>> Install app-arch/pbzip2-1.1.13 into /tmp/portage/app-arch/pbzip2-1.1.13/image/
make -j12 -l12 DESTDIR=/tmp/portage/app-arch/pbzip2-1.1.13/image/ install 
if ( test ! -d /tmp/portage/app-arch/pbzip2-1.1.13/image//usr/bin ) ; then mkdir -p /tmp/portage/app-arch/pbzip2-1.1.13/image//usr/bin ; fi
if ( test ! -d /tmp/portage/app-arch/pbzip2-1.1.13/image//usr/share ) ; then mkdir -p /tmp/portage/app-arch/pbzip2-1.1.13/image//usr/share ; fi
if ( test ! -d /tmp/portage/app-arch/pbzip2-1.1.13/image//usr/share/man ) ; then mkdir -p /tmp/portage/app-arch/pbzip2-1.1.13/image//usr/share/man ; fi
if ( test ! -d /tmp/portage/app-arch/pbzip2-1.1.13/image//usr/share/man/man1 ) ; then mkdir -p /tmp/portage/app-arch/pbzip2-1.1.13/image//usr/share/man/man1 ; fi
cp -f pbzip2 /tmp/portage/app-arch/pbzip2-1.1.13/image//usr/bin/pbzip2
chmod a+x /tmp/portage/app-arch/pbzip2-1.1.13/image//usr/bin/pbzip2
ln -s -f pbzip2 /tmp/portage/app-arch/pbzip2-1.1.13/image//usr/bin/pbunzip2
ln -s -f pbzip2 /tmp/portage/app-arch/pbzip2-1.1.13/image//usr/bin/pbzcat
cp -f pbzip2.1 /tmp/portage/app-arch/pbzip2-1.1.13/image//usr/share/man/man1
chmod a+r /tmp/portage/app-arch/pbzip2-1.1.13/image//usr/share/man/man1/pbzip2.1
>>> Completed installing app-arch/pbzip2-1.1.13 into /tmp/portage/app-arch/pbzip2-1.1.13/image/

 * Final size of build directory: 320 KiB
 * Final size of installed tree:  156 KiB

strip: x86_64-pc-linux-gnu-strip --strip-unneeded -N __gentoo_check_ldflags__ -R .comment -R .GCC.command.line -R .note.gnu.gold-version
   /usr/bin/pbzip2
./
./usr/
./usr/bin/
./usr/bin/bzip2
./usr/bin/bzcat
./usr/bin/pbunzip2
./usr/bin/bunzip2
./usr/bin/pbzip2
./usr/bin/pbzcat
./usr/share/
./usr/share/man/
./usr/share/man/man1/
./usr/share/man/man1/pbzip2.1.bz2
./usr/share/doc/
./usr/share/doc/pbzip2-1.1.13/
./usr/share/doc/pbzip2-1.1.13/README.bz2
./usr/share/doc/pbzip2-1.1.13/ChangeLog.bz2
./usr/share/doc/pbzip2-1.1.13/AUTHORS.bz2
>>> Done.
 * checking 7 files for package collisions
>>> Merging app-arch/pbzip2-1.1.13 to /
 * removing unneeded *.la files
--- /usr/
--- /usr/share/
--- /usr/share/man/
--- /usr/share/man/man1/
>>> /usr/share/man/man1/pbzip2.1.bz2
--- /usr/bin/
>>> /usr/bin/pbzcat -> pbzip2
>>> /usr/bin/pbzip2
>>> /usr/bin/bunzip2 -> pbzip2
>>> /usr/bin/pbunzip2 -> pbzip2
>>> /usr/bin/bzcat -> pbzip2
>>> /usr/bin/bzip2 -> pbzip2
>>> Safely unmerging already-installed instance...
>>> Original instance of package unmerged safely.
>>> app-arch/pbzip2-1.1.13 merged.
