>>> Extracting info
 * Package:    app-vim/eselect-syntax-20070506-r1
 * Repository: gentoo
 * USE:        kernel_linux userland_GNU elibc_glibc amd64 abi_x86_64
 * FEATURES:   network-sandbox preserve-libs sandbox userpriv usersandbox
 * FEATURES='assume-digests binpkg-docompress binpkg-dostrip binpkg-logs buildpkg cgroup compress-index config-protect-if-modified distlocks ebuild-locks fixlafiles ipc-sandbox merge-sync multilib-strict network-sandbox news nodoc parallel-fetch pid-sandbox preserve-libs qa-unresolved-soname-deps sandbox sfperms strict strict-keepdir unknown-features-warn unmerge-logs unmerge-orphans userfetch userpriv usersandbox usersync xattr'
 * CFLAGS='-march=znver2 -O2 -pipe -fno-stack-protector -fno-stack-clash-protection -fstack-check=no -fno-stack-check -Wl,-O1 -Wl,--as-needed'
 * CXXFLAGS='-march=znver2 -O2 -pipe -fno-stack-protector -fno-stack-clash-protection -fstack-check=no -fno-stack-check -Wl,-O1 -Wl,--as-needed'
 * FFLAGS='-march=znver2 -O2 -pipe -fno-stack-protector -fno-stack-clash-protection -fstack-check=no -fno-stack-check -Wl,-O1 -Wl,--as-needed'
 * FCFLAGS='-march=znver2 -O2 -pipe -fno-stack-protector -fno-stack-clash-protection -fstack-check=no -fno-stack-check -Wl,-O1 -Wl,--as-needed'
 * F77FLAGS='-march=znver2 -O2 -pipe -fno-stack-protector -fno-stack-clash-protection -fstack-check=no -fno-stack-check -Wl,-O1 -Wl,--as-needed'
 * LDFLAGS='-Wl,-O1 -Wl,--as-needed'
 * MAKEOPTS='-j12 -l12'
 * gcc (Gentoo 10.1.0-r1 p2) 10.1.0
 * g++ (Gentoo 10.1.0-r1 p2) 10.1.0
 * GNU gold (Gentoo 2.34 p4 2.34.0) 1.16
 * Linux rescue 5.4.36 #1 SMP Thu Apr 30 04:38:28 UTC 2020 x86_64 AMD Ryzen 5 3600 6-Core Processor AuthenticAMD GNU/Linux
app-vim/eselect-syntax: 12 seconds average for 8 merges
2020-05-21T12:27:26 >>> app-vim/eselect-syntax: 11 seconds
2020-05-26T00:04:55 >>> app-vim/eselect-syntax: 14 seconds
2020-05-27T02:27:49 >>> app-vim/eselect-syntax: 11 seconds
2020-05-29T01:59:42 >>> app-vim/eselect-syntax: 10 seconds
2020-05-30T17:37:48 >>> app-vim/eselect-syntax: 14 seconds
2020-06-01T07:57:29 >>> app-vim/eselect-syntax: 16 seconds
2020-06-12T02:18:14 >>> app-vim/eselect-syntax: 10 seconds
2020-06-13T21:10:16 >>> app-vim/eselect-syntax: 10 seconds
]0;emerge 14:31:07 559|565 eselect-syntax 00:12 (root@rescue)>>> Extracting app-vim/eselect-syntax-20070506-r1
 * checking 6 files for package collisions
>>> Merging app-vim/eselect-syntax-20070506-r1 to /
 * removing unneeded *.la files
--- /usr/
--- /usr/share/
--- /usr/share/vim/
--- /usr/share/vim/vimfiles/
--- /usr/share/vim/vimfiles/doc/
>>> /usr/share/vim/vimfiles/doc/eselect-syntax.txt
--- /usr/share/vim/vimfiles/plugin/
>>> /usr/share/vim/vimfiles/plugin/neweselect.vim
--- /usr/share/vim/vimfiles/ftdetect/
>>> /usr/share/vim/vimfiles/ftdetect/eselect.vim
--- /usr/share/vim/vimfiles/indent/
>>> /usr/share/vim/vimfiles/indent/eselect.vim
--- /usr/share/vim/vimfiles/ftplugin/
>>> /usr/share/vim/vimfiles/ftplugin/eselect.vim
--- /usr/share/vim/vimfiles/syntax/
>>> /usr/share/vim/vimfiles/syntax/eselect.vim
>>> Safely unmerging already-installed instance...
!!! File Not Found: '/etc/env.d/99lcdfilter'
>>> Original instance of package unmerged safely.
 * Updating documentation tags in /usr/share/vim/vim82
 * Updating scripts in /usr/share/vim/vimfiles/after
 * Removing dead scripts in /usr/share/vim/vimfiles/after
>>> app-vim/eselect-syntax-20070506-r1 merged.
!!! File Not Found: '/etc/env.d/99lcdfilter'
