>>> Extracting info
 * Package:    app-shells/gentoo-bashcomp-20190211
 * Repository: gentoo
 * USE:        amd64 userland_GNU abi_x86_64 elibc_glibc kernel_linux
 * FEATURES:   ccache preserve-libs userpriv
 * FEATURES='assume-digests binpkg-docompress binpkg-dostrip binpkg-logs buildpkg ccache cgroup compress-index config-protect-if-modified distlocks ebuild-locks fixlafiles merge-sync multilib-strict news nodoc parallel-fetch preserve-libs qa-unresolved-soname-deps sfperms strict strict-keepdir unknown-features-warn unmerge-logs unmerge-orphans userfetch userpriv usersync xattr'
 * CFLAGS='-O2 -pipe -Wl,-O1,--sort-common,--as-needed,-z,norelro,-z,now'
 * CXXFLAGS='-O2 -pipe -Wl,-O1,--sort-common,--as-needed,-z,norelro,-z,now'
 * FFLAGS='-O2 -pipe -Wl,-O1,--sort-common,--as-needed,-z,norelro,-z,now'
 * FCFLAGS='-O2 -pipe -Wl,-O1,--sort-common,--as-needed,-z,norelro,-z,now'
 * F77FLAGS='-O2 -pipe -Wl,-O1,--sort-common,--as-needed,-z,norelro,-z,now'
 * LDFLAGS='-Wl,-O1,--sort-common,--as-needed,-z,norelro,-z,now'
 * MAKEOPTS='-j12 -l12'
 * gcc (Gentoo 11.0.0_pre9999 p1, commit 184c21bf1cd04a108ed9bd04635e7d57ac39f616) 11.0.0 20200611 (experimental)
 * g++ (Gentoo 11.0.0_pre9999 p1, commit 184c21bf1cd04a108ed9bd04635e7d57ac39f616) 11.0.0 20200611 (experimental)
 * GNU ld (Gentoo 2.34 p4) 2.34.0
 * Linux rescue 5.4.36 #1 SMP Thu Apr 30 04:38:28 UTC 2020 x86_64 AMD Ryzen 5 3600 6-Core Processor AuthenticAMD GNU/Linux
app-shells/gentoo-bashcomp: 21 seconds average for 17 merges
2020-05-20T00:56:37 >>> app-shells/gentoo-bashcomp: 17 seconds
2020-05-21T05:55:04 >>> app-shells/gentoo-bashcomp: 5 seconds
2020-05-22T01:57:05 >>> app-shells/gentoo-bashcomp: 21 seconds
2020-05-22T03:08:41 >>> app-shells/gentoo-bashcomp: 15 seconds
2020-05-22T12:27:55 >>> app-shells/gentoo-bashcomp: 20 seconds
2020-05-23T03:30:04 >>> app-shells/gentoo-bashcomp: 18 seconds
2020-05-25T18:16:57 >>> app-shells/gentoo-bashcomp: 14 seconds
2020-05-26T12:51:52 >>> app-shells/gentoo-bashcomp: 13 seconds
2020-05-26T13:47:07 >>> app-shells/gentoo-bashcomp: 14 seconds
2020-05-27T03:03:25 >>> app-shells/gentoo-bashcomp: 46 seconds
2020-05-28T13:25:06 >>> app-shells/gentoo-bashcomp: 13 seconds
2020-05-28T14:12:30 >>> app-shells/gentoo-bashcomp: 18 seconds
2020-05-30T12:31:57 >>> app-shells/gentoo-bashcomp: 37 seconds
2020-05-30T21:33:24 >>> app-shells/gentoo-bashcomp: 12 seconds
2020-06-01T01:46:47 >>> app-shells/gentoo-bashcomp: 14 seconds
2020-06-04T12:01:55 >>> app-shells/gentoo-bashcomp: 19 seconds
2020-06-13T03:24:20 >>> app-shells/gentoo-bashcomp: 1 minute, 4 seconds
]0;emerge 19:57:13 84|882 gentoo-bashcomp 00:32 (root@rescue)>>> Extracting app-shells/gentoo-bashcomp-20190211
 * checking 21 files for package collisions
>>> Merging app-shells/gentoo-bashcomp-20190211 to /
 * removing unneeded *.la files
--- /etc/
--- /etc/bash_completion.d/
>>> /etc/bash_completion.d/gentoo-style-init
--- /usr/
--- /usr/share/
--- /usr/share/bash-completion/
--- /usr/share/bash-completion/completions/
>>> /usr/share/bash-completion/completions/layman
>>> /usr/share/bash-completion/completions/equery
>>> /usr/share/bash-completion/completions/metagen
>>> /usr/share/bash-completion/completions/repoman
>>> /usr/share/bash-completion/completions/glsa-check
>>> /usr/share/bash-completion/completions/ekeyword
>>> /usr/share/bash-completion/completions/gcc-config
>>> /usr/share/bash-completion/completions/epkginfo
>>> /usr/share/bash-completion/completions/webapp-config
>>> /usr/share/bash-completion/completions/revdep-rebuild
>>> /usr/share/bash-completion/completions/epm
>>> /usr/share/bash-completion/completions/emerge
>>> /usr/share/bash-completion/completions/browser-config
>>> /usr/share/bash-completion/completions/euse
>>> /usr/share/bash-completion/completions/portageq
>>> /usr/share/bash-completion/completions/splat
>>> /usr/share/bash-completion/completions/ebuild
>>> /usr/share/bash-completion/completions/java-config
>>> /usr/share/bash-completion/completions/distcc-config
--- /usr/share/bash-completion/helpers/
>>> /usr/share/bash-completion/helpers/gentoo-common.sh
>>> Safely unmerging already-installed instance...
>>> Original instance of package unmerged safely.
>>> app-shells/gentoo-bashcomp-20190211 merged.
