No package files given... Grabbing a set.
--- replaced sym /usr/share/xml/iso-codes/iso_639_5.xml
--- replaced sym /usr/share/xml/iso-codes/iso_639_3.xml
--- replaced sym /usr/share/xml/iso-codes/iso_639.xml
--- replaced obj /usr/share/xml/iso-codes/iso_639-5.xml
--- replaced obj /usr/share/xml/iso-codes/iso_639-3.xml
--- replaced obj /usr/share/xml/iso-codes/iso_639-2.xml
--- replaced obj /usr/share/xml/iso-codes/iso_4217.xml
--- replaced sym /usr/share/xml/iso-codes/iso_3166_2.xml
--- replaced sym /usr/share/xml/iso-codes/iso_3166.xml
--- replaced obj /usr/share/xml/iso-codes/iso_3166-3.xml
--- replaced obj /usr/share/xml/iso-codes/iso_3166-2.xml
--- replaced obj /usr/share/xml/iso-codes/iso_3166-1.xml
--- replaced obj /usr/share/xml/iso-codes/iso_15924.xml
--- replaced dir /usr/share/xml/iso-codes
--- replaced dir /usr/share/xml
--- replaced obj /usr/share/pkgconfig/iso-codes.pc
--- replaced dir /usr/share/pkgconfig
--- replaced sym /usr/share/locale/en/LC_MESSAGES/iso_3166_2.mo
--- replaced obj /usr/share/locale/en/LC_MESSAGES/iso_3166-2.mo
--- replaced dir /usr/share/locale/en/LC_MESSAGES
--- replaced dir /usr/share/locale/en
--- replaced dir /usr/share/locale
--- replaced obj /usr/share/iso-codes/json/schema-639-5.json
--- replaced obj /usr/share/iso-codes/json/schema-639-3.json
--- replaced obj /usr/share/iso-codes/json/schema-639-2.json
--- replaced obj /usr/share/iso-codes/json/schema-4217.json
--- replaced obj /usr/share/iso-codes/json/schema-3166-3.json
--- replaced obj /usr/share/iso-codes/json/schema-3166-2.json
--- replaced obj /usr/share/iso-codes/json/schema-3166-1.json
--- replaced obj /usr/share/iso-codes/json/schema-15924.json
--- replaced obj /usr/share/iso-codes/json/iso_639-5.json
--- replaced obj /usr/share/iso-codes/json/iso_639-3.json
--- replaced obj /usr/share/iso-codes/json/iso_639-2.json
--- replaced obj /usr/share/iso-codes/json/iso_4217.json
--- replaced obj /usr/share/iso-codes/json/iso_3166-3.json
--- replaced obj /usr/share/iso-codes/json/iso_3166-2.json
--- replaced obj /usr/share/iso-codes/json/iso_3166-1.json
--- replaced obj /usr/share/iso-codes/json/iso_15924.json
--- replaced dir /usr/share/iso-codes/json
--- replaced dir /usr/share/iso-codes
--- replaced dir /usr/share
--- replaced dir /usr
>>> Regenerating /etc/ld.so.cache...
