>>> Extracting info
 * Package:    app-crypt/gnupg-2.2.20
 * Repository: gentoo
 * USE:        amd64 user-socket ssl userland_GNU bzip2 abi_x86_64 tools elibc_glibc kernel_linux readline
 * FEATURES:   ccache preserve-libs userpriv
 * /etc/portage/package.cflags/ltoworkarounds.conf -> app-crypt/gnupg: *FLAGS-="${NOCOMMON}"
 * FEATURES='assume-digests binpkg-docompress binpkg-dostrip binpkg-logs buildpkg ccache cgroup compress-index config-protect-if-modified distlocks ebuild-locks fixlafiles merge-sync multilib-strict news nodoc parallel-fetch preserve-libs qa-unresolved-soname-deps sfperms strict strict-keepdir unknown-features-warn unmerge-logs unmerge-orphans userfetch userpriv usersync xattr'
 * CFLAGS='-march=znver2 -O2 -pipe -g0 -fno-semantic-interposition -fno-plt -falign-functions=32 -fno-stack-protector -fno-stack-clash-protection -fstack-check=no -fno-stack-check -Wl,-O4 -Wl,-O4,--sort-common,--as-needed,-z,norelro,-z,now,-lgomp,-lpthread'
 * CXXFLAGS='-march=znver2 -O2 -pipe -g0 -fno-semantic-interposition -fno-plt -falign-functions=32 -fno-stack-protector -fno-stack-clash-protection -fstack-check=no -fno-stack-check -Wl,-O4 -Wl,-O4,--sort-common,--as-needed,-z,norelro,-z,now,-lgomp,-lpthread'
 * FFLAGS='-march=znver2 -O2 -pipe -g0 -fno-semantic-interposition -fno-plt -falign-functions=32 -fno-stack-protector -fno-stack-clash-protection -fstack-check=no -fno-stack-check -Wl,-O4 -Wl,-O4,--sort-common,--as-needed,-z,norelro,-z,now,-lgomp,-lpthread'
 * FCFLAGS='-march=znver2 -O2 -pipe -g0 -fno-semantic-interposition -fno-plt -falign-functions=32 -fno-stack-protector -fno-stack-clash-protection -fstack-check=no -fno-stack-check -Wl,-O4 -Wl,-O4,--sort-common,--as-needed,-z,norelro,-z,now,-lgomp,-lpthread'
 * F77FLAGS='-march=znver2 -O2 -pipe -g0 -fno-semantic-interposition -fno-plt -falign-functions=32 -fno-stack-protector -fno-stack-clash-protection -fstack-check=no -fno-stack-check -Wl,-O4 -Wl,-O4,--sort-common,--as-needed,-z,norelro,-z,now,-lgomp,-lpthread'
 * LDFLAGS='-march=znver2 -O2 -pipe -g0 -fno-semantic-interposition -fno-plt -falign-functions=32 -fno-stack-protector -fno-stack-clash-protection -fstack-check=no -fno-stack-check -Wl,-O4,--sort-common,--as-needed,-z,norelro,-z,now,-lgomp,-lpthread'
 * MAKEOPTS='-j12 -l12'
 * gcc (Gentoo 11.0.0_pre9999 p1, commit 184c21bf1cd04a108ed9bd04635e7d57ac39f616) 11.0.0 20200611 (experimental)
 * g++ (Gentoo 11.0.0_pre9999 p1, commit 184c21bf1cd04a108ed9bd04635e7d57ac39f616) 11.0.0 20200611 (experimental)
 * GNU ld (Gentoo 2.34 p4) 2.34.0
 * Linux rescue 5.4.36 #1 SMP Thu Apr 30 04:38:28 UTC 2020 x86_64 AMD Ryzen 5 3600 6-Core Processor AuthenticAMD GNU/Linux
app-crypt/gnupg: 56 seconds average for 11 merges
2020-05-15T10:23:07 >>> app-crypt/gnupg: 36 seconds
2020-05-16T16:35:57 >>> app-crypt/gnupg: 36 seconds
2020-05-20T01:30:09 >>> app-crypt/gnupg: 3 minutes, 46 seconds
2020-05-26T00:32:37 >>> app-crypt/gnupg: 48 seconds
2020-05-27T02:32:18 >>> app-crypt/gnupg: 6 seconds
2020-05-30T15:18:14 >>> app-crypt/gnupg: 51 seconds
2020-05-31T23:17:27 >>> app-crypt/gnupg: 53 seconds
2020-06-01T06:09:26 >>> app-crypt/gnupg: 48 seconds
2020-06-03T15:24:58 >>> app-crypt/gnupg: 54 seconds
2020-06-06T00:59:16 >>> app-crypt/gnupg: 56 seconds
2020-06-12T02:18:48 >>> app-crypt/gnupg: 5 seconds
]0;emerge 21:00:53 813|882 gnupg 00:38 (root@rescue)>>> Extracting app-crypt/gnupg-2.2.20
 * checking 91 files for package collisions
>>> Merging app-crypt/gnupg-2.2.20 to /
 * removing unneeded *.la files
--- /etc/
--- /etc/env.d/
>>> /etc/env.d/30gnupg
--- /usr/
--- /usr/share/
--- /usr/share/man/
--- /usr/share/man/man7/
>>> /usr/share/man/man7/gnupg.7.bz2
--- /usr/share/man/man8/
>>> /usr/share/man/man8/applygnupgdefaults.8.bz2
>>> /usr/share/man/man8/addgnupghome.8.bz2
>>> /usr/share/man/man8/dirmngr.8.bz2
--- /usr/share/man/man1/
>>> /usr/share/man/man1/gpg-preset-passphrase.1.bz2
>>> /usr/share/man/man1/watchgnupg.1.bz2
>>> /usr/share/man/man1/gpg-connect-agent.1.bz2
>>> /usr/share/man/man1/gpgsm.1.bz2
>>> /usr/share/man/man1/gpgparsemail.1.bz2
>>> /usr/share/man/man1/scdaemon.1.bz2
>>> /usr/share/man/man1/gpgv2.1
>>> /usr/share/man/man1/dirmngr-client.1.bz2
>>> /usr/share/man/man1/gpg-wks-client.1.bz2
>>> /usr/share/man/man1/gpgv.1.bz2
>>> /usr/share/man/man1/symcryptrun.1.bz2
>>> /usr/share/man/man1/gpg2.1
>>> /usr/share/man/man1/gpgtar.1.bz2
>>> /usr/share/man/man1/gpg-wks-server.1.bz2
>>> /usr/share/man/man1/gpg-agent.1.bz2
>>> /usr/share/man/man1/gpgconf.1.bz2
>>> /usr/share/man/man1/gpg.1.bz2
--- /usr/share/gnupg/
>>> /usr/share/gnupg/help.sk.txt
>>> /usr/share/gnupg/help.it.txt
>>> /usr/share/gnupg/help.ja.txt
>>> /usr/share/gnupg/help.eo.txt
>>> /usr/share/gnupg/help.ru.txt
>>> /usr/share/gnupg/help.de.txt
>>> /usr/share/gnupg/help.id.txt
>>> /usr/share/gnupg/help.pt_BR.txt
>>> /usr/share/gnupg/help.et.txt
>>> /usr/share/gnupg/help.pl.txt
>>> /usr/share/gnupg/help.zh_TW.txt
>>> /usr/share/gnupg/help.fr.txt
>>> /usr/share/gnupg/help.el.txt
>>> /usr/share/gnupg/help.sv.txt
>>> /usr/share/gnupg/help.tr.txt
>>> /usr/share/gnupg/help.gl.txt
>>> /usr/share/gnupg/help.es.txt
>>> /usr/share/gnupg/help.txt
>>> /usr/share/gnupg/distsigkey.gpg
>>> /usr/share/gnupg/help.hu.txt
>>> /usr/share/gnupg/help.be.txt
>>> /usr/share/gnupg/sks-keyservers.netCA.pem
>>> /usr/share/gnupg/help.nb.txt
>>> /usr/share/gnupg/help.ca.txt
>>> /usr/share/gnupg/help.ro.txt
>>> /usr/share/gnupg/help.pt.txt
>>> /usr/share/gnupg/help.fi.txt
>>> /usr/share/gnupg/help.zh_CN.txt
>>> /usr/share/gnupg/help.da.txt
>>> /usr/share/gnupg/help.cs.txt
--- /usr/share/info/
>>> /usr/share/info/gnupg.info.bz2
>>> /usr/share/info/gnupg.info-2.bz2
>>> /usr/share/info/gnupg.info-1.bz2
--- /usr/sbin/
>>> /usr/sbin/addgnupghome
>>> /usr/sbin/applygnupgdefaults
--- /usr/bin/
>>> /usr/bin/gpgv2 -> gpgv
>>> /usr/bin/watchgnupg
>>> /usr/bin/gpg
>>> /usr/bin/mail-signed-keys
>>> /usr/bin/gpg-connect-agent
>>> /usr/bin/kbxutil
>>> /usr/bin/gpgscm
>>> /usr/bin/gpg-zip
>>> /usr/bin/gpgv
>>> /usr/bin/dirmngr-client
>>> /usr/bin/convert-from-106
>>> /usr/bin/make-dns-cert
>>> /usr/bin/gpg-check-pattern
>>> /usr/bin/lspgpot
>>> /usr/bin/gpg2 -> gpg
>>> /usr/bin/gpgparsemail
>>> /usr/bin/gpgconf
>>> /usr/bin/gpgtar
>>> /usr/bin/gpgsplit
>>> /usr/bin/gpg-agent
>>> /usr/bin/gpgsm
>>> /usr/bin/dirmngr
>>> /usr/bin/symcryptrun
--- /usr/libexec/
>>> /usr/libexec/gpg-check-pattern
>>> /usr/libexec/gpg-preset-passphrase
>>> /usr/libexec/gpg-wks-client
>>> /usr/libexec/gpg-protect-tool
--- /usr/lib/
--- /usr/lib/systemd/
--- /usr/lib/systemd/user/
>>> /usr/lib/systemd/user/gpg-agent-ssh.socket
>>> /usr/lib/systemd/user/gpg-agent.service
>>> /usr/lib/systemd/user/gpg-agent-extra.socket
>>> /usr/lib/systemd/user/gpg-agent.socket
>>> /usr/lib/systemd/user/dirmngr.service
>>> /usr/lib/systemd/user/gpg-agent-browser.socket
>>> /usr/lib/systemd/user/dirmngr.socket
>>> Safely unmerging already-installed instance...
>>> Original instance of package unmerged safely.
 * See https://wiki.gentoo.org/wiki/GnuPG for documentation on gnupg
 * 
 * If you wish to use 'gpg-wks-client --send', you must install an MTA!
>>> app-crypt/gnupg-2.2.20 merged.
