[32;01m * [39;49;00mPackage:    app-eselect/eselect-ruby-20191222
[32;01m * [39;49;00mRepository: gentoo
[32;01m * [39;49;00mMaintainer: ruby@gentoo.org
[32;01m * [39;49;00mUSE:        abi_x86_64 amd64 elibc_glibc kernel_linux userland_GNU
[32;01m * [39;49;00mFEATURES:   network-sandbox preserve-libs sandbox splitdebug test userpriv usersandbox
>>> Unpacking source...
>>> Unpacking ruby.eselect-20191222.xz to /tmp/portage/app-eselect/eselect-ruby-20191222/work
>>> Source unpacked in /tmp/portage/app-eselect/eselect-ruby-20191222/work
>>> Preparing source in /tmp/portage/app-eselect/eselect-ruby-20191222/work ...
>>> Source prepared.
>>> Configuring source in /tmp/portage/app-eselect/eselect-ruby-20191222/work ...
>>> Source configured.
>>> Compiling source in /tmp/portage/app-eselect/eselect-ruby-20191222/work ...
>>> Source compiled.
>>> Test phase: app-eselect/eselect-ruby-20191222
>>> Completed testing app-eselect/eselect-ruby-20191222

>>> Install app-eselect/eselect-ruby-20191222 into /tmp/portage/app-eselect/eselect-ruby-20191222/image
>>> Completed installing app-eselect/eselect-ruby-20191222 into /tmp/portage/app-eselect/eselect-ruby-20191222/image

 [32;01m*[0m Final size of build directory: 12 KiB
 [32;01m*[0m Final size of installed tree:  28 KiB

./
./usr/
./usr/share/
./usr/share/eselect/
./usr/share/eselect/modules/
./usr/share/eselect/modules/ruby.eselect
>>> Done.
 [32;01m*[39;49;00m checking 1 files for package collisions
>>> Merging app-eselect/eselect-ruby-20191222 to /
--- /usr/
--- /usr/share/
--- /usr/share/eselect/
--- /usr/share/eselect/modules/
>>> /usr/share/eselect/modules/ruby.eselect
>>> app-eselect/eselect-ruby-20191222 merged.
>>> Regenerating /etc/ld.so.cache...
