>>> Extracting info
 * Package:    app-text/iso-codes-4.4
 * Repository: gentoo
 * USE:        abi_x86_64 userland_GNU kernel_linux amd64 elibc_glibc
 * FEATURES:   network-sandbox preserve-libs sandbox userpriv usersandbox
 * FEATURES='assume-digests binpkg-docompress binpkg-dostrip binpkg-logs binpkg-multi-instance buildpkg cgroup compress-index config-protect-if-modified distlocks downgrade-backup fixlafiles ipc-sandbox merge-sync multilib-strict network-sandbox news nodoc parallel-fetch parallel-install pid-sandbox preserve-libs qa-unresolved-soname-deps sandbox sfperms strict strict-keepdir unknown-features-warn unmerge-backup unmerge-logs unmerge-orphans userfetch userpriv usersandbox usersync xattr'
 * CFLAGS='-march=native -O3 -fdevirtualize-at-ltrans -fipa-pta -fno-semantic-interposition -fno-signed-zeros -fno-trapping-math -fassociative-math -freciprocal-math -fno-math-errno -ffinite-math-only -fno-rounding-math -fno-signaling-nans -fcx-limited-range -fexcess-precision=fast -fno-plt -fno-common -pipe -g0 -fno-stack-protector -fno-stack-clash-protection -fstack-check=no -fno-stack-check -Wl,-O4,--hash-style=gnu,--sort-common,--as-needed,-z,relro,-z,now,-lgomp,-lpthread'
 * CXXFLAGS='-march=native -O3 -fdevirtualize-at-ltrans -fipa-pta -fno-semantic-interposition -fno-signed-zeros -fno-trapping-math -fassociative-math -freciprocal-math -fno-math-errno -ffinite-math-only -fno-rounding-math -fno-signaling-nans -fcx-limited-range -fexcess-precision=fast -fno-plt -fno-common -pipe -g0 -fno-stack-protector -fno-stack-clash-protection -fstack-check=no -fno-stack-check -Wl,-O4,--hash-style=gnu,--sort-common,--as-needed,-z,relro,-z,now,-lgomp,-lpthread'
 * FFLAGS='-march=native -O3 -fdevirtualize-at-ltrans -fipa-pta -fno-semantic-interposition -fno-signed-zeros -fno-trapping-math -fassociative-math -freciprocal-math -fno-math-errno -ffinite-math-only -fno-rounding-math -fno-signaling-nans -fcx-limited-range -fexcess-precision=fast -fno-plt -fno-common -pipe -g0 -fno-stack-protector -fno-stack-clash-protection -fstack-check=no -fno-stack-check -Wl,-O4,--hash-style=gnu,--sort-common,--as-needed,-z,relro,-z,now,-lgomp,-lpthread'
 * FCFLAGS='-march=native -O3 -fdevirtualize-at-ltrans -fipa-pta -fno-semantic-interposition -fno-signed-zeros -fno-trapping-math -fassociative-math -freciprocal-math -fno-math-errno -ffinite-math-only -fno-rounding-math -fno-signaling-nans -fcx-limited-range -fexcess-precision=fast -fno-plt -fno-common -pipe -g0 -fno-stack-protector -fno-stack-clash-protection -fstack-check=no -fno-stack-check -Wl,-O4,--hash-style=gnu,--sort-common,--as-needed,-z,relro,-z,now,-lgomp,-lpthread'
 * F77FLAGS='-march=native -O3 -fdevirtualize-at-ltrans -fipa-pta -fno-semantic-interposition -fno-signed-zeros -fno-trapping-math -fassociative-math -freciprocal-math -fno-math-errno -ffinite-math-only -fno-rounding-math -fno-signaling-nans -fcx-limited-range -fexcess-precision=fast -fno-plt -fno-common -pipe -g0 -fno-stack-protector -fno-stack-clash-protection -fstack-check=no -fno-stack-check -Wl,-O4,--hash-style=gnu,--sort-common,--as-needed,-z,relro,-z,now,-lgomp,-lpthread'
 * LDFLAGS='-Wl,-O4,--hash-style=gnu,--sort-common,--as-needed,-z,relro,-z,now,-lgomp,-lpthread'
 * MAKEOPTS='-j12'
 * gcc () 11.0.0 20200526 (experimental)
 * g++ () 11.0.0 20200526 (experimental)
 * GNU ld (Gentoo 2.34 p4) 2.34.0
 * Linux ryzen.gnum.org 5.4.36 #1 SMP Thu Apr 30 04:38:28 UTC 2020 x86_64 AMD Ryzen 5 3600 6-Core Processor AuthenticAMD GNU/Linux
app-text/iso-codes: 4 seconds average for 2 merges
2020-05-20T01:12:10 >>> app-text/iso-codes: 4 seconds
2020-05-21T06:09:20 >>> app-text/iso-codes: 5 seconds
]0;emerge 14:10:41 314|980 iso-codes 00:05 (root@ryzen.gnum.org)kemerge 14:10:41 314|980 iso-codes 00:05 (root@ryzen.gnum.org)\>>> Extracting app-text/iso-codes-4.4
 * checking 32 files for package collisions
>>> Merging app-text/iso-codes-4.4 to /
 * removing unneeded *.la files
--- /usr/
--- /usr/share/
--- /usr/share/pkgconfig/
>>> /usr/share/pkgconfig/iso-codes.pc
--- /usr/share/xml/
--- /usr/share/xml/iso-codes/
>>> /usr/share/xml/iso-codes/iso_3166-1.xml
>>> /usr/share/xml/iso-codes/iso_639-2.xml
>>> /usr/share/xml/iso-codes/iso_3166.xml -> iso_3166-1.xml
>>> /usr/share/xml/iso-codes/iso_3166-2.xml
>>> /usr/share/xml/iso-codes/iso_3166-3.xml
>>> /usr/share/xml/iso-codes/iso_639_5.xml -> iso_639-5.xml
>>> /usr/share/xml/iso-codes/iso_3166_2.xml -> iso_3166-2.xml
>>> /usr/share/xml/iso-codes/iso_15924.xml
>>> /usr/share/xml/iso-codes/iso_639_3.xml -> iso_639-3.xml
>>> /usr/share/xml/iso-codes/iso_639.xml -> iso_639-2.xml
>>> /usr/share/xml/iso-codes/iso_639-5.xml
>>> /usr/share/xml/iso-codes/iso_639-3.xml
>>> /usr/share/xml/iso-codes/iso_4217.xml
--- /usr/share/locale/
--- /usr/share/locale/en/
--- /usr/share/locale/en/LC_MESSAGES/
>>> /usr/share/locale/en/LC_MESSAGES/iso_3166_2.mo -> iso_3166-2.mo
>>> /usr/share/locale/en/LC_MESSAGES/iso_3166-2.mo
--- /usr/share/iso-codes/
--- /usr/share/iso-codes/json/
>>> /usr/share/iso-codes/json/iso_639-5.json
>>> /usr/share/iso-codes/json/schema-639-2.json
>>> /usr/share/iso-codes/json/iso_3166-1.json
>>> /usr/share/iso-codes/json/schema-4217.json
>>> /usr/share/iso-codes/json/schema-15924.json
>>> /usr/share/iso-codes/json/iso_4217.json
>>> /usr/share/iso-codes/json/schema-3166-3.json
>>> /usr/share/iso-codes/json/iso_15924.json
>>> /usr/share/iso-codes/json/iso_639-2.json
>>> /usr/share/iso-codes/json/iso_639-3.json
>>> /usr/share/iso-codes/json/schema-3166-2.json
>>> /usr/share/iso-codes/json/schema-639-3.json
>>> /usr/share/iso-codes/json/iso_3166-2.json
>>> /usr/share/iso-codes/json/iso_3166-3.json
>>> /usr/share/iso-codes/json/schema-3166-1.json
>>> /usr/share/iso-codes/json/schema-639-5.json
>>> Safely unmerging already-installed instance...
>>> Original instance of package unmerged safely.
>>> app-text/iso-codes-4.4 merged.
