>>> Extracting info
 * Package:    app-text/poppler-0.88.0-r1
 * Repository: gentoo
 * USE:        elibc_glibc lcms userland_GNU jpeg introspection qt5 png abi_x86_64 tiff kernel_linux utils cairo amd64 curl jpeg2k cxx
 * FEATURES:   ccache network-sandbox preserve-libs sandbox userpriv usersandbox
 * FEATURES='assume-digests binpkg-docompress binpkg-dostrip binpkg-logs binpkg-multi-instance buildpkg ccache cgroup compress-index config-protect-if-modified distlocks downgrade-backup fixlafiles ipc-sandbox merge-sync multilib-strict network-sandbox news nodoc parallel-fetch parallel-install pid-sandbox preserve-libs qa-unresolved-soname-deps sandbox sfperms strict unknown-features-warn unmerge-backup unmerge-logs unmerge-orphans userfetch userpriv usersandbox usersync xattr'
 * CFLAGS='-march=native -O3 -fdevirtualize-at-ltrans -fipa-pta -fno-semantic-interposition -fno-math-errno -fno-trapping-math -fno-plt -fuse-linker-plugin -pipe -g0 -fno-stack-protector -fno-stack-clash-protection -fstack-check=no -fno-stack-check -Wl,-O4,--hash-style=gnu,--sort-common,--as-needed,-z,relro,-z,now,-lgomp,-lpthread'
 * CXXFLAGS='-march=native -O3 -fdevirtualize-at-ltrans -fipa-pta -fno-semantic-interposition -fno-math-errno -fno-trapping-math -fno-plt -fuse-linker-plugin -pipe -g0 -fno-stack-protector -fno-stack-clash-protection -fstack-check=no -fno-stack-check -Wl,-O4,--hash-style=gnu,--sort-common,--as-needed,-z,relro,-z,now,-lgomp,-lpthread'
 * FFLAGS='-march=native -O3 -fdevirtualize-at-ltrans -fipa-pta -fno-semantic-interposition -fno-math-errno -fno-trapping-math -fno-plt -fuse-linker-plugin -pipe -g0 -fno-stack-protector -fno-stack-clash-protection -fstack-check=no -fno-stack-check -Wl,-O4,--hash-style=gnu,--sort-common,--as-needed,-z,relro,-z,now,-lgomp,-lpthread'
 * FCFLAGS='-march=native -O3 -fdevirtualize-at-ltrans -fipa-pta -fno-semantic-interposition -fno-math-errno -fno-trapping-math -fno-plt -fuse-linker-plugin -pipe -g0 -fno-stack-protector -fno-stack-clash-protection -fstack-check=no -fno-stack-check -Wl,-O4,--hash-style=gnu,--sort-common,--as-needed,-z,relro,-z,now,-lgomp,-lpthread'
 * F77FLAGS='-march=native -O3 -fdevirtualize-at-ltrans -fipa-pta -fno-semantic-interposition -fno-math-errno -fno-trapping-math -fno-plt -fuse-linker-plugin -pipe -g0 -fno-stack-protector -fno-stack-clash-protection -fstack-check=no -fno-stack-check -Wl,-O4,--hash-style=gnu,--sort-common,--as-needed,-z,relro,-z,now,-lgomp,-lpthread'
 * LDFLAGS='-Wl,-O4,--hash-style=gnu,--sort-common,--as-needed,-z,relro,-z,now,-lgomp,-lpthread'
 * MAKEOPTS='-j12'
 * gcc (Gentoo 10.1.0 p1) 10.1.0
 * g++ (Gentoo 10.1.0 p1) 10.1.0
 * GNU ld (Gentoo 2.34 p1) 2.34.0
 * Linux ryzen.gnum.org 5.4.36 #1 SMP Thu Apr 30 04:38:28 UTC 2020 x86_64 AMD Ryzen 5 3600 6-Core Processor AuthenticAMD GNU/Linux
app-text/poppler: 31 seconds average for 1 merge
2020-05-16T01:04:08 >>> app-text/poppler: 31 seconds
]0;emerge 06:08:29 6|67 poppler 00:31 (root@ryzen.gnum.org)>>> Extracting app-text/poppler-0.88.0-r1
 * checking 198 files for package collisions
>>> Merging app-text/poppler-0.88.0-r1 to /
 * removing unneeded *.la files
--- /usr/
--- /usr/lib64/
>>> /usr/lib64/libpoppler-glib.so -> libpoppler-glib.so.8
--- /usr/lib64/pkgconfig/
>>> /usr/lib64/pkgconfig/poppler-cairo.pc
>>> /usr/lib64/pkgconfig/poppler-cpp.pc
>>> /usr/lib64/pkgconfig/poppler-glib.pc
>>> /usr/lib64/pkgconfig/poppler.pc
>>> /usr/lib64/pkgconfig/poppler-splash.pc
>>> /usr/lib64/pkgconfig/poppler-qt5.pc
>>> /usr/lib64/libpoppler-cpp.so -> libpoppler-cpp.so.0
>>> /usr/lib64/libpoppler-qt5.so.1 -> libpoppler-qt5.so.1.24.0
>>> /usr/lib64/libpoppler-qt5.so -> libpoppler-qt5.so.1
>>> /usr/lib64/libpoppler-cpp.so.0.8.0
>>> /usr/lib64/libpoppler-glib.so.8 -> libpoppler-glib.so.8.16.0
--- /usr/lib64/girepository-1.0/
>>> /usr/lib64/girepository-1.0/Poppler-0.18.typelib
>>> /usr/lib64/libpoppler-qt5.so.1.24.0
>>> /usr/lib64/libpoppler.so.99.0.0
>>> /usr/lib64/libpoppler.so.99 -> libpoppler.so.99.0.0
>>> /usr/lib64/libpoppler-glib.so.8.16.0
>>> /usr/lib64/libpoppler.so -> libpoppler.so.99
>>> /usr/lib64/libpoppler-cpp.so.0 -> libpoppler-cpp.so.0.8.0
--- /usr/share/
--- /usr/share/man/
--- /usr/share/man/man1/
>>> /usr/share/man/man1/pdfinfo.1.bz2
>>> /usr/share/man/man1/pdfattach.1.bz2
>>> /usr/share/man/man1/pdffonts.1.bz2
>>> /usr/share/man/man1/pdftohtml.1.bz2
>>> /usr/share/man/man1/pdfimages.1.bz2
>>> /usr/share/man/man1/pdftops.1.bz2
>>> /usr/share/man/man1/pdfseparate.1.bz2
>>> /usr/share/man/man1/pdftocairo.1.bz2
>>> /usr/share/man/man1/pdfdetach.1.bz2
>>> /usr/share/man/man1/pdftotext.1.bz2
>>> /usr/share/man/man1/pdftoppm.1.bz2
>>> /usr/share/man/man1/pdfunite.1.bz2
--- /usr/share/gir-1.0/
>>> /usr/share/gir-1.0/Poppler-0.18.gir
--- /usr/include/
--- /usr/include/poppler/
>>> /usr/include/poppler/UnicodeCompTables.h
>>> /usr/include/poppler/Hints.h
>>> /usr/include/poppler/ViewerPreferences.h
>>> /usr/include/poppler/NameToUnicodeTable.h
>>> /usr/include/poppler/Gfx.h
>>> /usr/include/poppler/JArithmeticDecoder.h
>>> /usr/include/poppler/CharTypes.h
>>> /usr/include/poppler/Outline.h
>>> /usr/include/poppler/XRef.h
--- /usr/include/poppler/glib/
>>> /usr/include/poppler/glib/poppler-movie.h
>>> /usr/include/poppler/glib/poppler-date.h
>>> /usr/include/poppler/glib/poppler.h
>>> /usr/include/poppler/glib/poppler-features.h
>>> /usr/include/poppler/glib/poppler-document.h
>>> /usr/include/poppler/glib/poppler-macros.h
>>> /usr/include/poppler/glib/poppler-media.h
>>> /usr/include/poppler/glib/poppler-form-field.h
>>> /usr/include/poppler/glib/poppler-attachment.h
>>> /usr/include/poppler/glib/poppler-page.h
>>> /usr/include/poppler/glib/poppler-enums.h
>>> /usr/include/poppler/glib/poppler-structure-element.h
>>> /usr/include/poppler/glib/poppler-layer.h
>>> /usr/include/poppler/glib/poppler-action.h
>>> /usr/include/poppler/glib/poppler-annot.h
>>> /usr/include/poppler/Object.h
>>> /usr/include/poppler/GfxFont.h
>>> /usr/include/poppler/CertificateInfo.h
--- /usr/include/poppler/goo/
>>> /usr/include/poppler/goo/PNGWriter.h
>>> /usr/include/poppler/goo/GooString.h
>>> /usr/include/poppler/goo/grandom.h
>>> /usr/include/poppler/goo/gdir.h
>>> /usr/include/poppler/goo/gfile.h
>>> /usr/include/poppler/goo/gmem.h
>>> /usr/include/poppler/goo/GooLikely.h
>>> /usr/include/poppler/goo/TiffWriter.h
>>> /usr/include/poppler/goo/ImgWriter.h
>>> /usr/include/poppler/goo/JpegWriter.h
>>> /usr/include/poppler/goo/gstrtod.h
>>> /usr/include/poppler/goo/GooCheckedOps.h
>>> /usr/include/poppler/goo/GooTimer.h
>>> /usr/include/poppler/Form.h
>>> /usr/include/poppler/Annot.h
>>> /usr/include/poppler/CurlPDFDocBuilder.h
>>> /usr/include/poppler/Catalog.h
>>> /usr/include/poppler/StructElement.h
>>> /usr/include/poppler/Dict.h
>>> /usr/include/poppler/SecurityHandler.h
>>> /usr/include/poppler/Error.h
>>> /usr/include/poppler/CMap.h
>>> /usr/include/poppler/PSTokenizer.h
>>> /usr/include/poppler/FontInfo.h
>>> /usr/include/poppler/poppler-config.h
>>> /usr/include/poppler/LocalPDFDocBuilder.h
>>> /usr/include/poppler/Movie.h
>>> /usr/include/poppler/Array.h
>>> /usr/include/poppler/CairoFontEngine.h
>>> /usr/include/poppler/ProfileData.h
>>> /usr/include/poppler/OutputDev.h
>>> /usr/include/poppler/StdinPDFDocBuilder.h
>>> /usr/include/poppler/CachedFile.h
>>> /usr/include/poppler/PopplerCache.h
>>> /usr/include/poppler/PDFDocEncoding.h
>>> /usr/include/poppler/NameToCharCode.h
>>> /usr/include/poppler/FileSpec.h
>>> /usr/include/poppler/UnicodeDecompTables.h
>>> /usr/include/poppler/ErrorCodes.h
--- /usr/include/poppler/fofi/
>>> /usr/include/poppler/fofi/FoFiIdentifier.h
>>> /usr/include/poppler/fofi/FoFiType1.h
>>> /usr/include/poppler/fofi/FoFiTrueType.h
>>> /usr/include/poppler/fofi/FoFiBase.h
>>> /usr/include/poppler/fofi/FoFiType1C.h
>>> /usr/include/poppler/fofi/FoFiEncodings.h
>>> /usr/include/poppler/UnicodeTypeTable.h
>>> /usr/include/poppler/JBIG2Stream.h
>>> /usr/include/poppler/UnicodeCClassTables.h
>>> /usr/include/poppler/JPEG2000Stream.h
>>> /usr/include/poppler/StdinCachedFile.h
>>> /usr/include/poppler/UTF.h
>>> /usr/include/poppler/Lexer.h
>>> /usr/include/poppler/PreScanOutputDev.h
>>> /usr/include/poppler/UnicodeMap.h
>>> /usr/include/poppler/Sound.h
>>> /usr/include/poppler/Page.h
>>> /usr/include/poppler/BBoxOutputDev.h
>>> /usr/include/poppler/GfxState.h
>>> /usr/include/poppler/GfxState_helpers.h
>>> /usr/include/poppler/DateInfo.h
--- /usr/include/poppler/cpp/
>>> /usr/include/poppler/cpp/poppler-embedded-file.h
>>> /usr/include/poppler/cpp/poppler-image.h
>>> /usr/include/poppler/cpp/poppler-document.h
>>> /usr/include/poppler/cpp/poppler-page-transition.h
>>> /usr/include/poppler/cpp/poppler-toc.h
>>> /usr/include/poppler/cpp/poppler-page.h
>>> /usr/include/poppler/cpp/poppler-font.h
>>> /usr/include/poppler/cpp/poppler-global.h
>>> /usr/include/poppler/cpp/poppler-destination.h
>>> /usr/include/poppler/cpp/poppler-rectangle.h
>>> /usr/include/poppler/cpp/poppler-page-renderer.h
>>> /usr/include/poppler/cpp/poppler-version.h
>>> /usr/include/poppler/StructTreeRoot.h
>>> /usr/include/poppler/TextOutputDev.h
>>> /usr/include/poppler/CairoOutputDev.h
>>> /usr/include/poppler/Linearization.h
>>> /usr/include/poppler/SplashOutputDev.h
>>> /usr/include/poppler/PDFDocFactory.h
>>> /usr/include/poppler/MarkedContentOutputDev.h
>>> /usr/include/poppler/Rendition.h
--- /usr/include/poppler/splash/
>>> /usr/include/poppler/splash/SplashGlyphBitmap.h
>>> /usr/include/poppler/splash/SplashFTFont.h
>>> /usr/include/poppler/splash/SplashFontFileID.h
>>> /usr/include/poppler/splash/SplashMath.h
>>> /usr/include/poppler/splash/SplashFTFontEngine.h
>>> /usr/include/poppler/splash/SplashClip.h
>>> /usr/include/poppler/splash/SplashFontEngine.h
>>> /usr/include/poppler/splash/SplashTypes.h
>>> /usr/include/poppler/splash/SplashFontFile.h
>>> /usr/include/poppler/splash/Splash.h
>>> /usr/include/poppler/splash/SplashState.h
>>> /usr/include/poppler/splash/SplashFTFontFile.h
>>> /usr/include/poppler/splash/SplashFont.h
>>> /usr/include/poppler/splash/SplashScreen.h
>>> /usr/include/poppler/splash/SplashBitmap.h
>>> /usr/include/poppler/splash/SplashXPath.h
>>> /usr/include/poppler/splash/SplashPath.h
>>> /usr/include/poppler/splash/SplashXPathScanner.h
>>> /usr/include/poppler/splash/SplashPattern.h
>>> /usr/include/poppler/splash/SplashErrorCodes.h
>>> /usr/include/poppler/GlobalParams.h
>>> /usr/include/poppler/Function.h
>>> /usr/include/poppler/UnicodeMapFuncs.h
>>> /usr/include/poppler/Decrypt.h
>>> /usr/include/poppler/OptionalContent.h
>>> /usr/include/poppler/Parser.h
>>> /usr/include/poppler/CharCodeToUnicode.h
>>> /usr/include/poppler/Stream.h
>>> /usr/include/poppler/Stream-CCITT.h
>>> /usr/include/poppler/UnicodeMapTables.h
>>> /usr/include/poppler/FontEncodingTables.h
>>> /usr/include/poppler/CairoRescaleBox.h
>>> /usr/include/poppler/PSOutputDev.h
>>> /usr/include/poppler/PageTransition.h
>>> /usr/include/poppler/Link.h
>>> /usr/include/poppler/PDFDocBuilder.h
>>> /usr/include/poppler/CurlCachedFile.h
--- /usr/include/poppler/qt5/
>>> /usr/include/poppler/qt5/poppler-annotation.h
>>> /usr/include/poppler/qt5/poppler-form.h
>>> /usr/include/poppler/qt5/poppler-page-transition.h
>>> /usr/include/poppler/qt5/poppler-media.h
>>> /usr/include/poppler/qt5/poppler-optcontent.h
>>> /usr/include/poppler/qt5/poppler-link.h
>>> /usr/include/poppler/qt5/poppler-export.h
>>> /usr/include/poppler/qt5/poppler-qt5.h
>>> /usr/include/poppler/qt5/poppler-version.h
>>> /usr/include/poppler/PDFDoc.h
--- /usr/bin/
>>> /usr/bin/pdfinfo
>>> /usr/bin/pdffonts
>>> /usr/bin/pdfseparate
>>> /usr/bin/pdfunite
>>> /usr/bin/pdftops
>>> /usr/bin/pdftoppm
>>> /usr/bin/pdfimages
>>> /usr/bin/pdfdetach
>>> /usr/bin/pdftocairo
>>> /usr/bin/pdfattach
>>> /usr/bin/pdftotext
>>> /usr/bin/pdftohtml
>>> Safely unmerging already-installed instance...
>>> Original instance of package unmerged safely.
>>> app-text/poppler-0.88.0-r1 merged.
>>> Regenerating /etc/ld.so.cache...
