 * Package:    app-arch/bzip2-1.0.8-r1
 * Repository: gentoo
 * Maintainer: base-system@gentoo.org
 * USE:        abi_x86_64 amd64 elibc_glibc kernel_linux split-usr userland_GNU
 * FEATURES:   ccache network-sandbox preserve-libs sandbox userpriv usersandbox
 * FEATURES='assume-digests binpkg-docompress binpkg-dostrip binpkg-logs binpkg-multi-instance buildpkg ccache compress-index config-protect-if-modified distlocks downgrade-backup fixlafiles ipc-sandbox merge-sync multilib-strict network-sandbox news nodoc parallel-fetch parallel-install pid-sandbox preserve-libs qa-unresolved-soname-deps sandbox sfperms strict unknown-features-warn unmerge-backup unmerge-logs unmerge-orphans userfetch userpriv usersandbox usersync xattr'
 * CFLAGS='-march=znver2 -O3 -fgraphite-identity -floop-nest-optimize -fdevirtualize-at-ltrans -fipa-pta -fno-semantic-interposition -flto=12 -fno-plt -fno-signed-zeros -fno-trapping-math -fassociative-math -freciprocal-math -fno-math-errno -ffinite-math-only -fno-rounding-math -fno-signaling-nans -fcx-limited-range -fexcess-precision=fast -falign-functions=32 -fno-stack-protector -fno-stack-clash-protection -fstack-check=no -fno-stack-check -fuse-linker-plugin -pipe -g0 -Wl,-O1 -Wl,--as-needed -Wl,--sort-common -s -Wl,-lpthread -Wl,-lgomp -Wl,-z,norelro -Wl,-z,now'
 * CXXFLAGS='-march=znver2 -O3 -fgraphite-identity -floop-nest-optimize -fdevirtualize-at-ltrans -fipa-pta -fno-semantic-interposition -flto=12 -fno-plt -fno-signed-zeros -fno-trapping-math -fassociative-math -freciprocal-math -fno-math-errno -ffinite-math-only -fno-rounding-math -fno-signaling-nans -fcx-limited-range -fexcess-precision=fast -falign-functions=32 -fno-stack-protector -fno-stack-clash-protection -fstack-check=no -fno-stack-check -fuse-linker-plugin -pipe -g0 -Wl,-O1 -Wl,--as-needed -Wl,--sort-common -s -Wl,-lpthread -Wl,-lgomp -Wl,-z,norelro -Wl,-z,now'
 * FFLAGS='-march=znver2 -O3 -fgraphite-identity -floop-nest-optimize -fdevirtualize-at-ltrans -fipa-pta -fno-semantic-interposition -flto=12 -fno-plt -fno-signed-zeros -fno-trapping-math -fassociative-math -freciprocal-math -fno-math-errno -ffinite-math-only -fno-rounding-math -fno-signaling-nans -fcx-limited-range -fexcess-precision=fast -falign-functions=32 -fno-stack-protector -fno-stack-clash-protection -fstack-check=no -fno-stack-check -fuse-linker-plugin -pipe -g0 -Wl,-O1 -Wl,--as-needed -Wl,--sort-common -s -Wl,-lpthread -Wl,-lgomp -Wl,-z,norelro -Wl,-z,now'
 * FCFLAGS='-march=znver2 -O3 -fgraphite-identity -floop-nest-optimize -fdevirtualize-at-ltrans -fipa-pta -fno-semantic-interposition -flto=12 -fno-plt -fno-signed-zeros -fno-trapping-math -fassociative-math -freciprocal-math -fno-math-errno -ffinite-math-only -fno-rounding-math -fno-signaling-nans -fcx-limited-range -fexcess-precision=fast -falign-functions=32 -fno-stack-protector -fno-stack-clash-protection -fstack-check=no -fno-stack-check -fuse-linker-plugin -pipe -g0 -Wl,-O1 -Wl,--as-needed -Wl,--sort-common -s -Wl,-lpthread -Wl,-lgomp -Wl,-z,norelro -Wl,-z,now'
 * F77FLAGS='-march=znver2 -O3 -fgraphite-identity -floop-nest-optimize -fdevirtualize-at-ltrans -fipa-pta -fno-semantic-interposition -flto=12 -fno-plt -fno-signed-zeros -fno-trapping-math -fassociative-math -freciprocal-math -fno-math-errno -ffinite-math-only -fno-rounding-math -fno-signaling-nans -fcx-limited-range -fexcess-precision=fast -falign-functions=32 -fno-stack-protector -fno-stack-clash-protection -fstack-check=no -fno-stack-check -fuse-linker-plugin -pipe -g0 -Wl,-O1 -Wl,--as-needed -Wl,--sort-common -s -Wl,-lpthread -Wl,-lgomp -Wl,-z,norelro -Wl,-z,now'
 * LDFLAGS='-Wl,-O1 -Wl,--as-needed -Wl,--sort-common -s -Wl,-lpthread -Wl,-lgomp -Wl,-z,norelro -Wl,-z,now -march=znver2 -O3 -fgraphite-identity -floop-nest-optimize -fdevirtualize-at-ltrans -fipa-pta -fno-semantic-interposition -flto=12 -fno-plt -fno-signed-zeros -fno-trapping-math -fassociative-math -freciprocal-math -fno-math-errno -ffinite-math-only -fno-rounding-math -fno-signaling-nans -fcx-limited-range -fexcess-precision=fast -falign-functions=32 -fno-stack-protector -fno-stack-clash-protection -fstack-check=no -fno-stack-check -fuse-linker-plugin -pipe -g0'
 * MAKEOPTS='-j12 -l12'
 * gcc () 11.0.0 20200526 (experimental)
 * g++ () 11.0.0 20200526 (experimental)
 * GNU ld (Gentoo 2.34 p4) 2.34.0
 * Linux ryzen.gnum.org 5.4.36 #1 SMP Thu Apr 30 04:38:28 UTC 2020 x86_64 AMD Ryzen 5 3600 6-Core Processor AuthenticAMD GNU/Linux
app-arch/bzip2: 3 minutes, 32 seconds average for 27 merges
2020-05-16T20:32:27 >>> app-arch/bzip2: 12 seconds
2020-05-20T00:55:54 >>> app-arch/bzip2: 1 minute, 29 seconds
2020-05-21T05:45:41 >>> app-arch/bzip2: 6 seconds
2020-05-22T01:52:47 >>> app-arch/bzip2: 6 minutes
2020-05-22T02:39:05 >>> app-arch/bzip2: 2 minutes, 35 seconds
2020-05-22T02:58:42 >>> app-arch/bzip2: 2 minutes, 19 seconds
2020-05-22T03:03:53 >>> app-arch/bzip2: 6 minutes, 51 seconds
2020-05-22T12:23:36 >>> app-arch/bzip2: 6 minutes, 37 seconds
2020-05-23T03:25:18 >>> app-arch/bzip2: 6 minutes, 40 seconds
2020-05-24T22:34:16 >>> app-arch/bzip2: 8 minutes, 14 seconds
2020-05-24T23:19:25 >>> app-arch/bzip2: 9 minutes, 12 seconds
2020-05-25T03:01:16 >>> app-arch/bzip2: 1 minute, 9 seconds
2020-05-25T14:37:18 >>> app-arch/bzip2: 3 minutes, 30 seconds
2020-05-25T18:11:14 >>> app-arch/bzip2: 7 minutes, 24 seconds
2020-05-25T19:48:39 >>> app-arch/bzip2: 4 minutes, 28 seconds
2020-05-26T12:30:09 >>> app-arch/bzip2: 4 minutes, 17 seconds
2020-05-26T13:45:53 >>> app-arch/bzip2: 2 minutes, 11 seconds
2020-05-27T01:23:49 >>> app-arch/bzip2: 1 minute, 30 seconds
2020-05-27T02:57:32 >>> app-arch/bzip2: 8 minutes, 19 seconds
2020-05-28T13:20:35 >>> app-arch/bzip2: 6 minutes, 25 seconds
2020-05-28T13:52:51 >>> app-arch/bzip2: 28 seconds
2020-05-28T14:11:07 >>> app-arch/bzip2: 2 minutes, 12 seconds
2020-05-29T00:17:10 >>> app-arch/bzip2: 29 seconds
2020-05-29T00:25:10 >>> app-arch/bzip2: 29 seconds
2020-05-29T00:45:58 >>> app-arch/bzip2: 29 seconds
2020-05-29T00:49:59 >>> app-arch/bzip2: 34 seconds
2020-05-29T01:31:22 >>> app-arch/bzip2: 1 minute, 31 seconds
]0;emerge 03:10:07 5|1128 bzip2 00:51 (root@ryzen.gnum.org)kemerge 03:10:07 5|1128 bzip2 00:51 (root@ryzen.gnum.org)\>>> Unpacking source...
>>> Unpacking bzip2-1.0.8.tar.gz to /tmp/portage/app-arch/bzip2-1.0.8-r1/work
>>> Source unpacked in /tmp/portage/app-arch/bzip2-1.0.8-r1/work
>>> Preparing source in /tmp/portage/app-arch/bzip2-1.0.8-r1/work/bzip2-1.0.8 ...
 * Applying bzip2-1.0.4-makefile-CFLAGS.patch ...
/tmp/portage/app-arch/bzip2-1.0.8-r1/temp/environment: line 1621:    32 Aborted                 ${patch_cmd} "${all_opts[@]}" --dry-run -s -F0 < "${f}" &> /dev/null
Fatal error: glibc detected an invalid stdio handle
/tmp/portage/app-arch/bzip2-1.0.8-r1/temp/environment: line 1621:    33 Aborted                 ${patch_cmd} "${all_opts[@]}" < "${f}"
 [ !! ]
 * ERROR: app-arch/bzip2-1.0.8-r1::gentoo failed (prepare phase):
 *   patch -p1  failed with /tmp/portage/app-arch/bzip2-1.0.8-r1/files/bzip2-1.0.4-makefile-CFLAGS.patch
 * 
 * Call stack:
 *               ebuild.sh, line  125:  Called src_prepare
 *             environment, line 2836:  Called default
 *      phase-functions.sh, line  855:  Called default_src_prepare
 *      phase-functions.sh, line  920:  Called __eapi6_src_prepare
 *             environment, line 1421:  Called eapply '/tmp/portage/app-arch/bzip2-1.0.8-r1/files/bzip2-1.0.4-makefile-CFLAGS.patch' '/tmp/portage/app-arch/bzip2-1.0.8-r1/files/bzip2-1.0.8-saneso.patch' '/tmp/portage/app-arch/bzip2-1.0.8-r1/files/bzip2-1.0.4-man-links.patch' '/tmp/portage/app-arch/bzip2-1.0.8-r1/files/bzip2-1.0.6-progress.patch' '/tmp/portage/app-arch/bzip2-1.0.8-r1/files/bzip2-1.0.3-no-test.patch' '/tmp/portage/app-arch/bzip2-1.0.8-r1/files/bzip2-1.0.8-mingw.patch' '/tmp/portage/app-arch/bzip2-1.0.8-r1/files/bzip2-1.0.8-out-of-tree-build.patch'
 *             environment, line 1694:  Called _eapply_patch '/tmp/portage/app-arch/bzip2-1.0.8-r1/files/bzip2-1.0.4-makefile-CFLAGS.patch'
 *             environment, line 1632:  Called __helpers_die 'patch -p1  failed with /tmp/portage/app-arch/bzip2-1.0.8-r1/files/bzip2-1.0.4-makefile-CFLAGS.patch'
 *   isolated-functions.sh, line  112:  Called die
 * The specific snippet of code:
 *   		die "$@"
 * 
 * If you need support, post the output of `emerge --info '=app-arch/bzip2-1.0.8-r1::gentoo'`,
 * the complete build log and the output of `emerge -pqv '=app-arch/bzip2-1.0.8-r1::gentoo'`.
 * The complete build log is located at '/var/log/emerge-log/app-arch:bzip2-1.0.8-r1:20200529-011005.log'.
 * For convenience, a symlink to the build log is located at '/tmp/portage/app-arch/bzip2-1.0.8-r1/temp/build.log'.
 * The ebuild environment file is located at '/tmp/portage/app-arch/bzip2-1.0.8-r1/temp/environment'.
 * Working directory: '/tmp/portage/app-arch/bzip2-1.0.8-r1/work/bzip2-1.0.8'
 * S: '/tmp/portage/app-arch/bzip2-1.0.8-r1/work/bzip2-1.0.8'
