 * Package:    app-text/html2text-1.3.2a-r2
 * Repository: gentoo
 * Maintainer: grobian@gentoo.org
 * USE:        abi_x86_64 amd64 elibc_glibc kernel_linux userland_GNU
 * FEATURES:   network-sandbox preserve-libs sandbox userpriv usersandbox
 * FEATURES='assume-digests binpkg-docompress binpkg-dostrip binpkg-logs binpkg-multi-instance buildpkg cgroup compress-index config-protect-if-modified distlocks downgrade-backup fixlafiles ipc-sandbox merge-sync multilib-strict network-sandbox news nodoc parallel-fetch parallel-install pid-sandbox preserve-libs qa-unresolved-soname-deps sandbox sfperms strict unknown-features-warn unmerge-backup unmerge-logs unmerge-orphans userfetch userpriv usersandbox usersync xattr'
 * CFLAGS='-march=znver2 -O3 -fgraphite-identity -floop-nest-optimize -fdevirtualize-at-ltrans -fipa-pta -fno-semantic-interposition -flto=12 -fno-plt -fno-signed-zeros -fno-trapping-math -fassociative-math -freciprocal-math -fno-math-errno -ffinite-math-only -fno-rounding-math -fno-signaling-nans -fcx-limited-range -fexcess-precision=fast -falign-functions=32 -fno-stack-protector -fno-stack-clash-protection -fstack-check=no -fno-stack-check -fbranch-target-load-optimize2 -freschedule-modulo-scheduled-loops -fsched-pressure -fsched-spec-load -fsched-stalled-insns=0 -fsched2-use-superblocks -fselective-scheduling -fselective-scheduling2 -fsel-sched-pipelining -fsel-sched-pipelining-outer-loops -fuse-linker-plugin -pipe -g0 -Wl,-O1 -Wl,--as-needed -Wl,--sort-common -s -Wl,-lpthread -Wl,-lgomp -Wl,-z,norelro -Wl,-z,now'
 * CXXFLAGS='-march=znver2 -O3 -fgraphite-identity -floop-nest-optimize -fdevirtualize-at-ltrans -fipa-pta -fno-semantic-interposition -flto=12 -fno-plt -fno-signed-zeros -fno-trapping-math -fassociative-math -freciprocal-math -fno-math-errno -ffinite-math-only -fno-rounding-math -fno-signaling-nans -fcx-limited-range -fexcess-precision=fast -falign-functions=32 -fno-stack-protector -fno-stack-clash-protection -fstack-check=no -fno-stack-check -fbranch-target-load-optimize2 -freschedule-modulo-scheduled-loops -fsched-pressure -fsched-spec-load -fsched-stalled-insns=0 -fsched2-use-superblocks -fselective-scheduling -fselective-scheduling2 -fsel-sched-pipelining -fsel-sched-pipelining-outer-loops -fuse-linker-plugin -pipe -g0 -Wl,-O1 -Wl,--as-needed -Wl,--sort-common -s -Wl,-lpthread -Wl,-lgomp -Wl,-z,norelro -Wl,-z,now'
 * FFLAGS='-march=znver2 -O3 -fgraphite-identity -floop-nest-optimize -fdevirtualize-at-ltrans -fipa-pta -fno-semantic-interposition -flto=12 -fno-plt -fno-signed-zeros -fno-trapping-math -fassociative-math -freciprocal-math -fno-math-errno -ffinite-math-only -fno-rounding-math -fno-signaling-nans -fcx-limited-range -fexcess-precision=fast -falign-functions=32 -fno-stack-protector -fno-stack-clash-protection -fstack-check=no -fno-stack-check -fbranch-target-load-optimize2 -freschedule-modulo-scheduled-loops -fsched-pressure -fsched-spec-load -fsched-stalled-insns=0 -fsched2-use-superblocks -fselective-scheduling -fselective-scheduling2 -fsel-sched-pipelining -fsel-sched-pipelining-outer-loops -fuse-linker-plugin -pipe -g0 -Wl,-O1 -Wl,--as-needed -Wl,--sort-common -s -Wl,-lpthread -Wl,-lgomp -Wl,-z,norelro -Wl,-z,now'
 * FCFLAGS='-march=znver2 -O3 -fgraphite-identity -floop-nest-optimize -fdevirtualize-at-ltrans -fipa-pta -fno-semantic-interposition -flto=12 -fno-plt -fno-signed-zeros -fno-trapping-math -fassociative-math -freciprocal-math -fno-math-errno -ffinite-math-only -fno-rounding-math -fno-signaling-nans -fcx-limited-range -fexcess-precision=fast -falign-functions=32 -fno-stack-protector -fno-stack-clash-protection -fstack-check=no -fno-stack-check -fbranch-target-load-optimize2 -freschedule-modulo-scheduled-loops -fsched-pressure -fsched-spec-load -fsched-stalled-insns=0 -fsched2-use-superblocks -fselective-scheduling -fselective-scheduling2 -fsel-sched-pipelining -fsel-sched-pipelining-outer-loops -fuse-linker-plugin -pipe -g0 -Wl,-O1 -Wl,--as-needed -Wl,--sort-common -s -Wl,-lpthread -Wl,-lgomp -Wl,-z,norelro -Wl,-z,now'
 * F77FLAGS='-march=znver2 -O3 -fgraphite-identity -floop-nest-optimize -fdevirtualize-at-ltrans -fipa-pta -fno-semantic-interposition -flto=12 -fno-plt -fno-signed-zeros -fno-trapping-math -fassociative-math -freciprocal-math -fno-math-errno -ffinite-math-only -fno-rounding-math -fno-signaling-nans -fcx-limited-range -fexcess-precision=fast -falign-functions=32 -fno-stack-protector -fno-stack-clash-protection -fstack-check=no -fno-stack-check -fbranch-target-load-optimize2 -freschedule-modulo-scheduled-loops -fsched-pressure -fsched-spec-load -fsched-stalled-insns=0 -fsched2-use-superblocks -fselective-scheduling -fselective-scheduling2 -fsel-sched-pipelining -fsel-sched-pipelining-outer-loops -fuse-linker-plugin -pipe -g0 -Wl,-O1 -Wl,--as-needed -Wl,--sort-common -s -Wl,-lpthread -Wl,-lgomp -Wl,-z,norelro -Wl,-z,now'
 * LDFLAGS='-Wl,-O1 -Wl,--as-needed -Wl,--sort-common -s -Wl,-lpthread -Wl,-lgomp -Wl,-z,norelro -Wl,-z,now -march=znver2 -O3 -fgraphite-identity -floop-nest-optimize -fdevirtualize-at-ltrans -fipa-pta -fno-semantic-interposition -flto=12 -fno-plt -fno-signed-zeros -fno-trapping-math -fassociative-math -freciprocal-math -fno-math-errno -ffinite-math-only -fno-rounding-math -fno-signaling-nans -fcx-limited-range -fexcess-precision=fast -falign-functions=32 -fno-stack-protector -fno-stack-clash-protection -fstack-check=no -fno-stack-check -fbranch-target-load-optimize2 -freschedule-modulo-scheduled-loops -fsched-pressure -fsched-spec-load -fsched-stalled-insns=0 -fsched2-use-superblocks -fselective-scheduling -fselective-scheduling2 -fsel-sched-pipelining -fsel-sched-pipelining-outer-loops -fuse-linker-plugin -pipe -g0'
 * MAKEOPTS='-j12 -l12'
 * gcc () 11.0.0 20200528 (experimental)
 * g++ () 11.0.0 20200528 (experimental)
 * GNU ld (Gentoo 2.34 p4) 2.34.0
 * Linux ryzen.gnum.org 5.4.36 #1 SMP Thu Apr 30 04:38:28 UTC 2020 x86_64 AMD Ryzen 5 3600 6-Core Processor AuthenticAMD GNU/Linux
app-text/html2text: 6 minutes, 24 seconds average for 12 merges
2020-05-16T20:43:32 >>> app-text/html2text: 11 seconds
2020-05-22T01:56:01 >>> app-text/html2text: 7 minutes, 39 seconds
2020-05-22T03:07:26 >>> app-text/html2text: 8 minutes, 7 seconds
2020-05-22T12:26:51 >>> app-text/html2text: 8 minutes
2020-05-23T03:28:56 >>> app-text/html2text: 7 minutes, 39 seconds
2020-05-24T23:22:28 >>> app-text/html2text: 9 minutes, 34 seconds
2020-05-25T18:15:13 >>> app-text/html2text: 6 minutes, 44 seconds
2020-05-25T19:51:47 >>> app-text/html2text: 4 minutes, 28 seconds
2020-05-26T12:50:19 >>> app-text/html2text: 5 minutes, 28 seconds
2020-05-26T13:46:35 >>> app-text/html2text: 5 minutes, 7 seconds
2020-05-27T01:24:26 >>> app-text/html2text: 6 minutes, 10 seconds
2020-05-27T03:01:32 >>> app-text/html2text: 7 minutes, 46 seconds
]0;emerge 13:23:01 56|1123 html2text 06:21 (root@ryzen.gnum.org)kemerge 13:23:01 56|1123 html2text 06:21 (root@ryzen.gnum.org)\>>> Unpacking source...
>>> Unpacking html2text-1.3.2a.tar.gz to /tmp/portage/app-text/html2text-1.3.2a-r2/work
>>> Unpacking patch-utf8-html2text-1.3.2a.diff to /tmp/portage/app-text/html2text-1.3.2a-r2/work
unpack patch-utf8-html2text-1.3.2a.diff: file format not recognized. Ignoring.
>>> Unpacking patch-amd64-html2text-1.3.2a.diff to /tmp/portage/app-text/html2text-1.3.2a-r2/work
unpack patch-amd64-html2text-1.3.2a.diff: file format not recognized. Ignoring.
>>> Source unpacked in /tmp/portage/app-text/html2text-1.3.2a-r2/work
>>> Preparing source in /tmp/portage/app-text/html2text-1.3.2a-r2/work/html2text-1.3.2a ...
 * Applying html2text-1.3.2a-compiler.patch ...
 [ ok ]
 * Applying html2text-1.3.2a-urlistream-get.patch ...
 [ ok ]
 * Applying patch-utf8-html2text-1.3.2a.diff ...
 [ ok ]
 * Applying patch-amd64-html2text-1.3.2a.diff ...
 [ ok ]
>>> Source prepared.
>>> Configuring source in /tmp/portage/app-text/html2text-1.3.2a-r2/work/html2text-1.3.2a ...
./configure --prefix=/usr --build=x86_64-pc-linux-gnu --host=x86_64-pc-linux-gnu --mandir=/usr/share/man --infodir=/usr/share/info --datadir=/usr/share --sysconfdir=/etc --localstatedir=/var/lib --libdir=/usr/lib64
Checking C++ compiler... use "x86_64-pc-linux-gnu-g++"
Checking <sys/poll.h>... OK
Checking for socket libraries... no extra libraries required
Checking "bool"... built-in
Checking "explicit"... built-in
Checking Standard C++ library... works; no need to make "./libstd"
Checking "auto_ptr"... not defined or not working, use "./libstd/include/auto_ptr.h"
Checking "makedepend" includes... use "-I/usr/include -I/usr/include/asm -I/usr/include/asm-generic -I/usr/include/bits -I/usr/include/bits/types -I/usr/include/gnu -I/usr/include/linux -I/usr/include/sys -I/usr/lib/gcc/x86_64-pc-linux-gnu/11.0.0/include -I/usr/lib/gcc/x86_64-pc-linux-gnu/11.0.0/include/g++-v11 -I/usr/lib/gcc/x86_64-pc-linux-gnu/11.0.0/include/g++-v11/backward -I/usr/lib/gcc/x86_64-pc-linux-gnu/11.0.0/include/g++-v11/bits -I/usr/lib/gcc/x86_64-pc-linux-gnu/11.0.0/include/g++-v11/debug -I/usr/lib/gcc/x86_64-pc-linux-gnu/11.0.0/include/g++-v11/ext -I/usr/lib/gcc/x86_64-pc-linux-gnu/11.0.0/include/g++-v11/x86_64-pc-linux-gnu/bits "
Creating "./Makefile" from "./Makefile.in"... done

Preparing completed. You may now run "make" (or "gmake").

>>> Source configured.
>>> Compiling source in /tmp/portage/app-text/html2text-1.3.2a-r2/work/html2text-1.3.2a ...
make -j12 -l12 'LDFLAGS=-Wl,-O1 -Wl,--as-needed -Wl,--sort-common -s -Wl,-lpthread -Wl,-lgomp -Wl,-z,norelro -Wl,-z,now -march=znver2 -O3 -fgraphite-identity -floop-nest-optimize -fdevirtualize-at-ltrans -fipa-pta -fno-semantic-interposition -flto=12 -fno-plt -fno-signed-zeros -fno-trapping-math -fassociative-math -freciprocal-math -fno-math-errno -ffinite-math-only -fno-rounding-math -fno-signaling-nans -fcx-limited-range -fexcess-precision=fast -falign-functions=32 -fno-stack-protector -fno-stack-clash-protection -fstack-check=no -fno-stack-check -fbranch-target-load-optimize2 -freschedule-modulo-scheduled-loops -fsched-pressure -fsched-spec-load -fsched-stalled-insns=0 -fsched2-use-superblocks -fselective-scheduling -fselective-scheduling2 -fsel-sched-pipelining -fsel-sched-pipelining-outer-loops -fuse-linker-plugin -pipe -g0' 'DEBUG=-march=znver2 -O3 -fgraphite-identity -floop-nest-optimize -fdevirtualize-at-ltrans -fipa-pta -fno-semantic-interposition -flto=12 -fno-plt -fno-signed-zeros -fno-trapping-math -fassociative-math -freciprocal-math -fno-math-errno -ffinite-math-only -fno-rounding-math -fno-signaling-nans -fcx-limited-range -fexcess-precision=fast -falign-functions=32 -fno-stack-protector -fno-stack-clash-protection -fstack-check=no -fno-stack-check -fbranch-target-load-optimize2 -freschedule-modulo-scheduled-loops -fsched-pressure -fsched-spec-load -fsched-stalled-insns=0 -fsched2-use-superblocks -fselective-scheduling -fselective-scheduling2 -fsel-sched-pipelining -fsel-sched-pipelining-outer-loops -fuse-linker-plugin -pipe -g0 -Wl,-O1 -Wl,--as-needed -Wl,--sort-common -s -Wl,-lpthread -Wl,-lgomp -Wl,-z,norelro -Wl,-z,now' 
x86_64-pc-linux-gnu-g++ -c  -DVERSION=1.3.2a    -DAUTO_PTR_BROKEN -march=znver2 -O3 -fgraphite-identity -floop-nest-optimize -fdevirtualize-at-ltrans -fipa-pta -fno-semantic-interposition -flto=12 -fno-plt -fno-signed-zeros -fno-trapping-math -fassociative-math -freciprocal-math -fno-math-errno -ffinite-math-only -fno-rounding-math -fno-signaling-nans -fcx-limited-range -fexcess-precision=fast -falign-functions=32 -fno-stack-protector -fno-stack-clash-protection -fstack-check=no -fno-stack-check -fbranch-target-load-optimize2 -freschedule-modulo-scheduled-loops -fsched-pressure -fsched-spec-load -fsched-stalled-insns=0 -fsched2-use-superblocks -fselective-scheduling -fselective-scheduling2 -fsel-sched-pipelining -fsel-sched-pipelining-outer-loops -fuse-linker-plugin -pipe -g0 -Wl,-O1 -Wl,--as-needed -Wl,--sort-common -s -Wl,-lpthread -Wl,-lgomp -Wl,-z,norelro -Wl,-z,now html2text.C
x86_64-pc-linux-gnu-g++ -c  -DVERSION=1.3.2a    -DAUTO_PTR_BROKEN -march=znver2 -O3 -fgraphite-identity -floop-nest-optimize -fdevirtualize-at-ltrans -fipa-pta -fno-semantic-interposition -flto=12 -fno-plt -fno-signed-zeros -fno-trapping-math -fassociative-math -freciprocal-math -fno-math-errno -ffinite-math-only -fno-rounding-math -fno-signaling-nans -fcx-limited-range -fexcess-precision=fast -falign-functions=32 -fno-stack-protector -fno-stack-clash-protection -fstack-check=no -fno-stack-check -fbranch-target-load-optimize2 -freschedule-modulo-scheduled-loops -fsched-pressure -fsched-spec-load -fsched-stalled-insns=0 -fsched2-use-superblocks -fselective-scheduling -fselective-scheduling2 -fsel-sched-pipelining -fsel-sched-pipelining-outer-loops -fuse-linker-plugin -pipe -g0 -Wl,-O1 -Wl,--as-needed -Wl,--sort-common -s -Wl,-lpthread -Wl,-lgomp -Wl,-z,norelro -Wl,-z,now html.C
x86_64-pc-linux-gnu-g++ -c  -DVERSION=1.3.2a    -DAUTO_PTR_BROKEN -march=znver2 -O3 -fgraphite-identity -floop-nest-optimize -fdevirtualize-at-ltrans -fipa-pta -fno-semantic-interposition -flto=12 -fno-plt -fno-signed-zeros -fno-trapping-math -fassociative-math -freciprocal-math -fno-math-errno -ffinite-math-only -fno-rounding-math -fno-signaling-nans -fcx-limited-range -fexcess-precision=fast -falign-functions=32 -fno-stack-protector -fno-stack-clash-protection -fstack-check=no -fno-stack-check -fbranch-target-load-optimize2 -freschedule-modulo-scheduled-loops -fsched-pressure -fsched-spec-load -fsched-stalled-insns=0 -fsched2-use-superblocks -fselective-scheduling -fselective-scheduling2 -fsel-sched-pipelining -fsel-sched-pipelining-outer-loops -fuse-linker-plugin -pipe -g0 -Wl,-O1 -Wl,--as-needed -Wl,--sort-common -s -Wl,-lpthread -Wl,-lgomp -Wl,-z,norelro -Wl,-z,now HTMLControl.C
x86_64-pc-linux-gnu-g++ -c  -DVERSION=1.3.2a    -DAUTO_PTR_BROKEN -march=znver2 -O3 -fgraphite-identity -floop-nest-optimize -fdevirtualize-at-ltrans -fipa-pta -fno-semantic-interposition -flto=12 -fno-plt -fno-signed-zeros -fno-trapping-math -fassociative-math -freciprocal-math -fno-math-errno -ffinite-math-only -fno-rounding-math -fno-signaling-nans -fcx-limited-range -fexcess-precision=fast -falign-functions=32 -fno-stack-protector -fno-stack-clash-protection -fstack-check=no -fno-stack-check -fbranch-target-load-optimize2 -freschedule-modulo-scheduled-loops -fsched-pressure -fsched-spec-load -fsched-stalled-insns=0 -fsched2-use-superblocks -fselective-scheduling -fselective-scheduling2 -fsel-sched-pipelining -fsel-sched-pipelining-outer-loops -fuse-linker-plugin -pipe -g0 -Wl,-O1 -Wl,--as-needed -Wl,--sort-common -s -Wl,-lpthread -Wl,-lgomp -Wl,-z,norelro -Wl,-z,now HTMLParser.C
x86_64-pc-linux-gnu-g++ -c  -DVERSION=1.3.2a    -DAUTO_PTR_BROKEN -march=znver2 -O3 -fgraphite-identity -floop-nest-optimize -fdevirtualize-at-ltrans -fipa-pta -fno-semantic-interposition -flto=12 -fno-plt -fno-signed-zeros -fno-trapping-math -fassociative-math -freciprocal-math -fno-math-errno -ffinite-math-only -fno-rounding-math -fno-signaling-nans -fcx-limited-range -fexcess-precision=fast -falign-functions=32 -fno-stack-protector -fno-stack-clash-protection -fstack-check=no -fno-stack-check -fbranch-target-load-optimize2 -freschedule-modulo-scheduled-loops -fsched-pressure -fsched-spec-load -fsched-stalled-insns=0 -fsched2-use-superblocks -fselective-scheduling -fselective-scheduling2 -fsel-sched-pipelining -fsel-sched-pipelining-outer-loops -fuse-linker-plugin -pipe -g0 -Wl,-O1 -Wl,--as-needed -Wl,--sort-common -s -Wl,-lpthread -Wl,-lgomp -Wl,-z,norelro -Wl,-z,now Area.C
x86_64-pc-linux-gnu-g++ -c  -DVERSION=1.3.2a    -DAUTO_PTR_BROKEN -march=znver2 -O3 -fgraphite-identity -floop-nest-optimize -fdevirtualize-at-ltrans -fipa-pta -fno-semantic-interposition -flto=12 -fno-plt -fno-signed-zeros -fno-trapping-math -fassociative-math -freciprocal-math -fno-math-errno -ffinite-math-only -fno-rounding-math -fno-signaling-nans -fcx-limited-range -fexcess-precision=fast -falign-functions=32 -fno-stack-protector -fno-stack-clash-protection -fstack-check=no -fno-stack-check -fbranch-target-load-optimize2 -freschedule-modulo-scheduled-loops -fsched-pressure -fsched-spec-load -fsched-stalled-insns=0 -fsched2-use-superblocks -fselective-scheduling -fselective-scheduling2 -fsel-sched-pipelining -fsel-sched-pipelining-outer-loops -fuse-linker-plugin -pipe -g0 -Wl,-O1 -Wl,--as-needed -Wl,--sort-common -s -Wl,-lpthread -Wl,-lgomp -Wl,-z,norelro -Wl,-z,now format.C
x86_64-pc-linux-gnu-g++ -c  -DVERSION=1.3.2a    -DAUTO_PTR_BROKEN -march=znver2 -O3 -fgraphite-identity -floop-nest-optimize -fdevirtualize-at-ltrans -fipa-pta -fno-semantic-interposition -flto=12 -fno-plt -fno-signed-zeros -fno-trapping-math -fassociative-math -freciprocal-math -fno-math-errno -ffinite-math-only -fno-rounding-math -fno-signaling-nans -fcx-limited-range -fexcess-precision=fast -falign-functions=32 -fno-stack-protector -fno-stack-clash-protection -fstack-check=no -fno-stack-check -fbranch-target-load-optimize2 -freschedule-modulo-scheduled-loops -fsched-pressure -fsched-spec-load -fsched-stalled-insns=0 -fsched2-use-superblocks -fselective-scheduling -fselective-scheduling2 -fsel-sched-pipelining -fsel-sched-pipelining-outer-loops -fuse-linker-plugin -pipe -g0 -Wl,-O1 -Wl,--as-needed -Wl,--sort-common -s -Wl,-lpthread -Wl,-lgomp -Wl,-z,norelro -Wl,-z,now sgml.C
x86_64-pc-linux-gnu-g++ -c  -DVERSION=1.3.2a    -DAUTO_PTR_BROKEN -march=znver2 -O3 -fgraphite-identity -floop-nest-optimize -fdevirtualize-at-ltrans -fipa-pta -fno-semantic-interposition -flto=12 -fno-plt -fno-signed-zeros -fno-trapping-math -fassociative-math -freciprocal-math -fno-math-errno -ffinite-math-only -fno-rounding-math -fno-signaling-nans -fcx-limited-range -fexcess-precision=fast -falign-functions=32 -fno-stack-protector -fno-stack-clash-protection -fstack-check=no -fno-stack-check -fbranch-target-load-optimize2 -freschedule-modulo-scheduled-loops -fsched-pressure -fsched-spec-load -fsched-stalled-insns=0 -fsched2-use-superblocks -fselective-scheduling -fselective-scheduling2 -fsel-sched-pipelining -fsel-sched-pipelining-outer-loops -fuse-linker-plugin -pipe -g0 -Wl,-O1 -Wl,--as-needed -Wl,--sort-common -s -Wl,-lpthread -Wl,-lgomp -Wl,-z,norelro -Wl,-z,now table.C
x86_64-pc-linux-gnu-g++ -c  -DVERSION=1.3.2a    -DAUTO_PTR_BROKEN -march=znver2 -O3 -fgraphite-identity -floop-nest-optimize -fdevirtualize-at-ltrans -fipa-pta -fno-semantic-interposition -flto=12 -fno-plt -fno-signed-zeros -fno-trapping-math -fassociative-math -freciprocal-math -fno-math-errno -ffinite-math-only -fno-rounding-math -fno-signaling-nans -fcx-limited-range -fexcess-precision=fast -falign-functions=32 -fno-stack-protector -fno-stack-clash-protection -fstack-check=no -fno-stack-check -fbranch-target-load-optimize2 -freschedule-modulo-scheduled-loops -fsched-pressure -fsched-spec-load -fsched-stalled-insns=0 -fsched2-use-superblocks -fselective-scheduling -fselective-scheduling2 -fsel-sched-pipelining -fsel-sched-pipelining-outer-loops -fuse-linker-plugin -pipe -g0 -Wl,-O1 -Wl,--as-needed -Wl,--sort-common -s -Wl,-lpthread -Wl,-lgomp -Wl,-z,norelro -Wl,-z,now urlistream.C
x86_64-pc-linux-gnu-g++ -c  -DVERSION=1.3.2a    -DAUTO_PTR_BROKEN -march=znver2 -O3 -fgraphite-identity -floop-nest-optimize -fdevirtualize-at-ltrans -fipa-pta -fno-semantic-interposition -flto=12 -fno-plt -fno-signed-zeros -fno-trapping-math -fassociative-math -freciprocal-math -fno-math-errno -ffinite-math-only -fno-rounding-math -fno-signaling-nans -fcx-limited-range -fexcess-precision=fast -falign-functions=32 -fno-stack-protector -fno-stack-clash-protection -fstack-check=no -fno-stack-check -fbranch-target-load-optimize2 -freschedule-modulo-scheduled-loops -fsched-pressure -fsched-spec-load -fsched-stalled-insns=0 -fsched2-use-superblocks -fselective-scheduling -fselective-scheduling2 -fsel-sched-pipelining -fsel-sched-pipelining-outer-loops -fuse-linker-plugin -pipe -g0 -Wl,-O1 -Wl,--as-needed -Wl,--sort-common -s -Wl,-lpthread -Wl,-lgomp -Wl,-z,norelro -Wl,-z,now Properties.C
x86_64-pc-linux-gnu-g++ -c  -DVERSION=1.3.2a    -DAUTO_PTR_BROKEN -march=znver2 -O3 -fgraphite-identity -floop-nest-optimize -fdevirtualize-at-ltrans -fipa-pta -fno-semantic-interposition -flto=12 -fno-plt -fno-signed-zeros -fno-trapping-math -fassociative-math -freciprocal-math -fno-math-errno -ffinite-math-only -fno-rounding-math -fno-signaling-nans -fcx-limited-range -fexcess-precision=fast -falign-functions=32 -fno-stack-protector -fno-stack-clash-protection -fstack-check=no -fno-stack-check -fbranch-target-load-optimize2 -freschedule-modulo-scheduled-loops -fsched-pressure -fsched-spec-load -fsched-stalled-insns=0 -fsched2-use-superblocks -fselective-scheduling -fselective-scheduling2 -fsel-sched-pipelining -fsel-sched-pipelining-outer-loops -fuse-linker-plugin -pipe -g0 -Wl,-O1 -Wl,--as-needed -Wl,--sort-common -s -Wl,-lpthread -Wl,-lgomp -Wl,-z,norelro -Wl,-z,now cmp_nocase.C
[01m[Ksgml.C:67:31:[m[K [01;35m[Kwarning: [m[KISO C++ forbids converting a string constant to '[01m[Kchar*[m[K' [[01;35m[K]8;;https://gcc.gnu.org/onlinedocs/gcc/Warning-Options.html#index-Wwrite-strings-Wwrite-strings]8;;[m[K]
   67 |   { "AElig",   LATIN1_AElig,  [01;35m[K"AE"[m[K,  0x00c6},
      |                               [01;35m[K^~~~[m[K
[01m[Ksgml.C:68:31:[m[K [01;35m[Kwarning: [m[KISO C++ forbids converting a string constant to '[01m[Kchar*[m[K' [[01;35m[K]8;;https://gcc.gnu.org/onlinedocs/gcc/Warning-Options.html#index-Wwrite-strings-Wwrite-strings]8;;[m[K]
   68 |   { "AMP",     0,             [01;35m[K"&"[m[K,   0x0026},
      |                               [01;35m[K^~~[m[K
[01m[Ksgml.C:69:31:[m[K [01;35m[Kwarning: [m[KISO C++ forbids converting a string constant to '[01m[Kchar*[m[K' [[01;35m[K]8;;https://gcc.gnu.org/onlinedocs/gcc/Warning-Options.html#index-Wwrite-strings-Wwrite-strings]8;;[m[K]
   69 |   { "Aacute",  LATIN1_Aacute, [01;35m[K"A'"[m[K,  0x00c1},
      |                               [01;35m[K^~~~[m[K
[01m[Ksgml.C:70:31:[m[K [01;35m[Kwarning: [m[KISO C++ forbids converting a string constant to '[01m[Kchar*[m[K' [[01;35m[K]8;;https://gcc.gnu.org/onlinedocs/gcc/Warning-Options.html#index-Wwrite-strings-Wwrite-strings]8;;[m[K]
   70 |   { "Acirc",   LATIN1_Acirc,  [01;35m[K"A^"[m[K,  0x00c2},
      |                               [01;35m[K^~~~[m[K
[01m[Ksgml.C:71:31:[m[K [01;35m[Kwarning: [m[KISO C++ forbids converting a string constant to '[01m[Kchar*[m[K' [[01;35m[K]8;;https://gcc.gnu.org/onlinedocs/gcc/Warning-Options.html#index-Wwrite-strings-Wwrite-strings]8;;[m[K]
   71 |   { "Agrave",  LATIN1_Agrave, [01;35m[K"A`"[m[K,  0x00c0},
      |                               [01;35m[K^~~~[m[K
[01m[Ksgml.C:72:31:[m[K [01;35m[Kwarning: [m[KISO C++ forbids converting a string constant to '[01m[Kchar*[m[K' [[01;35m[K]8;;https://gcc.gnu.org/onlinedocs/gcc/Warning-Options.html#index-Wwrite-strings-Wwrite-strings]8;;[m[K]
   72 |   { "Alpha",   0,             [01;35m[K"A"[m[K,   0x0391},
      |                               [01;35m[K^~~[m[K
[01m[Ksgml.C:73:31:[m[K [01;35m[Kwarning: [m[KISO C++ forbids converting a string constant to '[01m[Kchar*[m[K' [[01;35m[K]8;;https://gcc.gnu.org/onlinedocs/gcc/Warning-Options.html#index-Wwrite-strings-Wwrite-strings]8;;[m[K]
   73 |   { "Aring",   LATIN1_Aring,  [01;35m[K"AA"[m[K,  0x00c5},
      |                               [01;35m[K^~~~[m[K
[01m[Ksgml.C:74:31:[m[K [01;35m[Kwarning: [m[KISO C++ forbids converting a string constant to '[01m[Kchar*[m[K' [[01;35m[K]8;;https://gcc.gnu.org/onlinedocs/gcc/Warning-Options.html#index-Wwrite-strings-Wwrite-strings]8;;[m[K]
   74 |   { "Atilde",  LATIN1_Atilde, [01;35m[K"A~"[m[K,  0x00c3},
      |                               [01;35m[K^~~~[m[K
[01m[Ksgml.C:75:31:[m[K [01;35m[Kwarning: [m[KISO C++ forbids converting a string constant to '[01m[Kchar*[m[K' [[01;35m[K]8;;https://gcc.gnu.org/onlinedocs/gcc/Warning-Options.html#index-Wwrite-strings-Wwrite-strings]8;;[m[K]
   75 |   { "Auml",    LATIN1_Auml,   [01;35m[K"A\""[m[K, 0x00c4},
      |                               [01;35m[K^~~~~[m[K
[01m[Ksgml.C:76:31:[m[K [01;35m[Kwarning: [m[KISO C++ forbids converting a string constant to '[01m[Kchar*[m[K' [[01;35m[K]8;;https://gcc.gnu.org/onlinedocs/gcc/Warning-Options.html#index-Wwrite-strings-Wwrite-strings]8;;[m[K]
   76 |   { "Beta",    0,             [01;35m[K"B"[m[K,   0x0392},
      |                               [01;35m[K^~~[m[K
[01m[Ksgml.C:77:31:[m[K [01;35m[Kwarning: [m[KISO C++ forbids converting a string constant to '[01m[Kchar*[m[K' [[01;35m[K]8;;https://gcc.gnu.org/onlinedocs/gcc/Warning-Options.html#index-Wwrite-strings-Wwrite-strings]8;;[m[K]
   77 |   { "Ccedil",  LATIN1_Ccedil, [01;35m[K"C,"[m[K,  0x00c7},
      |                               [01;35m[K^~~~[m[K
[01m[Ksgml.C:78:31:[m[K [01;35m[Kwarning: [m[KISO C++ forbids converting a string constant to '[01m[Kchar*[m[K' [[01;35m[K]8;;https://gcc.gnu.org/onlinedocs/gcc/Warning-Options.html#index-Wwrite-strings-Wwrite-strings]8;;[m[K]
   78 |   { "Chi",     0,             [01;35m[K"H"[m[K,   0x03a7},
      |                               [01;35m[K^~~[m[K
[01m[Ksgml.C:79:31:[m[K [01;35m[Kwarning: [m[KISO C++ forbids converting a string constant to '[01m[Kchar*[m[K' [[01;35m[K]8;;https://gcc.gnu.org/onlinedocs/gcc/Warning-Options.html#index-Wwrite-strings-Wwrite-strings]8;;[m[K]
   79 |   { "Dagger",  0,             [01;35m[K"++"[m[K,  0x2020},
      |                               [01;35m[K^~~~[m[K
[01m[Ksgml.C:80:31:[m[K [01;35m[Kwarning: [m[KISO C++ forbids converting a string constant to '[01m[Kchar*[m[K' [[01;35m[K]8;;https://gcc.gnu.org/onlinedocs/gcc/Warning-Options.html#index-Wwrite-strings-Wwrite-strings]8;;[m[K]
   80 |   { "Delta",   0,             [01;35m[K"D"[m[K,   0x0394},
      |                               [01;35m[K^~~[m[K
[01m[Ksgml.C:81:31:[m[K [01;35m[Kwarning: [m[KISO C++ forbids converting a string constant to '[01m[Kchar*[m[K' [[01;35m[K]8;;https://gcc.gnu.org/onlinedocs/gcc/Warning-Options.html#index-Wwrite-strings-Wwrite-strings]8;;[m[K]
   81 |   { "ETH",     LATIN1_ETH,    [01;35m[K"D-"[m[K,  0x00d0},
      |                               [01;35m[K^~~~[m[K
[01m[Ksgml.C:82:31:[m[K [01;35m[Kwarning: [m[KISO C++ forbids converting a string constant to '[01m[Kchar*[m[K' [[01;35m[K]8;;https://gcc.gnu.org/onlinedocs/gcc/Warning-Options.html#index-Wwrite-strings-Wwrite-strings]8;;[m[K]
   82 |   { "Eacute",  LATIN1_Eacute, [01;35m[K"E'"[m[K,  0x00c9},
      |                               [01;35m[K^~~~[m[K
[01m[Ksgml.C:83:31:[m[K [01;35m[Kwarning: [m[KISO C++ forbids converting a string constant to '[01m[Kchar*[m[K' [[01;35m[K]8;;https://gcc.gnu.org/onlinedocs/gcc/Warning-Options.html#index-Wwrite-strings-Wwrite-strings]8;;[m[K]
   83 |   { "Ecirc",   LATIN1_Ecirc,  [01;35m[K"E^"[m[K,  0x00ca},
      |                               [01;35m[K^~~~[m[K
[01m[Ksgml.C:84:31:[m[K [01;35m[Kwarning: [m[KISO C++ forbids converting a string constant to '[01m[Kchar*[m[K' [[01;35m[K]8;;https://gcc.gnu.org/onlinedocs/gcc/Warning-Options.html#index-Wwrite-strings-Wwrite-strings]8;;[m[K]
   84 |   { "Egrave",  LATIN1_Egrave, [01;35m[K"E`"[m[K,  0x00c8},
      |                               [01;35m[K^~~~[m[K
[01m[Ksgml.C:85:31:[m[K [01;35m[Kwarning: [m[KISO C++ forbids converting a string constant to '[01m[Kchar*[m[K' [[01;35m[K]8;;https://gcc.gnu.org/onlinedocs/gcc/Warning-Options.html#index-Wwrite-strings-Wwrite-strings]8;;[m[K]
   85 |   { "Epsilon", 0,             [01;35m[K"E"[m[K,   0x0395},
      |                               [01;35m[K^~~[m[K
[01m[Ksgml.C:86:31:[m[K [01;35m[Kwarning: [m[KISO C++ forbids converting a string constant to '[01m[Kchar*[m[K' [[01;35m[K]8;;https://gcc.gnu.org/onlinedocs/gcc/Warning-Options.html#index-Wwrite-strings-Wwrite-strings]8;;[m[K]
   86 |   { "Eta",     0,             [01;35m[K"E"[m[K,   0x0397},
      |                               [01;35m[K^~~[m[K
[01m[Ksgml.C:87:31:[m[K [01;35m[Kwarning: [m[KISO C++ forbids converting a string constant to '[01m[Kchar*[m[K' [[01;35m[K]8;;https://gcc.gnu.org/onlinedocs/gcc/Warning-Options.html#index-Wwrite-strings-Wwrite-strings]8;;[m[K]
   87 |   { "Euml",    LATIN1_Euml,   [01;35m[K"E\""[m[K, 0x00cb},
      |                               [01;35m[K^~~~~[m[K
[01m[Ksgml.C:88:31:[m[K [01;35m[Kwarning: [m[KISO C++ forbids converting a string constant to '[01m[Kchar*[m[K' [[01;35m[K]8;;https://gcc.gnu.org/onlinedocs/gcc/Warning-Options.html#index-Wwrite-strings-Wwrite-strings]8;;[m[K]
   88 |   { "GT",      0,             [01;35m[K">"[m[K,   0x003e},
      |                               [01;35m[K^~~[m[K
[01m[Ksgml.C:89:31:[m[K [01;35m[Kwarning: [m[KISO C++ forbids converting a string constant to '[01m[Kchar*[m[K' [[01;35m[K]8;;https://gcc.gnu.org/onlinedocs/gcc/Warning-Options.html#index-Wwrite-strings-Wwrite-strings]8;;[m[K]
   89 |   { "Gamma",   0,             [01;35m[K"G"[m[K,   0x0393},
      |                               [01;35m[K^~~[m[K
[01m[Ksgml.C:90:31:[m[K [01;35m[Kwarning: [m[KISO C++ forbids converting a string constant to '[01m[Kchar*[m[K' [[01;35m[K]8;;https://gcc.gnu.org/onlinedocs/gcc/Warning-Options.html#index-Wwrite-strings-Wwrite-strings]8;;[m[K]
   90 |   { "Iacute",  LATIN1_Iacute, [01;35m[K"I'"[m[K,  0x00cd},
      |                               [01;35m[K^~~~[m[K
[01m[Ksgml.C:91:31:[m[K [01;35m[Kwarning: [m[KISO C++ forbids converting a string constant to '[01m[Kchar*[m[K' [[01;35m[K]8;;https://gcc.gnu.org/onlinedocs/gcc/Warning-Options.html#index-Wwrite-strings-Wwrite-strings]8;;[m[K]
   91 |   { "Icirc",   LATIN1_Icirc,  [01;35m[K"I^"[m[K,  0x00ce},
      |                               [01;35m[K^~~~[m[K
[01m[Ksgml.C:92:31:[m[K [01;35m[Kwarning: [m[KISO C++ forbids converting a string constant to '[01m[Kchar*[m[K' [[01;35m[K]8;;https://gcc.gnu.org/onlinedocs/gcc/Warning-Options.html#index-Wwrite-strings-Wwrite-strings]8;;[m[K]
   92 |   { "Igrave",  LATIN1_Igrave, [01;35m[K"I`"[m[K,  0x00cc},
      |                               [01;35m[K^~~~[m[K
[01m[Ksgml.C:93:31:[m[K [01;35m[Kwarning: [m[KISO C++ forbids converting a string constant to '[01m[Kchar*[m[K' [[01;35m[K]8;;https://gcc.gnu.org/onlinedocs/gcc/Warning-Options.html#index-Wwrite-strings-Wwrite-strings]8;;[m[K]
   93 |   { "Iota",    0,             [01;35m[K"I"[m[K,   0x0399},
      |                               [01;35m[K^~~[m[K
[01m[Ksgml.C:94:31:[m[K [01;35m[Kwarning: [m[KISO C++ forbids converting a string constant to '[01m[Kchar*[m[K' [[01;35m[K]8;;https://gcc.gnu.org/onlinedocs/gcc/Warning-Options.html#index-Wwrite-strings-Wwrite-strings]8;;[m[K]
   94 |   { "Iuml",    LATIN1_Iuml,   [01;35m[K"I\""[m[K, 0x00cf},
      |                               [01;35m[K^~~~~[m[K
[01m[Ksgml.C:95:31:[m[K [01;35m[Kwarning: [m[KISO C++ forbids converting a string constant to '[01m[Kchar*[m[K' [[01;35m[K]8;;https://gcc.gnu.org/onlinedocs/gcc/Warning-Options.html#index-Wwrite-strings-Wwrite-strings]8;;[m[K]
   95 |   { "Kappa",   0,             [01;35m[K"K"[m[K,   0x039a},
      |                               [01;35m[K^~~[m[K
[01m[Ksgml.C:96:31:[m[K [01;35m[Kwarning: [m[KISO C++ forbids converting a string constant to '[01m[Kchar*[m[K' [[01;35m[K]8;;https://gcc.gnu.org/onlinedocs/gcc/Warning-Options.html#index-Wwrite-strings-Wwrite-strings]8;;[m[K]
   96 |   { "LT",      0,             [01;35m[K"<"[m[K,   0x003c},
      |                               [01;35m[K^~~[m[K
[01m[Ksgml.C:97:31:[m[K [01;35m[Kwarning: [m[KISO C++ forbids converting a string constant to '[01m[Kchar*[m[K' [[01;35m[K]8;;https://gcc.gnu.org/onlinedocs/gcc/Warning-Options.html#index-Wwrite-strings-Wwrite-strings]8;;[m[K]
   97 |   { "Lambda",  0,             [01;35m[K"L"[m[K,   0x039b},
      |                               [01;35m[K^~~[m[K
[01m[Ksgml.C:98:31:[m[K [01;35m[Kwarning: [m[KISO C++ forbids converting a string constant to '[01m[Kchar*[m[K' [[01;35m[K]8;;https://gcc.gnu.org/onlinedocs/gcc/Warning-Options.html#index-Wwrite-strings-Wwrite-strings]8;;[m[K]
   98 |   { "Mu",      0,             [01;35m[K"M"[m[K,   0x039c},
      |                               [01;35m[K^~~[m[K
[01m[Ksgml.C:99:31:[m[K [01;35m[Kwarning: [m[KISO C++ forbids converting a string constant to '[01m[Kchar*[m[K' [[01;35m[K]8;;https://gcc.gnu.org/onlinedocs/gcc/Warning-Options.html#index-Wwrite-strings-Wwrite-strings]8;;[m[K]
   99 |   { "Ntilde",  LATIN1_Ntilde, [01;35m[K"N~"[m[K,  0x00d1},
      |                               [01;35m[K^~~~[m[K
[01m[Ksgml.C:100:31:[m[K [01;35m[Kwarning: [m[KISO C++ forbids converting a string constant to '[01m[Kchar*[m[K' [[01;35m[K]8;;https://gcc.gnu.org/onlinedocs/gcc/Warning-Options.html#index-Wwrite-strings-Wwrite-strings]8;;[m[K]
  100 |   { "Nu",      0,             [01;35m[K"N"[m[K,   0x039d},
      |                               [01;35m[K^~~[m[K
[01m[Ksgml.C:101:31:[m[K [01;35m[Kwarning: [m[KISO C++ forbids converting a string constant to '[01m[Kchar*[m[K' [[01;35m[K]8;;https://gcc.gnu.org/onlinedocs/gcc/Warning-Options.html#index-Wwrite-strings-Wwrite-strings]8;;[m[K]
  101 |   { "OElig",   0,             [01;35m[K"OE"[m[K,  0x0152},
      |                               [01;35m[K^~~~[m[K
[01m[Ksgml.C:102:31:[m[K [01;35m[Kwarning: [m[KISO C++ forbids converting a string constant to '[01m[Kchar*[m[K' [[01;35m[K]8;;https://gcc.gnu.org/onlinedocs/gcc/Warning-Options.html#index-Wwrite-strings-Wwrite-strings]8;;[m[K]
  102 |   { "Oacute",  LATIN1_Oacute, [01;35m[K"O'"[m[K,  0x00d3},
      |                               [01;35m[K^~~~[m[K
[01m[Ksgml.C:103:31:[m[K [01;35m[Kwarning: [m[KISO C++ forbids converting a string constant to '[01m[Kchar*[m[K' [[01;35m[K]8;;https://gcc.gnu.org/onlinedocs/gcc/Warning-Options.html#index-Wwrite-strings-Wwrite-strings]8;;[m[K]
  103 |   { "Ocirc",   LATIN1_Ocirc,  [01;35m[K"O^"[m[K,  0x00d4},
      |                               [01;35m[K^~~~[m[K
[01m[Ksgml.C:104:31:[m[K [01;35m[Kwarning: [m[KISO C++ forbids converting a string constant to '[01m[Kchar*[m[K' [[01;35m[K]8;;https://gcc.gnu.org/onlinedocs/gcc/Warning-Options.html#index-Wwrite-strings-Wwrite-strings]8;;[m[K]
  104 |   { "Ograve",  LATIN1_Ograve, [01;35m[K"O`"[m[K,  0x00d2},
      |                               [01;35m[K^~~~[m[K
[01m[Ksgml.C:105:31:[m[K [01;35m[Kwarning: [m[KISO C++ forbids converting a string constant to '[01m[Kchar*[m[K' [[01;35m[K]8;;https://gcc.gnu.org/onlinedocs/gcc/Warning-Options.html#index-Wwrite-strings-Wwrite-strings]8;;[m[K]
  105 |   { "Omega",   0,             [01;35m[K"O"[m[K,   0x03a9},
      |                               [01;35m[K^~~[m[K
[01m[Ksgml.C:106:31:[m[K [01;35m[Kwarning: [m[KISO C++ forbids converting a string constant to '[01m[Kchar*[m[K' [[01;35m[K]8;;https://gcc.gnu.org/onlinedocs/gcc/Warning-Options.html#index-Wwrite-strings-Wwrite-strings]8;;[m[K]
  106 |   { "Omicron", 0,             [01;35m[K"O"[m[K,   0x039f},
      |                               [01;35m[K^~~[m[K
[01m[Ksgml.C:107:31:[m[K [01;35m[Kwarning: [m[KISO C++ forbids converting a string constant to '[01m[Kchar*[m[K' [[01;35m[K]8;;https://gcc.gnu.org/onlinedocs/gcc/Warning-Options.html#index-Wwrite-strings-Wwrite-strings]8;;[m[K]
  107 |   { "Oslash",  LATIN1_Oslash, [01;35m[K"O/"[m[K,  0x00d8},
      |                               [01;35m[K^~~~[m[K
[01m[Ksgml.C:108:31:[m[K [01;35m[Kwarning: [m[KISO C++ forbids converting a string constant to '[01m[Kchar*[m[K' [[01;35m[K]8;;https://gcc.gnu.org/onlinedocs/gcc/Warning-Options.html#index-Wwrite-strings-Wwrite-strings]8;;[m[K]
  108 |   { "Otilde",  LATIN1_Otilde, [01;35m[K"O~"[m[K,  0x00d5},
      |                               [01;35m[K^~~~[m[K
[01m[Ksgml.C:109:31:[m[K [01;35m[Kwarning: [m[KISO C++ forbids converting a string constant to '[01m[Kchar*[m[K' [[01;35m[K]8;;https://gcc.gnu.org/onlinedocs/gcc/Warning-Options.html#index-Wwrite-strings-Wwrite-strings]8;;[m[K]
  109 |   { "Ouml",    LATIN1_Ouml,   [01;35m[K"O\""[m[K, 0x00d6},
      |                               [01;35m[K^~~~~[m[K
[01m[Ksgml.C:110:31:[m[K [01;35m[Kwarning: [m[KISO C++ forbids converting a string constant to '[01m[Kchar*[m[K' [[01;35m[K]8;;https://gcc.gnu.org/onlinedocs/gcc/Warning-Options.html#index-Wwrite-strings-Wwrite-strings]8;;[m[K]
  110 |   { "Phi",     0,             [01;35m[K"F"[m[K,   0x03a6},
      |                               [01;35m[K^~~[m[K
[01m[Ksgml.C:111:31:[m[K [01;35m[Kwarning: [m[KISO C++ forbids converting a string constant to '[01m[Kchar*[m[K' [[01;35m[K]8;;https://gcc.gnu.org/onlinedocs/gcc/Warning-Options.html#index-Wwrite-strings-Wwrite-strings]8;;[m[K]
  111 |   { "Pi",      0,             [01;35m[K"P"[m[K,   0x03a0},
      |                               [01;35m[K^~~[m[K
[01m[Ksgml.C:112:31:[m[K [01;35m[Kwarning: [m[KISO C++ forbids converting a string constant to '[01m[Kchar*[m[K' [[01;35m[K]8;;https://gcc.gnu.org/onlinedocs/gcc/Warning-Options.html#index-Wwrite-strings-Wwrite-strings]8;;[m[K]
  112 |   { "Prime",   0,             [01;35m[K"''"[m[K,        },
      |                               [01;35m[K^~~~[m[K
[01m[Ksgml.C:113:31:[m[K [01;35m[Kwarning: [m[KISO C++ forbids converting a string constant to '[01m[Kchar*[m[K' [[01;35m[K]8;;https://gcc.gnu.org/onlinedocs/gcc/Warning-Options.html#index-Wwrite-strings-Wwrite-strings]8;;[m[K]
  113 |   { "Psi",     0,             [01;35m[K"PS"[m[K,  0x03a8},
      |                               [01;35m[K^~~~[m[K
[01m[Ksgml.C:114:31:[m[K [01;35m[Kwarning: [m[KISO C++ forbids converting a string constant to '[01m[Kchar*[m[K' [[01;35m[K]8;;https://gcc.gnu.org/onlinedocs/gcc/Warning-Options.html#index-Wwrite-strings-Wwrite-strings]8;;[m[K]
  114 |   { "QUOT",    0,             [01;35m[K"\""[m[K,        },
      |                               [01;35m[K^~~~[m[K
[01m[Ksgml.C:115:31:[m[K [01;35m[Kwarning: [m[KISO C++ forbids converting a string constant to '[01m[Kchar*[m[K' [[01;35m[K]8;;https://gcc.gnu.org/onlinedocs/gcc/Warning-Options.html#index-Wwrite-strings-Wwrite-strings]8;;[m[K]
  115 |   { "Rho",     0,             [01;35m[K"R"[m[K,   0x03a1},
      |                               [01;35m[K^~~[m[K
[01m[Ksgml.C:116:31:[m[K [01;35m[Kwarning: [m[KISO C++ forbids converting a string constant to '[01m[Kchar*[m[K' [[01;35m[K]8;;https://gcc.gnu.org/onlinedocs/gcc/Warning-Options.html#index-Wwrite-strings-Wwrite-strings]8;;[m[K]
  116 |   { "Scaron",  0,             [01;35m[K"S"[m[K,   0x0161},
      |                               [01;35m[K^~~[m[K
[01m[Ksgml.C:117:31:[m[K [01;35m[Kwarning: [m[KISO C++ forbids converting a string constant to '[01m[Kchar*[m[K' [[01;35m[K]8;;https://gcc.gnu.org/onlinedocs/gcc/Warning-Options.html#index-Wwrite-strings-Wwrite-strings]8;;[m[K]
  117 |   { "Sigma",   0,             [01;35m[K"S"[m[K,   0x03a3},
      |                               [01;35m[K^~~[m[K
[01m[Ksgml.C:118:31:[m[K [01;35m[Kwarning: [m[KISO C++ forbids converting a string constant to '[01m[Kchar*[m[K' [[01;35m[K]8;;https://gcc.gnu.org/onlinedocs/gcc/Warning-Options.html#index-Wwrite-strings-Wwrite-strings]8;;[m[K]
  118 |   { "THORN",   LATIN1_THORN,  [01;35m[K"TH"[m[K,  0x00de},
      |                               [01;35m[K^~~~[m[K
[01m[Ksgml.C:119:31:[m[K [01;35m[Kwarning: [m[KISO C++ forbids converting a string constant to '[01m[Kchar*[m[K' [[01;35m[K]8;;https://gcc.gnu.org/onlinedocs/gcc/Warning-Options.html#index-Wwrite-strings-Wwrite-strings]8;;[m[K]
  119 |   { "Tau",     0,             [01;35m[K"T"[m[K,   0x03a4},
      |                               [01;35m[K^~~[m[K
[01m[Ksgml.C:120:31:[m[K [01;35m[Kwarning: [m[KISO C++ forbids converting a string constant to '[01m[Kchar*[m[K' [[01;35m[K]8;;https://gcc.gnu.org/onlinedocs/gcc/Warning-Options.html#index-Wwrite-strings-Wwrite-strings]8;;[m[K]
  120 |   { "Theta",   0,             [01;35m[K"TH"[m[K,  0x0398},
      |                               [01;35m[K^~~~[m[K
[01m[Ksgml.C:121:31:[m[K [01;35m[Kwarning: [m[KISO C++ forbids converting a string constant to '[01m[Kchar*[m[K' [[01;35m[K]8;;https://gcc.gnu.org/onlinedocs/gcc/Warning-Options.html#index-Wwrite-strings-Wwrite-strings]8;;[m[K]
  121 |   { "Uacute",  LATIN1_Uacute, [01;35m[K"U'"[m[K,  0x00da},
      |                               [01;35m[K^~~~[m[K
[01m[Ksgml.C:122:31:[m[K [01;35m[Kwarning: [m[KISO C++ forbids converting a string constant to '[01m[Kchar*[m[K' [[01;35m[K]8;;https://gcc.gnu.org/onlinedocs/gcc/Warning-Options.html#index-Wwrite-strings-Wwrite-strings]8;;[m[K]
  122 |   { "Ucirc",   LATIN1_Ucirc,  [01;35m[K"U^"[m[K,  0x00db},
      |                               [01;35m[K^~~~[m[K
[01m[Ksgml.C:123:31:[m[K [01;35m[Kwarning: [m[KISO C++ forbids converting a string constant to '[01m[Kchar*[m[K' [[01;35m[K]8;;https://gcc.gnu.org/onlinedocs/gcc/Warning-Options.html#index-Wwrite-strings-Wwrite-strings]8;;[m[K]
  123 |   { "Ugrave",  LATIN1_Ugrave, [01;35m[K"U`"[m[K,  0x00d9},
      |                               [01;35m[K^~~~[m[K
[01m[Ksgml.C:124:31:[m[K [01;35m[Kwarning: [m[KISO C++ forbids converting a string constant to '[01m[Kchar*[m[K' [[01;35m[K]8;;https://gcc.gnu.org/onlinedocs/gcc/Warning-Options.html#index-Wwrite-strings-Wwrite-strings]8;;[m[K]
  124 |   { "Upsilon", 0,             [01;35m[K"U"[m[K,   0x03a5},
      |                               [01;35m[K^~~[m[K
[01m[Ksgml.C:125:31:[m[K [01;35m[Kwarning: [m[KISO C++ forbids converting a string constant to '[01m[Kchar*[m[K' [[01;35m[K]8;;https://gcc.gnu.org/onlinedocs/gcc/Warning-Options.html#index-Wwrite-strings-Wwrite-strings]8;;[m[K]
  125 |   { "Uuml",    LATIN1_Uuml,   [01;35m[K"U\""[m[K, 0x00dc},
      |                               [01;35m[K^~~~~[m[K
[01m[Ksgml.C:126:31:[m[K [01;35m[Kwarning: [m[KISO C++ forbids converting a string constant to '[01m[Kchar*[m[K' [[01;35m[K]8;;https://gcc.gnu.org/onlinedocs/gcc/Warning-Options.html#index-Wwrite-strings-Wwrite-strings]8;;[m[K]
  126 |   { "Xi",      0,             [01;35m[K"X"[m[K,   0x039e},
      |                               [01;35m[K^~~[m[K
[01m[Ksgml.C:127:31:[m[K [01;35m[Kwarning: [m[KISO C++ forbids converting a string constant to '[01m[Kchar*[m[K' [[01;35m[K]8;;https://gcc.gnu.org/onlinedocs/gcc/Warning-Options.html#index-Wwrite-strings-Wwrite-strings]8;;[m[K]
  127 |   { "Yacute",  LATIN1_Yacute, [01;35m[K"Y'"[m[K,  0x00dd},
      |                               [01;35m[K^~~~[m[K
[01m[Ksgml.C:128:31:[m[K [01;35m[Kwarning: [m[KISO C++ forbids converting a string constant to '[01m[Kchar*[m[K' [[01;35m[K]8;;https://gcc.gnu.org/onlinedocs/gcc/Warning-Options.html#index-Wwrite-strings-Wwrite-strings]8;;[m[K]
  128 |   { "Yuml",    0,             [01;35m[K"Y\""[m[K, 0x0178},
      |                               [01;35m[K^~~~~[m[K
[01m[Ksgml.C:129:31:[m[K [01;35m[Kwarning: [m[KISO C++ forbids converting a string constant to '[01m[Kchar*[m[K' [[01;35m[K]8;;https://gcc.gnu.org/onlinedocs/gcc/Warning-Options.html#index-Wwrite-strings-Wwrite-strings]8;;[m[K]
  129 |   { "Zeta",    0,             [01;35m[K"Z"[m[K,   0x0396},
      |                               [01;35m[K^~~[m[K
[01m[Ksgml.C:130:31:[m[K [01;35m[Kwarning: [m[KISO C++ forbids converting a string constant to '[01m[Kchar*[m[K' [[01;35m[K]8;;https://gcc.gnu.org/onlinedocs/gcc/Warning-Options.html#index-Wwrite-strings-Wwrite-strings]8;;[m[K]
  130 |   { "aacute",  LATIN1_aacute, [01;35m[K"a'"[m[K,  0x00e1},
      |                               [01;35m[K^~~~[m[K
[01m[Ksgml.C:131:31:[m[K [01;35m[Kwarning: [m[KISO C++ forbids converting a string constant to '[01m[Kchar*[m[K' [[01;35m[K]8;;https://gcc.gnu.org/onlinedocs/gcc/Warning-Options.html#index-Wwrite-strings-Wwrite-strings]8;;[m[K]
  131 |   { "acirc",   LATIN1_acirc,  [01;35m[K"a^"[m[K,  0x00e2},
      |                               [01;35m[K^~~~[m[K
[01m[Ksgml.C:315:1:[m[K [01;35m[Kwarning: [m[KISO C++ forbids converting a string constant to '[01m[Kchar*[m[K' [[01;35m[K]8;;https://gcc.gnu.org/onlinedocs/gcc/Warning-Options.html#index-Wwrite-strings-Wwrite-strings]8;;[m[K]
  315 | [01;35m[K}[m[K;
      | [01;35m[K^[m[K
[01m[Ksgml.C:315:1:[m[K [01;35m[Kwarning: [m[KISO C++ forbids converting a string constant to '[01m[Kchar*[m[K' [[01;35m[K]8;;https://gcc.gnu.org/onlinedocs/gcc/Warning-Options.html#index-Wwrite-strings-Wwrite-strings]8;;[m[K]
[01m[Ksgml.C:315:1:[m[K [01;35m[Kwarning: [m[KISO C++ forbids converting a string constant to '[01m[Kchar*[m[K' [[01;35m[K]8;;https://gcc.gnu.org/onlinedocs/gcc/Warning-Options.html#index-Wwrite-strings-Wwrite-strings]8;;[m[K]
[01m[Ksgml.C:315:1:[m[K [01;35m[Kwarning: [m[KISO C++ forbids converting a string constant to '[01m[Kchar*[m[K' [[01;35m[K]8;;https://gcc.gnu.org/onlinedocs/gcc/Warning-Options.html#index-Wwrite-strings-Wwrite-strings]8;;[m[K]
[01m[Ksgml.C:315:1:[m[K [01;35m[Kwarning: [m[KISO C++ forbids converting a string constant to '[01m[Kchar*[m[K' [[01;35m[K]8;;https://gcc.gnu.org/onlinedocs/gcc/Warning-Options.html#index-Wwrite-strings-Wwrite-strings]8;;[m[K]
[01m[Ksgml.C:315:1:[m[K [01;35m[Kwarning: [m[KISO C++ forbids converting a string constant to '[01m[Kchar*[m[K' [[01;35m[K]8;;https://gcc.gnu.org/onlinedocs/gcc/Warning-Options.html#index-Wwrite-strings-Wwrite-strings]8;;[m[K]
[01m[Ksgml.C:315:1:[m[K [01;35m[Kwarning: [m[KISO C++ forbids converting a string constant to '[01m[Kchar*[m[K' [[01;35m[K]8;;https://gcc.gnu.org/onlinedocs/gcc/Warning-Options.html#index-Wwrite-strings-Wwrite-strings]8;;[m[K]
[01m[Ksgml.C:315:1:[m[K [01;35m[Kwarning: [m[KISO C++ forbids converting a string constant to '[01m[Kchar*[m[K' [[01;35m[K]8;;https://gcc.gnu.org/onlinedocs/gcc/Warning-Options.html#index-Wwrite-strings-Wwrite-strings]8;;[m[K]
[01m[Ksgml.C:315:1:[m[K [01;35m[Kwarning: [m[KISO C++ forbids converting a string constant to '[01m[Kchar*[m[K' [[01;35m[K]8;;https://gcc.gnu.org/onlinedocs/gcc/Warning-Options.html#index-Wwrite-strings-Wwrite-strings]8;;[m[K]
[01m[Ksgml.C:315:1:[m[K [01;35m[Kwarning: [m[KISO C++ forbids converting a string constant to '[01m[Kchar*[m[K' [[01;35m[K]8;;https://gcc.gnu.org/onlinedocs/gcc/Warning-Options.html#index-Wwrite-strings-Wwrite-strings]8;;[m[K]
[01m[Ksgml.C:315:1:[m[K [01;35m[Kwarning: [m[KISO C++ forbids converting a string constant to '[01m[Kchar*[m[K' [[01;35m[K]8;;https://gcc.gnu.org/onlinedocs/gcc/Warning-Options.html#index-Wwrite-strings-Wwrite-strings]8;;[m[K]
[01m[Ksgml.C:315:1:[m[K [01;35m[Kwarning: [m[KISO C++ forbids converting a string constant to '[01m[Kchar*[m[K' [[01;35m[K]8;;https://gcc.gnu.org/onlinedocs/gcc/Warning-Options.html#index-Wwrite-strings-Wwrite-strings]8;;[m[K]
[01m[Ksgml.C:315:1:[m[K [01;35m[Kwarning: [m[KISO C++ forbids converting a string constant to '[01m[Kchar*[m[K' [[01;35m[K]8;;https://gcc.gnu.org/onlinedocs/gcc/Warning-Options.html#index-Wwrite-strings-Wwrite-strings]8;;[m[K]
[01m[Ksgml.C:315:1:[m[K [01;35m[Kwarning: [m[KISO C++ forbids converting a string constant to '[01m[Kchar*[m[K' [[01;35m[K]8;;https://gcc.gnu.org/onlinedocs/gcc/Warning-Options.html#index-Wwrite-strings-Wwrite-strings]8;;[m[K]
[01m[Ksgml.C:315:1:[m[K [01;35m[Kwarning: [m[KISO C++ forbids converting a string constant to '[01m[Kchar*[m[K' [[01;35m[K]8;;https://gcc.gnu.org/onlinedocs/gcc/Warning-Options.html#index-Wwrite-strings-Wwrite-strings]8;;[m[K]
[01m[Ksgml.C:315:1:[m[K [01;35m[Kwarning: [m[KISO C++ forbids converting a string constant to '[01m[Kchar*[m[K' [[01;35m[K]8;;https://gcc.gnu.org/onlinedocs/gcc/Warning-Options.html#index-Wwrite-strings-Wwrite-strings]8;;[m[K]
[01m[Ksgml.C:315:1:[m[K [01;35m[Kwarning: [m[KISO C++ forbids converting a string constant to '[01m[Kchar*[m[K' [[01;35m[K]8;;https://gcc.gnu.org/onlinedocs/gcc/Warning-Options.html#index-Wwrite-strings-Wwrite-strings]8;;[m[K]
[01m[Ksgml.C:315:1:[m[K [01;35m[Kwarning: [m[KISO C++ forbids converting a string constant to '[01m[Kchar*[m[K' [[01;35m[K]8;;https://gcc.gnu.org/onlinedocs/gcc/Warning-Options.html#index-Wwrite-strings-Wwrite-strings]8;;[m[K]
[01m[Ksgml.C:315:1:[m[K [01;35m[Kwarning: [m[KISO C++ forbids converting a string constant to '[01m[Kchar*[m[K' [[01;35m[K]8;;https://gcc.gnu.org/onlinedocs/gcc/Warning-Options.html#index-Wwrite-strings-Wwrite-strings]8;;[m[K]
[01m[Ksgml.C:315:1:[m[K [01;35m[Kwarning: [m[KISO C++ forbids converting a string constant to '[01m[Kchar*[m[K' [[01;35m[K]8;;https://gcc.gnu.org/onlinedocs/gcc/Warning-Options.html#index-Wwrite-strings-Wwrite-strings]8;;[m[K]
[01m[Ksgml.C:315:1:[m[K [01;35m[Kwarning: [m[KISO C++ forbids converting a string constant to '[01m[Kchar*[m[K' [[01;35m[K]8;;https://gcc.gnu.org/onlinedocs/gcc/Warning-Options.html#index-Wwrite-strings-Wwrite-strings]8;;[m[K]
[01m[Ksgml.C:315:1:[m[K [01;35m[Kwarning: [m[KISO C++ forbids converting a string constant to '[01m[Kchar*[m[K' [[01;35m[K]8;;https://gcc.gnu.org/onlinedocs/gcc/Warning-Options.html#index-Wwrite-strings-Wwrite-strings]8;;[m[K]
[01m[Ksgml.C:315:1:[m[K [01;35m[Kwarning: [m[KISO C++ forbids converting a string constant to '[01m[Kchar*[m[K' [[01;35m[K]8;;https://gcc.gnu.org/onlinedocs/gcc/Warning-Options.html#index-Wwrite-strings-Wwrite-strings]8;;[m[K]
[01m[Ksgml.C:315:1:[m[K [01;35m[Kwarning: [m[KISO C++ forbids converting a string constant to '[01m[Kchar*[m[K' [[01;35m[K]8;;https://gcc.gnu.org/onlinedocs/gcc/Warning-Options.html#index-Wwrite-strings-Wwrite-strings]8;;[m[K]
[01m[Ksgml.C:315:1:[m[K [01;35m[Kwarning: [m[KISO C++ forbids converting a string constant to '[01m[Kchar*[m[K' [[01;35m[K]8;;https://gcc.gnu.org/onlinedocs/gcc/Warning-Options.html#index-Wwrite-strings-Wwrite-strings]8;;[m[K]
[01m[Ksgml.C:315:1:[m[K [01;35m[Kwarning: [m[KISO C++ forbids converting a string constant to '[01m[Kchar*[m[K' [[01;35m[K]8;;https://gcc.gnu.org/onlinedocs/gcc/Warning-Options.html#index-Wwrite-strings-Wwrite-strings]8;;[m[K]
[01m[Ksgml.C:315:1:[m[K [01;35m[Kwarning: [m[KISO C++ forbids converting a string constant to '[01m[Kchar*[m[K' [[01;35m[K]8;;https://gcc.gnu.org/onlinedocs/gcc/Warning-Options.html#index-Wwrite-strings-Wwrite-strings]8;;[m[K]
[01m[Ksgml.C:315:1:[m[K [01;35m[Kwarning: [m[KISO C++ forbids converting a string constant to '[01m[Kchar*[m[K' [[01;35m[K]8;;https://gcc.gnu.org/onlinedocs/gcc/Warning-Options.html#index-Wwrite-strings-Wwrite-strings]8;;[m[K]
[01m[Ksgml.C:315:1:[m[K [01;35m[Kwarning: [m[KISO C++ forbids converting a string constant to '[01m[Kchar*[m[K' [[01;35m[K]8;;https://gcc.gnu.org/onlinedocs/gcc/Warning-Options.html#index-Wwrite-strings-Wwrite-strings]8;;[m[K]
[01m[Ksgml.C:315:1:[m[K [01;35m[Kwarning: [m[KISO C++ forbids converting a string constant to '[01m[Kchar*[m[K' [[01;35m[K]8;;https://gcc.gnu.org/onlinedocs/gcc/Warning-Options.html#index-Wwrite-strings-Wwrite-strings]8;;[m[K]
[01m[Ksgml.C:315:1:[m[K [01;35m[Kwarning: [m[KISO C++ forbids converting a string constant to '[01m[Kchar*[m[K' [[01;35m[K]8;;https://gcc.gnu.org/onlinedocs/gcc/Warning-Options.html#index-Wwrite-strings-Wwrite-strings]8;;[m[K]
[01m[Ksgml.C:315:1:[m[K [01;35m[Kwarning: [m[KISO C++ forbids converting a string constant to '[01m[Kchar*[m[K' [[01;35m[K]8;;https://gcc.gnu.org/onlinedocs/gcc/Warning-Options.html#index-Wwrite-strings-Wwrite-strings]8;;[m[K]
[01m[Ksgml.C:315:1:[m[K [01;35m[Kwarning: [m[KISO C++ forbids converting a string constant to '[01m[Kchar*[m[K' [[01;35m[K]8;;https://gcc.gnu.org/onlinedocs/gcc/Warning-Options.html#index-Wwrite-strings-Wwrite-strings]8;;[m[K]
[01m[Ksgml.C:315:1:[m[K [01;35m[Kwarning: [m[KISO C++ forbids converting a string constant to '[01m[Kchar*[m[K' [[01;35m[K]8;;https://gcc.gnu.org/onlinedocs/gcc/Warning-Options.html#index-Wwrite-strings-Wwrite-strings]8;;[m[K]
[01m[Ksgml.C:315:1:[m[K [01;35m[Kwarning: [m[KISO C++ forbids converting a string constant to '[01m[Kchar*[m[K' [[01;35m[K]8;;https://gcc.gnu.org/onlinedocs/gcc/Warning-Options.html#index-Wwrite-strings-Wwrite-strings]8;;[m[K]
[01m[Ksgml.C:315:1:[m[K [01;35m[Kwarning: [m[KISO C++ forbids converting a string constant to '[01m[Kchar*[m[K' [[01;35m[K]8;;https://gcc.gnu.org/onlinedocs/gcc/Warning-Options.html#index-Wwrite-strings-Wwrite-strings]8;;[m[K]
[01m[Ksgml.C:315:1:[m[K [01;35m[Kwarning: [m[KISO C++ forbids converting a string constant to '[01m[Kchar*[m[K' [[01;35m[K]8;;https://gcc.gnu.org/onlinedocs/gcc/Warning-Options.html#index-Wwrite-strings-Wwrite-strings]8;;[m[K]
[01m[Ksgml.C:315:1:[m[K [01;35m[Kwarning: [m[KISO C++ forbids converting a string constant to '[01m[Kchar*[m[K' [[01;35m[K]8;;https://gcc.gnu.org/onlinedocs/gcc/Warning-Options.html#index-Wwrite-strings-Wwrite-strings]8;;[m[K]
[01m[Ksgml.C:315:1:[m[K [01;35m[Kwarning: [m[KISO C++ forbids converting a string constant to '[01m[Kchar*[m[K' [[01;35m[K]8;;https://gcc.gnu.org/onlinedocs/gcc/Warning-Options.html#index-Wwrite-strings-Wwrite-strings]8;;[m[K]
[01m[Ksgml.C:315:1:[m[K [01;35m[Kwarning: [m[KISO C++ forbids converting a string constant to '[01m[Kchar*[m[K' [[01;35m[K]8;;https://gcc.gnu.org/onlinedocs/gcc/Warning-Options.html#index-Wwrite-strings-Wwrite-strings]8;;[m[K]
[01m[Ksgml.C:315:1:[m[K [01;35m[Kwarning: [m[KISO C++ forbids converting a string constant to '[01m[Kchar*[m[K' [[01;35m[K]8;;https://gcc.gnu.org/onlinedocs/gcc/Warning-Options.html#index-Wwrite-strings-Wwrite-strings]8;;[m[K]
[01m[Ksgml.C:315:1:[m[K [01;35m[Kwarning: [m[KISO C++ forbids converting a string constant to '[01m[Kchar*[m[K' [[01;35m[K]8;;https://gcc.gnu.org/onlinedocs/gcc/Warning-Options.html#index-Wwrite-strings-Wwrite-strings]8;;[m[K]
[01m[Ksgml.C:315:1:[m[K [01;35m[Kwarning: [m[KISO C++ forbids converting a string constant to '[01m[Kchar*[m[K' [[01;35m[K]8;;https://gcc.gnu.org/onlinedocs/gcc/Warning-Options.html#index-Wwrite-strings-Wwrite-strings]8;;[m[K]
[01m[Ksgml.C:315:1:[m[K [01;35m[Kwarning: [m[KISO C++ forbids converting a string constant to '[01m[Kchar*[m[K' [[01;35m[K]8;;https://gcc.gnu.org/onlinedocs/gcc/Warning-Options.html#index-Wwrite-strings-Wwrite-strings]8;;[m[K]
[01m[Ksgml.C:315:1:[m[K [01;35m[Kwarning: [m[KISO C++ forbids converting a string constant to '[01m[Kchar*[m[K' [[01;35m[K]8;;https://gcc.gnu.org/onlinedocs/gcc/Warning-Options.html#index-Wwrite-strings-Wwrite-strings]8;;[m[K]
[01m[Ksgml.C:315:1:[m[K [01;35m[Kwarning: [m[KISO C++ forbids converting a string constant to '[01m[Kchar*[m[K' [[01;35m[K]8;;https://gcc.gnu.org/onlinedocs/gcc/Warning-Options.html#index-Wwrite-strings-Wwrite-strings]8;;[m[K]
[01m[Ksgml.C:315:1:[m[K [01;35m[Kwarning: [m[KISO C++ forbids converting a string constant to '[01m[Kchar*[m[K' [[01;35m[K]8;;https://gcc.gnu.org/onlinedocs/gcc/Warning-Options.html#index-Wwrite-strings-Wwrite-strings]8;;[m[K]
[01m[Ksgml.C:315:1:[m[K [01;35m[Kwarning: [m[KISO C++ forbids converting a string constant to '[01m[Kchar*[m[K' [[01;35m[K]8;;https://gcc.gnu.org/onlinedocs/gcc/Warning-Options.html#index-Wwrite-strings-Wwrite-strings]8;;[m[K]
[01m[Ksgml.C:315:1:[m[K [01;35m[Kwarning: [m[KISO C++ forbids converting a string constant to '[01m[Kchar*[m[K' [[01;35m[K]8;;https://gcc.gnu.org/onlinedocs/gcc/Warning-Options.html#index-Wwrite-strings-Wwrite-strings]8;;[m[K]
[01m[Ksgml.C:315:1:[m[K [01;35m[Kwarning: [m[KISO C++ forbids converting a string constant to '[01m[Kchar*[m[K' [[01;35m[K]8;;https://gcc.gnu.org/onlinedocs/gcc/Warning-Options.html#index-Wwrite-strings-Wwrite-strings]8;;[m[K]
[01m[Ksgml.C:315:1:[m[K [01;35m[Kwarning: [m[KISO C++ forbids converting a string constant to '[01m[Kchar*[m[K' [[01;35m[K]8;;https://gcc.gnu.org/onlinedocs/gcc/Warning-Options.html#index-Wwrite-strings-Wwrite-strings]8;;[m[K]
[01m[Ksgml.C:315:1:[m[K [01;35m[Kwarning: [m[KISO C++ forbids converting a string constant to '[01m[Kchar*[m[K' [[01;35m[K]8;;https://gcc.gnu.org/onlinedocs/gcc/Warning-Options.html#index-Wwrite-strings-Wwrite-strings]8;;[m[K]
[01m[Ksgml.C:315:1:[m[K [01;35m[Kwarning: [m[KISO C++ forbids converting a string constant to '[01m[Kchar*[m[K' [[01;35m[K]8;;https://gcc.gnu.org/onlinedocs/gcc/Warning-Options.html#index-Wwrite-strings-Wwrite-strings]8;;[m[K]
[01m[Ksgml.C:315:1:[m[K [01;35m[Kwarning: [m[KISO C++ forbids converting a string constant to '[01m[Kchar*[m[K' [[01;35m[K]8;;https://gcc.gnu.org/onlinedocs/gcc/Warning-Options.html#index-Wwrite-strings-Wwrite-strings]8;;[m[K]
[01m[Ksgml.C:315:1:[m[K [01;35m[Kwarning: [m[KISO C++ forbids converting a string constant to '[01m[Kchar*[m[K' [[01;35m[K]8;;https://gcc.gnu.org/onlinedocs/gcc/Warning-Options.html#index-Wwrite-strings-Wwrite-strings]8;;[m[K]
[01m[Ksgml.C:315:1:[m[K [01;35m[Kwarning: [m[KISO C++ forbids converting a string constant to '[01m[Kchar*[m[K' [[01;35m[K]8;;https://gcc.gnu.org/onlinedocs/gcc/Warning-Options.html#index-Wwrite-strings-Wwrite-strings]8;;[m[K]
[01m[Ksgml.C:315:1:[m[K [01;35m[Kwarning: [m[KISO C++ forbids converting a string constant to '[01m[Kchar*[m[K' [[01;35m[K]8;;https://gcc.gnu.org/onlinedocs/gcc/Warning-Options.html#index-Wwrite-strings-Wwrite-strings]8;;[m[K]
[01m[Ksgml.C:315:1:[m[K [01;35m[Kwarning: [m[KISO C++ forbids converting a string constant to '[01m[Kchar*[m[K' [[01;35m[K]8;;https://gcc.gnu.org/onlinedocs/gcc/Warning-Options.html#index-Wwrite-strings-Wwrite-strings]8;;[m[K]
[01m[Ksgml.C:315:1:[m[K [01;35m[Kwarning: [m[KISO C++ forbids converting a string constant to '[01m[Kchar*[m[K' [[01;35m[K]8;;https://gcc.gnu.org/onlinedocs/gcc/Warning-Options.html#index-Wwrite-strings-Wwrite-strings]8;;[m[K]
[01m[Ksgml.C:315:1:[m[K [01;35m[Kwarning: [m[KISO C++ forbids converting a string constant to '[01m[Kchar*[m[K' [[01;35m[K]8;;https://gcc.gnu.org/onlinedocs/gcc/Warning-Options.html#index-Wwrite-strings-Wwrite-strings]8;;[m[K]
[01m[Ksgml.C:315:1:[m[K [01;35m[Kwarning: [m[KISO C++ forbids converting a string constant to '[01m[Kchar*[m[K' [[01;35m[K]8;;https://gcc.gnu.org/onlinedocs/gcc/Warning-Options.html#index-Wwrite-strings-Wwrite-strings]8;;[m[K]
[01m[Ksgml.C:315:1:[m[K [01;35m[Kwarning: [m[KISO C++ forbids converting a string constant to '[01m[Kchar*[m[K' [[01;35m[K]8;;https://gcc.gnu.org/onlinedocs/gcc/Warning-Options.html#index-Wwrite-strings-Wwrite-strings]8;;[m[K]
[01m[Ksgml.C:315:1:[m[K [01;35m[Kwarning: [m[KISO C++ forbids converting a string constant to '[01m[Kchar*[m[K' [[01;35m[K]8;;https://gcc.gnu.org/onlinedocs/gcc/Warning-Options.html#index-Wwrite-strings-Wwrite-strings]8;;[m[K]
[01m[Ksgml.C:315:1:[m[K [01;35m[Kwarning: [m[KISO C++ forbids converting a string constant to '[01m[Kchar*[m[K' [[01;35m[K]8;;https://gcc.gnu.org/onlinedocs/gcc/Warning-Options.html#index-Wwrite-strings-Wwrite-strings]8;;[m[K]
[01m[Ksgml.C:315:1:[m[K [01;35m[Kwarning: [m[KISO C++ forbids converting a string constant to '[01m[Kchar*[m[K' [[01;35m[K]8;;https://gcc.gnu.org/onlinedocs/gcc/Warning-Options.html#index-Wwrite-strings-Wwrite-strings]8;;[m[K]
[01m[Ksgml.C:315:1:[m[K [01;35m[Kwarning: [m[KISO C++ forbids converting a string constant to '[01m[Kchar*[m[K' [[01;35m[K]8;;https://gcc.gnu.org/onlinedocs/gcc/Warning-Options.html#index-Wwrite-strings-Wwrite-strings]8;;[m[K]
[01m[Ksgml.C:315:1:[m[K [01;35m[Kwarning: [m[KISO C++ forbids converting a string constant to '[01m[Kchar*[m[K' [[01;35m[K]8;;https://gcc.gnu.org/onlinedocs/gcc/Warning-Options.html#index-Wwrite-strings-Wwrite-strings]8;;[m[K]
[01m[Ksgml.C:315:1:[m[K [01;35m[Kwarning: [m[KISO C++ forbids converting a string constant to '[01m[Kchar*[m[K' [[01;35m[K]8;;https://gcc.gnu.org/onlinedocs/gcc/Warning-Options.html#index-Wwrite-strings-Wwrite-strings]8;;[m[K]
[01m[Ksgml.C:315:1:[m[K [01;35m[Kwarning: [m[KISO C++ forbids converting a string constant to '[01m[Kchar*[m[K' [[01;35m[K]8;;https://gcc.gnu.org/onlinedocs/gcc/Warning-Options.html#index-Wwrite-strings-Wwrite-strings]8;;[m[K]
[01m[Ksgml.C:315:1:[m[K [01;35m[Kwarning: [m[KISO C++ forbids converting a string constant to '[01m[Kchar*[m[K' [[01;35m[K]8;;https://gcc.gnu.org/onlinedocs/gcc/Warning-Options.html#index-Wwrite-strings-Wwrite-strings]8;;[m[K]
[01m[Ksgml.C:315:1:[m[K [01;35m[Kwarning: [m[KISO C++ forbids converting a string constant to '[01m[Kchar*[m[K' [[01;35m[K]8;;https://gcc.gnu.org/onlinedocs/gcc/Warning-Options.html#index-Wwrite-strings-Wwrite-strings]8;;[m[K]
[01m[Ksgml.C:315:1:[m[K [01;35m[Kwarning: [m[KISO C++ forbids converting a string constant to '[01m[Kchar*[m[K' [[01;35m[K]8;;https://gcc.gnu.org/onlinedocs/gcc/Warning-Options.html#index-Wwrite-strings-Wwrite-strings]8;;[m[K]
[01m[Ksgml.C:315:1:[m[K [01;35m[Kwarning: [m[KISO C++ forbids converting a string constant to '[01m[Kchar*[m[K' [[01;35m[K]8;;https://gcc.gnu.org/onlinedocs/gcc/Warning-Options.html#index-Wwrite-strings-Wwrite-strings]8;;[m[K]
[01m[Ksgml.C:315:1:[m[K [01;35m[Kwarning: [m[KISO C++ forbids converting a string constant to '[01m[Kchar*[m[K' [[01;35m[K]8;;https://gcc.gnu.org/onlinedocs/gcc/Warning-Options.html#index-Wwrite-strings-Wwrite-strings]8;;[m[K]
[01m[Ksgml.C:315:1:[m[K [01;35m[Kwarning: [m[KISO C++ forbids converting a string constant to '[01m[Kchar*[m[K' [[01;35m[K]8;;https://gcc.gnu.org/onlinedocs/gcc/Warning-Options.html#index-Wwrite-strings-Wwrite-strings]8;;[m[K]
[01m[Ksgml.C:315:1:[m[K [01;35m[Kwarning: [m[KISO C++ forbids converting a string constant to '[01m[Kchar*[m[K' [[01;35m[K]8;;https://gcc.gnu.org/onlinedocs/gcc/Warning-Options.html#index-Wwrite-strings-Wwrite-strings]8;;[m[K]
[01m[Ksgml.C:315:1:[m[K [01;35m[Kwarning: [m[KISO C++ forbids converting a string constant to '[01m[Kchar*[m[K' [[01;35m[K]8;;https://gcc.gnu.org/onlinedocs/gcc/Warning-Options.html#index-Wwrite-strings-Wwrite-strings]8;;[m[K]
[01m[Ksgml.C:315:1:[m[K [01;35m[Kwarning: [m[KISO C++ forbids converting a string constant to '[01m[Kchar*[m[K' [[01;35m[K]8;;https://gcc.gnu.org/onlinedocs/gcc/Warning-Options.html#index-Wwrite-strings-Wwrite-strings]8;;[m[K]
[01m[Ksgml.C:315:1:[m[K [01;35m[Kwarning: [m[KISO C++ forbids converting a string constant to '[01m[Kchar*[m[K' [[01;35m[K]8;;https://gcc.gnu.org/onlinedocs/gcc/Warning-Options.html#index-Wwrite-strings-Wwrite-strings]8;;[m[K]
[01m[Ksgml.C:315:1:[m[K [01;35m[Kwarning: [m[KISO C++ forbids converting a string constant to '[01m[Kchar*[m[K' [[01;35m[K]8;;https://gcc.gnu.org/onlinedocs/gcc/Warning-Options.html#index-Wwrite-strings-Wwrite-strings]8;;[m[K]
[01m[Ksgml.C:315:1:[m[K [01;35m[Kwarning: [m[KISO C++ forbids converting a string constant to '[01m[Kchar*[m[K' [[01;35m[K]8;;https://gcc.gnu.org/onlinedocs/gcc/Warning-Options.html#index-Wwrite-strings-Wwrite-strings]8;;[m[K]
[01m[Ksgml.C:315:1:[m[K [01;35m[Kwarning: [m[KISO C++ forbids converting a string constant to '[01m[Kchar*[m[K' [[01;35m[K]8;;https://gcc.gnu.org/onlinedocs/gcc/Warning-Options.html#index-Wwrite-strings-Wwrite-strings]8;;[m[K]
[01m[Ksgml.C:315:1:[m[K [01;35m[Kwarning: [m[KISO C++ forbids converting a string constant to '[01m[Kchar*[m[K' [[01;35m[K]8;;https://gcc.gnu.org/onlinedocs/gcc/Warning-Options.html#index-Wwrite-strings-Wwrite-strings]8;;[m[K]
[01m[Ksgml.C:315:1:[m[K [01;35m[Kwarning: [m[KISO C++ forbids converting a string constant to '[01m[Kchar*[m[K' [[01;35m[K]8;;https://gcc.gnu.org/onlinedocs/gcc/Warning-Options.html#index-Wwrite-strings-Wwrite-strings]8;;[m[K]
[01m[Ksgml.C:315:1:[m[K [01;35m[Kwarning: [m[KISO C++ forbids converting a string constant to '[01m[Kchar*[m[K' [[01;35m[K]8;;https://gcc.gnu.org/onlinedocs/gcc/Warning-Options.html#index-Wwrite-strings-Wwrite-strings]8;;[m[K]
[01m[Ksgml.C:315:1:[m[K [01;35m[Kwarning: [m[KISO C++ forbids converting a string constant to '[01m[Kchar*[m[K' [[01;35m[K]8;;https://gcc.gnu.org/onlinedocs/gcc/Warning-Options.html#index-Wwrite-strings-Wwrite-strings]8;;[m[K]
[01m[Ksgml.C:315:1:[m[K [01;35m[Kwarning: [m[KISO C++ forbids converting a string constant to '[01m[Kchar*[m[K' [[01;35m[K]8;;https://gcc.gnu.org/onlinedocs/gcc/Warning-Options.html#index-Wwrite-strings-Wwrite-strings]8;;[m[K]
[01m[Ksgml.C:315:1:[m[K [01;35m[Kwarning: [m[KISO C++ forbids converting a string constant to '[01m[Kchar*[m[K' [[01;35m[K]8;;https://gcc.gnu.org/onlinedocs/gcc/Warning-Options.html#index-Wwrite-strings-Wwrite-strings]8;;[m[K]
[01m[Ksgml.C:315:1:[m[K [01;35m[Kwarning: [m[KISO C++ forbids converting a string constant to '[01m[Kchar*[m[K' [[01;35m[K]8;;https://gcc.gnu.org/onlinedocs/gcc/Warning-Options.html#index-Wwrite-strings-Wwrite-strings]8;;[m[K]
[01m[Ksgml.C:315:1:[m[K [01;35m[Kwarning: [m[KISO C++ forbids converting a string constant to '[01m[Kchar*[m[K' [[01;35m[K]8;;https://gcc.gnu.org/onlinedocs/gcc/Warning-Options.html#index-Wwrite-strings-Wwrite-strings]8;;[m[K]
[01m[Ksgml.C:315:1:[m[K [01;35m[Kwarning: [m[KISO C++ forbids converting a string constant to '[01m[Kchar*[m[K' [[01;35m[K]8;;https://gcc.gnu.org/onlinedocs/gcc/Warning-Options.html#index-Wwrite-strings-Wwrite-strings]8;;[m[K]
[01m[Ksgml.C:315:1:[m[K [01;35m[Kwarning: [m[KISO C++ forbids converting a string constant to '[01m[Kchar*[m[K' [[01;35m[K]8;;https://gcc.gnu.org/onlinedocs/gcc/Warning-Options.html#index-Wwrite-strings-Wwrite-strings]8;;[m[K]
[01m[Ksgml.C:315:1:[m[K [01;35m[Kwarning: [m[KISO C++ forbids converting a string constant to '[01m[Kchar*[m[K' [[01;35m[K]8;;https://gcc.gnu.org/onlinedocs/gcc/Warning-Options.html#index-Wwrite-strings-Wwrite-strings]8;;[m[K]
[01m[Ksgml.C:315:1:[m[K [01;35m[Kwarning: [m[KISO C++ forbids converting a string constant to '[01m[Kchar*[m[K' [[01;35m[K]8;;https://gcc.gnu.org/onlinedocs/gcc/Warning-Options.html#index-Wwrite-strings-Wwrite-strings]8;;[m[K]
[01m[Ksgml.C:315:1:[m[K [01;35m[Kwarning: [m[KISO C++ forbids converting a string constant to '[01m[Kchar*[m[K' [[01;35m[K]8;;https://gcc.gnu.org/onlinedocs/gcc/Warning-Options.html#index-Wwrite-strings-Wwrite-strings]8;;[m[K]
[01m[Ksgml.C:315:1:[m[K [01;35m[Kwarning: [m[KISO C++ forbids converting a string constant to '[01m[Kchar*[m[K' [[01;35m[K]8;;https://gcc.gnu.org/onlinedocs/gcc/Warning-Options.html#index-Wwrite-strings-Wwrite-strings]8;;[m[K]
[01m[Ksgml.C:315:1:[m[K [01;35m[Kwarning: [m[KISO C++ forbids converting a string constant to '[01m[Kchar*[m[K' [[01;35m[K]8;;https://gcc.gnu.org/onlinedocs/gcc/Warning-Options.html#index-Wwrite-strings-Wwrite-strings]8;;[m[K]
[01m[Ksgml.C:315:1:[m[K [01;35m[Kwarning: [m[KISO C++ forbids converting a string constant to '[01m[Kchar*[m[K' [[01;35m[K]8;;https://gcc.gnu.org/onlinedocs/gcc/Warning-Options.html#index-Wwrite-strings-Wwrite-strings]8;;[m[K]
[01m[Ksgml.C:315:1:[m[K [01;35m[Kwarning: [m[KISO C++ forbids converting a string constant to '[01m[Kchar*[m[K' [[01;35m[K]8;;https://gcc.gnu.org/onlinedocs/gcc/Warning-Options.html#index-Wwrite-strings-Wwrite-strings]8;;[m[K]
[01m[Ksgml.C:315:1:[m[K [01;35m[Kwarning: [m[KISO C++ forbids converting a string constant to '[01m[Kchar*[m[K' [[01;35m[K]8;;https://gcc.gnu.org/onlinedocs/gcc/Warning-Options.html#index-Wwrite-strings-Wwrite-strings]8;;[m[K]
[01m[Ksgml.C:315:1:[m[K [01;35m[Kwarning: [m[KISO C++ forbids converting a string constant to '[01m[Kchar*[m[K' [[01;35m[K]8;;https://gcc.gnu.org/onlinedocs/gcc/Warning-Options.html#index-Wwrite-strings-Wwrite-strings]8;;[m[K]
[01m[Ksgml.C:315:1:[m[K [01;35m[Kwarning: [m[KISO C++ forbids converting a string constant to '[01m[Kchar*[m[K' [[01;35m[K]8;;https://gcc.gnu.org/onlinedocs/gcc/Warning-Options.html#index-Wwrite-strings-Wwrite-strings]8;;[m[K]
[01m[Ksgml.C:315:1:[m[K [01;35m[Kwarning: [m[KISO C++ forbids converting a string constant to '[01m[Kchar*[m[K' [[01;35m[K]8;;https://gcc.gnu.org/onlinedocs/gcc/Warning-Options.html#index-Wwrite-strings-Wwrite-strings]8;;[m[K]
[01m[Ksgml.C:315:1:[m[K [01;35m[Kwarning: [m[KISO C++ forbids converting a string constant to '[01m[Kchar*[m[K' [[01;35m[K]8;;https://gcc.gnu.org/onlinedocs/gcc/Warning-Options.html#index-Wwrite-strings-Wwrite-strings]8;;[m[K]
[01m[Ksgml.C:315:1:[m[K [01;35m[Kwarning: [m[KISO C++ forbids converting a string constant to '[01m[Kchar*[m[K' [[01;35m[K]8;;https://gcc.gnu.org/onlinedocs/gcc/Warning-Options.html#index-Wwrite-strings-Wwrite-strings]8;;[m[K]
[01m[Ksgml.C:315:1:[m[K [01;35m[Kwarning: [m[KISO C++ forbids converting a string constant to '[01m[Kchar*[m[K' [[01;35m[K]8;;https://gcc.gnu.org/onlinedocs/gcc/Warning-Options.html#index-Wwrite-strings-Wwrite-strings]8;;[m[K]
[01m[Ksgml.C:315:1:[m[K [01;35m[Kwarning: [m[KISO C++ forbids converting a string constant to '[01m[Kchar*[m[K' [[01;35m[K]8;;https://gcc.gnu.org/onlinedocs/gcc/Warning-Options.html#index-Wwrite-strings-Wwrite-strings]8;;[m[K]
[01m[Ksgml.C:315:1:[m[K [01;35m[Kwarning: [m[KISO C++ forbids converting a string constant to '[01m[Kchar*[m[K' [[01;35m[K]8;;https://gcc.gnu.org/onlinedocs/gcc/Warning-Options.html#index-Wwrite-strings-Wwrite-strings]8;;[m[K]
[01m[Ksgml.C:315:1:[m[K [01;35m[Kwarning: [m[KISO C++ forbids converting a string constant to '[01m[Kchar*[m[K' [[01;35m[K]8;;https://gcc.gnu.org/onlinedocs/gcc/Warning-Options.html#index-Wwrite-strings-Wwrite-strings]8;;[m[K]
[01m[Ksgml.C:315:1:[m[K [01;35m[Kwarning: [m[KISO C++ forbids converting a string constant to '[01m[Kchar*[m[K' [[01;35m[K]8;;https://gcc.gnu.org/onlinedocs/gcc/Warning-Options.html#index-Wwrite-strings-Wwrite-strings]8;;[m[K]
[01m[Ksgml.C:315:1:[m[K [01;35m[Kwarning: [m[KISO C++ forbids converting a string constant to '[01m[Kchar*[m[K' [[01;35m[K]8;;https://gcc.gnu.org/onlinedocs/gcc/Warning-Options.html#index-Wwrite-strings-Wwrite-strings]8;;[m[K]
[01m[Ksgml.C:315:1:[m[K [01;35m[Kwarning: [m[KISO C++ forbids converting a string constant to '[01m[Kchar*[m[K' [[01;35m[K]8;;https://gcc.gnu.org/onlinedocs/gcc/Warning-Options.html#index-Wwrite-strings-Wwrite-strings]8;;[m[K]
[01m[Ksgml.C:315:1:[m[K [01;35m[Kwarning: [m[KISO C++ forbids converting a string constant to '[01m[Kchar*[m[K' [[01;35m[K]8;;https://gcc.gnu.org/onlinedocs/gcc/Warning-Options.html#index-Wwrite-strings-Wwrite-strings]8;;[m[K]
[01m[Ksgml.C:315:1:[m[K [01;35m[Kwarning: [m[KISO C++ forbids converting a string constant to '[01m[Kchar*[m[K' [[01;35m[K]8;;https://gcc.gnu.org/onlinedocs/gcc/Warning-Options.html#index-Wwrite-strings-Wwrite-strings]8;;[m[K]
[01m[Ksgml.C:315:1:[m[K [01;35m[Kwarning: [m[KISO C++ forbids converting a string constant to '[01m[Kchar*[m[K' [[01;35m[K]8;;https://gcc.gnu.org/onlinedocs/gcc/Warning-Options.html#index-Wwrite-strings-Wwrite-strings]8;;[m[K]
[01m[Ksgml.C:315:1:[m[K [01;35m[Kwarning: [m[KISO C++ forbids converting a string constant to '[01m[Kchar*[m[K' [[01;35m[K]8;;https://gcc.gnu.org/onlinedocs/gcc/Warning-Options.html#index-Wwrite-strings-Wwrite-strings]8;;[m[K]
[01m[Ksgml.C:315:1:[m[K [01;35m[Kwarning: [m[KISO C++ forbids converting a string constant to '[01m[Kchar*[m[K' [[01;35m[K]8;;https://gcc.gnu.org/onlinedocs/gcc/Warning-Options.html#index-Wwrite-strings-Wwrite-strings]8;;[m[K]
[01m[Ksgml.C:315:1:[m[K [01;35m[Kwarning: [m[KISO C++ forbids converting a string constant to '[01m[Kchar*[m[K' [[01;35m[K]8;;https://gcc.gnu.org/onlinedocs/gcc/Warning-Options.html#index-Wwrite-strings-Wwrite-strings]8;;[m[K]
[01m[Ksgml.C:315:1:[m[K [01;35m[Kwarning: [m[KISO C++ forbids converting a string constant to '[01m[Kchar*[m[K' [[01;35m[K]8;;https://gcc.gnu.org/onlinedocs/gcc/Warning-Options.html#index-Wwrite-strings-Wwrite-strings]8;;[m[K]
[01m[Ksgml.C:315:1:[m[K [01;35m[Kwarning: [m[KISO C++ forbids converting a string constant to '[01m[Kchar*[m[K' [[01;35m[K]8;;https://gcc.gnu.org/onlinedocs/gcc/Warning-Options.html#index-Wwrite-strings-Wwrite-strings]8;;[m[K]
[01m[Ksgml.C:315:1:[m[K [01;35m[Kwarning: [m[KISO C++ forbids converting a string constant to '[01m[Kchar*[m[K' [[01;35m[K]8;;https://gcc.gnu.org/onlinedocs/gcc/Warning-Options.html#index-Wwrite-strings-Wwrite-strings]8;;[m[K]
[01m[Ksgml.C:315:1:[m[K [01;35m[Kwarning: [m[KISO C++ forbids converting a string constant to '[01m[Kchar*[m[K' [[01;35m[K]8;;https://gcc.gnu.org/onlinedocs/gcc/Warning-Options.html#index-Wwrite-strings-Wwrite-strings]8;;[m[K]
[01m[Ksgml.C:315:1:[m[K [01;35m[Kwarning: [m[KISO C++ forbids converting a string constant to '[01m[Kchar*[m[K' [[01;35m[K]8;;https://gcc.gnu.org/onlinedocs/gcc/Warning-Options.html#index-Wwrite-strings-Wwrite-strings]8;;[m[K]
[01m[Ksgml.C:315:1:[m[K [01;35m[Kwarning: [m[KISO C++ forbids converting a string constant to '[01m[Kchar*[m[K' [[01;35m[K]8;;https://gcc.gnu.org/onlinedocs/gcc/Warning-Options.html#index-Wwrite-strings-Wwrite-strings]8;;[m[K]
[01m[Ksgml.C:315:1:[m[K [01;35m[Kwarning: [m[KISO C++ forbids converting a string constant to '[01m[Kchar*[m[K' [[01;35m[K]8;;https://gcc.gnu.org/onlinedocs/gcc/Warning-Options.html#index-Wwrite-strings-Wwrite-strings]8;;[m[K]
[01m[Ksgml.C:315:1:[m[K [01;35m[Kwarning: [m[KISO C++ forbids converting a string constant to '[01m[Kchar*[m[K' [[01;35m[K]8;;https://gcc.gnu.org/onlinedocs/gcc/Warning-Options.html#index-Wwrite-strings-Wwrite-strings]8;;[m[K]
[01m[Ksgml.C:315:1:[m[K [01;35m[Kwarning: [m[KISO C++ forbids converting a string constant to '[01m[Kchar*[m[K' [[01;35m[K]8;;https://gcc.gnu.org/onlinedocs/gcc/Warning-Options.html#index-Wwrite-strings-Wwrite-strings]8;;[m[K]
[01m[Ksgml.C:315:1:[m[K [01;35m[Kwarning: [m[KISO C++ forbids converting a string constant to '[01m[Kchar*[m[K' [[01;35m[K]8;;https://gcc.gnu.org/onlinedocs/gcc/Warning-Options.html#index-Wwrite-strings-Wwrite-strings]8;;[m[K]
[01m[Ksgml.C:315:1:[m[K [01;35m[Kwarning: [m[KISO C++ forbids converting a string constant to '[01m[Kchar*[m[K' [[01;35m[K]8;;https://gcc.gnu.org/onlinedocs/gcc/Warning-Options.html#index-Wwrite-strings-Wwrite-strings]8;;[m[K]
[01m[Ksgml.C:315:1:[m[K [01;35m[Kwarning: [m[KISO C++ forbids converting a string constant to '[01m[Kchar*[m[K' [[01;35m[K]8;;https://gcc.gnu.org/onlinedocs/gcc/Warning-Options.html#index-Wwrite-strings-Wwrite-strings]8;;[m[K]
[01m[Ksgml.C:315:1:[m[K [01;35m[Kwarning: [m[KISO C++ forbids converting a string constant to '[01m[Kchar*[m[K' [[01;35m[K]8;;https://gcc.gnu.org/onlinedocs/gcc/Warning-Options.html#index-Wwrite-strings-Wwrite-strings]8;;[m[K]
[01m[Ksgml.C:315:1:[m[K [01;35m[Kwarning: [m[KISO C++ forbids converting a string constant to '[01m[Kchar*[m[K' [[01;35m[K]8;;https://gcc.gnu.org/onlinedocs/gcc/Warning-Options.html#index-Wwrite-strings-Wwrite-strings]8;;[m[K]
[01m[Ksgml.C:315:1:[m[K [01;35m[Kwarning: [m[KISO C++ forbids converting a string constant to '[01m[Kchar*[m[K' [[01;35m[K]8;;https://gcc.gnu.org/onlinedocs/gcc/Warning-Options.html#index-Wwrite-strings-Wwrite-strings]8;;[m[K]
[01m[Ksgml.C:315:1:[m[K [01;35m[Kwarning: [m[KISO C++ forbids converting a string constant to '[01m[Kchar*[m[K' [[01;35m[K]8;;https://gcc.gnu.org/onlinedocs/gcc/Warning-Options.html#index-Wwrite-strings-Wwrite-strings]8;;[m[K]
[01m[Ksgml.C:315:1:[m[K [01;35m[Kwarning: [m[KISO C++ forbids converting a string constant to '[01m[Kchar*[m[K' [[01;35m[K]8;;https://gcc.gnu.org/onlinedocs/gcc/Warning-Options.html#index-Wwrite-strings-Wwrite-strings]8;;[m[K]
[01m[Ksgml.C:315:1:[m[K [01;35m[Kwarning: [m[KISO C++ forbids converting a string constant to '[01m[Kchar*[m[K' [[01;35m[K]8;;https://gcc.gnu.org/onlinedocs/gcc/Warning-Options.html#index-Wwrite-strings-Wwrite-strings]8;;[m[K]
[01m[Ksgml.C:315:1:[m[K [01;35m[Kwarning: [m[KISO C++ forbids converting a string constant to '[01m[Kchar*[m[K' [[01;35m[K]8;;https://gcc.gnu.org/onlinedocs/gcc/Warning-Options.html#index-Wwrite-strings-Wwrite-strings]8;;[m[K]
[01m[Ksgml.C:315:1:[m[K [01;35m[Kwarning: [m[KISO C++ forbids converting a string constant to '[01m[Kchar*[m[K' [[01;35m[K]8;;https://gcc.gnu.org/onlinedocs/gcc/Warning-Options.html#index-Wwrite-strings-Wwrite-strings]8;;[m[K]
[01m[Ksgml.C:315:1:[m[K [01;35m[Kwarning: [m[KISO C++ forbids converting a string constant to '[01m[Kchar*[m[K' [[01;35m[K]8;;https://gcc.gnu.org/onlinedocs/gcc/Warning-Options.html#index-Wwrite-strings-Wwrite-strings]8;;[m[K]
[01m[Ksgml.C:315:1:[m[K [01;35m[Kwarning: [m[KISO C++ forbids converting a string constant to '[01m[Kchar*[m[K' [[01;35m[K]8;;https://gcc.gnu.org/onlinedocs/gcc/Warning-Options.html#index-Wwrite-strings-Wwrite-strings]8;;[m[K]
[01m[Ksgml.C:315:1:[m[K [01;35m[Kwarning: [m[KISO C++ forbids converting a string constant to '[01m[Kchar*[m[K' [[01;35m[K]8;;https://gcc.gnu.org/onlinedocs/gcc/Warning-Options.html#index-Wwrite-strings-Wwrite-strings]8;;[m[K]
[01m[Ksgml.C:315:1:[m[K [01;35m[Kwarning: [m[KISO C++ forbids converting a string constant to '[01m[Kchar*[m[K' [[01;35m[K]8;;https://gcc.gnu.org/onlinedocs/gcc/Warning-Options.html#index-Wwrite-strings-Wwrite-strings]8;;[m[K]
[01m[Ksgml.C:315:1:[m[K [01;35m[Kwarning: [m[KISO C++ forbids converting a string constant to '[01m[Kchar*[m[K' [[01;35m[K]8;;https://gcc.gnu.org/onlinedocs/gcc/Warning-Options.html#index-Wwrite-strings-Wwrite-strings]8;;[m[K]
[01m[Ksgml.C:315:1:[m[K [01;35m[Kwarning: [m[KISO C++ forbids converting a string constant to '[01m[Kchar*[m[K' [[01;35m[K]8;;https://gcc.gnu.org/onlinedocs/gcc/Warning-Options.html#index-Wwrite-strings-Wwrite-strings]8;;[m[K]
[01m[Ksgml.C:315:1:[m[K [01;35m[Kwarning: [m[KISO C++ forbids converting a string constant to '[01m[Kchar*[m[K' [[01;35m[K]8;;https://gcc.gnu.org/onlinedocs/gcc/Warning-Options.html#index-Wwrite-strings-Wwrite-strings]8;;[m[K]
[01m[Ksgml.C:315:1:[m[K [01;35m[Kwarning: [m[KISO C++ forbids converting a string constant to '[01m[Kchar*[m[K' [[01;35m[K]8;;https://gcc.gnu.org/onlinedocs/gcc/Warning-Options.html#index-Wwrite-strings-Wwrite-strings]8;;[m[K]
[01m[Ksgml.C:315:1:[m[K [01;35m[Kwarning: [m[KISO C++ forbids converting a string constant to '[01m[Kchar*[m[K' [[01;35m[K]8;;https://gcc.gnu.org/onlinedocs/gcc/Warning-Options.html#index-Wwrite-strings-Wwrite-strings]8;;[m[K]
[01m[Ksgml.C:315:1:[m[K [01;35m[Kwarning: [m[KISO C++ forbids converting a string constant to '[01m[Kchar*[m[K' [[01;35m[K]8;;https://gcc.gnu.org/onlinedocs/gcc/Warning-Options.html#index-Wwrite-strings-Wwrite-strings]8;;[m[K]
[01m[Ksgml.C:315:1:[m[K [01;35m[Kwarning: [m[KISO C++ forbids converting a string constant to '[01m[Kchar*[m[K' [[01;35m[K]8;;https://gcc.gnu.org/onlinedocs/gcc/Warning-Options.html#index-Wwrite-strings-Wwrite-strings]8;;[m[K]
[01m[Ksgml.C:315:1:[m[K [01;35m[Kwarning: [m[KISO C++ forbids converting a string constant to '[01m[Kchar*[m[K' [[01;35m[K]8;;https://gcc.gnu.org/onlinedocs/gcc/Warning-Options.html#index-Wwrite-strings-Wwrite-strings]8;;[m[K]
[01m[Ksgml.C:315:1:[m[K [01;35m[Kwarning: [m[KISO C++ forbids converting a string constant to '[01m[Kchar*[m[K' [[01;35m[K]8;;https://gcc.gnu.org/onlinedocs/gcc/Warning-Options.html#index-Wwrite-strings-Wwrite-strings]8;;[m[K]
[01m[Ksgml.C:315:1:[m[K [01;35m[Kwarning: [m[KISO C++ forbids converting a string constant to '[01m[Kchar*[m[K' [[01;35m[K]8;;https://gcc.gnu.org/onlinedocs/gcc/Warning-Options.html#index-Wwrite-strings-Wwrite-strings]8;;[m[K]
[01m[Ksgml.C:315:1:[m[K [01;35m[Kwarning: [m[KISO C++ forbids converting a string constant to '[01m[Kchar*[m[K' [[01;35m[K]8;;https://gcc.gnu.org/onlinedocs/gcc/Warning-Options.html#index-Wwrite-strings-Wwrite-strings]8;;[m[K]
[01m[Ksgml.C:315:1:[m[K [01;35m[Kwarning: [m[KISO C++ forbids converting a string constant to '[01m[Kchar*[m[K' [[01;35m[K]8;;https://gcc.gnu.org/onlinedocs/gcc/Warning-Options.html#index-Wwrite-strings-Wwrite-strings]8;;[m[K]
[01m[Ksgml.C:315:1:[m[K [01;35m[Kwarning: [m[KISO C++ forbids converting a string constant to '[01m[Kchar*[m[K' [[01;35m[K]8;;https://gcc.gnu.org/onlinedocs/gcc/Warning-Options.html#index-Wwrite-strings-Wwrite-strings]8;;[m[K]
[01m[Ksgml.C:315:1:[m[K [01;35m[Kwarning: [m[KISO C++ forbids converting a string constant to '[01m[Kchar*[m[K' [[01;35m[K]8;;https://gcc.gnu.org/onlinedocs/gcc/Warning-Options.html#index-Wwrite-strings-Wwrite-strings]8;;[m[K]
[01m[Ksgml.C:315:1:[m[K [01;35m[Kwarning: [m[KISO C++ forbids converting a string constant to '[01m[Kchar*[m[K' [[01;35m[K]8;;https://gcc.gnu.org/onlinedocs/gcc/Warning-Options.html#index-Wwrite-strings-Wwrite-strings]8;;[m[K]
[01m[Ksgml.C:315:1:[m[K [01;35m[Kwarning: [m[KISO C++ forbids converting a string constant to '[01m[Kchar*[m[K' [[01;35m[K]8;;https://gcc.gnu.org/onlinedocs/gcc/Warning-Options.html#index-Wwrite-strings-Wwrite-strings]8;;[m[K]
[01m[Ksgml.C:315:1:[m[K [01;35m[Kwarning: [m[KISO C++ forbids converting a string constant to '[01m[Kchar*[m[K' [[01;35m[K]8;;https://gcc.gnu.org/onlinedocs/gcc/Warning-Options.html#index-Wwrite-strings-Wwrite-strings]8;;[m[K]
[01m[Ksgml.C:315:1:[m[K [01;35m[Kwarning: [m[KISO C++ forbids converting a string constant to '[01m[Kchar*[m[K' [[01;35m[K]8;;https://gcc.gnu.org/onlinedocs/gcc/Warning-Options.html#index-Wwrite-strings-Wwrite-strings]8;;[m[K]
[01m[Ksgml.C:315:1:[m[K [01;35m[Kwarning: [m[KISO C++ forbids converting a string constant to '[01m[Kchar*[m[K' [[01;35m[K]8;;https://gcc.gnu.org/onlinedocs/gcc/Warning-Options.html#index-Wwrite-strings-Wwrite-strings]8;;[m[K]
[01m[Ksgml.C:315:1:[m[K [01;35m[Kwarning: [m[KISO C++ forbids converting a string constant to '[01m[Kchar*[m[K' [[01;35m[K]8;;https://gcc.gnu.org/onlinedocs/gcc/Warning-Options.html#index-Wwrite-strings-Wwrite-strings]8;;[m[K]
[01m[Ksgml.C:315:1:[m[K [01;35m[Kwarning: [m[KISO C++ forbids converting a string constant to '[01m[Kchar*[m[K' [[01;35m[K]8;;https://gcc.gnu.org/onlinedocs/gcc/Warning-Options.html#index-Wwrite-strings-Wwrite-strings]8;;[m[K]
[01m[Ksgml.C:315:1:[m[K [01;35m[Kwarning: [m[KISO C++ forbids converting a string constant to '[01m[Kchar*[m[K' [[01;35m[K]8;;https://gcc.gnu.org/onlinedocs/gcc/Warning-Options.html#index-Wwrite-strings-Wwrite-strings]8;;[m[K]
[01m[Ksgml.C:315:1:[m[K [01;35m[Kwarning: [m[KISO C++ forbids converting a string constant to '[01m[Kchar*[m[K' [[01;35m[K]8;;https://gcc.gnu.org/onlinedocs/gcc/Warning-Options.html#index-Wwrite-strings-Wwrite-strings]8;;[m[K]
[01m[Ksgml.C:315:1:[m[K [01;35m[Kwarning: [m[KISO C++ forbids converting a string constant to '[01m[Kchar*[m[K' [[01;35m[K]8;;https://gcc.gnu.org/onlinedocs/gcc/Warning-Options.html#index-Wwrite-strings-Wwrite-strings]8;;[m[K]
[01m[Ksgml.C:315:1:[m[K [01;35m[Kwarning: [m[KISO C++ forbids converting a string constant to '[01m[Kchar*[m[K' [[01;35m[K]8;;https://gcc.gnu.org/onlinedocs/gcc/Warning-Options.html#index-Wwrite-strings-Wwrite-strings]8;;[m[K]
[01m[Ksgml.C:315:1:[m[K [01;35m[Kwarning: [m[KISO C++ forbids converting a string constant to '[01m[Kchar*[m[K' [[01;35m[K]8;;https://gcc.gnu.org/onlinedocs/gcc/Warning-Options.html#index-Wwrite-strings-Wwrite-strings]8;;[m[K]
[01m[Ksgml.C:315:1:[m[K [01;35m[Kwarning: [m[KISO C++ forbids converting a string constant to '[01m[Kchar*[m[K' [[01;35m[K]8;;https://gcc.gnu.org/onlinedocs/gcc/Warning-Options.html#index-Wwrite-strings-Wwrite-strings]8;;[m[K]
[01m[Ksgml.C:315:1:[m[K [01;35m[Kwarning: [m[KISO C++ forbids converting a string constant to '[01m[Kchar*[m[K' [[01;35m[K]8;;https://gcc.gnu.org/onlinedocs/gcc/Warning-Options.html#index-Wwrite-strings-Wwrite-strings]8;;[m[K]
[01m[Ksgml.C:315:1:[m[K [01;35m[Kwarning: [m[KISO C++ forbids converting a string constant to '[01m[Kchar*[m[K' [[01;35m[K]8;;https://gcc.gnu.org/onlinedocs/gcc/Warning-Options.html#index-Wwrite-strings-Wwrite-strings]8;;[m[K]
[01m[Ksgml.C:315:1:[m[K [01;35m[Kwarning: [m[KISO C++ forbids converting a string constant to '[01m[Kchar*[m[K' [[01;35m[K]8;;https://gcc.gnu.org/onlinedocs/gcc/Warning-Options.html#index-Wwrite-strings-Wwrite-strings]8;;[m[K]
[01m[Ksgml.C:315:1:[m[K [01;35m[Kwarning: [m[KISO C++ forbids converting a string constant to '[01m[Kchar*[m[K' [[01;35m[K]8;;https://gcc.gnu.org/onlinedocs/gcc/Warning-Options.html#index-Wwrite-strings-Wwrite-strings]8;;[m[K]
[01m[Ksgml.C:315:1:[m[K [01;35m[Kwarning: [m[KISO C++ forbids converting a string constant to '[01m[Kchar*[m[K' [[01;35m[K]8;;https://gcc.gnu.org/onlinedocs/gcc/Warning-Options.html#index-Wwrite-strings-Wwrite-strings]8;;[m[K]
[01m[Ksgml.C:315:1:[m[K [01;35m[Kwarning: [m[KISO C++ forbids converting a string constant to '[01m[Kchar*[m[K' [[01;35m[K]8;;https://gcc.gnu.org/onlinedocs/gcc/Warning-Options.html#index-Wwrite-strings-Wwrite-strings]8;;[m[K]
[01m[K/usr/local/lib/bison.cc:[m[K In member function '[01m[Kint HTMLParser::yyparse()[m[K':
[01m[K/usr/local/lib/bison.cc:529:24:[m[K [01;35m[Kwarning: [m[KISO C++ forbids converting a string constant to '[01m[Kchar*[m[K' [[01;35m[K]8;;https://gcc.gnu.org/onlinedocs/gcc/Warning-Options.html#index-Wwrite-strings-Wwrite-strings]8;;[m[K]
[01m[KHTMLParser.y:349:15:[m[K [01;35m[Kwarning: [m[KISO C++ forbids converting a string constant to '[01m[Kchar*[m[K' [[01;35m[K]8;;https://gcc.gnu.org/onlinedocs/gcc/Warning-Options.html#index-Wwrite-strings-Wwrite-strings]8;;[m[K]
  349 |       yyerror([01;35m[K"CDATA terminal not found"[m[K);
      |               [01;35m[K^~~~~~~~~~~~~~~~~~~~~~~~~~[m[K
[01m[KHTMLParser.y:357:15:[m[K [01;35m[Kwarning: [m[KISO C++ forbids converting a string constant to '[01m[Kchar*[m[K' [[01;35m[K]8;;https://gcc.gnu.org/onlinedocs/gcc/Warning-Options.html#index-Wwrite-strings-Wwrite-strings]8;;[m[K]
  357 |       yyerror([01;35m[K"CDATA terminal not found"[m[K);
      |               [01;35m[K^~~~~~~~~~~~~~~~~~~~~~~~~~[m[K
[01m[KHTMLParser.y:403:15:[m[K [01;35m[Kwarning: [m[KISO C++ forbids converting a string constant to '[01m[Kchar*[m[K' [[01;35m[K]8;;https://gcc.gnu.org/onlinedocs/gcc/Warning-Options.html#index-Wwrite-strings-Wwrite-strings]8;;[m[K]
  403 |       yyerror([01;35m[K"CDATA terminal not found"[m[K);
      |               [01;35m[K^~~~~~~~~~~~~~~~~~~~~~~~~~[m[K
[01m[KHTMLParser.y:411:15:[m[K [01;35m[Kwarning: [m[KISO C++ forbids converting a string constant to '[01m[Kchar*[m[K' [[01;35m[K]8;;https://gcc.gnu.org/onlinedocs/gcc/Warning-Options.html#index-Wwrite-strings-Wwrite-strings]8;;[m[K]
  411 |       yyerror([01;35m[K"CDATA terminal not found"[m[K);
      |               [01;35m[K^~~~~~~~~~~~~~~~~~~~~~~~~~[m[K
[01m[KHTMLParser.y:435:16:[m[K [01;35m[Kwarning: [m[KISO C++ forbids converting a string constant to '[01m[Kchar*[m[K' [[01;35m[K]8;;https://gcc.gnu.org/onlinedocs/gcc/Warning-Options.html#index-Wwrite-strings-Wwrite-strings]8;;[m[K]
  435 |       yyerror ([01;35m[K"Levels of opening and closing headings don't match"[m[K);
      |                [01;35m[K^~~~~~~~~~~~~~~~~~~~~~~~~~~~~~~~~~~~~~~~~~~~~~~~~~~~[m[K
[01m[KHTMLControl.C:[m[K In member function '[01m[Kvoid HTMLControl::unget_char(int)[m[K':
[01m[KHTMLControl.C:590:13:[m[K [01;35m[Kwarning: [m[KISO C++ forbids converting a string constant to '[01m[Kchar*[m[K' [[01;35m[K]8;;https://gcc.gnu.org/onlinedocs/gcc/Warning-Options.html#index-Wwrite-strings-Wwrite-strings]8;;[m[K]
  590 |     yyerror([01;35m[K"Too many chars ungotten"[m[K);
      |             [01;35m[K^~~~~~~~~~~~~~~~~~~~~~~~~[m[K
[01m[K/usr/local/lib/bison.cc:794:22:[m[K [01;35m[Kwarning: [m[KISO C++ forbids converting a string constant to '[01m[Kchar*[m[K' [[01;35m[K]8;;https://gcc.gnu.org/onlinedocs/gcc/Warning-Options.html#index-Wwrite-strings-Wwrite-strings]8;;[m[K]
x86_64-pc-linux-gnu-g++ -Wl,-O1 -Wl,--as-needed -Wl,--sort-common -s -Wl,-lpthread -Wl,-lgomp -Wl,-z,norelro -Wl,-z,now -march=znver2 -O3 -fgraphite-identity -floop-nest-optimize -fdevirtualize-at-ltrans -fipa-pta -fno-semantic-interposition -flto=12 -fno-plt -fno-signed-zeros -fno-trapping-math -fassociative-math -freciprocal-math -fno-math-errno -ffinite-math-only -fno-rounding-math -fno-signaling-nans -fcx-limited-range -fexcess-precision=fast -falign-functions=32 -fno-stack-protector -fno-stack-clash-protection -fstack-check=no -fno-stack-check -fbranch-target-load-optimize2 -freschedule-modulo-scheduled-loops -fsched-pressure -fsched-spec-load -fsched-stalled-insns=0 -fsched2-use-superblocks -fselective-scheduling -fselective-scheduling2 -fsel-sched-pipelining -fsel-sched-pipelining-outer-loops -fuse-linker-plugin -pipe -g0 html2text.o html.o HTMLControl.o HTMLParser.o Area.o format.o sgml.o table.o urlistream.o Properties.o cmp_nocase.o    -o html2text

Compilation completed. You may now move "html2text", "html2text.1.gz"
and "html2textrc.5.gz" to their installation directories (e.g.
"/usr/local/bin", "/usr/local/man/man1" and "/usr/local/man/man5").

>>> Source compiled.
>>> Test phase [not enabled]: app-text/html2text-1.3.2a-r2

>>> Install app-text/html2text-1.3.2a-r2 into /tmp/portage/app-text/html2text-1.3.2a-r2/image
>>> Completed installing app-text/html2text-1.3.2a-r2 into /tmp/portage/app-text/html2text-1.3.2a-r2/image

 * Final size of build directory: 2236 KiB (2.1 MiB)
 * Final size of installed tree:   324 KiB



 * QA Notice: Pre-stripped files found:
 * /usr/bin/html2text
./
./usr/
./usr/bin/
./usr/bin/html2text
./usr/share/
./usr/share/man/
./usr/share/man/man1/
./usr/share/man/man1/html2text.1.bz2
./usr/share/man/man5/
./usr/share/man/man5/html2textrc.5.bz2
./usr/share/doc/
./usr/share/doc/html2text-1.3.2a-r2/
./usr/share/doc/html2text-1.3.2a-r2/CREDITS.bz2
./usr/share/doc/html2text-1.3.2a-r2/TODO.bz2
./usr/share/doc/html2text-1.3.2a-r2/README.bz2
./usr/share/doc/html2text-1.3.2a-r2/KNOWN_BUGS.bz2
./usr/share/doc/html2text-1.3.2a-r2/CHANGES.bz2
>>> Done.
 * checking 3 files for package collisions
>>> Merging app-text/html2text-1.3.2a-r2 to /
 * removing unneeded *.la files
--- /usr/
--- /usr/share/
--- /usr/share/man/
--- /usr/share/man/man5/
>>> /usr/share/man/man5/html2textrc.5.bz2
--- /usr/share/man/man1/
>>> /usr/share/man/man1/html2text.1.bz2
--- /usr/bin/
>>> /usr/bin/html2text
>>> Safely unmerging already-installed instance...
>>> Original instance of package unmerged safely.
>>> app-text/html2text-1.3.2a-r2 merged.
