No package files given... Grabbing a set.
<<<          obj /usr/share/man/man1/zipsplit.1.bz2
<<<          obj /usr/share/man/man1/zipnote.1.bz2
<<<          obj /usr/share/man/man1/zipcloak.1.bz2
<<<          obj /usr/share/man/man1/zip.1.bz2
<<<          obj /usr/share/doc/zip-3.0-r3/ziplimit.txt.bz2
<<<          obj /usr/share/doc/zip-3.0-r3/txtvsbin.txt.bz2
<<<          obj /usr/share/doc/zip-3.0-r3/timezone.txt.bz2
<<<          obj /usr/share/doc/zip-3.0-r3/ntsd.txt.bz2
<<<          obj /usr/share/doc/zip-3.0-r3/extrafld.txt.bz2
<<<          obj /usr/share/doc/zip-3.0-r3/algorith.txt.bz2
<<<          obj /usr/share/doc/zip-3.0-r3/WHERE.bz2
<<<          obj /usr/share/doc/zip-3.0-r3/WHATSNEW.bz2
<<<          obj /usr/share/doc/zip-3.0-r3/TODO.bz2
<<<          obj /usr/share/doc/zip-3.0-r3/README.bz2
<<<          obj /usr/share/doc/zip-3.0-r3/README.CR.bz2
<<<          obj /usr/share/doc/zip-3.0-r3/CHANGES.bz2
<<<          obj /usr/share/doc/zip-3.0-r3/BUGS.bz2
<<<          obj /usr/bin/zipsplit
<<<          obj /usr/bin/zipnote
<<<          obj /usr/bin/zipcloak
<<<          obj /usr/bin/zip
--- !empty   dir /usr/share/man/man1
--- !empty   dir /usr/share/man
<<<          dir /usr/share/doc/zip-3.0-r3
--- !empty   dir /usr/share/doc
--- !empty   dir /usr/share
--- !empty   dir /usr/bin
--- !empty   dir /usr
