 * Package:    app-admin/perl-cleaner-2.28
 * Repository: gentoo
 * Maintainer: perl@gentoo.org
 * USE:        abi_x86_64 amd64 elibc_glibc kernel_linux userland_GNU
 * FEATURES:   network-sandbox preserve-libs sandbox userpriv usersandbox
 * FEATURES='assume-digests binpkg-docompress binpkg-dostrip binpkg-logs binpkg-multi-instance buildpkg cgroup compress-index config-protect-if-modified distlocks downgrade-backup fixlafiles ipc-sandbox merge-sync multilib-strict network-sandbox news nodoc parallel-fetch parallel-install pid-sandbox preserve-libs qa-unresolved-soname-deps sandbox sfperms strict strict-keepdir unknown-features-warn unmerge-backup unmerge-logs unmerge-orphans userfetch userpriv usersandbox usersync xattr'
 * CFLAGS='-march=native -O3 -fgraphite-identity -floop-nest-optimize -fdevirtualize-at-ltrans -fipa-pta -fno-semantic-interposition -flto=12 -fno-plt -fno-math-errno -fno-trapping-math -fuse-linker-plugin -pipe -g0 -falign-functions=32 -Wl,-O1 -Wl,--as-needed -Wl,--hash-style=gnu,-z,norelro,--as-needed'
 * CXXFLAGS='-march=native -O3 -fgraphite-identity -floop-nest-optimize -fdevirtualize-at-ltrans -fipa-pta -fno-semantic-interposition -flto=12 -fno-plt -fno-math-errno -fno-trapping-math -fuse-linker-plugin -pipe -g0 -falign-functions=32 -Wl,-O1 -Wl,--as-needed -Wl,--hash-style=gnu,-z,norelro,--as-needed'
 * FFLAGS='-march=native -O3 -fgraphite-identity -floop-nest-optimize -fdevirtualize-at-ltrans -fipa-pta -fno-semantic-interposition -flto=12 -fno-plt -fno-math-errno -fno-trapping-math -fuse-linker-plugin -pipe -g0 -falign-functions=32 -Wl,-O1 -Wl,--as-needed -Wl,--hash-style=gnu,-z,norelro,--as-needed'
 * FCFLAGS='-march=native -O3 -fgraphite-identity -floop-nest-optimize -fdevirtualize-at-ltrans -fipa-pta -fno-semantic-interposition -flto=12 -fno-plt -fno-math-errno -fno-trapping-math -fuse-linker-plugin -pipe -g0 -falign-functions=32 -Wl,-O1 -Wl,--as-needed -Wl,--hash-style=gnu,-z,norelro,--as-needed'
 * F77FLAGS='-march=native -O3 -fgraphite-identity -floop-nest-optimize -fdevirtualize-at-ltrans -fipa-pta -fno-semantic-interposition -flto=12 -fno-plt -fno-math-errno -fno-trapping-math -fuse-linker-plugin -pipe -g0 -falign-functions=32 -Wl,-O1 -Wl,--as-needed -Wl,--hash-style=gnu,-z,norelro,--as-needed'
 * LDFLAGS='-Wl,-O1 -Wl,--as-needed -Wl,--hash-style=gnu,-z,norelro,--as-needed -march=native -O3 -fgraphite-identity -floop-nest-optimize -fdevirtualize-at-ltrans -fipa-pta -fno-semantic-interposition -flto=12 -fno-plt -fno-math-errno -fno-trapping-math -fuse-linker-plugin -pipe -g0 -falign-functions=32'
 * MAKEOPTS='-j12 -l12'
 * gcc (Gentoo 11.0.0_pre9999 p1, commit 584d52b088f9fcf78704b504c3f1f07e17c1cded) 11.0.0 20200523 (experimental)
 * g++ (Gentoo 11.0.0_pre9999 p1, commit 584d52b088f9fcf78704b504c3f1f07e17c1cded) 11.0.0 20200523 (experimental)
 * GNU ld (Gentoo 2.34 p4) 2.34.0
 * Linux ryzen.gnum.org 5.4.36 #1 SMP Thu Apr 30 04:38:28 UTC 2020 x86_64 AMD Ryzen 5 3600 6-Core Processor AuthenticAMD GNU/Linux
app-admin/perl-cleaner: 11 seconds average for 4 merges
2020-05-16T21:06:25 >>> app-admin/perl-cleaner: 8 seconds
2020-05-23T11:35:47 >>> app-admin/perl-cleaner: 10 seconds
2020-05-24T23:58:33 >>> app-admin/perl-cleaner: 14 seconds
2020-05-25T18:40:34 >>> app-admin/perl-cleaner: 12 seconds
]0;emerge 20:11:10 152|647 perl-cleaner 00:12 (root@ryzen.gnum.org)kemerge 20:11:10 152|647 perl-cleaner 00:12 (root@ryzen.gnum.org)\>>> Unpacking source...
>>> Unpacking perl-cleaner-2.28.tar.bz2 to /tmp/portage/app-admin/perl-cleaner-2.28/work
>>> Source unpacked in /tmp/portage/app-admin/perl-cleaner-2.28/work
>>> Preparing source in /tmp/portage/app-admin/perl-cleaner-2.28/work/perl-cleaner-2.28 ...
 * Adjusting to prefix /
 *   perl-cleaner ...
 [ ok ]
>>> Source prepared.
>>> Configuring source in /tmp/portage/app-admin/perl-cleaner-2.28/work/perl-cleaner-2.28 ...
>>> Source configured.
>>> Compiling source in /tmp/portage/app-admin/perl-cleaner-2.28/work/perl-cleaner-2.28 ...
>>> Source compiled.
>>> Test phase [not enabled]: app-admin/perl-cleaner-2.28

>>> Install app-admin/perl-cleaner-2.28 into /tmp/portage/app-admin/perl-cleaner-2.28/image/
>>> Completed installing app-admin/perl-cleaner-2.28 into /tmp/portage/app-admin/perl-cleaner-2.28/image/

 * Final size of build directory: 36 KiB
 * Final size of installed tree:  52 KiB

./
./usr/
./usr/sbin/
./usr/sbin/perl-cleaner
./usr/share/
./usr/share/man/
./usr/share/man/man1/
./usr/share/man/man1/perl-cleaner.1.bz2
>>> Done.
 * checking 2 files for package collisions
>>> Merging app-admin/perl-cleaner-2.28 to /
 * removing unneeded *.la files
--- /usr/
--- /usr/share/
--- /usr/share/man/
--- /usr/share/man/man1/
>>> /usr/share/man/man1/perl-cleaner.1.bz2
--- /usr/sbin/
>>> /usr/sbin/perl-cleaner
>>> Safely unmerging already-installed instance...
>>> Original instance of package unmerged safely.
>>> app-admin/perl-cleaner-2.28 merged.
