>>> Extracting info
[32;01m * [39;49;00mPackage:    app-shells/gentoo-bashcomp-20190211
[32;01m * [39;49;00mRepository: gentoo
[32;01m * [39;49;00mUSE:        userland_GNU abi_x86_64 elibc_glibc kernel_linux amd64
[32;01m * [39;49;00mFEATURES:   ccache network-sandbox preserve-libs sandbox userpriv usersandbox
 [32;01m*[0m FEATURES='assume-digests binpkg-docompress binpkg-dostrip binpkg-logs binpkg-multi-instance buildpkg ccache cgroup compress-index config-protect-if-modified distlocks downgrade-backup fixlafiles ipc-sandbox merge-sync multilib-strict network-sandbox news nodoc parallel-fetch parallel-install pid-sandbox preserve-libs qa-unresolved-soname-deps sandbox sfperms strict strict-keepdir unknown-features-warn unmerge-backup unmerge-logs unmerge-orphans userfetch userpriv usersandbox usersync xattr'
 [32;01m*[0m CFLAGS='-march=native -O3 -fgraphite-identity -floop-nest-optimize -fdevirtualize-at-ltrans -fipa-pta -fno-semantic-interposition -flto=12 -fno-signed-zeros -fno-trapping-math -fassociative-math -freciprocal-math -fno-math-errno -ffinite-math-only -fno-rounding-math -fno-signaling-nans -fcx-limited-range -fexcess-precision=fast -fno-plt -fno-common -fuse-linker-plugin -pipe -g0 -fno-stack-protector -fno-stack-clash-protection -fstack-check=no -fno-stack-check -Wl,-O4,--hash-style=gnu,--sort-common,--as-needed,-z,relro,-z,now,-lgomp,-lpthread'
 [32;01m*[0m CXXFLAGS='-march=native -O3 -fgraphite-identity -floop-nest-optimize -fdevirtualize-at-ltrans -fipa-pta -fno-semantic-interposition -flto=12 -fno-signed-zeros -fno-trapping-math -fassociative-math -freciprocal-math -fno-math-errno -ffinite-math-only -fno-rounding-math -fno-signaling-nans -fcx-limited-range -fexcess-precision=fast -fno-plt -fno-common -fuse-linker-plugin -pipe -g0 -fno-stack-protector -fno-stack-clash-protection -fstack-check=no -fno-stack-check -Wl,-O4,--hash-style=gnu,--sort-common,--as-needed,-z,relro,-z,now,-lgomp,-lpthread'
 [32;01m*[0m FFLAGS='-march=native -O3 -fgraphite-identity -floop-nest-optimize -fdevirtualize-at-ltrans -fipa-pta -fno-semantic-interposition -flto=12 -fno-signed-zeros -fno-trapping-math -fassociative-math -freciprocal-math -fno-math-errno -ffinite-math-only -fno-rounding-math -fno-signaling-nans -fcx-limited-range -fexcess-precision=fast -fno-plt -fno-common -fuse-linker-plugin -pipe -g0 -fno-stack-protector -fno-stack-clash-protection -fstack-check=no -fno-stack-check -Wl,-O4,--hash-style=gnu,--sort-common,--as-needed,-z,relro,-z,now,-lgomp,-lpthread'
 [32;01m*[0m FCFLAGS='-march=native -O3 -fgraphite-identity -floop-nest-optimize -fdevirtualize-at-ltrans -fipa-pta -fno-semantic-interposition -flto=12 -fno-signed-zeros -fno-trapping-math -fassociative-math -freciprocal-math -fno-math-errno -ffinite-math-only -fno-rounding-math -fno-signaling-nans -fcx-limited-range -fexcess-precision=fast -fno-plt -fno-common -fuse-linker-plugin -pipe -g0 -fno-stack-protector -fno-stack-clash-protection -fstack-check=no -fno-stack-check -Wl,-O4,--hash-style=gnu,--sort-common,--as-needed,-z,relro,-z,now,-lgomp,-lpthread'
 [32;01m*[0m F77FLAGS='-march=native -O3 -fgraphite-identity -floop-nest-optimize -fdevirtualize-at-ltrans -fipa-pta -fno-semantic-interposition -flto=12 -fno-signed-zeros -fno-trapping-math -fassociative-math -freciprocal-math -fno-math-errno -ffinite-math-only -fno-rounding-math -fno-signaling-nans -fcx-limited-range -fexcess-precision=fast -fno-plt -fno-common -fuse-linker-plugin -pipe -g0 -fno-stack-protector -fno-stack-clash-protection -fstack-check=no -fno-stack-check -Wl,-O4,--hash-style=gnu,--sort-common,--as-needed,-z,relro,-z,now,-lgomp,-lpthread'
 [32;01m*[0m LDFLAGS='-Wl,-O4,--hash-style=gnu,--sort-common,--as-needed,-z,relro,-z,now,-lgomp,-lpthread -march=native -O3 -fgraphite-identity -floop-nest-optimize -fdevirtualize-at-ltrans -fipa-pta -fno-semantic-interposition -flto=12 -fno-signed-zeros -fno-trapping-math -fassociative-math -freciprocal-math -fno-math-errno -ffinite-math-only -fno-rounding-math -fno-signaling-nans -fcx-limited-range -fexcess-precision=fast -fno-plt -fno-common -fuse-linker-plugin -pipe -g0 -fno-stack-protector -fno-stack-clash-protection -fstack-check=no -fno-stack-check'
 [32;01m*[0m MAKEOPTS='-j12'
 [32;01m*[0m gcc (Gentoo 10.1.0 p1) 10.1.0
 [32;01m*[0m g++ (Gentoo 10.1.0 p1) 10.1.0
 [32;01m*[0m GNU ld (Gentoo 9999 p5) 2.34.50.20200520
 [32;01m*[0m Linux ryzen.gnum.org 5.4.36 #1 SMP Thu Apr 30 04:38:28 UTC 2020 x86_64 AMD Ryzen 5 3600 6-Core Processor AuthenticAMD GNU/Linux
[00;01mapp-shells/[00;00m[36;01mgentoo-bashcomp[00;00m: [32;01m17[00;00m seconds average for [32;01m1[00;00m merge
2020-05-20T00:56:37 >>> [00;01mapp-shells/[00;00m[36;01mgentoo-bashcomp[00;00m: [32;01m17[00;00m seconds
]0;emerge 05:55:05 96|1170 gentoo-bashcomp 00:17 (root@ryzen.gnum.org)>>> Extracting app-shells/gentoo-bashcomp-20190211
 [32;01m*[39;49;00m checking 21 files for package collisions
>>> Merging app-shells/gentoo-bashcomp-20190211 to /
 [32;01m*[0m removing unneeded *.la files
--- /etc/
--- /etc/bash_completion.d/
>>> /etc/bash_completion.d/gentoo-style-init
--- /usr/
--- /usr/share/
--- /usr/share/bash-completion/
--- /usr/share/bash-completion/completions/
>>> /usr/share/bash-completion/completions/layman
>>> /usr/share/bash-completion/completions/equery
>>> /usr/share/bash-completion/completions/metagen
>>> /usr/share/bash-completion/completions/repoman
>>> /usr/share/bash-completion/completions/glsa-check
>>> /usr/share/bash-completion/completions/ekeyword
>>> /usr/share/bash-completion/completions/gcc-config
>>> /usr/share/bash-completion/completions/epkginfo
>>> /usr/share/bash-completion/completions/webapp-config
>>> /usr/share/bash-completion/completions/revdep-rebuild
>>> /usr/share/bash-completion/completions/epm
>>> /usr/share/bash-completion/completions/emerge
>>> /usr/share/bash-completion/completions/browser-config
>>> /usr/share/bash-completion/completions/euse
>>> /usr/share/bash-completion/completions/portageq
>>> /usr/share/bash-completion/completions/splat
>>> /usr/share/bash-completion/completions/ebuild
>>> /usr/share/bash-completion/completions/java-config
>>> /usr/share/bash-completion/completions/distcc-config
--- /usr/share/bash-completion/helpers/
>>> /usr/share/bash-completion/helpers/gentoo-common.sh
>>> Safely unmerging already-installed instance...
No package files given... Grabbing a set.
--- replaced obj /usr/share/bash-completion/helpers/gentoo-common.sh
--- replaced dir /usr/share/bash-completion/helpers
--- replaced obj /usr/share/bash-completion/completions/webapp-config
--- replaced obj /usr/share/bash-completion/completions/splat
--- replaced obj /usr/share/bash-completion/completions/revdep-rebuild
--- replaced obj /usr/share/bash-completion/completions/repoman
--- replaced obj /usr/share/bash-completion/completions/portageq
--- replaced obj /usr/share/bash-completion/completions/metagen
--- replaced obj /usr/share/bash-completion/completions/layman
--- replaced obj /usr/share/bash-completion/completions/java-config
--- replaced obj /usr/share/bash-completion/completions/glsa-check
--- replaced obj /usr/share/bash-completion/completions/gcc-config
--- replaced obj /usr/share/bash-completion/completions/euse
--- replaced obj /usr/share/bash-completion/completions/equery
--- replaced obj /usr/share/bash-completion/completions/epm
--- replaced obj /usr/share/bash-completion/completions/epkginfo
--- replaced obj /usr/share/bash-completion/completions/emerge
--- replaced obj /usr/share/bash-completion/completions/ekeyword
--- replaced obj /usr/share/bash-completion/completions/ebuild
--- replaced obj /usr/share/bash-completion/completions/distcc-config
--- replaced obj /usr/share/bash-completion/completions/browser-config
--- replaced dir /usr/share/bash-completion/completions
--- replaced dir /usr/share/bash-completion
--- replaced dir /usr/share
--- replaced dir /usr
--- replaced obj /etc/bash_completion.d/gentoo-style-init
--- replaced dir /etc/bash_completion.d
--- replaced dir /etc
>>> Regenerating /etc/ld.so.cache...
>>> Original instance of package unmerged safely.
>>> app-shells/gentoo-bashcomp-20190211 merged.
