No package files given... Grabbing a set.
--- replaced obj /usr/share/info/pinentry.info.bz2
--- replaced obj /usr/share/info/pinentry.info
--- replaced dir /usr/share/info
--- replaced dir /usr/share
--- replaced obj /usr/bin/pinentry-tty
--- replaced obj /usr/bin/pinentry-curses
--- replaced dir /usr/bin
--- replaced dir /usr
>>> Regenerating /etc/ld.so.cache...
