 * Package:    app-shells/quoter-4.1-r1
 * Repository: mv
 * Maintainer: martin@mvath.de
 * Upstream:   martin@mvath.de
 * USE:        abi_x86_64 amd64 elibc_glibc kernel_linux userland_GNU
 * FEATURES:   network-sandbox preserve-libs sandbox userpriv usersandbox
 * FEATURES='assume-digests binpkg-docompress binpkg-dostrip binpkg-logs binpkg-multi-instance buildpkg cgroup compress-index config-protect-if-modified distlocks downgrade-backup fixlafiles ipc-sandbox merge-sync multilib-strict network-sandbox news nodoc parallel-fetch parallel-install pid-sandbox preserve-libs qa-unresolved-soname-deps sandbox sfperms strict strict-keepdir unknown-features-warn unmerge-backup unmerge-logs unmerge-orphans userfetch userpriv usersandbox usersync xattr'
 * CFLAGS='-march=native -O3 -fgraphite-identity -floop-nest-optimize -fdevirtualize-at-ltrans -fipa-pta -fno-semantic-interposition -flto=12 -fno-plt -fno-signed-zeros -fno-trapping-math -fassociative-math -freciprocal-math -fno-math-errno -ffinite-math-only -fno-rounding-math -fno-signaling-nans -fcx-limited-range -fexcess-precision=fast -fuse-linker-plugin -pipe -g0 -falign-functions=32 -Wl,-O1 -Wl,--as-needed -Wl,-O4,--hash-style=gnu,--sort-common,--as-needed,-z,relro,-z,now,-lgomp,-lpthread'
 * CXXFLAGS='-march=native -O3 -fgraphite-identity -floop-nest-optimize -fdevirtualize-at-ltrans -fipa-pta -fno-semantic-interposition -flto=12 -fno-plt -fno-signed-zeros -fno-trapping-math -fassociative-math -freciprocal-math -fno-math-errno -ffinite-math-only -fno-rounding-math -fno-signaling-nans -fcx-limited-range -fexcess-precision=fast -fuse-linker-plugin -pipe -g0 -falign-functions=32 -Wl,-O1 -Wl,--as-needed -Wl,-O4,--hash-style=gnu,--sort-common,--as-needed,-z,relro,-z,now,-lgomp,-lpthread'
 * FFLAGS='-march=native -O3 -fgraphite-identity -floop-nest-optimize -fdevirtualize-at-ltrans -fipa-pta -fno-semantic-interposition -flto=12 -fno-plt -fno-signed-zeros -fno-trapping-math -fassociative-math -freciprocal-math -fno-math-errno -ffinite-math-only -fno-rounding-math -fno-signaling-nans -fcx-limited-range -fexcess-precision=fast -fuse-linker-plugin -pipe -g0 -falign-functions=32 -Wl,-O1 -Wl,--as-needed -Wl,-O4,--hash-style=gnu,--sort-common,--as-needed,-z,relro,-z,now,-lgomp,-lpthread'
 * FCFLAGS='-march=native -O3 -fgraphite-identity -floop-nest-optimize -fdevirtualize-at-ltrans -fipa-pta -fno-semantic-interposition -flto=12 -fno-plt -fno-signed-zeros -fno-trapping-math -fassociative-math -freciprocal-math -fno-math-errno -ffinite-math-only -fno-rounding-math -fno-signaling-nans -fcx-limited-range -fexcess-precision=fast -fuse-linker-plugin -pipe -g0 -falign-functions=32 -Wl,-O1 -Wl,--as-needed -Wl,-O4,--hash-style=gnu,--sort-common,--as-needed,-z,relro,-z,now,-lgomp,-lpthread'
 * F77FLAGS='-march=native -O3 -fgraphite-identity -floop-nest-optimize -fdevirtualize-at-ltrans -fipa-pta -fno-semantic-interposition -flto=12 -fno-plt -fno-signed-zeros -fno-trapping-math -fassociative-math -freciprocal-math -fno-math-errno -ffinite-math-only -fno-rounding-math -fno-signaling-nans -fcx-limited-range -fexcess-precision=fast -fuse-linker-plugin -pipe -g0 -falign-functions=32 -Wl,-O1 -Wl,--as-needed -Wl,-O4,--hash-style=gnu,--sort-common,--as-needed,-z,relro,-z,now,-lgomp,-lpthread'
 * LDFLAGS='-Wl,-O1 -Wl,--as-needed -Wl,-O4,--hash-style=gnu,--sort-common,--as-needed,-z,relro,-z,now,-lgomp,-lpthread -march=native -O3 -fgraphite-identity -floop-nest-optimize -fdevirtualize-at-ltrans -fipa-pta -fno-semantic-interposition -flto=12 -fno-plt -fno-signed-zeros -fno-trapping-math -fassociative-math -freciprocal-math -fno-math-errno -ffinite-math-only -fno-rounding-math -fno-signaling-nans -fcx-limited-range -fexcess-precision=fast -fuse-linker-plugin -pipe -g0 -falign-functions=32'
 * MAKEOPTS='-j12 -l12'
 * gcc () 11.0.0 20200526 (experimental)
 * g++ () 11.0.0 20200526 (experimental)
 * GNU ld (Gentoo 2.34 p4) 2.34.0
 * Linux ryzen.gnum.org 5.4.36 #1 SMP Thu Apr 30 04:38:28 UTC 2020 x86_64 AMD Ryzen 5 3600 6-Core Processor AuthenticAMD GNU/Linux
app-shells/quoter: 12 seconds average for 9 merges
2020-05-16T20:46:53 >>> app-shells/quoter: 9 seconds
2020-05-21T05:55:15 >>> app-shells/quoter: 6 seconds
2020-05-22T01:57:13 >>> app-shells/quoter: 20 seconds
2020-05-22T03:09:08 >>> app-shells/quoter: 10 seconds
2020-05-22T12:28:43 >>> app-shells/quoter: 11 seconds
2020-05-23T03:30:14 >>> app-shells/quoter: 15 seconds
2020-05-25T18:17:06 >>> app-shells/quoter: 13 seconds
2020-05-26T12:52:01 >>> app-shells/quoter: 11 seconds
2020-05-26T13:47:10 >>> app-shells/quoter: 13 seconds
]0;emerge 03:03:42 1590541422:  === Unmerging... (dev-libs/oniguruma-6.9.4) quoter 00:12 (root@ryzen.gnum.org)kemerge 03:03:42 1590541422:  === Unmerging... (dev-libs/oniguruma-6.9.4) quoter 00:12 (root@ryzen.gnum.org)\>>> Unpacking source...
>>> Unpacking quoter-4.1.tar.gz to /tmp/portage/app-shells/quoter-4.1-r1/work
>>> Source unpacked in /tmp/portage/app-shells/quoter-4.1-r1/work
>>> Preparing source in /tmp/portage/app-shells/quoter-4.1-r1/work/quoter-4.1 ...
>>> Source prepared.
>>> Configuring source in /tmp/portage/app-shells/quoter-4.1-r1/work/quoter-4.1 ...
>>> Source configured.
>>> Compiling source in /tmp/portage/app-shells/quoter-4.1-r1/work/quoter-4.1 ...
make -j12 -l12 CC=x86_64-pc-linux-gnu-gcc EPREFIX= 
x86_64-pc-linux-gnu-gcc  -march=native -O3 -fgraphite-identity -floop-nest-optimize -fdevirtualize-at-ltrans -fipa-pta -fno-semantic-interposition -flto=12 -fno-plt -fno-signed-zeros -fno-trapping-math -fassociative-math -freciprocal-math -fno-math-errno -ffinite-math-only -fno-rounding-math -fno-signaling-nans -fcx-limited-range -fexcess-precision=fast -fuse-linker-plugin -pipe -g0 -falign-functions=32 -Wl,-O1 -Wl,--as-needed -Wl,-O4,--hash-style=gnu,--sort-common,--as-needed,-z,relro,-z,now,-lgomp,-lpthread -Wl,-O1 -Wl,--as-needed -Wl,-O4,--hash-style=gnu,--sort-common,--as-needed,-z,relro,-z,now,-lgomp,-lpthread -march=native -O3 -fgraphite-identity -floop-nest-optimize -fdevirtualize-at-ltrans -fipa-pta -fno-semantic-interposition -flto=12 -fno-plt -fno-signed-zeros -fno-trapping-math -fassociative-math -freciprocal-math -fno-math-errno -ffinite-math-only -fno-rounding-math -fno-signaling-nans -fcx-limited-range -fexcess-precision=fast -fuse-linker-plugin -pipe -g0 -falign-functions=32 -o bin/quoter src/quoter.c || \
x86_64-pc-linux-gnu-gcc -DAVOID_ATTRIBUTE_NORETURN \
	 -march=native -O3 -fgraphite-identity -floop-nest-optimize -fdevirtualize-at-ltrans -fipa-pta -fno-semantic-interposition -flto=12 -fno-plt -fno-signed-zeros -fno-trapping-math -fassociative-math -freciprocal-math -fno-math-errno -ffinite-math-only -fno-rounding-math -fno-signaling-nans -fcx-limited-range -fexcess-precision=fast -fuse-linker-plugin -pipe -g0 -falign-functions=32 -Wl,-O1 -Wl,--as-needed -Wl,-O4,--hash-style=gnu,--sort-common,--as-needed,-z,relro,-z,now,-lgomp,-lpthread -Wl,-O1 -Wl,--as-needed -Wl,-O4,--hash-style=gnu,--sort-common,--as-needed,-z,relro,-z,now,-lgomp,-lpthread -march=native -O3 -fgraphite-identity -floop-nest-optimize -fdevirtualize-at-ltrans -fipa-pta -fno-semantic-interposition -flto=12 -fno-plt -fno-signed-zeros -fno-trapping-math -fassociative-math -freciprocal-math -fno-math-errno -ffinite-math-only -fno-rounding-math -fno-signaling-nans -fcx-limited-range -fexcess-precision=fast -fuse-linker-plugin -pipe -g0 -falign-functions=32 -o bin/quoter src/quoter.c || \
x86_64-pc-linux-gnu-gcc -DAVOID_BUILTIN_EXPECT \
	 -march=native -O3 -fgraphite-identity -floop-nest-optimize -fdevirtualize-at-ltrans -fipa-pta -fno-semantic-interposition -flto=12 -fno-plt -fno-signed-zeros -fno-trapping-math -fassociative-math -freciprocal-math -fno-math-errno -ffinite-math-only -fno-rounding-math -fno-signaling-nans -fcx-limited-range -fexcess-precision=fast -fuse-linker-plugin -pipe -g0 -falign-functions=32 -Wl,-O1 -Wl,--as-needed -Wl,-O4,--hash-style=gnu,--sort-common,--as-needed,-z,relro,-z,now,-lgomp,-lpthread -Wl,-O1 -Wl,--as-needed -Wl,-O4,--hash-style=gnu,--sort-common,--as-needed,-z,relro,-z,now,-lgomp,-lpthread -march=native -O3 -fgraphite-identity -floop-nest-optimize -fdevirtualize-at-ltrans -fipa-pta -fno-semantic-interposition -flto=12 -fno-plt -fno-signed-zeros -fno-trapping-math -fassociative-math -freciprocal-math -fno-math-errno -ffinite-math-only -fno-rounding-math -fno-signaling-nans -fcx-limited-range -fexcess-precision=fast -fuse-linker-plugin -pipe -g0 -falign-functions=32 -o bin/quoter src/quoter.c || \
x86_64-pc-linux-gnu-gcc -DAVOID_BUILTIN_EXPECT -DAVOID_ATTRIBUTE_NORETURN \
	 -march=native -O3 -fgraphite-identity -floop-nest-optimize -fdevirtualize-at-ltrans -fipa-pta -fno-semantic-interposition -flto=12 -fno-plt -fno-signed-zeros -fno-trapping-math -fassociative-math -freciprocal-math -fno-math-errno -ffinite-math-only -fno-rounding-math -fno-signaling-nans -fcx-limited-range -fexcess-precision=fast -fuse-linker-plugin -pipe -g0 -falign-functions=32 -Wl,-O1 -Wl,--as-needed -Wl,-O4,--hash-style=gnu,--sort-common,--as-needed,-z,relro,-z,now,-lgomp,-lpthread -Wl,-O1 -Wl,--as-needed -Wl,-O4,--hash-style=gnu,--sort-common,--as-needed,-z,relro,-z,now,-lgomp,-lpthread -march=native -O3 -fgraphite-identity -floop-nest-optimize -fdevirtualize-at-ltrans -fipa-pta -fno-semantic-interposition -flto=12 -fno-plt -fno-signed-zeros -fno-trapping-math -fassociative-math -freciprocal-math -fno-math-errno -ffinite-math-only -fno-rounding-math -fno-signaling-nans -fcx-limited-range -fexcess-precision=fast -fuse-linker-plugin -pipe -g0 -falign-functions=32 -o bin/quoter src/quoter.c
echo '#!/bin/cat /usr/share/quoter/quoter_pipe.sh' >quoter_pipe.sh
>>> Source compiled.
>>> Test phase [not enabled]: app-shells/quoter-4.1-r1

>>> Install app-shells/quoter-4.1-r1 into /tmp/portage/app-shells/quoter-4.1-r1/image
make -j12 -l12 DESTDIR=/tmp/portage/app-shells/quoter-4.1-r1/image EPREFIX= install 
install -d '/tmp/portage/app-shells/quoter-4.1-r1/image/usr/bin'
install -d '/tmp/portage/app-shells/quoter-4.1-r1/image//usr/share/quoter'
install bin/quoter '/tmp/portage/app-shells/quoter-4.1-r1/image/usr/bin/quoter'
install -m 755 quoter_pipe.sh '/tmp/portage/app-shells/quoter-4.1-r1/image/usr/bin/quoter_pipe.sh'
install -m 644 bin/quoter_pipe.sh '/tmp/portage/app-shells/quoter-4.1-r1/image/usr/share/quoter/quoter_pipe.sh'
[ -z '/usr/share/zsh/site-functions' ] || install -d '/tmp/portage/app-shells/quoter-4.1-r1/image//usr/share/zsh/site-functions'
[ -z '/usr/share/zsh/site-functions' ] || install -m 644 zsh/_quoter '/tmp/portage/app-shells/quoter-4.1-r1/image//usr/share/zsh/site-functions/_quoter'
>>> Completed installing app-shells/quoter-4.1-r1 into /tmp/portage/app-shells/quoter-4.1-r1/image

 * Final size of build directory: 100 KiB
 * Final size of installed tree:   84 KiB

strip: x86_64-pc-linux-gnu-strip --strip-unneeded -N __gentoo_check_ldflags__ -R .comment -R .GCC.command.line -R .note.gnu.gold-version
   /usr/bin/quoter
./
./usr/
./usr/bin/
./usr/bin/quoter
./usr/bin/quoter_pipe.sh
./usr/share/
./usr/share/quoter/
./usr/share/quoter/quoter_pipe.sh
./usr/share/zsh/
./usr/share/zsh/site-functions/
./usr/share/zsh/site-functions/_quoter
./usr/share/doc/
./usr/share/doc/quoter-4.1-r1/
./usr/share/doc/quoter-4.1-r1/README.md.bz2
>>> Done.
 * checking 4 files for package collisions
[32;01m * [39;49;00mBuilding package for app-shells/quoter-4.1-r1 ...[32;01m * [39;49;00mwaiting for lock on /usr/portage/packages/.Packages.portage_lockfile ...  [34;01m[ [39;49;00m[32;01mok[39;49;00m[34;01m ][39;49;00m
                     [34;01m[ [39;49;00m[32;01mok[39;49;00m[34;01m ][39;49;00m
[32;01m * [39;49;00mPackages now in '/usr/portage/packages':
[32;01m * [39;49;00mapp-shells/quoter-4.1-r1: 33.4K

>>> Merging app-shells/quoter-4.1-r1 to /
 * removing unneeded *.la files
--- /usr/
--- /usr/share/
--- /usr/share/zsh/
--- /usr/share/zsh/site-functions/
>>> /usr/share/zsh/site-functions/_quoter
--- /usr/share/quoter/
>>> /usr/share/quoter/quoter_pipe.sh
--- /usr/bin/
>>> /usr/bin/quoter_pipe.sh
>>> /usr/bin/quoter
>>> Safely unmerging already-installed instance...
>>> Original instance of package unmerged safely.
>>> app-shells/quoter-4.1-r1 merged.
