>>> Extracting info
 * Package:    app-shells/bash-completion-2.10
 * Repository: gentoo
 * USE:        amd64 eselect userland_GNU abi_x86_64 elibc_glibc kernel_linux
 * FEATURES:   ccache preserve-libs userpriv
 * FEATURES='userpriv ccache distlocks strict fixlafiles nodoc buildpkg config-protect-if-modified xattr strict-keepdir preserve-libs cgroup compress-index qa-unresolved-soname-deps merge-sync binpkg-dostrip multilib-strict news unmerge-orphans assume-digests parallel-fetch sfperms binpkg-logs unmerge-logs ebuild-locks userfetch unknown-features-warn usersync binpkg-docompress'
 * CFLAGS='-O2 -pipe -Wl,-O1,--sort-common,--as-needed,-z,norelro,-z,now'
 * CXXFLAGS='-O2 -pipe -Wl,-O1,--sort-common,--as-needed,-z,norelro,-z,now'
 * FFLAGS='-O2 -pipe -Wl,-O1,--sort-common,--as-needed,-z,norelro,-z,now'
 * FCFLAGS='-O2 -pipe -Wl,-O1,--sort-common,--as-needed,-z,norelro,-z,now'
 * F77FLAGS='-O2 -pipe -Wl,-O1,--sort-common,--as-needed,-z,norelro,-z,now'
 * LDFLAGS='-Wl,-O1,--sort-common,--as-needed,-z,norelro,-z,now'
 * MAKEOPTS='-j12 -l12'
 * gcc (Gentoo 11.0.0_pre9999 p1, commit 184c21bf1cd04a108ed9bd04635e7d57ac39f616) 11.0.0 20200611 (experimental)
 * g++ (Gentoo 11.0.0_pre9999 p1, commit 184c21bf1cd04a108ed9bd04635e7d57ac39f616) 11.0.0 20200611 (experimental)
 * GNU ld (Gentoo 2.34 p4) 2.34.0
 * Linux rescue 5.4.36 #1 SMP Thu Apr 30 04:38:28 UTC 2020 x86_64 AMD Ryzen 5 3600 6-Core Processor AuthenticAMD GNU/Linux
app-shells/bash-completion: 36 seconds average for 16 merges
2020-05-20T01:14:27 >>> app-shells/bash-completion: 17 seconds
2020-05-20T02:40:43 >>> app-shells/bash-completion: 7 seconds
2020-05-20T02:42:30 >>> app-shells/bash-completion: 7 seconds
2020-05-20T02:45:00 >>> app-shells/bash-completion: 6 seconds
2020-05-21T06:22:00 >>> app-shells/bash-completion: 6 seconds
2020-05-23T15:09:02 >>> app-shells/bash-completion: 1 minute, 2 seconds
2020-05-25T18:31:03 >>> app-shells/bash-completion: 54 seconds
2020-05-26T13:56:35 >>> app-shells/bash-completion: 7 seconds
2020-05-27T03:36:21 >>> app-shells/bash-completion: 51 seconds
2020-05-28T05:27:48 >>> app-shells/bash-completion: 56 seconds
2020-05-28T14:40:59 >>> app-shells/bash-completion: 18 seconds
2020-05-29T12:27:13 >>> app-shells/bash-completion: 55 seconds
2020-05-31T00:14:57 >>> app-shells/bash-completion: 55 seconds
2020-06-01T10:20:50 >>> app-shells/bash-completion: 1 minute, 9 seconds
2020-06-06T10:47:56 >>> app-shells/bash-completion: 1 minute, 1 second
2020-06-13T03:42:07 >>> app-shells/bash-completion: 48 seconds
]0;emerge 20:07:54 179|882 bash-completion 00:59 (root@rescue)>>> Extracting app-shells/bash-completion-2.10
 * checking 684 files for package collisions
>>> Merging app-shells/bash-completion-2.10 to /
 * removing unneeded *.la files
--- /etc/
--- /etc/bash/
--- /etc/bash/bashrc.d/
>>> /etc/bash/bashrc.d/bash_completion.sh
--- /usr/
--- /usr/share/
--- /usr/share/pkgconfig/
>>> /usr/share/pkgconfig/bash-completion.pc
--- /usr/share/eselect/
--- /usr/share/eselect/modules/
>>> /usr/share/eselect/modules/bashcomp.eselect
--- /usr/share/cmake/
--- /usr/share/cmake/bash-completion/
>>> /usr/share/cmake/bash-completion/bash-completion-config-version.cmake
>>> /usr/share/cmake/bash-completion/bash-completion-config.cmake
--- /usr/share/man/
--- /usr/share/man/man5/
>>> /usr/share/man/man5/bashcomp.eselect.5.bz2
--- /usr/share/bash-completion/
--- /usr/share/bash-completion/completions/
>>> /usr/share/bash-completion/completions/reportbug
>>> /usr/share/bash-completion/completions/rpm2tgz
>>> /usr/share/bash-completion/completions/gccgo -> gcc
>>> /usr/share/bash-completion/completions/idn
>>> /usr/share/bash-completion/completions/psql
>>> /usr/share/bash-completion/completions/pm-is-supported
>>> /usr/share/bash-completion/completions/kplayer -> mplayer
>>> /usr/share/bash-completion/completions/gccgo-5 -> gcc
>>> /usr/share/bash-completion/completions/gkrellm2 -> gkrellm
>>> /usr/share/bash-completion/completions/mutt
>>> /usr/share/bash-completion/completions/pack200
>>> /usr/share/bash-completion/completions/qdbus
>>> /usr/share/bash-completion/completions/gpgv2 -> gpgv
>>> /usr/share/bash-completion/completions/nslookup
>>> /usr/share/bash-completion/completions/gccgo-7 -> gcc
>>> /usr/share/bash-completion/completions/userdel
>>> /usr/share/bash-completion/completions/vgcfgrestore -> lvm
>>> /usr/share/bash-completion/completions/dot
>>> /usr/share/bash-completion/completions/iwlist
>>> /usr/share/bash-completion/completions/pyflakes
>>> /usr/share/bash-completion/completions/sdptool -> hcitool
>>> /usr/share/bash-completion/completions/ipsec
>>> /usr/share/bash-completion/completions/sync_members
>>> /usr/share/bash-completion/completions/f77 -> gcc
>>> /usr/share/bash-completion/completions/yum-arch
>>> /usr/share/bash-completion/completions/chgrp
>>> /usr/share/bash-completion/completions/rdesktop
>>> /usr/share/bash-completion/completions/ccze
>>> /usr/share/bash-completion/completions/groupdel
>>> /usr/share/bash-completion/completions/iceweasel -> firefox
>>> /usr/share/bash-completion/completions/aclocal-1.14 -> aclocal
>>> /usr/share/bash-completion/completions/unpack200
>>> /usr/share/bash-completion/completions/apt-build
>>> /usr/share/bash-completion/completions/pkgutil
>>> /usr/share/bash-completion/completions/pyvenv-3.4 -> pyvenv
>>> /usr/share/bash-completion/completions/lua
>>> /usr/share/bash-completion/completions/freeciv
>>> /usr/share/bash-completion/completions/pydoc3 -> pydoc
>>> /usr/share/bash-completion/completions/pyvenv-3.5 -> pyvenv
>>> /usr/share/bash-completion/completions/qemu-kvm -> qemu
>>> /usr/share/bash-completion/completions/hping -> hping2
>>> /usr/share/bash-completion/completions/puppetmasterd -> puppet
>>> /usr/share/bash-completion/completions/chromium -> chromium-browser
>>> /usr/share/bash-completion/completions/e2label
>>> /usr/share/bash-completion/completions/lbzip2 -> bzip2
>>> /usr/share/bash-completion/completions/gfortran-5 -> gcc
>>> /usr/share/bash-completion/completions/feh
>>> /usr/share/bash-completion/completions/s390-koji -> koji
>>> /usr/share/bash-completion/completions/ulimit
>>> /usr/share/bash-completion/completions/influx
>>> /usr/share/bash-completion/completions/dict
>>> /usr/share/bash-completion/completions/sh
>>> /usr/share/bash-completion/completions/openssl
>>> /usr/share/bash-completion/completions/vgmknodes -> lvm
>>> /usr/share/bash-completion/completions/autoscan
>>> /usr/share/bash-completion/completions/slapt-get
>>> /usr/share/bash-completion/completions/vgreduce -> lvm
>>> /usr/share/bash-completion/completions/vgscan -> lvm
>>> /usr/share/bash-completion/completions/lftp
>>> /usr/share/bash-completion/completions/pinfo -> info
>>> /usr/share/bash-completion/completions/watch
>>> /usr/share/bash-completion/completions/pwdx
>>> /usr/share/bash-completion/completions/prelink
>>> /usr/share/bash-completion/completions/gdb
>>> /usr/share/bash-completion/completions/lvcreate -> lvm
>>> /usr/share/bash-completion/completions/ipmitool
>>> /usr/share/bash-completion/completions/composite -> convert
>>> /usr/share/bash-completion/completions/postmap
>>> /usr/share/bash-completion/completions/xmllint
>>> /usr/share/bash-completion/completions/gm
>>> /usr/share/bash-completion/completions/k3b
>>> /usr/share/bash-completion/completions/oggdec
>>> /usr/share/bash-completion/completions/iwconfig
>>> /usr/share/bash-completion/completions/xvnc4viewer -> vncviewer
>>> /usr/share/bash-completion/completions/puppetca -> puppet
>>> /usr/share/bash-completion/completions/sudoedit -> sudo
>>> /usr/share/bash-completion/completions/check_perms
>>> /usr/share/bash-completion/completions/pvdisplay -> lvm
>>> /usr/share/bash-completion/completions/alpine -> pine
>>> /usr/share/bash-completion/completions/pylint
>>> /usr/share/bash-completion/completions/lisp
>>> /usr/share/bash-completion/completions/gpg
>>> /usr/share/bash-completion/completions/newlist
>>> /usr/share/bash-completion/completions/pidof
>>> /usr/share/bash-completion/completions/gcc-8 -> gcc
>>> /usr/share/bash-completion/completions/ip
>>> /usr/share/bash-completion/completions/civserver -> freeciv-server
>>> /usr/share/bash-completion/completions/arch
>>> /usr/share/bash-completion/completions/jps
>>> /usr/share/bash-completion/completions/vgconvert -> lvm
>>> /usr/share/bash-completion/completions/automake-1.16 -> automake
>>> /usr/share/bash-completion/completions/apt-get
>>> /usr/share/bash-completion/completions/killall
>>> /usr/share/bash-completion/completions/update-alternatives
>>> /usr/share/bash-completion/completions/checksec
>>> /usr/share/bash-completion/completions/useradd
>>> /usr/share/bash-completion/completions/links2 -> links
>>> /usr/share/bash-completion/completions/sbopkg
>>> /usr/share/bash-completion/completions/crontab
>>> /usr/share/bash-completion/completions/perltidy
>>> /usr/share/bash-completion/completions/ldapadd -> ldapsearch
>>> /usr/share/bash-completion/completions/google-chrome -> chromium-browser
>>> /usr/share/bash-completion/completions/vgcreate -> lvm
>>> /usr/share/bash-completion/completions/flake8
>>> /usr/share/bash-completion/completions/update-rc.d
>>> /usr/share/bash-completion/completions/fbi
>>> /usr/share/bash-completion/completions/ecryptfs-migrate-home
>>> /usr/share/bash-completion/completions/mdecrypt -> mcrypt
>>> /usr/share/bash-completion/completions/chrome -> chromium-browser
>>> /usr/share/bash-completion/completions/chkconfig
>>> /usr/share/bash-completion/completions/mdtool
>>> /usr/share/bash-completion/completions/gfortran -> gcc
>>> /usr/share/bash-completion/completions/freeciv-xaw -> freeciv
>>> /usr/share/bash-completion/completions/python3 -> python
>>> /usr/share/bash-completion/completions/locale-gen
>>> /usr/share/bash-completion/completions/pkg-get
>>> /usr/share/bash-completion/completions/vpnc
>>> /usr/share/bash-completion/completions/aclocal
>>> /usr/share/bash-completion/completions/sudo
>>> /usr/share/bash-completion/completions/cancel
>>> /usr/share/bash-completion/completions/ssh-copy-id
>>> /usr/share/bash-completion/completions/muttng -> mutt
>>> /usr/share/bash-completion/completions/mmsitepass
>>> /usr/share/bash-completion/completions/smbpasswd -> smbclient
>>> /usr/share/bash-completion/completions/snownews
>>> /usr/share/bash-completion/completions/vgcfgbackup -> lvm
>>> /usr/share/bash-completion/completions/lvm
>>> /usr/share/bash-completion/completions/eog
>>> /usr/share/bash-completion/completions/automake-1.11 -> automake
>>> /usr/share/bash-completion/completions/pytest-3 -> pytest
>>> /usr/share/bash-completion/completions/zopfli
>>> /usr/share/bash-completion/completions/rrdtool
>>> /usr/share/bash-completion/completions/ping6 -> ping
>>> /usr/share/bash-completion/completions/ssh
>>> /usr/share/bash-completion/completions/geoiplookup
>>> /usr/share/bash-completion/completions/tcpnice
>>> /usr/share/bash-completion/completions/iperf
>>> /usr/share/bash-completion/completions/postfix
>>> /usr/share/bash-completion/completions/lpr
>>> /usr/share/bash-completion/completions/2to3
>>> /usr/share/bash-completion/completions/iscsiadm
>>> /usr/share/bash-completion/completions/op
>>> /usr/share/bash-completion/completions/lvmdiskscan -> lvm
>>> /usr/share/bash-completion/completions/lz4
>>> /usr/share/bash-completion/completions/ccache
>>> /usr/share/bash-completion/completions/freeciv-server
>>> /usr/share/bash-completion/completions/getconf
>>> /usr/share/bash-completion/completions/lzip
>>> /usr/share/bash-completion/completions/xgamma
>>> /usr/share/bash-completion/completions/identify -> convert
>>> /usr/share/bash-completion/completions/pgrep
>>> /usr/share/bash-completion/completions/sshow
>>> /usr/share/bash-completion/completions/ldapmodrdn -> ldapsearch
>>> /usr/share/bash-completion/completions/xdg-settings
>>> /usr/share/bash-completion/completions/co -> rcs
>>> /usr/share/bash-completion/completions/g++-6 -> gcc
>>> /usr/share/bash-completion/completions/lz4c -> lz4
>>> /usr/share/bash-completion/completions/nmap
>>> /usr/share/bash-completion/completions/tipc
>>> /usr/share/bash-completion/completions/star -> tar
>>> /usr/share/bash-completion/completions/deja-dup
>>> /usr/share/bash-completion/completions/aclocal-1.10 -> aclocal
>>> /usr/share/bash-completion/completions/vgremove -> lvm
>>> /usr/share/bash-completion/completions/cardctl
>>> /usr/share/bash-completion/completions/python
>>> /usr/share/bash-completion/completions/automake
>>> /usr/share/bash-completion/completions/desktop-file-validate
>>> /usr/share/bash-completion/completions/find
>>> /usr/share/bash-completion/completions/vgrename -> lvm
>>> /usr/share/bash-completion/completions/hciattach -> hcitool
>>> /usr/share/bash-completion/completions/list_members
>>> /usr/share/bash-completion/completions/ncftp
>>> /usr/share/bash-completion/completions/cowthink -> cowsay
>>> /usr/share/bash-completion/completions/xzdec
>>> /usr/share/bash-completion/completions/gnome-mplayer
>>> /usr/share/bash-completion/completions/complete
>>> /usr/share/bash-completion/completions/gnome-screenshot
>>> /usr/share/bash-completion/completions/scrub
>>> /usr/share/bash-completion/completions/aptitude-curses -> aptitude
>>> /usr/share/bash-completion/completions/dumpdb
>>> /usr/share/bash-completion/completions/pccardctl -> cardctl
>>> /usr/share/bash-completion/completions/autoheader -> autoreconf
>>> /usr/share/bash-completion/completions/lzma
>>> /usr/share/bash-completion/completions/chronyc
>>> /usr/share/bash-completion/completions/aclocal-1.11 -> aclocal
>>> /usr/share/bash-completion/completions/radvdump
>>> /usr/share/bash-completion/completions/smbclient
>>> /usr/share/bash-completion/completions/dnssec-keygen
>>> /usr/share/bash-completion/completions/gccgo-6 -> gcc
>>> /usr/share/bash-completion/completions/wine
>>> /usr/share/bash-completion/completions/mkinitrd
>>> /usr/share/bash-completion/completions/montage -> convert
>>> /usr/share/bash-completion/completions/carton
>>> /usr/share/bash-completion/completions/smbtar -> smbclient
>>> /usr/share/bash-completion/completions/filebucket -> puppet
>>> /usr/share/bash-completion/completions/ping
>>> /usr/share/bash-completion/completions/apt-cache
>>> /usr/share/bash-completion/completions/pvremove -> lvm
>>> /usr/share/bash-completion/completions/lilo
>>> /usr/share/bash-completion/completions/cvs
>>> /usr/share/bash-completion/completions/wget
>>> /usr/share/bash-completion/completions/ant
>>> /usr/share/bash-completion/completions/configure
>>> /usr/share/bash-completion/completions/genaliases
>>> /usr/share/bash-completion/completions/ssh-add
>>> /usr/share/bash-completion/completions/puppetdoc -> puppet
>>> /usr/share/bash-completion/completions/rcsdiff -> rcs
>>> /usr/share/bash-completion/completions/appdata-validate
>>> /usr/share/bash-completion/completions/xz
>>> /usr/share/bash-completion/completions/strings
>>> /usr/share/bash-completion/completions/pbzip2 -> bzip2
>>> /usr/share/bash-completion/completions/g++-5 -> gcc
>>> /usr/share/bash-completion/completions/xpovray -> povray
>>> /usr/share/bash-completion/completions/valgrind
>>> /usr/share/bash-completion/completions/luac
>>> /usr/share/bash-completion/completions/tshark
>>> /usr/share/bash-completion/completions/gfortran-6 -> gcc
>>> /usr/share/bash-completion/completions/vgsplit -> lvm
>>> /usr/share/bash-completion/completions/hciconfig -> hcitool
>>> /usr/share/bash-completion/completions/gpgv
>>> /usr/share/bash-completion/completions/xfreerdp
>>> /usr/share/bash-completion/completions/arpspoof
>>> /usr/share/bash-completion/completions/wine-development -> wine
>>> /usr/share/bash-completion/completions/tracepath
>>> /usr/share/bash-completion/completions/change_pw
>>> /usr/share/bash-completion/completions/py.test-2 -> pytest
>>> /usr/share/bash-completion/completions/gcl
>>> /usr/share/bash-completion/completions/mr
>>> /usr/share/bash-completion/completions/quotaoff -> quota
>>> /usr/share/bash-completion/completions/pyvenv-3.8 -> pyvenv
>>> /usr/share/bash-completion/completions/iptables
>>> /usr/share/bash-completion/completions/ldapvi
>>> /usr/share/bash-completion/completions/pvs -> lvm
>>> /usr/share/bash-completion/completions/cfrun
>>> /usr/share/bash-completion/completions/gfortran-8 -> gcc
>>> /usr/share/bash-completion/completions/chage
>>> /usr/share/bash-completion/completions/rpm2txz -> rpm2tgz
>>> /usr/share/bash-completion/completions/monodevelop
>>> /usr/share/bash-completion/completions/nethogs
>>> /usr/share/bash-completion/completions/rsync
>>> /usr/share/bash-completion/completions/msynctool
>>> /usr/share/bash-completion/completions/wodim
>>> /usr/share/bash-completion/completions/patch
>>> /usr/share/bash-completion/completions/vigr -> vipw
>>> /usr/share/bash-completion/completions/edquota -> quota
>>> /usr/share/bash-completion/completions/7za -> 7z
>>> /usr/share/bash-completion/completions/mtx
>>> /usr/share/bash-completion/completions/chrpath
>>> /usr/share/bash-completion/completions/munindoc
>>> /usr/share/bash-completion/completions/ldapmodify -> ldapsearch
>>> /usr/share/bash-completion/completions/smbtree -> smbclient
>>> /usr/share/bash-completion/completions/ebtables
>>> /usr/share/bash-completion/completions/list_owners
>>> /usr/share/bash-completion/completions/a2x
>>> /usr/share/bash-completion/completions/automake-1.15 -> automake
>>> /usr/share/bash-completion/completions/clone_member
>>> /usr/share/bash-completion/completions/gssdp-discover
>>> /usr/share/bash-completion/completions/jsonschema
>>> /usr/share/bash-completion/completions/autoconf
>>> /usr/share/bash-completion/completions/firefox
>>> /usr/share/bash-completion/completions/iconv
>>> /usr/share/bash-completion/completions/asciidoc
>>> /usr/share/bash-completion/completions/pylint-2 -> pylint
>>> /usr/share/bash-completion/completions/mplayer
>>> /usr/share/bash-completion/completions/gcj -> gcc
>>> /usr/share/bash-completion/completions/jshint
>>> /usr/share/bash-completion/completions/insmod.static -> insmod
>>> /usr/share/bash-completion/completions/nc
>>> /usr/share/bash-completion/completions/wvdial
>>> /usr/share/bash-completion/completions/rfcomm -> hcitool
>>> /usr/share/bash-completion/completions/iwspy
>>> /usr/share/bash-completion/completions/pv
>>> /usr/share/bash-completion/completions/automake-1.10 -> automake
>>> /usr/share/bash-completion/completions/koji
>>> /usr/share/bash-completion/completions/ss
>>> /usr/share/bash-completion/completions/hping3 -> hping2
>>> /usr/share/bash-completion/completions/unace
>>> /usr/share/bash-completion/completions/g77 -> gcc
>>> /usr/share/bash-completion/completions/mencoder -> mplayer
>>> /usr/share/bash-completion/completions/gphoto2
>>> /usr/share/bash-completion/completions/bk
>>> /usr/share/bash-completion/completions/smbcquotas -> smbclient
>>> /usr/share/bash-completion/completions/pmake -> make
>>> /usr/share/bash-completion/completions/c++ -> gcc
>>> /usr/share/bash-completion/completions/msgsnarf -> filesnarf
>>> /usr/share/bash-completion/completions/portupgrade
>>> /usr/share/bash-completion/completions/g++-8 -> gcc
>>> /usr/share/bash-completion/completions/vgextend -> lvm
>>> /usr/share/bash-completion/completions/geoiplookup6 -> geoiplookup
>>> /usr/share/bash-completion/completions/lvreduce -> lvm
>>> /usr/share/bash-completion/completions/javadoc -> java
>>> /usr/share/bash-completion/completions/munin-update
>>> /usr/share/bash-completion/completions/inject
>>> /usr/share/bash-completion/completions/postcat
>>> /usr/share/bash-completion/completions/freeciv-gtk3 -> freeciv
>>> /usr/share/bash-completion/completions/rpmbuild-md5 -> rpm
>>> /usr/share/bash-completion/completions/munin-node-configure
>>> /usr/share/bash-completion/completions/unrar
>>> /usr/share/bash-completion/completions/dselect
>>> /usr/share/bash-completion/completions/lrzip
>>> /usr/share/bash-completion/completions/tracepath6 -> tracepath
>>> /usr/share/bash-completion/completions/cryptsetup
>>> /usr/share/bash-completion/completions/pkg-config
>>> /usr/share/bash-completion/completions/cvsps
>>> /usr/share/bash-completion/completions/g4 -> p4
>>> /usr/share/bash-completion/completions/perl
>>> /usr/share/bash-completion/completions/jar
>>> /usr/share/bash-completion/completions/mkisofs -> genisoimage
>>> /usr/share/bash-completion/completions/pwd
>>> /usr/share/bash-completion/completions/ypmatch
>>> /usr/share/bash-completion/completions/gccgo-8 -> gcc
>>> /usr/share/bash-completion/completions/pvcreate -> lvm
>>> /usr/share/bash-completion/completions/pm-hibernate
>>> /usr/share/bash-completion/completions/rmlist
>>> /usr/share/bash-completion/completions/lintian
>>> /usr/share/bash-completion/completions/groupmod
>>> /usr/share/bash-completion/completions/qemu
>>> /usr/share/bash-completion/completions/host -> nslookup
>>> /usr/share/bash-completion/completions/lzop
>>> /usr/share/bash-completion/completions/e2freefrag
>>> /usr/share/bash-completion/completions/sbcl-mt -> sbcl
>>> /usr/share/bash-completion/completions/check_db
>>> /usr/share/bash-completion/completions/cc -> gcc
>>> /usr/share/bash-completion/completions/mdadm
>>> /usr/share/bash-completion/completions/ppc-koji -> koji
>>> /usr/share/bash-completion/completions/aptitude
>>> /usr/share/bash-completion/completions/gmake -> make
>>> /usr/share/bash-completion/completions/smartctl
>>> /usr/share/bash-completion/completions/make
>>> /usr/share/bash-completion/completions/pyvenv-3.6 -> pyvenv
>>> /usr/share/bash-completion/completions/passwd
>>> /usr/share/bash-completion/completions/typeset -> function
>>> /usr/share/bash-completion/completions/hid2hci
>>> /usr/share/bash-completion/completions/vncviewer
>>> /usr/share/bash-completion/completions/pyvenv
>>> /usr/share/bash-completion/completions/lvresize -> lvm
>>> /usr/share/bash-completion/completions/sbcl
>>> /usr/share/bash-completion/completions/etherwake -> ether-wake
>>> /usr/share/bash-completion/completions/modinfo
>>> /usr/share/bash-completion/completions/pine
>>> /usr/share/bash-completion/completions/sshfs
>>> /usr/share/bash-completion/completions/py.test -> pytest
>>> /usr/share/bash-completion/completions/freeciv-sdl -> freeciv
>>> /usr/share/bash-completion/completions/htop
>>> /usr/share/bash-completion/completions/7z
>>> /usr/share/bash-completion/completions/pm-powersave
>>> /usr/share/bash-completion/completions/ciptool -> hcitool
>>> /usr/share/bash-completion/completions/gpg2
>>> /usr/share/bash-completion/completions/ci -> rcs
>>> /usr/share/bash-completion/completions/dfutool -> hcitool
>>> /usr/share/bash-completion/completions/pvscan -> lvm
>>> /usr/share/bash-completion/completions/luseradd
>>> /usr/share/bash-completion/completions/dpkg-deb -> dpkg
>>> /usr/share/bash-completion/completions/pkgadd
>>> /usr/share/bash-completion/completions/brctl
>>> /usr/share/bash-completion/completions/python2 -> python
>>> /usr/share/bash-completion/completions/p4
>>> /usr/share/bash-completion/completions/spovray -> povray
>>> /usr/share/bash-completion/completions/growisofs
>>> /usr/share/bash-completion/completions/kcov
>>> /usr/share/bash-completion/completions/dpkg
>>> /usr/share/bash-completion/completions/wine-stable -> wine
>>> /usr/share/bash-completion/completions/man
>>> /usr/share/bash-completion/completions/ssh-keygen
>>> /usr/share/bash-completion/completions/chpasswd
>>> /usr/share/bash-completion/completions/nsupdate
>>> /usr/share/bash-completion/completions/rlog -> rcs
>>> /usr/share/bash-completion/completions/sparc-koji -> koji
>>> /usr/share/bash-completion/completions/arm-koji -> koji
>>> /usr/share/bash-completion/completions/vgchange -> lvm
>>> /usr/share/bash-completion/completions/jarsigner
>>> /usr/share/bash-completion/completions/pm-suspend -> pm-hibernate
>>> /usr/share/bash-completion/completions/bsdtar -> tar
>>> /usr/share/bash-completion/completions/alias
>>> /usr/share/bash-completion/completions/bind
>>> /usr/share/bash-completion/completions/mc
>>> /usr/share/bash-completion/completions/compgen -> complete
>>> /usr/share/bash-completion/completions/mysqladmin
>>> /usr/share/bash-completion/completions/cowsay
>>> /usr/share/bash-completion/completions/setquota -> quota
>>> /usr/share/bash-completion/completions/cksfv
>>> /usr/share/bash-completion/completions/mozilla-firefox -> firefox
>>> /usr/share/bash-completion/completions/htpasswd
>>> /usr/share/bash-completion/completions/evince
>>> /usr/share/bash-completion/completions/lvchange -> lvm
>>> /usr/share/bash-completion/completions/pm-suspend-hybrid -> pm-hibernate
>>> /usr/share/bash-completion/completions/chmod
>>> /usr/share/bash-completion/completions/medusa
>>> /usr/share/bash-completion/completions/pydocstyle
>>> /usr/share/bash-completion/completions/clisp
>>> /usr/share/bash-completion/completions/arp
>>> /usr/share/bash-completion/completions/gcc-7 -> gcc
>>> /usr/share/bash-completion/completions/avctrl
>>> /usr/share/bash-completion/completions/ldapdelete -> ldapsearch
>>> /usr/share/bash-completion/completions/hostname
>>> /usr/share/bash-completion/completions/lsusb
>>> /usr/share/bash-completion/completions/dhclient
>>> /usr/share/bash-completion/completions/cdrecord -> wodim
>>> /usr/share/bash-completion/completions/mypy
>>> /usr/share/bash-completion/completions/isort
>>> /usr/share/bash-completion/completions/lpq
>>> /usr/share/bash-completion/completions/qemu-system-i386 -> qemu
>>> /usr/share/bash-completion/completions/autossh -> ssh
>>> /usr/share/bash-completion/completions/lsscsi
>>> /usr/share/bash-completion/completions/dcop -> qdbus
>>> /usr/share/bash-completion/completions/shellcheck
>>> /usr/share/bash-completion/completions/smbcacls -> smbclient
>>> /usr/share/bash-completion/completions/povray
>>> /usr/share/bash-completion/completions/dmypy
>>> /usr/share/bash-completion/completions/tox
>>> /usr/share/bash-completion/completions/modprobe
>>> /usr/share/bash-completion/completions/import -> convert
>>> /usr/share/bash-completion/completions/genisoimage
>>> /usr/share/bash-completion/completions/rdict -> dict
>>> /usr/share/bash-completion/completions/xdg-mime
>>> /usr/share/bash-completion/completions/gcc
>>> /usr/share/bash-completion/completions/conjure -> convert
>>> /usr/share/bash-completion/completions/gpc -> gcc
>>> /usr/share/bash-completion/completions/arping
>>> /usr/share/bash-completion/completions/wol
>>> /usr/share/bash-completion/completions/gendiff
>>> /usr/share/bash-completion/completions/vgmerge -> lvm
>>> /usr/share/bash-completion/completions/perldoc -> perl
>>> /usr/share/bash-completion/completions/lvscan -> lvm
>>> /usr/share/bash-completion/completions/hcitool
>>> /usr/share/bash-completion/completions/whatis -> man
>>> /usr/share/bash-completion/completions/inotifywait
>>> /usr/share/bash-completion/completions/display -> convert
>>> /usr/share/bash-completion/completions/iwpriv
>>> /usr/share/bash-completion/completions/rmmod
>>> /usr/share/bash-completion/completions/xmlwf
>>> /usr/share/bash-completion/completions/pytest-2 -> pytest
>>> /usr/share/bash-completion/completions/xrandr
>>> /usr/share/bash-completion/completions/gnokii
>>> /usr/share/bash-completion/completions/gcc-6 -> gcc
>>> /usr/share/bash-completion/completions/mplayer2 -> mplayer
>>> /usr/share/bash-completion/completions/g95 -> gcc
>>> /usr/share/bash-completion/completions/declare -> function
>>> /usr/share/bash-completion/completions/json_xs
>>> /usr/share/bash-completion/completions/file-roller
>>> /usr/share/bash-completion/completions/dnsspoof
>>> /usr/share/bash-completion/completions/slackpkg
>>> /usr/share/bash-completion/completions/postconf
>>> /usr/share/bash-completion/completions/nproc
>>> /usr/share/bash-completion/completions/function
>>> /usr/share/bash-completion/completions/iperf3 -> iperf
>>> /usr/share/bash-completion/completions/querybts
>>> /usr/share/bash-completion/completions/ldapwhoami -> ldapsearch
>>> /usr/share/bash-completion/completions/btdownloadgui.py -> btdownloadheadless.py
>>> /usr/share/bash-completion/completions/pytest
>>> /usr/share/bash-completion/completions/pigz -> gzip
>>> /usr/share/bash-completion/completions/file
>>> /usr/share/bash-completion/completions/sidedoor -> ssh
>>> /usr/share/bash-completion/completions/mailmanctl
>>> /usr/share/bash-completion/completions/mii-tool
>>> /usr/share/bash-completion/completions/isql
>>> /usr/share/bash-completion/completions/pdlzip -> lzip
>>> /usr/share/bash-completion/completions/plague-client
>>> /usr/share/bash-completion/completions/quotacheck -> quota
>>> /usr/share/bash-completion/completions/vgdisplay -> lvm
>>> /usr/share/bash-completion/completions/convert
>>> /usr/share/bash-completion/completions/pwck
>>> /usr/share/bash-completion/completions/lusermod -> luseradd
>>> /usr/share/bash-completion/completions/lftpget
>>> /usr/share/bash-completion/completions/asciidoc.py -> asciidoc
>>> /usr/share/bash-completion/completions/plzip -> lzip
>>> /usr/share/bash-completion/completions/chown
>>> /usr/share/bash-completion/completions/dumpe2fs
>>> /usr/share/bash-completion/completions/newusers
>>> /usr/share/bash-completion/completions/gfortran-7 -> gcc
>>> /usr/share/bash-completion/completions/macof
>>> /usr/share/bash-completion/completions/xvfb-run
>>> /usr/share/bash-completion/completions/ypcat -> ypmatch
>>> /usr/share/bash-completion/completions/withlist
>>> /usr/share/bash-completion/completions/javac -> java
>>> /usr/share/bash-completion/completions/cpan2dist
>>> /usr/share/bash-completion/completions/wtf
>>> /usr/share/bash-completion/completions/vipw
>>> /usr/share/bash-completion/completions/cleanarch
>>> /usr/share/bash-completion/completions/xsltproc
>>> /usr/share/bash-completion/completions/opera
>>> /usr/share/bash-completion/completions/dpkg-reconfigure -> dpkg
>>> /usr/share/bash-completion/completions/automake-1.13 -> automake
>>> /usr/share/bash-completion/completions/rpm
>>> /usr/share/bash-completion/completions/autoupdate -> autoscan
>>> /usr/share/bash-completion/completions/pwgen
>>> /usr/share/bash-completion/completions/acpi
>>> /usr/share/bash-completion/completions/gnumake -> make
>>> /usr/share/bash-completion/completions/lvremove -> lvm
>>> /usr/share/bash-completion/completions/ralsh -> puppet
>>> /usr/share/bash-completion/completions/svk
>>> /usr/share/bash-completion/completions/puppet
>>> /usr/share/bash-completion/completions/aclocal-1.12 -> aclocal
>>> /usr/share/bash-completion/completions/xrdb
>>> /usr/share/bash-completion/completions/timeout
>>> /usr/share/bash-completion/completions/quota
>>> /usr/share/bash-completion/completions/fusermount
>>> /usr/share/bash-completion/completions/aclocal-1.16 -> aclocal
>>> /usr/share/bash-completion/completions/resolvconf
>>> /usr/share/bash-completion/completions/pxz -> xz
>>> /usr/share/bash-completion/completions/slapt-src
>>> /usr/share/bash-completion/completions/ldapsearch
>>> /usr/share/bash-completion/completions/abook
>>> /usr/share/bash-completion/completions/stream -> convert
>>> /usr/share/bash-completion/completions/civclient -> freeciv
>>> /usr/share/bash-completion/completions/gcc-5 -> gcc
>>> /usr/share/bash-completion/completions/perlcritic
>>> /usr/share/bash-completion/completions/usermod
>>> /usr/share/bash-completion/completions/ri
>>> /usr/share/bash-completion/completions/cpio
>>> /usr/share/bash-completion/completions/ether-wake
>>> /usr/share/bash-completion/completions/pycodestyle
>>> /usr/share/bash-completion/completions/pvmove -> lvm
>>> /usr/share/bash-completion/completions/id
>>> /usr/share/bash-completion/completions/autorpm
>>> /usr/share/bash-completion/completions/bts
>>> /usr/share/bash-completion/completions/xmodmap
>>> /usr/share/bash-completion/completions/pkill -> pgrep
>>> /usr/share/bash-completion/completions/tcpkill
>>> /usr/share/bash-completion/completions/getent
>>> /usr/share/bash-completion/completions/add_members
>>> /usr/share/bash-completion/completions/vgimport -> lvm
>>> /usr/share/bash-completion/completions/btdownloadcurses.py -> btdownloadheadless.py
>>> /usr/share/bash-completion/completions/pypy3 -> python
>>> /usr/share/bash-completion/completions/synclient
>>> /usr/share/bash-completion/completions/btdownloadheadless.py
>>> /usr/share/bash-completion/completions/gmplayer -> mplayer
>>> /usr/share/bash-completion/completions/jq
>>> /usr/share/bash-completion/completions/chromium-browser
>>> /usr/share/bash-completion/completions/py.test-3 -> pytest
>>> /usr/share/bash-completion/completions/vmstat
>>> /usr/share/bash-completion/completions/java
>>> /usr/share/bash-completion/completions/mogrify -> convert
>>> /usr/share/bash-completion/completions/jpegoptim
>>> /usr/share/bash-completion/completions/aspell
>>> /usr/share/bash-completion/completions/quotaon -> quota
>>> /usr/share/bash-completion/completions/mii-diag
>>> /usr/share/bash-completion/completions/gzip
>>> /usr/share/bash-completion/completions/xmms
>>> /usr/share/bash-completion/completions/tune2fs
>>> /usr/share/bash-completion/completions/ifstat
>>> /usr/share/bash-completion/completions/colormake -> make
>>> /usr/share/bash-completion/completions/automake-1.12 -> automake
>>> /usr/share/bash-completion/completions/badblocks
>>> /usr/share/bash-completion/completions/repquota -> quota
>>> /usr/share/bash-completion/completions/hddtemp
>>> /usr/share/bash-completion/completions/gkrellm
>>> /usr/share/bash-completion/completions/tightvncviewer -> vncviewer
>>> /usr/share/bash-completion/completions/puppetrun -> puppet
>>> /usr/share/bash-completion/completions/rpmbuild -> rpm
>>> /usr/share/bash-completion/completions/list_admins
>>> /usr/share/bash-completion/completions/scp -> ssh
>>> /usr/share/bash-completion/completions/find_member
>>> /usr/share/bash-completion/completions/smbget -> smbclient
>>> /usr/share/bash-completion/completions/kill
>>> /usr/share/bash-completion/completions/dsniff
>>> /usr/share/bash-completion/completions/cppcheck
>>> /usr/share/bash-completion/completions/insmod
>>> /usr/share/bash-completion/completions/dropuser -> psql
>>> /usr/share/bash-completion/completions/slogin -> ssh
>>> /usr/share/bash-completion/completions/phing -> ant
>>> /usr/share/bash-completion/completions/sysbench
>>> /usr/share/bash-completion/completions/hping2
>>> /usr/share/bash-completion/completions/screen
>>> /usr/share/bash-completion/completions/lvrename -> lvm
>>> /usr/share/bash-completion/completions/google-chrome-stable -> chromium-browser
>>> /usr/share/bash-completion/completions/zopflipng
>>> /usr/share/bash-completion/completions/mktemp
>>> /usr/share/bash-completion/completions/puppetd -> puppet
>>> /usr/share/bash-completion/completions/mussh
>>> /usr/share/bash-completion/completions/fbgs
>>> /usr/share/bash-completion/completions/createuser -> psql
>>> /usr/share/bash-completion/completions/xhost
>>> /usr/share/bash-completion/completions/faillog
>>> /usr/share/bash-completion/completions/pdftotext
>>> /usr/share/bash-completion/completions/optipng
>>> /usr/share/bash-completion/completions/unshunt
>>> /usr/share/bash-completion/completions/bzip2
>>> /usr/share/bash-completion/completions/createdb -> psql
>>> /usr/share/bash-completion/completions/strace
>>> /usr/share/bash-completion/completions/qemu-system-x86_64 -> qemu
>>> /usr/share/bash-completion/completions/vgck -> lvm
>>> /usr/share/bash-completion/completions/lvs -> lvm
>>> /usr/share/bash-completion/completions/cfagent
>>> /usr/share/bash-completion/completions/urlsnarf
>>> /usr/share/bash-completion/completions/rpm2targz -> rpm2tgz
>>> /usr/share/bash-completion/completions/compare -> convert
>>> /usr/share/bash-completion/completions/postalias -> postmap
>>> /usr/share/bash-completion/completions/f95 -> gcc
>>> /usr/share/bash-completion/completions/ldappasswd -> ldapsearch
>>> /usr/share/bash-completion/completions/rpmcheck
>>> /usr/share/bash-completion/completions/sqlite3
>>> /usr/share/bash-completion/completions/interdiff
>>> /usr/share/bash-completion/completions/rcs
>>> /usr/share/bash-completion/completions/lastlog
>>> /usr/share/bash-completion/completions/mailsnarf -> filesnarf
>>> /usr/share/bash-completion/completions/ldapcompare -> ldapsearch
>>> /usr/share/bash-completion/completions/tcpdump
>>> /usr/share/bash-completion/completions/pylint-3 -> pylint
>>> /usr/share/bash-completion/completions/lsof
>>> /usr/share/bash-completion/completions/mysql
>>> /usr/share/bash-completion/completions/micropython -> python
>>> /usr/share/bash-completion/completions/sftp -> ssh
>>> /usr/share/bash-completion/completions/javaws
>>> /usr/share/bash-completion/completions/apache2ctl
>>> /usr/share/bash-completion/completions/lintian-info -> lintian
>>> /usr/share/bash-completion/completions/munin-run
>>> /usr/share/bash-completion/completions/gtar -> tar
>>> /usr/share/bash-completion/completions/alternatives -> update-alternatives
>>> /usr/share/bash-completion/completions/gnatmake
>>> /usr/share/bash-completion/completions/dropdb -> psql
>>> /usr/share/bash-completion/completions/tar
>>> /usr/share/bash-completion/completions/vgexport -> lvm
>>> /usr/share/bash-completion/completions/aclocal-1.13 -> aclocal
>>> /usr/share/bash-completion/completions/rpcdebug
>>> /usr/share/bash-completion/completions/pvchange -> lvm
>>> /usr/share/bash-completion/completions/sitecopy
>>> /usr/share/bash-completion/completions/animate -> convert
>>> /usr/share/bash-completion/completions/sshmitm
>>> /usr/share/bash-completion/completions/pydoc
>>> /usr/share/bash-completion/completions/freeciv-gtk2 -> freeciv
>>> /usr/share/bash-completion/completions/pypy -> python
>>> /usr/share/bash-completion/completions/l2ping -> hcitool
>>> /usr/share/bash-completion/completions/ipv6calc
>>> /usr/share/bash-completion/completions/links
>>> /usr/share/bash-completion/completions/gprof
>>> /usr/share/bash-completion/completions/mcrypt
>>> /usr/share/bash-completion/completions/inotifywatch -> inotifywait
>>> /usr/share/bash-completion/completions/gpasswd
>>> /usr/share/bash-completion/completions/config_list
>>> /usr/share/bash-completion/completions/webmitm
>>> /usr/share/bash-completion/completions/ngrep
>>> /usr/share/bash-completion/completions/dpkg-source
>>> /usr/share/bash-completion/completions/grpck
>>> /usr/share/bash-completion/completions/fio
>>> /usr/share/bash-completion/completions/lvextend -> lvm
>>> /usr/share/bash-completion/completions/ntpdate
>>> /usr/share/bash-completion/completions/g++ -> gcc
>>> /usr/share/bash-completion/completions/route
>>> /usr/share/bash-completion/completions/info
>>> /usr/share/bash-completion/completions/filesnarf
>>> /usr/share/bash-completion/completions/ktutil
>>> /usr/share/bash-completion/completions/aclocal-1.15 -> aclocal
>>> /usr/share/bash-completion/completions/puppetqd -> puppet
>>> /usr/share/bash-completion/completions/hunspell
>>> /usr/share/bash-completion/completions/invoke-rc.d
>>> /usr/share/bash-completion/completions/automake-1.14 -> automake
>>> /usr/share/bash-completion/completions/export
>>> /usr/share/bash-completion/completions/larch
>>> /usr/share/bash-completion/completions/list_lists
>>> /usr/share/bash-completion/completions/dpkg-query -> dpkg
>>> /usr/share/bash-completion/completions/vgs -> lvm
>>> /usr/share/bash-completion/completions/sysctl
>>> /usr/share/bash-completion/completions/wsimport
>>> /usr/share/bash-completion/completions/iftop
>>> /usr/share/bash-completion/completions/lvdisplay -> lvm
>>> /usr/share/bash-completion/completions/pkgrm
>>> /usr/share/bash-completion/completions/curl
>>> /usr/share/bash-completion/completions/pngfix
>>> /usr/share/bash-completion/completions/minicom
>>> /usr/share/bash-completion/completions/postsuper
>>> /usr/share/bash-completion/completions/autoreconf
>>> /usr/share/bash-completion/completions/pyvenv-3.7 -> pyvenv
>>> /usr/share/bash-completion/completions/clzip -> lzip
>>> /usr/share/bash-completion/completions/filefrag
>>> /usr/share/bash-completion/completions/groupadd
>>> /usr/share/bash-completion/completions/groupmems
>>> /usr/share/bash-completion/completions/protoc
>>> /usr/share/bash-completion/completions/remove_members
>>> /usr/share/bash-completion/completions/svcadm
>>> /usr/share/bash-completion/completions/qrunner
>>> /usr/share/bash-completion/completions/dd
>>> /usr/share/bash-completion/completions/luserdel
>>> /usr/share/bash-completion/completions/g++-7 -> gcc
>>> /usr/share/bash-completion/completions/apropos -> man
>>> /usr/share/bash-completion/bash_completion
--- /usr/share/bash-completion/helpers/
>>> /usr/share/bash-completion/helpers/python
>>> /usr/share/bash-completion/helpers/perl
>>> Safely unmerging already-installed instance...
>>> Original instance of package unmerged safely.
 * 
 * If you are interested in using the provided bash completion functions with
 * zsh, valuable tips on the effective use of bashcompinit are available:
 *   http://www.zsh.org/mla/workers/2003/msg00046.html
 * 
>>> app-shells/bash-completion-2.10 merged.
