No package files given... Grabbing a set.
<<<          obj /usr/share/vim/vimfiles/syntax/ntp.vim
<<<          obj /usr/share/vim/vimfiles/ftdetect/ntp.vim
--- !empty   dir /usr/share/vim/vimfiles/syntax
--- !empty   dir /usr/share/vim/vimfiles/ftdetect
--- !empty   dir /usr/share/vim/vimfiles
--- !empty   dir /usr/share/vim
--- !empty   dir /usr/share
--- !empty   dir /usr
 * Updating documentation tags in /usr/share/vim/vim82
 * Updating scripts in /usr/share/vim/vimfiles/after
 * Removing dead scripts in /usr/share/vim/vimfiles/after
