 * Package:    app-text/docbook-xml-dtd-4.2-r3
 * Repository: gentoo
 * Maintainer: mgorny@gentoo.org
 * USE:        abi_x86_64 amd64 elibc_glibc kernel_linux userland_GNU
 * FEATURES:   network-sandbox preserve-libs sandbox userpriv usersandbox
 * FEATURES='assume-digests binpkg-docompress binpkg-dostrip binpkg-logs binpkg-multi-instance buildpkg collision-protect compress-index config-protect-if-modified distlocks downgrade-backup fixlafiles ipc-sandbox merge-sync multilib-strict network-sandbox news nodoc parallel-fetch parallel-install pid-sandbox preserve-libs protect-owned qa-unresolved-soname-deps sandbox sfperms strict strict-keepdir unknown-features-warn unmerge-backup unmerge-logs unmerge-orphans userfetch userpriv usersandbox usersync xattr'
 * CFLAGS='-march=native -O3 -fgraphite-identity -floop-nest-optimize -fdevirtualize-at-ltrans -fipa-pta -fno-semantic-interposition -flto=12 -fno-plt -fno-signed-zeros -fno-trapping-math -fassociative-math -freciprocal-math -fno-math-errno -ffinite-math-only -fno-rounding-math -fno-signaling-nans -fcx-limited-range -fexcess-precision=fast -fno-signed-zeros -fno-trapping-math -fassociative-math -freciprocal-math -fno-math-errno -ffinite-math-only -fno-rounding-math -fno-signaling-nans -fcx-limited-range -fexcess-precision=fast -fuse-linker-plugin -pipe -g0 -Wl,-O1 -Wl,--as-needed -Wl,--hash-style=gnu,-z,norelro,--as-needed'
 * CXXFLAGS='-march=native -O3 -fgraphite-identity -floop-nest-optimize -fdevirtualize-at-ltrans -fipa-pta -fno-semantic-interposition -flto=12 -fno-plt -fno-signed-zeros -fno-trapping-math -fassociative-math -freciprocal-math -fno-math-errno -ffinite-math-only -fno-rounding-math -fno-signaling-nans -fcx-limited-range -fexcess-precision=fast -fno-signed-zeros -fno-trapping-math -fassociative-math -freciprocal-math -fno-math-errno -ffinite-math-only -fno-rounding-math -fno-signaling-nans -fcx-limited-range -fexcess-precision=fast -fuse-linker-plugin -pipe -g0 -Wl,-O1 -Wl,--as-needed -Wl,--hash-style=gnu,-z,norelro,--as-needed'
 * FFLAGS='-march=native -O3 -fgraphite-identity -floop-nest-optimize -fdevirtualize-at-ltrans -fipa-pta -fno-semantic-interposition -flto=12 -fno-plt -fno-signed-zeros -fno-trapping-math -fassociative-math -freciprocal-math -fno-math-errno -ffinite-math-only -fno-rounding-math -fno-signaling-nans -fcx-limited-range -fexcess-precision=fast -fno-signed-zeros -fno-trapping-math -fassociative-math -freciprocal-math -fno-math-errno -ffinite-math-only -fno-rounding-math -fno-signaling-nans -fcx-limited-range -fexcess-precision=fast -fuse-linker-plugin -pipe -g0 -Wl,-O1 -Wl,--as-needed -Wl,--hash-style=gnu,-z,norelro,--as-needed'
 * FCFLAGS='-march=native -O3 -fgraphite-identity -floop-nest-optimize -fdevirtualize-at-ltrans -fipa-pta -fno-semantic-interposition -flto=12 -fno-plt -fno-signed-zeros -fno-trapping-math -fassociative-math -freciprocal-math -fno-math-errno -ffinite-math-only -fno-rounding-math -fno-signaling-nans -fcx-limited-range -fexcess-precision=fast -fno-signed-zeros -fno-trapping-math -fassociative-math -freciprocal-math -fno-math-errno -ffinite-math-only -fno-rounding-math -fno-signaling-nans -fcx-limited-range -fexcess-precision=fast -fuse-linker-plugin -pipe -g0 -Wl,-O1 -Wl,--as-needed -Wl,--hash-style=gnu,-z,norelro,--as-needed'
 * F77FLAGS='-march=native -O3 -fgraphite-identity -floop-nest-optimize -fdevirtualize-at-ltrans -fipa-pta -fno-semantic-interposition -flto=12 -fno-plt -fno-signed-zeros -fno-trapping-math -fassociative-math -freciprocal-math -fno-math-errno -ffinite-math-only -fno-rounding-math -fno-signaling-nans -fcx-limited-range -fexcess-precision=fast -fno-signed-zeros -fno-trapping-math -fassociative-math -freciprocal-math -fno-math-errno -ffinite-math-only -fno-rounding-math -fno-signaling-nans -fcx-limited-range -fexcess-precision=fast -fuse-linker-plugin -pipe -g0 -Wl,-O1 -Wl,--as-needed -Wl,--hash-style=gnu,-z,norelro,--as-needed'
 * LDFLAGS='-Wl,-O1 -Wl,--as-needed -Wl,--hash-style=gnu,-z,norelro,--as-needed -march=native -O3 -fgraphite-identity -floop-nest-optimize -fdevirtualize-at-ltrans -fipa-pta -fno-semantic-interposition -flto=12 -fno-plt -fno-signed-zeros -fno-trapping-math -fassociative-math -freciprocal-math -fno-math-errno -ffinite-math-only -fno-rounding-math -fno-signaling-nans -fcx-limited-range -fexcess-precision=fast -fuse-linker-plugin -pipe -g0'
 * MAKEOPTS='-j12 -l12'
 * gcc (Gentoo 10.1.0 p1) 10.1.0
 * g++ (Gentoo 10.1.0 p1) 10.1.0
 * GNU ld (Gentoo 2.34 p1) 2.34.0
 * Linux ryzen.gnum.org 5.4.36 #1 SMP Thu Apr 30 04:38:28 UTC 2020 x86_64 AMD Ryzen 5 3600 6-Core Processor AuthenticAMD GNU/Linux
app-text/docbook-xml-dtd: 6 seconds average for 6 merges
2020-05-15T04:16:49 >>> app-text/docbook-xml-dtd: 6 seconds
2020-05-20T01:26:06 >>> app-text/docbook-xml-dtd: 6 seconds
2020-05-20T01:27:15 >>> app-text/docbook-xml-dtd: 6 seconds
2020-05-20T01:35:22 >>> app-text/docbook-xml-dtd: 6 seconds
2020-05-20T01:35:28 >>> app-text/docbook-xml-dtd: 7 seconds
2020-05-20T01:35:35 >>> app-text/docbook-xml-dtd: 6 seconds
]0;emerge 16:30:56 23|626 docbook-xml-dtd 00:06 (root@ryzen.gnum.org)kemerge 16:30:56 23|626 docbook-xml-dtd 00:06 (root@ryzen.gnum.org)\>>> Unpacking source...
>>> Unpacking docbook-xml-4.2.zip to /tmp/portage/app-text/docbook-xml-dtd-4.2-r3/work
>>> Source unpacked in /tmp/portage/app-text/docbook-xml-dtd-4.2-r3/work
>>> Preparing source in /tmp/portage/app-text/docbook-xml-dtd-4.2-r3/work ...
>>> Source prepared.
>>> Configuring source in /tmp/portage/app-text/docbook-xml-dtd-4.2-r3/work ...
>>> Source configured.
>>> Compiling source in /tmp/portage/app-text/docbook-xml-dtd-4.2-r3/work ...
>>> Source compiled.
>>> Test phase [not enabled]: app-text/docbook-xml-dtd-4.2-r3

>>> Install app-text/docbook-xml-dtd-4.2-r3 into /tmp/portage/app-text/docbook-xml-dtd-4.2-r3/image
>>> Completed installing app-text/docbook-xml-dtd-4.2-r3 into /tmp/portage/app-text/docbook-xml-dtd-4.2-r3/image

 * Final size of build directory: 460 KiB
 * Final size of installed tree:  496 KiB

./
./usr/
./usr/share/
./usr/share/sgml/
./usr/share/sgml/docbook/
./usr/share/sgml/docbook/xml-dtd-4.2/
./usr/share/sgml/docbook/xml-dtd-4.2/dbpoolx.mod
./usr/share/sgml/docbook/xml-dtd-4.2/dbgenent.mod
./usr/share/sgml/docbook/xml-dtd-4.2/docbookx.dtd
./usr/share/sgml/docbook/xml-dtd-4.2/docbook.cat
./usr/share/sgml/docbook/xml-dtd-4.2/dbcentx.mod
./usr/share/sgml/docbook/xml-dtd-4.2/dbnotnx.mod
./usr/share/sgml/docbook/xml-dtd-4.2/calstblx.dtd
./usr/share/sgml/docbook/xml-dtd-4.2/dbhierx.mod
./usr/share/sgml/docbook/xml-dtd-4.2/soextblx.dtd
./usr/share/sgml/docbook/xml-dtd-4.2/ent/
./usr/share/sgml/docbook/xml-dtd-4.2/ent/iso-grk3.ent
./usr/share/sgml/docbook/xml-dtd-4.2/ent/iso-cyr2.ent
./usr/share/sgml/docbook/xml-dtd-4.2/ent/iso-box.ent
./usr/share/sgml/docbook/xml-dtd-4.2/ent/iso-lat1.ent
./usr/share/sgml/docbook/xml-dtd-4.2/ent/iso-lat2.ent
./usr/share/sgml/docbook/xml-dtd-4.2/ent/iso-cyr1.ent
./usr/share/sgml/docbook/xml-dtd-4.2/ent/iso-amsc.ent
./usr/share/sgml/docbook/xml-dtd-4.2/ent/iso-num.ent
./usr/share/sgml/docbook/xml-dtd-4.2/ent/iso-dia.ent
./usr/share/sgml/docbook/xml-dtd-4.2/ent/iso-tech.ent
./usr/share/sgml/docbook/xml-dtd-4.2/ent/iso-amsr.ent
./usr/share/sgml/docbook/xml-dtd-4.2/ent/iso-amsa.ent
./usr/share/sgml/docbook/xml-dtd-4.2/ent/iso-grk1.ent
./usr/share/sgml/docbook/xml-dtd-4.2/ent/iso-amsb.ent
./usr/share/sgml/docbook/xml-dtd-4.2/ent/iso-amso.ent
./usr/share/sgml/docbook/xml-dtd-4.2/ent/iso-grk4.ent
./usr/share/sgml/docbook/xml-dtd-4.2/ent/iso-grk2.ent
./usr/share/sgml/docbook/xml-dtd-4.2/ent/iso-amsn.ent
./usr/share/sgml/docbook/xml-dtd-4.2/ent/iso-pub.ent
./usr/share/doc/
./usr/share/doc/docbook-xml-dtd-4.2-r3/
./usr/share/doc/docbook-xml-dtd-4.2-r3/README.bz2
./usr/share/doc/docbook-xml-dtd-4.2-r3/ChangeLog.bz2
./etc/
./etc/sgml/
./etc/sgml/xml-docbook-4.2.cat
./etc/xml/
./etc/xml/.keep_app-text_docbook-xml-dtd-4.2
>>> Done.
 * checking 30 files for package collisions
>>> Merging app-text/docbook-xml-dtd-4.2-r3 to /
 * removing unneeded *.la files
--- /etc/
--- /etc/xml/
>>> /etc/xml/.keep_app-text_docbook-xml-dtd-4.2
--- /etc/sgml/
>>> /etc/sgml/xml-docbook-4.2.cat
--- /usr/
--- /usr/share/
--- /usr/share/sgml/
--- /usr/share/sgml/docbook/
--- /usr/share/sgml/docbook/xml-dtd-4.2/
--- /usr/share/sgml/docbook/xml-dtd-4.2/ent/
>>> /usr/share/sgml/docbook/xml-dtd-4.2/ent/iso-pub.ent
>>> /usr/share/sgml/docbook/xml-dtd-4.2/ent/iso-amsn.ent
>>> /usr/share/sgml/docbook/xml-dtd-4.2/ent/iso-grk2.ent
>>> /usr/share/sgml/docbook/xml-dtd-4.2/ent/iso-grk4.ent
>>> /usr/share/sgml/docbook/xml-dtd-4.2/ent/iso-amso.ent
>>> /usr/share/sgml/docbook/xml-dtd-4.2/ent/iso-amsb.ent
>>> /usr/share/sgml/docbook/xml-dtd-4.2/ent/iso-grk1.ent
>>> /usr/share/sgml/docbook/xml-dtd-4.2/ent/iso-amsa.ent
>>> /usr/share/sgml/docbook/xml-dtd-4.2/ent/iso-amsr.ent
>>> /usr/share/sgml/docbook/xml-dtd-4.2/ent/iso-tech.ent
>>> /usr/share/sgml/docbook/xml-dtd-4.2/ent/iso-dia.ent
>>> /usr/share/sgml/docbook/xml-dtd-4.2/ent/iso-num.ent
>>> /usr/share/sgml/docbook/xml-dtd-4.2/ent/iso-amsc.ent
>>> /usr/share/sgml/docbook/xml-dtd-4.2/ent/iso-cyr1.ent
>>> /usr/share/sgml/docbook/xml-dtd-4.2/ent/iso-lat2.ent
>>> /usr/share/sgml/docbook/xml-dtd-4.2/ent/iso-lat1.ent
>>> /usr/share/sgml/docbook/xml-dtd-4.2/ent/iso-box.ent
>>> /usr/share/sgml/docbook/xml-dtd-4.2/ent/iso-cyr2.ent
>>> /usr/share/sgml/docbook/xml-dtd-4.2/ent/iso-grk3.ent
>>> /usr/share/sgml/docbook/xml-dtd-4.2/soextblx.dtd
>>> /usr/share/sgml/docbook/xml-dtd-4.2/dbhierx.mod
>>> /usr/share/sgml/docbook/xml-dtd-4.2/calstblx.dtd
>>> /usr/share/sgml/docbook/xml-dtd-4.2/dbnotnx.mod
>>> /usr/share/sgml/docbook/xml-dtd-4.2/dbcentx.mod
>>> /usr/share/sgml/docbook/xml-dtd-4.2/docbook.cat
>>> /usr/share/sgml/docbook/xml-dtd-4.2/docbookx.dtd
>>> /usr/share/sgml/docbook/xml-dtd-4.2/dbgenent.mod
>>> /usr/share/sgml/docbook/xml-dtd-4.2/dbpoolx.mod
>>> Safely unmerging already-installed instance...
>>> Original instance of package unmerged safely.
Found DocBook XSL stylesheets (xsl) in /usr/share/sgml/docbook/xsl-stylesheets
Found DocBook XSL stylesheets (xsl-ns) in /usr/share/sgml/docbook/xsl-ns-stylesheets
DocBook XSL stylesheets (xsl-saxon) not found
DocBook XSL stylesheets (xsl-xalan) not found
Found DocBook XML 4.1.2 in /usr/share/sgml/docbook/xml-dtd-4.1.2
Found DocBook XML 4.2 in /usr/share/sgml/docbook/xml-dtd-4.2
Found DocBook XML 4.3 in /usr/share/sgml/docbook/xml-dtd-4.3
Found DocBook XML 4.4 in /usr/share/sgml/docbook/xml-dtd-4.4
Found DocBook XML 4.5 in /usr/share/sgml/docbook/xml-dtd-4.5
Found Simplified DocBook XML 1.0 in /usr/share/sgml/docbook/xml-simple-dtd-1.0
Found Simplified DocBook XML 4.1.2.4 in /usr/share/sgml/docbook/xml-simple-dtd-4.1.2.4
Using ISO DocBook entities from /usr/share/sgml/docbook/xml-dtd-4.3/ent
 * Updating /etc/sgml/catalog ...
 [ ok ]
>>> app-text/docbook-xml-dtd-4.2-r3 merged.
