No package files given... Grabbing a set.
--- replaced obj /usr/share/man/man1/perl-cleaner.1.bz2
--- replaced dir /usr/share/man/man1
--- replaced dir /usr/share/man
--- replaced dir /usr/share
--- replaced obj /usr/sbin/perl-cleaner
--- replaced dir /usr/sbin
--- replaced dir /usr
>>> Regenerating /etc/ld.so.cache...
