[32;01m * [39;49;00mPackage:    app-text/lesspipe-1.85_alpha20200517
[32;01m * [39;49;00mRepository: mv
[32;01m * [39;49;00mMaintainer: martin@mvath.de base-system@gentoo.org
[32;01m * [39;49;00mUSE:        abi_x86_64 amd64 cpio djvu dvi2tty elibc_glibc elinks ghostscript groff html2text kernel_linux links lynx lz4 pdf rar rpm2targz unrar unzip userland_GNU w3m zstd
[32;01m * [39;49;00mFEATURES:   ccache network-sandbox preserve-libs sandbox userpriv usersandbox
