>>> Extracting info
 * Package:    app-portage/gemato-14.3
 * Repository: gentoo
 * USE:        userland_GNU kernel_linux abi_x86_64 elibc_glibc python_targets_python3_7 amd64 python_targets_python3_6 python_targets_python3_8 python_targets_pypy3 gpg
 * FEATURES:   ccache network-sandbox preserve-libs sandbox userpriv usersandbox
 * FEATURES='userfetch compress-index nodoc unmerge-backup fixlafiles pid-sandbox binpkg-docompress userpriv usersync merge-sync buildpkg distlocks network-sandbox assume-digests cgroup qa-unresolved-soname-deps strict unmerge-logs sfperms unmerge-orphans preserve-libs binpkg-dostrip downgrade-backup ipc-sandbox config-protect-if-modified unknown-features-warn usersandbox multilib-strict sandbox binpkg-multi-instance binpkg-logs parallel-install xattr parallel-fetch news ccache'
 * CFLAGS='-march=native -O3 -fdevirtualize-at-ltrans -fipa-pta -fno-semantic-interposition -fno-math-errno -fno-trapping-math -fno-plt -fuse-linker-plugin -pipe -g0 -fno-stack-protector -fno-stack-clash-protection -fstack-check=no -fno-stack-check -Wl,-O4,--hash-style=gnu,--sort-common,--as-needed,-z,relro,-z,now,-lgomp,-lpthread'
 * CXXFLAGS='-march=native -O3 -fdevirtualize-at-ltrans -fipa-pta -fno-semantic-interposition -fno-math-errno -fno-trapping-math -fno-plt -fuse-linker-plugin -pipe -g0 -fno-stack-protector -fno-stack-clash-protection -fstack-check=no -fno-stack-check -Wl,-O4,--hash-style=gnu,--sort-common,--as-needed,-z,relro,-z,now,-lgomp,-lpthread'
 * FFLAGS='-march=native -O3 -fdevirtualize-at-ltrans -fipa-pta -fno-semantic-interposition -fno-math-errno -fno-trapping-math -fno-plt -fuse-linker-plugin -pipe -g0 -fno-stack-protector -fno-stack-clash-protection -fstack-check=no -fno-stack-check -Wl,-O4,--hash-style=gnu,--sort-common,--as-needed,-z,relro,-z,now,-lgomp,-lpthread'
 * FCFLAGS='-march=native -O3 -fdevirtualize-at-ltrans -fipa-pta -fno-semantic-interposition -fno-math-errno -fno-trapping-math -fno-plt -fuse-linker-plugin -pipe -g0 -fno-stack-protector -fno-stack-clash-protection -fstack-check=no -fno-stack-check -Wl,-O4,--hash-style=gnu,--sort-common,--as-needed,-z,relro,-z,now,-lgomp,-lpthread'
 * F77FLAGS='-march=native -O3 -fdevirtualize-at-ltrans -fipa-pta -fno-semantic-interposition -fno-math-errno -fno-trapping-math -fno-plt -fuse-linker-plugin -pipe -g0 -fno-stack-protector -fno-stack-clash-protection -fstack-check=no -fno-stack-check -Wl,-O4,--hash-style=gnu,--sort-common,--as-needed,-z,relro,-z,now,-lgomp,-lpthread'
 * LDFLAGS='-Wl,-O4,--hash-style=gnu,--sort-common,--as-needed,-z,relro,-z,now,-lgomp,-lpthread'
 * MAKEOPTS='-j12'
 * gcc (Gentoo 10.1.0 p1) 10.1.0
 * g++ (Gentoo 10.1.0 p1) 10.1.0
 * GNU ld (Gentoo 2.34 p1) 2.34.0
 * Linux ryzen.gnum.org 5.4.36 #1 SMP Thu Apr 30 04:38:28 UTC 2020 x86_64 AMD Ryzen 5 3600 6-Core Processor AuthenticAMD GNU/Linux
app-portage/gemato: 10 seconds average for 3 merges
2020-05-16T00:57:16 >>> app-portage/gemato: 10 seconds
2020-05-16T16:49:20 >>> app-portage/gemato: 9 seconds
2020-05-16T21:32:54 >>> app-portage/gemato: 12 seconds
]0;emerge 23:51:30 32|162 gemato 00:10 (root@ryzen.gnum.org)>>> Extracting app-portage/gemato-14.3
 * checking 221 files for package collisions
>>> Merging app-portage/gemato-14.3 to /
 * removing unneeded *.la files
--- /usr/
--- /usr/lib64/
--- /usr/lib64/python3.6/
--- /usr/lib64/python3.6/site-packages/
>>> /usr/lib64/python3.6/site-packages/gemato/
>>> /usr/lib64/python3.6/site-packages/gemato/openpgp.py
>>> /usr/lib64/python3.6/site-packages/gemato/verify.py
>>> /usr/lib64/python3.6/site-packages/gemato/exceptions.py
>>> /usr/lib64/python3.6/site-packages/gemato/profile.py
>>> /usr/lib64/python3.6/site-packages/gemato/__pycache__/
>>> /usr/lib64/python3.6/site-packages/gemato/__pycache__/find_top_level.cpython-36.opt-1.pyc
>>> /usr/lib64/python3.6/site-packages/gemato/__pycache__/recursiveloader.cpython-36.opt-2.pyc
>>> /usr/lib64/python3.6/site-packages/gemato/__pycache__/util.cpython-36.pyc
>>> /usr/lib64/python3.6/site-packages/gemato/__pycache__/cli.cpython-36.opt-2.pyc
>>> /usr/lib64/python3.6/site-packages/gemato/__pycache__/exceptions.cpython-36.pyc
>>> /usr/lib64/python3.6/site-packages/gemato/__pycache__/manifest.cpython-36.opt-1.pyc
>>> /usr/lib64/python3.6/site-packages/gemato/__pycache__/verify.cpython-36.opt-2.pyc
>>> /usr/lib64/python3.6/site-packages/gemato/__pycache__/__init__.cpython-36.pyc
>>> /usr/lib64/python3.6/site-packages/gemato/__pycache__/openpgp.cpython-36.opt-1.pyc
>>> /usr/lib64/python3.6/site-packages/gemato/__pycache__/manifest.cpython-36.pyc
>>> /usr/lib64/python3.6/site-packages/gemato/__pycache__/recursiveloader.cpython-36.pyc
>>> /usr/lib64/python3.6/site-packages/gemato/__pycache__/hash.cpython-36.opt-2.pyc
>>> /usr/lib64/python3.6/site-packages/gemato/__pycache__/__init__.cpython-36.opt-1.pyc
>>> /usr/lib64/python3.6/site-packages/gemato/__pycache__/util.cpython-36.opt-1.pyc
>>> /usr/lib64/python3.6/site-packages/gemato/__pycache__/compression.cpython-36.opt-1.pyc
>>> /usr/lib64/python3.6/site-packages/gemato/__pycache__/verify.cpython-36.opt-1.pyc
>>> /usr/lib64/python3.6/site-packages/gemato/__pycache__/util.cpython-36.opt-2.pyc
>>> /usr/lib64/python3.6/site-packages/gemato/__pycache__/openpgp.cpython-36.pyc
>>> /usr/lib64/python3.6/site-packages/gemato/__pycache__/verify.cpython-36.pyc
>>> /usr/lib64/python3.6/site-packages/gemato/__pycache__/hash.cpython-36.pyc
>>> /usr/lib64/python3.6/site-packages/gemato/__pycache__/exceptions.cpython-36.opt-1.pyc
>>> /usr/lib64/python3.6/site-packages/gemato/__pycache__/find_top_level.cpython-36.pyc
>>> /usr/lib64/python3.6/site-packages/gemato/__pycache__/profile.cpython-36.pyc
>>> /usr/lib64/python3.6/site-packages/gemato/__pycache__/find_top_level.cpython-36.opt-2.pyc
>>> /usr/lib64/python3.6/site-packages/gemato/__pycache__/manifest.cpython-36.opt-2.pyc
>>> /usr/lib64/python3.6/site-packages/gemato/__pycache__/__init__.cpython-36.opt-2.pyc
>>> /usr/lib64/python3.6/site-packages/gemato/__pycache__/recursiveloader.cpython-36.opt-1.pyc
>>> /usr/lib64/python3.6/site-packages/gemato/__pycache__/cli.cpython-36.pyc
>>> /usr/lib64/python3.6/site-packages/gemato/__pycache__/exceptions.cpython-36.opt-2.pyc
>>> /usr/lib64/python3.6/site-packages/gemato/__pycache__/compression.cpython-36.opt-2.pyc
>>> /usr/lib64/python3.6/site-packages/gemato/__pycache__/openpgp.cpython-36.opt-2.pyc
>>> /usr/lib64/python3.6/site-packages/gemato/__pycache__/profile.cpython-36.opt-2.pyc
>>> /usr/lib64/python3.6/site-packages/gemato/__pycache__/hash.cpython-36.opt-1.pyc
>>> /usr/lib64/python3.6/site-packages/gemato/__pycache__/profile.cpython-36.opt-1.pyc
>>> /usr/lib64/python3.6/site-packages/gemato/__pycache__/cli.cpython-36.opt-1.pyc
>>> /usr/lib64/python3.6/site-packages/gemato/__pycache__/compression.cpython-36.pyc
>>> /usr/lib64/python3.6/site-packages/gemato/util.py
>>> /usr/lib64/python3.6/site-packages/gemato/find_top_level.py
>>> /usr/lib64/python3.6/site-packages/gemato/recursiveloader.py
>>> /usr/lib64/python3.6/site-packages/gemato/hash.py
>>> /usr/lib64/python3.6/site-packages/gemato/manifest.py
>>> /usr/lib64/python3.6/site-packages/gemato/__init__.py
>>> /usr/lib64/python3.6/site-packages/gemato/cli.py
>>> /usr/lib64/python3.6/site-packages/gemato/compression.py
>>> /usr/lib64/python3.6/site-packages/gemato-14.3-py3.6.egg-info/
>>> /usr/lib64/python3.6/site-packages/gemato-14.3-py3.6.egg-info/requires.txt
>>> /usr/lib64/python3.6/site-packages/gemato-14.3-py3.6.egg-info/entry_points.txt
>>> /usr/lib64/python3.6/site-packages/gemato-14.3-py3.6.egg-info/PKG-INFO
>>> /usr/lib64/python3.6/site-packages/gemato-14.3-py3.6.egg-info/dependency_links.txt
>>> /usr/lib64/python3.6/site-packages/gemato-14.3-py3.6.egg-info/SOURCES.txt
>>> /usr/lib64/python3.6/site-packages/gemato-14.3-py3.6.egg-info/top_level.txt
--- /usr/bin/
>>> /usr/bin/gemato -> ../lib/python-exec/python-exec2
--- /usr/lib/
--- /usr/lib/python-exec/
--- /usr/lib/python-exec/python3.7/
>>> /usr/lib/python-exec/python3.7/gemato
--- /usr/lib/python-exec/python3.6/
>>> /usr/lib/python-exec/python3.6/gemato
--- /usr/lib/python-exec/pypy3/
>>> /usr/lib/python-exec/pypy3/gemato
--- /usr/lib/python-exec/python3.8/
>>> /usr/lib/python-exec/python3.8/gemato
--- /usr/lib/pypy3.6/
--- /usr/lib/pypy3.6/site-packages/
>>> /usr/lib/pypy3.6/site-packages/gemato/
>>> /usr/lib/pypy3.6/site-packages/gemato/openpgp.py
>>> /usr/lib/pypy3.6/site-packages/gemato/verify.py
>>> /usr/lib/pypy3.6/site-packages/gemato/exceptions.py
>>> /usr/lib/pypy3.6/site-packages/gemato/profile.py
>>> /usr/lib/pypy3.6/site-packages/gemato/__pycache__/
>>> /usr/lib/pypy3.6/site-packages/gemato/__pycache__/find_top_level.pypy36.pyc
>>> /usr/lib/pypy3.6/site-packages/gemato/__pycache__/__init__.pypy36.opt-1.pyc
>>> /usr/lib/pypy3.6/site-packages/gemato/__pycache__/cli.pypy36.pyc
>>> /usr/lib/pypy3.6/site-packages/gemato/__pycache__/exceptions.pypy36.opt-2.pyc
>>> /usr/lib/pypy3.6/site-packages/gemato/__pycache__/compression.pypy36.opt-2.pyc
>>> /usr/lib/pypy3.6/site-packages/gemato/__pycache__/__init__.pypy36.opt-2.pyc
>>> /usr/lib/pypy3.6/site-packages/gemato/__pycache__/profile.pypy36.opt-1.pyc
>>> /usr/lib/pypy3.6/site-packages/gemato/__pycache__/recursiveloader.pypy36.opt-1.pyc
>>> /usr/lib/pypy3.6/site-packages/gemato/__pycache__/exceptions.pypy36.opt-1.pyc
>>> /usr/lib/pypy3.6/site-packages/gemato/__pycache__/hash.pypy36.opt-1.pyc
>>> /usr/lib/pypy3.6/site-packages/gemato/__pycache__/profile.pypy36.opt-2.pyc
>>> /usr/lib/pypy3.6/site-packages/gemato/__pycache__/util.pypy36.pyc
>>> /usr/lib/pypy3.6/site-packages/gemato/__pycache__/verify.pypy36.pyc
>>> /usr/lib/pypy3.6/site-packages/gemato/__pycache__/__init__.pypy36.pyc
>>> /usr/lib/pypy3.6/site-packages/gemato/__pycache__/profile.pypy36.pyc
>>> /usr/lib/pypy3.6/site-packages/gemato/__pycache__/manifest.pypy36.opt-1.pyc
>>> /usr/lib/pypy3.6/site-packages/gemato/__pycache__/find_top_level.pypy36.opt-2.pyc
>>> /usr/lib/pypy3.6/site-packages/gemato/__pycache__/verify.pypy36.opt-2.pyc
>>> /usr/lib/pypy3.6/site-packages/gemato/__pycache__/hash.pypy36.opt-2.pyc
>>> /usr/lib/pypy3.6/site-packages/gemato/__pycache__/exceptions.pypy36.pyc
>>> /usr/lib/pypy3.6/site-packages/gemato/__pycache__/verify.pypy36.opt-1.pyc
>>> /usr/lib/pypy3.6/site-packages/gemato/__pycache__/find_top_level.pypy36.opt-1.pyc
>>> /usr/lib/pypy3.6/site-packages/gemato/__pycache__/util.pypy36.opt-2.pyc
>>> /usr/lib/pypy3.6/site-packages/gemato/__pycache__/manifest.pypy36.opt-2.pyc
>>> /usr/lib/pypy3.6/site-packages/gemato/__pycache__/openpgp.pypy36.opt-1.pyc
>>> /usr/lib/pypy3.6/site-packages/gemato/__pycache__/recursiveloader.pypy36.opt-2.pyc
>>> /usr/lib/pypy3.6/site-packages/gemato/__pycache__/hash.pypy36.pyc
>>> /usr/lib/pypy3.6/site-packages/gemato/__pycache__/recursiveloader.pypy36.pyc
>>> /usr/lib/pypy3.6/site-packages/gemato/__pycache__/cli.pypy36.opt-2.pyc
>>> /usr/lib/pypy3.6/site-packages/gemato/__pycache__/manifest.pypy36.pyc
>>> /usr/lib/pypy3.6/site-packages/gemato/__pycache__/util.pypy36.opt-1.pyc
>>> /usr/lib/pypy3.6/site-packages/gemato/__pycache__/openpgp.pypy36.pyc
>>> /usr/lib/pypy3.6/site-packages/gemato/__pycache__/openpgp.pypy36.opt-2.pyc
>>> /usr/lib/pypy3.6/site-packages/gemato/__pycache__/compression.pypy36.opt-1.pyc
>>> /usr/lib/pypy3.6/site-packages/gemato/__pycache__/compression.pypy36.pyc
>>> /usr/lib/pypy3.6/site-packages/gemato/__pycache__/cli.pypy36.opt-1.pyc
>>> /usr/lib/pypy3.6/site-packages/gemato/util.py
>>> /usr/lib/pypy3.6/site-packages/gemato/find_top_level.py
>>> /usr/lib/pypy3.6/site-packages/gemato/recursiveloader.py
>>> /usr/lib/pypy3.6/site-packages/gemato/hash.py
>>> /usr/lib/pypy3.6/site-packages/gemato/manifest.py
>>> /usr/lib/pypy3.6/site-packages/gemato/__init__.py
>>> /usr/lib/pypy3.6/site-packages/gemato/cli.py
>>> /usr/lib/pypy3.6/site-packages/gemato/compression.py
>>> /usr/lib/pypy3.6/site-packages/gemato-14.3-py3.6.egg-info/
>>> /usr/lib/pypy3.6/site-packages/gemato-14.3-py3.6.egg-info/requires.txt
>>> /usr/lib/pypy3.6/site-packages/gemato-14.3-py3.6.egg-info/entry_points.txt
>>> /usr/lib/pypy3.6/site-packages/gemato-14.3-py3.6.egg-info/PKG-INFO
>>> /usr/lib/pypy3.6/site-packages/gemato-14.3-py3.6.egg-info/dependency_links.txt
>>> /usr/lib/pypy3.6/site-packages/gemato-14.3-py3.6.egg-info/SOURCES.txt
>>> /usr/lib/pypy3.6/site-packages/gemato-14.3-py3.6.egg-info/top_level.txt
--- /usr/lib/python3.7/
--- /usr/lib/python3.7/site-packages/
--- /usr/lib/python3.7/site-packages/gemato/
>>> /usr/lib/python3.7/site-packages/gemato/openpgp.py
>>> /usr/lib/python3.7/site-packages/gemato/verify.py
>>> /usr/lib/python3.7/site-packages/gemato/exceptions.py
>>> /usr/lib/python3.7/site-packages/gemato/profile.py
--- /usr/lib/python3.7/site-packages/gemato/__pycache__/
>>> /usr/lib/python3.7/site-packages/gemato/__pycache__/cli.cpython-37.opt-1.pyc
>>> /usr/lib/python3.7/site-packages/gemato/__pycache__/openpgp.cpython-37.pyc
>>> /usr/lib/python3.7/site-packages/gemato/__pycache__/find_top_level.cpython-37.opt-2.pyc
>>> /usr/lib/python3.7/site-packages/gemato/__pycache__/manifest.cpython-37.pyc
>>> /usr/lib/python3.7/site-packages/gemato/__pycache__/verify.cpython-37.opt-1.pyc
>>> /usr/lib/python3.7/site-packages/gemato/__pycache__/hash.cpython-37.opt-2.pyc
>>> /usr/lib/python3.7/site-packages/gemato/__pycache__/profile.cpython-37.opt-2.pyc
>>> /usr/lib/python3.7/site-packages/gemato/__pycache__/openpgp.cpython-37.opt-2.pyc
>>> /usr/lib/python3.7/site-packages/gemato/__pycache__/__init__.cpython-37.pyc
>>> /usr/lib/python3.7/site-packages/gemato/__pycache__/compression.cpython-37.opt-2.pyc
>>> /usr/lib/python3.7/site-packages/gemato/__pycache__/verify.cpython-37.opt-2.pyc
>>> /usr/lib/python3.7/site-packages/gemato/__pycache__/compression.cpython-37.pyc
>>> /usr/lib/python3.7/site-packages/gemato/__pycache__/util.cpython-37.opt-2.pyc
>>> /usr/lib/python3.7/site-packages/gemato/__pycache__/exceptions.cpython-37.opt-2.pyc
>>> /usr/lib/python3.7/site-packages/gemato/__pycache__/profile.cpython-37.pyc
>>> /usr/lib/python3.7/site-packages/gemato/__pycache__/verify.cpython-37.pyc
>>> /usr/lib/python3.7/site-packages/gemato/__pycache__/cli.cpython-37.pyc
>>> /usr/lib/python3.7/site-packages/gemato/__pycache__/profile.cpython-37.opt-1.pyc
>>> /usr/lib/python3.7/site-packages/gemato/__pycache__/cli.cpython-37.opt-2.pyc
>>> /usr/lib/python3.7/site-packages/gemato/__pycache__/find_top_level.cpython-37.opt-1.pyc
>>> /usr/lib/python3.7/site-packages/gemato/__pycache__/__init__.cpython-37.opt-2.pyc
>>> /usr/lib/python3.7/site-packages/gemato/__pycache__/__init__.cpython-37.opt-1.pyc
>>> /usr/lib/python3.7/site-packages/gemato/__pycache__/recursiveloader.cpython-37.opt-1.pyc
>>> /usr/lib/python3.7/site-packages/gemato/__pycache__/util.cpython-37.pyc
>>> /usr/lib/python3.7/site-packages/gemato/__pycache__/hash.cpython-37.opt-1.pyc
>>> /usr/lib/python3.7/site-packages/gemato/__pycache__/recursiveloader.cpython-37.pyc
>>> /usr/lib/python3.7/site-packages/gemato/__pycache__/openpgp.cpython-37.opt-1.pyc
>>> /usr/lib/python3.7/site-packages/gemato/__pycache__/manifest.cpython-37.opt-1.pyc
>>> /usr/lib/python3.7/site-packages/gemato/__pycache__/exceptions.cpython-37.opt-1.pyc
>>> /usr/lib/python3.7/site-packages/gemato/__pycache__/recursiveloader.cpython-37.opt-2.pyc
>>> /usr/lib/python3.7/site-packages/gemato/__pycache__/util.cpython-37.opt-1.pyc
>>> /usr/lib/python3.7/site-packages/gemato/__pycache__/compression.cpython-37.opt-1.pyc
>>> /usr/lib/python3.7/site-packages/gemato/__pycache__/find_top_level.cpython-37.pyc
>>> /usr/lib/python3.7/site-packages/gemato/__pycache__/exceptions.cpython-37.pyc
>>> /usr/lib/python3.7/site-packages/gemato/__pycache__/manifest.cpython-37.opt-2.pyc
>>> /usr/lib/python3.7/site-packages/gemato/__pycache__/hash.cpython-37.pyc
>>> /usr/lib/python3.7/site-packages/gemato/util.py
>>> /usr/lib/python3.7/site-packages/gemato/find_top_level.py
>>> /usr/lib/python3.7/site-packages/gemato/recursiveloader.py
>>> /usr/lib/python3.7/site-packages/gemato/hash.py
>>> /usr/lib/python3.7/site-packages/gemato/manifest.py
>>> /usr/lib/python3.7/site-packages/gemato/__init__.py
>>> /usr/lib/python3.7/site-packages/gemato/cli.py
>>> /usr/lib/python3.7/site-packages/gemato/compression.py
--- /usr/lib/python3.7/site-packages/gemato-14.3-py3.7.egg-info/
>>> /usr/lib/python3.7/site-packages/gemato-14.3-py3.7.egg-info/requires.txt
>>> /usr/lib/python3.7/site-packages/gemato-14.3-py3.7.egg-info/entry_points.txt
>>> /usr/lib/python3.7/site-packages/gemato-14.3-py3.7.egg-info/PKG-INFO
>>> /usr/lib/python3.7/site-packages/gemato-14.3-py3.7.egg-info/dependency_links.txt
>>> /usr/lib/python3.7/site-packages/gemato-14.3-py3.7.egg-info/SOURCES.txt
>>> /usr/lib/python3.7/site-packages/gemato-14.3-py3.7.egg-info/top_level.txt
--- /usr/lib/python3.8/
--- /usr/lib/python3.8/site-packages/
--- /usr/lib/python3.8/site-packages/gemato/
>>> /usr/lib/python3.8/site-packages/gemato/openpgp.py
>>> /usr/lib/python3.8/site-packages/gemato/verify.py
>>> /usr/lib/python3.8/site-packages/gemato/exceptions.py
>>> /usr/lib/python3.8/site-packages/gemato/profile.py
--- /usr/lib/python3.8/site-packages/gemato/__pycache__/
>>> /usr/lib/python3.8/site-packages/gemato/__pycache__/recursiveloader.cpython-38.opt-2.pyc
>>> /usr/lib/python3.8/site-packages/gemato/__pycache__/recursiveloader.cpython-38.opt-1.pyc
>>> /usr/lib/python3.8/site-packages/gemato/__pycache__/recursiveloader.cpython-38.pyc
>>> /usr/lib/python3.8/site-packages/gemato/__pycache__/openpgp.cpython-38.opt-2.pyc
>>> /usr/lib/python3.8/site-packages/gemato/__pycache__/find_top_level.cpython-38.pyc
>>> /usr/lib/python3.8/site-packages/gemato/__pycache__/compression.cpython-38.pyc
>>> /usr/lib/python3.8/site-packages/gemato/__pycache__/manifest.cpython-38.opt-2.pyc
>>> /usr/lib/python3.8/site-packages/gemato/__pycache__/hash.cpython-38.opt-1.pyc
>>> /usr/lib/python3.8/site-packages/gemato/__pycache__/profile.cpython-38.opt-2.pyc
>>> /usr/lib/python3.8/site-packages/gemato/__pycache__/cli.cpython-38.opt-2.pyc
>>> /usr/lib/python3.8/site-packages/gemato/__pycache__/util.cpython-38.opt-2.pyc
>>> /usr/lib/python3.8/site-packages/gemato/__pycache__/find_top_level.cpython-38.opt-2.pyc
>>> /usr/lib/python3.8/site-packages/gemato/__pycache__/exceptions.cpython-38.opt-1.pyc
>>> /usr/lib/python3.8/site-packages/gemato/__pycache__/verify.cpython-38.pyc
>>> /usr/lib/python3.8/site-packages/gemato/__pycache__/util.cpython-38.opt-1.pyc
>>> /usr/lib/python3.8/site-packages/gemato/__pycache__/find_top_level.cpython-38.opt-1.pyc
>>> /usr/lib/python3.8/site-packages/gemato/__pycache__/compression.cpython-38.opt-2.pyc
>>> /usr/lib/python3.8/site-packages/gemato/__pycache__/cli.cpython-38.pyc
>>> /usr/lib/python3.8/site-packages/gemato/__pycache__/profile.cpython-38.pyc
>>> /usr/lib/python3.8/site-packages/gemato/__pycache__/__init__.cpython-38.opt-2.pyc
>>> /usr/lib/python3.8/site-packages/gemato/__pycache__/compression.cpython-38.opt-1.pyc
>>> /usr/lib/python3.8/site-packages/gemato/__pycache__/openpgp.cpython-38.opt-1.pyc
>>> /usr/lib/python3.8/site-packages/gemato/__pycache__/cli.cpython-38.opt-1.pyc
>>> /usr/lib/python3.8/site-packages/gemato/__pycache__/hash.cpython-38.opt-2.pyc
>>> /usr/lib/python3.8/site-packages/gemato/__pycache__/__init__.cpython-38.pyc
>>> /usr/lib/python3.8/site-packages/gemato/__pycache__/openpgp.cpython-38.pyc
>>> /usr/lib/python3.8/site-packages/gemato/__pycache__/hash.cpython-38.pyc
>>> /usr/lib/python3.8/site-packages/gemato/__pycache__/__init__.cpython-38.opt-1.pyc
>>> /usr/lib/python3.8/site-packages/gemato/__pycache__/exceptions.cpython-38.pyc
>>> /usr/lib/python3.8/site-packages/gemato/__pycache__/manifest.cpython-38.opt-1.pyc
>>> /usr/lib/python3.8/site-packages/gemato/__pycache__/manifest.cpython-38.pyc
>>> /usr/lib/python3.8/site-packages/gemato/__pycache__/verify.cpython-38.opt-1.pyc
>>> /usr/lib/python3.8/site-packages/gemato/__pycache__/verify.cpython-38.opt-2.pyc
>>> /usr/lib/python3.8/site-packages/gemato/__pycache__/profile.cpython-38.opt-1.pyc
>>> /usr/lib/python3.8/site-packages/gemato/__pycache__/util.cpython-38.pyc
>>> /usr/lib/python3.8/site-packages/gemato/__pycache__/exceptions.cpython-38.opt-2.pyc
>>> /usr/lib/python3.8/site-packages/gemato/util.py
>>> /usr/lib/python3.8/site-packages/gemato/find_top_level.py
>>> /usr/lib/python3.8/site-packages/gemato/recursiveloader.py
>>> /usr/lib/python3.8/site-packages/gemato/hash.py
>>> /usr/lib/python3.8/site-packages/gemato/manifest.py
>>> /usr/lib/python3.8/site-packages/gemato/__init__.py
>>> /usr/lib/python3.8/site-packages/gemato/cli.py
>>> /usr/lib/python3.8/site-packages/gemato/compression.py
--- /usr/lib/python3.8/site-packages/gemato-14.3-py3.8.egg-info/
>>> /usr/lib/python3.8/site-packages/gemato-14.3-py3.8.egg-info/requires.txt
>>> /usr/lib/python3.8/site-packages/gemato-14.3-py3.8.egg-info/entry_points.txt
>>> /usr/lib/python3.8/site-packages/gemato-14.3-py3.8.egg-info/PKG-INFO
>>> /usr/lib/python3.8/site-packages/gemato-14.3-py3.8.egg-info/dependency_links.txt
>>> /usr/lib/python3.8/site-packages/gemato-14.3-py3.8.egg-info/SOURCES.txt
>>> /usr/lib/python3.8/site-packages/gemato-14.3-py3.8.egg-info/top_level.txt
>>> Safely unmerging already-installed instance...
>>> Original instance of package unmerged safely.
>>> app-portage/gemato-14.3 merged.
