No package files given... Grabbing a set.
--- replaced obj /usr/share/zsh/site-functions/_title_opt
--- replaced obj /usr/share/zsh/site-functions/_title
--- replaced obj /usr/share/zsh/site-functions/_runner
--- replaced dir /usr/share/zsh/site-functions
--- replaced dir /usr/share/zsh
--- replaced dir /usr/share
--- replaced obj /usr/bin/title
--- replaced obj /usr/bin/runner
--- replaced dir /usr/bin
--- replaced dir /usr
>>> Regenerating /etc/ld.so.cache...
