 * Package:    app-text/o3read-0.0.4
 * Repository: gentoo
 * USE:        abi_x86_64 amd64 elibc_glibc kernel_linux userland_GNU
 * FEATURES:   ccache network-sandbox preserve-libs userpriv
 * /etc/portage/package.cflags/ltoworkarounds.conf -> */*: *FLAGS+=-Wl,-O4 *FLAGS-=-Wl,-O1
 * FEATURES='assume-digests binpkg-docompress binpkg-dostrip binpkg-logs buildpkg ccache cgroup compress-index config-protect-if-modified distlocks ebuild-locks fixlafiles merge-sync multilib-strict network-sandbox news nodoc parallel-fetch preserve-libs qa-unresolved-soname-deps sfperms strict strict-keepdir unknown-features-warn unmerge-logs unmerge-orphans userfetch userpriv usersync xattr'
 * CFLAGS='-O2 -pipe -Wl,-O4 -Wl,-O4,--sort-common,--as-needed,-z,norelro,-z,now'
 * CXXFLAGS='-O2 -pipe -Wl,-O4 -Wl,-O4,--sort-common,--as-needed,-z,norelro,-z,now'
 * FFLAGS='-O2 -pipe -Wl,-O4 -Wl,-O4,--sort-common,--as-needed,-z,norelro,-z,now'
 * FCFLAGS='-O2 -pipe -Wl,-O4 -Wl,-O4,--sort-common,--as-needed,-z,norelro,-z,now'
 * F77FLAGS='-O2 -pipe -Wl,-O4 -Wl,-O4,--sort-common,--as-needed,-z,norelro,-z,now'
 * LDFLAGS='-Wl,-O4,--sort-common,--as-needed,-z,norelro,-z,now'
 * MAKEOPTS='-j12 -l12'
 * gcc (Gentoo 11.0.0_pre9999 p1, commit 184c21bf1cd04a108ed9bd04635e7d57ac39f616) 11.0.0 20200611 (experimental)
 * g++ (Gentoo 11.0.0_pre9999 p1, commit 184c21bf1cd04a108ed9bd04635e7d57ac39f616) 11.0.0 20200611 (experimental)
 * GNU ld (Gentoo 2.34 p4) 2.34.0
 * Linux rescue 5.4.36 #1 SMP Thu Apr 30 04:38:28 UTC 2020 x86_64 AMD Ryzen 5 3600 6-Core Processor AuthenticAMD GNU/Linux
app-text/o3read: 6 minutes, 16 seconds average for 10 merges
2020-05-19T23:38:00 >>> app-text/o3read: 4 seconds
2020-05-28T02:48:58 >>> app-text/o3read: 1 minute, 44 seconds
2020-05-28T13:22:57 >>> app-text/o3read: 7 minutes, 25 seconds
2020-05-28T14:11:49 >>> app-text/o3read: 5 minutes, 16 seconds
2020-05-29T01:32:01 >>> app-text/o3read: 5 minutes, 59 seconds
2020-05-30T12:27:51 >>> app-text/o3read: 9 minutes, 14 seconds
2020-05-30T21:32:20 >>> app-text/o3read: 4 minutes, 59 seconds
2020-06-01T01:44:53 >>> app-text/o3read: 7 minutes, 37 seconds
2020-06-04T11:50:34 >>> app-text/o3read: 18 minutes, 19 seconds
2020-06-12T01:22:26 >>> app-text/o3read: 2 minutes, 4 seconds
]0;emerge 03:17:18 55|907 o3read 09:20 (root@rescue)kemerge 03:17:18 55|907 o3read 09:20 (root@rescue)\>>> Unpacking source...
>>> Unpacking o3read-0.0.4.tar.gz to /tmp/portage/app-text/o3read-0.0.4/work
>>> Source unpacked in /tmp/portage/app-text/o3read-0.0.4/work
>>> Preparing source in /tmp/portage/app-text/o3read-0.0.4/work/o3read-0.0.4 ...
 * Applying o3read-0.0.4-fix-buildsystem.patch ...
 [ ok ]
>>> Source prepared.
>>> Configuring source in /tmp/portage/app-text/o3read-0.0.4/work/o3read-0.0.4 ...
>>> Source configured.
>>> Compiling source in /tmp/portage/app-text/o3read-0.0.4/work/o3read-0.0.4 ...
make -j12 -l12 
x86_64-pc-linux-gnu-gcc -O2 -pipe -Wl,-O4 -Wl,-O4,--sort-common,--as-needed,-z,norelro,-z,now   -c -o o3read.o o3read.c
x86_64-pc-linux-gnu-gcc -O2 -pipe -Wl,-O4 -Wl,-O4,--sort-common,--as-needed,-z,norelro,-z,now   -c -o main.o main.c
x86_64-pc-linux-gnu-gcc -O2 -pipe -Wl,-O4 -Wl,-O4,--sort-common,--as-needed,-z,norelro,-z,now  -Wl,-O4,--sort-common,--as-needed,-z,norelro,-z,now  utf8tolatin1.c   -o utf8tolatin1
x86_64-pc-linux-gnu-gcc -Wl,-O4,--sort-common,--as-needed,-z,norelro,-z,now  o3read.o main.o   -o o3read
x86_64-pc-linux-gnu-gcc -O2 -pipe -Wl,-O4 -Wl,-O4,--sort-common,--as-needed,-z,norelro,-z,now  -Wl,-O4,--sort-common,--as-needed,-z,norelro,-z,now  o3totxt.c o3read.o   -o o3totxt
x86_64-pc-linux-gnu-gcc -O2 -pipe -Wl,-O4 -Wl,-O4,--sort-common,--as-needed,-z,norelro,-z,now  -Wl,-O4,--sort-common,--as-needed,-z,norelro,-z,now  o3tohtml.c o3read.o   -o o3tohtml
>>> Source compiled.
 * Skipping make test/check due to ebuild restriction.
>>> Test phase [disabled because of RESTRICT=test]: app-text/o3read-0.0.4

>>> Install app-text/o3read-0.0.4 into /tmp/portage/app-text/o3read-0.0.4/image
>>> Completed installing app-text/o3read-0.0.4 into /tmp/portage/app-text/o3read-0.0.4/image

 * Final size of build directory: 216 KiB
 * Final size of installed tree:  148 KiB

strip: x86_64-pc-linux-gnu-strip --strip-unneeded -N __gentoo_check_ldflags__ -R .comment -R .GCC.command.line -R .note.gnu.gold-version
   /usr/bin/o3read
   /usr/bin/o3totxt
   /usr/bin/utf8tolatin1
   /usr/bin/o3tohtml
./
./usr/
./usr/bin/
./usr/bin/o3tohtml
./usr/bin/o3totxt
./usr/bin/utf8tolatin1
./usr/bin/o3read
./usr/share/
./usr/share/man/
./usr/share/man/man1/
./usr/share/man/man1/utf8tolatin1.1.bz2
./usr/share/man/man1/o3totxt.1
./usr/share/man/man1/o3tohtml.1
./usr/share/man/man1/o3read.1.bz2
./usr/share/doc/
./usr/share/doc/o3read-0.0.4/
./usr/share/doc/o3read-0.0.4/TODO.bz2
./usr/share/doc/o3read-0.0.4/README.bz2
./usr/share/doc/o3read-0.0.4/ChangeLog.bz2
>>> Done.
 * checking 8 files for package collisions
>>> Merging app-text/o3read-0.0.4 to /
 * removing unneeded *.la files
--- /usr/
--- /usr/share/
--- /usr/share/man/
--- /usr/share/man/man1/
>>> /usr/share/man/man1/o3read.1.bz2
>>> /usr/share/man/man1/o3tohtml.1
>>> /usr/share/man/man1/o3totxt.1
>>> /usr/share/man/man1/utf8tolatin1.1.bz2
--- /usr/bin/
>>> /usr/bin/o3read
>>> /usr/bin/utf8tolatin1
>>> /usr/bin/o3totxt
>>> /usr/bin/o3tohtml
>>> Safely unmerging already-installed instance...
>>> Original instance of package unmerged safely.
>>> app-text/o3read-0.0.4 merged.
