No package files given... Grabbing a set.
--- replaced sym /usr/lib64/libunrar.so.5.9.2
--- replaced obj /usr/lib64/libunrar.so.5
--- replaced sym /usr/lib64/libunrar.so
--- replaced dir /usr/lib64
--- replaced obj /usr/include/libunrar5/volume.hpp
--- replaced obj /usr/include/libunrar5/version.hpp
--- replaced obj /usr/include/libunrar5/unpack.hpp
--- replaced obj /usr/include/libunrar5/unicode.hpp
--- replaced obj /usr/include/libunrar5/ui.hpp
--- replaced obj /usr/include/libunrar5/timefn.hpp
--- replaced obj /usr/include/libunrar5/threadpool.hpp
--- replaced obj /usr/include/libunrar5/system.hpp
--- replaced obj /usr/include/libunrar5/suballoc.hpp
--- replaced obj /usr/include/libunrar5/strlist.hpp
--- replaced obj /usr/include/libunrar5/strfn.hpp
--- replaced obj /usr/include/libunrar5/smallfn.hpp
--- replaced obj /usr/include/libunrar5/sha256.hpp
--- replaced obj /usr/include/libunrar5/sha1.hpp
--- replaced obj /usr/include/libunrar5/secpassword.hpp
--- replaced obj /usr/include/libunrar5/scantree.hpp
--- replaced obj /usr/include/libunrar5/savepos.hpp
--- replaced obj /usr/include/libunrar5/rs16.hpp
--- replaced obj /usr/include/libunrar5/rs.hpp
--- replaced obj /usr/include/libunrar5/rijndael.hpp
--- replaced obj /usr/include/libunrar5/resource.hpp
--- replaced obj /usr/include/libunrar5/recvol.hpp
--- replaced obj /usr/include/libunrar5/rdwrfn.hpp
--- replaced obj /usr/include/libunrar5/rawread.hpp
--- replaced obj /usr/include/libunrar5/rawint.hpp
--- replaced obj /usr/include/libunrar5/rarvm.hpp
--- replaced obj /usr/include/libunrar5/rartypes.hpp
--- replaced obj /usr/include/libunrar5/raros.hpp
--- replaced obj /usr/include/libunrar5/rarlang.hpp
--- replaced obj /usr/include/libunrar5/rardefs.hpp
--- replaced obj /usr/include/libunrar5/rar.hpp
--- replaced obj /usr/include/libunrar5/qopen.hpp
--- replaced obj /usr/include/libunrar5/pathfn.hpp
--- replaced obj /usr/include/libunrar5/os.hpp
--- replaced obj /usr/include/libunrar5/options.hpp
--- replaced obj /usr/include/libunrar5/model.hpp
--- replaced obj /usr/include/libunrar5/match.hpp
--- replaced obj /usr/include/libunrar5/log.hpp
--- replaced obj /usr/include/libunrar5/loclang.hpp
--- replaced obj /usr/include/libunrar5/list.hpp
--- replaced obj /usr/include/libunrar5/isnt.hpp
--- replaced obj /usr/include/libunrar5/headers5.hpp
--- replaced obj /usr/include/libunrar5/headers.hpp
--- replaced obj /usr/include/libunrar5/hash.hpp
--- replaced obj /usr/include/libunrar5/global.hpp
--- replaced obj /usr/include/libunrar5/getbits.hpp
--- replaced obj /usr/include/libunrar5/find.hpp
--- replaced obj /usr/include/libunrar5/filestr.hpp
--- replaced obj /usr/include/libunrar5/filefn.hpp
--- replaced obj /usr/include/libunrar5/file.hpp
--- replaced obj /usr/include/libunrar5/filcreat.hpp
--- replaced obj /usr/include/libunrar5/extract.hpp
--- replaced obj /usr/include/libunrar5/extinfo.hpp
--- replaced obj /usr/include/libunrar5/errhnd.hpp
--- replaced obj /usr/include/libunrar5/encname.hpp
--- replaced obj /usr/include/libunrar5/dll.hpp
--- replaced obj /usr/include/libunrar5/crypt.hpp
--- replaced obj /usr/include/libunrar5/crc.hpp
--- replaced obj /usr/include/libunrar5/consio.hpp
--- replaced obj /usr/include/libunrar5/compress.hpp
--- replaced obj /usr/include/libunrar5/coder.hpp
--- replaced obj /usr/include/libunrar5/cmddata.hpp
--- replaced obj /usr/include/libunrar5/blake2s.hpp
--- replaced obj /usr/include/libunrar5/array.hpp
--- replaced obj /usr/include/libunrar5/archive.hpp
--- replaced dir /usr/include/libunrar5
--- replaced sym /usr/include/libunrar
--- replaced dir /usr/include
--- replaced obj /usr/bin/unrar
--- replaced dir /usr/bin
--- replaced dir /usr
>>> Regenerating /etc/ld.so.cache...
