>>> Extracting info
 * Package:    dev-python/fixtures-3.0.0
 * Repository: gentoo
 * USE:        abi_x86_64 kernel_linux amd64 userland_GNU elibc_glibc python_targets_python2_7 python_targets_pypy3 python_targets_python3_6 python_targets_python3_7 python_targets_python3_8
 * FEATURES:   ccache network-sandbox preserve-libs sandbox userpriv usersandbox
 * FEATURES='userpriv ipc-sandbox sandbox unmerge-logs userfetch sfperms strict-keepdir assume-digests binpkg-docompress binpkg-logs binpkg-dostrip nodoc distlocks qa-unresolved-soname-deps cgroup pid-sandbox binpkg-multi-instance downgrade-backup usersandbox strict ccache unmerge-backup fixlafiles multilib-strict parallel-install compress-index config-protect-if-modified unknown-features-warn buildpkg network-sandbox unmerge-orphans parallel-fetch xattr preserve-libs merge-sync news usersync'
 * CFLAGS='-march=native -O3 -fdevirtualize-at-ltrans -fipa-pta -fno-semantic-interposition -fno-math-errno -fno-trapping-math -fno-plt -fuse-linker-plugin -pipe -g0 -fno-stack-protector -fno-stack-clash-protection -fstack-check=no -fno-stack-check -Wl,-O4,--hash-style=gnu,--sort-common,--as-needed,-z,relro,-z,now,-lgomp,-lpthread'
 * CXXFLAGS='-march=native -O3 -fdevirtualize-at-ltrans -fipa-pta -fno-semantic-interposition -fno-math-errno -fno-trapping-math -fno-plt -fuse-linker-plugin -pipe -g0 -fno-stack-protector -fno-stack-clash-protection -fstack-check=no -fno-stack-check -Wl,-O4,--hash-style=gnu,--sort-common,--as-needed,-z,relro,-z,now,-lgomp,-lpthread'
 * FFLAGS='-march=native -O3 -fdevirtualize-at-ltrans -fipa-pta -fno-semantic-interposition -fno-math-errno -fno-trapping-math -fno-plt -fuse-linker-plugin -pipe -g0 -fno-stack-protector -fno-stack-clash-protection -fstack-check=no -fno-stack-check -Wl,-O4,--hash-style=gnu,--sort-common,--as-needed,-z,relro,-z,now,-lgomp,-lpthread'
 * FCFLAGS='-march=native -O3 -fdevirtualize-at-ltrans -fipa-pta -fno-semantic-interposition -fno-math-errno -fno-trapping-math -fno-plt -fuse-linker-plugin -pipe -g0 -fno-stack-protector -fno-stack-clash-protection -fstack-check=no -fno-stack-check -Wl,-O4,--hash-style=gnu,--sort-common,--as-needed,-z,relro,-z,now,-lgomp,-lpthread'
 * F77FLAGS='-march=native -O3 -fdevirtualize-at-ltrans -fipa-pta -fno-semantic-interposition -fno-math-errno -fno-trapping-math -fno-plt -fuse-linker-plugin -pipe -g0 -fno-stack-protector -fno-stack-clash-protection -fstack-check=no -fno-stack-check -Wl,-O4,--hash-style=gnu,--sort-common,--as-needed,-z,relro,-z,now,-lgomp,-lpthread'
 * LDFLAGS='-Wl,-O4,--hash-style=gnu,--sort-common,--as-needed,-z,relro,-z,now,-lgomp,-lpthread'
 * MAKEOPTS='-j12'
 * gcc (Gentoo 10.1.0 p1) 10.1.0
 * g++ (Gentoo 10.1.0 p1) 10.1.0
 * GNU ld (Gentoo 9999 p5) 2.34.50.20200520
 * Linux ryzen.gnum.org 5.4.36 #1 SMP Thu Apr 30 04:38:28 UTC 2020 x86_64 AMD Ryzen 5 3600 6-Core Processor AuthenticAMD GNU/Linux
]0;emerge 08:36:43 1589956603:  >>> AUTOCLEAN: dev-lang/ruby:2.4 fixtures (root@ryzen.gnum.org)>>> Extracting dev-python/fixtures-3.0.0
 * checking 738 files for package collisions
>>> Merging dev-python/fixtures-3.0.0 to /
 * removing unneeded *.la files
--- /usr/
--- /usr/lib64/
--- /usr/lib64/python2.7/
--- /usr/lib64/python2.7/site-packages/
>>> /usr/lib64/python2.7/site-packages/fixtures-3.0.0-py2.7.egg-info/
>>> /usr/lib64/python2.7/site-packages/fixtures-3.0.0-py2.7.egg-info/requires.txt
>>> /usr/lib64/python2.7/site-packages/fixtures-3.0.0-py2.7.egg-info/PKG-INFO
>>> /usr/lib64/python2.7/site-packages/fixtures-3.0.0-py2.7.egg-info/dependency_links.txt
>>> /usr/lib64/python2.7/site-packages/fixtures-3.0.0-py2.7.egg-info/not-zip-safe
>>> /usr/lib64/python2.7/site-packages/fixtures-3.0.0-py2.7.egg-info/pbr.json
>>> /usr/lib64/python2.7/site-packages/fixtures-3.0.0-py2.7.egg-info/SOURCES.txt
>>> /usr/lib64/python2.7/site-packages/fixtures-3.0.0-py2.7.egg-info/top_level.txt
>>> /usr/lib64/python2.7/site-packages/fixtures/
>>> /usr/lib64/python2.7/site-packages/fixtures/__init__.pyc
>>> /usr/lib64/python2.7/site-packages/fixtures/fixture.pyc
>>> /usr/lib64/python2.7/site-packages/fixtures/fixture.py
>>> /usr/lib64/python2.7/site-packages/fixtures/testcase.pyo
>>> /usr/lib64/python2.7/site-packages/fixtures/callmany.pyo
>>> /usr/lib64/python2.7/site-packages/fixtures/testcase.pyc
>>> /usr/lib64/python2.7/site-packages/fixtures/tests/
>>> /usr/lib64/python2.7/site-packages/fixtures/tests/test_callmany.py
>>> /usr/lib64/python2.7/site-packages/fixtures/tests/__init__.pyc
>>> /usr/lib64/python2.7/site-packages/fixtures/tests/test_testcase.py
>>> /usr/lib64/python2.7/site-packages/fixtures/tests/helpers.pyc
>>> /usr/lib64/python2.7/site-packages/fixtures/tests/helpers.pyo
>>> /usr/lib64/python2.7/site-packages/fixtures/tests/test_testcase.pyc
>>> /usr/lib64/python2.7/site-packages/fixtures/tests/test_testcase.pyo
>>> /usr/lib64/python2.7/site-packages/fixtures/tests/test_callmany.pyo
>>> /usr/lib64/python2.7/site-packages/fixtures/tests/__init__.py
>>> /usr/lib64/python2.7/site-packages/fixtures/tests/test_callmany.pyc
>>> /usr/lib64/python2.7/site-packages/fixtures/tests/test_fixture.pyc
>>> /usr/lib64/python2.7/site-packages/fixtures/tests/test_fixture.py
>>> /usr/lib64/python2.7/site-packages/fixtures/tests/__init__.pyo
>>> /usr/lib64/python2.7/site-packages/fixtures/tests/test_fixture.pyo
>>> /usr/lib64/python2.7/site-packages/fixtures/tests/_fixtures/
>>> /usr/lib64/python2.7/site-packages/fixtures/tests/_fixtures/__init__.pyc
>>> /usr/lib64/python2.7/site-packages/fixtures/tests/_fixtures/test_environ.pyc
>>> /usr/lib64/python2.7/site-packages/fixtures/tests/_fixtures/test_tempdir.pyc
>>> /usr/lib64/python2.7/site-packages/fixtures/tests/_fixtures/test_packagepath.py
>>> /usr/lib64/python2.7/site-packages/fixtures/tests/_fixtures/test_monkeypatch.pyc
>>> /usr/lib64/python2.7/site-packages/fixtures/tests/_fixtures/test_environ.py
>>> /usr/lib64/python2.7/site-packages/fixtures/tests/_fixtures/test_temphomedir.pyc
>>> /usr/lib64/python2.7/site-packages/fixtures/tests/_fixtures/test_mockpatch.py
>>> /usr/lib64/python2.7/site-packages/fixtures/tests/_fixtures/test_warnings.pyo
>>> /usr/lib64/python2.7/site-packages/fixtures/tests/_fixtures/test_temphomedir.py
>>> /usr/lib64/python2.7/site-packages/fixtures/tests/_fixtures/test_pythonpackage.py
>>> /usr/lib64/python2.7/site-packages/fixtures/tests/_fixtures/test_streams.py
>>> /usr/lib64/python2.7/site-packages/fixtures/tests/_fixtures/test_tempdir.py
>>> /usr/lib64/python2.7/site-packages/fixtures/tests/_fixtures/test_pythonpath.pyc
>>> /usr/lib64/python2.7/site-packages/fixtures/tests/_fixtures/test_logger.pyc
>>> /usr/lib64/python2.7/site-packages/fixtures/tests/_fixtures/test_pythonpackage.pyo
>>> /usr/lib64/python2.7/site-packages/fixtures/tests/_fixtures/test_logger.py
>>> /usr/lib64/python2.7/site-packages/fixtures/tests/_fixtures/test_tempdir.pyo
>>> /usr/lib64/python2.7/site-packages/fixtures/tests/_fixtures/test_warnings.pyc
>>> /usr/lib64/python2.7/site-packages/fixtures/tests/_fixtures/test_timeout.py
>>> /usr/lib64/python2.7/site-packages/fixtures/tests/_fixtures/test_logger.pyo
>>> /usr/lib64/python2.7/site-packages/fixtures/tests/_fixtures/test_monkeypatch.py
>>> /usr/lib64/python2.7/site-packages/fixtures/tests/_fixtures/test_environ.pyo
>>> /usr/lib64/python2.7/site-packages/fixtures/tests/_fixtures/test_popen.pyo
>>> /usr/lib64/python2.7/site-packages/fixtures/tests/_fixtures/test_mockpatch.pyo
>>> /usr/lib64/python2.7/site-packages/fixtures/tests/_fixtures/test_timeout.pyc
>>> /usr/lib64/python2.7/site-packages/fixtures/tests/_fixtures/test_warnings.py
>>> /usr/lib64/python2.7/site-packages/fixtures/tests/_fixtures/test_pythonpath.pyo
>>> /usr/lib64/python2.7/site-packages/fixtures/tests/_fixtures/test_temphomedir.pyo
>>> /usr/lib64/python2.7/site-packages/fixtures/tests/_fixtures/test_pythonpackage.pyc
>>> /usr/lib64/python2.7/site-packages/fixtures/tests/_fixtures/__init__.py
>>> /usr/lib64/python2.7/site-packages/fixtures/tests/_fixtures/__init__.pyo
>>> /usr/lib64/python2.7/site-packages/fixtures/tests/_fixtures/test_popen.py
>>> /usr/lib64/python2.7/site-packages/fixtures/tests/_fixtures/test_mockpatch.pyc
>>> /usr/lib64/python2.7/site-packages/fixtures/tests/_fixtures/test_streams.pyo
>>> /usr/lib64/python2.7/site-packages/fixtures/tests/_fixtures/test_packagepath.pyo
>>> /usr/lib64/python2.7/site-packages/fixtures/tests/_fixtures/test_streams.pyc
>>> /usr/lib64/python2.7/site-packages/fixtures/tests/_fixtures/test_pythonpath.py
>>> /usr/lib64/python2.7/site-packages/fixtures/tests/_fixtures/test_monkeypatch.pyo
>>> /usr/lib64/python2.7/site-packages/fixtures/tests/_fixtures/test_popen.pyc
>>> /usr/lib64/python2.7/site-packages/fixtures/tests/_fixtures/test_timeout.pyo
>>> /usr/lib64/python2.7/site-packages/fixtures/tests/_fixtures/test_packagepath.pyc
>>> /usr/lib64/python2.7/site-packages/fixtures/tests/helpers.py
>>> /usr/lib64/python2.7/site-packages/fixtures/__init__.py
>>> /usr/lib64/python2.7/site-packages/fixtures/callmany.py
>>> /usr/lib64/python2.7/site-packages/fixtures/fixture.pyo
>>> /usr/lib64/python2.7/site-packages/fixtures/__init__.pyo
>>> /usr/lib64/python2.7/site-packages/fixtures/callmany.pyc
>>> /usr/lib64/python2.7/site-packages/fixtures/testcase.py
>>> /usr/lib64/python2.7/site-packages/fixtures/_fixtures/
>>> /usr/lib64/python2.7/site-packages/fixtures/_fixtures/tempdir.pyc
>>> /usr/lib64/python2.7/site-packages/fixtures/_fixtures/timeout.pyo
>>> /usr/lib64/python2.7/site-packages/fixtures/_fixtures/timeout.pyc
>>> /usr/lib64/python2.7/site-packages/fixtures/_fixtures/environ.py
>>> /usr/lib64/python2.7/site-packages/fixtures/_fixtures/__init__.pyc
>>> /usr/lib64/python2.7/site-packages/fixtures/_fixtures/mockpatch.pyo
>>> /usr/lib64/python2.7/site-packages/fixtures/_fixtures/warnings.pyc
>>> /usr/lib64/python2.7/site-packages/fixtures/_fixtures/warnings.py
>>> /usr/lib64/python2.7/site-packages/fixtures/_fixtures/environ.pyo
>>> /usr/lib64/python2.7/site-packages/fixtures/_fixtures/mockpatch.py
>>> /usr/lib64/python2.7/site-packages/fixtures/_fixtures/monkeypatch.pyc
>>> /usr/lib64/python2.7/site-packages/fixtures/_fixtures/popen.py
>>> /usr/lib64/python2.7/site-packages/fixtures/_fixtures/temphomedir.pyc
>>> /usr/lib64/python2.7/site-packages/fixtures/_fixtures/pythonpath.pyc
>>> /usr/lib64/python2.7/site-packages/fixtures/_fixtures/pythonpackage.pyc
>>> /usr/lib64/python2.7/site-packages/fixtures/_fixtures/tempdir.py
>>> /usr/lib64/python2.7/site-packages/fixtures/_fixtures/monkeypatch.py
>>> /usr/lib64/python2.7/site-packages/fixtures/_fixtures/pythonpath.py
>>> /usr/lib64/python2.7/site-packages/fixtures/_fixtures/packagepath.pyc
>>> /usr/lib64/python2.7/site-packages/fixtures/_fixtures/logger.pyc
>>> /usr/lib64/python2.7/site-packages/fixtures/_fixtures/mockpatch.pyc
>>> /usr/lib64/python2.7/site-packages/fixtures/_fixtures/popen.pyo
>>> /usr/lib64/python2.7/site-packages/fixtures/_fixtures/streams.py
>>> /usr/lib64/python2.7/site-packages/fixtures/_fixtures/environ.pyc
>>> /usr/lib64/python2.7/site-packages/fixtures/_fixtures/logger.py
>>> /usr/lib64/python2.7/site-packages/fixtures/_fixtures/warnings.pyo
>>> /usr/lib64/python2.7/site-packages/fixtures/_fixtures/pythonpath.pyo
>>> /usr/lib64/python2.7/site-packages/fixtures/_fixtures/monkeypatch.pyo
>>> /usr/lib64/python2.7/site-packages/fixtures/_fixtures/streams.pyc
>>> /usr/lib64/python2.7/site-packages/fixtures/_fixtures/packagepath.pyo
>>> /usr/lib64/python2.7/site-packages/fixtures/_fixtures/__init__.py
>>> /usr/lib64/python2.7/site-packages/fixtures/_fixtures/streams.pyo
>>> /usr/lib64/python2.7/site-packages/fixtures/_fixtures/tempdir.pyo
>>> /usr/lib64/python2.7/site-packages/fixtures/_fixtures/packagepath.py
>>> /usr/lib64/python2.7/site-packages/fixtures/_fixtures/logger.pyo
>>> /usr/lib64/python2.7/site-packages/fixtures/_fixtures/temphomedir.pyo
>>> /usr/lib64/python2.7/site-packages/fixtures/_fixtures/timeout.py
>>> /usr/lib64/python2.7/site-packages/fixtures/_fixtures/pythonpackage.pyo
>>> /usr/lib64/python2.7/site-packages/fixtures/_fixtures/__init__.pyo
>>> /usr/lib64/python2.7/site-packages/fixtures/_fixtures/popen.pyc
>>> /usr/lib64/python2.7/site-packages/fixtures/_fixtures/temphomedir.py
>>> /usr/lib64/python2.7/site-packages/fixtures/_fixtures/pythonpackage.py
--- /usr/lib64/python3.6/
--- /usr/lib64/python3.6/site-packages/
>>> /usr/lib64/python3.6/site-packages/fixtures/
>>> /usr/lib64/python3.6/site-packages/fixtures/__pycache__/
>>> /usr/lib64/python3.6/site-packages/fixtures/__pycache__/__init__.cpython-36.pyc
>>> /usr/lib64/python3.6/site-packages/fixtures/__pycache__/testcase.cpython-36.opt-2.pyc
>>> /usr/lib64/python3.6/site-packages/fixtures/__pycache__/__init__.cpython-36.opt-1.pyc
>>> /usr/lib64/python3.6/site-packages/fixtures/__pycache__/testcase.cpython-36.opt-1.pyc
>>> /usr/lib64/python3.6/site-packages/fixtures/__pycache__/fixture.cpython-36.opt-2.pyc
>>> /usr/lib64/python3.6/site-packages/fixtures/__pycache__/fixture.cpython-36.pyc
>>> /usr/lib64/python3.6/site-packages/fixtures/__pycache__/__init__.cpython-36.opt-2.pyc
>>> /usr/lib64/python3.6/site-packages/fixtures/__pycache__/fixture.cpython-36.opt-1.pyc
>>> /usr/lib64/python3.6/site-packages/fixtures/__pycache__/callmany.cpython-36.opt-2.pyc
>>> /usr/lib64/python3.6/site-packages/fixtures/__pycache__/callmany.cpython-36.pyc
>>> /usr/lib64/python3.6/site-packages/fixtures/__pycache__/testcase.cpython-36.pyc
>>> /usr/lib64/python3.6/site-packages/fixtures/__pycache__/callmany.cpython-36.opt-1.pyc
>>> /usr/lib64/python3.6/site-packages/fixtures/fixture.py
>>> /usr/lib64/python3.6/site-packages/fixtures/tests/
>>> /usr/lib64/python3.6/site-packages/fixtures/tests/test_callmany.py
>>> /usr/lib64/python3.6/site-packages/fixtures/tests/test_testcase.py
>>> /usr/lib64/python3.6/site-packages/fixtures/tests/__pycache__/
>>> /usr/lib64/python3.6/site-packages/fixtures/tests/__pycache__/test_fixture.cpython-36.pyc
>>> /usr/lib64/python3.6/site-packages/fixtures/tests/__pycache__/test_testcase.cpython-36.opt-1.pyc
>>> /usr/lib64/python3.6/site-packages/fixtures/tests/__pycache__/test_testcase.cpython-36.pyc
>>> /usr/lib64/python3.6/site-packages/fixtures/tests/__pycache__/__init__.cpython-36.pyc
>>> /usr/lib64/python3.6/site-packages/fixtures/tests/__pycache__/test_fixture.cpython-36.opt-2.pyc
>>> /usr/lib64/python3.6/site-packages/fixtures/tests/__pycache__/__init__.cpython-36.opt-1.pyc
>>> /usr/lib64/python3.6/site-packages/fixtures/tests/__pycache__/helpers.cpython-36.pyc
>>> /usr/lib64/python3.6/site-packages/fixtures/tests/__pycache__/test_callmany.cpython-36.pyc
>>> /usr/lib64/python3.6/site-packages/fixtures/tests/__pycache__/test_fixture.cpython-36.opt-1.pyc
>>> /usr/lib64/python3.6/site-packages/fixtures/tests/__pycache__/test_testcase.cpython-36.opt-2.pyc
>>> /usr/lib64/python3.6/site-packages/fixtures/tests/__pycache__/__init__.cpython-36.opt-2.pyc
>>> /usr/lib64/python3.6/site-packages/fixtures/tests/__pycache__/helpers.cpython-36.opt-1.pyc
>>> /usr/lib64/python3.6/site-packages/fixtures/tests/__pycache__/helpers.cpython-36.opt-2.pyc
>>> /usr/lib64/python3.6/site-packages/fixtures/tests/__pycache__/test_callmany.cpython-36.opt-2.pyc
>>> /usr/lib64/python3.6/site-packages/fixtures/tests/__pycache__/test_callmany.cpython-36.opt-1.pyc
>>> /usr/lib64/python3.6/site-packages/fixtures/tests/__init__.py
>>> /usr/lib64/python3.6/site-packages/fixtures/tests/test_fixture.py
>>> /usr/lib64/python3.6/site-packages/fixtures/tests/_fixtures/
>>> /usr/lib64/python3.6/site-packages/fixtures/tests/_fixtures/test_packagepath.py
>>> /usr/lib64/python3.6/site-packages/fixtures/tests/_fixtures/test_environ.py
>>> /usr/lib64/python3.6/site-packages/fixtures/tests/_fixtures/test_mockpatch.py
>>> /usr/lib64/python3.6/site-packages/fixtures/tests/_fixtures/test_temphomedir.py
>>> /usr/lib64/python3.6/site-packages/fixtures/tests/_fixtures/test_pythonpackage.py
>>> /usr/lib64/python3.6/site-packages/fixtures/tests/_fixtures/test_streams.py
>>> /usr/lib64/python3.6/site-packages/fixtures/tests/_fixtures/__pycache__/
>>> /usr/lib64/python3.6/site-packages/fixtures/tests/_fixtures/__pycache__/test_packagepath.cpython-36.opt-1.pyc
>>> /usr/lib64/python3.6/site-packages/fixtures/tests/_fixtures/__pycache__/test_pythonpackage.cpython-36.pyc
>>> /usr/lib64/python3.6/site-packages/fixtures/tests/_fixtures/__pycache__/test_environ.cpython-36.opt-1.pyc
>>> /usr/lib64/python3.6/site-packages/fixtures/tests/_fixtures/__pycache__/test_logger.cpython-36.opt-2.pyc
>>> /usr/lib64/python3.6/site-packages/fixtures/tests/_fixtures/__pycache__/__init__.cpython-36.pyc
>>> /usr/lib64/python3.6/site-packages/fixtures/tests/_fixtures/__pycache__/test_timeout.cpython-36.opt-2.pyc
>>> /usr/lib64/python3.6/site-packages/fixtures/tests/_fixtures/__pycache__/test_tempdir.cpython-36.pyc
>>> /usr/lib64/python3.6/site-packages/fixtures/tests/_fixtures/__pycache__/test_environ.cpython-36.pyc
>>> /usr/lib64/python3.6/site-packages/fixtures/tests/_fixtures/__pycache__/test_warnings.cpython-36.opt-2.pyc
>>> /usr/lib64/python3.6/site-packages/fixtures/tests/_fixtures/__pycache__/test_logger.cpython-36.opt-1.pyc
>>> /usr/lib64/python3.6/site-packages/fixtures/tests/_fixtures/__pycache__/test_logger.cpython-36.pyc
>>> /usr/lib64/python3.6/site-packages/fixtures/tests/_fixtures/__pycache__/__init__.cpython-36.opt-1.pyc
>>> /usr/lib64/python3.6/site-packages/fixtures/tests/_fixtures/__pycache__/test_streams.cpython-36.opt-2.pyc
>>> /usr/lib64/python3.6/site-packages/fixtures/tests/_fixtures/__pycache__/test_timeout.cpython-36.opt-1.pyc
>>> /usr/lib64/python3.6/site-packages/fixtures/tests/_fixtures/__pycache__/test_temphomedir.cpython-36.pyc
>>> /usr/lib64/python3.6/site-packages/fixtures/tests/_fixtures/__pycache__/test_monkeypatch.cpython-36.opt-1.pyc
>>> /usr/lib64/python3.6/site-packages/fixtures/tests/_fixtures/__pycache__/test_mockpatch.cpython-36.opt-1.pyc
>>> /usr/lib64/python3.6/site-packages/fixtures/tests/_fixtures/__pycache__/test_temphomedir.cpython-36.opt-1.pyc
>>> /usr/lib64/python3.6/site-packages/fixtures/tests/_fixtures/__pycache__/test_monkeypatch.cpython-36.pyc
>>> /usr/lib64/python3.6/site-packages/fixtures/tests/_fixtures/__pycache__/test_monkeypatch.cpython-36.opt-2.pyc
>>> /usr/lib64/python3.6/site-packages/fixtures/tests/_fixtures/__pycache__/test_tempdir.cpython-36.opt-1.pyc
>>> /usr/lib64/python3.6/site-packages/fixtures/tests/_fixtures/__pycache__/test_tempdir.cpython-36.opt-2.pyc
>>> /usr/lib64/python3.6/site-packages/fixtures/tests/_fixtures/__pycache__/test_popen.cpython-36.opt-1.pyc
>>> /usr/lib64/python3.6/site-packages/fixtures/tests/_fixtures/__pycache__/__init__.cpython-36.opt-2.pyc
>>> /usr/lib64/python3.6/site-packages/fixtures/tests/_fixtures/__pycache__/test_streams.cpython-36.pyc
>>> /usr/lib64/python3.6/site-packages/fixtures/tests/_fixtures/__pycache__/test_pythonpath.cpython-36.pyc
>>> /usr/lib64/python3.6/site-packages/fixtures/tests/_fixtures/__pycache__/test_packagepath.cpython-36.pyc
>>> /usr/lib64/python3.6/site-packages/fixtures/tests/_fixtures/__pycache__/test_temphomedir.cpython-36.opt-2.pyc
>>> /usr/lib64/python3.6/site-packages/fixtures/tests/_fixtures/__pycache__/test_packagepath.cpython-36.opt-2.pyc
>>> /usr/lib64/python3.6/site-packages/fixtures/tests/_fixtures/__pycache__/test_pythonpath.cpython-36.opt-2.pyc
>>> /usr/lib64/python3.6/site-packages/fixtures/tests/_fixtures/__pycache__/test_timeout.cpython-36.pyc
>>> /usr/lib64/python3.6/site-packages/fixtures/tests/_fixtures/__pycache__/test_streams.cpython-36.opt-1.pyc
>>> /usr/lib64/python3.6/site-packages/fixtures/tests/_fixtures/__pycache__/test_mockpatch.cpython-36.opt-2.pyc
>>> /usr/lib64/python3.6/site-packages/fixtures/tests/_fixtures/__pycache__/test_popen.cpython-36.opt-2.pyc
>>> /usr/lib64/python3.6/site-packages/fixtures/tests/_fixtures/__pycache__/test_pythonpackage.cpython-36.opt-1.pyc
>>> /usr/lib64/python3.6/site-packages/fixtures/tests/_fixtures/__pycache__/test_warnings.cpython-36.opt-1.pyc
>>> /usr/lib64/python3.6/site-packages/fixtures/tests/_fixtures/__pycache__/test_pythonpath.cpython-36.opt-1.pyc
>>> /usr/lib64/python3.6/site-packages/fixtures/tests/_fixtures/__pycache__/test_mockpatch.cpython-36.pyc
>>> /usr/lib64/python3.6/site-packages/fixtures/tests/_fixtures/__pycache__/test_environ.cpython-36.opt-2.pyc
>>> /usr/lib64/python3.6/site-packages/fixtures/tests/_fixtures/__pycache__/test_popen.cpython-36.pyc
>>> /usr/lib64/python3.6/site-packages/fixtures/tests/_fixtures/__pycache__/test_warnings.cpython-36.pyc
>>> /usr/lib64/python3.6/site-packages/fixtures/tests/_fixtures/__pycache__/test_pythonpackage.cpython-36.opt-2.pyc
>>> /usr/lib64/python3.6/site-packages/fixtures/tests/_fixtures/test_tempdir.py
>>> /usr/lib64/python3.6/site-packages/fixtures/tests/_fixtures/test_logger.py
>>> /usr/lib64/python3.6/site-packages/fixtures/tests/_fixtures/test_timeout.py
>>> /usr/lib64/python3.6/site-packages/fixtures/tests/_fixtures/test_monkeypatch.py
>>> /usr/lib64/python3.6/site-packages/fixtures/tests/_fixtures/test_warnings.py
>>> /usr/lib64/python3.6/site-packages/fixtures/tests/_fixtures/__init__.py
>>> /usr/lib64/python3.6/site-packages/fixtures/tests/_fixtures/test_popen.py
>>> /usr/lib64/python3.6/site-packages/fixtures/tests/_fixtures/test_pythonpath.py
>>> /usr/lib64/python3.6/site-packages/fixtures/tests/helpers.py
>>> /usr/lib64/python3.6/site-packages/fixtures/__init__.py
>>> /usr/lib64/python3.6/site-packages/fixtures/callmany.py
>>> /usr/lib64/python3.6/site-packages/fixtures/testcase.py
>>> /usr/lib64/python3.6/site-packages/fixtures/_fixtures/
>>> /usr/lib64/python3.6/site-packages/fixtures/_fixtures/environ.py
>>> /usr/lib64/python3.6/site-packages/fixtures/_fixtures/warnings.py
>>> /usr/lib64/python3.6/site-packages/fixtures/_fixtures/mockpatch.py
>>> /usr/lib64/python3.6/site-packages/fixtures/_fixtures/popen.py
>>> /usr/lib64/python3.6/site-packages/fixtures/_fixtures/__pycache__/
>>> /usr/lib64/python3.6/site-packages/fixtures/_fixtures/__pycache__/temphomedir.cpython-36.pyc
>>> /usr/lib64/python3.6/site-packages/fixtures/_fixtures/__pycache__/popen.cpython-36.pyc
>>> /usr/lib64/python3.6/site-packages/fixtures/_fixtures/__pycache__/pythonpath.cpython-36.opt-2.pyc
>>> /usr/lib64/python3.6/site-packages/fixtures/_fixtures/__pycache__/mockpatch.cpython-36.opt-1.pyc
>>> /usr/lib64/python3.6/site-packages/fixtures/_fixtures/__pycache__/pythonpath.cpython-36.pyc
>>> /usr/lib64/python3.6/site-packages/fixtures/_fixtures/__pycache__/__init__.cpython-36.pyc
>>> /usr/lib64/python3.6/site-packages/fixtures/_fixtures/__pycache__/packagepath.cpython-36.pyc
>>> /usr/lib64/python3.6/site-packages/fixtures/_fixtures/__pycache__/logger.cpython-36.opt-2.pyc
>>> /usr/lib64/python3.6/site-packages/fixtures/_fixtures/__pycache__/pythonpackage.cpython-36.opt-1.pyc
>>> /usr/lib64/python3.6/site-packages/fixtures/_fixtures/__pycache__/temphomedir.cpython-36.opt-1.pyc
>>> /usr/lib64/python3.6/site-packages/fixtures/_fixtures/__pycache__/pythonpath.cpython-36.opt-1.pyc
>>> /usr/lib64/python3.6/site-packages/fixtures/_fixtures/__pycache__/monkeypatch.cpython-36.pyc
>>> /usr/lib64/python3.6/site-packages/fixtures/_fixtures/__pycache__/__init__.cpython-36.opt-1.pyc
>>> /usr/lib64/python3.6/site-packages/fixtures/_fixtures/__pycache__/pythonpackage.cpython-36.pyc
>>> /usr/lib64/python3.6/site-packages/fixtures/_fixtures/__pycache__/monkeypatch.cpython-36.opt-2.pyc
>>> /usr/lib64/python3.6/site-packages/fixtures/_fixtures/__pycache__/packagepath.cpython-36.opt-2.pyc
>>> /usr/lib64/python3.6/site-packages/fixtures/_fixtures/__pycache__/popen.cpython-36.opt-2.pyc
>>> /usr/lib64/python3.6/site-packages/fixtures/_fixtures/__pycache__/pythonpackage.cpython-36.opt-2.pyc
>>> /usr/lib64/python3.6/site-packages/fixtures/_fixtures/__pycache__/warnings.cpython-36.pyc
>>> /usr/lib64/python3.6/site-packages/fixtures/_fixtures/__pycache__/warnings.cpython-36.opt-2.pyc
>>> /usr/lib64/python3.6/site-packages/fixtures/_fixtures/__pycache__/streams.cpython-36.pyc
>>> /usr/lib64/python3.6/site-packages/fixtures/_fixtures/__pycache__/streams.cpython-36.opt-1.pyc
>>> /usr/lib64/python3.6/site-packages/fixtures/_fixtures/__pycache__/environ.cpython-36.pyc
>>> /usr/lib64/python3.6/site-packages/fixtures/_fixtures/__pycache__/temphomedir.cpython-36.opt-2.pyc
>>> /usr/lib64/python3.6/site-packages/fixtures/_fixtures/__pycache__/timeout.cpython-36.opt-1.pyc
>>> /usr/lib64/python3.6/site-packages/fixtures/_fixtures/__pycache__/streams.cpython-36.opt-2.pyc
>>> /usr/lib64/python3.6/site-packages/fixtures/_fixtures/__pycache__/environ.cpython-36.opt-2.pyc
>>> /usr/lib64/python3.6/site-packages/fixtures/_fixtures/__pycache__/tempdir.cpython-36.pyc
>>> /usr/lib64/python3.6/site-packages/fixtures/_fixtures/__pycache__/packagepath.cpython-36.opt-1.pyc
>>> /usr/lib64/python3.6/site-packages/fixtures/_fixtures/__pycache__/popen.cpython-36.opt-1.pyc
>>> /usr/lib64/python3.6/site-packages/fixtures/_fixtures/__pycache__/environ.cpython-36.opt-1.pyc
>>> /usr/lib64/python3.6/site-packages/fixtures/_fixtures/__pycache__/__init__.cpython-36.opt-2.pyc
>>> /usr/lib64/python3.6/site-packages/fixtures/_fixtures/__pycache__/monkeypatch.cpython-36.opt-1.pyc
>>> /usr/lib64/python3.6/site-packages/fixtures/_fixtures/__pycache__/warnings.cpython-36.opt-1.pyc
>>> /usr/lib64/python3.6/site-packages/fixtures/_fixtures/__pycache__/mockpatch.cpython-36.opt-2.pyc
>>> /usr/lib64/python3.6/site-packages/fixtures/_fixtures/__pycache__/tempdir.cpython-36.opt-2.pyc
>>> /usr/lib64/python3.6/site-packages/fixtures/_fixtures/__pycache__/timeout.cpython-36.pyc
>>> /usr/lib64/python3.6/site-packages/fixtures/_fixtures/__pycache__/mockpatch.cpython-36.pyc
>>> /usr/lib64/python3.6/site-packages/fixtures/_fixtures/__pycache__/tempdir.cpython-36.opt-1.pyc
>>> /usr/lib64/python3.6/site-packages/fixtures/_fixtures/__pycache__/logger.cpython-36.pyc
>>> /usr/lib64/python3.6/site-packages/fixtures/_fixtures/__pycache__/timeout.cpython-36.opt-2.pyc
>>> /usr/lib64/python3.6/site-packages/fixtures/_fixtures/__pycache__/logger.cpython-36.opt-1.pyc
>>> /usr/lib64/python3.6/site-packages/fixtures/_fixtures/tempdir.py
>>> /usr/lib64/python3.6/site-packages/fixtures/_fixtures/monkeypatch.py
>>> /usr/lib64/python3.6/site-packages/fixtures/_fixtures/pythonpath.py
>>> /usr/lib64/python3.6/site-packages/fixtures/_fixtures/streams.py
>>> /usr/lib64/python3.6/site-packages/fixtures/_fixtures/logger.py
>>> /usr/lib64/python3.6/site-packages/fixtures/_fixtures/__init__.py
>>> /usr/lib64/python3.6/site-packages/fixtures/_fixtures/packagepath.py
>>> /usr/lib64/python3.6/site-packages/fixtures/_fixtures/timeout.py
>>> /usr/lib64/python3.6/site-packages/fixtures/_fixtures/temphomedir.py
>>> /usr/lib64/python3.6/site-packages/fixtures/_fixtures/pythonpackage.py
>>> /usr/lib64/python3.6/site-packages/fixtures-3.0.0-py3.6.egg-info/
>>> /usr/lib64/python3.6/site-packages/fixtures-3.0.0-py3.6.egg-info/requires.txt
>>> /usr/lib64/python3.6/site-packages/fixtures-3.0.0-py3.6.egg-info/PKG-INFO
>>> /usr/lib64/python3.6/site-packages/fixtures-3.0.0-py3.6.egg-info/dependency_links.txt
>>> /usr/lib64/python3.6/site-packages/fixtures-3.0.0-py3.6.egg-info/not-zip-safe
>>> /usr/lib64/python3.6/site-packages/fixtures-3.0.0-py3.6.egg-info/pbr.json
>>> /usr/lib64/python3.6/site-packages/fixtures-3.0.0-py3.6.egg-info/SOURCES.txt
>>> /usr/lib64/python3.6/site-packages/fixtures-3.0.0-py3.6.egg-info/top_level.txt
--- /usr/lib/
--- /usr/lib/pypy3.6/
--- /usr/lib/pypy3.6/site-packages/
>>> /usr/lib/pypy3.6/site-packages/fixtures/
>>> /usr/lib/pypy3.6/site-packages/fixtures/__pycache__/
>>> /usr/lib/pypy3.6/site-packages/fixtures/__pycache__/fixture.pypy36.opt-1.pyc
>>> /usr/lib/pypy3.6/site-packages/fixtures/__pycache__/__init__.pypy36.opt-1.pyc
>>> /usr/lib/pypy3.6/site-packages/fixtures/__pycache__/fixture.pypy36.opt-2.pyc
>>> /usr/lib/pypy3.6/site-packages/fixtures/__pycache__/callmany.pypy36.opt-2.pyc
>>> /usr/lib/pypy3.6/site-packages/fixtures/__pycache__/__init__.pypy36.opt-2.pyc
>>> /usr/lib/pypy3.6/site-packages/fixtures/__pycache__/callmany.pypy36.pyc
>>> /usr/lib/pypy3.6/site-packages/fixtures/__pycache__/testcase.pypy36.opt-1.pyc
>>> /usr/lib/pypy3.6/site-packages/fixtures/__pycache__/fixture.pypy36.pyc
>>> /usr/lib/pypy3.6/site-packages/fixtures/__pycache__/__init__.pypy36.pyc
>>> /usr/lib/pypy3.6/site-packages/fixtures/__pycache__/callmany.pypy36.opt-1.pyc
>>> /usr/lib/pypy3.6/site-packages/fixtures/__pycache__/testcase.pypy36.pyc
>>> /usr/lib/pypy3.6/site-packages/fixtures/__pycache__/testcase.pypy36.opt-2.pyc
>>> /usr/lib/pypy3.6/site-packages/fixtures/fixture.py
>>> /usr/lib/pypy3.6/site-packages/fixtures/tests/
>>> /usr/lib/pypy3.6/site-packages/fixtures/tests/test_callmany.py
>>> /usr/lib/pypy3.6/site-packages/fixtures/tests/test_testcase.py
>>> /usr/lib/pypy3.6/site-packages/fixtures/tests/__pycache__/
>>> /usr/lib/pypy3.6/site-packages/fixtures/tests/__pycache__/__init__.pypy36.opt-1.pyc
>>> /usr/lib/pypy3.6/site-packages/fixtures/tests/__pycache__/test_testcase.pypy36.pyc
>>> /usr/lib/pypy3.6/site-packages/fixtures/tests/__pycache__/__init__.pypy36.opt-2.pyc
>>> /usr/lib/pypy3.6/site-packages/fixtures/tests/__pycache__/test_fixture.pypy36.opt-2.pyc
>>> /usr/lib/pypy3.6/site-packages/fixtures/tests/__pycache__/test_testcase.pypy36.opt-1.pyc
>>> /usr/lib/pypy3.6/site-packages/fixtures/tests/__pycache__/__init__.pypy36.pyc
>>> /usr/lib/pypy3.6/site-packages/fixtures/tests/__pycache__/test_testcase.pypy36.opt-2.pyc
>>> /usr/lib/pypy3.6/site-packages/fixtures/tests/__pycache__/helpers.pypy36.opt-1.pyc
>>> /usr/lib/pypy3.6/site-packages/fixtures/tests/__pycache__/test_callmany.pypy36.opt-1.pyc
>>> /usr/lib/pypy3.6/site-packages/fixtures/tests/__pycache__/test_fixture.pypy36.pyc
>>> /usr/lib/pypy3.6/site-packages/fixtures/tests/__pycache__/helpers.pypy36.pyc
>>> /usr/lib/pypy3.6/site-packages/fixtures/tests/__pycache__/test_callmany.pypy36.opt-2.pyc
>>> /usr/lib/pypy3.6/site-packages/fixtures/tests/__pycache__/test_fixture.pypy36.opt-1.pyc
>>> /usr/lib/pypy3.6/site-packages/fixtures/tests/__pycache__/test_callmany.pypy36.pyc
>>> /usr/lib/pypy3.6/site-packages/fixtures/tests/__pycache__/helpers.pypy36.opt-2.pyc
>>> /usr/lib/pypy3.6/site-packages/fixtures/tests/__init__.py
>>> /usr/lib/pypy3.6/site-packages/fixtures/tests/test_fixture.py
>>> /usr/lib/pypy3.6/site-packages/fixtures/tests/_fixtures/
>>> /usr/lib/pypy3.6/site-packages/fixtures/tests/_fixtures/test_packagepath.py
>>> /usr/lib/pypy3.6/site-packages/fixtures/tests/_fixtures/test_environ.py
>>> /usr/lib/pypy3.6/site-packages/fixtures/tests/_fixtures/test_mockpatch.py
>>> /usr/lib/pypy3.6/site-packages/fixtures/tests/_fixtures/test_temphomedir.py
>>> /usr/lib/pypy3.6/site-packages/fixtures/tests/_fixtures/test_pythonpackage.py
>>> /usr/lib/pypy3.6/site-packages/fixtures/tests/_fixtures/test_streams.py
>>> /usr/lib/pypy3.6/site-packages/fixtures/tests/_fixtures/__pycache__/
>>> /usr/lib/pypy3.6/site-packages/fixtures/tests/_fixtures/__pycache__/__init__.pypy36.opt-1.pyc
>>> /usr/lib/pypy3.6/site-packages/fixtures/tests/_fixtures/__pycache__/test_monkeypatch.pypy36.opt-1.pyc
>>> /usr/lib/pypy3.6/site-packages/fixtures/tests/_fixtures/__pycache__/test_temphomedir.pypy36.opt-1.pyc
>>> /usr/lib/pypy3.6/site-packages/fixtures/tests/_fixtures/__pycache__/test_logger.pypy36.pyc
>>> /usr/lib/pypy3.6/site-packages/fixtures/tests/_fixtures/__pycache__/test_popen.pypy36.pyc
>>> /usr/lib/pypy3.6/site-packages/fixtures/tests/_fixtures/__pycache__/test_pythonpackage.pypy36.opt-2.pyc
>>> /usr/lib/pypy3.6/site-packages/fixtures/tests/_fixtures/__pycache__/test_popen.pypy36.opt-1.pyc
>>> /usr/lib/pypy3.6/site-packages/fixtures/tests/_fixtures/__pycache__/__init__.pypy36.opt-2.pyc
>>> /usr/lib/pypy3.6/site-packages/fixtures/tests/_fixtures/__pycache__/test_tempdir.pypy36.opt-1.pyc
>>> /usr/lib/pypy3.6/site-packages/fixtures/tests/_fixtures/__pycache__/test_packagepath.pypy36.opt-2.pyc
>>> /usr/lib/pypy3.6/site-packages/fixtures/tests/_fixtures/__pycache__/test_mockpatch.pypy36.pyc
>>> /usr/lib/pypy3.6/site-packages/fixtures/tests/_fixtures/__pycache__/test_temphomedir.pypy36.opt-2.pyc
>>> /usr/lib/pypy3.6/site-packages/fixtures/tests/_fixtures/__pycache__/test_warnings.pypy36.pyc
>>> /usr/lib/pypy3.6/site-packages/fixtures/tests/_fixtures/__pycache__/test_mockpatch.pypy36.opt-1.pyc
>>> /usr/lib/pypy3.6/site-packages/fixtures/tests/_fixtures/__pycache__/test_warnings.pypy36.opt-1.pyc
>>> /usr/lib/pypy3.6/site-packages/fixtures/tests/_fixtures/__pycache__/__init__.pypy36.pyc
>>> /usr/lib/pypy3.6/site-packages/fixtures/tests/_fixtures/__pycache__/test_streams.pypy36.opt-1.pyc
>>> /usr/lib/pypy3.6/site-packages/fixtures/tests/_fixtures/__pycache__/test_pythonpackage.pypy36.pyc
>>> /usr/lib/pypy3.6/site-packages/fixtures/tests/_fixtures/__pycache__/test_popen.pypy36.opt-2.pyc
>>> /usr/lib/pypy3.6/site-packages/fixtures/tests/_fixtures/__pycache__/test_environ.pypy36.opt-1.pyc
>>> /usr/lib/pypy3.6/site-packages/fixtures/tests/_fixtures/__pycache__/test_tempdir.pypy36.opt-2.pyc
>>> /usr/lib/pypy3.6/site-packages/fixtures/tests/_fixtures/__pycache__/test_warnings.pypy36.opt-2.pyc
>>> /usr/lib/pypy3.6/site-packages/fixtures/tests/_fixtures/__pycache__/test_temphomedir.pypy36.pyc
>>> /usr/lib/pypy3.6/site-packages/fixtures/tests/_fixtures/__pycache__/test_mockpatch.pypy36.opt-2.pyc
>>> /usr/lib/pypy3.6/site-packages/fixtures/tests/_fixtures/__pycache__/test_timeout.pypy36.pyc
>>> /usr/lib/pypy3.6/site-packages/fixtures/tests/_fixtures/__pycache__/test_timeout.pypy36.opt-2.pyc
>>> /usr/lib/pypy3.6/site-packages/fixtures/tests/_fixtures/__pycache__/test_monkeypatch.pypy36.opt-2.pyc
>>> /usr/lib/pypy3.6/site-packages/fixtures/tests/_fixtures/__pycache__/test_pythonpath.pypy36.opt-2.pyc
>>> /usr/lib/pypy3.6/site-packages/fixtures/tests/_fixtures/__pycache__/test_monkeypatch.pypy36.pyc
>>> /usr/lib/pypy3.6/site-packages/fixtures/tests/_fixtures/__pycache__/test_pythonpath.pypy36.opt-1.pyc
>>> /usr/lib/pypy3.6/site-packages/fixtures/tests/_fixtures/__pycache__/test_tempdir.pypy36.pyc
>>> /usr/lib/pypy3.6/site-packages/fixtures/tests/_fixtures/__pycache__/test_pythonpath.pypy36.pyc
>>> /usr/lib/pypy3.6/site-packages/fixtures/tests/_fixtures/__pycache__/test_pythonpackage.pypy36.opt-1.pyc
>>> /usr/lib/pypy3.6/site-packages/fixtures/tests/_fixtures/__pycache__/test_logger.pypy36.opt-1.pyc
>>> /usr/lib/pypy3.6/site-packages/fixtures/tests/_fixtures/__pycache__/test_timeout.pypy36.opt-1.pyc
>>> /usr/lib/pypy3.6/site-packages/fixtures/tests/_fixtures/__pycache__/test_streams.pypy36.pyc
>>> /usr/lib/pypy3.6/site-packages/fixtures/tests/_fixtures/__pycache__/test_logger.pypy36.opt-2.pyc
>>> /usr/lib/pypy3.6/site-packages/fixtures/tests/_fixtures/__pycache__/test_environ.pypy36.opt-2.pyc
>>> /usr/lib/pypy3.6/site-packages/fixtures/tests/_fixtures/__pycache__/test_packagepath.pypy36.pyc
>>> /usr/lib/pypy3.6/site-packages/fixtures/tests/_fixtures/__pycache__/test_environ.pypy36.pyc
>>> /usr/lib/pypy3.6/site-packages/fixtures/tests/_fixtures/__pycache__/test_packagepath.pypy36.opt-1.pyc
>>> /usr/lib/pypy3.6/site-packages/fixtures/tests/_fixtures/__pycache__/test_streams.pypy36.opt-2.pyc
>>> /usr/lib/pypy3.6/site-packages/fixtures/tests/_fixtures/test_tempdir.py
>>> /usr/lib/pypy3.6/site-packages/fixtures/tests/_fixtures/test_logger.py
>>> /usr/lib/pypy3.6/site-packages/fixtures/tests/_fixtures/test_timeout.py
>>> /usr/lib/pypy3.6/site-packages/fixtures/tests/_fixtures/test_monkeypatch.py
>>> /usr/lib/pypy3.6/site-packages/fixtures/tests/_fixtures/test_warnings.py
>>> /usr/lib/pypy3.6/site-packages/fixtures/tests/_fixtures/__init__.py
>>> /usr/lib/pypy3.6/site-packages/fixtures/tests/_fixtures/test_popen.py
>>> /usr/lib/pypy3.6/site-packages/fixtures/tests/_fixtures/test_pythonpath.py
>>> /usr/lib/pypy3.6/site-packages/fixtures/tests/helpers.py
>>> /usr/lib/pypy3.6/site-packages/fixtures/__init__.py
>>> /usr/lib/pypy3.6/site-packages/fixtures/callmany.py
>>> /usr/lib/pypy3.6/site-packages/fixtures/testcase.py
>>> /usr/lib/pypy3.6/site-packages/fixtures/_fixtures/
>>> /usr/lib/pypy3.6/site-packages/fixtures/_fixtures/environ.py
>>> /usr/lib/pypy3.6/site-packages/fixtures/_fixtures/warnings.py
>>> /usr/lib/pypy3.6/site-packages/fixtures/_fixtures/mockpatch.py
>>> /usr/lib/pypy3.6/site-packages/fixtures/_fixtures/popen.py
>>> /usr/lib/pypy3.6/site-packages/fixtures/_fixtures/__pycache__/
>>> /usr/lib/pypy3.6/site-packages/fixtures/_fixtures/__pycache__/popen.pypy36.opt-1.pyc
>>> /usr/lib/pypy3.6/site-packages/fixtures/_fixtures/__pycache__/__init__.pypy36.opt-1.pyc
>>> /usr/lib/pypy3.6/site-packages/fixtures/_fixtures/__pycache__/popen.pypy36.opt-2.pyc
>>> /usr/lib/pypy3.6/site-packages/fixtures/_fixtures/__pycache__/temphomedir.pypy36.pyc
>>> /usr/lib/pypy3.6/site-packages/fixtures/_fixtures/__pycache__/pythonpackage.pypy36.opt-1.pyc
>>> /usr/lib/pypy3.6/site-packages/fixtures/_fixtures/__pycache__/__init__.pypy36.opt-2.pyc
>>> /usr/lib/pypy3.6/site-packages/fixtures/_fixtures/__pycache__/packagepath.pypy36.opt-2.pyc
>>> /usr/lib/pypy3.6/site-packages/fixtures/_fixtures/__pycache__/logger.pypy36.opt-1.pyc
>>> /usr/lib/pypy3.6/site-packages/fixtures/_fixtures/__pycache__/timeout.pypy36.opt-1.pyc
>>> /usr/lib/pypy3.6/site-packages/fixtures/_fixtures/__pycache__/pythonpackage.pypy36.pyc
>>> /usr/lib/pypy3.6/site-packages/fixtures/_fixtures/__pycache__/tempdir.pypy36.pyc
>>> /usr/lib/pypy3.6/site-packages/fixtures/_fixtures/__pycache__/warnings.pypy36.pyc
>>> /usr/lib/pypy3.6/site-packages/fixtures/_fixtures/__pycache__/monkeypatch.pypy36.pyc
>>> /usr/lib/pypy3.6/site-packages/fixtures/_fixtures/__pycache__/pythonpath.pypy36.opt-2.pyc
>>> /usr/lib/pypy3.6/site-packages/fixtures/_fixtures/__pycache__/__init__.pypy36.pyc
>>> /usr/lib/pypy3.6/site-packages/fixtures/_fixtures/__pycache__/warnings.pypy36.opt-2.pyc
>>> /usr/lib/pypy3.6/site-packages/fixtures/_fixtures/__pycache__/temphomedir.pypy36.opt-2.pyc
>>> /usr/lib/pypy3.6/site-packages/fixtures/_fixtures/__pycache__/monkeypatch.pypy36.opt-2.pyc
>>> /usr/lib/pypy3.6/site-packages/fixtures/_fixtures/__pycache__/tempdir.pypy36.opt-2.pyc
>>> /usr/lib/pypy3.6/site-packages/fixtures/_fixtures/__pycache__/streams.pypy36.pyc
>>> /usr/lib/pypy3.6/site-packages/fixtures/_fixtures/__pycache__/environ.pypy36.opt-2.pyc
>>> /usr/lib/pypy3.6/site-packages/fixtures/_fixtures/__pycache__/warnings.pypy36.opt-1.pyc
>>> /usr/lib/pypy3.6/site-packages/fixtures/_fixtures/__pycache__/streams.pypy36.opt-2.pyc
>>> /usr/lib/pypy3.6/site-packages/fixtures/_fixtures/__pycache__/tempdir.pypy36.opt-1.pyc
>>> /usr/lib/pypy3.6/site-packages/fixtures/_fixtures/__pycache__/pythonpath.pypy36.opt-1.pyc
>>> /usr/lib/pypy3.6/site-packages/fixtures/_fixtures/__pycache__/pythonpath.pypy36.pyc
>>> /usr/lib/pypy3.6/site-packages/fixtures/_fixtures/__pycache__/logger.pypy36.pyc
>>> /usr/lib/pypy3.6/site-packages/fixtures/_fixtures/__pycache__/monkeypatch.pypy36.opt-1.pyc
>>> /usr/lib/pypy3.6/site-packages/fixtures/_fixtures/__pycache__/packagepath.pypy36.pyc
>>> /usr/lib/pypy3.6/site-packages/fixtures/_fixtures/__pycache__/packagepath.pypy36.opt-1.pyc
>>> /usr/lib/pypy3.6/site-packages/fixtures/_fixtures/__pycache__/temphomedir.pypy36.opt-1.pyc
>>> /usr/lib/pypy3.6/site-packages/fixtures/_fixtures/__pycache__/timeout.pypy36.pyc
>>> /usr/lib/pypy3.6/site-packages/fixtures/_fixtures/__pycache__/timeout.pypy36.opt-2.pyc
>>> /usr/lib/pypy3.6/site-packages/fixtures/_fixtures/__pycache__/streams.pypy36.opt-1.pyc
>>> /usr/lib/pypy3.6/site-packages/fixtures/_fixtures/__pycache__/environ.pypy36.pyc
>>> /usr/lib/pypy3.6/site-packages/fixtures/_fixtures/__pycache__/mockpatch.pypy36.pyc
>>> /usr/lib/pypy3.6/site-packages/fixtures/_fixtures/__pycache__/pythonpackage.pypy36.opt-2.pyc
>>> /usr/lib/pypy3.6/site-packages/fixtures/_fixtures/__pycache__/logger.pypy36.opt-2.pyc
>>> /usr/lib/pypy3.6/site-packages/fixtures/_fixtures/__pycache__/environ.pypy36.opt-1.pyc
>>> /usr/lib/pypy3.6/site-packages/fixtures/_fixtures/__pycache__/popen.pypy36.pyc
>>> /usr/lib/pypy3.6/site-packages/fixtures/_fixtures/__pycache__/mockpatch.pypy36.opt-2.pyc
>>> /usr/lib/pypy3.6/site-packages/fixtures/_fixtures/__pycache__/mockpatch.pypy36.opt-1.pyc
>>> /usr/lib/pypy3.6/site-packages/fixtures/_fixtures/tempdir.py
>>> /usr/lib/pypy3.6/site-packages/fixtures/_fixtures/monkeypatch.py
>>> /usr/lib/pypy3.6/site-packages/fixtures/_fixtures/pythonpath.py
>>> /usr/lib/pypy3.6/site-packages/fixtures/_fixtures/streams.py
>>> /usr/lib/pypy3.6/site-packages/fixtures/_fixtures/logger.py
>>> /usr/lib/pypy3.6/site-packages/fixtures/_fixtures/__init__.py
>>> /usr/lib/pypy3.6/site-packages/fixtures/_fixtures/packagepath.py
>>> /usr/lib/pypy3.6/site-packages/fixtures/_fixtures/timeout.py
>>> /usr/lib/pypy3.6/site-packages/fixtures/_fixtures/temphomedir.py
>>> /usr/lib/pypy3.6/site-packages/fixtures/_fixtures/pythonpackage.py
>>> /usr/lib/pypy3.6/site-packages/fixtures-3.0.0-py3.6.egg-info/
>>> /usr/lib/pypy3.6/site-packages/fixtures-3.0.0-py3.6.egg-info/requires.txt
>>> /usr/lib/pypy3.6/site-packages/fixtures-3.0.0-py3.6.egg-info/PKG-INFO
>>> /usr/lib/pypy3.6/site-packages/fixtures-3.0.0-py3.6.egg-info/dependency_links.txt
>>> /usr/lib/pypy3.6/site-packages/fixtures-3.0.0-py3.6.egg-info/not-zip-safe
>>> /usr/lib/pypy3.6/site-packages/fixtures-3.0.0-py3.6.egg-info/pbr.json
>>> /usr/lib/pypy3.6/site-packages/fixtures-3.0.0-py3.6.egg-info/SOURCES.txt
>>> /usr/lib/pypy3.6/site-packages/fixtures-3.0.0-py3.6.egg-info/top_level.txt
--- /usr/lib/python3.7/
--- /usr/lib/python3.7/site-packages/
>>> /usr/lib/python3.7/site-packages/fixtures-3.0.0-py3.7.egg-info/
>>> /usr/lib/python3.7/site-packages/fixtures-3.0.0-py3.7.egg-info/requires.txt
>>> /usr/lib/python3.7/site-packages/fixtures-3.0.0-py3.7.egg-info/PKG-INFO
>>> /usr/lib/python3.7/site-packages/fixtures-3.0.0-py3.7.egg-info/dependency_links.txt
>>> /usr/lib/python3.7/site-packages/fixtures-3.0.0-py3.7.egg-info/not-zip-safe
>>> /usr/lib/python3.7/site-packages/fixtures-3.0.0-py3.7.egg-info/pbr.json
>>> /usr/lib/python3.7/site-packages/fixtures-3.0.0-py3.7.egg-info/SOURCES.txt
>>> /usr/lib/python3.7/site-packages/fixtures-3.0.0-py3.7.egg-info/top_level.txt
>>> /usr/lib/python3.7/site-packages/fixtures/
>>> /usr/lib/python3.7/site-packages/fixtures/__pycache__/
>>> /usr/lib/python3.7/site-packages/fixtures/__pycache__/__init__.cpython-37.pyc
>>> /usr/lib/python3.7/site-packages/fixtures/__pycache__/callmany.cpython-37.opt-1.pyc
>>> /usr/lib/python3.7/site-packages/fixtures/__pycache__/fixture.cpython-37.opt-2.pyc
>>> /usr/lib/python3.7/site-packages/fixtures/__pycache__/testcase.cpython-37.opt-1.pyc
>>> /usr/lib/python3.7/site-packages/fixtures/__pycache__/callmany.cpython-37.pyc
>>> /usr/lib/python3.7/site-packages/fixtures/__pycache__/__init__.cpython-37.opt-2.pyc
>>> /usr/lib/python3.7/site-packages/fixtures/__pycache__/fixture.cpython-37.pyc
>>> /usr/lib/python3.7/site-packages/fixtures/__pycache__/__init__.cpython-37.opt-1.pyc
>>> /usr/lib/python3.7/site-packages/fixtures/__pycache__/callmany.cpython-37.opt-2.pyc
>>> /usr/lib/python3.7/site-packages/fixtures/__pycache__/testcase.cpython-37.opt-2.pyc
>>> /usr/lib/python3.7/site-packages/fixtures/__pycache__/fixture.cpython-37.opt-1.pyc
>>> /usr/lib/python3.7/site-packages/fixtures/__pycache__/testcase.cpython-37.pyc
>>> /usr/lib/python3.7/site-packages/fixtures/fixture.py
>>> /usr/lib/python3.7/site-packages/fixtures/tests/
>>> /usr/lib/python3.7/site-packages/fixtures/tests/test_callmany.py
>>> /usr/lib/python3.7/site-packages/fixtures/tests/test_testcase.py
>>> /usr/lib/python3.7/site-packages/fixtures/tests/__pycache__/
>>> /usr/lib/python3.7/site-packages/fixtures/tests/__pycache__/test_fixture.cpython-37.opt-2.pyc
>>> /usr/lib/python3.7/site-packages/fixtures/tests/__pycache__/__init__.cpython-37.pyc
>>> /usr/lib/python3.7/site-packages/fixtures/tests/__pycache__/test_testcase.cpython-37.opt-2.pyc
>>> /usr/lib/python3.7/site-packages/fixtures/tests/__pycache__/test_testcase.cpython-37.pyc
>>> /usr/lib/python3.7/site-packages/fixtures/tests/__pycache__/__init__.cpython-37.opt-2.pyc
>>> /usr/lib/python3.7/site-packages/fixtures/tests/__pycache__/test_callmany.cpython-37.opt-2.pyc
>>> /usr/lib/python3.7/site-packages/fixtures/tests/__pycache__/__init__.cpython-37.opt-1.pyc
>>> /usr/lib/python3.7/site-packages/fixtures/tests/__pycache__/test_fixture.cpython-37.opt-1.pyc
>>> /usr/lib/python3.7/site-packages/fixtures/tests/__pycache__/helpers.cpython-37.pyc
>>> /usr/lib/python3.7/site-packages/fixtures/tests/__pycache__/test_fixture.cpython-37.pyc
>>> /usr/lib/python3.7/site-packages/fixtures/tests/__pycache__/helpers.cpython-37.opt-2.pyc
>>> /usr/lib/python3.7/site-packages/fixtures/tests/__pycache__/helpers.cpython-37.opt-1.pyc
>>> /usr/lib/python3.7/site-packages/fixtures/tests/__pycache__/test_callmany.cpython-37.pyc
>>> /usr/lib/python3.7/site-packages/fixtures/tests/__pycache__/test_callmany.cpython-37.opt-1.pyc
>>> /usr/lib/python3.7/site-packages/fixtures/tests/__pycache__/test_testcase.cpython-37.opt-1.pyc
>>> /usr/lib/python3.7/site-packages/fixtures/tests/__init__.py
>>> /usr/lib/python3.7/site-packages/fixtures/tests/test_fixture.py
>>> /usr/lib/python3.7/site-packages/fixtures/tests/_fixtures/
>>> /usr/lib/python3.7/site-packages/fixtures/tests/_fixtures/test_packagepath.py
>>> /usr/lib/python3.7/site-packages/fixtures/tests/_fixtures/test_environ.py
>>> /usr/lib/python3.7/site-packages/fixtures/tests/_fixtures/test_mockpatch.py
>>> /usr/lib/python3.7/site-packages/fixtures/tests/_fixtures/test_temphomedir.py
>>> /usr/lib/python3.7/site-packages/fixtures/tests/_fixtures/test_pythonpackage.py
>>> /usr/lib/python3.7/site-packages/fixtures/tests/_fixtures/test_streams.py
>>> /usr/lib/python3.7/site-packages/fixtures/tests/_fixtures/__pycache__/
>>> /usr/lib/python3.7/site-packages/fixtures/tests/_fixtures/__pycache__/test_pythonpath.cpython-37.opt-1.pyc
>>> /usr/lib/python3.7/site-packages/fixtures/tests/_fixtures/__pycache__/test_streams.cpython-37.opt-1.pyc
>>> /usr/lib/python3.7/site-packages/fixtures/tests/_fixtures/__pycache__/test_environ.cpython-37.pyc
>>> /usr/lib/python3.7/site-packages/fixtures/tests/_fixtures/__pycache__/test_packagepath.cpython-37.opt-2.pyc
>>> /usr/lib/python3.7/site-packages/fixtures/tests/_fixtures/__pycache__/test_pythonpath.cpython-37.opt-2.pyc
>>> /usr/lib/python3.7/site-packages/fixtures/tests/_fixtures/__pycache__/test_environ.cpython-37.opt-1.pyc
>>> /usr/lib/python3.7/site-packages/fixtures/tests/_fixtures/__pycache__/test_temphomedir.cpython-37.pyc
>>> /usr/lib/python3.7/site-packages/fixtures/tests/_fixtures/__pycache__/test_temphomedir.cpython-37.opt-2.pyc
>>> /usr/lib/python3.7/site-packages/fixtures/tests/_fixtures/__pycache__/test_tempdir.cpython-37.opt-2.pyc
>>> /usr/lib/python3.7/site-packages/fixtures/tests/_fixtures/__pycache__/test_logger.cpython-37.opt-1.pyc
>>> /usr/lib/python3.7/site-packages/fixtures/tests/_fixtures/__pycache__/test_popen.cpython-37.opt-1.pyc
>>> /usr/lib/python3.7/site-packages/fixtures/tests/_fixtures/__pycache__/__init__.cpython-37.pyc
>>> /usr/lib/python3.7/site-packages/fixtures/tests/_fixtures/__pycache__/test_logger.cpython-37.opt-2.pyc
>>> /usr/lib/python3.7/site-packages/fixtures/tests/_fixtures/__pycache__/test_pythonpackage.cpython-37.opt-2.pyc
>>> /usr/lib/python3.7/site-packages/fixtures/tests/_fixtures/__pycache__/test_popen.cpython-37.opt-2.pyc
>>> /usr/lib/python3.7/site-packages/fixtures/tests/_fixtures/__pycache__/test_tempdir.cpython-37.opt-1.pyc
>>> /usr/lib/python3.7/site-packages/fixtures/tests/_fixtures/__pycache__/test_pythonpath.cpython-37.pyc
>>> /usr/lib/python3.7/site-packages/fixtures/tests/_fixtures/__pycache__/test_tempdir.cpython-37.pyc
>>> /usr/lib/python3.7/site-packages/fixtures/tests/_fixtures/__pycache__/test_warnings.cpython-37.opt-1.pyc
>>> /usr/lib/python3.7/site-packages/fixtures/tests/_fixtures/__pycache__/test_logger.cpython-37.pyc
>>> /usr/lib/python3.7/site-packages/fixtures/tests/_fixtures/__pycache__/test_environ.cpython-37.opt-2.pyc
>>> /usr/lib/python3.7/site-packages/fixtures/tests/_fixtures/__pycache__/__init__.cpython-37.opt-2.pyc
>>> /usr/lib/python3.7/site-packages/fixtures/tests/_fixtures/__pycache__/test_streams.cpython-37.pyc
>>> /usr/lib/python3.7/site-packages/fixtures/tests/_fixtures/__pycache__/__init__.cpython-37.opt-1.pyc
>>> /usr/lib/python3.7/site-packages/fixtures/tests/_fixtures/__pycache__/test_timeout.cpython-37.opt-2.pyc
>>> /usr/lib/python3.7/site-packages/fixtures/tests/_fixtures/__pycache__/test_timeout.cpython-37.opt-1.pyc
>>> /usr/lib/python3.7/site-packages/fixtures/tests/_fixtures/__pycache__/test_mockpatch.cpython-37.pyc
>>> /usr/lib/python3.7/site-packages/fixtures/tests/_fixtures/__pycache__/test_warnings.cpython-37.opt-2.pyc
>>> /usr/lib/python3.7/site-packages/fixtures/tests/_fixtures/__pycache__/test_pythonpackage.cpython-37.opt-1.pyc
>>> /usr/lib/python3.7/site-packages/fixtures/tests/_fixtures/__pycache__/test_mockpatch.cpython-37.opt-1.pyc
>>> /usr/lib/python3.7/site-packages/fixtures/tests/_fixtures/__pycache__/test_mockpatch.cpython-37.opt-2.pyc
>>> /usr/lib/python3.7/site-packages/fixtures/tests/_fixtures/__pycache__/test_monkeypatch.cpython-37.opt-2.pyc
>>> /usr/lib/python3.7/site-packages/fixtures/tests/_fixtures/__pycache__/test_popen.cpython-37.pyc
>>> /usr/lib/python3.7/site-packages/fixtures/tests/_fixtures/__pycache__/test_monkeypatch.cpython-37.opt-1.pyc
>>> /usr/lib/python3.7/site-packages/fixtures/tests/_fixtures/__pycache__/test_temphomedir.cpython-37.opt-1.pyc
>>> /usr/lib/python3.7/site-packages/fixtures/tests/_fixtures/__pycache__/test_warnings.cpython-37.pyc
>>> /usr/lib/python3.7/site-packages/fixtures/tests/_fixtures/__pycache__/test_timeout.cpython-37.pyc
>>> /usr/lib/python3.7/site-packages/fixtures/tests/_fixtures/__pycache__/test_packagepath.cpython-37.opt-1.pyc
>>> /usr/lib/python3.7/site-packages/fixtures/tests/_fixtures/__pycache__/test_streams.cpython-37.opt-2.pyc
>>> /usr/lib/python3.7/site-packages/fixtures/tests/_fixtures/__pycache__/test_packagepath.cpython-37.pyc
>>> /usr/lib/python3.7/site-packages/fixtures/tests/_fixtures/__pycache__/test_monkeypatch.cpython-37.pyc
>>> /usr/lib/python3.7/site-packages/fixtures/tests/_fixtures/__pycache__/test_pythonpackage.cpython-37.pyc
>>> /usr/lib/python3.7/site-packages/fixtures/tests/_fixtures/test_tempdir.py
>>> /usr/lib/python3.7/site-packages/fixtures/tests/_fixtures/test_logger.py
>>> /usr/lib/python3.7/site-packages/fixtures/tests/_fixtures/test_timeout.py
>>> /usr/lib/python3.7/site-packages/fixtures/tests/_fixtures/test_monkeypatch.py
>>> /usr/lib/python3.7/site-packages/fixtures/tests/_fixtures/test_warnings.py
>>> /usr/lib/python3.7/site-packages/fixtures/tests/_fixtures/__init__.py
>>> /usr/lib/python3.7/site-packages/fixtures/tests/_fixtures/test_popen.py
>>> /usr/lib/python3.7/site-packages/fixtures/tests/_fixtures/test_pythonpath.py
>>> /usr/lib/python3.7/site-packages/fixtures/tests/helpers.py
>>> /usr/lib/python3.7/site-packages/fixtures/__init__.py
>>> /usr/lib/python3.7/site-packages/fixtures/callmany.py
>>> /usr/lib/python3.7/site-packages/fixtures/testcase.py
>>> /usr/lib/python3.7/site-packages/fixtures/_fixtures/
>>> /usr/lib/python3.7/site-packages/fixtures/_fixtures/environ.py
>>> /usr/lib/python3.7/site-packages/fixtures/_fixtures/warnings.py
>>> /usr/lib/python3.7/site-packages/fixtures/_fixtures/mockpatch.py
>>> /usr/lib/python3.7/site-packages/fixtures/_fixtures/popen.py
>>> /usr/lib/python3.7/site-packages/fixtures/_fixtures/__pycache__/
>>> /usr/lib/python3.7/site-packages/fixtures/_fixtures/__pycache__/temphomedir.cpython-37.opt-2.pyc
>>> /usr/lib/python3.7/site-packages/fixtures/_fixtures/__pycache__/environ.cpython-37.opt-2.pyc
>>> /usr/lib/python3.7/site-packages/fixtures/_fixtures/__pycache__/mockpatch.cpython-37.opt-1.pyc
>>> /usr/lib/python3.7/site-packages/fixtures/_fixtures/__pycache__/logger.cpython-37.opt-2.pyc
>>> /usr/lib/python3.7/site-packages/fixtures/_fixtures/__pycache__/environ.cpython-37.pyc
>>> /usr/lib/python3.7/site-packages/fixtures/_fixtures/__pycache__/temphomedir.cpython-37.opt-1.pyc
>>> /usr/lib/python3.7/site-packages/fixtures/_fixtures/__pycache__/packagepath.cpython-37.pyc
>>> /usr/lib/python3.7/site-packages/fixtures/_fixtures/__pycache__/pythonpath.cpython-37.pyc
>>> /usr/lib/python3.7/site-packages/fixtures/_fixtures/__pycache__/__init__.cpython-37.pyc
>>> /usr/lib/python3.7/site-packages/fixtures/_fixtures/__pycache__/pythonpackage.cpython-37.pyc
>>> /usr/lib/python3.7/site-packages/fixtures/_fixtures/__pycache__/timeout.cpython-37.opt-1.pyc
>>> /usr/lib/python3.7/site-packages/fixtures/_fixtures/__pycache__/warnings.cpython-37.opt-2.pyc
>>> /usr/lib/python3.7/site-packages/fixtures/_fixtures/__pycache__/streams.cpython-37.opt-1.pyc
>>> /usr/lib/python3.7/site-packages/fixtures/_fixtures/__pycache__/pythonpath.cpython-37.opt-1.pyc
>>> /usr/lib/python3.7/site-packages/fixtures/_fixtures/__pycache__/environ.cpython-37.opt-1.pyc
>>> /usr/lib/python3.7/site-packages/fixtures/_fixtures/__pycache__/temphomedir.cpython-37.pyc
>>> /usr/lib/python3.7/site-packages/fixtures/_fixtures/__pycache__/warnings.cpython-37.opt-1.pyc
>>> /usr/lib/python3.7/site-packages/fixtures/_fixtures/__pycache__/timeout.cpython-37.pyc
>>> /usr/lib/python3.7/site-packages/fixtures/_fixtures/__pycache__/packagepath.cpython-37.opt-1.pyc
>>> /usr/lib/python3.7/site-packages/fixtures/_fixtures/__pycache__/__init__.cpython-37.opt-2.pyc
>>> /usr/lib/python3.7/site-packages/fixtures/_fixtures/__pycache__/tempdir.cpython-37.opt-1.pyc
>>> /usr/lib/python3.7/site-packages/fixtures/_fixtures/__pycache__/__init__.cpython-37.opt-1.pyc
>>> /usr/lib/python3.7/site-packages/fixtures/_fixtures/__pycache__/streams.cpython-37.opt-2.pyc
>>> /usr/lib/python3.7/site-packages/fixtures/_fixtures/__pycache__/warnings.cpython-37.pyc
>>> /usr/lib/python3.7/site-packages/fixtures/_fixtures/__pycache__/tempdir.cpython-37.opt-2.pyc
>>> /usr/lib/python3.7/site-packages/fixtures/_fixtures/__pycache__/timeout.cpython-37.opt-2.pyc
>>> /usr/lib/python3.7/site-packages/fixtures/_fixtures/__pycache__/packagepath.cpython-37.opt-2.pyc
>>> /usr/lib/python3.7/site-packages/fixtures/_fixtures/__pycache__/popen.cpython-37.pyc
>>> /usr/lib/python3.7/site-packages/fixtures/_fixtures/__pycache__/monkeypatch.cpython-37.pyc
>>> /usr/lib/python3.7/site-packages/fixtures/_fixtures/__pycache__/monkeypatch.cpython-37.opt-1.pyc
>>> /usr/lib/python3.7/site-packages/fixtures/_fixtures/__pycache__/pythonpackage.cpython-37.opt-1.pyc
>>> /usr/lib/python3.7/site-packages/fixtures/_fixtures/__pycache__/mockpatch.cpython-37.opt-2.pyc
>>> /usr/lib/python3.7/site-packages/fixtures/_fixtures/__pycache__/logger.cpython-37.pyc
>>> /usr/lib/python3.7/site-packages/fixtures/_fixtures/__pycache__/streams.cpython-37.pyc
>>> /usr/lib/python3.7/site-packages/fixtures/_fixtures/__pycache__/tempdir.cpython-37.pyc
>>> /usr/lib/python3.7/site-packages/fixtures/_fixtures/__pycache__/popen.cpython-37.opt-1.pyc
>>> /usr/lib/python3.7/site-packages/fixtures/_fixtures/__pycache__/pythonpackage.cpython-37.opt-2.pyc
>>> /usr/lib/python3.7/site-packages/fixtures/_fixtures/__pycache__/logger.cpython-37.opt-1.pyc
>>> /usr/lib/python3.7/site-packages/fixtures/_fixtures/__pycache__/mockpatch.cpython-37.pyc
>>> /usr/lib/python3.7/site-packages/fixtures/_fixtures/__pycache__/popen.cpython-37.opt-2.pyc
>>> /usr/lib/python3.7/site-packages/fixtures/_fixtures/__pycache__/pythonpath.cpython-37.opt-2.pyc
>>> /usr/lib/python3.7/site-packages/fixtures/_fixtures/__pycache__/monkeypatch.cpython-37.opt-2.pyc
>>> /usr/lib/python3.7/site-packages/fixtures/_fixtures/tempdir.py
>>> /usr/lib/python3.7/site-packages/fixtures/_fixtures/monkeypatch.py
>>> /usr/lib/python3.7/site-packages/fixtures/_fixtures/pythonpath.py
>>> /usr/lib/python3.7/site-packages/fixtures/_fixtures/streams.py
>>> /usr/lib/python3.7/site-packages/fixtures/_fixtures/logger.py
>>> /usr/lib/python3.7/site-packages/fixtures/_fixtures/__init__.py
>>> /usr/lib/python3.7/site-packages/fixtures/_fixtures/packagepath.py
>>> /usr/lib/python3.7/site-packages/fixtures/_fixtures/timeout.py
>>> /usr/lib/python3.7/site-packages/fixtures/_fixtures/temphomedir.py
>>> /usr/lib/python3.7/site-packages/fixtures/_fixtures/pythonpackage.py
--- /usr/lib/python3.8/
--- /usr/lib/python3.8/site-packages/
>>> /usr/lib/python3.8/site-packages/fixtures-3.0.0-py3.8.egg-info/
>>> /usr/lib/python3.8/site-packages/fixtures-3.0.0-py3.8.egg-info/requires.txt
>>> /usr/lib/python3.8/site-packages/fixtures-3.0.0-py3.8.egg-info/PKG-INFO
>>> /usr/lib/python3.8/site-packages/fixtures-3.0.0-py3.8.egg-info/dependency_links.txt
>>> /usr/lib/python3.8/site-packages/fixtures-3.0.0-py3.8.egg-info/not-zip-safe
>>> /usr/lib/python3.8/site-packages/fixtures-3.0.0-py3.8.egg-info/pbr.json
>>> /usr/lib/python3.8/site-packages/fixtures-3.0.0-py3.8.egg-info/SOURCES.txt
>>> /usr/lib/python3.8/site-packages/fixtures-3.0.0-py3.8.egg-info/top_level.txt
>>> /usr/lib/python3.8/site-packages/fixtures/
>>> /usr/lib/python3.8/site-packages/fixtures/__pycache__/
>>> /usr/lib/python3.8/site-packages/fixtures/__pycache__/testcase.cpython-38.pyc
>>> /usr/lib/python3.8/site-packages/fixtures/__pycache__/fixture.cpython-38.opt-1.pyc
>>> /usr/lib/python3.8/site-packages/fixtures/__pycache__/testcase.cpython-38.opt-2.pyc
>>> /usr/lib/python3.8/site-packages/fixtures/__pycache__/callmany.cpython-38.pyc
>>> /usr/lib/python3.8/site-packages/fixtures/__pycache__/fixture.cpython-38.pyc
>>> /usr/lib/python3.8/site-packages/fixtures/__pycache__/fixture.cpython-38.opt-2.pyc
>>> /usr/lib/python3.8/site-packages/fixtures/__pycache__/callmany.cpython-38.opt-1.pyc
>>> /usr/lib/python3.8/site-packages/fixtures/__pycache__/__init__.cpython-38.opt-2.pyc
>>> /usr/lib/python3.8/site-packages/fixtures/__pycache__/__init__.cpython-38.pyc
>>> /usr/lib/python3.8/site-packages/fixtures/__pycache__/__init__.cpython-38.opt-1.pyc
>>> /usr/lib/python3.8/site-packages/fixtures/__pycache__/callmany.cpython-38.opt-2.pyc
>>> /usr/lib/python3.8/site-packages/fixtures/__pycache__/testcase.cpython-38.opt-1.pyc
>>> /usr/lib/python3.8/site-packages/fixtures/fixture.py
>>> /usr/lib/python3.8/site-packages/fixtures/tests/
>>> /usr/lib/python3.8/site-packages/fixtures/tests/test_callmany.py
>>> /usr/lib/python3.8/site-packages/fixtures/tests/test_testcase.py
>>> /usr/lib/python3.8/site-packages/fixtures/tests/__pycache__/
>>> /usr/lib/python3.8/site-packages/fixtures/tests/__pycache__/test_fixture.cpython-38.opt-1.pyc
>>> /usr/lib/python3.8/site-packages/fixtures/tests/__pycache__/test_callmany.cpython-38.opt-1.pyc
>>> /usr/lib/python3.8/site-packages/fixtures/tests/__pycache__/test_fixture.cpython-38.opt-2.pyc
>>> /usr/lib/python3.8/site-packages/fixtures/tests/__pycache__/test_callmany.cpython-38.opt-2.pyc
>>> /usr/lib/python3.8/site-packages/fixtures/tests/__pycache__/test_fixture.cpython-38.pyc
>>> /usr/lib/python3.8/site-packages/fixtures/tests/__pycache__/test_testcase.cpython-38.opt-2.pyc
>>> /usr/lib/python3.8/site-packages/fixtures/tests/__pycache__/helpers.cpython-38.pyc
>>> /usr/lib/python3.8/site-packages/fixtures/tests/__pycache__/__init__.cpython-38.opt-2.pyc
>>> /usr/lib/python3.8/site-packages/fixtures/tests/__pycache__/test_testcase.cpython-38.opt-1.pyc
>>> /usr/lib/python3.8/site-packages/fixtures/tests/__pycache__/__init__.cpython-38.pyc
>>> /usr/lib/python3.8/site-packages/fixtures/tests/__pycache__/helpers.cpython-38.opt-1.pyc
>>> /usr/lib/python3.8/site-packages/fixtures/tests/__pycache__/__init__.cpython-38.opt-1.pyc
>>> /usr/lib/python3.8/site-packages/fixtures/tests/__pycache__/test_testcase.cpython-38.pyc
>>> /usr/lib/python3.8/site-packages/fixtures/tests/__pycache__/test_callmany.cpython-38.pyc
>>> /usr/lib/python3.8/site-packages/fixtures/tests/__pycache__/helpers.cpython-38.opt-2.pyc
>>> /usr/lib/python3.8/site-packages/fixtures/tests/__init__.py
>>> /usr/lib/python3.8/site-packages/fixtures/tests/test_fixture.py
>>> /usr/lib/python3.8/site-packages/fixtures/tests/_fixtures/
>>> /usr/lib/python3.8/site-packages/fixtures/tests/_fixtures/test_packagepath.py
>>> /usr/lib/python3.8/site-packages/fixtures/tests/_fixtures/test_environ.py
>>> /usr/lib/python3.8/site-packages/fixtures/tests/_fixtures/test_mockpatch.py
>>> /usr/lib/python3.8/site-packages/fixtures/tests/_fixtures/test_temphomedir.py
>>> /usr/lib/python3.8/site-packages/fixtures/tests/_fixtures/test_pythonpackage.py
>>> /usr/lib/python3.8/site-packages/fixtures/tests/_fixtures/test_streams.py
>>> /usr/lib/python3.8/site-packages/fixtures/tests/_fixtures/__pycache__/
>>> /usr/lib/python3.8/site-packages/fixtures/tests/_fixtures/__pycache__/test_mockpatch.cpython-38.pyc
>>> /usr/lib/python3.8/site-packages/fixtures/tests/_fixtures/__pycache__/test_environ.cpython-38.opt-1.pyc
>>> /usr/lib/python3.8/site-packages/fixtures/tests/_fixtures/__pycache__/test_pythonpackage.cpython-38.opt-1.pyc
>>> /usr/lib/python3.8/site-packages/fixtures/tests/_fixtures/__pycache__/test_warnings.cpython-38.opt-1.pyc
>>> /usr/lib/python3.8/site-packages/fixtures/tests/_fixtures/__pycache__/test_monkeypatch.cpython-38.opt-1.pyc
>>> /usr/lib/python3.8/site-packages/fixtures/tests/_fixtures/__pycache__/test_timeout.cpython-38.pyc
>>> /usr/lib/python3.8/site-packages/fixtures/tests/_fixtures/__pycache__/test_packagepath.cpython-38.pyc
>>> /usr/lib/python3.8/site-packages/fixtures/tests/_fixtures/__pycache__/test_streams.cpython-38.opt-2.pyc
>>> /usr/lib/python3.8/site-packages/fixtures/tests/_fixtures/__pycache__/test_pythonpath.cpython-38.pyc
>>> /usr/lib/python3.8/site-packages/fixtures/tests/_fixtures/__pycache__/test_packagepath.cpython-38.opt-2.pyc
>>> /usr/lib/python3.8/site-packages/fixtures/tests/_fixtures/__pycache__/test_tempdir.cpython-38.opt-1.pyc
>>> /usr/lib/python3.8/site-packages/fixtures/tests/_fixtures/__pycache__/test_environ.cpython-38.opt-2.pyc
>>> /usr/lib/python3.8/site-packages/fixtures/tests/_fixtures/__pycache__/test_mockpatch.cpython-38.opt-1.pyc
>>> /usr/lib/python3.8/site-packages/fixtures/tests/_fixtures/__pycache__/test_temphomedir.cpython-38.pyc
>>> /usr/lib/python3.8/site-packages/fixtures/tests/_fixtures/__pycache__/test_temphomedir.cpython-38.opt-2.pyc
>>> /usr/lib/python3.8/site-packages/fixtures/tests/_fixtures/__pycache__/test_warnings.cpython-38.opt-2.pyc
>>> /usr/lib/python3.8/site-packages/fixtures/tests/_fixtures/__pycache__/test_pythonpath.cpython-38.opt-2.pyc
>>> /usr/lib/python3.8/site-packages/fixtures/tests/_fixtures/__pycache__/test_warnings.cpython-38.pyc
>>> /usr/lib/python3.8/site-packages/fixtures/tests/_fixtures/__pycache__/test_monkeypatch.cpython-38.opt-2.pyc
>>> /usr/lib/python3.8/site-packages/fixtures/tests/_fixtures/__pycache__/test_monkeypatch.cpython-38.pyc
>>> /usr/lib/python3.8/site-packages/fixtures/tests/_fixtures/__pycache__/test_logger.cpython-38.pyc
>>> /usr/lib/python3.8/site-packages/fixtures/tests/_fixtures/__pycache__/test_environ.cpython-38.pyc
>>> /usr/lib/python3.8/site-packages/fixtures/tests/_fixtures/__pycache__/test_streams.cpython-38.pyc
>>> /usr/lib/python3.8/site-packages/fixtures/tests/_fixtures/__pycache__/test_tempdir.cpython-38.opt-2.pyc
>>> /usr/lib/python3.8/site-packages/fixtures/tests/_fixtures/__pycache__/__init__.cpython-38.opt-2.pyc
>>> /usr/lib/python3.8/site-packages/fixtures/tests/_fixtures/__pycache__/test_popen.cpython-38.opt-1.pyc
>>> /usr/lib/python3.8/site-packages/fixtures/tests/_fixtures/__pycache__/test_logger.cpython-38.opt-1.pyc
>>> /usr/lib/python3.8/site-packages/fixtures/tests/_fixtures/__pycache__/__init__.cpython-38.pyc
>>> /usr/lib/python3.8/site-packages/fixtures/tests/_fixtures/__pycache__/test_popen.cpython-38.opt-2.pyc
>>> /usr/lib/python3.8/site-packages/fixtures/tests/_fixtures/__pycache__/test_timeout.cpython-38.opt-2.pyc
>>> /usr/lib/python3.8/site-packages/fixtures/tests/_fixtures/__pycache__/test_pythonpackage.cpython-38.opt-2.pyc
>>> /usr/lib/python3.8/site-packages/fixtures/tests/_fixtures/__pycache__/test_temphomedir.cpython-38.opt-1.pyc
>>> /usr/lib/python3.8/site-packages/fixtures/tests/_fixtures/__pycache__/__init__.cpython-38.opt-1.pyc
>>> /usr/lib/python3.8/site-packages/fixtures/tests/_fixtures/__pycache__/test_pythonpath.cpython-38.opt-1.pyc
>>> /usr/lib/python3.8/site-packages/fixtures/tests/_fixtures/__pycache__/test_popen.cpython-38.pyc
>>> /usr/lib/python3.8/site-packages/fixtures/tests/_fixtures/__pycache__/test_logger.cpython-38.opt-2.pyc
>>> /usr/lib/python3.8/site-packages/fixtures/tests/_fixtures/__pycache__/test_tempdir.cpython-38.pyc
>>> /usr/lib/python3.8/site-packages/fixtures/tests/_fixtures/__pycache__/test_streams.cpython-38.opt-1.pyc
>>> /usr/lib/python3.8/site-packages/fixtures/tests/_fixtures/__pycache__/test_mockpatch.cpython-38.opt-2.pyc
>>> /usr/lib/python3.8/site-packages/fixtures/tests/_fixtures/__pycache__/test_pythonpackage.cpython-38.pyc
>>> /usr/lib/python3.8/site-packages/fixtures/tests/_fixtures/__pycache__/test_packagepath.cpython-38.opt-1.pyc
>>> /usr/lib/python3.8/site-packages/fixtures/tests/_fixtures/__pycache__/test_timeout.cpython-38.opt-1.pyc
>>> /usr/lib/python3.8/site-packages/fixtures/tests/_fixtures/test_tempdir.py
>>> /usr/lib/python3.8/site-packages/fixtures/tests/_fixtures/test_logger.py
>>> /usr/lib/python3.8/site-packages/fixtures/tests/_fixtures/test_timeout.py
>>> /usr/lib/python3.8/site-packages/fixtures/tests/_fixtures/test_monkeypatch.py
>>> /usr/lib/python3.8/site-packages/fixtures/tests/_fixtures/test_warnings.py
>>> /usr/lib/python3.8/site-packages/fixtures/tests/_fixtures/__init__.py
>>> /usr/lib/python3.8/site-packages/fixtures/tests/_fixtures/test_popen.py
>>> /usr/lib/python3.8/site-packages/fixtures/tests/_fixtures/test_pythonpath.py
>>> /usr/lib/python3.8/site-packages/fixtures/tests/helpers.py
>>> /usr/lib/python3.8/site-packages/fixtures/__init__.py
>>> /usr/lib/python3.8/site-packages/fixtures/callmany.py
>>> /usr/lib/python3.8/site-packages/fixtures/testcase.py
>>> /usr/lib/python3.8/site-packages/fixtures/_fixtures/
>>> /usr/lib/python3.8/site-packages/fixtures/_fixtures/environ.py
>>> /usr/lib/python3.8/site-packages/fixtures/_fixtures/warnings.py
>>> /usr/lib/python3.8/site-packages/fixtures/_fixtures/mockpatch.py
>>> /usr/lib/python3.8/site-packages/fixtures/_fixtures/popen.py
>>> /usr/lib/python3.8/site-packages/fixtures/_fixtures/__pycache__/
>>> /usr/lib/python3.8/site-packages/fixtures/_fixtures/__pycache__/tempdir.cpython-38.opt-2.pyc
>>> /usr/lib/python3.8/site-packages/fixtures/_fixtures/__pycache__/timeout.cpython-38.opt-1.pyc
>>> /usr/lib/python3.8/site-packages/fixtures/_fixtures/__pycache__/temphomedir.cpython-38.pyc
>>> /usr/lib/python3.8/site-packages/fixtures/_fixtures/__pycache__/streams.cpython-38.pyc
>>> /usr/lib/python3.8/site-packages/fixtures/_fixtures/__pycache__/environ.cpython-38.pyc
>>> /usr/lib/python3.8/site-packages/fixtures/_fixtures/__pycache__/pythonpath.cpython-38.opt-2.pyc
>>> /usr/lib/python3.8/site-packages/fixtures/_fixtures/__pycache__/packagepath.cpython-38.opt-1.pyc
>>> /usr/lib/python3.8/site-packages/fixtures/_fixtures/__pycache__/logger.cpython-38.opt-1.pyc
>>> /usr/lib/python3.8/site-packages/fixtures/_fixtures/__pycache__/temphomedir.cpython-38.opt-1.pyc
>>> /usr/lib/python3.8/site-packages/fixtures/_fixtures/__pycache__/warnings.cpython-38.opt-2.pyc
>>> /usr/lib/python3.8/site-packages/fixtures/_fixtures/__pycache__/monkeypatch.cpython-38.opt-2.pyc
>>> /usr/lib/python3.8/site-packages/fixtures/_fixtures/__pycache__/warnings.cpython-38.opt-1.pyc
>>> /usr/lib/python3.8/site-packages/fixtures/_fixtures/__pycache__/streams.cpython-38.opt-2.pyc
>>> /usr/lib/python3.8/site-packages/fixtures/_fixtures/__pycache__/warnings.cpython-38.pyc
>>> /usr/lib/python3.8/site-packages/fixtures/_fixtures/__pycache__/pythonpackage.cpython-38.opt-2.pyc
>>> /usr/lib/python3.8/site-packages/fixtures/_fixtures/__pycache__/monkeypatch.cpython-38.pyc
>>> /usr/lib/python3.8/site-packages/fixtures/_fixtures/__pycache__/timeout.cpython-38.pyc
>>> /usr/lib/python3.8/site-packages/fixtures/_fixtures/__pycache__/pythonpackage.cpython-38.opt-1.pyc
>>> /usr/lib/python3.8/site-packages/fixtures/_fixtures/__pycache__/timeout.cpython-38.opt-2.pyc
>>> /usr/lib/python3.8/site-packages/fixtures/_fixtures/__pycache__/popen.cpython-38.opt-1.pyc
>>> /usr/lib/python3.8/site-packages/fixtures/_fixtures/__pycache__/pythonpath.cpython-38.pyc
>>> /usr/lib/python3.8/site-packages/fixtures/_fixtures/__pycache__/monkeypatch.cpython-38.opt-1.pyc
>>> /usr/lib/python3.8/site-packages/fixtures/_fixtures/__pycache__/__init__.cpython-38.opt-2.pyc
>>> /usr/lib/python3.8/site-packages/fixtures/_fixtures/__pycache__/logger.cpython-38.pyc
>>> /usr/lib/python3.8/site-packages/fixtures/_fixtures/__pycache__/mockpatch.cpython-38.pyc
>>> /usr/lib/python3.8/site-packages/fixtures/_fixtures/__pycache__/pythonpath.cpython-38.opt-1.pyc
>>> /usr/lib/python3.8/site-packages/fixtures/_fixtures/__pycache__/pythonpackage.cpython-38.pyc
>>> /usr/lib/python3.8/site-packages/fixtures/_fixtures/__pycache__/__init__.cpython-38.pyc
>>> /usr/lib/python3.8/site-packages/fixtures/_fixtures/__pycache__/popen.cpython-38.opt-2.pyc
>>> /usr/lib/python3.8/site-packages/fixtures/_fixtures/__pycache__/__init__.cpython-38.opt-1.pyc
>>> /usr/lib/python3.8/site-packages/fixtures/_fixtures/__pycache__/packagepath.cpython-38.opt-2.pyc
>>> /usr/lib/python3.8/site-packages/fixtures/_fixtures/__pycache__/tempdir.cpython-38.pyc
>>> /usr/lib/python3.8/site-packages/fixtures/_fixtures/__pycache__/temphomedir.cpython-38.opt-2.pyc
>>> /usr/lib/python3.8/site-packages/fixtures/_fixtures/__pycache__/packagepath.cpython-38.pyc
>>> /usr/lib/python3.8/site-packages/fixtures/_fixtures/__pycache__/mockpatch.cpython-38.opt-2.pyc
>>> /usr/lib/python3.8/site-packages/fixtures/_fixtures/__pycache__/streams.cpython-38.opt-1.pyc
>>> /usr/lib/python3.8/site-packages/fixtures/_fixtures/__pycache__/popen.cpython-38.pyc
>>> /usr/lib/python3.8/site-packages/fixtures/_fixtures/__pycache__/mockpatch.cpython-38.opt-1.pyc
>>> /usr/lib/python3.8/site-packages/fixtures/_fixtures/__pycache__/environ.cpython-38.opt-2.pyc
>>> /usr/lib/python3.8/site-packages/fixtures/_fixtures/__pycache__/logger.cpython-38.opt-2.pyc
>>> /usr/lib/python3.8/site-packages/fixtures/_fixtures/__pycache__/tempdir.cpython-38.opt-1.pyc
>>> /usr/lib/python3.8/site-packages/fixtures/_fixtures/__pycache__/environ.cpython-38.opt-1.pyc
>>> /usr/lib/python3.8/site-packages/fixtures/_fixtures/tempdir.py
>>> /usr/lib/python3.8/site-packages/fixtures/_fixtures/monkeypatch.py
>>> /usr/lib/python3.8/site-packages/fixtures/_fixtures/pythonpath.py
>>> /usr/lib/python3.8/site-packages/fixtures/_fixtures/streams.py
>>> /usr/lib/python3.8/site-packages/fixtures/_fixtures/logger.py
>>> /usr/lib/python3.8/site-packages/fixtures/_fixtures/__init__.py
>>> /usr/lib/python3.8/site-packages/fixtures/_fixtures/packagepath.py
>>> /usr/lib/python3.8/site-packages/fixtures/_fixtures/timeout.py
>>> /usr/lib/python3.8/site-packages/fixtures/_fixtures/temphomedir.py
>>> /usr/lib/python3.8/site-packages/fixtures/_fixtures/pythonpackage.py
>>> dev-python/fixtures-3.0.0 merged.
>>> Regenerating /etc/ld.so.cache...
