No package files given... Grabbing a set.
--- replaced obj /usr/share/man/man1/java-config-2.1.bz2
--- replaced dir /usr/share/man/man1
--- replaced dir /usr/share/man
--- replaced obj /usr/share/java-config-2/launcher/launcher.bash
--- replaced dir /usr/share/java-config-2/launcher
--- replaced obj /usr/share/java-config-2/config/jdk-defaults.conf
--- replaced dir /usr/share/java-config-2/config
--- replaced dir /usr/share/java-config-2
--- replaced dir /usr/share
--- replaced obj /usr/lib/python3.8/site-packages/java_config_2/__pycache__/__init__.cpython-38.pyc
--- replaced obj /usr/lib/python3.8/site-packages/java_config_2/__pycache__/__init__.cpython-38.opt-2.pyc
--- replaced obj /usr/lib/python3.8/site-packages/java_config_2/__pycache__/__init__.cpython-38.opt-1.pyc
--- replaced obj /usr/lib/python3.8/site-packages/java_config_2/__pycache__/Virtual.cpython-38.pyc
--- replaced obj /usr/lib/python3.8/site-packages/java_config_2/__pycache__/Virtual.cpython-38.opt-2.pyc
--- replaced obj /usr/lib/python3.8/site-packages/java_config_2/__pycache__/Virtual.cpython-38.opt-1.pyc
--- replaced obj /usr/lib/python3.8/site-packages/java_config_2/__pycache__/VersionManager.cpython-38.pyc
--- replaced obj /usr/lib/python3.8/site-packages/java_config_2/__pycache__/VersionManager.cpython-38.opt-2.pyc
--- replaced obj /usr/lib/python3.8/site-packages/java_config_2/__pycache__/VersionManager.cpython-38.opt-1.pyc
--- replaced obj /usr/lib/python3.8/site-packages/java_config_2/__pycache__/VM.cpython-38.pyc
--- replaced obj /usr/lib/python3.8/site-packages/java_config_2/__pycache__/VM.cpython-38.opt-2.pyc
--- replaced obj /usr/lib/python3.8/site-packages/java_config_2/__pycache__/VM.cpython-38.opt-1.pyc
--- replaced obj /usr/lib/python3.8/site-packages/java_config_2/__pycache__/Package.cpython-38.pyc
--- replaced obj /usr/lib/python3.8/site-packages/java_config_2/__pycache__/Package.cpython-38.opt-2.pyc
--- replaced obj /usr/lib/python3.8/site-packages/java_config_2/__pycache__/Package.cpython-38.opt-1.pyc
--- replaced obj /usr/lib/python3.8/site-packages/java_config_2/__pycache__/OutputFormatter.cpython-38.pyc
--- replaced obj /usr/lib/python3.8/site-packages/java_config_2/__pycache__/OutputFormatter.cpython-38.opt-2.pyc
--- replaced obj /usr/lib/python3.8/site-packages/java_config_2/__pycache__/OutputFormatter.cpython-38.opt-1.pyc
--- replaced obj /usr/lib/python3.8/site-packages/java_config_2/__pycache__/FileParser.cpython-38.pyc
--- replaced obj /usr/lib/python3.8/site-packages/java_config_2/__pycache__/FileParser.cpython-38.opt-2.pyc
--- replaced obj /usr/lib/python3.8/site-packages/java_config_2/__pycache__/FileParser.cpython-38.opt-1.pyc
--- replaced obj /usr/lib/python3.8/site-packages/java_config_2/__pycache__/Errors.cpython-38.pyc
--- replaced obj /usr/lib/python3.8/site-packages/java_config_2/__pycache__/Errors.cpython-38.opt-2.pyc
--- replaced obj /usr/lib/python3.8/site-packages/java_config_2/__pycache__/Errors.cpython-38.opt-1.pyc
--- replaced obj /usr/lib/python3.8/site-packages/java_config_2/__pycache__/EnvironmentManager.cpython-38.pyc
--- replaced obj /usr/lib/python3.8/site-packages/java_config_2/__pycache__/EnvironmentManager.cpython-38.opt-2.pyc
--- replaced obj /usr/lib/python3.8/site-packages/java_config_2/__pycache__/EnvironmentManager.cpython-38.opt-1.pyc
--- replaced dir /usr/lib/python3.8/site-packages/java_config_2/__pycache__
--- replaced obj /usr/lib/python3.8/site-packages/java_config_2/__init__.py
--- replaced obj /usr/lib/python3.8/site-packages/java_config_2/Virtual.py
--- replaced obj /usr/lib/python3.8/site-packages/java_config_2/VersionManager.py
--- replaced obj /usr/lib/python3.8/site-packages/java_config_2/VM.py
--- replaced obj /usr/lib/python3.8/site-packages/java_config_2/Package.py
--- replaced obj /usr/lib/python3.8/site-packages/java_config_2/OutputFormatter.py
--- replaced obj /usr/lib/python3.8/site-packages/java_config_2/FileParser.py
--- replaced obj /usr/lib/python3.8/site-packages/java_config_2/Errors.py
--- replaced obj /usr/lib/python3.8/site-packages/java_config_2/EnvironmentManager.py
--- replaced dir /usr/lib/python3.8/site-packages/java_config_2
--- replaced obj /usr/lib/python3.8/site-packages/java_config-2.2.0-py3.8.egg-info
--- replaced dir /usr/lib/python3.8/site-packages
--- replaced dir /usr/lib/python3.8
--- replaced obj /usr/lib/python3.7/site-packages/java_config_2/__pycache__/__init__.cpython-37.pyc
--- replaced obj /usr/lib/python3.7/site-packages/java_config_2/__pycache__/__init__.cpython-37.opt-2.pyc
--- replaced obj /usr/lib/python3.7/site-packages/java_config_2/__pycache__/__init__.cpython-37.opt-1.pyc
--- replaced obj /usr/lib/python3.7/site-packages/java_config_2/__pycache__/Virtual.cpython-37.pyc
--- replaced obj /usr/lib/python3.7/site-packages/java_config_2/__pycache__/Virtual.cpython-37.opt-2.pyc
--- replaced obj /usr/lib/python3.7/site-packages/java_config_2/__pycache__/Virtual.cpython-37.opt-1.pyc
--- replaced obj /usr/lib/python3.7/site-packages/java_config_2/__pycache__/VersionManager.cpython-37.pyc
--- replaced obj /usr/lib/python3.7/site-packages/java_config_2/__pycache__/VersionManager.cpython-37.opt-2.pyc
--- replaced obj /usr/lib/python3.7/site-packages/java_config_2/__pycache__/VersionManager.cpython-37.opt-1.pyc
--- replaced obj /usr/lib/python3.7/site-packages/java_config_2/__pycache__/VM.cpython-37.pyc
--- replaced obj /usr/lib/python3.7/site-packages/java_config_2/__pycache__/VM.cpython-37.opt-2.pyc
--- replaced obj /usr/lib/python3.7/site-packages/java_config_2/__pycache__/VM.cpython-37.opt-1.pyc
--- replaced obj /usr/lib/python3.7/site-packages/java_config_2/__pycache__/Package.cpython-37.pyc
--- replaced obj /usr/lib/python3.7/site-packages/java_config_2/__pycache__/Package.cpython-37.opt-2.pyc
--- replaced obj /usr/lib/python3.7/site-packages/java_config_2/__pycache__/Package.cpython-37.opt-1.pyc
--- replaced obj /usr/lib/python3.7/site-packages/java_config_2/__pycache__/OutputFormatter.cpython-37.pyc
--- replaced obj /usr/lib/python3.7/site-packages/java_config_2/__pycache__/OutputFormatter.cpython-37.opt-2.pyc
--- replaced obj /usr/lib/python3.7/site-packages/java_config_2/__pycache__/OutputFormatter.cpython-37.opt-1.pyc
--- replaced obj /usr/lib/python3.7/site-packages/java_config_2/__pycache__/FileParser.cpython-37.pyc
--- replaced obj /usr/lib/python3.7/site-packages/java_config_2/__pycache__/FileParser.cpython-37.opt-2.pyc
--- replaced obj /usr/lib/python3.7/site-packages/java_config_2/__pycache__/FileParser.cpython-37.opt-1.pyc
--- replaced obj /usr/lib/python3.7/site-packages/java_config_2/__pycache__/Errors.cpython-37.pyc
--- replaced obj /usr/lib/python3.7/site-packages/java_config_2/__pycache__/Errors.cpython-37.opt-2.pyc
--- replaced obj /usr/lib/python3.7/site-packages/java_config_2/__pycache__/Errors.cpython-37.opt-1.pyc
--- replaced obj /usr/lib/python3.7/site-packages/java_config_2/__pycache__/EnvironmentManager.cpython-37.pyc
--- replaced obj /usr/lib/python3.7/site-packages/java_config_2/__pycache__/EnvironmentManager.cpython-37.opt-2.pyc
--- replaced obj /usr/lib/python3.7/site-packages/java_config_2/__pycache__/EnvironmentManager.cpython-37.opt-1.pyc
--- replaced dir /usr/lib/python3.7/site-packages/java_config_2/__pycache__
--- replaced obj /usr/lib/python3.7/site-packages/java_config_2/__init__.py
--- replaced obj /usr/lib/python3.7/site-packages/java_config_2/Virtual.py
--- replaced obj /usr/lib/python3.7/site-packages/java_config_2/VersionManager.py
--- replaced obj /usr/lib/python3.7/site-packages/java_config_2/VM.py
--- replaced obj /usr/lib/python3.7/site-packages/java_config_2/Package.py
--- replaced obj /usr/lib/python3.7/site-packages/java_config_2/OutputFormatter.py
--- replaced obj /usr/lib/python3.7/site-packages/java_config_2/FileParser.py
--- replaced obj /usr/lib/python3.7/site-packages/java_config_2/Errors.py
--- replaced obj /usr/lib/python3.7/site-packages/java_config_2/EnvironmentManager.py
--- replaced dir /usr/lib/python3.7/site-packages/java_config_2
--- replaced obj /usr/lib/python3.7/site-packages/java_config-2.2.0-py3.7.egg-info
--- replaced dir /usr/lib/python3.7/site-packages
--- replaced dir /usr/lib/python3.7
--- replaced obj /usr/lib/python-exec/python3.8/java-config-2
--- replaced obj /usr/lib/python-exec/python3.8/gjl
--- replaced obj /usr/lib/python-exec/python3.8/depend-java-query
--- replaced dir /usr/lib/python-exec/python3.8
--- replaced obj /usr/lib/python-exec/python3.7/java-config-2
--- replaced obj /usr/lib/python-exec/python3.7/gjl
--- replaced obj /usr/lib/python-exec/python3.7/depend-java-query
--- replaced dir /usr/lib/python-exec/python3.7
--- replaced dir /usr/lib/python-exec
--- replaced dir /usr/lib
--- replaced sym /usr/bin/java-config-2
--- replaced sym /usr/bin/java-config
--- replaced sym /usr/bin/gjl
--- replaced sym /usr/bin/depend-java-query
--- replaced dir /usr/bin
--- replaced dir /usr
--- replaced obj /etc/java-config-2/virtuals
--- replaced obj /etc/java-config-2/build/jdk.conf
--- replaced obj /etc/java-config-2/build/compilers.conf
--- replaced dir /etc/java-config-2/build
--- replaced dir /etc/java-config-2
--- replaced dir /etc
>>> Regenerating /etc/ld.so.cache...
