>>> Extracting info
 * Package:    dev-libs/libxslt-1.1.33-r1
 * Repository: gentoo
 * USE:        python abi_x86_64 userland_GNU examples crypt kernel_linux amd64 python_targets_python2_7 elibc_glibc
 * FEATURES:   network-sandbox preserve-libs sandbox userpriv usersandbox
 * FEATURES='assume-digests binpkg-docompress binpkg-dostrip binpkg-logs binpkg-multi-instance buildpkg cgroup compress-index config-protect-if-modified distlocks downgrade-backup fixlafiles ipc-sandbox merge-sync multilib-strict network-sandbox news nodoc parallel-fetch parallel-install pid-sandbox preserve-libs qa-unresolved-soname-deps sandbox sfperms strict strict-keepdir unknown-features-warn unmerge-backup unmerge-logs unmerge-orphans userfetch userpriv usersandbox usersync xattr'
 * CFLAGS='-march=native -O3 -fgraphite-identity -floop-nest-optimize -fdevirtualize-at-ltrans -fipa-pta -fno-semantic-interposition -flto=12 -fno-plt -fno-math-errno -fno-trapping-math -fuse-linker-plugin -pipe -g0 -falign-functions=32 -Wl,-O1 -Wl,--as-needed -Wl,--hash-style=gnu,-z,norelro,--as-needed'
 * CXXFLAGS='-march=native -O3 -fgraphite-identity -floop-nest-optimize -fdevirtualize-at-ltrans -fipa-pta -fno-semantic-interposition -flto=12 -fno-plt -fno-math-errno -fno-trapping-math -fuse-linker-plugin -pipe -g0 -falign-functions=32 -Wl,-O1 -Wl,--as-needed -Wl,--hash-style=gnu,-z,norelro,--as-needed'
 * FFLAGS='-march=native -O3 -fgraphite-identity -floop-nest-optimize -fdevirtualize-at-ltrans -fipa-pta -fno-semantic-interposition -flto=12 -fno-plt -fno-math-errno -fno-trapping-math -fuse-linker-plugin -pipe -g0 -falign-functions=32 -Wl,-O1 -Wl,--as-needed -Wl,--hash-style=gnu,-z,norelro,--as-needed'
 * FCFLAGS='-march=native -O3 -fgraphite-identity -floop-nest-optimize -fdevirtualize-at-ltrans -fipa-pta -fno-semantic-interposition -flto=12 -fno-plt -fno-math-errno -fno-trapping-math -fuse-linker-plugin -pipe -g0 -falign-functions=32 -Wl,-O1 -Wl,--as-needed -Wl,--hash-style=gnu,-z,norelro,--as-needed'
 * F77FLAGS='-march=native -O3 -fgraphite-identity -floop-nest-optimize -fdevirtualize-at-ltrans -fipa-pta -fno-semantic-interposition -flto=12 -fno-plt -fno-math-errno -fno-trapping-math -fuse-linker-plugin -pipe -g0 -falign-functions=32 -Wl,-O1 -Wl,--as-needed -Wl,--hash-style=gnu,-z,norelro,--as-needed'
 * LDFLAGS='-Wl,-O1 -Wl,--as-needed -Wl,--hash-style=gnu,-z,norelro,--as-needed -march=native -O3 -fgraphite-identity -floop-nest-optimize -fdevirtualize-at-ltrans -fipa-pta -fno-semantic-interposition -flto=12 -fno-plt -fno-math-errno -fno-trapping-math -fuse-linker-plugin -pipe -g0 -falign-functions=32'
 * MAKEOPTS='-j12 -l12'
 * gcc () 11.0.0 20200526 (experimental)
 * g++ () 11.0.0 20200526 (experimental)
 * GNU ld (Gentoo 2.34 p4) 2.34.0
 * Linux ryzen.gnum.org 5.4.36 #1 SMP Thu Apr 30 04:38:28 UTC 2020 x86_64 AMD Ryzen 5 3600 6-Core Processor AuthenticAMD GNU/Linux
dev-libs/libxslt: 22 seconds average for 7 merges
2020-05-15T07:21:10 >>> dev-libs/libxslt: 54 seconds
2020-05-16T15:51:11 >>> dev-libs/libxslt: 35 seconds
2020-05-20T02:15:01 >>> dev-libs/libxslt: 5 seconds
2020-05-20T04:58:03 >>> dev-libs/libxslt: 5 seconds
2020-05-21T12:57:09 >>> dev-libs/libxslt: 5 seconds
2020-05-24T22:12:10 >>> dev-libs/libxslt: 4 seconds
2020-05-26T00:09:55 >>> dev-libs/libxslt: 47 seconds
]0;emerge 14:39:07 598|980 libxslt 00:19 (root@ryzen.gnum.org)kemerge 14:39:07 598|980 libxslt 00:19 (root@ryzen.gnum.org)\>>> Extracting dev-libs/libxslt-1.1.33-r1
 * checking 45 files for package collisions
>>> Merging dev-libs/libxslt-1.1.33-r1 to /
 * removing unneeded *.la files
--- /usr/
--- /usr/lib64/
>>> /usr/lib64/xsltConf.sh
--- /usr/lib64/pkgconfig/
>>> /usr/lib64/pkgconfig/libexslt.pc
>>> /usr/lib64/pkgconfig/libxslt.pc
>>> /usr/lib64/libexslt.so.0.8.20
--- /usr/lib64/python2.7/
--- /usr/lib64/python2.7/site-packages/
>>> /usr/lib64/python2.7/site-packages/libxslt.py
>>> /usr/lib64/python2.7/site-packages/libxslt.pyc
>>> /usr/lib64/python2.7/site-packages/libxslt.pyo
>>> /usr/lib64/python2.7/site-packages/libxsltmod.so
>>> /usr/lib64/libxslt.so.1 -> libxslt.so.1.1.33
>>> /usr/lib64/libexslt.so.0 -> libexslt.so.0.8.20
>>> /usr/lib64/libxslt.so -> libxslt.so.1.1.33
>>> /usr/lib64/libexslt.so -> libexslt.so.0.8.20
>>> /usr/lib64/libxslt.so.1.1.33
--- /usr/share/
--- /usr/share/aclocal/
>>> /usr/share/aclocal/libxslt.m4
--- /usr/share/man/
--- /usr/share/man/man3/
>>> /usr/share/man/man3/libexslt.3.bz2
>>> /usr/share/man/man3/libxslt.3.bz2
--- /usr/share/man/man1/
>>> /usr/share/man/man1/xsltproc.1.bz2
--- /usr/include/
--- /usr/include/libexslt/
>>> /usr/include/libexslt/exsltexports.h
>>> /usr/include/libexslt/exsltconfig.h
>>> /usr/include/libexslt/exslt.h
--- /usr/include/x86_64-pc-linux-gnu/
--- /usr/include/x86_64-pc-linux-gnu/libxslt/
>>> /usr/include/x86_64-pc-linux-gnu/libxslt/xsltconfig.h
--- /usr/include/libxslt/
>>> /usr/include/libxslt/keys.h
>>> /usr/include/libxslt/xsltInternals.h
>>> /usr/include/libxslt/documents.h
>>> /usr/include/libxslt/xsltconfig.h
>>> /usr/include/libxslt/pattern.h
>>> /usr/include/libxslt/imports.h
>>> /usr/include/libxslt/transform.h
>>> /usr/include/libxslt/preproc.h
>>> /usr/include/libxslt/numbersInternals.h
>>> /usr/include/libxslt/security.h
>>> /usr/include/libxslt/functions.h
>>> /usr/include/libxslt/xsltutils.h
>>> /usr/include/libxslt/templates.h
>>> /usr/include/libxslt/variables.h
>>> /usr/include/libxslt/xslt.h
>>> /usr/include/libxslt/extra.h
>>> /usr/include/libxslt/xsltexports.h
>>> /usr/include/libxslt/namespaces.h
>>> /usr/include/libxslt/xsltlocale.h
>>> /usr/include/libxslt/attributes.h
>>> /usr/include/libxslt/extensions.h
--- /usr/bin/
>>> /usr/bin/x86_64-pc-linux-gnu-xslt-config
>>> /usr/bin/xsltproc
>>> /usr/bin/xslt-config -> x86_64-pc-linux-gnu-xslt-config
>>> Safely unmerging already-installed instance...
>>> Original instance of package unmerged safely.
>>> dev-libs/libxslt-1.1.33-r1 merged.
>>> Regenerating /etc/ld.so.cache...
