[32;01m * [39;49;00mPackage:    dev-qt/qtwebkit-5.212.0_pre20200309-r1
[32;01m * [39;49;00mRepository: gentoo
[32;01m * [39;49;00mMaintainer: qt@gentoo.org
[32;01m * [39;49;00mUpstream:   https://bugreports.qt.io/
[32;01m * [39;49;00mUSE:        X abi_x86_64 amd64 elibc_glibc gstreamer hyphen jit kernel_linux opengl printsupport userland_GNU webp
[32;01m * [39;49;00mFEATURES:   network-sandbox preserve-libs sandbox userpriv usersandbox
