 * Package:    dev-cpp/nlohmann_json-3.7.3
 * Repository: gentoo
 * Maintainer: media-video@gentoo.org
 * USE:        abi_x86_64 amd64 elibc_glibc kernel_linux userland_GNU
 * FEATURES:   ccache network-sandbox preserve-libs userpriv
 * /etc/portage/package.cflags/ltoworkarounds.conf -> */*: *FLAGS+=-Wl,-O4 *FLAGS-=-Wl,-O1
 * FEATURES='compress-index network-sandbox strict buildpkg binpkg-logs sfperms cgroup news ebuild-locks qa-unresolved-soname-deps strict-keepdir ccache binpkg-dostrip fixlafiles distlocks unmerge-logs binpkg-docompress config-protect-if-modified usersync userfetch parallel-fetch unmerge-orphans assume-digests xattr unknown-features-warn nodoc preserve-libs multilib-strict userpriv merge-sync'
 * CFLAGS='-march=znver2 -Ofast -pipe -g0 -fgraphite-identity -floop-interchange -floop-nest-optimize -floop-parallelize-all -ftree-parallelize-loops=12 -ftree-vectorize -fdevirtualize-at-ltrans -fipa-pta -fno-semantic-interposition -flto=12 -fno-plt -falign-functions=32 -fno-stack-protector -fno-stack-clash-protection -fstack-check=no -fno-stack-check -fuse-linker-plugin -Wl,-O4 -Wl,-O4,--sort-common,--as-needed,-z,norelro,-z,now'
 * CXXFLAGS='-march=znver2 -Ofast -pipe -g0 -fgraphite-identity -floop-interchange -floop-nest-optimize -floop-parallelize-all -ftree-parallelize-loops=12 -ftree-vectorize -fdevirtualize-at-ltrans -fipa-pta -fno-semantic-interposition -flto=12 -fno-plt -falign-functions=32 -fno-stack-protector -fno-stack-clash-protection -fstack-check=no -fno-stack-check -fuse-linker-plugin -Wl,-O4 -Wl,-O4,--sort-common,--as-needed,-z,norelro,-z,now'
 * FFLAGS='-march=znver2 -Ofast -pipe -g0 -fgraphite-identity -floop-interchange -floop-nest-optimize -floop-parallelize-all -ftree-parallelize-loops=12 -ftree-vectorize -fdevirtualize-at-ltrans -fipa-pta -fno-semantic-interposition -flto=12 -fno-plt -falign-functions=32 -fno-stack-protector -fno-stack-clash-protection -fstack-check=no -fno-stack-check -fuse-linker-plugin -Wl,-O4 -Wl,-O4,--sort-common,--as-needed,-z,norelro,-z,now'
 * FCFLAGS='-march=znver2 -Ofast -pipe -g0 -fgraphite-identity -floop-interchange -floop-nest-optimize -floop-parallelize-all -ftree-parallelize-loops=12 -ftree-vectorize -fdevirtualize-at-ltrans -fipa-pta -fno-semantic-interposition -flto=12 -fno-plt -falign-functions=32 -fno-stack-protector -fno-stack-clash-protection -fstack-check=no -fno-stack-check -fuse-linker-plugin -Wl,-O4 -Wl,-O4,--sort-common,--as-needed,-z,norelro,-z,now'
 * F77FLAGS='-march=znver2 -Ofast -pipe -g0 -fgraphite-identity -floop-interchange -floop-nest-optimize -floop-parallelize-all -ftree-parallelize-loops=12 -ftree-vectorize -fdevirtualize-at-ltrans -fipa-pta -fno-semantic-interposition -flto=12 -fno-plt -falign-functions=32 -fno-stack-protector -fno-stack-clash-protection -fstack-check=no -fno-stack-check -fuse-linker-plugin -Wl,-O4 -Wl,-O4,--sort-common,--as-needed,-z,norelro,-z,now'
 * LDFLAGS='-Wl,-O4,--sort-common,--as-needed,-z,norelro,-z,now -march=znver2 -Ofast -pipe -g0 -fgraphite-identity -floop-interchange -floop-nest-optimize -floop-parallelize-all -ftree-parallelize-loops=12 -ftree-vectorize -fdevirtualize-at-ltrans -fipa-pta -fno-semantic-interposition -flto=12 -fno-plt -falign-functions=32 -fno-stack-protector -fno-stack-clash-protection -fstack-check=no -fno-stack-check -fuse-linker-plugin -Wl,-O4'
 * MAKEOPTS='-j12 -l12'
 * gcc (Gentoo 11.0.0_pre9999 p1, commit 184c21bf1cd04a108ed9bd04635e7d57ac39f616) 11.0.0 20200611 (experimental)
 * g++ (Gentoo 11.0.0_pre9999 p1, commit 184c21bf1cd04a108ed9bd04635e7d57ac39f616) 11.0.0 20200611 (experimental)
 * GNU ld (Gentoo 2.34 p4) 2.34.0
 * Linux rescue 5.4.36 #1 SMP Thu Apr 30 04:38:28 UTC 2020 x86_64 AMD Ryzen 5 3600 6-Core Processor AuthenticAMD GNU/Linux
dev-cpp/nlohmann_json: 1 minute, 10 seconds average for 8 merges
2020-05-20T08:48:38 >>> dev-cpp/nlohmann_json: 39 seconds
2020-05-21T06:15:32 >>> dev-cpp/nlohmann_json: 6 seconds
2020-05-26T14:10:02 >>> dev-cpp/nlohmann_json: 19 seconds
2020-05-28T05:56:39 >>> dev-cpp/nlohmann_json: 2 minutes, 9 seconds
2020-05-28T14:34:25 >>> dev-cpp/nlohmann_json: 16 seconds
2020-05-29T13:52:28 >>> dev-cpp/nlohmann_json: 2 minutes, 4 seconds
2020-05-31T00:06:19 >>> dev-cpp/nlohmann_json: 2 minutes, 16 seconds
2020-06-01T08:14:04 >>> dev-cpp/nlohmann_json: 1 minute, 35 seconds
]0;emerge 03:40:56 54|262 nlohmann_json 01:58 (root@rescue)>>> Unpacking source...
>>> Unpacking nlohmann_json-3.7.3.tar.gz to /tmp/portage/dev-cpp/nlohmann_json-3.7.3/work
>>> Source unpacked in /tmp/portage/dev-cpp/nlohmann_json-3.7.3/work
>>> Preparing source in /tmp/portage/dev-cpp/nlohmann_json-3.7.3/work/json-3.7.3 ...
 * Applying nlohmann_json-3.7.3-gcc-10.patch ...
patching file include/nlohmann/detail/meta/type_traits.hpp
patching file include/nlohmann/json.hpp
patching file single_include/nlohmann/json.hpp
Hunk #1 succeeded at 2478 (offset -316 lines).
Hunk #2 succeeded at 16329 (offset -316 lines).
patching file include/nlohmann/detail/meta/type_traits.hpp
patching file single_include/nlohmann/json.hpp
Hunk #1 succeeded at 2479 (offset -316 lines).
 [ ok ]
 * Working in BUILD_DIR: "/tmp/portage/dev-cpp/nlohmann_json-3.7.3/work/nlohmann_json-3.7.3_build"
>>> Source prepared.
>>> Configuring source in /tmp/portage/dev-cpp/nlohmann_json-3.7.3/work/json-3.7.3 ...
 * Working in BUILD_DIR: "/tmp/portage/dev-cpp/nlohmann_json-3.7.3/work/nlohmann_json-3.7.3_build"
cmake -C /tmp/portage/dev-cpp/nlohmann_json-3.7.3/work/nlohmann_json-3.7.3_build/gentoo_common_config.cmake -G Ninja -DCMAKE_INSTALL_PREFIX=/usr -DJSON_BuildTests=no -DJSON_MultipleHeaders=ON -DCMAKE_BUILD_TYPE=Gentoo -DCMAKE_TOOLCHAIN_FILE=/tmp/portage/dev-cpp/nlohmann_json-3.7.3/work/nlohmann_json-3.7.3_build/gentoo_toolchain.cmake  /tmp/portage/dev-cpp/nlohmann_json-3.7.3/work/json-3.7.3
loading initial cache file /tmp/portage/dev-cpp/nlohmann_json-3.7.3/work/nlohmann_json-3.7.3_build/gentoo_common_config.cmake
-- The CXX compiler identification is GNU 11.0.0
-- Check for working CXX compiler: /usr/lib/ccache/bin/x86_64-pc-linux-gnu-g++
-- Check for working CXX compiler: /usr/lib/ccache/bin/x86_64-pc-linux-gnu-g++ - works
-- Detecting CXX compiler ABI info
-- Detecting CXX compiler ABI info - done
-- Detecting CXX compile features
-- Detecting CXX compile features - done
-- Using the multi-header code from /tmp/portage/dev-cpp/nlohmann_json-3.7.3/work/json-3.7.3/include/
-- <<< Gentoo configuration >>>
Build type      Gentoo
Install path    /usr
Compiler flags:
C               
C++             -march=znver2 -Ofast -pipe -g0 -fgraphite-identity -floop-interchange -floop-nest-optimize -floop-parallelize-all -ftree-parallelize-loops=12 -ftree-vectorize -fdevirtualize-at-ltrans -fipa-pta -fno-semantic-interposition -flto=12 -fno-plt -falign-functions=32 -fno-stack-protector -fno-stack-clash-protection -fstack-check=no -fno-stack-check -fuse-linker-plugin -Wl,-O4 -Wl,-O4,--sort-common,--as-needed,-z,norelro,-z,now
Linker flags:
Executable      -Wl,-O4,--sort-common,--as-needed,-z,norelro,-z,now -march=znver2 -Ofast -pipe -g0 -fgraphite-identity -floop-interchange -floop-nest-optimize -floop-parallelize-all -ftree-parallelize-loops=12 -ftree-vectorize -fdevirtualize-at-ltrans -fipa-pta -fno-semantic-interposition -flto=12 -fno-plt -falign-functions=32 -fno-stack-protector -fno-stack-clash-protection -fstack-check=no -fno-stack-check -fuse-linker-plugin -Wl,-O4
Module          -Wl,-O4,--sort-common,--as-needed,-z,norelro,-z,now -march=znver2 -Ofast -pipe -g0 -fgraphite-identity -floop-interchange -floop-nest-optimize -floop-parallelize-all -ftree-parallelize-loops=12 -ftree-vectorize -fdevirtualize-at-ltrans -fipa-pta -fno-semantic-interposition -flto=12 -fno-plt -falign-functions=32 -fno-stack-protector -fno-stack-clash-protection -fstack-check=no -fno-stack-check -fuse-linker-plugin -Wl,-O4
Shared          -Wl,-O4,--sort-common,--as-needed,-z,norelro,-z,now -march=znver2 -Ofast -pipe -g0 -fgraphite-identity -floop-interchange -floop-nest-optimize -floop-parallelize-all -ftree-parallelize-loops=12 -ftree-vectorize -fdevirtualize-at-ltrans -fipa-pta -fno-semantic-interposition -flto=12 -fno-plt -falign-functions=32 -fno-stack-protector -fno-stack-clash-protection -fstack-check=no -fno-stack-check -fuse-linker-plugin -Wl,-O4

-- Configuring done
-- Generating done
-- Build files have been written to: /tmp/portage/dev-cpp/nlohmann_json-3.7.3/work/nlohmann_json-3.7.3_build
>>> Source configured.
>>> Compiling source in /tmp/portage/dev-cpp/nlohmann_json-3.7.3/work/json-3.7.3 ...
 * Working in BUILD_DIR: "/tmp/portage/dev-cpp/nlohmann_json-3.7.3/work/nlohmann_json-3.7.3_build"
ninja -v -j12 -l12
ninja: no work to do.
>>> Source compiled.
 * Skipping make test/check due to ebuild restriction.
>>> Test phase [disabled because of RESTRICT=test]: dev-cpp/nlohmann_json-3.7.3

>>> Install dev-cpp/nlohmann_json-3.7.3 into /tmp/portage/dev-cpp/nlohmann_json-3.7.3/image
 * Working in BUILD_DIR: "/tmp/portage/dev-cpp/nlohmann_json-3.7.3/work/nlohmann_json-3.7.3_build"
[0/1] Install the project...[K
-- Install configuration: "Gentoo"
-- Installing: /tmp/portage/dev-cpp/nlohmann_json-3.7.3/image/usr/include
-- Installing: /tmp/portage/dev-cpp/nlohmann_json-3.7.3/image/usr/include/nlohmann
-- Installing: /tmp/portage/dev-cpp/nlohmann_json-3.7.3/image/usr/include/nlohmann/detail
-- Installing: /tmp/portage/dev-cpp/nlohmann_json-3.7.3/image/usr/include/nlohmann/detail/input
-- Installing: /tmp/portage/dev-cpp/nlohmann_json-3.7.3/image/usr/include/nlohmann/detail/input/json_sax.hpp
-- Installing: /tmp/portage/dev-cpp/nlohmann_json-3.7.3/image/usr/include/nlohmann/detail/input/input_adapters.hpp
-- Installing: /tmp/portage/dev-cpp/nlohmann_json-3.7.3/image/usr/include/nlohmann/detail/input/position_t.hpp
-- Installing: /tmp/portage/dev-cpp/nlohmann_json-3.7.3/image/usr/include/nlohmann/detail/input/binary_reader.hpp
-- Installing: /tmp/portage/dev-cpp/nlohmann_json-3.7.3/image/usr/include/nlohmann/detail/input/lexer.hpp
-- Installing: /tmp/portage/dev-cpp/nlohmann_json-3.7.3/image/usr/include/nlohmann/detail/input/parser.hpp
-- Installing: /tmp/portage/dev-cpp/nlohmann_json-3.7.3/image/usr/include/nlohmann/detail/exceptions.hpp
-- Installing: /tmp/portage/dev-cpp/nlohmann_json-3.7.3/image/usr/include/nlohmann/detail/value_t.hpp
-- Installing: /tmp/portage/dev-cpp/nlohmann_json-3.7.3/image/usr/include/nlohmann/detail/macro_scope.hpp
-- Installing: /tmp/portage/dev-cpp/nlohmann_json-3.7.3/image/usr/include/nlohmann/detail/json_pointer.hpp
-- Installing: /tmp/portage/dev-cpp/nlohmann_json-3.7.3/image/usr/include/nlohmann/detail/macro_unscope.hpp
-- Installing: /tmp/portage/dev-cpp/nlohmann_json-3.7.3/image/usr/include/nlohmann/detail/conversions
-- Installing: /tmp/portage/dev-cpp/nlohmann_json-3.7.3/image/usr/include/nlohmann/detail/conversions/to_chars.hpp
-- Installing: /tmp/portage/dev-cpp/nlohmann_json-3.7.3/image/usr/include/nlohmann/detail/conversions/to_json.hpp
-- Installing: /tmp/portage/dev-cpp/nlohmann_json-3.7.3/image/usr/include/nlohmann/detail/conversions/from_json.hpp
-- Installing: /tmp/portage/dev-cpp/nlohmann_json-3.7.3/image/usr/include/nlohmann/detail/output
-- Installing: /tmp/portage/dev-cpp/nlohmann_json-3.7.3/image/usr/include/nlohmann/detail/output/output_adapters.hpp
-- Installing: /tmp/portage/dev-cpp/nlohmann_json-3.7.3/image/usr/include/nlohmann/detail/output/binary_writer.hpp
-- Installing: /tmp/portage/dev-cpp/nlohmann_json-3.7.3/image/usr/include/nlohmann/detail/output/serializer.hpp
-- Installing: /tmp/portage/dev-cpp/nlohmann_json-3.7.3/image/usr/include/nlohmann/detail/meta
-- Installing: /tmp/portage/dev-cpp/nlohmann_json-3.7.3/image/usr/include/nlohmann/detail/meta/cpp_future.hpp
-- Installing: /tmp/portage/dev-cpp/nlohmann_json-3.7.3/image/usr/include/nlohmann/detail/meta/void_t.hpp
-- Installing: /tmp/portage/dev-cpp/nlohmann_json-3.7.3/image/usr/include/nlohmann/detail/meta/detected.hpp
-- Installing: /tmp/portage/dev-cpp/nlohmann_json-3.7.3/image/usr/include/nlohmann/detail/meta/type_traits.hpp
-- Installing: /tmp/portage/dev-cpp/nlohmann_json-3.7.3/image/usr/include/nlohmann/detail/meta/is_sax.hpp
-- Installing: /tmp/portage/dev-cpp/nlohmann_json-3.7.3/image/usr/include/nlohmann/detail/json_ref.hpp
-- Installing: /tmp/portage/dev-cpp/nlohmann_json-3.7.3/image/usr/include/nlohmann/detail/iterators
-- Installing: /tmp/portage/dev-cpp/nlohmann_json-3.7.3/image/usr/include/nlohmann/detail/iterators/json_reverse_iterator.hpp
-- Installing: /tmp/portage/dev-cpp/nlohmann_json-3.7.3/image/usr/include/nlohmann/detail/iterators/iter_impl.hpp
-- Installing: /tmp/portage/dev-cpp/nlohmann_json-3.7.3/image/usr/include/nlohmann/detail/iterators/primitive_iterator.hpp
-- Installing: /tmp/portage/dev-cpp/nlohmann_json-3.7.3/image/usr/include/nlohmann/detail/iterators/iterator_traits.hpp
-- Installing: /tmp/portage/dev-cpp/nlohmann_json-3.7.3/image/usr/include/nlohmann/detail/iterators/internal_iterator.hpp
-- Installing: /tmp/portage/dev-cpp/nlohmann_json-3.7.3/image/usr/include/nlohmann/detail/iterators/iteration_proxy.hpp
-- Installing: /tmp/portage/dev-cpp/nlohmann_json-3.7.3/image/usr/include/nlohmann/adl_serializer.hpp
-- Installing: /tmp/portage/dev-cpp/nlohmann_json-3.7.3/image/usr/include/nlohmann/thirdparty
-- Installing: /tmp/portage/dev-cpp/nlohmann_json-3.7.3/image/usr/include/nlohmann/thirdparty/hedley
-- Installing: /tmp/portage/dev-cpp/nlohmann_json-3.7.3/image/usr/include/nlohmann/thirdparty/hedley/hedley.hpp
-- Installing: /tmp/portage/dev-cpp/nlohmann_json-3.7.3/image/usr/include/nlohmann/thirdparty/hedley/hedley_undef.hpp
-- Installing: /tmp/portage/dev-cpp/nlohmann_json-3.7.3/image/usr/include/nlohmann/json.hpp
-- Installing: /tmp/portage/dev-cpp/nlohmann_json-3.7.3/image/usr/include/nlohmann/json_fwd.hpp
-- Installing: /tmp/portage/dev-cpp/nlohmann_json-3.7.3/image/usr/lib64/cmake/nlohmann_json/nlohmann_jsonConfig.cmake
-- Installing: /tmp/portage/dev-cpp/nlohmann_json-3.7.3/image/usr/lib64/cmake/nlohmann_json/nlohmann_jsonConfigVersion.cmake
-- Installing: /tmp/portage/dev-cpp/nlohmann_json-3.7.3/image/usr/lib64/cmake/nlohmann_json/nlohmann_jsonTargets.cmake
>>> Completed installing dev-cpp/nlohmann_json-3.7.3 into /tmp/portage/dev-cpp/nlohmann_json-3.7.3/image

 * Final size of build directory: 265944 KiB (259.7 MiB)
 * Final size of installed tree:    1220 KiB (  1.1 MiB)

./
./usr/
./usr/include/
./usr/include/nlohmann/
./usr/include/nlohmann/detail/
./usr/include/nlohmann/detail/input/
./usr/include/nlohmann/detail/input/json_sax.hpp
./usr/include/nlohmann/detail/input/input_adapters.hpp
./usr/include/nlohmann/detail/input/position_t.hpp
./usr/include/nlohmann/detail/input/binary_reader.hpp
./usr/include/nlohmann/detail/input/lexer.hpp
./usr/include/nlohmann/detail/input/parser.hpp
./usr/include/nlohmann/detail/exceptions.hpp
./usr/include/nlohmann/detail/value_t.hpp
./usr/include/nlohmann/detail/macro_scope.hpp
./usr/include/nlohmann/detail/json_pointer.hpp
./usr/include/nlohmann/detail/macro_unscope.hpp
./usr/include/nlohmann/detail/conversions/
./usr/include/nlohmann/detail/conversions/to_chars.hpp
./usr/include/nlohmann/detail/conversions/to_json.hpp
./usr/include/nlohmann/detail/conversions/from_json.hpp
./usr/include/nlohmann/detail/output/
./usr/include/nlohmann/detail/output/output_adapters.hpp
./usr/include/nlohmann/detail/output/binary_writer.hpp
./usr/include/nlohmann/detail/output/serializer.hpp
./usr/include/nlohmann/detail/meta/
./usr/include/nlohmann/detail/meta/cpp_future.hpp
./usr/include/nlohmann/detail/meta/void_t.hpp
./usr/include/nlohmann/detail/meta/detected.hpp
./usr/include/nlohmann/detail/meta/type_traits.hpp
./usr/include/nlohmann/detail/meta/is_sax.hpp
./usr/include/nlohmann/detail/json_ref.hpp
./usr/include/nlohmann/detail/iterators/
./usr/include/nlohmann/detail/iterators/json_reverse_iterator.hpp
./usr/include/nlohmann/detail/iterators/iter_impl.hpp
./usr/include/nlohmann/detail/iterators/primitive_iterator.hpp
./usr/include/nlohmann/detail/iterators/iterator_traits.hpp
./usr/include/nlohmann/detail/iterators/internal_iterator.hpp
./usr/include/nlohmann/detail/iterators/iteration_proxy.hpp
./usr/include/nlohmann/adl_serializer.hpp
./usr/include/nlohmann/thirdparty/
./usr/include/nlohmann/thirdparty/hedley/
./usr/include/nlohmann/thirdparty/hedley/hedley.hpp
./usr/include/nlohmann/thirdparty/hedley/hedley_undef.hpp
./usr/include/nlohmann/json.hpp
./usr/include/nlohmann/json_fwd.hpp
./usr/share/
./usr/share/doc/
./usr/share/doc/nlohmann_json-3.7.3/
./usr/share/doc/nlohmann_json-3.7.3/README.md.bz2
./usr/share/doc/nlohmann_json-3.7.3/ChangeLog.md.bz2
./usr/lib64/
./usr/lib64/cmake/
./usr/lib64/cmake/nlohmann_json/
./usr/lib64/cmake/nlohmann_json/nlohmann_jsonConfigVersion.cmake
./usr/lib64/cmake/nlohmann_json/nlohmann_jsonTargets.cmake
./usr/lib64/cmake/nlohmann_json/nlohmann_jsonConfig.cmake
>>> Done.
 * checking 37 files for package collisions
>>> Merging dev-cpp/nlohmann_json-3.7.3 to /
 * removing unneeded *.la files
--- /usr/
--- /usr/lib64/
--- /usr/lib64/cmake/
--- /usr/lib64/cmake/nlohmann_json/
>>> /usr/lib64/cmake/nlohmann_json/nlohmann_jsonConfig.cmake
>>> /usr/lib64/cmake/nlohmann_json/nlohmann_jsonTargets.cmake
>>> /usr/lib64/cmake/nlohmann_json/nlohmann_jsonConfigVersion.cmake
--- /usr/include/
--- /usr/include/nlohmann/
>>> /usr/include/nlohmann/json_fwd.hpp
>>> /usr/include/nlohmann/json.hpp
--- /usr/include/nlohmann/thirdparty/
--- /usr/include/nlohmann/thirdparty/hedley/
>>> /usr/include/nlohmann/thirdparty/hedley/hedley_undef.hpp
>>> /usr/include/nlohmann/thirdparty/hedley/hedley.hpp
>>> /usr/include/nlohmann/adl_serializer.hpp
--- /usr/include/nlohmann/detail/
--- /usr/include/nlohmann/detail/iterators/
>>> /usr/include/nlohmann/detail/iterators/iteration_proxy.hpp
>>> /usr/include/nlohmann/detail/iterators/internal_iterator.hpp
>>> /usr/include/nlohmann/detail/iterators/iterator_traits.hpp
>>> /usr/include/nlohmann/detail/iterators/primitive_iterator.hpp
>>> /usr/include/nlohmann/detail/iterators/iter_impl.hpp
>>> /usr/include/nlohmann/detail/iterators/json_reverse_iterator.hpp
>>> /usr/include/nlohmann/detail/json_ref.hpp
--- /usr/include/nlohmann/detail/meta/
>>> /usr/include/nlohmann/detail/meta/is_sax.hpp
>>> /usr/include/nlohmann/detail/meta/type_traits.hpp
>>> /usr/include/nlohmann/detail/meta/detected.hpp
>>> /usr/include/nlohmann/detail/meta/void_t.hpp
>>> /usr/include/nlohmann/detail/meta/cpp_future.hpp
--- /usr/include/nlohmann/detail/output/
>>> /usr/include/nlohmann/detail/output/serializer.hpp
>>> /usr/include/nlohmann/detail/output/binary_writer.hpp
>>> /usr/include/nlohmann/detail/output/output_adapters.hpp
--- /usr/include/nlohmann/detail/conversions/
>>> /usr/include/nlohmann/detail/conversions/from_json.hpp
>>> /usr/include/nlohmann/detail/conversions/to_json.hpp
>>> /usr/include/nlohmann/detail/conversions/to_chars.hpp
>>> /usr/include/nlohmann/detail/macro_unscope.hpp
>>> /usr/include/nlohmann/detail/json_pointer.hpp
>>> /usr/include/nlohmann/detail/macro_scope.hpp
>>> /usr/include/nlohmann/detail/value_t.hpp
>>> /usr/include/nlohmann/detail/exceptions.hpp
--- /usr/include/nlohmann/detail/input/
>>> /usr/include/nlohmann/detail/input/parser.hpp
>>> /usr/include/nlohmann/detail/input/lexer.hpp
>>> /usr/include/nlohmann/detail/input/binary_reader.hpp
>>> /usr/include/nlohmann/detail/input/position_t.hpp
>>> /usr/include/nlohmann/detail/input/input_adapters.hpp
>>> /usr/include/nlohmann/detail/input/json_sax.hpp
>>> Safely unmerging already-installed instance...
>>> Original instance of package unmerged safely.
>>> dev-cpp/nlohmann_json-3.7.3 merged.
