No package files given... Grabbing a set.
<<<          obj /usr/lib64/perl5/vendor_perl/5.30.2/XML/Filter/BufferText.pm
--- replaced dir /usr/lib64/perl5/vendor_perl
--- replaced dir /usr/lib64/perl5
--- replaced dir /usr/lib64
--- replaced dir /usr
<<<          dir /usr/lib64/perl5/vendor_perl/5.30.2/XML/Filter
--- !empty   dir /usr/lib64/perl5/vendor_perl/5.30.2/XML
--- !empty   dir /usr/lib64/perl5/vendor_perl/5.30.2
>>> Regenerating /etc/ld.so.cache...
