No package files given... Grabbing a set.
--- replaced obj /usr/share/man/man1/gtester-report.1.bz2
--- replaced obj /usr/share/man/man1/glib-mkenums.1.bz2
--- replaced obj /usr/share/man/man1/glib-genmarshal.1.bz2
--- replaced dir /usr/share/man/man1
--- replaced dir /usr/share/man
--- replaced dir /usr/share
--- replaced obj /usr/bin/gtester-report
--- replaced obj /usr/bin/glib-mkenums
--- replaced obj /usr/bin/glib-genmarshal
--- replaced dir /usr/bin
--- replaced dir /usr
>>> Regenerating /etc/ld.so.cache...
