 * Package:    dev-lang/duktape-2.4.0
 * Repository: gentoo
 * Maintainer: thev00d00@gentoo.org
 * USE:        abi_x86_64 amd64 elibc_glibc kernel_linux userland_GNU
 * FEATURES:   ccache network-sandbox preserve-libs sandbox userpriv usersandbox
 * FEATURES='assume-digests binpkg-docompress binpkg-dostrip binpkg-logs binpkg-multi-instance buildpkg ccache compress-index config-protect-if-modified distlocks downgrade-backup fixlafiles ipc-sandbox merge-sync multilib-strict network-sandbox news nodoc parallel-fetch parallel-install pid-sandbox preserve-libs qa-unresolved-soname-deps sandbox sfperms strict unknown-features-warn unmerge-backup unmerge-logs unmerge-orphans userfetch userpriv usersandbox usersync xattr'
 * CFLAGS='-march=znver2 -O3 -fgraphite-identity -floop-nest-optimize -fdevirtualize-at-ltrans -fipa-pta -fno-semantic-interposition -flto=12 -fno-plt -fno-signed-zeros -fno-trapping-math -fassociative-math -freciprocal-math -fno-math-errno -ffinite-math-only -fno-rounding-math -fno-signaling-nans -fcx-limited-range -fexcess-precision=fast -falign-functions=32 -fno-stack-protector -fno-stack-clash-protection -fstack-check=no -fno-stack-check -fuse-linker-plugin -pipe -g0 -Wl,-O1 -Wl,--as-needed -Wl,-z,norelro -Wl,-z,now -Wl,--sort-common -s'
 * CXXFLAGS='-march=znver2 -O3 -fgraphite-identity -floop-nest-optimize -fdevirtualize-at-ltrans -fipa-pta -fno-semantic-interposition -flto=12 -fno-plt -fno-signed-zeros -fno-trapping-math -fassociative-math -freciprocal-math -fno-math-errno -ffinite-math-only -fno-rounding-math -fno-signaling-nans -fcx-limited-range -fexcess-precision=fast -falign-functions=32 -fno-stack-protector -fno-stack-clash-protection -fstack-check=no -fno-stack-check -fuse-linker-plugin -pipe -g0 -Wl,-O1 -Wl,--as-needed -Wl,-z,norelro -Wl,-z,now -Wl,--sort-common -s'
 * FFLAGS='-march=znver2 -O3 -fgraphite-identity -floop-nest-optimize -fdevirtualize-at-ltrans -fipa-pta -fno-semantic-interposition -flto=12 -fno-plt -fno-signed-zeros -fno-trapping-math -fassociative-math -freciprocal-math -fno-math-errno -ffinite-math-only -fno-rounding-math -fno-signaling-nans -fcx-limited-range -fexcess-precision=fast -falign-functions=32 -fno-stack-protector -fno-stack-clash-protection -fstack-check=no -fno-stack-check -fuse-linker-plugin -pipe -g0 -Wl,-O1 -Wl,--as-needed -Wl,-z,norelro -Wl,-z,now -Wl,--sort-common -s'
 * FCFLAGS='-march=znver2 -O3 -fgraphite-identity -floop-nest-optimize -fdevirtualize-at-ltrans -fipa-pta -fno-semantic-interposition -flto=12 -fno-plt -fno-signed-zeros -fno-trapping-math -fassociative-math -freciprocal-math -fno-math-errno -ffinite-math-only -fno-rounding-math -fno-signaling-nans -fcx-limited-range -fexcess-precision=fast -falign-functions=32 -fno-stack-protector -fno-stack-clash-protection -fstack-check=no -fno-stack-check -fuse-linker-plugin -pipe -g0 -Wl,-O1 -Wl,--as-needed -Wl,-z,norelro -Wl,-z,now -Wl,--sort-common -s'
 * F77FLAGS='-march=znver2 -O3 -fgraphite-identity -floop-nest-optimize -fdevirtualize-at-ltrans -fipa-pta -fno-semantic-interposition -flto=12 -fno-plt -fno-signed-zeros -fno-trapping-math -fassociative-math -freciprocal-math -fno-math-errno -ffinite-math-only -fno-rounding-math -fno-signaling-nans -fcx-limited-range -fexcess-precision=fast -falign-functions=32 -fno-stack-protector -fno-stack-clash-protection -fstack-check=no -fno-stack-check -fuse-linker-plugin -pipe -g0 -Wl,-O1 -Wl,--as-needed -Wl,-z,norelro -Wl,-z,now -Wl,--sort-common -s'
 * LDFLAGS='-Wl,-O1 -Wl,--as-needed -Wl,-z,norelro -Wl,-z,now -Wl,--sort-common -s -march=znver2 -O3 -fgraphite-identity -floop-nest-optimize -fdevirtualize-at-ltrans -fipa-pta -fno-semantic-interposition -flto=12 -fno-plt -fno-signed-zeros -fno-trapping-math -fassociative-math -freciprocal-math -fno-math-errno -ffinite-math-only -fno-rounding-math -fno-signaling-nans -fcx-limited-range -fexcess-precision=fast -falign-functions=32 -fno-stack-protector -fno-stack-clash-protection -fstack-check=no -fno-stack-check -fuse-linker-plugin -pipe -g0'
 * MAKEOPTS='-j12 -l12'
 * gcc () 11.0.0 20200530 (experimental)
 * g++ () 11.0.0 20200530 (experimental)
 * GNU ld (Gentoo 2.34 p4) 2.34.0
 * Linux ryzen.gnum.org 5.4.36 #1 SMP Thu Apr 30 04:38:28 UTC 2020 x86_64 AMD Ryzen 5 3600 6-Core Processor AuthenticAMD GNU/Linux
]0;emerge 01:06:07 2|26 duktape (root@ryzen.gnum.org)kemerge 01:06:07 2|26 duktape (root@ryzen.gnum.org)\>>> Unpacking source...
>>> Unpacking duktape-2.4.0.tar.xz to /tmp/portage/dev-lang/duktape-2.4.0/work
>>> Source unpacked in /tmp/portage/dev-lang/duktape-2.4.0/work
>>> Preparing source in /tmp/portage/dev-lang/duktape-2.4.0/work/duktape-2.4.0 ...
>>> Source prepared.
>>> Configuring source in /tmp/portage/dev-lang/duktape-2.4.0/work/duktape-2.4.0 ...
>>> Source configured.
>>> Compiling source in /tmp/portage/dev-lang/duktape-2.4.0/work/duktape-2.4.0 ...
make -j12 -l12 
gcc -shared -fPIC -Wall -Wextra -Os -Wl,-soname,libduktape.so.204 \
	-o libduktape.so.204.20400 ./src/duktape.c
gcc -shared -fPIC -g -Wall -Wextra -Os -Wl,-soname,libduktaped.so.204 \
	-o libduktaped.so.204.20400 ./src/duktape.c
>>> Source compiled.
>>> Test phase [not enabled]: dev-lang/duktape-2.4.0

>>> Install dev-lang/duktape-2.4.0 into /tmp/portage/dev-lang/duktape-2.4.0/image/
make -j12 -l12 install 
mkdir -p /tmp/portage/dev-lang/duktape-2.4.0/image/usr/lib64/
cp libduktape.so.204.20400 libduktaped.so.204.20400 /tmp/portage/dev-lang/duktape-2.4.0/image/usr/lib64/
rm -f /tmp/portage/dev-lang/duktape-2.4.0/image/usr/lib64/libduktape.so /tmp/portage/dev-lang/duktape-2.4.0/image/usr/lib/libduktape.so.204
ln -s libduktape.so.204.20400 /tmp/portage/dev-lang/duktape-2.4.0/image/usr/lib64/libduktape.so
ln -s libduktape.so.204.20400 /tmp/portage/dev-lang/duktape-2.4.0/image/usr/lib64/libduktape.so.204
rm -f /tmp/portage/dev-lang/duktape-2.4.0/image/usr/lib64/libduktaped.so /tmp/portage/dev-lang/duktape-2.4.0/image/usr/lib/libduktaped.so.204
ln -s libduktaped.so.204.20400 /tmp/portage/dev-lang/duktape-2.4.0/image/usr/lib64/libduktaped.so
ln -s libduktaped.so.204.20400 /tmp/portage/dev-lang/duktape-2.4.0/image/usr/lib64/libduktaped.so.204
mkdir -p /tmp/portage/dev-lang/duktape-2.4.0/image/usr/include/
cp ./src/duktape.h ./src/duk_config.h /tmp/portage/dev-lang/duktape-2.4.0/image/usr/include/
>>> Completed installing dev-lang/duktape-2.4.0 into /tmp/portage/dev-lang/duktape-2.4.0/image/

 * Final size of build directory: 22900 KiB (22.3 MiB)
 * Final size of installed tree:   2420 KiB ( 2.3 MiB)

strip: x86_64-pc-linux-gnu-strip --strip-unneeded -N __gentoo_check_ldflags__ -R .comment -R .GCC.command.line -R .note.gnu.gold-version
   /usr/lib64/libduktape.so.204.20400
   /usr/lib64/libduktaped.so.204.20400
./
./usr/
./usr/include/
./usr/include/duk_config.h
./usr/include/duktape.h
./usr/lib64/
./usr/lib64/libduktaped.so.204
./usr/lib64/libduktape.so.204
./usr/lib64/libduktape.so.204.20400
./usr/lib64/libduktaped.so
./usr/lib64/libduktaped.so.204.20400
./usr/lib64/pkgconfig/
./usr/lib64/pkgconfig/duktape.pc
./usr/lib64/libduktape.so
>>> Done.
 * checking 9 files for package collisions
>>> Merging dev-lang/duktape-2.4.0 to /
 * removing unneeded *.la files
--- /usr/
--- /usr/lib64/
--- /usr/lib64/pkgconfig/
>>> /usr/lib64/pkgconfig/duktape.pc
>>> /usr/lib64/libduktaped.so.204.20400
>>> /usr/lib64/libduktaped.so -> libduktaped.so.204.20400
>>> /usr/lib64/libduktape.so.204.20400
>>> /usr/lib64/libduktape.so.204 -> libduktape.so.204.20400
>>> /usr/lib64/libduktaped.so.204 -> libduktaped.so.204.20400
--- /usr/include/
>>> /usr/include/duktape.h
>>> /usr/include/duk_config.h
>>> /usr/lib64/libduktape.so -> libduktape.so.204.20400
>>> dev-lang/duktape-2.4.0 merged.
>>> Regenerating /etc/ld.so.cache...
