>>> Extracting info
 * Package:    dev-python/ssl-fetch-0.4
 * Repository: gentoo
 * USE:        elibc_glibc python_targets_python3_8 userland_GNU amd64 python_targets_python3_7 abi_x86_64 kernel_linux
 * FEATURES:   ccache network-sandbox preserve-libs sandbox userpriv usersandbox
 * FEATURES='assume-digests binpkg-docompress binpkg-dostrip binpkg-logs binpkg-multi-instance buildpkg ccache cgroup compress-index config-protect-if-modified distlocks downgrade-backup fixlafiles ipc-sandbox merge-sync multilib-strict network-sandbox news nodoc parallel-fetch parallel-install pid-sandbox preserve-libs qa-unresolved-soname-deps sandbox sfperms strict strict-keepdir unknown-features-warn unmerge-backup unmerge-logs unmerge-orphans userfetch userpriv usersandbox usersync xattr'
 * CFLAGS='-O3 -march=native -pipe -g0 -fno-stack-protector -fno-stack-clash-protection -fstack-check=no -fno-stack-check -Wl,-O1 -Wl,--as-needed -Wl,--defsym=__gentoo_check_ldflags__=0 -Wl,--hash-style=gnu -Wl,-z,norelro'
 * CXXFLAGS='-O3 -march=native -pipe -g0 -fno-stack-protector -fno-stack-clash-protection -fstack-check=no -fno-stack-check -Wl,-O1 -Wl,--as-needed -Wl,--defsym=__gentoo_check_ldflags__=0 -Wl,--hash-style=gnu -Wl,-z,norelro'
 * FFLAGS='-O3 -march=native -pipe -g0 -fno-stack-protector -fno-stack-clash-protection -fstack-check=no -fno-stack-check -Wl,-O1 -Wl,--as-needed -Wl,--defsym=__gentoo_check_ldflags__=0 -Wl,--hash-style=gnu -Wl,-z,norelro'
 * FCFLAGS='-O3 -march=native -pipe -g0 -fno-stack-protector -fno-stack-clash-protection -fstack-check=no -fno-stack-check -Wl,-O1 -Wl,--as-needed -Wl,--defsym=__gentoo_check_ldflags__=0 -Wl,--hash-style=gnu -Wl,-z,norelro'
 * F77FLAGS='-O3 -march=native -pipe -g0 -fno-stack-protector -fno-stack-clash-protection -fstack-check=no -fno-stack-check -Wl,-O1 -Wl,--as-needed -Wl,--defsym=__gentoo_check_ldflags__=0 -Wl,--hash-style=gnu -Wl,-z,norelro'
 * LDFLAGS='-Wl,-O1 -Wl,--as-needed -Wl,--defsym=__gentoo_check_ldflags__=0 -Wl,--hash-style=gnu -Wl,-z,norelro'
 * MAKEOPTS='-j12'
 * gcc (Gentoo 11.0.0_pre9999 p1, commit 584d52b088f9fcf78704b504c3f1f07e17c1cded) 11.0.0 20200523 (experimental)
 * g++ (Gentoo 11.0.0_pre9999 p1, commit 584d52b088f9fcf78704b504c3f1f07e17c1cded) 11.0.0 20200523 (experimental)
 * GNU ld (Gentoo 2.34 p4) 2.34.0
 * Linux ryzen.gnum.org 5.4.36 #1 SMP Thu Apr 30 04:38:28 UTC 2020 x86_64 AMD Ryzen 5 3600 6-Core Processor AuthenticAMD GNU/Linux
dev-python/ssl-fetch: 11 seconds average for 3 merges
2020-05-16T14:28:05 >>> dev-python/ssl-fetch: 8 seconds
2020-05-20T06:02:16 >>> dev-python/ssl-fetch: 13 seconds
2020-05-23T21:27:02 >>> dev-python/ssl-fetch: 12 seconds
]0;emerge 15:19:38 166|229 ssl-fetch 00:11 (root@ryzen.gnum.org)kemerge 15:19:38 166|229 ssl-fetch 00:11 (root@ryzen.gnum.org)\>>> Extracting dev-python/ssl-fetch-0.4
 * checking 18 files for package collisions
>>> Merging dev-python/ssl-fetch-0.4 to /
 * removing unneeded *.la files
--- /usr/
--- /usr/lib/
--- /usr/lib/python3.7/
--- /usr/lib/python3.7/site-packages/
>>> /usr/lib/python3.7/site-packages/sslfetch/
>>> /usr/lib/python3.7/site-packages/sslfetch/__pycache__/
>>> /usr/lib/python3.7/site-packages/sslfetch/__pycache__/connections.cpython-37.pyc
>>> /usr/lib/python3.7/site-packages/sslfetch/__pycache__/__init__.cpython-37.pyc
>>> /usr/lib/python3.7/site-packages/sslfetch/__pycache__/__init__.cpython-37.opt-2.pyc
>>> /usr/lib/python3.7/site-packages/sslfetch/__pycache__/__init__.cpython-37.opt-1.pyc
>>> /usr/lib/python3.7/site-packages/sslfetch/__pycache__/connections.cpython-37.opt-1.pyc
>>> /usr/lib/python3.7/site-packages/sslfetch/__pycache__/connections.cpython-37.opt-2.pyc
>>> /usr/lib/python3.7/site-packages/sslfetch/connections.py
>>> /usr/lib/python3.7/site-packages/sslfetch/__init__.py
>>> /usr/lib/python3.7/site-packages/ssl_fetch-0.4-py3.7.egg-info
--- /usr/lib/python3.8/
--- /usr/lib/python3.8/site-packages/
--- /usr/lib/python3.8/site-packages/sslfetch/
--- /usr/lib/python3.8/site-packages/sslfetch/__pycache__/
>>> /usr/lib/python3.8/site-packages/sslfetch/__pycache__/connections.cpython-38.pyc
>>> /usr/lib/python3.8/site-packages/sslfetch/__pycache__/__init__.cpython-38.opt-2.pyc
>>> /usr/lib/python3.8/site-packages/sslfetch/__pycache__/__init__.cpython-38.pyc
>>> /usr/lib/python3.8/site-packages/sslfetch/__pycache__/__init__.cpython-38.opt-1.pyc
>>> /usr/lib/python3.8/site-packages/sslfetch/__pycache__/connections.cpython-38.opt-2.pyc
>>> /usr/lib/python3.8/site-packages/sslfetch/__pycache__/connections.cpython-38.opt-1.pyc
>>> /usr/lib/python3.8/site-packages/sslfetch/connections.py
>>> /usr/lib/python3.8/site-packages/sslfetch/__init__.py
>>> /usr/lib/python3.8/site-packages/ssl_fetch-0.4-py3.8.egg-info
>>> Safely unmerging already-installed instance...
>>> Original instance of package unmerged safely.

 * This is beta software.
 * The APIs it installs should be considered unstable
 * and are subject to change in these early versions.
 * 
 * Please file any enhancement requests, or bugs
 * at https://github.com/dol-sen/ssl-fetch/issues
 * I am also on IRC @ #gentoo-portage, #gentoo-keys,... of the Freenode network

>>> dev-python/ssl-fetch-0.4 merged.
