 * Package:    dev-perl/Error-0.170.250
 * Repository: gentoo
 * Maintainer: perl@gentoo.org
 * USE:        abi_x86_64 amd64 elibc_glibc kernel_linux test userland_GNU
 * FEATURES:   ccache network-sandbox preserve-libs sandbox userpriv usersandbox
 * /etc/portage/package.cflags/ltoworkarounds.conf -> */*: *FLAGS+=-Wl,-O4 *FLAGS-=-Wl,-O1
 * FEATURES='assume-digests binpkg-docompress binpkg-dostrip binpkg-logs binpkg-multi-instance buildpkg ccache cgroup compress-index config-protect-if-modified distlocks fixlafiles ipc-sandbox merge-sync multilib-strict network-sandbox news nodoc parallel-fetch parallel-install pid-sandbox preserve-libs qa-unresolved-soname-deps sandbox sfperms strict strict-keepdir unknown-features-warn unmerge-logs unmerge-orphans userfetch userpriv usersandbox usersync xattr'
 * CFLAGS='-march=znver2 -pipe -g0 -O3 -fgraphite-identity -floop-nest-optimize -fdevirtualize-at-ltrans -fipa-pta -fno-semantic-interposition -flto=12 -fno-plt -fno-signed-zeros -fno-trapping-math -fassociative-math -freciprocal-math -fno-math-errno -ffinite-math-only -fno-rounding-math -fno-signaling-nans -fcx-limited-range -fexcess-precision=fast -falign-functions=32 -fno-stack-protector -fno-stack-clash-protection -fstack-check=no -fno-stack-check -fuse-linker-plugin -Wl,-O4 -Wl,--as-needed -Wl,-lpthread -Wl,-lgomp -Wl,-z,norelro -Wl,-z,now -Wl,--sort-common -s'
 * CXXFLAGS='-march=znver2 -pipe -g0 -O3 -fgraphite-identity -floop-nest-optimize -fdevirtualize-at-ltrans -fipa-pta -fno-semantic-interposition -flto=12 -fno-plt -fno-signed-zeros -fno-trapping-math -fassociative-math -freciprocal-math -fno-math-errno -ffinite-math-only -fno-rounding-math -fno-signaling-nans -fcx-limited-range -fexcess-precision=fast -falign-functions=32 -fno-stack-protector -fno-stack-clash-protection -fstack-check=no -fno-stack-check -fuse-linker-plugin -Wl,-O4 -Wl,--as-needed -Wl,-lpthread -Wl,-lgomp -Wl,-z,norelro -Wl,-z,now -Wl,--sort-common -s'
 * FFLAGS='-march=znver2 -pipe -g0 -O3 -fgraphite-identity -floop-nest-optimize -fdevirtualize-at-ltrans -fipa-pta -fno-semantic-interposition -flto=12 -fno-plt -fno-signed-zeros -fno-trapping-math -fassociative-math -freciprocal-math -fno-math-errno -ffinite-math-only -fno-rounding-math -fno-signaling-nans -fcx-limited-range -fexcess-precision=fast -falign-functions=32 -fno-stack-protector -fno-stack-clash-protection -fstack-check=no -fno-stack-check -fuse-linker-plugin -Wl,-O4 -Wl,--as-needed -Wl,-lpthread -Wl,-lgomp -Wl,-z,norelro -Wl,-z,now -Wl,--sort-common -s'
 * FCFLAGS='-march=znver2 -pipe -g0 -O3 -fgraphite-identity -floop-nest-optimize -fdevirtualize-at-ltrans -fipa-pta -fno-semantic-interposition -flto=12 -fno-plt -fno-signed-zeros -fno-trapping-math -fassociative-math -freciprocal-math -fno-math-errno -ffinite-math-only -fno-rounding-math -fno-signaling-nans -fcx-limited-range -fexcess-precision=fast -falign-functions=32 -fno-stack-protector -fno-stack-clash-protection -fstack-check=no -fno-stack-check -fuse-linker-plugin -Wl,-O4 -Wl,--as-needed -Wl,-lpthread -Wl,-lgomp -Wl,-z,norelro -Wl,-z,now -Wl,--sort-common -s'
 * F77FLAGS='-march=znver2 -pipe -g0 -O3 -fgraphite-identity -floop-nest-optimize -fdevirtualize-at-ltrans -fipa-pta -fno-semantic-interposition -flto=12 -fno-plt -fno-signed-zeros -fno-trapping-math -fassociative-math -freciprocal-math -fno-math-errno -ffinite-math-only -fno-rounding-math -fno-signaling-nans -fcx-limited-range -fexcess-precision=fast -falign-functions=32 -fno-stack-protector -fno-stack-clash-protection -fstack-check=no -fno-stack-check -fuse-linker-plugin -Wl,-O4 -Wl,--as-needed -Wl,-lpthread -Wl,-lgomp -Wl,-z,norelro -Wl,-z,now -Wl,--sort-common -s'
 * LDFLAGS='-march=znver2 -pipe -g0 -O3 -fgraphite-identity -floop-nest-optimize -fdevirtualize-at-ltrans -fipa-pta -fno-semantic-interposition -flto=12 -fno-plt -fno-signed-zeros -fno-trapping-math -fassociative-math -freciprocal-math -fno-math-errno -ffinite-math-only -fno-rounding-math -fno-signaling-nans -fcx-limited-range -fexcess-precision=fast -falign-functions=32 -fno-stack-protector -fno-stack-clash-protection -fstack-check=no -fno-stack-check -fuse-linker-plugin -Wl,-O4 -Wl,--as-needed -Wl,-lpthread -Wl,-lgomp -Wl,-z,norelro -Wl,-z,now -Wl,--sort-common -s'
 * MAKEOPTS='-j12 -l12'
 * gcc () 11.0.0 20200601 (experimental)
 * g++ () 11.0.0 20200601 (experimental)
 * GNU ld (Gentoo 2.34 p4) 2.34.0
 * Linux ryzen.gnum.org 5.4.36 #1 SMP Thu Apr 30 04:38:28 UTC 2020 x86_64 AMD Ryzen 5 3600 6-Core Processor AuthenticAMD GNU/Linux
dev-perl/Error: 8 seconds average for 14 merges
2020-05-19T23:50:08 >>> dev-perl/Error: 3 seconds
2020-05-20T01:24:13 >>> dev-perl/Error: 5 seconds
2020-05-21T06:53:42 >>> dev-perl/Error: 5 seconds
2020-05-23T14:27:54 >>> dev-perl/Error: 10 seconds
2020-05-25T00:30:06 >>> dev-perl/Error: 10 seconds
2020-05-25T23:04:17 >>> dev-perl/Error: 19 seconds
2020-05-26T14:23:20 >>> dev-perl/Error: 6 seconds
2020-05-27T01:59:57 >>> dev-perl/Error: 5 seconds
2020-05-27T04:20:47 >>> dev-perl/Error: 11 seconds
2020-05-28T03:08:27 >>> dev-perl/Error: 5 seconds
2020-05-29T02:03:38 >>> dev-perl/Error: 6 seconds
2020-05-29T12:39:59 >>> dev-perl/Error: 11 seconds
2020-05-30T14:43:07 >>> dev-perl/Error: 10 seconds
2020-06-01T03:27:11 >>> dev-perl/Error: 11 seconds
]0;emerge 13:18:36 74|142 Error 00:11 (root@ryzen.gnum.org)kemerge 13:18:36 74|142 Error 00:11 (root@ryzen.gnum.org)\>>> Unpacking source...
>>> Unpacking Error-0.17025.tar.gz to /tmp/portage/dev-perl/Error-0.170.250/work
>>> Source unpacked in /tmp/portage/dev-perl/Error-0.170.250/work
>>> Preparing source in /tmp/portage/dev-perl/Error-0.170.250/work/Error-0.17025 ...
>>> Source prepared.
>>> Configuring source in /tmp/portage/dev-perl/Error-0.170.250/work/Error-0.17025 ...
 * Using Module::Build
 * perl Build.PL --installdirs=vendor --libdoc= --destdir=/tmp/portage/dev-perl/Error-0.170.250/image/ --create_packlist=1
Created MYMETA.yml and MYMETA.json
Creating new 'Build' script for 'Error' version '0.17025'
>>> Source configured.
>>> Compiling source in /tmp/portage/dev-perl/Error-0.170.250/work/Error-0.17025 ...
Building Error
>>> Source compiled.
>>> Test phase [not enabled]: dev-perl/Error-0.170.250

>>> Install dev-perl/Error-0.170.250 into /tmp/portage/dev-perl/Error-0.170.250/image/
 * ./Build install --pure
Building Error
Installing /tmp/portage/dev-perl/Error-0.170.250/image/usr/lib64/perl5/vendor_perl/5.30.3/Error.pm
Installing /tmp/portage/dev-perl/Error-0.170.250/image/usr/lib64/perl5/vendor_perl/5.30.3/Error/Simple.pm
Installing /tmp/portage/dev-perl/Error-0.170.250/image/usr/share/man/man3/Error.3pm
Installing /tmp/portage/dev-perl/Error-0.170.250/image/usr/share/man/man3/Error::Simple.3pm
 * Fixing packlist file /usr/lib64/perl5/vendor_perl/5.30.3/x86_64-linux-thread-multi/auto/Error/.packlist
 * Pruning surplus packlist entry /usr/share/man/man3/Error.3pm
 * Pruning surplus packlist entry /usr/share/man/man3/Error::Simple.3pm
>>> Completed installing dev-perl/Error-0.170.250 into /tmp/portage/dev-perl/Error-0.170.250/image/

 * Final size of build directory: 388 KiB
 * Final size of installed tree:  104 KiB

./
./usr/
./usr/share/
./usr/share/doc/
./usr/share/doc/Error-0.170.250/
./usr/share/doc/Error-0.170.250/README.bz2
./usr/share/doc/Error-0.170.250/ChangeLog.bz2
./usr/lib64/
./usr/lib64/perl5/
./usr/lib64/perl5/vendor_perl/
./usr/lib64/perl5/vendor_perl/5.30.3/
./usr/lib64/perl5/vendor_perl/5.30.3/Error/
./usr/lib64/perl5/vendor_perl/5.30.3/Error/Simple.pm
./usr/lib64/perl5/vendor_perl/5.30.3/x86_64-linux-thread-multi/
./usr/lib64/perl5/vendor_perl/5.30.3/x86_64-linux-thread-multi/auto/
./usr/lib64/perl5/vendor_perl/5.30.3/x86_64-linux-thread-multi/auto/Error/
./usr/lib64/perl5/vendor_perl/5.30.3/x86_64-linux-thread-multi/auto/Error/.packlist
./usr/lib64/perl5/vendor_perl/5.30.3/Error.pm
>>> Done.
 * checking 3 files for package collisions
>>> Merging dev-perl/Error-0.170.250 to /
 * removing unneeded *.la files
--- /usr/
--- /usr/lib64/
--- /usr/lib64/perl5/
--- /usr/lib64/perl5/vendor_perl/
--- /usr/lib64/perl5/vendor_perl/5.30.3/
>>> /usr/lib64/perl5/vendor_perl/5.30.3/Error.pm
--- /usr/lib64/perl5/vendor_perl/5.30.3/x86_64-linux-thread-multi/
--- /usr/lib64/perl5/vendor_perl/5.30.3/x86_64-linux-thread-multi/auto/
>>> /usr/lib64/perl5/vendor_perl/5.30.3/x86_64-linux-thread-multi/auto/Error/
>>> /usr/lib64/perl5/vendor_perl/5.30.3/x86_64-linux-thread-multi/auto/Error/.packlist
>>> /usr/lib64/perl5/vendor_perl/5.30.3/Error/
>>> /usr/lib64/perl5/vendor_perl/5.30.3/Error/Simple.pm
>>> Safely unmerging already-installed instance...
>>> Original instance of package unmerged safely.
>>> dev-perl/Error-0.170.250 merged.
