>>> Extracting info
 * Package:    dev-libs/libltdl-2.4.6
 * Repository: gentoo
 * USE:        amd64 abi_x86_64 kernel_linux elibc_glibc userland_GNU abi_x86_32
 * FEATURES:   ccache network-sandbox preserve-libs sandbox userpriv usersandbox
 * /etc/portage/package.cflags/ltoworkarounds.conf -> dev-libs/libltdl: *FLAGS-=-flto*
 * /etc/portage/package.cflags/ltoworkarounds.conf -> dev-libs/libltdl: *FLAGS-="${NOCOMMON}" # builds but causes symbol lookup errors
 * FEATURES='assume-digests binpkg-docompress binpkg-dostrip binpkg-logs binpkg-multi-instance buildpkg ccache cgroup collision-protect compress-index config-protect-if-modified distlocks downgrade-backup fixlafiles ipc-sandbox merge-sync multilib-strict network-sandbox news nodoc parallel-fetch parallel-install pid-sandbox preserve-libs protect-owned qa-unresolved-soname-deps sandbox sfperms strict strict-keepdir unknown-features-warn unmerge-backup unmerge-logs unmerge-orphans userfetch userpriv usersandbox usersync xattr'
 * CFLAGS='-march=native -O3 -fgraphite-identity -floop-nest-optimize -fdevirtualize-at-ltrans -fipa-pta -fno-semantic-interposition -fno-plt -fno-math-errno -fno-trapping-math -fuse-linker-plugin -pipe -g0 -Wl,-O1 -Wl,--as-needed -Wl,--hash-style=gnu,-z,norelro,--as-needed'
 * CXXFLAGS='-march=native -O3 -fgraphite-identity -floop-nest-optimize -fdevirtualize-at-ltrans -fipa-pta -fno-semantic-interposition -fno-plt -fno-math-errno -fno-trapping-math -fuse-linker-plugin -pipe -g0 -Wl,-O1 -Wl,--as-needed -Wl,--hash-style=gnu,-z,norelro,--as-needed'
 * FFLAGS='-march=native -O3 -fgraphite-identity -floop-nest-optimize -fdevirtualize-at-ltrans -fipa-pta -fno-semantic-interposition -fno-plt -fno-math-errno -fno-trapping-math -fuse-linker-plugin -pipe -g0 -Wl,-O1 -Wl,--as-needed -Wl,--hash-style=gnu,-z,norelro,--as-needed'
 * FCFLAGS='-march=native -O3 -fgraphite-identity -floop-nest-optimize -fdevirtualize-at-ltrans -fipa-pta -fno-semantic-interposition -fno-plt -fno-math-errno -fno-trapping-math -fuse-linker-plugin -pipe -g0 -Wl,-O1 -Wl,--as-needed -Wl,--hash-style=gnu,-z,norelro,--as-needed'
 * F77FLAGS='-march=native -O3 -fgraphite-identity -floop-nest-optimize -fdevirtualize-at-ltrans -fipa-pta -fno-semantic-interposition -fno-plt -fno-math-errno -fno-trapping-math -fuse-linker-plugin -pipe -g0 -Wl,-O1 -Wl,--as-needed -Wl,--hash-style=gnu,-z,norelro,--as-needed'
 * LDFLAGS='-Wl,-O1 -Wl,--as-needed -Wl,--hash-style=gnu,-z,norelro,--as-needed'
 * MAKEOPTS='-j12 -l12'
 * gcc (Gentoo 11.0.0_pre9999 p1, commit 584d52b088f9fcf78704b504c3f1f07e17c1cded) 11.0.0 20200523 (experimental)
 * g++ (Gentoo 11.0.0_pre9999 p1, commit 584d52b088f9fcf78704b504c3f1f07e17c1cded) 11.0.0 20200523 (experimental)
 * GNU ld (Gentoo 2.34 p4) 2.34.0
 * Linux ryzen.gnum.org 5.4.36 #1 SMP Thu Apr 30 04:38:28 UTC 2020 x86_64 AMD Ryzen 5 3600 6-Core Processor AuthenticAMD GNU/Linux
dev-libs/libltdl: 1 minute, 56 seconds average for 11 merges
2020-05-20T01:02:48 >>> dev-libs/libltdl: 23 seconds
2020-05-21T06:00:53 >>> dev-libs/libltdl: 5 seconds
2020-05-22T02:04:35 >>> dev-libs/libltdl: 3 minutes, 23 seconds
2020-05-22T03:16:31 >>> dev-libs/libltdl: 2 minutes, 33 seconds
2020-05-22T12:08:03 >>> dev-libs/libltdl: 6 seconds
2020-05-22T12:35:49 >>> dev-libs/libltdl: 2 minutes, 27 seconds
2020-05-22T13:01:58 >>> dev-libs/libltdl: 6 seconds
2020-05-22T13:03:07 >>> dev-libs/libltdl: 17 seconds
2020-05-23T03:37:31 >>> dev-libs/libltdl: 2 minutes, 27 seconds
2020-05-24T22:43:29 >>> dev-libs/libltdl: 4 minutes, 24 seconds
2020-05-24T23:33:10 >>> dev-libs/libltdl: 5 minutes, 12 seconds
]0;emerge 03:07:13 84|606 libltdl 04:01 (root@ryzen.gnum.org)kemerge 03:07:13 84|606 libltdl 04:01 (root@ryzen.gnum.org)\>>> Extracting dev-libs/libltdl-2.4.6
 * checking 12 files for package collisions
>>> Merging dev-libs/libltdl-2.4.6 to /
 * removing unneeded *.la files
--- /usr/
--- /usr/lib64/
>>> /usr/lib64/libltdl.la
>>> /usr/lib64/libltdl.so.7.3.1
>>> /usr/lib64/libltdl.so.7 -> libltdl.so.7.3.1
>>> /usr/lib64/libltdl.so -> libltdl.so.7.3.1
--- /usr/include/
>>> /usr/include/ltdl.h
--- /usr/include/libltdl/
>>> /usr/include/libltdl/lt_dlloader.h
>>> /usr/include/libltdl/lt_system.h
>>> /usr/include/libltdl/lt_error.h
--- /usr/lib/
>>> /usr/lib/libltdl.la
>>> /usr/lib/libltdl.so.7.3.1
>>> /usr/lib/libltdl.so.7 -> libltdl.so.7.3.1
>>> /usr/lib/libltdl.so -> libltdl.so.7.3.1
>>> Safely unmerging already-installed instance...
>>> Original instance of package unmerged safely.
>>> dev-libs/libltdl-2.4.6 merged.
>>> Regenerating /etc/ld.so.cache...
