No package files given... Grabbing a set.
--- replaced obj /usr/share/info/mpc.info.bz2
--- replaced dir /usr/share/info
--- replaced dir /usr/share
--- replaced obj /usr/lib64/libmpc.so.3.1.0
--- replaced sym /usr/lib64/libmpc.so.3
--- replaced sym /usr/lib64/libmpc.so
--- replaced dir /usr/lib64
--- replaced obj /usr/include/mpc.h
--- replaced dir /usr/include
--- replaced dir /usr
>>> Regenerating /etc/ld.so.cache...
