No package files given... Grabbing a set.
--- replaced obj /usr/lib64/python2.7/site-packages/atomicwrites/__init__.pyo
--- replaced obj /usr/lib64/python2.7/site-packages/atomicwrites/__init__.pyc
--- replaced obj /usr/lib64/python2.7/site-packages/atomicwrites/__init__.py
--- replaced obj /usr/lib64/python2.7/site-packages/atomicwrites-1.4.0-py2.7.egg-info/top_level.txt
--- replaced obj /usr/lib64/python2.7/site-packages/atomicwrites-1.4.0-py2.7.egg-info/dependency_links.txt
--- replaced obj /usr/lib64/python2.7/site-packages/atomicwrites-1.4.0-py2.7.egg-info/SOURCES.txt
--- replaced obj /usr/lib64/python2.7/site-packages/atomicwrites-1.4.0-py2.7.egg-info/PKG-INFO
--- replaced dir /usr/lib64/python2.7/site-packages/atomicwrites-1.4.0-py2.7.egg-info
--- replaced dir /usr/lib64/python2.7/site-packages/atomicwrites
--- replaced dir /usr/lib64/python2.7/site-packages
--- replaced dir /usr/lib64/python2.7
--- replaced dir /usr/lib64
--- replaced obj /usr/lib/python3.9/site-packages/atomicwrites/__pycache__/__init__.cpython-39.pyc
--- replaced obj /usr/lib/python3.9/site-packages/atomicwrites/__pycache__/__init__.cpython-39.opt-2.pyc
--- replaced obj /usr/lib/python3.9/site-packages/atomicwrites/__pycache__/__init__.cpython-39.opt-1.pyc
--- replaced dir /usr/lib/python3.9/site-packages/atomicwrites/__pycache__
--- replaced obj /usr/lib/python3.9/site-packages/atomicwrites/__init__.py
--- replaced obj /usr/lib/python3.9/site-packages/atomicwrites-1.4.0-py3.9.egg-info/top_level.txt
--- replaced obj /usr/lib/python3.9/site-packages/atomicwrites-1.4.0-py3.9.egg-info/dependency_links.txt
--- replaced obj /usr/lib/python3.9/site-packages/atomicwrites-1.4.0-py3.9.egg-info/SOURCES.txt
--- replaced obj /usr/lib/python3.9/site-packages/atomicwrites-1.4.0-py3.9.egg-info/PKG-INFO
--- replaced dir /usr/lib/python3.9/site-packages/atomicwrites-1.4.0-py3.9.egg-info
--- replaced dir /usr/lib/python3.9/site-packages/atomicwrites
--- replaced dir /usr/lib/python3.9/site-packages
--- replaced dir /usr/lib/python3.9
--- replaced obj /usr/lib/python3.8/site-packages/atomicwrites/__pycache__/__init__.cpython-38.pyc
--- replaced obj /usr/lib/python3.8/site-packages/atomicwrites/__pycache__/__init__.cpython-38.opt-2.pyc
--- replaced obj /usr/lib/python3.8/site-packages/atomicwrites/__pycache__/__init__.cpython-38.opt-1.pyc
--- replaced dir /usr/lib/python3.8/site-packages/atomicwrites/__pycache__
--- replaced obj /usr/lib/python3.8/site-packages/atomicwrites/__init__.py
--- replaced obj /usr/lib/python3.8/site-packages/atomicwrites-1.4.0-py3.8.egg-info/top_level.txt
--- replaced obj /usr/lib/python3.8/site-packages/atomicwrites-1.4.0-py3.8.egg-info/dependency_links.txt
--- replaced obj /usr/lib/python3.8/site-packages/atomicwrites-1.4.0-py3.8.egg-info/SOURCES.txt
--- replaced obj /usr/lib/python3.8/site-packages/atomicwrites-1.4.0-py3.8.egg-info/PKG-INFO
--- replaced dir /usr/lib/python3.8/site-packages/atomicwrites-1.4.0-py3.8.egg-info
--- replaced dir /usr/lib/python3.8/site-packages/atomicwrites
--- replaced dir /usr/lib/python3.8/site-packages
--- replaced dir /usr/lib/python3.8
--- replaced obj /usr/lib/python3.7/site-packages/atomicwrites/__pycache__/__init__.cpython-37.pyc
--- replaced obj /usr/lib/python3.7/site-packages/atomicwrites/__pycache__/__init__.cpython-37.opt-2.pyc
--- replaced obj /usr/lib/python3.7/site-packages/atomicwrites/__pycache__/__init__.cpython-37.opt-1.pyc
--- replaced dir /usr/lib/python3.7/site-packages/atomicwrites/__pycache__
--- replaced obj /usr/lib/python3.7/site-packages/atomicwrites/__init__.py
--- replaced obj /usr/lib/python3.7/site-packages/atomicwrites-1.4.0-py3.7.egg-info/top_level.txt
--- replaced obj /usr/lib/python3.7/site-packages/atomicwrites-1.4.0-py3.7.egg-info/dependency_links.txt
--- replaced obj /usr/lib/python3.7/site-packages/atomicwrites-1.4.0-py3.7.egg-info/SOURCES.txt
--- replaced obj /usr/lib/python3.7/site-packages/atomicwrites-1.4.0-py3.7.egg-info/PKG-INFO
--- replaced dir /usr/lib/python3.7/site-packages/atomicwrites-1.4.0-py3.7.egg-info
--- replaced dir /usr/lib/python3.7/site-packages/atomicwrites
--- replaced dir /usr/lib/python3.7/site-packages
--- replaced dir /usr/lib/python3.7
--- replaced obj /usr/lib/pypy3.6/site-packages/atomicwrites/__pycache__/__init__.pypy36.pyc
--- replaced obj /usr/lib/pypy3.6/site-packages/atomicwrites/__pycache__/__init__.pypy36.opt-2.pyc
--- replaced obj /usr/lib/pypy3.6/site-packages/atomicwrites/__pycache__/__init__.pypy36.opt-1.pyc
--- replaced dir /usr/lib/pypy3.6/site-packages/atomicwrites/__pycache__
--- replaced obj /usr/lib/pypy3.6/site-packages/atomicwrites/__init__.py
--- replaced obj /usr/lib/pypy3.6/site-packages/atomicwrites-1.4.0-py3.6.egg-info/top_level.txt
--- replaced obj /usr/lib/pypy3.6/site-packages/atomicwrites-1.4.0-py3.6.egg-info/dependency_links.txt
--- replaced obj /usr/lib/pypy3.6/site-packages/atomicwrites-1.4.0-py3.6.egg-info/SOURCES.txt
--- replaced obj /usr/lib/pypy3.6/site-packages/atomicwrites-1.4.0-py3.6.egg-info/PKG-INFO
--- replaced dir /usr/lib/pypy3.6/site-packages/atomicwrites-1.4.0-py3.6.egg-info
--- replaced dir /usr/lib/pypy3.6/site-packages/atomicwrites
--- replaced dir /usr/lib/pypy3.6/site-packages
--- replaced dir /usr/lib/pypy3.6
--- replaced dir /usr/lib
--- replaced dir /usr
>>> Regenerating /etc/ld.so.cache...
