 * Package:    dev-perl/ExtUtils-Helpers-0.26.0
 * Repository: gentoo
 * Maintainer: perl@gentoo.org
 * USE:        abi_x86_64 amd64 elibc_glibc kernel_linux test userland_GNU
 * FEATURES:   ccache network-sandbox preserve-libs sandbox userpriv usersandbox
 * FEATURES='assume-digests binpkg-docompress binpkg-dostrip binpkg-logs binpkg-multi-instance buildpkg ccache compress-index config-protect-if-modified distlocks downgrade-backup fixlafiles ipc-sandbox merge-sync multilib-strict network-sandbox news nodoc parallel-fetch parallel-install pid-sandbox preserve-libs qa-unresolved-soname-deps sandbox sfperms strict unknown-features-warn unmerge-backup unmerge-logs unmerge-orphans userfetch userpriv usersandbox usersync xattr'
 * CFLAGS='-march=znver2 -O3 -fgraphite-identity -floop-nest-optimize -fdevirtualize-at-ltrans -fipa-pta -fno-semantic-interposition -flto=12 -fno-plt -fno-signed-zeros -fno-trapping-math -fassociative-math -freciprocal-math -fno-math-errno -ffinite-math-only -fno-rounding-math -fno-signaling-nans -fcx-limited-range -fexcess-precision=fast -falign-functions=32 -fno-stack-protector -fno-stack-clash-protection -fstack-check=no -fno-stack-check -fuse-linker-plugin -pipe -g0 -Wl,-O1 -Wl,--as-needed -Wl,-z,norelro -Wl,-z,now -Wl,--sort-common -s'
 * CXXFLAGS='-march=znver2 -O3 -fgraphite-identity -floop-nest-optimize -fdevirtualize-at-ltrans -fipa-pta -fno-semantic-interposition -flto=12 -fno-plt -fno-signed-zeros -fno-trapping-math -fassociative-math -freciprocal-math -fno-math-errno -ffinite-math-only -fno-rounding-math -fno-signaling-nans -fcx-limited-range -fexcess-precision=fast -falign-functions=32 -fno-stack-protector -fno-stack-clash-protection -fstack-check=no -fno-stack-check -fuse-linker-plugin -pipe -g0 -Wl,-O1 -Wl,--as-needed -Wl,-z,norelro -Wl,-z,now -Wl,--sort-common -s'
 * FFLAGS='-march=znver2 -O3 -fgraphite-identity -floop-nest-optimize -fdevirtualize-at-ltrans -fipa-pta -fno-semantic-interposition -flto=12 -fno-plt -fno-signed-zeros -fno-trapping-math -fassociative-math -freciprocal-math -fno-math-errno -ffinite-math-only -fno-rounding-math -fno-signaling-nans -fcx-limited-range -fexcess-precision=fast -falign-functions=32 -fno-stack-protector -fno-stack-clash-protection -fstack-check=no -fno-stack-check -fuse-linker-plugin -pipe -g0 -Wl,-O1 -Wl,--as-needed -Wl,-z,norelro -Wl,-z,now -Wl,--sort-common -s'
 * FCFLAGS='-march=znver2 -O3 -fgraphite-identity -floop-nest-optimize -fdevirtualize-at-ltrans -fipa-pta -fno-semantic-interposition -flto=12 -fno-plt -fno-signed-zeros -fno-trapping-math -fassociative-math -freciprocal-math -fno-math-errno -ffinite-math-only -fno-rounding-math -fno-signaling-nans -fcx-limited-range -fexcess-precision=fast -falign-functions=32 -fno-stack-protector -fno-stack-clash-protection -fstack-check=no -fno-stack-check -fuse-linker-plugin -pipe -g0 -Wl,-O1 -Wl,--as-needed -Wl,-z,norelro -Wl,-z,now -Wl,--sort-common -s'
 * F77FLAGS='-march=znver2 -O3 -fgraphite-identity -floop-nest-optimize -fdevirtualize-at-ltrans -fipa-pta -fno-semantic-interposition -flto=12 -fno-plt -fno-signed-zeros -fno-trapping-math -fassociative-math -freciprocal-math -fno-math-errno -ffinite-math-only -fno-rounding-math -fno-signaling-nans -fcx-limited-range -fexcess-precision=fast -falign-functions=32 -fno-stack-protector -fno-stack-clash-protection -fstack-check=no -fno-stack-check -fuse-linker-plugin -pipe -g0 -Wl,-O1 -Wl,--as-needed -Wl,-z,norelro -Wl,-z,now -Wl,--sort-common -s'
 * LDFLAGS='-Wl,-O1 -Wl,--as-needed -Wl,-z,norelro -Wl,-z,now -Wl,--sort-common -s -march=znver2 -O3 -fgraphite-identity -floop-nest-optimize -fdevirtualize-at-ltrans -fipa-pta -fno-semantic-interposition -flto=12 -fno-plt -fno-signed-zeros -fno-trapping-math -fassociative-math -freciprocal-math -fno-math-errno -ffinite-math-only -fno-rounding-math -fno-signaling-nans -fcx-limited-range -fexcess-precision=fast -falign-functions=32 -fno-stack-protector -fno-stack-clash-protection -fstack-check=no -fno-stack-check -fuse-linker-plugin -pipe -g0'
 * MAKEOPTS='-j12 -l12'
 * gcc () 11.0.0 20200530 (experimental)
 * g++ () 11.0.0 20200530 (experimental)
 * GNU ld (Gentoo 2.34 p4) 2.34.0
 * Linux ryzen.gnum.org 5.4.36 #1 SMP Thu Apr 30 04:38:28 UTC 2020 x86_64 AMD Ryzen 5 3600 6-Core Processor AuthenticAMD GNU/Linux
dev-perl/ExtUtils-Helpers: 8 seconds average for 13 merges
2020-05-15T04:08:29 >>> dev-perl/ExtUtils-Helpers: 6 seconds
2020-05-15T12:47:21 >>> dev-perl/ExtUtils-Helpers: 7 seconds
2020-05-20T01:23:06 >>> dev-perl/ExtUtils-Helpers: 5 seconds
2020-05-21T06:44:49 >>> dev-perl/ExtUtils-Helpers: 5 seconds
2020-05-23T14:22:40 >>> dev-perl/ExtUtils-Helpers: 10 seconds
2020-05-25T00:35:43 >>> dev-perl/ExtUtils-Helpers: 10 seconds
2020-05-25T22:54:16 >>> dev-perl/ExtUtils-Helpers: 10 seconds
2020-05-26T14:19:55 >>> dev-perl/ExtUtils-Helpers: 6 seconds
2020-05-27T01:57:02 >>> dev-perl/ExtUtils-Helpers: 5 seconds
2020-05-27T04:07:50 >>> dev-perl/ExtUtils-Helpers: 10 seconds
2020-05-28T03:34:58 >>> dev-perl/ExtUtils-Helpers: 6 seconds
2020-05-29T03:16:26 >>> dev-perl/ExtUtils-Helpers: 19 seconds
2020-05-29T12:31:48 >>> dev-perl/ExtUtils-Helpers: 11 seconds
]0;emerge 23:33:49 16|337 ExtUtils-Helpers 00:12 (root@ryzen.gnum.org)kemerge 23:33:49 16|337 ExtUtils-Helpers 00:12 (root@ryzen.gnum.org)\>>> Unpacking source...
>>> Unpacking ExtUtils-Helpers-0.026.tar.gz to /tmp/portage/dev-perl/ExtUtils-Helpers-0.26.0/work
>>> Source unpacked in /tmp/portage/dev-perl/ExtUtils-Helpers-0.26.0/work
>>> Preparing source in /tmp/portage/dev-perl/ExtUtils-Helpers-0.26.0/work/ExtUtils-Helpers-0.026 ...
>>> Source prepared.
>>> Configuring source in /tmp/portage/dev-perl/ExtUtils-Helpers-0.26.0/work/ExtUtils-Helpers-0.026 ...
 * Using ExtUtils::MakeMaker
 * perl Makefile.PL PREFIX=/usr INSTALLDIRS=vendor INSTALLMAN3DIR=none DESTDIR=/tmp/portage/dev-perl/ExtUtils-Helpers-0.26.0/image/
Checking if your kit is complete...
Looks good
Generating a Unix-style Makefile
Writing Makefile for ExtUtils::Helpers
Writing MYMETA.yml and MYMETA.json
>>> Source configured.
>>> Compiling source in /tmp/portage/dev-perl/ExtUtils-Helpers-0.26.0/work/ExtUtils-Helpers-0.026 ...
 * emake OTHERLDFLAGS=-Wl,-O1 -Wl,--as-needed -Wl,-z,norelro -Wl,-z,now -Wl,--sort-common -s -march=znver2 -O3 -fgraphite-identity -floop-nest-optimize -fdevirtualize-at-ltrans -fipa-pta -fno-semantic-interposition -flto=12 -fno-plt -fno-signed-zeros -fno-trapping-math -fassociative-math -freciprocal-math -fno-math-errno -ffinite-math-only -fno-rounding-math -fno-signaling-nans -fcx-limited-range -fexcess-precision=fast -falign-functions=32 -fno-stack-protector -fno-stack-clash-protection -fstack-check=no -fno-stack-check -fuse-linker-plugin -pipe -g0
make -j12 -l12 'OTHERLDFLAGS=-Wl,-O1 -Wl,--as-needed -Wl,-z,norelro -Wl,-z,now -Wl,--sort-common -s -march=znver2 -O3 -fgraphite-identity -floop-nest-optimize -fdevirtualize-at-ltrans -fipa-pta -fno-semantic-interposition -flto=12 -fno-plt -fno-signed-zeros -fno-trapping-math -fassociative-math -freciprocal-math -fno-math-errno -ffinite-math-only -fno-rounding-math -fno-signaling-nans -fcx-limited-range -fexcess-precision=fast -falign-functions=32 -fno-stack-protector -fno-stack-clash-protection -fstack-check=no -fno-stack-check -fuse-linker-plugin -pipe -g0' 
>>> Source compiled.
>>> Test phase [not enabled]: dev-perl/ExtUtils-Helpers-0.26.0

>>> Install dev-perl/ExtUtils-Helpers-0.26.0 into /tmp/portage/dev-perl/ExtUtils-Helpers-0.26.0/image/
make -j12 -l12 pure_install 
Installing /tmp/portage/dev-perl/ExtUtils-Helpers-0.26.0/image/usr/lib64/perl5/vendor_perl/5.30.2/ExtUtils/Helpers.pm
Installing /tmp/portage/dev-perl/ExtUtils-Helpers-0.26.0/image/usr/lib64/perl5/vendor_perl/5.30.2/ExtUtils/Helpers/Unix.pm
Installing /tmp/portage/dev-perl/ExtUtils-Helpers-0.26.0/image/usr/lib64/perl5/vendor_perl/5.30.2/ExtUtils/Helpers/VMS.pm
Installing /tmp/portage/dev-perl/ExtUtils-Helpers-0.26.0/image/usr/lib64/perl5/vendor_perl/5.30.2/ExtUtils/Helpers/Windows.pm
 * Fixing packlist file /usr/lib64/perl5/vendor_perl/5.30.2/x86_64-linux/auto/ExtUtils/Helpers/.packlist
>>> Completed installing dev-perl/ExtUtils-Helpers-0.26.0 into /tmp/portage/dev-perl/ExtUtils-Helpers-0.26.0/image/

 * Final size of build directory: 244 KiB
 * Final size of installed tree:   88 KiB

./
./usr/
./usr/share/
./usr/share/doc/
./usr/share/doc/ExtUtils-Helpers-0.26.0/
./usr/share/doc/ExtUtils-Helpers-0.26.0/README.bz2
./usr/share/doc/ExtUtils-Helpers-0.26.0/Changes.bz2
./usr/lib64/
./usr/lib64/perl5/
./usr/lib64/perl5/vendor_perl/
./usr/lib64/perl5/vendor_perl/5.30.2/
./usr/lib64/perl5/vendor_perl/5.30.2/x86_64-linux/
./usr/lib64/perl5/vendor_perl/5.30.2/x86_64-linux/auto/
./usr/lib64/perl5/vendor_perl/5.30.2/x86_64-linux/auto/ExtUtils/
./usr/lib64/perl5/vendor_perl/5.30.2/x86_64-linux/auto/ExtUtils/Helpers/
./usr/lib64/perl5/vendor_perl/5.30.2/x86_64-linux/auto/ExtUtils/Helpers/.packlist
./usr/lib64/perl5/vendor_perl/5.30.2/ExtUtils/
./usr/lib64/perl5/vendor_perl/5.30.2/ExtUtils/Helpers.pm
./usr/lib64/perl5/vendor_perl/5.30.2/ExtUtils/Helpers/
./usr/lib64/perl5/vendor_perl/5.30.2/ExtUtils/Helpers/Unix.pm
./usr/lib64/perl5/vendor_perl/5.30.2/ExtUtils/Helpers/VMS.pm
./usr/lib64/perl5/vendor_perl/5.30.2/ExtUtils/Helpers/Windows.pm
>>> Done.
 * checking 5 files for package collisions
[32;01m * [39;49;00mBuilding package for dev-perl/ExtUtils-Helpers-0.26.0 ...[32;01m * [39;49;00mwaiting for lock on /usr/portage/packages/.Packages.portage_lockfile ...  [34;01m[ [39;49;00m[32;01mok[39;49;00m[34;01m ][39;49;00m
             [34;01m[ [39;49;00m[32;01mok[39;49;00m[34;01m ][39;49;00m
[32;01m * [39;49;00mPackages now in '/usr/portage/packages':
[32;01m * [39;49;00mdev-perl/ExtUtils-Helpers-0.26.0: 26.2K

>>> Merging dev-perl/ExtUtils-Helpers-0.26.0 to /
 * removing unneeded *.la files
--- /usr/
--- /usr/lib64/
--- /usr/lib64/perl5/
--- /usr/lib64/perl5/vendor_perl/
--- /usr/lib64/perl5/vendor_perl/5.30.2/
--- /usr/lib64/perl5/vendor_perl/5.30.2/ExtUtils/
--- /usr/lib64/perl5/vendor_perl/5.30.2/ExtUtils/Helpers/
>>> /usr/lib64/perl5/vendor_perl/5.30.2/ExtUtils/Helpers/Windows.pm
>>> /usr/lib64/perl5/vendor_perl/5.30.2/ExtUtils/Helpers/VMS.pm
>>> /usr/lib64/perl5/vendor_perl/5.30.2/ExtUtils/Helpers/Unix.pm
>>> /usr/lib64/perl5/vendor_perl/5.30.2/ExtUtils/Helpers.pm
--- /usr/lib64/perl5/vendor_perl/5.30.2/x86_64-linux/
--- /usr/lib64/perl5/vendor_perl/5.30.2/x86_64-linux/auto/
--- /usr/lib64/perl5/vendor_perl/5.30.2/x86_64-linux/auto/ExtUtils/
--- /usr/lib64/perl5/vendor_perl/5.30.2/x86_64-linux/auto/ExtUtils/Helpers/
>>> /usr/lib64/perl5/vendor_perl/5.30.2/x86_64-linux/auto/ExtUtils/Helpers/.packlist
>>> Safely unmerging already-installed instance...
>>> Original instance of package unmerged safely.
>>> dev-perl/ExtUtils-Helpers-0.26.0 merged.
>>> Regenerating /etc/ld.so.cache...
