No package files given... Grabbing a set.
--- replaced obj /usr/lib64/libltdl.so.7.3.1
--- replaced sym /usr/lib64/libltdl.so.7
--- replaced sym /usr/lib64/libltdl.so
--- replaced obj /usr/lib64/libltdl.la
--- replaced dir /usr/lib64
--- replaced obj /usr/include/ltdl.h
--- replaced obj /usr/include/libltdl/lt_system.h
--- replaced obj /usr/include/libltdl/lt_error.h
--- replaced obj /usr/include/libltdl/lt_dlloader.h
--- replaced dir /usr/include/libltdl
--- replaced dir /usr/include
--- replaced dir /usr
>>> Regenerating /etc/ld.so.cache...
