>>> Extracting info
 * Package:    dev-perl/ExtUtils-InstallPaths-0.11.0
 * Repository: gentoo
 * USE:        abi_x86_64 userland_GNU amd64 kernel_linux elibc_glibc
 * FEATURES:   network-sandbox preserve-libs sandbox userpriv usersandbox
 * FEATURES='nodoc binpkg-multi-instance usersandbox distlocks sfperms buildpkg strict-keepdir network-sandbox assume-digests unmerge-logs multilib-strict fixlafiles binpkg-logs binpkg-dostrip unknown-features-warn strict compress-index unmerge-orphans sandbox pid-sandbox downgrade-backup ipc-sandbox preserve-libs news userpriv parallel-install cgroup unmerge-backup parallel-fetch usersync binpkg-docompress qa-unresolved-soname-deps merge-sync xattr userfetch config-protect-if-modified'
 * CFLAGS='-march=native -O3 -fgraphite-identity -floop-nest-optimize -fdevirtualize-at-ltrans -fipa-pta -fno-semantic-interposition -flto=12 -fno-plt -fno-math-errno -fno-trapping-math -fuse-linker-plugin -pipe -g0 -falign-functions=32 -Wl,-O1 -Wl,--as-needed -Wl,--hash-style=gnu,-z,norelro,--as-needed'
 * CXXFLAGS='-march=native -O3 -fgraphite-identity -floop-nest-optimize -fdevirtualize-at-ltrans -fipa-pta -fno-semantic-interposition -flto=12 -fno-plt -fno-math-errno -fno-trapping-math -fuse-linker-plugin -pipe -g0 -falign-functions=32 -Wl,-O1 -Wl,--as-needed -Wl,--hash-style=gnu,-z,norelro,--as-needed'
 * FFLAGS='-march=native -O3 -fgraphite-identity -floop-nest-optimize -fdevirtualize-at-ltrans -fipa-pta -fno-semantic-interposition -flto=12 -fno-plt -fno-math-errno -fno-trapping-math -fuse-linker-plugin -pipe -g0 -falign-functions=32 -Wl,-O1 -Wl,--as-needed -Wl,--hash-style=gnu,-z,norelro,--as-needed'
 * FCFLAGS='-march=native -O3 -fgraphite-identity -floop-nest-optimize -fdevirtualize-at-ltrans -fipa-pta -fno-semantic-interposition -flto=12 -fno-plt -fno-math-errno -fno-trapping-math -fuse-linker-plugin -pipe -g0 -falign-functions=32 -Wl,-O1 -Wl,--as-needed -Wl,--hash-style=gnu,-z,norelro,--as-needed'
 * F77FLAGS='-march=native -O3 -fgraphite-identity -floop-nest-optimize -fdevirtualize-at-ltrans -fipa-pta -fno-semantic-interposition -flto=12 -fno-plt -fno-math-errno -fno-trapping-math -fuse-linker-plugin -pipe -g0 -falign-functions=32 -Wl,-O1 -Wl,--as-needed -Wl,--hash-style=gnu,-z,norelro,--as-needed'
 * LDFLAGS='-Wl,-O1 -Wl,--as-needed -Wl,--hash-style=gnu,-z,norelro,--as-needed -march=native -O3 -fgraphite-identity -floop-nest-optimize -fdevirtualize-at-ltrans -fipa-pta -fno-semantic-interposition -flto=12 -fno-plt -fno-math-errno -fno-trapping-math -fuse-linker-plugin -pipe -g0 -falign-functions=32'
 * MAKEOPTS='-j12 -l12'
 * gcc () 11.0.0 20200526 (experimental)
 * g++ () 11.0.0 20200526 (experimental)
 * GNU ld (Gentoo 2.34 p4) 2.34.0
 * Linux ryzen.gnum.org 5.4.36 #1 SMP Thu Apr 30 04:38:28 UTC 2020 x86_64 AMD Ryzen 5 3600 6-Core Processor AuthenticAMD GNU/Linux
dev-perl/ExtUtils-InstallPaths: 7 seconds average for 8 merges
2020-05-15T04:08:35 >>> dev-perl/ExtUtils-InstallPaths: 6 seconds
2020-05-15T12:47:28 >>> dev-perl/ExtUtils-InstallPaths: 6 seconds
2020-05-20T01:24:03 >>> dev-perl/ExtUtils-InstallPaths: 4 seconds
2020-05-21T06:49:59 >>> dev-perl/ExtUtils-InstallPaths: 5 seconds
2020-05-23T14:25:03 >>> dev-perl/ExtUtils-InstallPaths: 10 seconds
2020-05-25T00:35:53 >>> dev-perl/ExtUtils-InstallPaths: 10 seconds
2020-05-25T23:05:59 >>> dev-perl/ExtUtils-InstallPaths: 10 seconds
2020-05-26T14:22:07 >>> dev-perl/ExtUtils-InstallPaths: 6 seconds
]0;emerge 01:59:11 335|647 ExtUtils-InstallPaths 00:09 (root@ryzen.gnum.org)kemerge 01:59:11 335|647 ExtUtils-InstallPaths 00:09 (root@ryzen.gnum.org)\>>> Extracting dev-perl/ExtUtils-InstallPaths-0.11.0
 * checking 2 files for package collisions
>>> Merging dev-perl/ExtUtils-InstallPaths-0.11.0 to /
 * removing unneeded *.la files
--- /usr/
--- /usr/lib64/
--- /usr/lib64/perl5/
--- /usr/lib64/perl5/vendor_perl/
--- /usr/lib64/perl5/vendor_perl/5.30.2/
--- /usr/lib64/perl5/vendor_perl/5.30.2/ExtUtils/
>>> /usr/lib64/perl5/vendor_perl/5.30.2/ExtUtils/InstallPaths.pm
--- /usr/lib64/perl5/vendor_perl/5.30.2/x86_64-linux/
--- /usr/lib64/perl5/vendor_perl/5.30.2/x86_64-linux/auto/
--- /usr/lib64/perl5/vendor_perl/5.30.2/x86_64-linux/auto/ExtUtils/
--- /usr/lib64/perl5/vendor_perl/5.30.2/x86_64-linux/auto/ExtUtils/InstallPaths/
>>> /usr/lib64/perl5/vendor_perl/5.30.2/x86_64-linux/auto/ExtUtils/InstallPaths/.packlist
>>> Safely unmerging already-installed instance...
>>> Original instance of package unmerged safely.
>>> dev-perl/ExtUtils-InstallPaths-0.11.0 merged.
