No package files given... Grabbing a set.
--- replaced obj /usr/lib64/python2.7/site-packages/termcolor.pyo
--- replaced obj /usr/lib64/python2.7/site-packages/termcolor.pyc
--- replaced obj /usr/lib64/python2.7/site-packages/termcolor.py
--- replaced obj /usr/lib64/python2.7/site-packages/termcolor-1.1.0-py2.7.egg-info
--- replaced dir /usr/lib64/python2.7/site-packages
--- replaced dir /usr/lib64/python2.7
--- replaced dir /usr/lib64
--- replaced obj /usr/lib/python3.9/site-packages/termcolor.py
--- replaced obj /usr/lib/python3.9/site-packages/termcolor-1.1.0-py3.9.egg-info
--- replaced obj /usr/lib/python3.9/site-packages/__pycache__/termcolor.cpython-39.pyc
--- replaced obj /usr/lib/python3.9/site-packages/__pycache__/termcolor.cpython-39.opt-2.pyc
--- replaced obj /usr/lib/python3.9/site-packages/__pycache__/termcolor.cpython-39.opt-1.pyc
--- replaced dir /usr/lib/python3.9/site-packages/__pycache__
--- replaced dir /usr/lib/python3.9/site-packages
--- replaced dir /usr/lib/python3.9
--- replaced obj /usr/lib/python3.8/site-packages/termcolor.py
--- replaced obj /usr/lib/python3.8/site-packages/termcolor-1.1.0-py3.8.egg-info
--- replaced obj /usr/lib/python3.8/site-packages/__pycache__/termcolor.cpython-38.pyc
--- replaced obj /usr/lib/python3.8/site-packages/__pycache__/termcolor.cpython-38.opt-2.pyc
--- replaced obj /usr/lib/python3.8/site-packages/__pycache__/termcolor.cpython-38.opt-1.pyc
--- replaced dir /usr/lib/python3.8/site-packages/__pycache__
--- replaced dir /usr/lib/python3.8/site-packages
--- replaced dir /usr/lib/python3.8
--- replaced obj /usr/lib/python3.7/site-packages/termcolor.py
--- replaced obj /usr/lib/python3.7/site-packages/termcolor-1.1.0-py3.7.egg-info
--- replaced obj /usr/lib/python3.7/site-packages/__pycache__/termcolor.cpython-37.pyc
--- replaced obj /usr/lib/python3.7/site-packages/__pycache__/termcolor.cpython-37.opt-2.pyc
--- replaced obj /usr/lib/python3.7/site-packages/__pycache__/termcolor.cpython-37.opt-1.pyc
--- replaced dir /usr/lib/python3.7/site-packages/__pycache__
--- replaced dir /usr/lib/python3.7/site-packages
--- replaced dir /usr/lib/python3.7
--- replaced obj /usr/lib/pypy3.6/site-packages/termcolor.py
--- replaced obj /usr/lib/pypy3.6/site-packages/termcolor-1.1.0-py3.6.egg-info
--- replaced obj /usr/lib/pypy3.6/site-packages/__pycache__/termcolor.pypy36.pyc
--- replaced obj /usr/lib/pypy3.6/site-packages/__pycache__/termcolor.pypy36.opt-2.pyc
--- replaced obj /usr/lib/pypy3.6/site-packages/__pycache__/termcolor.pypy36.opt-1.pyc
--- replaced dir /usr/lib/pypy3.6/site-packages/__pycache__
--- replaced dir /usr/lib/pypy3.6/site-packages
--- replaced dir /usr/lib/pypy3.6
--- replaced dir /usr/lib
--- replaced dir /usr
>>> Regenerating /etc/ld.so.cache...
