[32;01m * [39;49;00mPackage:    dev-lang/spidermonkey-60.5.2_p0-r4
[32;01m * [39;49;00mRepository: gentoo
[32;01m * [39;49;00mUSE:        abi_x86_64 system-icu elibc_glibc kernel_linux userland_GNU amd64
[32;01m * [39;49;00mFEATURES:   network-sandbox preserve-libs sandbox userpriv usersandbox
