 * Package:    dev-perl/namespace-clean-0.270.0
 * Repository: gentoo
 * Maintainer: perl@gentoo.org
 * USE:        abi_x86_64 amd64 elibc_glibc kernel_linux userland_GNU
 * FEATURES:   ccache network-sandbox preserve-libs sandbox userpriv usersandbox
 * /etc/portage/package.cflags/ltoworkarounds.conf -> */*: *FLAGS+=-Wl,-O4 *FLAGS-=-Wl,-O1
 * FEATURES='news nodoc config-protect-if-modified unknown-features-warn parallel-fetch cgroup unmerge-logs preserve-libs xattr buildpkg network-sandbox fixlafiles usersandbox pid-sandbox binpkg-dostrip parallel-install strict userfetch sandbox merge-sync multilib-strict assume-digests qa-unresolved-soname-deps strict-keepdir distlocks binpkg-logs sfperms unmerge-orphans binpkg-multi-instance usersync compress-index ipc-sandbox binpkg-docompress userpriv ccache'
 * CFLAGS='-march=znver2 -pipe -g0 -O3 -fgraphite-identity -floop-nest-optimize -fdevirtualize-at-ltrans -fipa-pta -fno-semantic-interposition -flto=12 -fno-plt -fno-signed-zeros -fno-trapping-math -fassociative-math -freciprocal-math -fno-math-errno -ffinite-math-only -fno-rounding-math -fno-signaling-nans -fcx-limited-range -fexcess-precision=fast -falign-functions=32 -fno-stack-protector -fno-stack-clash-protection -fstack-check=no -fno-stack-check -fuse-linker-plugin -Wl,-O4 -Wl,--as-needed -Wl,-lpthread -Wl,-lgomp -Wl,-z,norelro -Wl,-z,now -Wl,--sort-common -s'
 * CXXFLAGS='-march=znver2 -pipe -g0 -O3 -fgraphite-identity -floop-nest-optimize -fdevirtualize-at-ltrans -fipa-pta -fno-semantic-interposition -flto=12 -fno-plt -fno-signed-zeros -fno-trapping-math -fassociative-math -freciprocal-math -fno-math-errno -ffinite-math-only -fno-rounding-math -fno-signaling-nans -fcx-limited-range -fexcess-precision=fast -falign-functions=32 -fno-stack-protector -fno-stack-clash-protection -fstack-check=no -fno-stack-check -fuse-linker-plugin -Wl,-O4 -Wl,--as-needed -Wl,-lpthread -Wl,-lgomp -Wl,-z,norelro -Wl,-z,now -Wl,--sort-common -s'
 * FFLAGS='-march=znver2 -pipe -g0 -O3 -fgraphite-identity -floop-nest-optimize -fdevirtualize-at-ltrans -fipa-pta -fno-semantic-interposition -flto=12 -fno-plt -fno-signed-zeros -fno-trapping-math -fassociative-math -freciprocal-math -fno-math-errno -ffinite-math-only -fno-rounding-math -fno-signaling-nans -fcx-limited-range -fexcess-precision=fast -falign-functions=32 -fno-stack-protector -fno-stack-clash-protection -fstack-check=no -fno-stack-check -fuse-linker-plugin -Wl,-O4 -Wl,--as-needed -Wl,-lpthread -Wl,-lgomp -Wl,-z,norelro -Wl,-z,now -Wl,--sort-common -s'
 * FCFLAGS='-march=znver2 -pipe -g0 -O3 -fgraphite-identity -floop-nest-optimize -fdevirtualize-at-ltrans -fipa-pta -fno-semantic-interposition -flto=12 -fno-plt -fno-signed-zeros -fno-trapping-math -fassociative-math -freciprocal-math -fno-math-errno -ffinite-math-only -fno-rounding-math -fno-signaling-nans -fcx-limited-range -fexcess-precision=fast -falign-functions=32 -fno-stack-protector -fno-stack-clash-protection -fstack-check=no -fno-stack-check -fuse-linker-plugin -Wl,-O4 -Wl,--as-needed -Wl,-lpthread -Wl,-lgomp -Wl,-z,norelro -Wl,-z,now -Wl,--sort-common -s'
 * F77FLAGS='-march=znver2 -pipe -g0 -O3 -fgraphite-identity -floop-nest-optimize -fdevirtualize-at-ltrans -fipa-pta -fno-semantic-interposition -flto=12 -fno-plt -fno-signed-zeros -fno-trapping-math -fassociative-math -freciprocal-math -fno-math-errno -ffinite-math-only -fno-rounding-math -fno-signaling-nans -fcx-limited-range -fexcess-precision=fast -falign-functions=32 -fno-stack-protector -fno-stack-clash-protection -fstack-check=no -fno-stack-check -fuse-linker-plugin -Wl,-O4 -Wl,--as-needed -Wl,-lpthread -Wl,-lgomp -Wl,-z,norelro -Wl,-z,now -Wl,--sort-common -s'
 * LDFLAGS='-march=znver2 -pipe -g0 -O3 -fgraphite-identity -floop-nest-optimize -fdevirtualize-at-ltrans -fipa-pta -fno-semantic-interposition -flto=12 -fno-plt -fno-signed-zeros -fno-trapping-math -fassociative-math -freciprocal-math -fno-math-errno -ffinite-math-only -fno-rounding-math -fno-signaling-nans -fcx-limited-range -fexcess-precision=fast -falign-functions=32 -fno-stack-protector -fno-stack-clash-protection -fstack-check=no -fno-stack-check -fuse-linker-plugin -Wl,-O4 -Wl,--as-needed -Wl,-lpthread -Wl,-lgomp -Wl,-z,norelro -Wl,-z,now -Wl,--sort-common -s'
 * MAKEOPTS='-j12 -l12'
 * gcc () 11.0.0 20200605 (experimental)
 * g++ () 11.0.0 20200605 (experimental)
 * GNU ld (Gentoo 2.34 p4) 2.34.0
 * Linux rescue 5.4.36 #1 SMP Thu Apr 30 04:38:28 UTC 2020 x86_64 AMD Ryzen 5 3600 6-Core Processor AuthenticAMD GNU/Linux
dev-perl/namespace-clean: 8 seconds average for 15 merges
2020-05-21T12:54:51 >>> dev-perl/namespace-clean: 8 seconds
2020-05-23T15:12:01 >>> dev-perl/namespace-clean: 9 seconds
2020-05-24T05:19:00 >>> dev-perl/namespace-clean: 5 seconds
2020-05-24T16:39:55 >>> dev-perl/namespace-clean: 5 seconds
2020-05-25T00:38:40 >>> dev-perl/namespace-clean: 10 seconds
2020-05-25T23:18:42 >>> dev-perl/namespace-clean: 10 seconds
2020-05-26T14:25:17 >>> dev-perl/namespace-clean: 5 seconds
2020-05-27T02:02:10 >>> dev-perl/namespace-clean: 6 seconds
2020-05-27T04:30:51 >>> dev-perl/namespace-clean: 10 seconds
2020-05-28T02:52:48 >>> dev-perl/namespace-clean: 5 seconds
2020-05-29T03:18:34 >>> dev-perl/namespace-clean: 9 seconds
2020-05-29T12:45:25 >>> dev-perl/namespace-clean: 10 seconds
2020-05-30T14:38:13 >>> dev-perl/namespace-clean: 10 seconds
2020-06-01T04:17:49 >>> dev-perl/namespace-clean: 11 seconds
2020-06-03T13:26:17 >>> dev-perl/namespace-clean: 11 seconds
]0;emerge 11:16:35 92|397 namespace-clean 00:11 (root@rescue)kemerge 11:16:35 92|397 namespace-clean 00:11 (root@rescue)\>>> Unpacking source...
>>> Unpacking namespace-clean-0.27.tar.gz to /tmp/portage/dev-perl/namespace-clean-0.270.0/work
>>> Source unpacked in /tmp/portage/dev-perl/namespace-clean-0.270.0/work
>>> Preparing source in /tmp/portage/dev-perl/namespace-clean-0.270.0/work/namespace-clean-0.27 ...
>>> Source prepared.
>>> Configuring source in /tmp/portage/dev-perl/namespace-clean-0.270.0/work/namespace-clean-0.27 ...
 * Using ExtUtils::MakeMaker
 * perl Makefile.PL PREFIX=/usr INSTALLDIRS=vendor INSTALLMAN3DIR=none DESTDIR=/tmp/portage/dev-perl/namespace-clean-0.270.0/image/
Checking if your kit is complete...
Looks good
Generating a Unix-style Makefile
Writing Makefile for namespace::clean
Writing MYMETA.yml and MYMETA.json
>>> Source configured.
>>> Compiling source in /tmp/portage/dev-perl/namespace-clean-0.270.0/work/namespace-clean-0.27 ...
 * emake OTHERLDFLAGS=-march=znver2 -pipe -g0 -O3 -fgraphite-identity -floop-nest-optimize -fdevirtualize-at-ltrans -fipa-pta -fno-semantic-interposition -flto=12 -fno-plt -fno-signed-zeros -fno-trapping-math -fassociative-math -freciprocal-math -fno-math-errno -ffinite-math-only -fno-rounding-math -fno-signaling-nans -fcx-limited-range -fexcess-precision=fast -falign-functions=32 -fno-stack-protector -fno-stack-clash-protection -fstack-check=no -fno-stack-check -fuse-linker-plugin -Wl,-O4 -Wl,--as-needed -Wl,-lpthread -Wl,-lgomp -Wl,-z,norelro -Wl,-z,now -Wl,--sort-common -s
make -j12 -l12 'OTHERLDFLAGS=-march=znver2 -pipe -g0 -O3 -fgraphite-identity -floop-nest-optimize -fdevirtualize-at-ltrans -fipa-pta -fno-semantic-interposition -flto=12 -fno-plt -fno-signed-zeros -fno-trapping-math -fassociative-math -freciprocal-math -fno-math-errno -ffinite-math-only -fno-rounding-math -fno-signaling-nans -fcx-limited-range -fexcess-precision=fast -falign-functions=32 -fno-stack-protector -fno-stack-clash-protection -fstack-check=no -fno-stack-check -fuse-linker-plugin -Wl,-O4 -Wl,--as-needed -Wl,-lpthread -Wl,-lgomp -Wl,-z,norelro -Wl,-z,now -Wl,--sort-common -s' 
>>> Source compiled.
 * Skipping make test/check due to ebuild restriction.
>>> Test phase [disabled because of RESTRICT=test]: dev-perl/namespace-clean-0.270.0

>>> Install dev-perl/namespace-clean-0.270.0 into /tmp/portage/dev-perl/namespace-clean-0.270.0/image/
make -j12 -l12 pure_install 
Installing /tmp/portage/dev-perl/namespace-clean-0.270.0/image/usr/lib64/perl5/vendor_perl/5.30.3/namespace/clean.pm
Installing /tmp/portage/dev-perl/namespace-clean-0.270.0/image/usr/lib64/perl5/vendor_perl/5.30.3/namespace/clean/_Util.pm
 * Fixing packlist file /usr/lib64/perl5/vendor_perl/5.30.3/x86_64-linux-thread-multi/auto/namespace/clean/.packlist
>>> Completed installing dev-perl/namespace-clean-0.270.0 into /tmp/portage/dev-perl/namespace-clean-0.270.0/image/

 * Final size of build directory: 316 KiB
 * Final size of installed tree:   92 KiB

./
./usr/
./usr/share/
./usr/share/doc/
./usr/share/doc/namespace-clean-0.270.0/
./usr/share/doc/namespace-clean-0.270.0/Changes.bz2
./usr/lib64/
./usr/lib64/perl5/
./usr/lib64/perl5/vendor_perl/
./usr/lib64/perl5/vendor_perl/5.30.3/
./usr/lib64/perl5/vendor_perl/5.30.3/x86_64-linux-thread-multi/
./usr/lib64/perl5/vendor_perl/5.30.3/x86_64-linux-thread-multi/auto/
./usr/lib64/perl5/vendor_perl/5.30.3/x86_64-linux-thread-multi/auto/namespace/
./usr/lib64/perl5/vendor_perl/5.30.3/x86_64-linux-thread-multi/auto/namespace/clean/
./usr/lib64/perl5/vendor_perl/5.30.3/x86_64-linux-thread-multi/auto/namespace/clean/.packlist
./usr/lib64/perl5/vendor_perl/5.30.3/namespace/
./usr/lib64/perl5/vendor_perl/5.30.3/namespace/clean/
./usr/lib64/perl5/vendor_perl/5.30.3/namespace/clean/_Util.pm
./usr/lib64/perl5/vendor_perl/5.30.3/namespace/clean.pm
>>> Done.
 * checking 3 files for package collisions
>>> Merging dev-perl/namespace-clean-0.270.0 to /
 * removing unneeded *.la files
--- /usr/
--- /usr/lib64/
--- /usr/lib64/perl5/
--- /usr/lib64/perl5/vendor_perl/
--- /usr/lib64/perl5/vendor_perl/5.30.3/
--- /usr/lib64/perl5/vendor_perl/5.30.3/namespace/
>>> /usr/lib64/perl5/vendor_perl/5.30.3/namespace/clean.pm
--- /usr/lib64/perl5/vendor_perl/5.30.3/namespace/clean/
>>> /usr/lib64/perl5/vendor_perl/5.30.3/namespace/clean/_Util.pm
--- /usr/lib64/perl5/vendor_perl/5.30.3/x86_64-linux-thread-multi/
--- /usr/lib64/perl5/vendor_perl/5.30.3/x86_64-linux-thread-multi/auto/
--- /usr/lib64/perl5/vendor_perl/5.30.3/x86_64-linux-thread-multi/auto/namespace/
--- /usr/lib64/perl5/vendor_perl/5.30.3/x86_64-linux-thread-multi/auto/namespace/clean/
>>> /usr/lib64/perl5/vendor_perl/5.30.3/x86_64-linux-thread-multi/auto/namespace/clean/.packlist
>>> Safely unmerging already-installed instance...
>>> Original instance of package unmerged safely.
>>> dev-perl/namespace-clean-0.270.0 merged.
