 * Package:    dev-python/pycparser-2.20
 * Repository: gentoo
 * Maintainer: python@gentoo.org
 * USE:        abi_x86_64 amd64 elibc_glibc kernel_linux python_targets_python3_8 userland_GNU
 * FEATURES:   network-sandbox preserve-libs sandbox userpriv usersandbox
 * FEATURES='assume-digests binpkg-docompress binpkg-dostrip binpkg-logs buildpkg cgroup compress-index config-protect-if-modified distlocks ebuild-locks fixlafiles ipc-sandbox merge-sync multilib-strict network-sandbox news nodoc parallel-fetch pid-sandbox preserve-libs qa-unresolved-soname-deps sandbox sfperms strict strict-keepdir unknown-features-warn unmerge-logs unmerge-orphans userfetch userpriv usersandbox usersync xattr'
 * CFLAGS='-march=znver2 -Ofast -pipe -g0 -fno-common -fgraphite-identity -floop-interchange -floop-nest-optimize -floop-parallelize-all -ftree-parallelize-loops=12 -ftree-vectorize -fdevirtualize-at-ltrans -fipa-pta -fno-semantic-interposition -flto=12 -fno-plt -falign-functions=32 -fno-stack-protector -fno-stack-clash-protection -fstack-check=no -fno-stack-check -fuse-linker-plugin -Wl,-O1,--sort-common,--as-needed,-z,norelro,-z,now,-lgomp,-lpthread'
 * CXXFLAGS='-march=znver2 -Ofast -pipe -g0 -fno-common -fgraphite-identity -floop-interchange -floop-nest-optimize -floop-parallelize-all -ftree-parallelize-loops=12 -ftree-vectorize -fdevirtualize-at-ltrans -fipa-pta -fno-semantic-interposition -flto=12 -fno-plt -falign-functions=32 -fno-stack-protector -fno-stack-clash-protection -fstack-check=no -fno-stack-check -fuse-linker-plugin -Wl,-O1,--sort-common,--as-needed,-z,norelro,-z,now,-lgomp,-lpthread'
 * FFLAGS='-march=znver2 -Ofast -pipe -g0 -fno-common -fgraphite-identity -floop-interchange -floop-nest-optimize -floop-parallelize-all -ftree-parallelize-loops=12 -ftree-vectorize -fdevirtualize-at-ltrans -fipa-pta -fno-semantic-interposition -flto=12 -fno-plt -falign-functions=32 -fno-stack-protector -fno-stack-clash-protection -fstack-check=no -fno-stack-check -fuse-linker-plugin -Wl,-O1,--sort-common,--as-needed,-z,norelro,-z,now,-lgomp,-lpthread'
 * FCFLAGS='-march=znver2 -Ofast -pipe -g0 -fno-common -fgraphite-identity -floop-interchange -floop-nest-optimize -floop-parallelize-all -ftree-parallelize-loops=12 -ftree-vectorize -fdevirtualize-at-ltrans -fipa-pta -fno-semantic-interposition -flto=12 -fno-plt -falign-functions=32 -fno-stack-protector -fno-stack-clash-protection -fstack-check=no -fno-stack-check -fuse-linker-plugin -Wl,-O1,--sort-common,--as-needed,-z,norelro,-z,now,-lgomp,-lpthread'
 * F77FLAGS='-march=znver2 -Ofast -pipe -g0 -fno-common -fgraphite-identity -floop-interchange -floop-nest-optimize -floop-parallelize-all -ftree-parallelize-loops=12 -ftree-vectorize -fdevirtualize-at-ltrans -fipa-pta -fno-semantic-interposition -flto=12 -fno-plt -falign-functions=32 -fno-stack-protector -fno-stack-clash-protection -fstack-check=no -fno-stack-check -fuse-linker-plugin -Wl,-O1,--sort-common,--as-needed,-z,norelro,-z,now,-lgomp,-lpthread'
 * LDFLAGS='-Wl,-O1,--sort-common,--as-needed,-z,norelro,-z,now,-lgomp,-lpthread -march=znver2 -Ofast -pipe -g0 -fno-common -fgraphite-identity -floop-interchange -floop-nest-optimize -floop-parallelize-all -ftree-parallelize-loops=12 -ftree-vectorize -fdevirtualize-at-ltrans -fipa-pta -fno-semantic-interposition -flto=12 -fno-plt -falign-functions=32 -fno-stack-protector -fno-stack-clash-protection -fstack-check=no -fno-stack-check -fuse-linker-plugin'
 * MAKEOPTS='-j12 -l12'
 * gcc () 11.0.0 20200616 (experimental)
 * g++ () 11.0.0 20200616 (experimental)
 * GNU ld (Gentoo 2.34 p4) 2.34.0
 * Linux rescue 5.4.36 #1 SMP Thu Apr 30 04:38:28 UTC 2020 x86_64 AMD Ryzen 5 3600 6-Core Processor AuthenticAMD GNU/Linux
dev-python/pycparser: 26 seconds average for 12 merges
2020-05-16T14:23:16 >>> dev-python/pycparser: 13 seconds
2020-05-20T00:03:02 >>> dev-python/pycparser: 27 seconds
2020-05-24T05:02:55 >>> dev-python/pycparser: 13 seconds
2020-05-24T15:24:30 >>> dev-python/pycparser: 30 seconds
2020-05-25T15:14:40 >>> dev-python/pycparser: 24 seconds
2020-05-26T00:54:22 >>> dev-python/pycparser: 24 seconds
2020-05-27T02:24:40 >>> dev-python/pycparser: 27 seconds
2020-05-30T17:33:26 >>> dev-python/pycparser: 31 seconds
2020-06-01T07:34:18 >>> dev-python/pycparser: 29 seconds
2020-06-05T03:47:49 >>> dev-python/pycparser: 33 seconds
2020-06-13T20:54:21 >>> dev-python/pycparser: 20 seconds
2020-06-16T17:39:18 >>> dev-python/pycparser: 46 seconds
]0;emerge 17:02:17 60|194 pycparser 00:33 (root@rescue)>>> Unpacking source...
>>> Unpacking pycparser-2.20.tar.gz to /tmp/portage/dev-python/pycparser-2.20/work
>>> Source unpacked in /tmp/portage/dev-python/pycparser-2.20/work
>>> Preparing source in /tmp/portage/dev-python/pycparser-2.20/work/pycparser-2.20 ...
>>> Source prepared.
>>> Configuring source in /tmp/portage/dev-python/pycparser-2.20/work/pycparser-2.20 ...
>>> Source configured.
>>> Compiling source in /tmp/portage/dev-python/pycparser-2.20/work/pycparser-2.20 ...
 * python3_8: running distutils-r1_run_phase python_compile
python3.8 setup.py build -j 12
running build
running build_py
creating /tmp/portage/dev-python/pycparser-2.20/work/pycparser-2.20-python3_8/lib/pycparser
copying pycparser/c_generator.py -> /tmp/portage/dev-python/pycparser-2.20/work/pycparser-2.20-python3_8/lib/pycparser
copying pycparser/__init__.py -> /tmp/portage/dev-python/pycparser-2.20/work/pycparser-2.20-python3_8/lib/pycparser
copying pycparser/_build_tables.py -> /tmp/portage/dev-python/pycparser-2.20/work/pycparser-2.20-python3_8/lib/pycparser
copying pycparser/plyparser.py -> /tmp/portage/dev-python/pycparser-2.20/work/pycparser-2.20-python3_8/lib/pycparser
copying pycparser/_ast_gen.py -> /tmp/portage/dev-python/pycparser-2.20/work/pycparser-2.20-python3_8/lib/pycparser
copying pycparser/ast_transforms.py -> /tmp/portage/dev-python/pycparser-2.20/work/pycparser-2.20-python3_8/lib/pycparser
copying pycparser/c_parser.py -> /tmp/portage/dev-python/pycparser-2.20/work/pycparser-2.20-python3_8/lib/pycparser
copying pycparser/c_lexer.py -> /tmp/portage/dev-python/pycparser-2.20/work/pycparser-2.20-python3_8/lib/pycparser
creating /tmp/portage/dev-python/pycparser-2.20/work/pycparser-2.20-python3_8/lib/pycparser/ply
copying pycparser/ply/yacc.py -> /tmp/portage/dev-python/pycparser-2.20/work/pycparser-2.20-python3_8/lib/pycparser/ply
copying pycparser/ply/ygen.py -> /tmp/portage/dev-python/pycparser-2.20/work/pycparser-2.20-python3_8/lib/pycparser/ply
copying pycparser/ply/cpp.py -> /tmp/portage/dev-python/pycparser-2.20/work/pycparser-2.20-python3_8/lib/pycparser/ply
copying pycparser/ply/__init__.py -> /tmp/portage/dev-python/pycparser-2.20/work/pycparser-2.20-python3_8/lib/pycparser/ply
copying pycparser/ply/ctokens.py -> /tmp/portage/dev-python/pycparser-2.20/work/pycparser-2.20-python3_8/lib/pycparser/ply
copying pycparser/ply/lex.py -> /tmp/portage/dev-python/pycparser-2.20/work/pycparser-2.20-python3_8/lib/pycparser/ply
copying pycparser/_c_ast.cfg -> /tmp/portage/dev-python/pycparser-2.20/work/pycparser-2.20-python3_8/lib/pycparser
warning: build_py: byte-compiling is disabled, skipping.

>>> Source compiled.
>>> Test phase [not enabled]: dev-python/pycparser-2.20

>>> Install dev-python/pycparser-2.20 into /tmp/portage/dev-python/pycparser-2.20/image
 * python3_8: running distutils-r1_run_phase python_install
python3.8 setup.py install --skip-build --root=/tmp/portage/dev-python/pycparser-2.20/image/_python3.8
running install
running install_lib
creating /tmp/portage/dev-python/pycparser-2.20/image/_python3.8
creating /tmp/portage/dev-python/pycparser-2.20/image/_python3.8/usr
creating /tmp/portage/dev-python/pycparser-2.20/image/_python3.8/usr/lib
creating /tmp/portage/dev-python/pycparser-2.20/image/_python3.8/usr/lib/python3.8
creating /tmp/portage/dev-python/pycparser-2.20/image/_python3.8/usr/lib/python3.8/site-packages
creating /tmp/portage/dev-python/pycparser-2.20/image/_python3.8/usr/lib/python3.8/site-packages/pycparser
copying /tmp/portage/dev-python/pycparser-2.20/work/pycparser-2.20-python3_8/lib/pycparser/c_generator.py -> /tmp/portage/dev-python/pycparser-2.20/image/_python3.8/usr/lib/python3.8/site-packages/pycparser
copying /tmp/portage/dev-python/pycparser-2.20/work/pycparser-2.20-python3_8/lib/pycparser/__init__.py -> /tmp/portage/dev-python/pycparser-2.20/image/_python3.8/usr/lib/python3.8/site-packages/pycparser
copying /tmp/portage/dev-python/pycparser-2.20/work/pycparser-2.20-python3_8/lib/pycparser/_build_tables.py -> /tmp/portage/dev-python/pycparser-2.20/image/_python3.8/usr/lib/python3.8/site-packages/pycparser
copying /tmp/portage/dev-python/pycparser-2.20/work/pycparser-2.20-python3_8/lib/pycparser/c_ast.py -> /tmp/portage/dev-python/pycparser-2.20/image/_python3.8/usr/lib/python3.8/site-packages/pycparser
copying /tmp/portage/dev-python/pycparser-2.20/work/pycparser-2.20-python3_8/lib/pycparser/plyparser.py -> /tmp/portage/dev-python/pycparser-2.20/image/_python3.8/usr/lib/python3.8/site-packages/pycparser
copying /tmp/portage/dev-python/pycparser-2.20/work/pycparser-2.20-python3_8/lib/pycparser/_ast_gen.py -> /tmp/portage/dev-python/pycparser-2.20/image/_python3.8/usr/lib/python3.8/site-packages/pycparser
copying /tmp/portage/dev-python/pycparser-2.20/work/pycparser-2.20-python3_8/lib/pycparser/ast_transforms.py -> /tmp/portage/dev-python/pycparser-2.20/image/_python3.8/usr/lib/python3.8/site-packages/pycparser
copying /tmp/portage/dev-python/pycparser-2.20/work/pycparser-2.20-python3_8/lib/pycparser/_c_ast.cfg -> /tmp/portage/dev-python/pycparser-2.20/image/_python3.8/usr/lib/python3.8/site-packages/pycparser
copying /tmp/portage/dev-python/pycparser-2.20/work/pycparser-2.20-python3_8/lib/pycparser/c_parser.py -> /tmp/portage/dev-python/pycparser-2.20/image/_python3.8/usr/lib/python3.8/site-packages/pycparser
copying /tmp/portage/dev-python/pycparser-2.20/work/pycparser-2.20-python3_8/lib/pycparser/yacctab.py -> /tmp/portage/dev-python/pycparser-2.20/image/_python3.8/usr/lib/python3.8/site-packages/pycparser
copying /tmp/portage/dev-python/pycparser-2.20/work/pycparser-2.20-python3_8/lib/pycparser/c_lexer.py -> /tmp/portage/dev-python/pycparser-2.20/image/_python3.8/usr/lib/python3.8/site-packages/pycparser
copying /tmp/portage/dev-python/pycparser-2.20/work/pycparser-2.20-python3_8/lib/pycparser/lextab.py -> /tmp/portage/dev-python/pycparser-2.20/image/_python3.8/usr/lib/python3.8/site-packages/pycparser
creating /tmp/portage/dev-python/pycparser-2.20/image/_python3.8/usr/lib/python3.8/site-packages/pycparser/ply
copying /tmp/portage/dev-python/pycparser-2.20/work/pycparser-2.20-python3_8/lib/pycparser/ply/yacc.py -> /tmp/portage/dev-python/pycparser-2.20/image/_python3.8/usr/lib/python3.8/site-packages/pycparser/ply
copying /tmp/portage/dev-python/pycparser-2.20/work/pycparser-2.20-python3_8/lib/pycparser/ply/ygen.py -> /tmp/portage/dev-python/pycparser-2.20/image/_python3.8/usr/lib/python3.8/site-packages/pycparser/ply
copying /tmp/portage/dev-python/pycparser-2.20/work/pycparser-2.20-python3_8/lib/pycparser/ply/cpp.py -> /tmp/portage/dev-python/pycparser-2.20/image/_python3.8/usr/lib/python3.8/site-packages/pycparser/ply
copying /tmp/portage/dev-python/pycparser-2.20/work/pycparser-2.20-python3_8/lib/pycparser/ply/__init__.py -> /tmp/portage/dev-python/pycparser-2.20/image/_python3.8/usr/lib/python3.8/site-packages/pycparser/ply
copying /tmp/portage/dev-python/pycparser-2.20/work/pycparser-2.20-python3_8/lib/pycparser/ply/ctokens.py -> /tmp/portage/dev-python/pycparser-2.20/image/_python3.8/usr/lib/python3.8/site-packages/pycparser/ply
copying /tmp/portage/dev-python/pycparser-2.20/work/pycparser-2.20-python3_8/lib/pycparser/ply/lex.py -> /tmp/portage/dev-python/pycparser-2.20/image/_python3.8/usr/lib/python3.8/site-packages/pycparser/ply
byte-compiling /tmp/portage/dev-python/pycparser-2.20/image/_python3.8/usr/lib/python3.8/site-packages/pycparser/c_generator.py to c_generator.cpython-38.pyc
byte-compiling /tmp/portage/dev-python/pycparser-2.20/image/_python3.8/usr/lib/python3.8/site-packages/pycparser/__init__.py to __init__.cpython-38.pyc
byte-compiling /tmp/portage/dev-python/pycparser-2.20/image/_python3.8/usr/lib/python3.8/site-packages/pycparser/_build_tables.py to _build_tables.cpython-38.pyc
byte-compiling /tmp/portage/dev-python/pycparser-2.20/image/_python3.8/usr/lib/python3.8/site-packages/pycparser/c_ast.py to c_ast.cpython-38.pyc
byte-compiling /tmp/portage/dev-python/pycparser-2.20/image/_python3.8/usr/lib/python3.8/site-packages/pycparser/plyparser.py to plyparser.cpython-38.pyc
byte-compiling /tmp/portage/dev-python/pycparser-2.20/image/_python3.8/usr/lib/python3.8/site-packages/pycparser/_ast_gen.py to _ast_gen.cpython-38.pyc
byte-compiling /tmp/portage/dev-python/pycparser-2.20/image/_python3.8/usr/lib/python3.8/site-packages/pycparser/ast_transforms.py to ast_transforms.cpython-38.pyc
byte-compiling /tmp/portage/dev-python/pycparser-2.20/image/_python3.8/usr/lib/python3.8/site-packages/pycparser/c_parser.py to c_parser.cpython-38.pyc
byte-compiling /tmp/portage/dev-python/pycparser-2.20/image/_python3.8/usr/lib/python3.8/site-packages/pycparser/yacctab.py to yacctab.cpython-38.pyc
byte-compiling /tmp/portage/dev-python/pycparser-2.20/image/_python3.8/usr/lib/python3.8/site-packages/pycparser/c_lexer.py to c_lexer.cpython-38.pyc
byte-compiling /tmp/portage/dev-python/pycparser-2.20/image/_python3.8/usr/lib/python3.8/site-packages/pycparser/lextab.py to lextab.cpython-38.pyc
byte-compiling /tmp/portage/dev-python/pycparser-2.20/image/_python3.8/usr/lib/python3.8/site-packages/pycparser/ply/yacc.py to yacc.cpython-38.pyc
byte-compiling /tmp/portage/dev-python/pycparser-2.20/image/_python3.8/usr/lib/python3.8/site-packages/pycparser/ply/ygen.py to ygen.cpython-38.pyc
byte-compiling /tmp/portage/dev-python/pycparser-2.20/image/_python3.8/usr/lib/python3.8/site-packages/pycparser/ply/cpp.py to cpp.cpython-38.pyc
byte-compiling /tmp/portage/dev-python/pycparser-2.20/image/_python3.8/usr/lib/python3.8/site-packages/pycparser/ply/__init__.py to __init__.cpython-38.pyc
byte-compiling /tmp/portage/dev-python/pycparser-2.20/image/_python3.8/usr/lib/python3.8/site-packages/pycparser/ply/ctokens.py to ctokens.cpython-38.pyc
byte-compiling /tmp/portage/dev-python/pycparser-2.20/image/_python3.8/usr/lib/python3.8/site-packages/pycparser/ply/lex.py to lex.cpython-38.pyc
writing byte-compilation script '/tmp/portage/dev-python/pycparser-2.20/temp/tmpogdl33a_.py'
/usr/bin/python3.8 /tmp/portage/dev-python/pycparser-2.20/temp/tmpogdl33a_.py
removing /tmp/portage/dev-python/pycparser-2.20/temp/tmpogdl33a_.py
writing byte-compilation script '/tmp/portage/dev-python/pycparser-2.20/temp/tmpkm4hkx1k.py'
/usr/bin/python3.8 /tmp/portage/dev-python/pycparser-2.20/temp/tmpkm4hkx1k.py
removing /tmp/portage/dev-python/pycparser-2.20/temp/tmpkm4hkx1k.py
running install_egg_info
running egg_info
writing pycparser.egg-info/PKG-INFO
writing dependency_links to pycparser.egg-info/dependency_links.txt
writing top-level names to pycparser.egg-info/top_level.txt
reading manifest file 'pycparser.egg-info/SOURCES.txt'
reading manifest template 'MANIFEST.in'
warning: no previously-included files found matching 'setup.pyc'
warning: no previously-included files matching 'yacctab.*' found under directory 'tests'
warning: no previously-included files matching 'lextab.*' found under directory 'tests'
warning: no previously-included files matching 'yacctab.*' found under directory 'examples'
warning: no previously-included files matching 'lextab.*' found under directory 'examples'
writing manifest file 'pycparser.egg-info/SOURCES.txt'
Copying pycparser.egg-info to /tmp/portage/dev-python/pycparser-2.20/image/_python3.8/usr/lib/python3.8/site-packages/pycparser-2.20-py3.8.egg-info
running install_scripts
Build the lexing/parsing tables
 * Using python3.8 in global scope
 * python3_8: running distutils-r1_run_phase distutils-r1_python_install_all
>>> Completed installing dev-python/pycparser-2.20 into /tmp/portage/dev-python/pycparser-2.20/image

 * Final size of build directory: 1936 KiB (1.8 MiB)
 * Final size of installed tree:  1884 KiB (1.8 MiB)

 * Verifying compiled files in /usr/lib/python3.8/site-packages
Parallel BZIP2 v1.1.13 [Dec 18, 2015]
By: Jeff Gilchrist [http://compression.ca]
Major contributions: Yavor Nikolov [http://javornikolov.wordpress.com]
Uses libbzip2 by Julian Seward

         # CPUs: 5
   Load Average: 7.26
 BWT Block Size: 200 KB
File Block Size: 900 KB
 Maximum Memory: 1024 MB
-------------------------------------------
         File #: 1 of 1
     Input Name: compressme
    Output Name: compressme.bz2

     Input Size: 3895 bytes
Compressing data (no threads)...
Completed: 100%                 Output Size: 918 bytes
-------------------------------------------

     Wall Clock: 0.022732 seconds
Parallel BZIP2 v1.1.13 [Dec 18, 2015]
By: Jeff Gilchrist [http://compression.ca]
Major contributions: Yavor Nikolov [http://javornikolov.wordpress.com]
Uses libbzip2 by Julian Seward

         # CPUs: 5
   Load Average: 7.26
 BWT Block Size: 200 KB
File Block Size: 900 KB
 Maximum Memory: 1024 MB
-------------------------------------------
         File #: 1 of 1
     Input Name: /tmp/portage/dev-python/pycparser-2.20/image/usr/share/doc/pycparser-2.20/README.rst
    Output Name: /tmp/portage/dev-python/pycparser-2.20/image/usr/share/doc/pycparser-2.20/README.rst.bz2

     Input Size: 9102 bytes
Compressing data (no threads)...
Completed: 100%                 Output Size: 3736 bytes
-------------------------------------------
Parallel BZIP2 v1.1.13 [Dec 18, 2015]
By: Jeff Gilchrist [http://compression.ca]
Major contributions: Yavor Nikolov [http://javornikolov.wordpress.com]
Uses libbzip2 by Julian Seward

         # CPUs: 5
   Load Average: 7.26
 BWT Block Size: 200 KB
File Block Size: 900 KB
 Maximum Memory: 1024 MB
-------------------------------------------
         File #: 1 of 1
     Input Name: /tmp/portage/dev-python/pycparser-2.20/image/usr/share/doc/pycparser-2.20/CHANGES
    Output Name: /tmp/portage/dev-python/pycparser-2.20/image/usr/share/doc/pycparser-2.20/CHANGES.bz2

     Input Size: 10769 bytes
Compressing data (no threads)...

     Wall Clock: 0.016505 seconds
Completed: 100%                 Output Size: 4112 bytes
-------------------------------------------

     Wall Clock: 0.028644 seconds
./
./usr/
./usr/lib/
./usr/lib/python3.8/
./usr/lib/python3.8/site-packages/
./usr/lib/python3.8/site-packages/pycparser/
./usr/lib/python3.8/site-packages/pycparser/c_generator.py
./usr/lib/python3.8/site-packages/pycparser/__init__.py
./usr/lib/python3.8/site-packages/pycparser/_build_tables.py
./usr/lib/python3.8/site-packages/pycparser/c_ast.py
./usr/lib/python3.8/site-packages/pycparser/plyparser.py
./usr/lib/python3.8/site-packages/pycparser/_ast_gen.py
./usr/lib/python3.8/site-packages/pycparser/ast_transforms.py
./usr/lib/python3.8/site-packages/pycparser/_c_ast.cfg
./usr/lib/python3.8/site-packages/pycparser/c_parser.py
./usr/lib/python3.8/site-packages/pycparser/yacctab.py
./usr/lib/python3.8/site-packages/pycparser/__pycache__/
./usr/lib/python3.8/site-packages/pycparser/__pycache__/ast_transforms.cpython-38.pyc
./usr/lib/python3.8/site-packages/pycparser/__pycache__/plyparser.cpython-38.opt-1.pyc
./usr/lib/python3.8/site-packages/pycparser/__pycache__/_build_tables.cpython-38.opt-2.pyc
./usr/lib/python3.8/site-packages/pycparser/__pycache__/_ast_gen.cpython-38.opt-2.pyc
./usr/lib/python3.8/site-packages/pycparser/__pycache__/c_ast.cpython-38.opt-1.pyc
./usr/lib/python3.8/site-packages/pycparser/__pycache__/_build_tables.cpython-38.opt-1.pyc
./usr/lib/python3.8/site-packages/pycparser/__pycache__/__init__.cpython-38.opt-1.pyc
./usr/lib/python3.8/site-packages/pycparser/__pycache__/__init__.cpython-38.pyc
./usr/lib/python3.8/site-packages/pycparser/__pycache__/yacctab.cpython-38.pyc
./usr/lib/python3.8/site-packages/pycparser/__pycache__/c_generator.cpython-38.opt-2.pyc
./usr/lib/python3.8/site-packages/pycparser/__pycache__/c_ast.cpython-38.opt-2.pyc
./usr/lib/python3.8/site-packages/pycparser/__pycache__/c_generator.cpython-38.opt-1.pyc
./usr/lib/python3.8/site-packages/pycparser/__pycache__/__init__.cpython-38.opt-2.pyc
./usr/lib/python3.8/site-packages/pycparser/__pycache__/_ast_gen.cpython-38.pyc
./usr/lib/python3.8/site-packages/pycparser/__pycache__/c_parser.cpython-38.opt-2.pyc
./usr/lib/python3.8/site-packages/pycparser/__pycache__/yacctab.cpython-38.opt-2.pyc
./usr/lib/python3.8/site-packages/pycparser/__pycache__/ast_transforms.cpython-38.opt-2.pyc
./usr/lib/python3.8/site-packages/pycparser/__pycache__/c_lexer.cpython-38.opt-2.pyc
./usr/lib/python3.8/site-packages/pycparser/__pycache__/lextab.cpython-38.pyc
./usr/lib/python3.8/site-packages/pycparser/__pycache__/c_lexer.cpython-38.pyc
./usr/lib/python3.8/site-packages/pycparser/__pycache__/lextab.cpython-38.opt-2.pyc
./usr/lib/python3.8/site-packages/pycparser/__pycache__/lextab.cpython-38.opt-1.pyc
./usr/lib/python3.8/site-packages/pycparser/__pycache__/plyparser.cpython-38.opt-2.pyc
./usr/lib/python3.8/site-packages/pycparser/__pycache__/c_generator.cpython-38.pyc
./usr/lib/python3.8/site-packages/pycparser/__pycache__/plyparser.cpython-38.pyc
./usr/lib/python3.8/site-packages/pycparser/__pycache__/_ast_gen.cpython-38.opt-1.pyc
./usr/lib/python3.8/site-packages/pycparser/__pycache__/c_lexer.cpython-38.opt-1.pyc
./usr/lib/python3.8/site-packages/pycparser/__pycache__/ast_transforms.cpython-38.opt-1.pyc
./usr/lib/python3.8/site-packages/pycparser/__pycache__/c_ast.cpython-38.pyc
./usr/lib/python3.8/site-packages/pycparser/__pycache__/c_parser.cpython-38.opt-1.pyc
./usr/lib/python3.8/site-packages/pycparser/__pycache__/yacctab.cpython-38.opt-1.pyc
./usr/lib/python3.8/site-packages/pycparser/__pycache__/_build_tables.cpython-38.pyc
./usr/lib/python3.8/site-packages/pycparser/__pycache__/c_parser.cpython-38.pyc
./usr/lib/python3.8/site-packages/pycparser/c_lexer.py
./usr/lib/python3.8/site-packages/pycparser/lextab.py
./usr/lib/python3.8/site-packages/pycparser/ply/
./usr/lib/python3.8/site-packages/pycparser/ply/yacc.py
./usr/lib/python3.8/site-packages/pycparser/ply/ygen.py
./usr/lib/python3.8/site-packages/pycparser/ply/cpp.py
./usr/lib/python3.8/site-packages/pycparser/ply/__init__.py
./usr/lib/python3.8/site-packages/pycparser/ply/ctokens.py
./usr/lib/python3.8/site-packages/pycparser/ply/lex.py
./usr/lib/python3.8/site-packages/pycparser/ply/__pycache__/
./usr/lib/python3.8/site-packages/pycparser/ply/__pycache__/ygen.cpython-38.opt-2.pyc
./usr/lib/python3.8/site-packages/pycparser/ply/__pycache__/lex.cpython-38.opt-2.pyc
./usr/lib/python3.8/site-packages/pycparser/ply/__pycache__/__init__.cpython-38.opt-1.pyc
./usr/lib/python3.8/site-packages/pycparser/ply/__pycache__/cpp.cpython-38.opt-2.pyc
./usr/lib/python3.8/site-packages/pycparser/ply/__pycache__/__init__.cpython-38.pyc
./usr/lib/python3.8/site-packages/pycparser/ply/__pycache__/ctokens.cpython-38.pyc
./usr/lib/python3.8/site-packages/pycparser/ply/__pycache__/yacc.cpython-38.opt-1.pyc
./usr/lib/python3.8/site-packages/pycparser/ply/__pycache__/__init__.cpython-38.opt-2.pyc
./usr/lib/python3.8/site-packages/pycparser/ply/__pycache__/ctokens.cpython-38.opt-2.pyc
./usr/lib/python3.8/site-packages/pycparser/ply/__pycache__/yacc.cpython-38.pyc
./usr/lib/python3.8/site-packages/pycparser/ply/__pycache__/ygen.cpython-38.pyc
./usr/lib/python3.8/site-packages/pycparser/ply/__pycache__/cpp.cpython-38.opt-1.pyc
./usr/lib/python3.8/site-packages/pycparser/ply/__pycache__/lex.cpython-38.opt-1.pyc
./usr/lib/python3.8/site-packages/pycparser/ply/__pycache__/yacc.cpython-38.opt-2.pyc
./usr/lib/python3.8/site-packages/pycparser/ply/__pycache__/ctokens.cpython-38.opt-1.pyc
./usr/lib/python3.8/site-packages/pycparser/ply/__pycache__/cpp.cpython-38.pyc
./usr/lib/python3.8/site-packages/pycparser/ply/__pycache__/lex.cpython-38.pyc
./usr/lib/python3.8/site-packages/pycparser/ply/__pycache__/ygen.cpython-38.opt-1.pyc
./usr/lib/python3.8/site-packages/pycparser-2.20-py3.8.egg-info/
./usr/lib/python3.8/site-packages/pycparser-2.20-py3.8.egg-info/top_level.txt
./usr/lib/python3.8/site-packages/pycparser-2.20-py3.8.egg-info/SOURCES.txt
./usr/lib/python3.8/site-packages/pycparser-2.20-py3.8.egg-info/dependency_links.txt
./usr/lib/python3.8/site-packages/pycparser-2.20-py3.8.egg-info/PKG-INFO
./usr/share/
./usr/share/doc/
./usr/share/doc/pycparser-2.20/
./usr/share/doc/pycparser-2.20/README.rst.bz2
./usr/share/doc/pycparser-2.20/README.rst
./usr/share/doc/pycparser-2.20/CHANGES
./usr/share/doc/pycparser-2.20/CHANGES.bz2
>>> Done.
 * checking 73 files for package collisions
>>> Merging dev-python/pycparser-2.20 to /
 * removing unneeded *.la files
--- /usr/
--- /usr/lib/
--- /usr/lib/python3.8/
--- /usr/lib/python3.8/site-packages/
--- /usr/lib/python3.8/site-packages/pycparser-2.20-py3.8.egg-info/
>>> /usr/lib/python3.8/site-packages/pycparser-2.20-py3.8.egg-info/PKG-INFO
>>> /usr/lib/python3.8/site-packages/pycparser-2.20-py3.8.egg-info/dependency_links.txt
>>> /usr/lib/python3.8/site-packages/pycparser-2.20-py3.8.egg-info/SOURCES.txt
>>> /usr/lib/python3.8/site-packages/pycparser-2.20-py3.8.egg-info/top_level.txt
--- /usr/lib/python3.8/site-packages/pycparser/
--- /usr/lib/python3.8/site-packages/pycparser/ply/
--- /usr/lib/python3.8/site-packages/pycparser/ply/__pycache__/
>>> /usr/lib/python3.8/site-packages/pycparser/ply/__pycache__/ygen.cpython-38.opt-1.pyc
>>> /usr/lib/python3.8/site-packages/pycparser/ply/__pycache__/lex.cpython-38.pyc
>>> /usr/lib/python3.8/site-packages/pycparser/ply/__pycache__/cpp.cpython-38.pyc
>>> /usr/lib/python3.8/site-packages/pycparser/ply/__pycache__/ctokens.cpython-38.opt-1.pyc
>>> /usr/lib/python3.8/site-packages/pycparser/ply/__pycache__/yacc.cpython-38.opt-2.pyc
>>> /usr/lib/python3.8/site-packages/pycparser/ply/__pycache__/lex.cpython-38.opt-1.pyc
>>> /usr/lib/python3.8/site-packages/pycparser/ply/__pycache__/cpp.cpython-38.opt-1.pyc
>>> /usr/lib/python3.8/site-packages/pycparser/ply/__pycache__/ygen.cpython-38.pyc
>>> /usr/lib/python3.8/site-packages/pycparser/ply/__pycache__/yacc.cpython-38.pyc
>>> /usr/lib/python3.8/site-packages/pycparser/ply/__pycache__/ctokens.cpython-38.opt-2.pyc
>>> /usr/lib/python3.8/site-packages/pycparser/ply/__pycache__/__init__.cpython-38.opt-2.pyc
>>> /usr/lib/python3.8/site-packages/pycparser/ply/__pycache__/yacc.cpython-38.opt-1.pyc
>>> /usr/lib/python3.8/site-packages/pycparser/ply/__pycache__/ctokens.cpython-38.pyc
>>> /usr/lib/python3.8/site-packages/pycparser/ply/__pycache__/__init__.cpython-38.pyc
>>> /usr/lib/python3.8/site-packages/pycparser/ply/__pycache__/cpp.cpython-38.opt-2.pyc
>>> /usr/lib/python3.8/site-packages/pycparser/ply/__pycache__/__init__.cpython-38.opt-1.pyc
>>> /usr/lib/python3.8/site-packages/pycparser/ply/__pycache__/lex.cpython-38.opt-2.pyc
>>> /usr/lib/python3.8/site-packages/pycparser/ply/__pycache__/ygen.cpython-38.opt-2.pyc
>>> /usr/lib/python3.8/site-packages/pycparser/ply/lex.py
>>> /usr/lib/python3.8/site-packages/pycparser/ply/ctokens.py
>>> /usr/lib/python3.8/site-packages/pycparser/ply/__init__.py
>>> /usr/lib/python3.8/site-packages/pycparser/ply/cpp.py
>>> /usr/lib/python3.8/site-packages/pycparser/ply/ygen.py
>>> /usr/lib/python3.8/site-packages/pycparser/ply/yacc.py
>>> /usr/lib/python3.8/site-packages/pycparser/lextab.py
>>> /usr/lib/python3.8/site-packages/pycparser/c_lexer.py
--- /usr/lib/python3.8/site-packages/pycparser/__pycache__/
>>> /usr/lib/python3.8/site-packages/pycparser/__pycache__/c_parser.cpython-38.pyc
>>> /usr/lib/python3.8/site-packages/pycparser/__pycache__/_build_tables.cpython-38.pyc
>>> /usr/lib/python3.8/site-packages/pycparser/__pycache__/yacctab.cpython-38.opt-1.pyc
>>> /usr/lib/python3.8/site-packages/pycparser/__pycache__/c_parser.cpython-38.opt-1.pyc
>>> /usr/lib/python3.8/site-packages/pycparser/__pycache__/c_ast.cpython-38.pyc
>>> /usr/lib/python3.8/site-packages/pycparser/__pycache__/ast_transforms.cpython-38.opt-1.pyc
>>> /usr/lib/python3.8/site-packages/pycparser/__pycache__/c_lexer.cpython-38.opt-1.pyc
>>> /usr/lib/python3.8/site-packages/pycparser/__pycache__/_ast_gen.cpython-38.opt-1.pyc
>>> /usr/lib/python3.8/site-packages/pycparser/__pycache__/plyparser.cpython-38.pyc
>>> /usr/lib/python3.8/site-packages/pycparser/__pycache__/c_generator.cpython-38.pyc
>>> /usr/lib/python3.8/site-packages/pycparser/__pycache__/plyparser.cpython-38.opt-2.pyc
>>> /usr/lib/python3.8/site-packages/pycparser/__pycache__/lextab.cpython-38.opt-1.pyc
>>> /usr/lib/python3.8/site-packages/pycparser/__pycache__/lextab.cpython-38.opt-2.pyc
>>> /usr/lib/python3.8/site-packages/pycparser/__pycache__/c_lexer.cpython-38.pyc
>>> /usr/lib/python3.8/site-packages/pycparser/__pycache__/lextab.cpython-38.pyc
>>> /usr/lib/python3.8/site-packages/pycparser/__pycache__/c_lexer.cpython-38.opt-2.pyc
>>> /usr/lib/python3.8/site-packages/pycparser/__pycache__/ast_transforms.cpython-38.opt-2.pyc
>>> /usr/lib/python3.8/site-packages/pycparser/__pycache__/yacctab.cpython-38.opt-2.pyc
>>> /usr/lib/python3.8/site-packages/pycparser/__pycache__/c_parser.cpython-38.opt-2.pyc
>>> /usr/lib/python3.8/site-packages/pycparser/__pycache__/_ast_gen.cpython-38.pyc
>>> /usr/lib/python3.8/site-packages/pycparser/__pycache__/__init__.cpython-38.opt-2.pyc
>>> /usr/lib/python3.8/site-packages/pycparser/__pycache__/c_generator.cpython-38.opt-1.pyc
>>> /usr/lib/python3.8/site-packages/pycparser/__pycache__/c_ast.cpython-38.opt-2.pyc
>>> /usr/lib/python3.8/site-packages/pycparser/__pycache__/c_generator.cpython-38.opt-2.pyc
>>> /usr/lib/python3.8/site-packages/pycparser/__pycache__/yacctab.cpython-38.pyc
>>> /usr/lib/python3.8/site-packages/pycparser/__pycache__/__init__.cpython-38.pyc
>>> /usr/lib/python3.8/site-packages/pycparser/__pycache__/__init__.cpython-38.opt-1.pyc
>>> /usr/lib/python3.8/site-packages/pycparser/__pycache__/_build_tables.cpython-38.opt-1.pyc
>>> /usr/lib/python3.8/site-packages/pycparser/__pycache__/c_ast.cpython-38.opt-1.pyc
>>> /usr/lib/python3.8/site-packages/pycparser/__pycache__/_ast_gen.cpython-38.opt-2.pyc
>>> /usr/lib/python3.8/site-packages/pycparser/__pycache__/_build_tables.cpython-38.opt-2.pyc
>>> /usr/lib/python3.8/site-packages/pycparser/__pycache__/plyparser.cpython-38.opt-1.pyc
>>> /usr/lib/python3.8/site-packages/pycparser/__pycache__/ast_transforms.cpython-38.pyc
>>> /usr/lib/python3.8/site-packages/pycparser/yacctab.py
>>> /usr/lib/python3.8/site-packages/pycparser/c_parser.py
>>> /usr/lib/python3.8/site-packages/pycparser/_c_ast.cfg
>>> /usr/lib/python3.8/site-packages/pycparser/ast_transforms.py
>>> /usr/lib/python3.8/site-packages/pycparser/_ast_gen.py
>>> /usr/lib/python3.8/site-packages/pycparser/plyparser.py
>>> /usr/lib/python3.8/site-packages/pycparser/c_ast.py
>>> /usr/lib/python3.8/site-packages/pycparser/_build_tables.py
>>> /usr/lib/python3.8/site-packages/pycparser/__init__.py
>>> /usr/lib/python3.8/site-packages/pycparser/c_generator.py
>>> Safely unmerging already-installed instance...
>>> Original instance of package unmerged safely.
>>> dev-python/pycparser-2.20 merged.
