>>> Extracting info
 * Package:    dev-python/dbus-python-1.2.16
 * Repository: gentoo
 * USE:        amd64 userland_GNU abi_x86_64 elibc_glibc kernel_linux python_targets_python3_8
 * FEATURES:   ccache preserve-libs userpriv
 * /etc/portage/package.cflags/ltoworkarounds.conf -> dev-python/dbus-python: *FLAGS-="${NOCOMMON}"
 * FEATURES='userpriv ccache distlocks strict fixlafiles nodoc buildpkg config-protect-if-modified xattr strict-keepdir preserve-libs cgroup compress-index qa-unresolved-soname-deps merge-sync binpkg-dostrip multilib-strict news unmerge-orphans assume-digests parallel-fetch sfperms binpkg-logs unmerge-logs ebuild-locks userfetch unknown-features-warn usersync binpkg-docompress'
 * CFLAGS='-O2 -pipe -Wl,-O1,--sort-common,--as-needed,-z,norelro,-z,now'
 * CXXFLAGS='-O2 -pipe -Wl,-O1,--sort-common,--as-needed,-z,norelro,-z,now'
 * FFLAGS='-O2 -pipe -Wl,-O1,--sort-common,--as-needed,-z,norelro,-z,now'
 * FCFLAGS='-O2 -pipe -Wl,-O1,--sort-common,--as-needed,-z,norelro,-z,now'
 * F77FLAGS='-O2 -pipe -Wl,-O1,--sort-common,--as-needed,-z,norelro,-z,now'
 * LDFLAGS='-Wl,-O1,--sort-common,--as-needed,-z,norelro,-z,now'
 * MAKEOPTS='-j12 -l12'
 * gcc (Gentoo 11.0.0_pre9999 p1, commit 184c21bf1cd04a108ed9bd04635e7d57ac39f616) 11.0.0 20200611 (experimental)
 * g++ (Gentoo 11.0.0_pre9999 p1, commit 184c21bf1cd04a108ed9bd04635e7d57ac39f616) 11.0.0 20200611 (experimental)
 * GNU ld (Gentoo 2.34 p4) 2.34.0
 * Linux rescue 5.4.36 #1 SMP Thu Apr 30 04:38:28 UTC 2020 x86_64 AMD Ryzen 5 3600 6-Core Processor AuthenticAMD GNU/Linux
dev-python/dbus-python: 44 seconds average for 11 merges
2020-05-20T08:28:54 >>> dev-python/dbus-python: 1 minute, 8 seconds
2020-05-21T12:49:35 >>> dev-python/dbus-python: 6 seconds
2020-05-25T15:18:43 >>> dev-python/dbus-python: 54 seconds
2020-05-26T04:32:10 >>> dev-python/dbus-python: 53 seconds
2020-05-26T14:36:48 >>> dev-python/dbus-python: 6 seconds
2020-05-27T02:13:09 >>> dev-python/dbus-python: 6 seconds
2020-05-28T05:22:06 >>> dev-python/dbus-python: 56 seconds
2020-05-31T00:22:05 >>> dev-python/dbus-python: 1 minute, 42 seconds
2020-06-01T07:38:41 >>> dev-python/dbus-python: 59 seconds
2020-06-06T01:46:51 >>> dev-python/dbus-python: 1 minute, 13 seconds
2020-06-12T02:03:11 >>> dev-python/dbus-python: 6 seconds
]0;emerge 20:42:02 587|882 dbus-python 00:46 (root@rescue)>>> Extracting dev-python/dbus-python-1.2.16
 * checking 72 files for package collisions
>>> Merging dev-python/dbus-python-1.2.16 to /
 * removing unneeded *.la files
--- /usr/
--- /usr/lib64/
--- /usr/lib64/pkgconfig/
>>> /usr/lib64/pkgconfig/dbus-python.pc
--- /usr/include/
--- /usr/include/dbus-1.0/
--- /usr/include/dbus-1.0/dbus/
>>> /usr/include/dbus-1.0/dbus/dbus-python.h
--- /usr/lib/
--- /usr/lib/python3.8/
--- /usr/lib/python3.8/site-packages/
--- /usr/lib/python3.8/site-packages/dbus/
>>> /usr/lib/python3.8/site-packages/dbus/bus.py
>>> /usr/lib/python3.8/site-packages/dbus/exceptions.py
--- /usr/lib/python3.8/site-packages/dbus/mainloop/
>>> /usr/lib/python3.8/site-packages/dbus/mainloop/glib.py
--- /usr/lib/python3.8/site-packages/dbus/mainloop/__pycache__/
>>> /usr/lib/python3.8/site-packages/dbus/mainloop/__pycache__/glib.cpython-38.opt-2.pyc
>>> /usr/lib/python3.8/site-packages/dbus/mainloop/__pycache__/glib.cpython-38.opt-1.pyc
>>> /usr/lib/python3.8/site-packages/dbus/mainloop/__pycache__/__init__.cpython-38.opt-2.pyc
>>> /usr/lib/python3.8/site-packages/dbus/mainloop/__pycache__/glib.cpython-38.pyc
>>> /usr/lib/python3.8/site-packages/dbus/mainloop/__pycache__/__init__.cpython-38.pyc
>>> /usr/lib/python3.8/site-packages/dbus/mainloop/__pycache__/__init__.cpython-38.opt-1.pyc
>>> /usr/lib/python3.8/site-packages/dbus/mainloop/__init__.py
>>> /usr/lib/python3.8/site-packages/dbus/_dbus.py
>>> /usr/lib/python3.8/site-packages/dbus/glib.py
--- /usr/lib/python3.8/site-packages/dbus/__pycache__/
>>> /usr/lib/python3.8/site-packages/dbus/__pycache__/bus.cpython-38.opt-1.pyc
>>> /usr/lib/python3.8/site-packages/dbus/__pycache__/_compat.cpython-38.opt-1.pyc
>>> /usr/lib/python3.8/site-packages/dbus/__pycache__/connection.cpython-38.opt-1.pyc
>>> /usr/lib/python3.8/site-packages/dbus/__pycache__/connection.cpython-38.pyc
>>> /usr/lib/python3.8/site-packages/dbus/__pycache__/service.cpython-38.opt-1.pyc
>>> /usr/lib/python3.8/site-packages/dbus/__pycache__/glib.cpython-38.opt-2.pyc
>>> /usr/lib/python3.8/site-packages/dbus/__pycache__/_expat_introspect_parser.cpython-38.opt-1.pyc
>>> /usr/lib/python3.8/site-packages/dbus/__pycache__/_compat.cpython-38.opt-2.pyc
>>> /usr/lib/python3.8/site-packages/dbus/__pycache__/decorators.cpython-38.opt-1.pyc
>>> /usr/lib/python3.8/site-packages/dbus/__pycache__/connection.cpython-38.opt-2.pyc
>>> /usr/lib/python3.8/site-packages/dbus/__pycache__/server.cpython-38.opt-1.pyc
>>> /usr/lib/python3.8/site-packages/dbus/__pycache__/lowlevel.cpython-38.opt-1.pyc
>>> /usr/lib/python3.8/site-packages/dbus/__pycache__/types.cpython-38.opt-2.pyc
>>> /usr/lib/python3.8/site-packages/dbus/__pycache__/proxies.cpython-38.opt-2.pyc
>>> /usr/lib/python3.8/site-packages/dbus/__pycache__/decorators.cpython-38.pyc
>>> /usr/lib/python3.8/site-packages/dbus/__pycache__/service.cpython-38.pyc
>>> /usr/lib/python3.8/site-packages/dbus/__pycache__/exceptions.cpython-38.opt-1.pyc
>>> /usr/lib/python3.8/site-packages/dbus/__pycache__/glib.cpython-38.opt-1.pyc
>>> /usr/lib/python3.8/site-packages/dbus/__pycache__/_dbus.cpython-38.opt-1.pyc
>>> /usr/lib/python3.8/site-packages/dbus/__pycache__/_dbus.cpython-38.opt-2.pyc
>>> /usr/lib/python3.8/site-packages/dbus/__pycache__/_expat_introspect_parser.cpython-38.opt-2.pyc
>>> /usr/lib/python3.8/site-packages/dbus/__pycache__/decorators.cpython-38.opt-2.pyc
>>> /usr/lib/python3.8/site-packages/dbus/__pycache__/_compat.cpython-38.pyc
>>> /usr/lib/python3.8/site-packages/dbus/__pycache__/__init__.cpython-38.opt-2.pyc
>>> /usr/lib/python3.8/site-packages/dbus/__pycache__/server.cpython-38.pyc
>>> /usr/lib/python3.8/site-packages/dbus/__pycache__/_expat_introspect_parser.cpython-38.pyc
>>> /usr/lib/python3.8/site-packages/dbus/__pycache__/types.cpython-38.opt-1.pyc
>>> /usr/lib/python3.8/site-packages/dbus/__pycache__/bus.cpython-38.pyc
>>> /usr/lib/python3.8/site-packages/dbus/__pycache__/glib.cpython-38.pyc
>>> /usr/lib/python3.8/site-packages/dbus/__pycache__/proxies.cpython-38.opt-1.pyc
>>> /usr/lib/python3.8/site-packages/dbus/__pycache__/__init__.cpython-38.pyc
>>> /usr/lib/python3.8/site-packages/dbus/__pycache__/__init__.cpython-38.opt-1.pyc
>>> /usr/lib/python3.8/site-packages/dbus/__pycache__/service.cpython-38.opt-2.pyc
>>> /usr/lib/python3.8/site-packages/dbus/__pycache__/exceptions.cpython-38.pyc
>>> /usr/lib/python3.8/site-packages/dbus/__pycache__/bus.cpython-38.opt-2.pyc
>>> /usr/lib/python3.8/site-packages/dbus/__pycache__/gi_service.cpython-38.opt-2.pyc
>>> /usr/lib/python3.8/site-packages/dbus/__pycache__/types.cpython-38.pyc
>>> /usr/lib/python3.8/site-packages/dbus/__pycache__/server.cpython-38.opt-2.pyc
>>> /usr/lib/python3.8/site-packages/dbus/__pycache__/lowlevel.cpython-38.opt-2.pyc
>>> /usr/lib/python3.8/site-packages/dbus/__pycache__/gi_service.cpython-38.opt-1.pyc
>>> /usr/lib/python3.8/site-packages/dbus/__pycache__/_dbus.cpython-38.pyc
>>> /usr/lib/python3.8/site-packages/dbus/__pycache__/proxies.cpython-38.pyc
>>> /usr/lib/python3.8/site-packages/dbus/__pycache__/gi_service.cpython-38.pyc
>>> /usr/lib/python3.8/site-packages/dbus/__pycache__/lowlevel.cpython-38.pyc
>>> /usr/lib/python3.8/site-packages/dbus/__pycache__/exceptions.cpython-38.opt-2.pyc
>>> /usr/lib/python3.8/site-packages/dbus/_expat_introspect_parser.py
>>> /usr/lib/python3.8/site-packages/dbus/decorators.py
>>> /usr/lib/python3.8/site-packages/dbus/connection.py
>>> /usr/lib/python3.8/site-packages/dbus/lowlevel.py
>>> /usr/lib/python3.8/site-packages/dbus/__init__.py
>>> /usr/lib/python3.8/site-packages/dbus/gi_service.py
>>> /usr/lib/python3.8/site-packages/dbus/proxies.py
>>> /usr/lib/python3.8/site-packages/dbus/server.py
>>> /usr/lib/python3.8/site-packages/dbus/service.py
>>> /usr/lib/python3.8/site-packages/dbus/types.py
>>> /usr/lib/python3.8/site-packages/dbus/_compat.py
>>> /usr/lib/python3.8/site-packages/_dbus_bindings.so
>>> /usr/lib/python3.8/site-packages/_dbus_glib_bindings.so
>>> Safely unmerging already-installed instance...
>>> Original instance of package unmerged safely.
>>> dev-python/dbus-python-1.2.16 merged.
