>>> Extracting info
 * Package:    dev-lang/python-exec-2.4.6-r1
 * Repository: gentoo
 * USE:        abi_x86_64 python_targets_pypy3 python_targets_python2_7 python_targets_python3_8 userland_GNU amd64 python_targets_python3_7 kernel_linux python_targets_python3_9 elibc_glibc python_targets_python3_6
 * FEATURES:   network-sandbox preserve-libs sandbox userpriv usersandbox
 * FEATURES='assume-digests binpkg-docompress binpkg-dostrip binpkg-logs binpkg-multi-instance buildpkg cgroup compress-index config-protect-if-modified distlocks downgrade-backup fixlafiles ipc-sandbox merge-sync multilib-strict network-sandbox news nodoc parallel-fetch parallel-install pid-sandbox preserve-libs qa-unresolved-soname-deps sandbox sfperms strict strict-keepdir unknown-features-warn unmerge-backup unmerge-logs unmerge-orphans userfetch userpriv usersandbox usersync xattr'
 * CFLAGS='-march=native -O3 -fgraphite-identity -floop-nest-optimize -fdevirtualize-at-ltrans -fipa-pta -fno-semantic-interposition -flto=12 -fno-plt -fno-math-errno -fno-trapping-math -fuse-linker-plugin -pipe -g0 -falign-functions=32 -Wl,-O1 -Wl,--as-needed -Wl,--hash-style=gnu,-z,norelro,--as-needed'
 * CXXFLAGS='-march=native -O3 -fgraphite-identity -floop-nest-optimize -fdevirtualize-at-ltrans -fipa-pta -fno-semantic-interposition -flto=12 -fno-plt -fno-math-errno -fno-trapping-math -fuse-linker-plugin -pipe -g0 -falign-functions=32 -Wl,-O1 -Wl,--as-needed -Wl,--hash-style=gnu,-z,norelro,--as-needed'
 * FFLAGS='-march=native -O3 -fgraphite-identity -floop-nest-optimize -fdevirtualize-at-ltrans -fipa-pta -fno-semantic-interposition -flto=12 -fno-plt -fno-math-errno -fno-trapping-math -fuse-linker-plugin -pipe -g0 -falign-functions=32 -Wl,-O1 -Wl,--as-needed -Wl,--hash-style=gnu,-z,norelro,--as-needed'
 * FCFLAGS='-march=native -O3 -fgraphite-identity -floop-nest-optimize -fdevirtualize-at-ltrans -fipa-pta -fno-semantic-interposition -flto=12 -fno-plt -fno-math-errno -fno-trapping-math -fuse-linker-plugin -pipe -g0 -falign-functions=32 -Wl,-O1 -Wl,--as-needed -Wl,--hash-style=gnu,-z,norelro,--as-needed'
 * F77FLAGS='-march=native -O3 -fgraphite-identity -floop-nest-optimize -fdevirtualize-at-ltrans -fipa-pta -fno-semantic-interposition -flto=12 -fno-plt -fno-math-errno -fno-trapping-math -fuse-linker-plugin -pipe -g0 -falign-functions=32 -Wl,-O1 -Wl,--as-needed -Wl,--hash-style=gnu,-z,norelro,--as-needed'
 * LDFLAGS='-Wl,-O1 -Wl,--as-needed -Wl,--hash-style=gnu,-z,norelro,--as-needed -march=native -O3 -fgraphite-identity -floop-nest-optimize -fdevirtualize-at-ltrans -fipa-pta -fno-semantic-interposition -flto=12 -fno-plt -fno-math-errno -fno-trapping-math -fuse-linker-plugin -pipe -g0 -falign-functions=32'
 * MAKEOPTS='-j12 -l12'
 * gcc () 11.0.0 20200526 (experimental)
 * g++ () 11.0.0 20200526 (experimental)
 * GNU ld (Gentoo 2.34 p4) 2.34.0
 * Linux ryzen.gnum.org 5.4.36 #1 SMP Thu Apr 30 04:38:28 UTC 2020 x86_64 AMD Ryzen 5 3600 6-Core Processor AuthenticAMD GNU/Linux
dev-lang/python-exec: 3 minutes, 14 seconds average for 19 merges
2020-05-16T20:32:15 >>> dev-lang/python-exec: 12 seconds
2020-05-17T00:19:39 >>> dev-lang/python-exec: 11 seconds
2020-05-20T00:55:53 >>> dev-lang/python-exec: 1 minute, 20 seconds
2020-05-21T05:45:35 >>> dev-lang/python-exec: 6 seconds
2020-05-22T01:52:47 >>> dev-lang/python-exec: 6 minutes, 5 seconds
2020-05-22T02:39:04 >>> dev-lang/python-exec: 2 minutes, 32 seconds
2020-05-22T02:58:41 >>> dev-lang/python-exec: 2 minutes, 16 seconds
2020-05-22T03:03:53 >>> dev-lang/python-exec: 6 minutes, 47 seconds
2020-05-22T12:23:36 >>> dev-lang/python-exec: 6 minutes, 33 seconds
2020-05-23T03:25:17 >>> dev-lang/python-exec: 6 minutes, 32 seconds
2020-05-24T23:19:24 >>> dev-lang/python-exec: 9 minutes, 10 seconds
2020-05-25T03:01:15 >>> dev-lang/python-exec: 57 seconds
2020-05-25T17:56:03 >>> dev-lang/python-exec: 14 seconds
2020-05-25T18:11:13 >>> dev-lang/python-exec: 7 minutes, 22 seconds
2020-05-25T19:48:37 >>> dev-lang/python-exec: 4 minutes, 27 seconds
2020-05-26T12:30:08 >>> dev-lang/python-exec: 4 minutes, 11 seconds
2020-05-26T13:18:49 >>> dev-lang/python-exec: 27 seconds
2020-05-26T13:40:42 >>> dev-lang/python-exec: 22 seconds
2020-05-26T13:45:51 >>> dev-lang/python-exec: 2 minutes
]0;emerge 01:23:49 6|647 python-exec 00:56 (root@ryzen.gnum.org)kemerge 01:23:49 6|647 python-exec 00:56 (root@ryzen.gnum.org)\>>> Extracting dev-lang/python-exec-2.4.6-r1
 * checking 13 files for package collisions
[32;01m * [39;49;00mBuilding package for dev-lang/python-exec-2.4.6-r1 ...                [34;01m[ [39;49;00m[32;01mok[39;49;00m[34;01m ][39;49;00m
[33;01m * [39;49;00mExcluded config: '/etc/python-exec/python-exec.conf'
[32;01m * [39;49;00mPackages now in '/usr/portage/packages':
[32;01m * [39;49;00mdev-lang/python-exec-2.4.6-r1: 41.5K
[33;01m * [39;49;00mExcluded config files: 1
[33;01m * [39;49;00mSee --help if you would like to include config files.


>>> Merging dev-lang/python-exec-2.4.6-r1 to /
 * removing unneeded *.la files
--- /etc/
--- /etc/python-exec/
>>> /etc/python-exec/python-exec.conf
--- /usr/
--- /usr/bin/
>>> /usr/bin/python3 -> python-exec2c
>>> /usr/bin/2to3 -> ../lib/python-exec/python-exec2
>>> /usr/bin/python -> python-exec2c
>>> /usr/bin/python3-config -> ../lib/python-exec/python-exec2
>>> /usr/bin/python2-config -> ../lib/python-exec/python-exec2
>>> /usr/bin/pyvenv -> ../lib/python-exec/python-exec2
>>> /usr/bin/python2 -> python-exec2c
>>> /usr/bin/python-exec2c
>>> /usr/bin/idle -> ../lib/python-exec/python-exec2
>>> /usr/bin/pydoc -> ../lib/python-exec/python-exec2
>>> /usr/bin/python-config -> ../lib/python-exec/python-exec2
--- /usr/lib/
--- /usr/lib/python-exec/
>>> /usr/lib/python-exec/python-exec2
>>> Safely unmerging already-installed instance...
>>> Original instance of package unmerged safely.
>>> dev-lang/python-exec-2.4.6-r1 merged.
