 * Package:    dev-java/java-config-2.2.0-r4
 * Repository: gentoo
 * Maintainer: java@gentoo.org
 * USE:        abi_x86_64 amd64 elibc_glibc kernel_linux python_targets_python3_6 python_targets_python3_7 python_targets_python3_8 test userland_GNU
 * FEATURES:   ccache network-sandbox preserve-libs sandbox userpriv usersandbox
 * /etc/portage/package.cflags/ltoworkarounds.conf -> */*: *FLAGS+=-Wl,-O4 *FLAGS-=-Wl,-O1
 * FEATURES='assume-digests binpkg-docompress binpkg-dostrip binpkg-logs binpkg-multi-instance buildpkg ccache cgroup compress-index config-protect-if-modified distlocks fixlafiles ipc-sandbox merge-sync multilib-strict network-sandbox news nodoc parallel-fetch parallel-install pid-sandbox preserve-libs qa-unresolved-soname-deps sandbox sfperms strict strict-keepdir unknown-features-warn unmerge-logs unmerge-orphans userfetch userpriv usersandbox usersync xattr'
 * CFLAGS='-march=znver2 -pipe -g0 -O3 -fgraphite-identity -floop-nest-optimize -fdevirtualize-at-ltrans -fipa-pta -fno-semantic-interposition -flto=12 -fno-plt -fno-signed-zeros -fno-trapping-math -fassociative-math -freciprocal-math -fno-math-errno -ffinite-math-only -fno-rounding-math -fno-signaling-nans -fcx-limited-range -fexcess-precision=fast -falign-functions=32 -fno-stack-protector -fno-stack-clash-protection -fstack-check=no -fno-stack-check -fuse-linker-plugin -Wl,-O4 -Wl,--as-needed -Wl,-lpthread -Wl,-lgomp -Wl,-z,norelro -Wl,-z,now -Wl,--sort-common -s'
 * CXXFLAGS='-march=znver2 -pipe -g0 -O3 -fgraphite-identity -floop-nest-optimize -fdevirtualize-at-ltrans -fipa-pta -fno-semantic-interposition -flto=12 -fno-plt -fno-signed-zeros -fno-trapping-math -fassociative-math -freciprocal-math -fno-math-errno -ffinite-math-only -fno-rounding-math -fno-signaling-nans -fcx-limited-range -fexcess-precision=fast -falign-functions=32 -fno-stack-protector -fno-stack-clash-protection -fstack-check=no -fno-stack-check -fuse-linker-plugin -Wl,-O4 -Wl,--as-needed -Wl,-lpthread -Wl,-lgomp -Wl,-z,norelro -Wl,-z,now -Wl,--sort-common -s'
 * FFLAGS='-march=znver2 -pipe -g0 -O3 -fgraphite-identity -floop-nest-optimize -fdevirtualize-at-ltrans -fipa-pta -fno-semantic-interposition -flto=12 -fno-plt -fno-signed-zeros -fno-trapping-math -fassociative-math -freciprocal-math -fno-math-errno -ffinite-math-only -fno-rounding-math -fno-signaling-nans -fcx-limited-range -fexcess-precision=fast -falign-functions=32 -fno-stack-protector -fno-stack-clash-protection -fstack-check=no -fno-stack-check -fuse-linker-plugin -Wl,-O4 -Wl,--as-needed -Wl,-lpthread -Wl,-lgomp -Wl,-z,norelro -Wl,-z,now -Wl,--sort-common -s'
 * FCFLAGS='-march=znver2 -pipe -g0 -O3 -fgraphite-identity -floop-nest-optimize -fdevirtualize-at-ltrans -fipa-pta -fno-semantic-interposition -flto=12 -fno-plt -fno-signed-zeros -fno-trapping-math -fassociative-math -freciprocal-math -fno-math-errno -ffinite-math-only -fno-rounding-math -fno-signaling-nans -fcx-limited-range -fexcess-precision=fast -falign-functions=32 -fno-stack-protector -fno-stack-clash-protection -fstack-check=no -fno-stack-check -fuse-linker-plugin -Wl,-O4 -Wl,--as-needed -Wl,-lpthread -Wl,-lgomp -Wl,-z,norelro -Wl,-z,now -Wl,--sort-common -s'
 * F77FLAGS='-march=znver2 -pipe -g0 -O3 -fgraphite-identity -floop-nest-optimize -fdevirtualize-at-ltrans -fipa-pta -fno-semantic-interposition -flto=12 -fno-plt -fno-signed-zeros -fno-trapping-math -fassociative-math -freciprocal-math -fno-math-errno -ffinite-math-only -fno-rounding-math -fno-signaling-nans -fcx-limited-range -fexcess-precision=fast -falign-functions=32 -fno-stack-protector -fno-stack-clash-protection -fstack-check=no -fno-stack-check -fuse-linker-plugin -Wl,-O4 -Wl,--as-needed -Wl,-lpthread -Wl,-lgomp -Wl,-z,norelro -Wl,-z,now -Wl,--sort-common -s'
 * LDFLAGS='-march=znver2 -pipe -g0 -O3 -fgraphite-identity -floop-nest-optimize -fdevirtualize-at-ltrans -fipa-pta -fno-semantic-interposition -flto=12 -fno-plt -fno-signed-zeros -fno-trapping-math -fassociative-math -freciprocal-math -fno-math-errno -ffinite-math-only -fno-rounding-math -fno-signaling-nans -fcx-limited-range -fexcess-precision=fast -falign-functions=32 -fno-stack-protector -fno-stack-clash-protection -fstack-check=no -fno-stack-check -fuse-linker-plugin -Wl,-O4 -Wl,--as-needed -Wl,-lpthread -Wl,-lgomp -Wl,-z,norelro -Wl,-z,now -Wl,--sort-common -s'
 * MAKEOPTS='-j12 -l12'
 * gcc () 11.0.0 20200605 (experimental)
 * g++ () 11.0.0 20200605 (experimental)
 * GNU ld (Gentoo 2.34 p4) 2.34.0
 * Linux ryzen.gnum.org 5.4.36 #1 SMP Thu Apr 30 04:38:28 UTC 2020 x86_64 AMD Ryzen 5 3600 6-Core Processor AuthenticAMD GNU/Linux
dev-java/java-config: 12 seconds average for 11 merges
2020-05-16T16:03:08 >>> dev-java/java-config: 9 seconds
2020-05-20T09:20:21 >>> dev-java/java-config: 17 seconds
2020-05-23T20:47:48 >>> dev-java/java-config: 12 seconds
2020-05-25T14:48:33 >>> dev-java/java-config: 6 seconds
2020-05-25T19:08:12 >>> dev-java/java-config: 13 seconds
2020-05-27T04:32:57 >>> dev-java/java-config: 13 seconds
2020-05-28T04:37:40 >>> dev-java/java-config: 16 seconds
2020-05-29T04:16:42 >>> dev-java/java-config: 9 seconds
2020-05-29T12:27:13 >>> dev-java/java-config: 17 seconds
2020-05-30T13:06:20 >>> dev-java/java-config: 16 seconds
2020-06-01T02:19:22 >>> dev-java/java-config: 14 seconds
]0;emerge 01:01:28 99|231 java-config 00:16 (root@ryzen.gnum.org)kemerge 01:01:28 99|231 java-config 00:16 (root@ryzen.gnum.org)\>>> Unpacking source...
>>> Unpacking java-config-2.2.0.tar.bz2 to /tmp/portage/dev-java/java-config-2.2.0-r4/work
>>> Source unpacked in /tmp/portage/dev-java/java-config-2.2.0-r4/work
>>> Preparing source in /tmp/portage/dev-java/java-config-2.2.0-r4/work/java-config-2.2.0 ...
 * Applying java-config-2.2.0-prefix.patch ...
 [ ok ]
 * Applying java-config-2.2.0-py38.patch ...
 [ ok ]
>>> Source prepared.
>>> Configuring source in /tmp/portage/dev-java/java-config-2.2.0-r4/work/java-config-2.2.0 ...
>>> Source configured.
>>> Compiling source in /tmp/portage/dev-java/java-config-2.2.0-r4/work/java-config-2.2.0 ...
 * python3_6: running distutils-r1_run_phase distutils-r1_python_compile
python3.6 setup.py build
running build
running build_py
creating /tmp/portage/dev-java/java-config-2.2.0-r4/work/java-config-2.2.0-python3_6/lib/java_config_2
copying src/java_config_2/OutputFormatter.py -> /tmp/portage/dev-java/java-config-2.2.0-r4/work/java-config-2.2.0-python3_6/lib/java_config_2
copying src/java_config_2/Package.py -> /tmp/portage/dev-java/java-config-2.2.0-r4/work/java-config-2.2.0-python3_6/lib/java_config_2
copying src/java_config_2/__init__.py -> /tmp/portage/dev-java/java-config-2.2.0-r4/work/java-config-2.2.0-python3_6/lib/java_config_2
copying src/java_config_2/VersionManager.py -> /tmp/portage/dev-java/java-config-2.2.0-r4/work/java-config-2.2.0-python3_6/lib/java_config_2
copying src/java_config_2/Virtual.py -> /tmp/portage/dev-java/java-config-2.2.0-r4/work/java-config-2.2.0-python3_6/lib/java_config_2
copying src/java_config_2/FileParser.py -> /tmp/portage/dev-java/java-config-2.2.0-r4/work/java-config-2.2.0-python3_6/lib/java_config_2
copying src/java_config_2/EnvironmentManager.py -> /tmp/portage/dev-java/java-config-2.2.0-r4/work/java-config-2.2.0-python3_6/lib/java_config_2
copying src/java_config_2/VM.py -> /tmp/portage/dev-java/java-config-2.2.0-r4/work/java-config-2.2.0-python3_6/lib/java_config_2
copying src/java_config_2/Errors.py -> /tmp/portage/dev-java/java-config-2.2.0-r4/work/java-config-2.2.0-python3_6/lib/java_config_2
warning: build_py: byte-compiling is disabled, skipping.

running build_scripts
creating /tmp/portage/dev-java/java-config-2.2.0-r4/work/java-config-2.2.0-python3_6/scripts
copying and adjusting src/java-config-2 -> /tmp/portage/dev-java/java-config-2.2.0-r4/work/java-config-2.2.0-python3_6/scripts
copying and adjusting src/depend-java-query -> /tmp/portage/dev-java/java-config-2.2.0-r4/work/java-config-2.2.0-python3_6/scripts
copying and adjusting src/gjl -> /tmp/portage/dev-java/java-config-2.2.0-r4/work/java-config-2.2.0-python3_6/scripts
changing mode of /tmp/portage/dev-java/java-config-2.2.0-r4/work/java-config-2.2.0-python3_6/scripts/java-config-2 from 644 to 755
changing mode of /tmp/portage/dev-java/java-config-2.2.0-r4/work/java-config-2.2.0-python3_6/scripts/depend-java-query from 644 to 755
changing mode of /tmp/portage/dev-java/java-config-2.2.0-r4/work/java-config-2.2.0-python3_6/scripts/gjl from 644 to 755
 * python3_7: running distutils-r1_run_phase distutils-r1_python_compile
python3.7 setup.py build -j 12
running build
running build_py
creating /tmp/portage/dev-java/java-config-2.2.0-r4/work/java-config-2.2.0-python3_7/lib/java_config_2
copying src/java_config_2/OutputFormatter.py -> /tmp/portage/dev-java/java-config-2.2.0-r4/work/java-config-2.2.0-python3_7/lib/java_config_2
copying src/java_config_2/Package.py -> /tmp/portage/dev-java/java-config-2.2.0-r4/work/java-config-2.2.0-python3_7/lib/java_config_2
copying src/java_config_2/__init__.py -> /tmp/portage/dev-java/java-config-2.2.0-r4/work/java-config-2.2.0-python3_7/lib/java_config_2
copying src/java_config_2/VersionManager.py -> /tmp/portage/dev-java/java-config-2.2.0-r4/work/java-config-2.2.0-python3_7/lib/java_config_2
copying src/java_config_2/Virtual.py -> /tmp/portage/dev-java/java-config-2.2.0-r4/work/java-config-2.2.0-python3_7/lib/java_config_2
copying src/java_config_2/FileParser.py -> /tmp/portage/dev-java/java-config-2.2.0-r4/work/java-config-2.2.0-python3_7/lib/java_config_2
copying src/java_config_2/EnvironmentManager.py -> /tmp/portage/dev-java/java-config-2.2.0-r4/work/java-config-2.2.0-python3_7/lib/java_config_2
copying src/java_config_2/VM.py -> /tmp/portage/dev-java/java-config-2.2.0-r4/work/java-config-2.2.0-python3_7/lib/java_config_2
copying src/java_config_2/Errors.py -> /tmp/portage/dev-java/java-config-2.2.0-r4/work/java-config-2.2.0-python3_7/lib/java_config_2
warning: build_py: byte-compiling is disabled, skipping.

running build_scripts
creating /tmp/portage/dev-java/java-config-2.2.0-r4/work/java-config-2.2.0-python3_7/scripts
copying and adjusting src/java-config-2 -> /tmp/portage/dev-java/java-config-2.2.0-r4/work/java-config-2.2.0-python3_7/scripts
copying and adjusting src/depend-java-query -> /tmp/portage/dev-java/java-config-2.2.0-r4/work/java-config-2.2.0-python3_7/scripts
copying and adjusting src/gjl -> /tmp/portage/dev-java/java-config-2.2.0-r4/work/java-config-2.2.0-python3_7/scripts
changing mode of /tmp/portage/dev-java/java-config-2.2.0-r4/work/java-config-2.2.0-python3_7/scripts/java-config-2 from 644 to 755
changing mode of /tmp/portage/dev-java/java-config-2.2.0-r4/work/java-config-2.2.0-python3_7/scripts/depend-java-query from 644 to 755
changing mode of /tmp/portage/dev-java/java-config-2.2.0-r4/work/java-config-2.2.0-python3_7/scripts/gjl from 644 to 755
 * python3_8: running distutils-r1_run_phase distutils-r1_python_compile
python3.8 setup.py build -j 12
running build
running build_py
creating /tmp/portage/dev-java/java-config-2.2.0-r4/work/java-config-2.2.0-python3_8/lib/java_config_2
copying src/java_config_2/OutputFormatter.py -> /tmp/portage/dev-java/java-config-2.2.0-r4/work/java-config-2.2.0-python3_8/lib/java_config_2
copying src/java_config_2/Package.py -> /tmp/portage/dev-java/java-config-2.2.0-r4/work/java-config-2.2.0-python3_8/lib/java_config_2
copying src/java_config_2/__init__.py -> /tmp/portage/dev-java/java-config-2.2.0-r4/work/java-config-2.2.0-python3_8/lib/java_config_2
copying src/java_config_2/VersionManager.py -> /tmp/portage/dev-java/java-config-2.2.0-r4/work/java-config-2.2.0-python3_8/lib/java_config_2
copying src/java_config_2/Virtual.py -> /tmp/portage/dev-java/java-config-2.2.0-r4/work/java-config-2.2.0-python3_8/lib/java_config_2
copying src/java_config_2/FileParser.py -> /tmp/portage/dev-java/java-config-2.2.0-r4/work/java-config-2.2.0-python3_8/lib/java_config_2
copying src/java_config_2/EnvironmentManager.py -> /tmp/portage/dev-java/java-config-2.2.0-r4/work/java-config-2.2.0-python3_8/lib/java_config_2
copying src/java_config_2/VM.py -> /tmp/portage/dev-java/java-config-2.2.0-r4/work/java-config-2.2.0-python3_8/lib/java_config_2
copying src/java_config_2/Errors.py -> /tmp/portage/dev-java/java-config-2.2.0-r4/work/java-config-2.2.0-python3_8/lib/java_config_2
warning: build_py: byte-compiling is disabled, skipping.

running build_scripts
creating /tmp/portage/dev-java/java-config-2.2.0-r4/work/java-config-2.2.0-python3_8/scripts
copying and adjusting src/java-config-2 -> /tmp/portage/dev-java/java-config-2.2.0-r4/work/java-config-2.2.0-python3_8/scripts
copying and adjusting src/depend-java-query -> /tmp/portage/dev-java/java-config-2.2.0-r4/work/java-config-2.2.0-python3_8/scripts
copying and adjusting src/gjl -> /tmp/portage/dev-java/java-config-2.2.0-r4/work/java-config-2.2.0-python3_8/scripts
changing mode of /tmp/portage/dev-java/java-config-2.2.0-r4/work/java-config-2.2.0-python3_8/scripts/java-config-2 from 644 to 755
changing mode of /tmp/portage/dev-java/java-config-2.2.0-r4/work/java-config-2.2.0-python3_8/scripts/depend-java-query from 644 to 755
changing mode of /tmp/portage/dev-java/java-config-2.2.0-r4/work/java-config-2.2.0-python3_8/scripts/gjl from 644 to 755
>>> Source compiled.
>>> Test phase [not enabled]: dev-java/java-config-2.2.0-r4

>>> Install dev-java/java-config-2.2.0-r4 into /tmp/portage/dev-java/java-config-2.2.0-r4/image/
 * python3_6: running distutils-r1_run_phase distutils-r1_python_install
python3.6 setup.py install --skip-build --root=/tmp/portage/dev-java/java-config-2.2.0-r4/image/_python3.6
running install
running install_lib
creating /tmp/portage/dev-java/java-config-2.2.0-r4/image/_python3.6
creating /tmp/portage/dev-java/java-config-2.2.0-r4/image/_python3.6/usr
creating /tmp/portage/dev-java/java-config-2.2.0-r4/image/_python3.6/usr/lib64
creating /tmp/portage/dev-java/java-config-2.2.0-r4/image/_python3.6/usr/lib64/python3.6
creating /tmp/portage/dev-java/java-config-2.2.0-r4/image/_python3.6/usr/lib64/python3.6/site-packages
creating /tmp/portage/dev-java/java-config-2.2.0-r4/image/_python3.6/usr/lib64/python3.6/site-packages/java_config_2
copying /tmp/portage/dev-java/java-config-2.2.0-r4/work/java-config-2.2.0-python3_6/lib/java_config_2/OutputFormatter.py -> /tmp/portage/dev-java/java-config-2.2.0-r4/image/_python3.6/usr/lib64/python3.6/site-packages/java_config_2
copying /tmp/portage/dev-java/java-config-2.2.0-r4/work/java-config-2.2.0-python3_6/lib/java_config_2/Package.py -> /tmp/portage/dev-java/java-config-2.2.0-r4/image/_python3.6/usr/lib64/python3.6/site-packages/java_config_2
copying /tmp/portage/dev-java/java-config-2.2.0-r4/work/java-config-2.2.0-python3_6/lib/java_config_2/__init__.py -> /tmp/portage/dev-java/java-config-2.2.0-r4/image/_python3.6/usr/lib64/python3.6/site-packages/java_config_2
copying /tmp/portage/dev-java/java-config-2.2.0-r4/work/java-config-2.2.0-python3_6/lib/java_config_2/VersionManager.py -> /tmp/portage/dev-java/java-config-2.2.0-r4/image/_python3.6/usr/lib64/python3.6/site-packages/java_config_2
copying /tmp/portage/dev-java/java-config-2.2.0-r4/work/java-config-2.2.0-python3_6/lib/java_config_2/Virtual.py -> /tmp/portage/dev-java/java-config-2.2.0-r4/image/_python3.6/usr/lib64/python3.6/site-packages/java_config_2
copying /tmp/portage/dev-java/java-config-2.2.0-r4/work/java-config-2.2.0-python3_6/lib/java_config_2/FileParser.py -> /tmp/portage/dev-java/java-config-2.2.0-r4/image/_python3.6/usr/lib64/python3.6/site-packages/java_config_2
copying /tmp/portage/dev-java/java-config-2.2.0-r4/work/java-config-2.2.0-python3_6/lib/java_config_2/EnvironmentManager.py -> /tmp/portage/dev-java/java-config-2.2.0-r4/image/_python3.6/usr/lib64/python3.6/site-packages/java_config_2
copying /tmp/portage/dev-java/java-config-2.2.0-r4/work/java-config-2.2.0-python3_6/lib/java_config_2/VM.py -> /tmp/portage/dev-java/java-config-2.2.0-r4/image/_python3.6/usr/lib64/python3.6/site-packages/java_config_2
copying /tmp/portage/dev-java/java-config-2.2.0-r4/work/java-config-2.2.0-python3_6/lib/java_config_2/Errors.py -> /tmp/portage/dev-java/java-config-2.2.0-r4/image/_python3.6/usr/lib64/python3.6/site-packages/java_config_2
byte-compiling /tmp/portage/dev-java/java-config-2.2.0-r4/image/_python3.6/usr/lib64/python3.6/site-packages/java_config_2/OutputFormatter.py to OutputFormatter.cpython-36.pyc
byte-compiling /tmp/portage/dev-java/java-config-2.2.0-r4/image/_python3.6/usr/lib64/python3.6/site-packages/java_config_2/Package.py to Package.cpython-36.pyc
byte-compiling /tmp/portage/dev-java/java-config-2.2.0-r4/image/_python3.6/usr/lib64/python3.6/site-packages/java_config_2/__init__.py to __init__.cpython-36.pyc
byte-compiling /tmp/portage/dev-java/java-config-2.2.0-r4/image/_python3.6/usr/lib64/python3.6/site-packages/java_config_2/VersionManager.py to VersionManager.cpython-36.pyc
byte-compiling /tmp/portage/dev-java/java-config-2.2.0-r4/image/_python3.6/usr/lib64/python3.6/site-packages/java_config_2/Virtual.py to Virtual.cpython-36.pyc
byte-compiling /tmp/portage/dev-java/java-config-2.2.0-r4/image/_python3.6/usr/lib64/python3.6/site-packages/java_config_2/FileParser.py to FileParser.cpython-36.pyc
byte-compiling /tmp/portage/dev-java/java-config-2.2.0-r4/image/_python3.6/usr/lib64/python3.6/site-packages/java_config_2/EnvironmentManager.py to EnvironmentManager.cpython-36.pyc
byte-compiling /tmp/portage/dev-java/java-config-2.2.0-r4/image/_python3.6/usr/lib64/python3.6/site-packages/java_config_2/VM.py to VM.cpython-36.pyc
byte-compiling /tmp/portage/dev-java/java-config-2.2.0-r4/image/_python3.6/usr/lib64/python3.6/site-packages/java_config_2/Errors.py to Errors.cpython-36.pyc
writing byte-compilation script '/tmp/portage/dev-java/java-config-2.2.0-r4/temp/tmpf6t_yex3.py'
/usr/bin/python3.6 /tmp/portage/dev-java/java-config-2.2.0-r4/temp/tmpf6t_yex3.py
removing /tmp/portage/dev-java/java-config-2.2.0-r4/temp/tmpf6t_yex3.py
writing byte-compilation script '/tmp/portage/dev-java/java-config-2.2.0-r4/temp/tmpplr3c66p.py'
/usr/bin/python3.6 /tmp/portage/dev-java/java-config-2.2.0-r4/temp/tmpplr3c66p.py
removing /tmp/portage/dev-java/java-config-2.2.0-r4/temp/tmpplr3c66p.py
running install_scripts
creating /tmp/portage/dev-java/java-config-2.2.0-r4/image/_python3.6/usr/lib
creating /tmp/portage/dev-java/java-config-2.2.0-r4/image/_python3.6/usr/lib/python-exec
creating /tmp/portage/dev-java/java-config-2.2.0-r4/image/_python3.6/usr/lib/python-exec/python3.6
copying /tmp/portage/dev-java/java-config-2.2.0-r4/work/java-config-2.2.0-python3_6/scripts/depend-java-query -> /tmp/portage/dev-java/java-config-2.2.0-r4/image/_python3.6/usr/lib/python-exec/python3.6
copying /tmp/portage/dev-java/java-config-2.2.0-r4/work/java-config-2.2.0-python3_6/scripts/java-config-2 -> /tmp/portage/dev-java/java-config-2.2.0-r4/image/_python3.6/usr/lib/python-exec/python3.6
copying /tmp/portage/dev-java/java-config-2.2.0-r4/work/java-config-2.2.0-python3_6/scripts/gjl -> /tmp/portage/dev-java/java-config-2.2.0-r4/image/_python3.6/usr/lib/python-exec/python3.6
changing mode of /tmp/portage/dev-java/java-config-2.2.0-r4/image/_python3.6/usr/lib/python-exec/python3.6/depend-java-query to 755
changing mode of /tmp/portage/dev-java/java-config-2.2.0-r4/image/_python3.6/usr/lib/python-exec/python3.6/java-config-2 to 755
changing mode of /tmp/portage/dev-java/java-config-2.2.0-r4/image/_python3.6/usr/lib/python-exec/python3.6/gjl to 755
running install_data
creating /tmp/portage/dev-java/java-config-2.2.0-r4/image/_python3.6/usr/share
creating /tmp/portage/dev-java/java-config-2.2.0-r4/image/_python3.6/usr/share/java-config-2
creating /tmp/portage/dev-java/java-config-2.2.0-r4/image/_python3.6/usr/share/java-config-2/launcher
copying src/launcher.bash -> /tmp/portage/dev-java/java-config-2.2.0-r4/image/_python3.6/usr/share/java-config-2/launcher
creating /tmp/portage/dev-java/java-config-2.2.0-r4/image/_python3.6/usr/share/man
creating /tmp/portage/dev-java/java-config-2.2.0-r4/image/_python3.6/usr/share/man/man1
copying man/java-config-2.1 -> /tmp/portage/dev-java/java-config-2.2.0-r4/image/_python3.6/usr/share/man/man1/
creating /tmp/portage/dev-java/java-config-2.2.0-r4/image/_python3.6/etc
creating /tmp/portage/dev-java/java-config-2.2.0-r4/image/_python3.6/etc/java-config-2
copying config/virtuals -> /tmp/portage/dev-java/java-config-2.2.0-r4/image/_python3.6/etc/java-config-2/
creating /tmp/portage/dev-java/java-config-2.2.0-r4/image/_python3.6/etc/java-config-2/build
copying config/jdk.conf -> /tmp/portage/dev-java/java-config-2.2.0-r4/image/_python3.6/etc/java-config-2/build/
copying config/compilers.conf -> /tmp/portage/dev-java/java-config-2.2.0-r4/image/_python3.6/etc/java-config-2/build/
running install_egg_info
Writing /tmp/portage/dev-java/java-config-2.2.0-r4/image/_python3.6/usr/lib64/python3.6/site-packages/java_config-2.2.0-py3.6.egg-info
 * python3_7: running distutils-r1_run_phase distutils-r1_python_install
python3.7 setup.py install --skip-build --root=/tmp/portage/dev-java/java-config-2.2.0-r4/image/_python3.7
running install
running install_lib
creating /tmp/portage/dev-java/java-config-2.2.0-r4/image/_python3.7
creating /tmp/portage/dev-java/java-config-2.2.0-r4/image/_python3.7/usr
creating /tmp/portage/dev-java/java-config-2.2.0-r4/image/_python3.7/usr/lib
creating /tmp/portage/dev-java/java-config-2.2.0-r4/image/_python3.7/usr/lib/python3.7
creating /tmp/portage/dev-java/java-config-2.2.0-r4/image/_python3.7/usr/lib/python3.7/site-packages
creating /tmp/portage/dev-java/java-config-2.2.0-r4/image/_python3.7/usr/lib/python3.7/site-packages/java_config_2
copying /tmp/portage/dev-java/java-config-2.2.0-r4/work/java-config-2.2.0-python3_7/lib/java_config_2/OutputFormatter.py -> /tmp/portage/dev-java/java-config-2.2.0-r4/image/_python3.7/usr/lib/python3.7/site-packages/java_config_2
copying /tmp/portage/dev-java/java-config-2.2.0-r4/work/java-config-2.2.0-python3_7/lib/java_config_2/Package.py -> /tmp/portage/dev-java/java-config-2.2.0-r4/image/_python3.7/usr/lib/python3.7/site-packages/java_config_2
copying /tmp/portage/dev-java/java-config-2.2.0-r4/work/java-config-2.2.0-python3_7/lib/java_config_2/__init__.py -> /tmp/portage/dev-java/java-config-2.2.0-r4/image/_python3.7/usr/lib/python3.7/site-packages/java_config_2
copying /tmp/portage/dev-java/java-config-2.2.0-r4/work/java-config-2.2.0-python3_7/lib/java_config_2/VersionManager.py -> /tmp/portage/dev-java/java-config-2.2.0-r4/image/_python3.7/usr/lib/python3.7/site-packages/java_config_2
copying /tmp/portage/dev-java/java-config-2.2.0-r4/work/java-config-2.2.0-python3_7/lib/java_config_2/Virtual.py -> /tmp/portage/dev-java/java-config-2.2.0-r4/image/_python3.7/usr/lib/python3.7/site-packages/java_config_2
copying /tmp/portage/dev-java/java-config-2.2.0-r4/work/java-config-2.2.0-python3_7/lib/java_config_2/FileParser.py -> /tmp/portage/dev-java/java-config-2.2.0-r4/image/_python3.7/usr/lib/python3.7/site-packages/java_config_2
copying /tmp/portage/dev-java/java-config-2.2.0-r4/work/java-config-2.2.0-python3_7/lib/java_config_2/EnvironmentManager.py -> /tmp/portage/dev-java/java-config-2.2.0-r4/image/_python3.7/usr/lib/python3.7/site-packages/java_config_2
copying /tmp/portage/dev-java/java-config-2.2.0-r4/work/java-config-2.2.0-python3_7/lib/java_config_2/VM.py -> /tmp/portage/dev-java/java-config-2.2.0-r4/image/_python3.7/usr/lib/python3.7/site-packages/java_config_2
copying /tmp/portage/dev-java/java-config-2.2.0-r4/work/java-config-2.2.0-python3_7/lib/java_config_2/Errors.py -> /tmp/portage/dev-java/java-config-2.2.0-r4/image/_python3.7/usr/lib/python3.7/site-packages/java_config_2
byte-compiling /tmp/portage/dev-java/java-config-2.2.0-r4/image/_python3.7/usr/lib/python3.7/site-packages/java_config_2/OutputFormatter.py to OutputFormatter.cpython-37.pyc
byte-compiling /tmp/portage/dev-java/java-config-2.2.0-r4/image/_python3.7/usr/lib/python3.7/site-packages/java_config_2/Package.py to Package.cpython-37.pyc
byte-compiling /tmp/portage/dev-java/java-config-2.2.0-r4/image/_python3.7/usr/lib/python3.7/site-packages/java_config_2/__init__.py to __init__.cpython-37.pyc
byte-compiling /tmp/portage/dev-java/java-config-2.2.0-r4/image/_python3.7/usr/lib/python3.7/site-packages/java_config_2/VersionManager.py to VersionManager.cpython-37.pyc
byte-compiling /tmp/portage/dev-java/java-config-2.2.0-r4/image/_python3.7/usr/lib/python3.7/site-packages/java_config_2/Virtual.py to Virtual.cpython-37.pyc
byte-compiling /tmp/portage/dev-java/java-config-2.2.0-r4/image/_python3.7/usr/lib/python3.7/site-packages/java_config_2/FileParser.py to FileParser.cpython-37.pyc
byte-compiling /tmp/portage/dev-java/java-config-2.2.0-r4/image/_python3.7/usr/lib/python3.7/site-packages/java_config_2/EnvironmentManager.py to EnvironmentManager.cpython-37.pyc
byte-compiling /tmp/portage/dev-java/java-config-2.2.0-r4/image/_python3.7/usr/lib/python3.7/site-packages/java_config_2/VM.py to VM.cpython-37.pyc
byte-compiling /tmp/portage/dev-java/java-config-2.2.0-r4/image/_python3.7/usr/lib/python3.7/site-packages/java_config_2/Errors.py to Errors.cpython-37.pyc
writing byte-compilation script '/tmp/portage/dev-java/java-config-2.2.0-r4/temp/tmpmjs7qorq.py'
/usr/bin/python3.7 /tmp/portage/dev-java/java-config-2.2.0-r4/temp/tmpmjs7qorq.py
removing /tmp/portage/dev-java/java-config-2.2.0-r4/temp/tmpmjs7qorq.py
writing byte-compilation script '/tmp/portage/dev-java/java-config-2.2.0-r4/temp/tmp5pgwh14b.py'
/usr/bin/python3.7 /tmp/portage/dev-java/java-config-2.2.0-r4/temp/tmp5pgwh14b.py
removing /tmp/portage/dev-java/java-config-2.2.0-r4/temp/tmp5pgwh14b.py
running install_scripts
creating /tmp/portage/dev-java/java-config-2.2.0-r4/image/_python3.7/usr/lib/python-exec
creating /tmp/portage/dev-java/java-config-2.2.0-r4/image/_python3.7/usr/lib/python-exec/python3.7
copying /tmp/portage/dev-java/java-config-2.2.0-r4/work/java-config-2.2.0-python3_7/scripts/depend-java-query -> /tmp/portage/dev-java/java-config-2.2.0-r4/image/_python3.7/usr/lib/python-exec/python3.7
copying /tmp/portage/dev-java/java-config-2.2.0-r4/work/java-config-2.2.0-python3_7/scripts/java-config-2 -> /tmp/portage/dev-java/java-config-2.2.0-r4/image/_python3.7/usr/lib/python-exec/python3.7
copying /tmp/portage/dev-java/java-config-2.2.0-r4/work/java-config-2.2.0-python3_7/scripts/gjl -> /tmp/portage/dev-java/java-config-2.2.0-r4/image/_python3.7/usr/lib/python-exec/python3.7
changing mode of /tmp/portage/dev-java/java-config-2.2.0-r4/image/_python3.7/usr/lib/python-exec/python3.7/depend-java-query to 755
changing mode of /tmp/portage/dev-java/java-config-2.2.0-r4/image/_python3.7/usr/lib/python-exec/python3.7/java-config-2 to 755
changing mode of /tmp/portage/dev-java/java-config-2.2.0-r4/image/_python3.7/usr/lib/python-exec/python3.7/gjl to 755
running install_data
creating /tmp/portage/dev-java/java-config-2.2.0-r4/image/_python3.7/usr/share
creating /tmp/portage/dev-java/java-config-2.2.0-r4/image/_python3.7/usr/share/java-config-2
creating /tmp/portage/dev-java/java-config-2.2.0-r4/image/_python3.7/usr/share/java-config-2/launcher
copying src/launcher.bash -> /tmp/portage/dev-java/java-config-2.2.0-r4/image/_python3.7/usr/share/java-config-2/launcher
creating /tmp/portage/dev-java/java-config-2.2.0-r4/image/_python3.7/usr/share/man
creating /tmp/portage/dev-java/java-config-2.2.0-r4/image/_python3.7/usr/share/man/man1
copying man/java-config-2.1 -> /tmp/portage/dev-java/java-config-2.2.0-r4/image/_python3.7/usr/share/man/man1/
creating /tmp/portage/dev-java/java-config-2.2.0-r4/image/_python3.7/etc
creating /tmp/portage/dev-java/java-config-2.2.0-r4/image/_python3.7/etc/java-config-2
copying config/virtuals -> /tmp/portage/dev-java/java-config-2.2.0-r4/image/_python3.7/etc/java-config-2/
creating /tmp/portage/dev-java/java-config-2.2.0-r4/image/_python3.7/etc/java-config-2/build
copying config/jdk.conf -> /tmp/portage/dev-java/java-config-2.2.0-r4/image/_python3.7/etc/java-config-2/build/
copying config/compilers.conf -> /tmp/portage/dev-java/java-config-2.2.0-r4/image/_python3.7/etc/java-config-2/build/
running install_egg_info
Writing /tmp/portage/dev-java/java-config-2.2.0-r4/image/_python3.7/usr/lib/python3.7/site-packages/java_config-2.2.0-py3.7.egg-info
 * python3_8: running distutils-r1_run_phase distutils-r1_python_install
python3.8 setup.py install --skip-build --root=/tmp/portage/dev-java/java-config-2.2.0-r4/image/_python3.8
running install
running install_lib
creating /tmp/portage/dev-java/java-config-2.2.0-r4/image/_python3.8
creating /tmp/portage/dev-java/java-config-2.2.0-r4/image/_python3.8/usr
creating /tmp/portage/dev-java/java-config-2.2.0-r4/image/_python3.8/usr/lib
creating /tmp/portage/dev-java/java-config-2.2.0-r4/image/_python3.8/usr/lib/python3.8
creating /tmp/portage/dev-java/java-config-2.2.0-r4/image/_python3.8/usr/lib/python3.8/site-packages
creating /tmp/portage/dev-java/java-config-2.2.0-r4/image/_python3.8/usr/lib/python3.8/site-packages/java_config_2
copying /tmp/portage/dev-java/java-config-2.2.0-r4/work/java-config-2.2.0-python3_8/lib/java_config_2/OutputFormatter.py -> /tmp/portage/dev-java/java-config-2.2.0-r4/image/_python3.8/usr/lib/python3.8/site-packages/java_config_2
copying /tmp/portage/dev-java/java-config-2.2.0-r4/work/java-config-2.2.0-python3_8/lib/java_config_2/Package.py -> /tmp/portage/dev-java/java-config-2.2.0-r4/image/_python3.8/usr/lib/python3.8/site-packages/java_config_2
copying /tmp/portage/dev-java/java-config-2.2.0-r4/work/java-config-2.2.0-python3_8/lib/java_config_2/__init__.py -> /tmp/portage/dev-java/java-config-2.2.0-r4/image/_python3.8/usr/lib/python3.8/site-packages/java_config_2
copying /tmp/portage/dev-java/java-config-2.2.0-r4/work/java-config-2.2.0-python3_8/lib/java_config_2/VersionManager.py -> /tmp/portage/dev-java/java-config-2.2.0-r4/image/_python3.8/usr/lib/python3.8/site-packages/java_config_2
copying /tmp/portage/dev-java/java-config-2.2.0-r4/work/java-config-2.2.0-python3_8/lib/java_config_2/Virtual.py -> /tmp/portage/dev-java/java-config-2.2.0-r4/image/_python3.8/usr/lib/python3.8/site-packages/java_config_2
copying /tmp/portage/dev-java/java-config-2.2.0-r4/work/java-config-2.2.0-python3_8/lib/java_config_2/FileParser.py -> /tmp/portage/dev-java/java-config-2.2.0-r4/image/_python3.8/usr/lib/python3.8/site-packages/java_config_2
copying /tmp/portage/dev-java/java-config-2.2.0-r4/work/java-config-2.2.0-python3_8/lib/java_config_2/EnvironmentManager.py -> /tmp/portage/dev-java/java-config-2.2.0-r4/image/_python3.8/usr/lib/python3.8/site-packages/java_config_2
copying /tmp/portage/dev-java/java-config-2.2.0-r4/work/java-config-2.2.0-python3_8/lib/java_config_2/VM.py -> /tmp/portage/dev-java/java-config-2.2.0-r4/image/_python3.8/usr/lib/python3.8/site-packages/java_config_2
copying /tmp/portage/dev-java/java-config-2.2.0-r4/work/java-config-2.2.0-python3_8/lib/java_config_2/Errors.py -> /tmp/portage/dev-java/java-config-2.2.0-r4/image/_python3.8/usr/lib/python3.8/site-packages/java_config_2
byte-compiling /tmp/portage/dev-java/java-config-2.2.0-r4/image/_python3.8/usr/lib/python3.8/site-packages/java_config_2/OutputFormatter.py to OutputFormatter.cpython-38.pyc
byte-compiling /tmp/portage/dev-java/java-config-2.2.0-r4/image/_python3.8/usr/lib/python3.8/site-packages/java_config_2/Package.py to Package.cpython-38.pyc
byte-compiling /tmp/portage/dev-java/java-config-2.2.0-r4/image/_python3.8/usr/lib/python3.8/site-packages/java_config_2/__init__.py to __init__.cpython-38.pyc
byte-compiling /tmp/portage/dev-java/java-config-2.2.0-r4/image/_python3.8/usr/lib/python3.8/site-packages/java_config_2/VersionManager.py to VersionManager.cpython-38.pyc
byte-compiling /tmp/portage/dev-java/java-config-2.2.0-r4/image/_python3.8/usr/lib/python3.8/site-packages/java_config_2/Virtual.py to Virtual.cpython-38.pyc
byte-compiling /tmp/portage/dev-java/java-config-2.2.0-r4/image/_python3.8/usr/lib/python3.8/site-packages/java_config_2/FileParser.py to FileParser.cpython-38.pyc
byte-compiling /tmp/portage/dev-java/java-config-2.2.0-r4/image/_python3.8/usr/lib/python3.8/site-packages/java_config_2/EnvironmentManager.py to EnvironmentManager.cpython-38.pyc
byte-compiling /tmp/portage/dev-java/java-config-2.2.0-r4/image/_python3.8/usr/lib/python3.8/site-packages/java_config_2/VM.py to VM.cpython-38.pyc
byte-compiling /tmp/portage/dev-java/java-config-2.2.0-r4/image/_python3.8/usr/lib/python3.8/site-packages/java_config_2/Errors.py to Errors.cpython-38.pyc
writing byte-compilation script '/tmp/portage/dev-java/java-config-2.2.0-r4/temp/tmp9ibc3eiw.py'
/usr/bin/python3.8 /tmp/portage/dev-java/java-config-2.2.0-r4/temp/tmp9ibc3eiw.py
removing /tmp/portage/dev-java/java-config-2.2.0-r4/temp/tmp9ibc3eiw.py
writing byte-compilation script '/tmp/portage/dev-java/java-config-2.2.0-r4/temp/tmpaea6twze.py'
/usr/bin/python3.8 /tmp/portage/dev-java/java-config-2.2.0-r4/temp/tmpaea6twze.py
removing /tmp/portage/dev-java/java-config-2.2.0-r4/temp/tmpaea6twze.py
running install_scripts
creating /tmp/portage/dev-java/java-config-2.2.0-r4/image/_python3.8/usr/lib/python-exec
creating /tmp/portage/dev-java/java-config-2.2.0-r4/image/_python3.8/usr/lib/python-exec/python3.8
copying /tmp/portage/dev-java/java-config-2.2.0-r4/work/java-config-2.2.0-python3_8/scripts/depend-java-query -> /tmp/portage/dev-java/java-config-2.2.0-r4/image/_python3.8/usr/lib/python-exec/python3.8
copying /tmp/portage/dev-java/java-config-2.2.0-r4/work/java-config-2.2.0-python3_8/scripts/java-config-2 -> /tmp/portage/dev-java/java-config-2.2.0-r4/image/_python3.8/usr/lib/python-exec/python3.8
copying /tmp/portage/dev-java/java-config-2.2.0-r4/work/java-config-2.2.0-python3_8/scripts/gjl -> /tmp/portage/dev-java/java-config-2.2.0-r4/image/_python3.8/usr/lib/python-exec/python3.8
changing mode of /tmp/portage/dev-java/java-config-2.2.0-r4/image/_python3.8/usr/lib/python-exec/python3.8/depend-java-query to 755
changing mode of /tmp/portage/dev-java/java-config-2.2.0-r4/image/_python3.8/usr/lib/python-exec/python3.8/java-config-2 to 755
changing mode of /tmp/portage/dev-java/java-config-2.2.0-r4/image/_python3.8/usr/lib/python-exec/python3.8/gjl to 755
running install_data
creating /tmp/portage/dev-java/java-config-2.2.0-r4/image/_python3.8/usr/share
creating /tmp/portage/dev-java/java-config-2.2.0-r4/image/_python3.8/usr/share/java-config-2
creating /tmp/portage/dev-java/java-config-2.2.0-r4/image/_python3.8/usr/share/java-config-2/launcher
copying src/launcher.bash -> /tmp/portage/dev-java/java-config-2.2.0-r4/image/_python3.8/usr/share/java-config-2/launcher
creating /tmp/portage/dev-java/java-config-2.2.0-r4/image/_python3.8/usr/share/man
creating /tmp/portage/dev-java/java-config-2.2.0-r4/image/_python3.8/usr/share/man/man1
copying man/java-config-2.1 -> /tmp/portage/dev-java/java-config-2.2.0-r4/image/_python3.8/usr/share/man/man1/
creating /tmp/portage/dev-java/java-config-2.2.0-r4/image/_python3.8/etc
creating /tmp/portage/dev-java/java-config-2.2.0-r4/image/_python3.8/etc/java-config-2
copying config/virtuals -> /tmp/portage/dev-java/java-config-2.2.0-r4/image/_python3.8/etc/java-config-2/
creating /tmp/portage/dev-java/java-config-2.2.0-r4/image/_python3.8/etc/java-config-2/build
copying config/jdk.conf -> /tmp/portage/dev-java/java-config-2.2.0-r4/image/_python3.8/etc/java-config-2/build/
copying config/compilers.conf -> /tmp/portage/dev-java/java-config-2.2.0-r4/image/_python3.8/etc/java-config-2/build/
running install_egg_info
Writing /tmp/portage/dev-java/java-config-2.2.0-r4/image/_python3.8/usr/lib/python3.8/site-packages/java_config-2.2.0-py3.8.egg-info
 * Using python3.8 in global scope
 * python3_8: running distutils-r1_run_phase python_install_all
>>> Completed installing dev-java/java-config-2.2.0-r4 into /tmp/portage/dev-java/java-config-2.2.0-r4/image/

 * Final size of build directory: 1040 KiB (1.0 MiB)
 * Final size of installed tree:  1068 KiB (1.0 MiB)

 * Verifying compiled files in /usr/lib64/python3.6/site-packages
 * Verifying compiled files in /usr/lib/python3.7/site-packages
 * Verifying compiled files in /usr/lib/python3.8/site-packages
./
./usr/
./usr/lib/
./usr/lib/python3.8/
./usr/lib/python3.8/site-packages/
./usr/lib/python3.8/site-packages/java_config_2/
./usr/lib/python3.8/site-packages/java_config_2/OutputFormatter.py
./usr/lib/python3.8/site-packages/java_config_2/Package.py
./usr/lib/python3.8/site-packages/java_config_2/__init__.py
./usr/lib/python3.8/site-packages/java_config_2/VersionManager.py
./usr/lib/python3.8/site-packages/java_config_2/Virtual.py
./usr/lib/python3.8/site-packages/java_config_2/FileParser.py
./usr/lib/python3.8/site-packages/java_config_2/__pycache__/
./usr/lib/python3.8/site-packages/java_config_2/__pycache__/FileParser.cpython-38.opt-1.pyc
./usr/lib/python3.8/site-packages/java_config_2/__pycache__/Virtual.cpython-38.pyc
./usr/lib/python3.8/site-packages/java_config_2/__pycache__/VM.cpython-38.pyc
./usr/lib/python3.8/site-packages/java_config_2/__pycache__/Errors.cpython-38.opt-2.pyc
./usr/lib/python3.8/site-packages/java_config_2/__pycache__/VersionManager.cpython-38.opt-1.pyc
./usr/lib/python3.8/site-packages/java_config_2/__pycache__/OutputFormatter.cpython-38.opt-2.pyc
./usr/lib/python3.8/site-packages/java_config_2/__pycache__/VersionManager.cpython-38.pyc
./usr/lib/python3.8/site-packages/java_config_2/__pycache__/OutputFormatter.cpython-38.opt-1.pyc
./usr/lib/python3.8/site-packages/java_config_2/__pycache__/VM.cpython-38.opt-1.pyc
./usr/lib/python3.8/site-packages/java_config_2/__pycache__/FileParser.cpython-38.opt-2.pyc
./usr/lib/python3.8/site-packages/java_config_2/__pycache__/__init__.cpython-38.opt-1.pyc
./usr/lib/python3.8/site-packages/java_config_2/__pycache__/FileParser.cpython-38.pyc
./usr/lib/python3.8/site-packages/java_config_2/__pycache__/Errors.cpython-38.opt-1.pyc
./usr/lib/python3.8/site-packages/java_config_2/__pycache__/__init__.cpython-38.pyc
./usr/lib/python3.8/site-packages/java_config_2/__pycache__/Virtual.cpython-38.opt-1.pyc
./usr/lib/python3.8/site-packages/java_config_2/__pycache__/__init__.cpython-38.opt-2.pyc
./usr/lib/python3.8/site-packages/java_config_2/__pycache__/EnvironmentManager.cpython-38.opt-2.pyc
./usr/lib/python3.8/site-packages/java_config_2/__pycache__/VM.cpython-38.opt-2.pyc
./usr/lib/python3.8/site-packages/java_config_2/__pycache__/VersionManager.cpython-38.opt-2.pyc
./usr/lib/python3.8/site-packages/java_config_2/__pycache__/Virtual.cpython-38.opt-2.pyc
./usr/lib/python3.8/site-packages/java_config_2/__pycache__/Errors.cpython-38.pyc
./usr/lib/python3.8/site-packages/java_config_2/__pycache__/Package.cpython-38.opt-1.pyc
./usr/lib/python3.8/site-packages/java_config_2/__pycache__/OutputFormatter.cpython-38.pyc
./usr/lib/python3.8/site-packages/java_config_2/__pycache__/Package.cpython-38.pyc
./usr/lib/python3.8/site-packages/java_config_2/__pycache__/EnvironmentManager.cpython-38.pyc
./usr/lib/python3.8/site-packages/java_config_2/__pycache__/Package.cpython-38.opt-2.pyc
./usr/lib/python3.8/site-packages/java_config_2/__pycache__/EnvironmentManager.cpython-38.opt-1.pyc
./usr/lib/python3.8/site-packages/java_config_2/EnvironmentManager.py
./usr/lib/python3.8/site-packages/java_config_2/VM.py
./usr/lib/python3.8/site-packages/java_config_2/Errors.py
./usr/lib/python3.8/site-packages/java_config-2.2.0-py3.8.egg-info
./usr/lib/python3.7/
./usr/lib/python3.7/site-packages/
./usr/lib/python3.7/site-packages/java_config-2.2.0-py3.7.egg-info
./usr/lib/python3.7/site-packages/java_config_2/
./usr/lib/python3.7/site-packages/java_config_2/OutputFormatter.py
./usr/lib/python3.7/site-packages/java_config_2/Package.py
./usr/lib/python3.7/site-packages/java_config_2/__init__.py
./usr/lib/python3.7/site-packages/java_config_2/VersionManager.py
./usr/lib/python3.7/site-packages/java_config_2/Virtual.py
./usr/lib/python3.7/site-packages/java_config_2/FileParser.py
./usr/lib/python3.7/site-packages/java_config_2/__pycache__/
./usr/lib/python3.7/site-packages/java_config_2/__pycache__/OutputFormatter.cpython-37.opt-1.pyc
./usr/lib/python3.7/site-packages/java_config_2/__pycache__/VersionManager.cpython-37.opt-1.pyc
./usr/lib/python3.7/site-packages/java_config_2/__pycache__/Virtual.cpython-37.opt-2.pyc
./usr/lib/python3.7/site-packages/java_config_2/__pycache__/VersionManager.cpython-37.opt-2.pyc
./usr/lib/python3.7/site-packages/java_config_2/__pycache__/Virtual.cpython-37.pyc
./usr/lib/python3.7/site-packages/java_config_2/__pycache__/VM.cpython-37.opt-2.pyc
./usr/lib/python3.7/site-packages/java_config_2/__pycache__/Errors.cpython-37.opt-1.pyc
./usr/lib/python3.7/site-packages/java_config_2/__pycache__/FileParser.cpython-37.opt-1.pyc
./usr/lib/python3.7/site-packages/java_config_2/__pycache__/VM.cpython-37.pyc
./usr/lib/python3.7/site-packages/java_config_2/__pycache__/__init__.cpython-37.opt-1.pyc
./usr/lib/python3.7/site-packages/java_config_2/__pycache__/Virtual.cpython-37.opt-1.pyc
./usr/lib/python3.7/site-packages/java_config_2/__pycache__/__init__.cpython-37.opt-2.pyc
./usr/lib/python3.7/site-packages/java_config_2/__pycache__/Package.cpython-37.pyc
./usr/lib/python3.7/site-packages/java_config_2/__pycache__/Package.cpython-37.opt-2.pyc
./usr/lib/python3.7/site-packages/java_config_2/__pycache__/Errors.cpython-37.pyc
./usr/lib/python3.7/site-packages/java_config_2/__pycache__/Package.cpython-37.opt-1.pyc
./usr/lib/python3.7/site-packages/java_config_2/__pycache__/FileParser.cpython-37.opt-2.pyc
./usr/lib/python3.7/site-packages/java_config_2/__pycache__/OutputFormatter.cpython-37.opt-2.pyc
./usr/lib/python3.7/site-packages/java_config_2/__pycache__/VM.cpython-37.opt-1.pyc
./usr/lib/python3.7/site-packages/java_config_2/__pycache__/FileParser.cpython-37.pyc
./usr/lib/python3.7/site-packages/java_config_2/__pycache__/__init__.cpython-37.pyc
./usr/lib/python3.7/site-packages/java_config_2/__pycache__/EnvironmentManager.cpython-37.pyc
./usr/lib/python3.7/site-packages/java_config_2/__pycache__/Errors.cpython-37.opt-2.pyc
./usr/lib/python3.7/site-packages/java_config_2/__pycache__/OutputFormatter.cpython-37.pyc
./usr/lib/python3.7/site-packages/java_config_2/__pycache__/VersionManager.cpython-37.pyc
./usr/lib/python3.7/site-packages/java_config_2/__pycache__/EnvironmentManager.cpython-37.opt-2.pyc
./usr/lib/python3.7/site-packages/java_config_2/__pycache__/EnvironmentManager.cpython-37.opt-1.pyc
./usr/lib/python3.7/site-packages/java_config_2/EnvironmentManager.py
./usr/lib/python3.7/site-packages/java_config_2/VM.py
./usr/lib/python3.7/site-packages/java_config_2/Errors.py
./usr/lib/python-exec/
./usr/lib/python-exec/python3.8/
./usr/lib/python-exec/python3.8/depend-java-query
./usr/lib/python-exec/python3.8/java-config-2
./usr/lib/python-exec/python3.8/gjl
./usr/lib/python-exec/python3.6/
./usr/lib/python-exec/python3.6/depend-java-query
./usr/lib/python-exec/python3.6/java-config-2
./usr/lib/python-exec/python3.6/gjl
./usr/lib/python-exec/python3.7/
./usr/lib/python-exec/python3.7/depend-java-query
./usr/lib/python-exec/python3.7/java-config-2
./usr/lib/python-exec/python3.7/gjl
./usr/bin/
./usr/bin/java-config
./usr/bin/depend-java-query
./usr/bin/java-config-2
./usr/bin/gjl
./usr/share/
./usr/share/java-config-2/
./usr/share/java-config-2/launcher/
./usr/share/java-config-2/launcher/launcher.bash
./usr/share/java-config-2/config/
./usr/share/java-config-2/config/jdk-defaults.conf
./usr/share/man/
./usr/share/man/man1/
./usr/share/man/man1/java-config-2.1.bz2
./usr/share/doc/
./usr/share/doc/java-config-2.2.0-r4/
./usr/share/doc/java-config-2.2.0-r4/README
./usr/share/doc/java-config-2.2.0-r4/TODO.bz2
./usr/share/doc/java-config-2.2.0-r4/ChangeLog.bz2
./usr/share/doc/java-config-2.2.0-r4/NEWS.bz2
./usr/lib64/
./usr/lib64/python3.6/
./usr/lib64/python3.6/site-packages/
./usr/lib64/python3.6/site-packages/java_config_2/
./usr/lib64/python3.6/site-packages/java_config_2/OutputFormatter.py
./usr/lib64/python3.6/site-packages/java_config_2/Package.py
./usr/lib64/python3.6/site-packages/java_config_2/__init__.py
./usr/lib64/python3.6/site-packages/java_config_2/VersionManager.py
./usr/lib64/python3.6/site-packages/java_config_2/Virtual.py
./usr/lib64/python3.6/site-packages/java_config_2/FileParser.py
./usr/lib64/python3.6/site-packages/java_config_2/__pycache__/
./usr/lib64/python3.6/site-packages/java_config_2/__pycache__/EnvironmentManager.cpython-36.opt-1.pyc
./usr/lib64/python3.6/site-packages/java_config_2/__pycache__/Errors.cpython-36.opt-2.pyc
./usr/lib64/python3.6/site-packages/java_config_2/__pycache__/Package.cpython-36.opt-1.pyc
./usr/lib64/python3.6/site-packages/java_config_2/__pycache__/VersionManager.cpython-36.pyc
./usr/lib64/python3.6/site-packages/java_config_2/__pycache__/VersionManager.cpython-36.opt-2.pyc
./usr/lib64/python3.6/site-packages/java_config_2/__pycache__/EnvironmentManager.cpython-36.pyc
./usr/lib64/python3.6/site-packages/java_config_2/__pycache__/FileParser.cpython-36.opt-2.pyc
./usr/lib64/python3.6/site-packages/java_config_2/__pycache__/FileParser.cpython-36.pyc
./usr/lib64/python3.6/site-packages/java_config_2/__pycache__/FileParser.cpython-36.opt-1.pyc
./usr/lib64/python3.6/site-packages/java_config_2/__pycache__/OutputFormatter.cpython-36.pyc
./usr/lib64/python3.6/site-packages/java_config_2/__pycache__/VM.cpython-36.opt-2.pyc
./usr/lib64/python3.6/site-packages/java_config_2/__pycache__/Package.cpython-36.pyc
./usr/lib64/python3.6/site-packages/java_config_2/__pycache__/__init__.cpython-36.opt-2.pyc
./usr/lib64/python3.6/site-packages/java_config_2/__pycache__/Package.cpython-36.opt-2.pyc
./usr/lib64/python3.6/site-packages/java_config_2/__pycache__/VM.cpython-36.opt-1.pyc
./usr/lib64/python3.6/site-packages/java_config_2/__pycache__/Virtual.cpython-36.pyc
./usr/lib64/python3.6/site-packages/java_config_2/__pycache__/Errors.cpython-36.pyc
./usr/lib64/python3.6/site-packages/java_config_2/__pycache__/EnvironmentManager.cpython-36.opt-2.pyc
./usr/lib64/python3.6/site-packages/java_config_2/__pycache__/__init__.cpython-36.opt-1.pyc
./usr/lib64/python3.6/site-packages/java_config_2/__pycache__/Virtual.cpython-36.opt-1.pyc
./usr/lib64/python3.6/site-packages/java_config_2/__pycache__/OutputFormatter.cpython-36.opt-1.pyc
./usr/lib64/python3.6/site-packages/java_config_2/__pycache__/OutputFormatter.cpython-36.opt-2.pyc
./usr/lib64/python3.6/site-packages/java_config_2/__pycache__/VersionManager.cpython-36.opt-1.pyc
./usr/lib64/python3.6/site-packages/java_config_2/__pycache__/VM.cpython-36.pyc
./usr/lib64/python3.6/site-packages/java_config_2/__pycache__/__init__.cpython-36.pyc
./usr/lib64/python3.6/site-packages/java_config_2/__pycache__/Errors.cpython-36.opt-1.pyc
./usr/lib64/python3.6/site-packages/java_config_2/__pycache__/Virtual.cpython-36.opt-2.pyc
./usr/lib64/python3.6/site-packages/java_config_2/EnvironmentManager.py
./usr/lib64/python3.6/site-packages/java_config_2/VM.py
./usr/lib64/python3.6/site-packages/java_config_2/Errors.py
./usr/lib64/python3.6/site-packages/java_config-2.2.0-py3.6.egg-info
./etc/
./etc/java-config-2/
./etc/java-config-2/build/
./etc/java-config-2/build/jdk.conf
./etc/java-config-2/build/compilers.conf
./etc/java-config-2/virtuals
>>> Done.
 * checking 130 files for package collisions
>>> Merging dev-java/java-config-2.2.0-r4 to /
 * removing unneeded *.la files
--- /etc/
--- /etc/java-config-2/
>>> /etc/java-config-2/virtuals
--- /etc/java-config-2/build/
>>> /etc/java-config-2/build/compilers.conf
>>> /etc/java-config-2/build/jdk.conf
--- /usr/
--- /usr/lib64/
--- /usr/lib64/python3.6/
--- /usr/lib64/python3.6/site-packages/
>>> /usr/lib64/python3.6/site-packages/java_config-2.2.0-py3.6.egg-info
>>> /usr/lib64/python3.6/site-packages/java_config_2/
>>> /usr/lib64/python3.6/site-packages/java_config_2/Errors.py
>>> /usr/lib64/python3.6/site-packages/java_config_2/VM.py
>>> /usr/lib64/python3.6/site-packages/java_config_2/EnvironmentManager.py
>>> /usr/lib64/python3.6/site-packages/java_config_2/__pycache__/
>>> /usr/lib64/python3.6/site-packages/java_config_2/__pycache__/Virtual.cpython-36.opt-2.pyc
>>> /usr/lib64/python3.6/site-packages/java_config_2/__pycache__/Errors.cpython-36.opt-1.pyc
>>> /usr/lib64/python3.6/site-packages/java_config_2/__pycache__/__init__.cpython-36.pyc
>>> /usr/lib64/python3.6/site-packages/java_config_2/__pycache__/VM.cpython-36.pyc
>>> /usr/lib64/python3.6/site-packages/java_config_2/__pycache__/VersionManager.cpython-36.opt-1.pyc
>>> /usr/lib64/python3.6/site-packages/java_config_2/__pycache__/OutputFormatter.cpython-36.opt-2.pyc
>>> /usr/lib64/python3.6/site-packages/java_config_2/__pycache__/OutputFormatter.cpython-36.opt-1.pyc
>>> /usr/lib64/python3.6/site-packages/java_config_2/__pycache__/Virtual.cpython-36.opt-1.pyc
>>> /usr/lib64/python3.6/site-packages/java_config_2/__pycache__/__init__.cpython-36.opt-1.pyc
>>> /usr/lib64/python3.6/site-packages/java_config_2/__pycache__/EnvironmentManager.cpython-36.opt-2.pyc
>>> /usr/lib64/python3.6/site-packages/java_config_2/__pycache__/Errors.cpython-36.pyc
>>> /usr/lib64/python3.6/site-packages/java_config_2/__pycache__/Virtual.cpython-36.pyc
>>> /usr/lib64/python3.6/site-packages/java_config_2/__pycache__/VM.cpython-36.opt-1.pyc
>>> /usr/lib64/python3.6/site-packages/java_config_2/__pycache__/Package.cpython-36.opt-2.pyc
>>> /usr/lib64/python3.6/site-packages/java_config_2/__pycache__/__init__.cpython-36.opt-2.pyc
>>> /usr/lib64/python3.6/site-packages/java_config_2/__pycache__/Package.cpython-36.pyc
>>> /usr/lib64/python3.6/site-packages/java_config_2/__pycache__/VM.cpython-36.opt-2.pyc
>>> /usr/lib64/python3.6/site-packages/java_config_2/__pycache__/OutputFormatter.cpython-36.pyc
>>> /usr/lib64/python3.6/site-packages/java_config_2/__pycache__/FileParser.cpython-36.opt-1.pyc
>>> /usr/lib64/python3.6/site-packages/java_config_2/__pycache__/FileParser.cpython-36.pyc
>>> /usr/lib64/python3.6/site-packages/java_config_2/__pycache__/FileParser.cpython-36.opt-2.pyc
>>> /usr/lib64/python3.6/site-packages/java_config_2/__pycache__/EnvironmentManager.cpython-36.pyc
>>> /usr/lib64/python3.6/site-packages/java_config_2/__pycache__/VersionManager.cpython-36.opt-2.pyc
>>> /usr/lib64/python3.6/site-packages/java_config_2/__pycache__/VersionManager.cpython-36.pyc
>>> /usr/lib64/python3.6/site-packages/java_config_2/__pycache__/Package.cpython-36.opt-1.pyc
>>> /usr/lib64/python3.6/site-packages/java_config_2/__pycache__/Errors.cpython-36.opt-2.pyc
>>> /usr/lib64/python3.6/site-packages/java_config_2/__pycache__/EnvironmentManager.cpython-36.opt-1.pyc
>>> /usr/lib64/python3.6/site-packages/java_config_2/FileParser.py
>>> /usr/lib64/python3.6/site-packages/java_config_2/Virtual.py
>>> /usr/lib64/python3.6/site-packages/java_config_2/VersionManager.py
>>> /usr/lib64/python3.6/site-packages/java_config_2/__init__.py
>>> /usr/lib64/python3.6/site-packages/java_config_2/Package.py
>>> /usr/lib64/python3.6/site-packages/java_config_2/OutputFormatter.py
--- /usr/share/
--- /usr/share/man/
--- /usr/share/man/man1/
>>> /usr/share/man/man1/java-config-2.1.bz2
--- /usr/share/java-config-2/
--- /usr/share/java-config-2/config/
>>> /usr/share/java-config-2/config/jdk-defaults.conf
--- /usr/share/java-config-2/launcher/
>>> /usr/share/java-config-2/launcher/launcher.bash
--- /usr/bin/
>>> /usr/bin/gjl -> ../lib/python-exec/python-exec2
>>> /usr/bin/java-config-2 -> ../lib/python-exec/python-exec2
>>> /usr/bin/depend-java-query -> ../lib/python-exec/python-exec2
>>> /usr/bin/java-config -> java-config-2
--- /usr/lib/
--- /usr/lib/python-exec/
--- /usr/lib/python-exec/python3.7/
>>> /usr/lib/python-exec/python3.7/gjl
>>> /usr/lib/python-exec/python3.7/java-config-2
>>> /usr/lib/python-exec/python3.7/depend-java-query
--- /usr/lib/python-exec/python3.6/
>>> /usr/lib/python-exec/python3.6/gjl
>>> /usr/lib/python-exec/python3.6/java-config-2
>>> /usr/lib/python-exec/python3.6/depend-java-query
--- /usr/lib/python-exec/python3.8/
>>> /usr/lib/python-exec/python3.8/gjl
>>> /usr/lib/python-exec/python3.8/java-config-2
>>> /usr/lib/python-exec/python3.8/depend-java-query
--- /usr/lib/python3.7/
--- /usr/lib/python3.7/site-packages/
--- /usr/lib/python3.7/site-packages/java_config_2/
>>> /usr/lib/python3.7/site-packages/java_config_2/Errors.py
>>> /usr/lib/python3.7/site-packages/java_config_2/VM.py
>>> /usr/lib/python3.7/site-packages/java_config_2/EnvironmentManager.py
--- /usr/lib/python3.7/site-packages/java_config_2/__pycache__/
>>> /usr/lib/python3.7/site-packages/java_config_2/__pycache__/EnvironmentManager.cpython-37.opt-1.pyc
>>> /usr/lib/python3.7/site-packages/java_config_2/__pycache__/EnvironmentManager.cpython-37.opt-2.pyc
>>> /usr/lib/python3.7/site-packages/java_config_2/__pycache__/VersionManager.cpython-37.pyc
>>> /usr/lib/python3.7/site-packages/java_config_2/__pycache__/OutputFormatter.cpython-37.pyc
>>> /usr/lib/python3.7/site-packages/java_config_2/__pycache__/Errors.cpython-37.opt-2.pyc
>>> /usr/lib/python3.7/site-packages/java_config_2/__pycache__/EnvironmentManager.cpython-37.pyc
>>> /usr/lib/python3.7/site-packages/java_config_2/__pycache__/__init__.cpython-37.pyc
>>> /usr/lib/python3.7/site-packages/java_config_2/__pycache__/FileParser.cpython-37.pyc
>>> /usr/lib/python3.7/site-packages/java_config_2/__pycache__/VM.cpython-37.opt-1.pyc
>>> /usr/lib/python3.7/site-packages/java_config_2/__pycache__/OutputFormatter.cpython-37.opt-2.pyc
>>> /usr/lib/python3.7/site-packages/java_config_2/__pycache__/FileParser.cpython-37.opt-2.pyc
>>> /usr/lib/python3.7/site-packages/java_config_2/__pycache__/Package.cpython-37.opt-1.pyc
>>> /usr/lib/python3.7/site-packages/java_config_2/__pycache__/Errors.cpython-37.pyc
>>> /usr/lib/python3.7/site-packages/java_config_2/__pycache__/Package.cpython-37.opt-2.pyc
>>> /usr/lib/python3.7/site-packages/java_config_2/__pycache__/Package.cpython-37.pyc
>>> /usr/lib/python3.7/site-packages/java_config_2/__pycache__/__init__.cpython-37.opt-2.pyc
>>> /usr/lib/python3.7/site-packages/java_config_2/__pycache__/Virtual.cpython-37.opt-1.pyc
>>> /usr/lib/python3.7/site-packages/java_config_2/__pycache__/__init__.cpython-37.opt-1.pyc
>>> /usr/lib/python3.7/site-packages/java_config_2/__pycache__/VM.cpython-37.pyc
>>> /usr/lib/python3.7/site-packages/java_config_2/__pycache__/FileParser.cpython-37.opt-1.pyc
>>> /usr/lib/python3.7/site-packages/java_config_2/__pycache__/Errors.cpython-37.opt-1.pyc
>>> /usr/lib/python3.7/site-packages/java_config_2/__pycache__/VM.cpython-37.opt-2.pyc
>>> /usr/lib/python3.7/site-packages/java_config_2/__pycache__/Virtual.cpython-37.pyc
>>> /usr/lib/python3.7/site-packages/java_config_2/__pycache__/VersionManager.cpython-37.opt-2.pyc
>>> /usr/lib/python3.7/site-packages/java_config_2/__pycache__/Virtual.cpython-37.opt-2.pyc
>>> /usr/lib/python3.7/site-packages/java_config_2/__pycache__/VersionManager.cpython-37.opt-1.pyc
>>> /usr/lib/python3.7/site-packages/java_config_2/__pycache__/OutputFormatter.cpython-37.opt-1.pyc
>>> /usr/lib/python3.7/site-packages/java_config_2/FileParser.py
>>> /usr/lib/python3.7/site-packages/java_config_2/Virtual.py
>>> /usr/lib/python3.7/site-packages/java_config_2/VersionManager.py
>>> /usr/lib/python3.7/site-packages/java_config_2/__init__.py
>>> /usr/lib/python3.7/site-packages/java_config_2/Package.py
>>> /usr/lib/python3.7/site-packages/java_config_2/OutputFormatter.py
>>> /usr/lib/python3.7/site-packages/java_config-2.2.0-py3.7.egg-info
--- /usr/lib/python3.8/
--- /usr/lib/python3.8/site-packages/
>>> /usr/lib/python3.8/site-packages/java_config-2.2.0-py3.8.egg-info
--- /usr/lib/python3.8/site-packages/java_config_2/
>>> /usr/lib/python3.8/site-packages/java_config_2/Errors.py
>>> /usr/lib/python3.8/site-packages/java_config_2/VM.py
>>> /usr/lib/python3.8/site-packages/java_config_2/EnvironmentManager.py
--- /usr/lib/python3.8/site-packages/java_config_2/__pycache__/
>>> /usr/lib/python3.8/site-packages/java_config_2/__pycache__/EnvironmentManager.cpython-38.opt-1.pyc
>>> /usr/lib/python3.8/site-packages/java_config_2/__pycache__/Package.cpython-38.opt-2.pyc
>>> /usr/lib/python3.8/site-packages/java_config_2/__pycache__/EnvironmentManager.cpython-38.pyc
>>> /usr/lib/python3.8/site-packages/java_config_2/__pycache__/Package.cpython-38.pyc
>>> /usr/lib/python3.8/site-packages/java_config_2/__pycache__/OutputFormatter.cpython-38.pyc
>>> /usr/lib/python3.8/site-packages/java_config_2/__pycache__/Package.cpython-38.opt-1.pyc
>>> /usr/lib/python3.8/site-packages/java_config_2/__pycache__/Errors.cpython-38.pyc
>>> /usr/lib/python3.8/site-packages/java_config_2/__pycache__/Virtual.cpython-38.opt-2.pyc
>>> /usr/lib/python3.8/site-packages/java_config_2/__pycache__/VersionManager.cpython-38.opt-2.pyc
>>> /usr/lib/python3.8/site-packages/java_config_2/__pycache__/VM.cpython-38.opt-2.pyc
>>> /usr/lib/python3.8/site-packages/java_config_2/__pycache__/EnvironmentManager.cpython-38.opt-2.pyc
>>> /usr/lib/python3.8/site-packages/java_config_2/__pycache__/__init__.cpython-38.opt-2.pyc
>>> /usr/lib/python3.8/site-packages/java_config_2/__pycache__/Virtual.cpython-38.opt-1.pyc
>>> /usr/lib/python3.8/site-packages/java_config_2/__pycache__/__init__.cpython-38.pyc
>>> /usr/lib/python3.8/site-packages/java_config_2/__pycache__/Errors.cpython-38.opt-1.pyc
>>> /usr/lib/python3.8/site-packages/java_config_2/__pycache__/FileParser.cpython-38.pyc
>>> /usr/lib/python3.8/site-packages/java_config_2/__pycache__/__init__.cpython-38.opt-1.pyc
>>> /usr/lib/python3.8/site-packages/java_config_2/__pycache__/FileParser.cpython-38.opt-2.pyc
>>> /usr/lib/python3.8/site-packages/java_config_2/__pycache__/VM.cpython-38.opt-1.pyc
>>> /usr/lib/python3.8/site-packages/java_config_2/__pycache__/OutputFormatter.cpython-38.opt-1.pyc
>>> /usr/lib/python3.8/site-packages/java_config_2/__pycache__/VersionManager.cpython-38.pyc
>>> /usr/lib/python3.8/site-packages/java_config_2/__pycache__/OutputFormatter.cpython-38.opt-2.pyc
>>> /usr/lib/python3.8/site-packages/java_config_2/__pycache__/VersionManager.cpython-38.opt-1.pyc
>>> /usr/lib/python3.8/site-packages/java_config_2/__pycache__/Errors.cpython-38.opt-2.pyc
>>> /usr/lib/python3.8/site-packages/java_config_2/__pycache__/VM.cpython-38.pyc
>>> /usr/lib/python3.8/site-packages/java_config_2/__pycache__/Virtual.cpython-38.pyc
>>> /usr/lib/python3.8/site-packages/java_config_2/__pycache__/FileParser.cpython-38.opt-1.pyc
>>> /usr/lib/python3.8/site-packages/java_config_2/FileParser.py
>>> /usr/lib/python3.8/site-packages/java_config_2/Virtual.py
>>> /usr/lib/python3.8/site-packages/java_config_2/VersionManager.py
>>> /usr/lib/python3.8/site-packages/java_config_2/__init__.py
>>> /usr/lib/python3.8/site-packages/java_config_2/Package.py
>>> /usr/lib/python3.8/site-packages/java_config_2/OutputFormatter.py
>>> Safely unmerging already-installed instance...
>>> Original instance of package unmerged safely.
>>> dev-java/java-config-2.2.0-r4 merged.
