No package files given... Grabbing a set.
--- replaced obj /usr/share/man/man8/saslpasswd2.8.bz2
--- replaced obj /usr/share/man/man8/sasldblistusers2.8.bz2
--- replaced obj /usr/share/man/man8/saslauthd.8.bz2
--- replaced obj /usr/share/man/man8/pluginviewer.8.bz2
--- replaced dir /usr/share/man/man8
--- replaced obj /usr/share/man/man3/sasl_verifyfile_t.3.bz2
--- replaced obj /usr/share/man/man3/sasl_user_exists.3.bz2
--- replaced obj /usr/share/man/man3/sasl_setprop.3.bz2
--- replaced obj /usr/share/man/man3/sasl_setpass.3.bz2
--- replaced obj /usr/share/man/man3/sasl_server_userdb_setpass_t.3.bz2
--- replaced obj /usr/share/man/man3/sasl_server_userdb_checkpass_t.3.bz2
--- replaced obj /usr/share/man/man3/sasl_server_step.3.bz2
--- replaced obj /usr/share/man/man3/sasl_server_start.3.bz2
--- replaced obj /usr/share/man/man3/sasl_server_new.3.bz2
--- replaced obj /usr/share/man/man3/sasl_server_init.3.bz2
--- replaced obj /usr/share/man/man3/sasl_log_t.3.bz2
--- replaced obj /usr/share/man/man3/sasl_listmech.3.bz2
--- replaced obj /usr/share/man/man3/sasl_idle.3.bz2
--- replaced obj /usr/share/man/man3/sasl_global_listmech.3.bz2
--- replaced obj /usr/share/man/man3/sasl_getsimple_t.3.bz2
--- replaced obj /usr/share/man/man3/sasl_getsecret_t.3.bz2
--- replaced obj /usr/share/man/man3/sasl_getrealm_t.3.bz2
--- replaced obj /usr/share/man/man3/sasl_getprop.3.bz2
--- replaced obj /usr/share/man/man3/sasl_getpath_t.3.bz2
--- replaced obj /usr/share/man/man3/sasl_getopt_t.3.bz2
--- replaced obj /usr/share/man/man3/sasl_getconfpath_t.3.bz2
--- replaced obj /usr/share/man/man3/sasl_errstring.3.bz2
--- replaced obj /usr/share/man/man3/sasl_errors.3.bz2
--- replaced obj /usr/share/man/man3/sasl_errdetail.3.bz2
--- replaced obj /usr/share/man/man3/sasl_encodev.3.bz2
--- replaced obj /usr/share/man/man3/sasl_encode.3.bz2
--- replaced obj /usr/share/man/man3/sasl_done.3.bz2
--- replaced obj /usr/share/man/man3/sasl_dispose.3.bz2
--- replaced obj /usr/share/man/man3/sasl_decode.3.bz2
--- replaced obj /usr/share/man/man3/sasl_client_step.3.bz2
--- replaced obj /usr/share/man/man3/sasl_client_start.3.bz2
--- replaced obj /usr/share/man/man3/sasl_client_new.3.bz2
--- replaced obj /usr/share/man/man3/sasl_client_init.3.bz2
--- replaced obj /usr/share/man/man3/sasl_checkpass.3.bz2
--- replaced obj /usr/share/man/man3/sasl_checkapop.3.bz2
--- replaced obj /usr/share/man/man3/sasl_chalprompt_t.3.bz2
--- replaced obj /usr/share/man/man3/sasl_canon_user_t.3.bz2
--- replaced obj /usr/share/man/man3/sasl_callbacks.3.bz2
--- replaced obj /usr/share/man/man3/sasl_auxprop_request.3.bz2
--- replaced obj /usr/share/man/man3/sasl_auxprop_getctx.3.bz2
--- replaced obj /usr/share/man/man3/sasl_auxprop.3.bz2
--- replaced obj /usr/share/man/man3/sasl_authorize_t.3.bz2
--- replaced obj /usr/share/man/man3/sasl.3.bz2
--- replaced dir /usr/share/man/man3
--- replaced dir /usr/share/man
--- replaced dir /usr/share
--- replaced obj /usr/sbin/testsaslauthd
--- replaced obj /usr/sbin/saslpasswd2
--- replaced obj /usr/sbin/sasldblistusers2
--- replaced obj /usr/sbin/saslauthd
--- replaced obj /usr/sbin/pwcheck
--- replaced obj /usr/sbin/pluginviewer
--- replaced dir /usr/sbin
--- replaced obj /usr/lib64/sasl2/libscram.so.3.0.0
--- replaced sym /usr/lib64/sasl2/libscram.so.3
--- replaced sym /usr/lib64/sasl2/libscram.so
--- replaced obj /usr/lib64/sasl2/libsasldb.so.3.0.0
--- replaced sym /usr/lib64/sasl2/libsasldb.so.3
--- replaced sym /usr/lib64/sasl2/libsasldb.so
--- replaced obj /usr/lib64/sasl2/libplain.so.3.0.0
--- replaced sym /usr/lib64/sasl2/libplain.so.3
--- replaced sym /usr/lib64/sasl2/libplain.so
--- replaced obj /usr/lib64/sasl2/libotp.so.3.0.0
--- replaced sym /usr/lib64/sasl2/libotp.so.3
--- replaced sym /usr/lib64/sasl2/libotp.so
--- replaced obj /usr/lib64/sasl2/libntlm.so.3.0.0
--- replaced sym /usr/lib64/sasl2/libntlm.so.3
--- replaced sym /usr/lib64/sasl2/libntlm.so
--- replaced obj /usr/lib64/sasl2/liblogin.so.3.0.0
--- replaced sym /usr/lib64/sasl2/liblogin.so.3
--- replaced sym /usr/lib64/sasl2/liblogin.so
--- replaced obj /usr/lib64/sasl2/libdigestmd5.so.3.0.0
--- replaced sym /usr/lib64/sasl2/libdigestmd5.so.3
--- replaced sym /usr/lib64/sasl2/libdigestmd5.so
--- replaced obj /usr/lib64/sasl2/libcrammd5.so.3.0.0
--- replaced sym /usr/lib64/sasl2/libcrammd5.so.3
--- replaced sym /usr/lib64/sasl2/libcrammd5.so
--- replaced obj /usr/lib64/sasl2/libanonymous.so.3.0.0
--- replaced sym /usr/lib64/sasl2/libanonymous.so.3
--- replaced sym /usr/lib64/sasl2/libanonymous.so
--- replaced dir /usr/lib64/sasl2
--- replaced obj /usr/lib64/pkgconfig/libsasl2.pc
--- replaced dir /usr/lib64/pkgconfig
--- replaced obj /usr/lib64/libsasl2.so.3.0.0
--- replaced sym /usr/lib64/libsasl2.so.3
--- replaced sym /usr/lib64/libsasl2.so
--- replaced dir /usr/lib64
--- replaced obj /usr/lib/tmpfiles.d/cyrus-sasl.conf
--- replaced dir /usr/lib/tmpfiles.d
--- replaced dir /usr/lib
--- replaced obj /usr/include/x86_64-pc-linux-gnu/sasl/md5global.h
--- replaced dir /usr/include/x86_64-pc-linux-gnu/sasl
--- replaced dir /usr/include/x86_64-pc-linux-gnu
--- replaced obj /usr/include/sasl/saslutil.h
--- replaced obj /usr/include/sasl/saslplug.h
--- replaced obj /usr/include/sasl/sasl.h
--- replaced obj /usr/include/sasl/prop.h
--- replaced obj /usr/include/sasl/md5global.h
--- replaced obj /usr/include/sasl/md5.h
--- replaced obj /usr/include/sasl/hmac-md5.h
--- replaced dir /usr/include/sasl
--- replaced dir /usr/include
--- replaced dir /usr
--- replaced obj /lib/systemd/system/saslauthd.service
--- replaced obj /lib/systemd/system/pwcheck.service
--- replaced dir /lib/systemd/system
--- replaced dir /lib/systemd
--- replaced dir /lib
--- replaced obj /etc/sasl2/.keep_dev-libs_cyrus-sasl-2
--- replaced dir /etc/sasl2
--- replaced obj /etc/pam.d/saslauthd
--- replaced dir /etc/pam.d
--- replaced obj /etc/init.d/saslauthd
--- replaced obj /etc/init.d/pwcheck
--- replaced dir /etc/init.d
--- replaced obj /etc/conf.d/saslauthd
--- replaced dir /etc/conf.d
--- replaced dir /etc
>>> Regenerating /etc/ld.so.cache...
