 * Package:    dev-libs/gobject-introspection-common-1.64.1
 * Repository: gentoo
 * Maintainer: gnome@gentoo.org
 * USE:        abi_x86_64 amd64 elibc_glibc kernel_linux userland_GNU
 * FEATURES:   network-sandbox preserve-libs sandbox userpriv usersandbox
 * FEATURES='assume-digests binpkg-docompress binpkg-dostrip binpkg-logs binpkg-multi-instance buildpkg cgroup compress-index config-protect-if-modified distlocks downgrade-backup fixlafiles ipc-sandbox merge-sync multilib-strict network-sandbox news nodoc parallel-fetch parallel-install pid-sandbox preserve-libs qa-unresolved-soname-deps sandbox sfperms strict strict-keepdir unknown-features-warn unmerge-backup unmerge-logs unmerge-orphans userfetch userpriv usersandbox usersync xattr'
 * CFLAGS='-march=native -O3 -fgraphite-identity -floop-nest-optimize -fdevirtualize-at-ltrans -fipa-pta -fno-semantic-interposition -flto=12 -fno-plt -fno-math-errno -fno-trapping-math -fuse-linker-plugin -pipe -g0 -falign-functions=32 -Wl,-O1 -Wl,--as-needed -Wl,--hash-style=gnu,-z,norelro,--as-needed'
 * CXXFLAGS='-march=native -O3 -fgraphite-identity -floop-nest-optimize -fdevirtualize-at-ltrans -fipa-pta -fno-semantic-interposition -flto=12 -fno-plt -fno-math-errno -fno-trapping-math -fuse-linker-plugin -pipe -g0 -falign-functions=32 -Wl,-O1 -Wl,--as-needed -Wl,--hash-style=gnu,-z,norelro,--as-needed'
 * FFLAGS='-march=native -O3 -fgraphite-identity -floop-nest-optimize -fdevirtualize-at-ltrans -fipa-pta -fno-semantic-interposition -flto=12 -fno-plt -fno-math-errno -fno-trapping-math -fuse-linker-plugin -pipe -g0 -falign-functions=32 -Wl,-O1 -Wl,--as-needed -Wl,--hash-style=gnu,-z,norelro,--as-needed'
 * FCFLAGS='-march=native -O3 -fgraphite-identity -floop-nest-optimize -fdevirtualize-at-ltrans -fipa-pta -fno-semantic-interposition -flto=12 -fno-plt -fno-math-errno -fno-trapping-math -fuse-linker-plugin -pipe -g0 -falign-functions=32 -Wl,-O1 -Wl,--as-needed -Wl,--hash-style=gnu,-z,norelro,--as-needed'
 * F77FLAGS='-march=native -O3 -fgraphite-identity -floop-nest-optimize -fdevirtualize-at-ltrans -fipa-pta -fno-semantic-interposition -flto=12 -fno-plt -fno-math-errno -fno-trapping-math -fuse-linker-plugin -pipe -g0 -falign-functions=32 -Wl,-O1 -Wl,--as-needed -Wl,--hash-style=gnu,-z,norelro,--as-needed'
 * LDFLAGS='-Wl,-O1 -Wl,--as-needed -Wl,--hash-style=gnu,-z,norelro,--as-needed -march=native -O3 -fgraphite-identity -floop-nest-optimize -fdevirtualize-at-ltrans -fipa-pta -fno-semantic-interposition -flto=12 -fno-plt -fno-math-errno -fno-trapping-math -fuse-linker-plugin -pipe -g0 -falign-functions=32'
 * MAKEOPTS='-j12 -l12'
 * gcc (Gentoo 11.0.0_pre9999 p1, commit 584d52b088f9fcf78704b504c3f1f07e17c1cded) 11.0.0 20200523 (experimental)
 * g++ (Gentoo 11.0.0_pre9999 p1, commit 584d52b088f9fcf78704b504c3f1f07e17c1cded) 11.0.0 20200523 (experimental)
 * GNU ld (Gentoo 2.34 p4) 2.34.0
 * Linux ryzen.gnum.org 5.4.36 #1 SMP Thu Apr 30 04:38:28 UTC 2020 x86_64 AMD Ryzen 5 3600 6-Core Processor AuthenticAMD GNU/Linux
dev-libs/gobject-introspection-common: 57 seconds average for 9 merges
2020-05-15T03:30:47 >>> dev-libs/gobject-introspection-common: 5 seconds
2020-05-20T01:02:47 >>> dev-libs/gobject-introspection-common: 19 seconds
2020-05-21T06:01:03 >>> dev-libs/gobject-introspection-common: 5 seconds
2020-05-22T03:19:20 >>> dev-libs/gobject-introspection-common: 15 seconds
2020-05-22T12:38:32 >>> dev-libs/gobject-introspection-common: 35 seconds
2020-05-23T03:40:15 >>> dev-libs/gobject-introspection-common: 1 minute, 44 seconds
2020-05-24T23:39:33 >>> dev-libs/gobject-introspection-common: 2 minutes, 47 seconds
2020-05-25T03:07:11 >>> dev-libs/gobject-introspection-common: 15 seconds
2020-05-25T18:25:28 >>> dev-libs/gobject-introspection-common: 2 minutes, 32 seconds
]0;emerge 19:58:55 97|647 gobject-introspection-common 01:51 (root@ryzen.gnum.org)kemerge 19:58:55 97|647 gobject-introspection-common 01:51 (root@ryzen.gnum.org)\>>> Unpacking source...
>>> Unpacking gobject-introspection-1.64.1.tar.xz to /tmp/portage/dev-libs/gobject-introspection-common-1.64.1/work
>>> Source unpacked in /tmp/portage/dev-libs/gobject-introspection-common-1.64.1/work
>>> Preparing source in /tmp/portage/dev-libs/gobject-introspection-common-1.64.1/work/gobject-introspection-1.64.1 ...
>>> Source prepared.
>>> Configuring source in /tmp/portage/dev-libs/gobject-introspection-common-1.64.1/work/gobject-introspection-1.64.1 ...
>>> Source configured.
>>> Compiling source in /tmp/portage/dev-libs/gobject-introspection-common-1.64.1/work/gobject-introspection-1.64.1 ...
>>> Source compiled.
>>> Test phase [not enabled]: dev-libs/gobject-introspection-common-1.64.1

>>> Install dev-libs/gobject-introspection-common-1.64.1 into /tmp/portage/dev-libs/gobject-introspection-common-1.64.1/image
>>> Completed installing dev-libs/gobject-introspection-common-1.64.1 into /tmp/portage/dev-libs/gobject-introspection-common-1.64.1/image

 * Final size of build directory: 15332 KiB (14.9 MiB)
 * Final size of installed tree:     36 KiB

./
./usr/
./usr/share/
./usr/share/aclocal/
./usr/share/aclocal/introspection.m4
./usr/share/gobject-introspection-1.0/
./usr/share/gobject-introspection-1.0/Makefile.introspection
>>> Done.
 * checking 2 files for package collisions
>>> Merging dev-libs/gobject-introspection-common-1.64.1 to /
 * removing unneeded *.la files
--- /usr/
--- /usr/share/
--- /usr/share/gobject-introspection-1.0/
>>> /usr/share/gobject-introspection-1.0/Makefile.introspection
--- /usr/share/aclocal/
>>> /usr/share/aclocal/introspection.m4
>>> Safely unmerging already-installed instance...
>>> Original instance of package unmerged safely.
>>> dev-libs/gobject-introspection-common-1.64.1 merged.
