No package files given... Grabbing a set.
--- replaced obj /usr/lib64/python3.6/site-packages/msgpack/fallback.py
--- replaced obj /usr/lib64/python3.6/site-packages/msgpack/exceptions.py
--- replaced obj /usr/lib64/python3.6/site-packages/msgpack/_version.py
--- replaced obj /usr/lib64/python3.6/site-packages/msgpack/_cmsgpack.cpython-36m-x86_64-linux-gnu.so
--- replaced obj /usr/lib64/python3.6/site-packages/msgpack/__pycache__/fallback.cpython-36.pyc
--- replaced obj /usr/lib64/python3.6/site-packages/msgpack/__pycache__/fallback.cpython-36.opt-2.pyc
--- replaced obj /usr/lib64/python3.6/site-packages/msgpack/__pycache__/fallback.cpython-36.opt-1.pyc
--- replaced obj /usr/lib64/python3.6/site-packages/msgpack/__pycache__/exceptions.cpython-36.pyc
--- replaced obj /usr/lib64/python3.6/site-packages/msgpack/__pycache__/exceptions.cpython-36.opt-2.pyc
--- replaced obj /usr/lib64/python3.6/site-packages/msgpack/__pycache__/exceptions.cpython-36.opt-1.pyc
--- replaced obj /usr/lib64/python3.6/site-packages/msgpack/__pycache__/_version.cpython-36.pyc
--- replaced obj /usr/lib64/python3.6/site-packages/msgpack/__pycache__/_version.cpython-36.opt-2.pyc
--- replaced obj /usr/lib64/python3.6/site-packages/msgpack/__pycache__/_version.cpython-36.opt-1.pyc
--- replaced obj /usr/lib64/python3.6/site-packages/msgpack/__pycache__/__init__.cpython-36.pyc
--- replaced obj /usr/lib64/python3.6/site-packages/msgpack/__pycache__/__init__.cpython-36.opt-2.pyc
--- replaced obj /usr/lib64/python3.6/site-packages/msgpack/__pycache__/__init__.cpython-36.opt-1.pyc
--- replaced dir /usr/lib64/python3.6/site-packages/msgpack/__pycache__
--- replaced obj /usr/lib64/python3.6/site-packages/msgpack/__init__.py
--- replaced obj /usr/lib64/python3.6/site-packages/msgpack-0.6.2-py3.6.egg-info/top_level.txt
--- replaced obj /usr/lib64/python3.6/site-packages/msgpack-0.6.2-py3.6.egg-info/dependency_links.txt
--- replaced obj /usr/lib64/python3.6/site-packages/msgpack-0.6.2-py3.6.egg-info/SOURCES.txt
--- replaced obj /usr/lib64/python3.6/site-packages/msgpack-0.6.2-py3.6.egg-info/PKG-INFO
--- replaced dir /usr/lib64/python3.6/site-packages/msgpack-0.6.2-py3.6.egg-info
--- replaced dir /usr/lib64/python3.6/site-packages/msgpack
--- replaced dir /usr/lib64/python3.6/site-packages
--- replaced dir /usr/lib64/python3.6
--- replaced dir /usr/lib64
--- replaced obj /usr/lib/python3.8/site-packages/msgpack/fallback.py
--- replaced obj /usr/lib/python3.8/site-packages/msgpack/exceptions.py
--- replaced obj /usr/lib/python3.8/site-packages/msgpack/_version.py
--- replaced obj /usr/lib/python3.8/site-packages/msgpack/_cmsgpack.cpython-38-x86_64-linux-gnu.so
--- replaced obj /usr/lib/python3.8/site-packages/msgpack/__pycache__/fallback.cpython-38.pyc
--- replaced obj /usr/lib/python3.8/site-packages/msgpack/__pycache__/fallback.cpython-38.opt-2.pyc
--- replaced obj /usr/lib/python3.8/site-packages/msgpack/__pycache__/fallback.cpython-38.opt-1.pyc
--- replaced obj /usr/lib/python3.8/site-packages/msgpack/__pycache__/exceptions.cpython-38.pyc
--- replaced obj /usr/lib/python3.8/site-packages/msgpack/__pycache__/exceptions.cpython-38.opt-2.pyc
--- replaced obj /usr/lib/python3.8/site-packages/msgpack/__pycache__/exceptions.cpython-38.opt-1.pyc
--- replaced obj /usr/lib/python3.8/site-packages/msgpack/__pycache__/_version.cpython-38.pyc
--- replaced obj /usr/lib/python3.8/site-packages/msgpack/__pycache__/_version.cpython-38.opt-2.pyc
--- replaced obj /usr/lib/python3.8/site-packages/msgpack/__pycache__/_version.cpython-38.opt-1.pyc
--- replaced obj /usr/lib/python3.8/site-packages/msgpack/__pycache__/__init__.cpython-38.pyc
--- replaced obj /usr/lib/python3.8/site-packages/msgpack/__pycache__/__init__.cpython-38.opt-2.pyc
--- replaced obj /usr/lib/python3.8/site-packages/msgpack/__pycache__/__init__.cpython-38.opt-1.pyc
--- replaced dir /usr/lib/python3.8/site-packages/msgpack/__pycache__
--- replaced obj /usr/lib/python3.8/site-packages/msgpack/__init__.py
--- replaced obj /usr/lib/python3.8/site-packages/msgpack-0.6.2-py3.8.egg-info/top_level.txt
--- replaced obj /usr/lib/python3.8/site-packages/msgpack-0.6.2-py3.8.egg-info/dependency_links.txt
--- replaced obj /usr/lib/python3.8/site-packages/msgpack-0.6.2-py3.8.egg-info/SOURCES.txt
--- replaced obj /usr/lib/python3.8/site-packages/msgpack-0.6.2-py3.8.egg-info/PKG-INFO
--- replaced dir /usr/lib/python3.8/site-packages/msgpack-0.6.2-py3.8.egg-info
--- replaced dir /usr/lib/python3.8/site-packages/msgpack
--- replaced dir /usr/lib/python3.8/site-packages
--- replaced dir /usr/lib/python3.8
--- replaced obj /usr/lib/python3.7/site-packages/msgpack/fallback.py
--- replaced obj /usr/lib/python3.7/site-packages/msgpack/exceptions.py
--- replaced obj /usr/lib/python3.7/site-packages/msgpack/_version.py
--- replaced obj /usr/lib/python3.7/site-packages/msgpack/_cmsgpack.cpython-37m-x86_64-linux-gnu.so
--- replaced obj /usr/lib/python3.7/site-packages/msgpack/__pycache__/fallback.cpython-37.pyc
--- replaced obj /usr/lib/python3.7/site-packages/msgpack/__pycache__/fallback.cpython-37.opt-2.pyc
--- replaced obj /usr/lib/python3.7/site-packages/msgpack/__pycache__/fallback.cpython-37.opt-1.pyc
--- replaced obj /usr/lib/python3.7/site-packages/msgpack/__pycache__/exceptions.cpython-37.pyc
--- replaced obj /usr/lib/python3.7/site-packages/msgpack/__pycache__/exceptions.cpython-37.opt-2.pyc
--- replaced obj /usr/lib/python3.7/site-packages/msgpack/__pycache__/exceptions.cpython-37.opt-1.pyc
--- replaced obj /usr/lib/python3.7/site-packages/msgpack/__pycache__/_version.cpython-37.pyc
--- replaced obj /usr/lib/python3.7/site-packages/msgpack/__pycache__/_version.cpython-37.opt-2.pyc
--- replaced obj /usr/lib/python3.7/site-packages/msgpack/__pycache__/_version.cpython-37.opt-1.pyc
--- replaced obj /usr/lib/python3.7/site-packages/msgpack/__pycache__/__init__.cpython-37.pyc
--- replaced obj /usr/lib/python3.7/site-packages/msgpack/__pycache__/__init__.cpython-37.opt-2.pyc
--- replaced obj /usr/lib/python3.7/site-packages/msgpack/__pycache__/__init__.cpython-37.opt-1.pyc
--- replaced dir /usr/lib/python3.7/site-packages/msgpack/__pycache__
--- replaced obj /usr/lib/python3.7/site-packages/msgpack/__init__.py
--- replaced obj /usr/lib/python3.7/site-packages/msgpack-0.6.2-py3.7.egg-info/top_level.txt
--- replaced obj /usr/lib/python3.7/site-packages/msgpack-0.6.2-py3.7.egg-info/dependency_links.txt
--- replaced obj /usr/lib/python3.7/site-packages/msgpack-0.6.2-py3.7.egg-info/SOURCES.txt
--- replaced obj /usr/lib/python3.7/site-packages/msgpack-0.6.2-py3.7.egg-info/PKG-INFO
--- replaced dir /usr/lib/python3.7/site-packages/msgpack-0.6.2-py3.7.egg-info
--- replaced dir /usr/lib/python3.7/site-packages/msgpack
--- replaced dir /usr/lib/python3.7/site-packages
--- replaced dir /usr/lib/python3.7
--- replaced obj /usr/lib/pypy3.6/site-packages/msgpack/fallback.py
--- replaced obj /usr/lib/pypy3.6/site-packages/msgpack/exceptions.py
--- replaced obj /usr/lib/pypy3.6/site-packages/msgpack/_version.py
--- replaced obj /usr/lib/pypy3.6/site-packages/msgpack/__pycache__/fallback.pypy36.pyc
--- replaced obj /usr/lib/pypy3.6/site-packages/msgpack/__pycache__/fallback.pypy36.opt-2.pyc
--- replaced obj /usr/lib/pypy3.6/site-packages/msgpack/__pycache__/fallback.pypy36.opt-1.pyc
--- replaced obj /usr/lib/pypy3.6/site-packages/msgpack/__pycache__/exceptions.pypy36.pyc
--- replaced obj /usr/lib/pypy3.6/site-packages/msgpack/__pycache__/exceptions.pypy36.opt-2.pyc
--- replaced obj /usr/lib/pypy3.6/site-packages/msgpack/__pycache__/exceptions.pypy36.opt-1.pyc
--- replaced obj /usr/lib/pypy3.6/site-packages/msgpack/__pycache__/_version.pypy36.pyc
--- replaced obj /usr/lib/pypy3.6/site-packages/msgpack/__pycache__/_version.pypy36.opt-2.pyc
--- replaced obj /usr/lib/pypy3.6/site-packages/msgpack/__pycache__/_version.pypy36.opt-1.pyc
--- replaced obj /usr/lib/pypy3.6/site-packages/msgpack/__pycache__/__init__.pypy36.pyc
--- replaced obj /usr/lib/pypy3.6/site-packages/msgpack/__pycache__/__init__.pypy36.opt-2.pyc
--- replaced obj /usr/lib/pypy3.6/site-packages/msgpack/__pycache__/__init__.pypy36.opt-1.pyc
--- replaced dir /usr/lib/pypy3.6/site-packages/msgpack/__pycache__
--- replaced obj /usr/lib/pypy3.6/site-packages/msgpack/__init__.py
--- replaced obj /usr/lib/pypy3.6/site-packages/msgpack-0.6.2-py3.6.egg-info/top_level.txt
--- replaced obj /usr/lib/pypy3.6/site-packages/msgpack-0.6.2-py3.6.egg-info/dependency_links.txt
--- replaced obj /usr/lib/pypy3.6/site-packages/msgpack-0.6.2-py3.6.egg-info/SOURCES.txt
--- replaced obj /usr/lib/pypy3.6/site-packages/msgpack-0.6.2-py3.6.egg-info/PKG-INFO
--- replaced dir /usr/lib/pypy3.6/site-packages/msgpack-0.6.2-py3.6.egg-info
--- replaced dir /usr/lib/pypy3.6/site-packages/msgpack
--- replaced dir /usr/lib/pypy3.6/site-packages
--- replaced dir /usr/lib/pypy3.6
--- replaced dir /usr/lib
--- replaced dir /usr
>>> Regenerating /etc/ld.so.cache...
