No package files given... Grabbing a set.
--- replaced obj /usr/lib64/perl5/vendor_perl/5.30.3/x86_64-linux-thread-multi/auto/Specio/.packlist
--- replaced dir /usr/lib64/perl5/vendor_perl/5.30.3/x86_64-linux-thread-multi/auto/Specio
--- replaced dir /usr/lib64/perl5/vendor_perl/5.30.3/x86_64-linux-thread-multi/auto
--- replaced dir /usr/lib64/perl5/vendor_perl/5.30.3/x86_64-linux-thread-multi
--- replaced obj /usr/lib64/perl5/vendor_perl/5.30.3/Test/Specio.pm
--- replaced dir /usr/lib64/perl5/vendor_perl/5.30.3/Test
--- replaced obj /usr/lib64/perl5/vendor_perl/5.30.3/Specio/TypeChecks.pm
--- replaced obj /usr/lib64/perl5/vendor_perl/5.30.3/Specio/Subs.pm
--- replaced obj /usr/lib64/perl5/vendor_perl/5.30.3/Specio/Role/Inlinable.pm
--- replaced dir /usr/lib64/perl5/vendor_perl/5.30.3/Specio/Role
--- replaced obj /usr/lib64/perl5/vendor_perl/5.30.3/Specio/Registry.pm
--- replaced obj /usr/lib64/perl5/vendor_perl/5.30.3/Specio/PartialDump.pm
--- replaced obj /usr/lib64/perl5/vendor_perl/5.30.3/Specio/OO.pm
--- replaced obj /usr/lib64/perl5/vendor_perl/5.30.3/Specio/Library/Structured/Tuple.pm
--- replaced obj /usr/lib64/perl5/vendor_perl/5.30.3/Specio/Library/Structured/Map.pm
--- replaced obj /usr/lib64/perl5/vendor_perl/5.30.3/Specio/Library/Structured/Dict.pm
--- replaced obj /usr/lib64/perl5/vendor_perl/5.30.3/Specio/Library/Structured.pm
--- replaced dir /usr/lib64/perl5/vendor_perl/5.30.3/Specio/Library/Structured
--- replaced obj /usr/lib64/perl5/vendor_perl/5.30.3/Specio/Library/String.pm
--- replaced obj /usr/lib64/perl5/vendor_perl/5.30.3/Specio/Library/Perl.pm
--- replaced obj /usr/lib64/perl5/vendor_perl/5.30.3/Specio/Library/Numeric.pm
--- replaced obj /usr/lib64/perl5/vendor_perl/5.30.3/Specio/Library/Builtins.pm
--- replaced dir /usr/lib64/perl5/vendor_perl/5.30.3/Specio/Library
--- replaced obj /usr/lib64/perl5/vendor_perl/5.30.3/Specio/Helpers.pm
--- replaced obj /usr/lib64/perl5/vendor_perl/5.30.3/Specio/Exporter.pm
--- replaced obj /usr/lib64/perl5/vendor_perl/5.30.3/Specio/Exception.pm
--- replaced obj /usr/lib64/perl5/vendor_perl/5.30.3/Specio/DeclaredAt.pm
--- replaced obj /usr/lib64/perl5/vendor_perl/5.30.3/Specio/Declare.pm
--- replaced obj /usr/lib64/perl5/vendor_perl/5.30.3/Specio/Constraint/Union.pm
--- replaced obj /usr/lib64/perl5/vendor_perl/5.30.3/Specio/Constraint/Structured.pm
--- replaced obj /usr/lib64/perl5/vendor_perl/5.30.3/Specio/Constraint/Structurable.pm
--- replaced obj /usr/lib64/perl5/vendor_perl/5.30.3/Specio/Constraint/Simple.pm
--- replaced obj /usr/lib64/perl5/vendor_perl/5.30.3/Specio/Constraint/Role/IsaType.pm
--- replaced obj /usr/lib64/perl5/vendor_perl/5.30.3/Specio/Constraint/Role/Interface.pm
--- replaced obj /usr/lib64/perl5/vendor_perl/5.30.3/Specio/Constraint/Role/DoesType.pm
--- replaced obj /usr/lib64/perl5/vendor_perl/5.30.3/Specio/Constraint/Role/CanType.pm
--- replaced dir /usr/lib64/perl5/vendor_perl/5.30.3/Specio/Constraint/Role
--- replaced obj /usr/lib64/perl5/vendor_perl/5.30.3/Specio/Constraint/Parameterized.pm
--- replaced obj /usr/lib64/perl5/vendor_perl/5.30.3/Specio/Constraint/Parameterizable.pm
--- replaced obj /usr/lib64/perl5/vendor_perl/5.30.3/Specio/Constraint/ObjectIsa.pm
--- replaced obj /usr/lib64/perl5/vendor_perl/5.30.3/Specio/Constraint/ObjectDoes.pm
--- replaced obj /usr/lib64/perl5/vendor_perl/5.30.3/Specio/Constraint/ObjectCan.pm
--- replaced obj /usr/lib64/perl5/vendor_perl/5.30.3/Specio/Constraint/Intersection.pm
--- replaced obj /usr/lib64/perl5/vendor_perl/5.30.3/Specio/Constraint/Enum.pm
--- replaced obj /usr/lib64/perl5/vendor_perl/5.30.3/Specio/Constraint/AnyIsa.pm
--- replaced obj /usr/lib64/perl5/vendor_perl/5.30.3/Specio/Constraint/AnyDoes.pm
--- replaced obj /usr/lib64/perl5/vendor_perl/5.30.3/Specio/Constraint/AnyCan.pm
--- replaced dir /usr/lib64/perl5/vendor_perl/5.30.3/Specio/Constraint
--- replaced obj /usr/lib64/perl5/vendor_perl/5.30.3/Specio/Coercion.pm
--- replaced obj /usr/lib64/perl5/vendor_perl/5.30.3/Specio.pm
--- replaced dir /usr/lib64/perl5/vendor_perl/5.30.3/Specio
--- replaced dir /usr/lib64/perl5/vendor_perl/5.30.3
--- replaced dir /usr/lib64/perl5/vendor_perl
--- replaced dir /usr/lib64/perl5
--- replaced dir /usr/lib64
--- replaced dir /usr
>>> Regenerating /etc/ld.so.cache...
