No package files given... Grabbing a set.
--- replaced obj /usr/share/man/man1/pkg-config.1.bz2
--- replaced dir /usr/share/man/man1
--- replaced dir /usr/share/man
--- replaced obj /usr/share/aclocal/pkg.m4
--- replaced dir /usr/share/aclocal
--- replaced dir /usr/share
--- replaced obj /usr/bin/x86_64-pc-linux-gnu-pkg-config
--- replaced obj /usr/bin/pkg-config
--- replaced dir /usr/bin
--- replaced dir /usr
>>> Regenerating /etc/ld.so.cache...
