>>> Extracting info
 * Package:    dev-libs/libltdl-2.4.6
 * Repository: gentoo
 * USE:        userland_GNU abi_x86_64 kernel_linux amd64 elibc_glibc
 * FEATURES:   ccache network-sandbox preserve-libs sandbox userpriv usersandbox
 * /etc/portage/package.cflags/ltoworkarounds.conf -> dev-libs/libltdl: *FLAGS-=-flto*
 * /etc/portage/package.cflags/ltoworkarounds.conf -> dev-libs/libltdl: *FLAGS-="${NOCOMMON}" # builds but causes symbol lookup errors
 * FEATURES='assume-digests binpkg-docompress binpkg-dostrip binpkg-logs binpkg-multi-instance buildpkg ccache compress-index config-protect-if-modified distlocks downgrade-backup fixlafiles ipc-sandbox merge-sync multilib-strict network-sandbox news nodoc parallel-fetch parallel-install pid-sandbox preserve-libs qa-unresolved-soname-deps sandbox sfperms strict unknown-features-warn unmerge-backup unmerge-logs unmerge-orphans userfetch userpriv usersandbox usersync xattr'
 * CFLAGS='-march=znver2 -O3 -fgraphite-identity -floop-nest-optimize -fdevirtualize-at-ltrans -fipa-pta -fno-semantic-interposition -fno-plt -fno-signed-zeros -fno-trapping-math -fassociative-math -freciprocal-math -fno-math-errno -ffinite-math-only -fno-rounding-math -fno-signaling-nans -fcx-limited-range -fexcess-precision=fast -falign-functions=32 -fno-stack-protector -fno-stack-clash-protection -fstack-check=no -fno-stack-check -fuse-linker-plugin -pipe -g0 -Wl,-O1 -Wl,--as-needed -Wl,-z,norelro -Wl,-z,now -Wl,--sort-common -s'
 * CXXFLAGS='-march=znver2 -O3 -fgraphite-identity -floop-nest-optimize -fdevirtualize-at-ltrans -fipa-pta -fno-semantic-interposition -fno-plt -fno-signed-zeros -fno-trapping-math -fassociative-math -freciprocal-math -fno-math-errno -ffinite-math-only -fno-rounding-math -fno-signaling-nans -fcx-limited-range -fexcess-precision=fast -falign-functions=32 -fno-stack-protector -fno-stack-clash-protection -fstack-check=no -fno-stack-check -fuse-linker-plugin -pipe -g0 -Wl,-O1 -Wl,--as-needed -Wl,-z,norelro -Wl,-z,now -Wl,--sort-common -s'
 * FFLAGS='-march=znver2 -O3 -fgraphite-identity -floop-nest-optimize -fdevirtualize-at-ltrans -fipa-pta -fno-semantic-interposition -fno-plt -fno-signed-zeros -fno-trapping-math -fassociative-math -freciprocal-math -fno-math-errno -ffinite-math-only -fno-rounding-math -fno-signaling-nans -fcx-limited-range -fexcess-precision=fast -falign-functions=32 -fno-stack-protector -fno-stack-clash-protection -fstack-check=no -fno-stack-check -fuse-linker-plugin -pipe -g0 -Wl,-O1 -Wl,--as-needed -Wl,-z,norelro -Wl,-z,now -Wl,--sort-common -s'
 * FCFLAGS='-march=znver2 -O3 -fgraphite-identity -floop-nest-optimize -fdevirtualize-at-ltrans -fipa-pta -fno-semantic-interposition -fno-plt -fno-signed-zeros -fno-trapping-math -fassociative-math -freciprocal-math -fno-math-errno -ffinite-math-only -fno-rounding-math -fno-signaling-nans -fcx-limited-range -fexcess-precision=fast -falign-functions=32 -fno-stack-protector -fno-stack-clash-protection -fstack-check=no -fno-stack-check -fuse-linker-plugin -pipe -g0 -Wl,-O1 -Wl,--as-needed -Wl,-z,norelro -Wl,-z,now -Wl,--sort-common -s'
 * F77FLAGS='-march=znver2 -O3 -fgraphite-identity -floop-nest-optimize -fdevirtualize-at-ltrans -fipa-pta -fno-semantic-interposition -fno-plt -fno-signed-zeros -fno-trapping-math -fassociative-math -freciprocal-math -fno-math-errno -ffinite-math-only -fno-rounding-math -fno-signaling-nans -fcx-limited-range -fexcess-precision=fast -falign-functions=32 -fno-stack-protector -fno-stack-clash-protection -fstack-check=no -fno-stack-check -fuse-linker-plugin -pipe -g0 -Wl,-O1 -Wl,--as-needed -Wl,-z,norelro -Wl,-z,now -Wl,--sort-common -s'
 * LDFLAGS='-Wl,-O1 -Wl,--as-needed -Wl,-z,norelro -Wl,-z,now -Wl,--sort-common -s'
 * MAKEOPTS='-j12 -l12'
 * gcc () 11.0.0 20200530 (experimental)
 * g++ () 11.0.0 20200530 (experimental)
 * GNU ld (Gentoo 2.34 p4) 2.34.0
 * Linux ryzen.gnum.org 5.4.36 #1 SMP Thu Apr 30 04:38:28 UTC 2020 x86_64 AMD Ryzen 5 3600 6-Core Processor AuthenticAMD GNU/Linux
dev-libs/libltdl: 1 minute, 40 seconds average for 23 merges
2020-05-20T01:02:48 >>> dev-libs/libltdl: 23 seconds
2020-05-21T06:00:53 >>> dev-libs/libltdl: 5 seconds
2020-05-22T02:04:35 >>> dev-libs/libltdl: 3 minutes, 23 seconds
2020-05-22T03:16:31 >>> dev-libs/libltdl: 2 minutes, 33 seconds
2020-05-22T12:08:03 >>> dev-libs/libltdl: 6 seconds
2020-05-22T12:35:49 >>> dev-libs/libltdl: 2 minutes, 27 seconds
2020-05-22T13:01:58 >>> dev-libs/libltdl: 6 seconds
2020-05-22T13:03:07 >>> dev-libs/libltdl: 17 seconds
2020-05-23T03:37:31 >>> dev-libs/libltdl: 2 minutes, 27 seconds
2020-05-24T22:43:29 >>> dev-libs/libltdl: 4 minutes, 24 seconds
2020-05-24T23:33:10 >>> dev-libs/libltdl: 5 minutes, 12 seconds
2020-05-25T03:07:11 >>> dev-libs/libltdl: 19 seconds
2020-05-25T14:41:44 >>> dev-libs/libltdl: 56 seconds
2020-05-25T18:25:35 >>> dev-libs/libltdl: 2 minutes, 44 seconds
2020-05-25T19:58:55 >>> dev-libs/libltdl: 1 minute, 52 seconds
2020-05-26T12:57:10 >>> dev-libs/libltdl: 2 minutes, 14 seconds
2020-05-26T13:53:39 >>> dev-libs/libltdl: 25 seconds
2020-05-27T01:33:08 >>> dev-libs/libltdl: 27 seconds
2020-05-27T03:13:16 >>> dev-libs/libltdl: 2 minutes, 26 seconds
2020-05-28T13:33:33 >>> dev-libs/libltdl: 2 minutes, 24 seconds
2020-05-28T14:19:13 >>> dev-libs/libltdl: 20 seconds
2020-05-29T01:40:59 >>> dev-libs/libltdl: 29 seconds
2020-05-30T12:41:21 >>> dev-libs/libltdl: 2 minutes, 36 seconds
]0;emerge 21:39:13 138|1110 libltdl 01:08 (root@ryzen.gnum.org)kemerge 21:39:13 138|1110 libltdl 01:08 (root@ryzen.gnum.org)\>>> Extracting dev-libs/libltdl-2.4.6
 * checking 8 files for package collisions
>>> Merging dev-libs/libltdl-2.4.6 to /
 * removing unneeded *.la files
--- /usr/
--- /usr/lib64/
>>> /usr/lib64/libltdl.la
>>> /usr/lib64/libltdl.so.7.3.1
>>> /usr/lib64/libltdl.so.7 -> libltdl.so.7.3.1
>>> /usr/lib64/libltdl.so -> libltdl.so.7.3.1
--- /usr/include/
>>> /usr/include/ltdl.h
--- /usr/include/libltdl/
>>> /usr/include/libltdl/lt_dlloader.h
>>> /usr/include/libltdl/lt_system.h
>>> /usr/include/libltdl/lt_error.h
>>> Safely unmerging already-installed instance...
>>> Original instance of package unmerged safely.
>>> dev-libs/libltdl-2.4.6 merged.
>>> Regenerating /etc/ld.so.cache...
