No package files given... Grabbing a set.
--- replaced obj /usr/share/man/man1/mdb_stat.1.bz2
--- replaced obj /usr/share/man/man1/mdb_load.1.bz2
--- replaced obj /usr/share/man/man1/mdb_dump.1.bz2
--- replaced obj /usr/share/man/man1/mdb_copy.1.bz2
--- replaced dir /usr/share/man/man1
--- replaced dir /usr/share/man
<<<          obj /usr/share/doc/lmdb-0.9.24/CHANGES.bz2
--- replaced dir /usr/share
--- replaced obj /usr/lib64/pkgconfig/lmdb.pc
--- replaced dir /usr/lib64/pkgconfig
--- replaced obj /usr/lib64/liblmdb.so.0
--- replaced sym /usr/lib64/liblmdb.so
--- replaced dir /usr/lib64
--- replaced obj /usr/include/lmdb.h
--- replaced dir /usr/include
--- replaced obj /usr/bin/mdb_stat
--- replaced obj /usr/bin/mdb_load
--- replaced obj /usr/bin/mdb_dump
--- replaced obj /usr/bin/mdb_copy
--- replaced dir /usr/bin
--- replaced dir /usr
<<<          dir /usr/share/doc/lmdb-0.9.24
--- !empty   dir /usr/share/doc
>>> Regenerating /etc/ld.so.cache...
