>>> Extracting info
[32;01m * [39;49;00mPackage:    dev-libs/utfcpp-3.1
[32;01m * [39;49;00mRepository: gentoo
[32;01m * [39;49;00mUSE:        userland_GNU abi_x86_64 elibc_glibc kernel_linux amd64
[32;01m * [39;49;00mFEATURES:   ccache network-sandbox preserve-libs sandbox userpriv usersandbox
 [32;01m*[0m FEATURES='downgrade-backup unmerge-orphans usersync distlocks binpkg-dostrip strict-keepdir binpkg-logs assume-digests buildpkg news fixlafiles cgroup binpkg-docompress preserve-libs ipc-sandbox userfetch binpkg-multi-instance sandbox parallel-fetch nodoc compress-index xattr unmerge-backup usersandbox multilib-strict pid-sandbox config-protect-if-modified strict userpriv sfperms unknown-features-warn unmerge-logs qa-unresolved-soname-deps parallel-install network-sandbox merge-sync ccache'
 [32;01m*[0m CFLAGS='-march=native -O3 -fgraphite-identity -floop-nest-optimize -fdevirtualize-at-ltrans -fipa-pta -fno-semantic-interposition -flto=12 -fno-signed-zeros -fno-trapping-math -fassociative-math -freciprocal-math -fno-math-errno -ffinite-math-only -fno-rounding-math -fno-signaling-nans -fcx-limited-range -fexcess-precision=fast -fno-plt -fno-common -fuse-linker-plugin -pipe -g0 -fno-stack-protector -fno-stack-clash-protection -fstack-check=no -fno-stack-check -Wl,-O4,--hash-style=gnu,--sort-common,--as-needed,-z,relro,-z,now,-lgomp,-lpthread'
 [32;01m*[0m CXXFLAGS='-march=native -O3 -fgraphite-identity -floop-nest-optimize -fdevirtualize-at-ltrans -fipa-pta -fno-semantic-interposition -flto=12 -fno-signed-zeros -fno-trapping-math -fassociative-math -freciprocal-math -fno-math-errno -ffinite-math-only -fno-rounding-math -fno-signaling-nans -fcx-limited-range -fexcess-precision=fast -fno-plt -fno-common -fuse-linker-plugin -pipe -g0 -fno-stack-protector -fno-stack-clash-protection -fstack-check=no -fno-stack-check -Wl,-O4,--hash-style=gnu,--sort-common,--as-needed,-z,relro,-z,now,-lgomp,-lpthread'
 [32;01m*[0m FFLAGS='-march=native -O3 -fgraphite-identity -floop-nest-optimize -fdevirtualize-at-ltrans -fipa-pta -fno-semantic-interposition -flto=12 -fno-signed-zeros -fno-trapping-math -fassociative-math -freciprocal-math -fno-math-errno -ffinite-math-only -fno-rounding-math -fno-signaling-nans -fcx-limited-range -fexcess-precision=fast -fno-plt -fno-common -fuse-linker-plugin -pipe -g0 -fno-stack-protector -fno-stack-clash-protection -fstack-check=no -fno-stack-check -Wl,-O4,--hash-style=gnu,--sort-common,--as-needed,-z,relro,-z,now,-lgomp,-lpthread'
 [32;01m*[0m FCFLAGS='-march=native -O3 -fgraphite-identity -floop-nest-optimize -fdevirtualize-at-ltrans -fipa-pta -fno-semantic-interposition -flto=12 -fno-signed-zeros -fno-trapping-math -fassociative-math -freciprocal-math -fno-math-errno -ffinite-math-only -fno-rounding-math -fno-signaling-nans -fcx-limited-range -fexcess-precision=fast -fno-plt -fno-common -fuse-linker-plugin -pipe -g0 -fno-stack-protector -fno-stack-clash-protection -fstack-check=no -fno-stack-check -Wl,-O4,--hash-style=gnu,--sort-common,--as-needed,-z,relro,-z,now,-lgomp,-lpthread'
 [32;01m*[0m F77FLAGS='-march=native -O3 -fgraphite-identity -floop-nest-optimize -fdevirtualize-at-ltrans -fipa-pta -fno-semantic-interposition -flto=12 -fno-signed-zeros -fno-trapping-math -fassociative-math -freciprocal-math -fno-math-errno -ffinite-math-only -fno-rounding-math -fno-signaling-nans -fcx-limited-range -fexcess-precision=fast -fno-plt -fno-common -fuse-linker-plugin -pipe -g0 -fno-stack-protector -fno-stack-clash-protection -fstack-check=no -fno-stack-check -Wl,-O4,--hash-style=gnu,--sort-common,--as-needed,-z,relro,-z,now,-lgomp,-lpthread'
 [32;01m*[0m LDFLAGS='-Wl,-O4,--hash-style=gnu,--sort-common,--as-needed,-z,relro,-z,now,-lgomp,-lpthread -march=native -O3 -fgraphite-identity -floop-nest-optimize -fdevirtualize-at-ltrans -fipa-pta -fno-semantic-interposition -flto=12 -fno-signed-zeros -fno-trapping-math -fassociative-math -freciprocal-math -fno-math-errno -ffinite-math-only -fno-rounding-math -fno-signaling-nans -fcx-limited-range -fexcess-precision=fast -fno-plt -fno-common -fuse-linker-plugin -pipe -g0 -fno-stack-protector -fno-stack-clash-protection -fstack-check=no -fno-stack-check'
 [32;01m*[0m MAKEOPTS='-j12'
 [32;01m*[0m gcc (Gentoo 10.1.0 p1) 10.1.0
 [32;01m*[0m g++ (Gentoo 10.1.0 p1) 10.1.0
 [32;01m*[0m GNU ld (Gentoo 9999 p5) 2.34.50.20200520
 [32;01m*[0m Linux ryzen.gnum.org 5.4.36 #1 SMP Thu Apr 30 04:38:28 UTC 2020 x86_64 AMD Ryzen 5 3600 6-Core Processor AuthenticAMD GNU/Linux
[00;01mdev-libs/[00;00m[36;01mutfcpp[00;00m: [32;01m9[00;00m seconds average for [32;01m1[00;00m merge
2020-05-20T08:51:01 >>> [00;01mdev-libs/[00;00m[36;01mutfcpp[00;00m: [32;01m9[00;00m seconds
]0;emerge 06:15:39 271|1170 utfcpp 00:09 (root@ryzen.gnum.org)>>> Extracting dev-libs/utfcpp-3.1
 [32;01m*[39;49;00m checking 6 files for package collisions
>>> Merging dev-libs/utfcpp-3.1 to /
 [32;01m*[0m removing unneeded *.la files
--- /usr/
--- /usr/lib64/
--- /usr/lib64/cmake/
--- /usr/lib64/cmake/utf8cpp/
>>> /usr/lib64/cmake/utf8cpp/utf8cppConfig.cmake
--- /usr/include/
--- /usr/include/utf8cpp/
--- /usr/include/utf8cpp/utf8/
>>> /usr/include/utf8cpp/utf8/unchecked.h
>>> /usr/include/utf8cpp/utf8/cpp11.h
>>> /usr/include/utf8cpp/utf8/core.h
>>> /usr/include/utf8cpp/utf8/checked.h
>>> /usr/include/utf8cpp/utf8.h
>>> Safely unmerging already-installed instance...
No package files given... Grabbing a set.
--- replaced obj /usr/lib64/cmake/utf8cpp/utf8cppConfig.cmake
--- replaced dir /usr/lib64/cmake/utf8cpp
--- replaced dir /usr/lib64/cmake
--- replaced dir /usr/lib64
--- replaced obj /usr/include/utf8cpp/utf8/unchecked.h
--- replaced obj /usr/include/utf8cpp/utf8/cpp11.h
--- replaced obj /usr/include/utf8cpp/utf8/core.h
--- replaced obj /usr/include/utf8cpp/utf8/checked.h
--- replaced obj /usr/include/utf8cpp/utf8.h
--- replaced dir /usr/include/utf8cpp/utf8
--- replaced dir /usr/include/utf8cpp
--- replaced dir /usr/include
--- replaced dir /usr
>>> Regenerating /etc/ld.so.cache...
>>> Original instance of package unmerged safely.
>>> dev-libs/utfcpp-3.1 merged.
