No package files given... Grabbing a set.
--- !found   obj /usr/lib64/python3.6/site-packages/cbor2/types.py
--- !found   obj /usr/lib64/python3.6/site-packages/cbor2/encoder.py
--- !found   obj /usr/lib64/python3.6/site-packages/cbor2/decoder.py
--- !found   obj /usr/lib64/python3.6/site-packages/cbor2/compat.py
--- !found   obj /usr/lib64/python3.6/site-packages/cbor2/__pycache__/types.cpython-36.pyc
--- !found   obj /usr/lib64/python3.6/site-packages/cbor2/__pycache__/types.cpython-36.opt-2.pyc
--- !found   obj /usr/lib64/python3.6/site-packages/cbor2/__pycache__/types.cpython-36.opt-1.pyc
--- !found   obj /usr/lib64/python3.6/site-packages/cbor2/__pycache__/encoder.cpython-36.pyc
--- !found   obj /usr/lib64/python3.6/site-packages/cbor2/__pycache__/encoder.cpython-36.opt-2.pyc
--- !found   obj /usr/lib64/python3.6/site-packages/cbor2/__pycache__/encoder.cpython-36.opt-1.pyc
--- !found   obj /usr/lib64/python3.6/site-packages/cbor2/__pycache__/decoder.cpython-36.pyc
--- !found   obj /usr/lib64/python3.6/site-packages/cbor2/__pycache__/decoder.cpython-36.opt-2.pyc
--- !found   obj /usr/lib64/python3.6/site-packages/cbor2/__pycache__/decoder.cpython-36.opt-1.pyc
--- !found   obj /usr/lib64/python3.6/site-packages/cbor2/__pycache__/compat.cpython-36.pyc
--- !found   obj /usr/lib64/python3.6/site-packages/cbor2/__pycache__/compat.cpython-36.opt-2.pyc
--- !found   obj /usr/lib64/python3.6/site-packages/cbor2/__pycache__/compat.cpython-36.opt-1.pyc
--- !found   obj /usr/lib64/python3.6/site-packages/cbor2/__pycache__/__init__.cpython-36.pyc
--- !found   obj /usr/lib64/python3.6/site-packages/cbor2/__pycache__/__init__.cpython-36.opt-2.pyc
--- !found   obj /usr/lib64/python3.6/site-packages/cbor2/__pycache__/__init__.cpython-36.opt-1.pyc
--- !found   dir /usr/lib64/python3.6/site-packages/cbor2/__pycache__
--- !found   obj /usr/lib64/python3.6/site-packages/cbor2/__init__.py
--- !found   obj /usr/lib64/python3.6/site-packages/cbor2-5.1.0-py3.6.egg-info/top_level.txt
--- !found   obj /usr/lib64/python3.6/site-packages/cbor2-5.1.0-py3.6.egg-info/requires.txt
--- !found   obj /usr/lib64/python3.6/site-packages/cbor2-5.1.0-py3.6.egg-info/dependency_links.txt
--- !found   obj /usr/lib64/python3.6/site-packages/cbor2-5.1.0-py3.6.egg-info/SOURCES.txt
--- !found   obj /usr/lib64/python3.6/site-packages/cbor2-5.1.0-py3.6.egg-info/PKG-INFO
--- !found   dir /usr/lib64/python3.6/site-packages/cbor2-5.1.0-py3.6.egg-info
--- !found   dir /usr/lib64/python3.6/site-packages/cbor2
--- !found   obj /usr/lib/python3.8/site-packages/cbor2/types.py
--- !found   obj /usr/lib/python3.8/site-packages/cbor2/encoder.py
--- !found   obj /usr/lib/python3.8/site-packages/cbor2/decoder.py
--- !found   obj /usr/lib/python3.8/site-packages/cbor2/compat.py
--- !found   obj /usr/lib/python3.8/site-packages/cbor2/__pycache__/types.cpython-38.pyc
--- !found   obj /usr/lib/python3.8/site-packages/cbor2/__pycache__/types.cpython-38.opt-2.pyc
--- !found   obj /usr/lib/python3.8/site-packages/cbor2/__pycache__/types.cpython-38.opt-1.pyc
--- !found   obj /usr/lib/python3.8/site-packages/cbor2/__pycache__/encoder.cpython-38.pyc
--- !found   obj /usr/lib/python3.8/site-packages/cbor2/__pycache__/encoder.cpython-38.opt-2.pyc
--- !found   obj /usr/lib/python3.8/site-packages/cbor2/__pycache__/encoder.cpython-38.opt-1.pyc
--- !found   obj /usr/lib/python3.8/site-packages/cbor2/__pycache__/decoder.cpython-38.pyc
--- !found   obj /usr/lib/python3.8/site-packages/cbor2/__pycache__/decoder.cpython-38.opt-2.pyc
--- !found   obj /usr/lib/python3.8/site-packages/cbor2/__pycache__/decoder.cpython-38.opt-1.pyc
--- !found   obj /usr/lib/python3.8/site-packages/cbor2/__pycache__/compat.cpython-38.pyc
--- !found   obj /usr/lib/python3.8/site-packages/cbor2/__pycache__/compat.cpython-38.opt-2.pyc
--- !found   obj /usr/lib/python3.8/site-packages/cbor2/__pycache__/compat.cpython-38.opt-1.pyc
--- !found   obj /usr/lib/python3.8/site-packages/cbor2/__pycache__/__init__.cpython-38.pyc
--- !found   obj /usr/lib/python3.8/site-packages/cbor2/__pycache__/__init__.cpython-38.opt-2.pyc
--- !found   obj /usr/lib/python3.8/site-packages/cbor2/__pycache__/__init__.cpython-38.opt-1.pyc
--- !found   dir /usr/lib/python3.8/site-packages/cbor2/__pycache__
--- !found   obj /usr/lib/python3.8/site-packages/cbor2/__init__.py
--- !found   obj /usr/lib/python3.8/site-packages/cbor2-5.1.0-py3.8.egg-info/top_level.txt
--- !found   obj /usr/lib/python3.8/site-packages/cbor2-5.1.0-py3.8.egg-info/requires.txt
--- !found   obj /usr/lib/python3.8/site-packages/cbor2-5.1.0-py3.8.egg-info/dependency_links.txt
--- !found   obj /usr/lib/python3.8/site-packages/cbor2-5.1.0-py3.8.egg-info/SOURCES.txt
--- !found   obj /usr/lib/python3.8/site-packages/cbor2-5.1.0-py3.8.egg-info/PKG-INFO
--- !found   dir /usr/lib/python3.8/site-packages/cbor2-5.1.0-py3.8.egg-info
--- !found   dir /usr/lib/python3.8/site-packages/cbor2
--- !found   obj /usr/lib/python3.8/site-packages/_cbor2.cpython-38-x86_64-linux-gnu.so
--- !found   obj /usr/lib/python3.7/site-packages/cbor2/types.py
--- !found   obj /usr/lib/python3.7/site-packages/cbor2/encoder.py
--- !found   obj /usr/lib/python3.7/site-packages/cbor2/decoder.py
--- !found   obj /usr/lib/python3.7/site-packages/cbor2/compat.py
--- !found   obj /usr/lib/python3.7/site-packages/cbor2/__pycache__/types.cpython-37.pyc
--- !found   obj /usr/lib/python3.7/site-packages/cbor2/__pycache__/types.cpython-37.opt-2.pyc
--- !found   obj /usr/lib/python3.7/site-packages/cbor2/__pycache__/types.cpython-37.opt-1.pyc
--- !found   obj /usr/lib/python3.7/site-packages/cbor2/__pycache__/encoder.cpython-37.pyc
--- !found   obj /usr/lib/python3.7/site-packages/cbor2/__pycache__/encoder.cpython-37.opt-2.pyc
--- !found   obj /usr/lib/python3.7/site-packages/cbor2/__pycache__/encoder.cpython-37.opt-1.pyc
--- !found   obj /usr/lib/python3.7/site-packages/cbor2/__pycache__/decoder.cpython-37.pyc
--- !found   obj /usr/lib/python3.7/site-packages/cbor2/__pycache__/decoder.cpython-37.opt-2.pyc
--- !found   obj /usr/lib/python3.7/site-packages/cbor2/__pycache__/decoder.cpython-37.opt-1.pyc
--- !found   obj /usr/lib/python3.7/site-packages/cbor2/__pycache__/compat.cpython-37.pyc
--- !found   obj /usr/lib/python3.7/site-packages/cbor2/__pycache__/compat.cpython-37.opt-2.pyc
--- !found   obj /usr/lib/python3.7/site-packages/cbor2/__pycache__/compat.cpython-37.opt-1.pyc
--- !found   obj /usr/lib/python3.7/site-packages/cbor2/__pycache__/__init__.cpython-37.pyc
--- !found   obj /usr/lib/python3.7/site-packages/cbor2/__pycache__/__init__.cpython-37.opt-2.pyc
--- !found   obj /usr/lib/python3.7/site-packages/cbor2/__pycache__/__init__.cpython-37.opt-1.pyc
--- !found   dir /usr/lib/python3.7/site-packages/cbor2/__pycache__
--- !found   obj /usr/lib/python3.7/site-packages/cbor2/__init__.py
--- !found   obj /usr/lib/python3.7/site-packages/cbor2-5.1.0-py3.7.egg-info/top_level.txt
--- !found   obj /usr/lib/python3.7/site-packages/cbor2-5.1.0-py3.7.egg-info/requires.txt
--- !found   obj /usr/lib/python3.7/site-packages/cbor2-5.1.0-py3.7.egg-info/dependency_links.txt
--- !found   obj /usr/lib/python3.7/site-packages/cbor2-5.1.0-py3.7.egg-info/SOURCES.txt
--- !found   obj /usr/lib/python3.7/site-packages/cbor2-5.1.0-py3.7.egg-info/PKG-INFO
--- !found   dir /usr/lib/python3.7/site-packages/cbor2-5.1.0-py3.7.egg-info
--- !found   dir /usr/lib/python3.7/site-packages/cbor2
--- !empty   dir /usr/lib64/python3.6/site-packages
--- !empty   dir /usr/lib64/python3.6
--- !empty   dir /usr/lib64
--- !empty   dir /usr/lib/python3.8/site-packages
--- !empty   dir /usr/lib/python3.8
--- !empty   dir /usr/lib/python3.7/site-packages
--- !empty   dir /usr/lib/python3.7
--- !empty   dir /usr/lib
--- !empty   dir /usr
