 * Package:    dev-db/mysql-init-scripts-2.3-r3
 * Repository: gentoo
 * Maintainer: mysql-bugs@gentoo.org
 * USE:        abi_x86_64 amd64 elibc_glibc kernel_linux userland_GNU
 * FEATURES:   ccache network-sandbox preserve-libs sandbox userpriv usersandbox
 * /etc/portage/package.cflags/ltoworkarounds.conf -> */*: *FLAGS+=-Wl,-O4 *FLAGS-=-Wl,-O1
 * FEATURES='assume-digests binpkg-docompress binpkg-dostrip binpkg-logs binpkg-multi-instance buildpkg ccache cgroup compress-index config-protect-if-modified distlocks fixlafiles ipc-sandbox merge-sync multilib-strict network-sandbox news nodoc parallel-fetch parallel-install pid-sandbox preserve-libs qa-unresolved-soname-deps sandbox sfperms strict strict-keepdir unknown-features-warn unmerge-logs unmerge-orphans userfetch userpriv usersandbox usersync xattr'
 * CFLAGS='-march=znver2 -pipe -g0 -O3 -fgraphite-identity -floop-nest-optimize -fdevirtualize-at-ltrans -fipa-pta -fno-semantic-interposition -flto=12 -fno-plt -fno-signed-zeros -fno-trapping-math -fassociative-math -freciprocal-math -fno-math-errno -ffinite-math-only -fno-rounding-math -fno-signaling-nans -fcx-limited-range -fexcess-precision=fast -falign-functions=32 -fno-stack-protector -fno-stack-clash-protection -fstack-check=no -fno-stack-check -fuse-linker-plugin -Wl,-O4 -Wl,--as-needed -Wl,-lpthread -Wl,-lgomp -Wl,-z,norelro -Wl,-z,now -Wl,--sort-common -s'
 * CXXFLAGS='-march=znver2 -pipe -g0 -O3 -fgraphite-identity -floop-nest-optimize -fdevirtualize-at-ltrans -fipa-pta -fno-semantic-interposition -flto=12 -fno-plt -fno-signed-zeros -fno-trapping-math -fassociative-math -freciprocal-math -fno-math-errno -ffinite-math-only -fno-rounding-math -fno-signaling-nans -fcx-limited-range -fexcess-precision=fast -falign-functions=32 -fno-stack-protector -fno-stack-clash-protection -fstack-check=no -fno-stack-check -fuse-linker-plugin -Wl,-O4 -Wl,--as-needed -Wl,-lpthread -Wl,-lgomp -Wl,-z,norelro -Wl,-z,now -Wl,--sort-common -s'
 * FFLAGS='-march=znver2 -pipe -g0 -O3 -fgraphite-identity -floop-nest-optimize -fdevirtualize-at-ltrans -fipa-pta -fno-semantic-interposition -flto=12 -fno-plt -fno-signed-zeros -fno-trapping-math -fassociative-math -freciprocal-math -fno-math-errno -ffinite-math-only -fno-rounding-math -fno-signaling-nans -fcx-limited-range -fexcess-precision=fast -falign-functions=32 -fno-stack-protector -fno-stack-clash-protection -fstack-check=no -fno-stack-check -fuse-linker-plugin -Wl,-O4 -Wl,--as-needed -Wl,-lpthread -Wl,-lgomp -Wl,-z,norelro -Wl,-z,now -Wl,--sort-common -s'
 * FCFLAGS='-march=znver2 -pipe -g0 -O3 -fgraphite-identity -floop-nest-optimize -fdevirtualize-at-ltrans -fipa-pta -fno-semantic-interposition -flto=12 -fno-plt -fno-signed-zeros -fno-trapping-math -fassociative-math -freciprocal-math -fno-math-errno -ffinite-math-only -fno-rounding-math -fno-signaling-nans -fcx-limited-range -fexcess-precision=fast -falign-functions=32 -fno-stack-protector -fno-stack-clash-protection -fstack-check=no -fno-stack-check -fuse-linker-plugin -Wl,-O4 -Wl,--as-needed -Wl,-lpthread -Wl,-lgomp -Wl,-z,norelro -Wl,-z,now -Wl,--sort-common -s'
 * F77FLAGS='-march=znver2 -pipe -g0 -O3 -fgraphite-identity -floop-nest-optimize -fdevirtualize-at-ltrans -fipa-pta -fno-semantic-interposition -flto=12 -fno-plt -fno-signed-zeros -fno-trapping-math -fassociative-math -freciprocal-math -fno-math-errno -ffinite-math-only -fno-rounding-math -fno-signaling-nans -fcx-limited-range -fexcess-precision=fast -falign-functions=32 -fno-stack-protector -fno-stack-clash-protection -fstack-check=no -fno-stack-check -fuse-linker-plugin -Wl,-O4 -Wl,--as-needed -Wl,-lpthread -Wl,-lgomp -Wl,-z,norelro -Wl,-z,now -Wl,--sort-common -s'
 * LDFLAGS='-march=znver2 -pipe -g0 -O3 -fgraphite-identity -floop-nest-optimize -fdevirtualize-at-ltrans -fipa-pta -fno-semantic-interposition -flto=12 -fno-plt -fno-signed-zeros -fno-trapping-math -fassociative-math -freciprocal-math -fno-math-errno -ffinite-math-only -fno-rounding-math -fno-signaling-nans -fcx-limited-range -fexcess-precision=fast -falign-functions=32 -fno-stack-protector -fno-stack-clash-protection -fstack-check=no -fno-stack-check -fuse-linker-plugin -Wl,-O4 -Wl,--as-needed -Wl,-lpthread -Wl,-lgomp -Wl,-z,norelro -Wl,-z,now -Wl,--sort-common -s'
 * MAKEOPTS='-j12 -l12'
 * gcc () 11.0.0 20200601 (experimental)
 * g++ () 11.0.0 20200601 (experimental)
 * GNU ld (Gentoo 2.34 p4) 2.34.0
 * Linux ryzen.gnum.org 5.4.36 #1 SMP Thu Apr 30 04:38:28 UTC 2020 x86_64 AMD Ryzen 5 3600 6-Core Processor AuthenticAMD GNU/Linux
dev-db/mysql-init-scripts: 10 seconds average for 1 merge
2020-05-20T08:31:31 >>> dev-db/mysql-init-scripts: 10 seconds
]0;emerge 14:27:54 72|586 mysql-init-scripts 00:10 (root@ryzen.gnum.org)kemerge 14:27:54 72|586 mysql-init-scripts 00:10 (root@ryzen.gnum.org)\>>> Unpacking source...
>>> Source unpacked in /tmp/portage/dev-db/mysql-init-scripts-2.3-r3/work
>>> Preparing source in /tmp/portage/dev-db/mysql-init-scripts-2.3-r3/work ...
>>> Source prepared.
>>> Configuring source in /tmp/portage/dev-db/mysql-init-scripts-2.3-r3/work ...
>>> Source configured.
>>> Compiling source in /tmp/portage/dev-db/mysql-init-scripts-2.3-r3/work ...
>>> Source compiled.
>>> Test phase [not enabled]: dev-db/mysql-init-scripts-2.3-r3

>>> Install dev-db/mysql-init-scripts-2.3-r3 into /tmp/portage/dev-db/mysql-init-scripts-2.3-r3/image/
>>> Completed installing dev-db/mysql-init-scripts-2.3-r3 into /tmp/portage/dev-db/mysql-init-scripts-2.3-r3/image/

 * Final size of build directory:   4 KiB
 * Final size of installed tree:  124 KiB

./
./lib/
./lib/systemd/
./lib/systemd/system/
./lib/systemd/system/mysqld.service
./lib/systemd/system/mysqld@.service
./usr/
./usr/lib/
./usr/lib/tmpfiles.d/
./usr/lib/tmpfiles.d/mysql.conf
./usr/libexec/
./usr/libexec/mysqld-wait-ready
./var/
./var/svc.d/
./var/svc.d/mysql/
./var/svc.d/mysql/run
./var/svc.d/mysql/log/
./var/svc.d/mysql/log/run
./etc/
./etc/init.d/
./etc/init.d/mysql
./etc/init.d/mysql-supervise
./etc/init.d/mysql-s6
./etc/logrotate.d/
./etc/logrotate.d/mysql
./etc/conf.d/
./etc/conf.d/mysql
./etc/conf.d/mysql-s6
>>> Done.
 * checking 12 files for package collisions
>>> Merging dev-db/mysql-init-scripts-2.3-r3 to /
 * removing unneeded *.la files
--- /etc/
--- /etc/conf.d/
>>> /etc/conf.d/mysql-s6
>>> /etc/conf.d/mysql
--- /etc/logrotate.d/
>>> /etc/logrotate.d/mysql
--- /etc/init.d/
>>> /etc/init.d/mysql-s6
>>> /etc/init.d/mysql-supervise
>>> /etc/init.d/mysql
--- /var/
>>> /var/svc.d/
>>> /var/svc.d/mysql/
>>> /var/svc.d/mysql/log/
>>> /var/svc.d/mysql/log/run
>>> /var/svc.d/mysql/run
--- /usr/
--- /usr/libexec/
>>> /usr/libexec/mysqld-wait-ready
--- /usr/lib/
--- /usr/lib/tmpfiles.d/
>>> /usr/lib/tmpfiles.d/mysql.conf
--- /lib/
--- /lib/systemd/
--- /lib/systemd/system/
>>> /lib/systemd/system/mysqld@.service
>>> /lib/systemd/system/mysqld.service
 * 
 * To use the mysql-s6 script, you need to install the optional sys-apps/s6 package.
 * If you wish to use s6 logging support, comment out the log-error setting in your my.cnf
 * 
 * Starting with version 10.1.8, MariaDB includes an improved systemd unit named mariadb.service
 * You should prefer that unit over this package's mysqld.service.
 * 
>>> dev-db/mysql-init-scripts-2.3-r3 merged.
>>> Regenerating /etc/ld.so.cache...
