No package files given... Grabbing a set.
--- replaced obj /usr/share/vala/vapi/atasmart.vapi
--- replaced dir /usr/share/vala/vapi
--- replaced dir /usr/share/vala
--- replaced dir /usr/share
--- replaced obj /usr/sbin/sktest
--- replaced obj /usr/sbin/skdump
--- replaced dir /usr/sbin
--- replaced obj /usr/lib64/pkgconfig/libatasmart.pc
--- replaced dir /usr/lib64/pkgconfig
--- replaced obj /usr/lib64/libatasmart.so.4.0.5
--- replaced sym /usr/lib64/libatasmart.so.4
--- replaced sym /usr/lib64/libatasmart.so
--- replaced dir /usr/lib64
--- replaced obj /usr/include/atasmart.h
--- replaced dir /usr/include
--- replaced dir /usr
>>> Regenerating /etc/ld.so.cache...
