No package files given... Grabbing a set.
--- replaced obj /usr/lib64/python2.7/site-packages/wheel/wheelfile.pyo
--- replaced obj /usr/lib64/python2.7/site-packages/wheel/wheelfile.pyc
--- replaced obj /usr/lib64/python2.7/site-packages/wheel/wheelfile.py
--- replaced obj /usr/lib64/python2.7/site-packages/wheel/util.pyo
--- replaced obj /usr/lib64/python2.7/site-packages/wheel/util.pyc
--- replaced obj /usr/lib64/python2.7/site-packages/wheel/util.py
--- replaced obj /usr/lib64/python2.7/site-packages/wheel/pkginfo.pyo
--- replaced obj /usr/lib64/python2.7/site-packages/wheel/pkginfo.pyc
--- replaced obj /usr/lib64/python2.7/site-packages/wheel/pkginfo.py
--- replaced obj /usr/lib64/python2.7/site-packages/wheel/pep425tags.pyo
--- replaced obj /usr/lib64/python2.7/site-packages/wheel/pep425tags.pyc
--- replaced obj /usr/lib64/python2.7/site-packages/wheel/pep425tags.py
--- replaced obj /usr/lib64/python2.7/site-packages/wheel/metadata.pyo
--- replaced obj /usr/lib64/python2.7/site-packages/wheel/metadata.pyc
--- replaced obj /usr/lib64/python2.7/site-packages/wheel/metadata.py
--- replaced obj /usr/lib64/python2.7/site-packages/wheel/macosx_libfile.pyo
--- replaced obj /usr/lib64/python2.7/site-packages/wheel/macosx_libfile.pyc
--- replaced obj /usr/lib64/python2.7/site-packages/wheel/macosx_libfile.py
--- replaced obj /usr/lib64/python2.7/site-packages/wheel/cli/unpack.pyo
--- replaced obj /usr/lib64/python2.7/site-packages/wheel/cli/unpack.pyc
--- replaced obj /usr/lib64/python2.7/site-packages/wheel/cli/unpack.py
--- replaced obj /usr/lib64/python2.7/site-packages/wheel/cli/pack.pyo
--- replaced obj /usr/lib64/python2.7/site-packages/wheel/cli/pack.pyc
--- replaced obj /usr/lib64/python2.7/site-packages/wheel/cli/pack.py
--- replaced obj /usr/lib64/python2.7/site-packages/wheel/cli/convert.pyo
--- replaced obj /usr/lib64/python2.7/site-packages/wheel/cli/convert.pyc
--- replaced obj /usr/lib64/python2.7/site-packages/wheel/cli/convert.py
--- replaced obj /usr/lib64/python2.7/site-packages/wheel/cli/__init__.pyo
--- replaced obj /usr/lib64/python2.7/site-packages/wheel/cli/__init__.pyc
--- replaced obj /usr/lib64/python2.7/site-packages/wheel/cli/__init__.py
--- replaced dir /usr/lib64/python2.7/site-packages/wheel/cli
--- replaced obj /usr/lib64/python2.7/site-packages/wheel/bdist_wheel.pyo
--- replaced obj /usr/lib64/python2.7/site-packages/wheel/bdist_wheel.pyc
--- replaced obj /usr/lib64/python2.7/site-packages/wheel/bdist_wheel.py
--- replaced obj /usr/lib64/python2.7/site-packages/wheel/__main__.pyo
--- replaced obj /usr/lib64/python2.7/site-packages/wheel/__main__.pyc
--- replaced obj /usr/lib64/python2.7/site-packages/wheel/__main__.py
--- replaced obj /usr/lib64/python2.7/site-packages/wheel/__init__.pyo
--- replaced obj /usr/lib64/python2.7/site-packages/wheel/__init__.pyc
--- replaced obj /usr/lib64/python2.7/site-packages/wheel/__init__.py
--- replaced obj /usr/lib64/python2.7/site-packages/wheel-0.34.2-py2.7.egg-info/top_level.txt
--- replaced obj /usr/lib64/python2.7/site-packages/wheel-0.34.2-py2.7.egg-info/requires.txt
--- replaced obj /usr/lib64/python2.7/site-packages/wheel-0.34.2-py2.7.egg-info/not-zip-safe
--- replaced obj /usr/lib64/python2.7/site-packages/wheel-0.34.2-py2.7.egg-info/entry_points.txt
--- replaced obj /usr/lib64/python2.7/site-packages/wheel-0.34.2-py2.7.egg-info/dependency_links.txt
--- replaced obj /usr/lib64/python2.7/site-packages/wheel-0.34.2-py2.7.egg-info/SOURCES.txt
--- replaced obj /usr/lib64/python2.7/site-packages/wheel-0.34.2-py2.7.egg-info/PKG-INFO
--- replaced dir /usr/lib64/python2.7/site-packages/wheel-0.34.2-py2.7.egg-info
--- replaced dir /usr/lib64/python2.7/site-packages/wheel
--- replaced dir /usr/lib64/python2.7/site-packages
--- replaced dir /usr/lib64/python2.7
--- replaced dir /usr/lib64
--- replaced obj /usr/lib/python3.9/site-packages/wheel/wheelfile.py
--- replaced obj /usr/lib/python3.9/site-packages/wheel/util.py
--- replaced obj /usr/lib/python3.9/site-packages/wheel/pkginfo.py
--- replaced obj /usr/lib/python3.9/site-packages/wheel/pep425tags.py
--- replaced obj /usr/lib/python3.9/site-packages/wheel/metadata.py
--- replaced obj /usr/lib/python3.9/site-packages/wheel/macosx_libfile.py
--- replaced obj /usr/lib/python3.9/site-packages/wheel/cli/unpack.py
--- replaced obj /usr/lib/python3.9/site-packages/wheel/cli/pack.py
--- replaced obj /usr/lib/python3.9/site-packages/wheel/cli/convert.py
--- replaced obj /usr/lib/python3.9/site-packages/wheel/cli/__pycache__/unpack.cpython-39.pyc
--- replaced obj /usr/lib/python3.9/site-packages/wheel/cli/__pycache__/unpack.cpython-39.opt-2.pyc
--- replaced obj /usr/lib/python3.9/site-packages/wheel/cli/__pycache__/unpack.cpython-39.opt-1.pyc
--- replaced obj /usr/lib/python3.9/site-packages/wheel/cli/__pycache__/pack.cpython-39.pyc
--- replaced obj /usr/lib/python3.9/site-packages/wheel/cli/__pycache__/pack.cpython-39.opt-2.pyc
--- replaced obj /usr/lib/python3.9/site-packages/wheel/cli/__pycache__/pack.cpython-39.opt-1.pyc
--- replaced obj /usr/lib/python3.9/site-packages/wheel/cli/__pycache__/convert.cpython-39.pyc
--- replaced obj /usr/lib/python3.9/site-packages/wheel/cli/__pycache__/convert.cpython-39.opt-2.pyc
--- replaced obj /usr/lib/python3.9/site-packages/wheel/cli/__pycache__/convert.cpython-39.opt-1.pyc
--- replaced obj /usr/lib/python3.9/site-packages/wheel/cli/__pycache__/__init__.cpython-39.pyc
--- replaced obj /usr/lib/python3.9/site-packages/wheel/cli/__pycache__/__init__.cpython-39.opt-2.pyc
--- replaced obj /usr/lib/python3.9/site-packages/wheel/cli/__pycache__/__init__.cpython-39.opt-1.pyc
--- replaced dir /usr/lib/python3.9/site-packages/wheel/cli/__pycache__
--- replaced obj /usr/lib/python3.9/site-packages/wheel/cli/__init__.py
--- replaced dir /usr/lib/python3.9/site-packages/wheel/cli
--- replaced obj /usr/lib/python3.9/site-packages/wheel/bdist_wheel.py
--- replaced obj /usr/lib/python3.9/site-packages/wheel/__pycache__/wheelfile.cpython-39.pyc
--- replaced obj /usr/lib/python3.9/site-packages/wheel/__pycache__/wheelfile.cpython-39.opt-2.pyc
--- replaced obj /usr/lib/python3.9/site-packages/wheel/__pycache__/wheelfile.cpython-39.opt-1.pyc
--- replaced obj /usr/lib/python3.9/site-packages/wheel/__pycache__/util.cpython-39.pyc
--- replaced obj /usr/lib/python3.9/site-packages/wheel/__pycache__/util.cpython-39.opt-2.pyc
--- replaced obj /usr/lib/python3.9/site-packages/wheel/__pycache__/util.cpython-39.opt-1.pyc
--- replaced obj /usr/lib/python3.9/site-packages/wheel/__pycache__/pkginfo.cpython-39.pyc
--- replaced obj /usr/lib/python3.9/site-packages/wheel/__pycache__/pkginfo.cpython-39.opt-2.pyc
--- replaced obj /usr/lib/python3.9/site-packages/wheel/__pycache__/pkginfo.cpython-39.opt-1.pyc
--- replaced obj /usr/lib/python3.9/site-packages/wheel/__pycache__/pep425tags.cpython-39.pyc
--- replaced obj /usr/lib/python3.9/site-packages/wheel/__pycache__/pep425tags.cpython-39.opt-2.pyc
--- replaced obj /usr/lib/python3.9/site-packages/wheel/__pycache__/pep425tags.cpython-39.opt-1.pyc
--- replaced obj /usr/lib/python3.9/site-packages/wheel/__pycache__/metadata.cpython-39.pyc
--- replaced obj /usr/lib/python3.9/site-packages/wheel/__pycache__/metadata.cpython-39.opt-2.pyc
--- replaced obj /usr/lib/python3.9/site-packages/wheel/__pycache__/metadata.cpython-39.opt-1.pyc
--- replaced obj /usr/lib/python3.9/site-packages/wheel/__pycache__/macosx_libfile.cpython-39.pyc
--- replaced obj /usr/lib/python3.9/site-packages/wheel/__pycache__/macosx_libfile.cpython-39.opt-2.pyc
--- replaced obj /usr/lib/python3.9/site-packages/wheel/__pycache__/macosx_libfile.cpython-39.opt-1.pyc
--- replaced obj /usr/lib/python3.9/site-packages/wheel/__pycache__/bdist_wheel.cpython-39.pyc
--- replaced obj /usr/lib/python3.9/site-packages/wheel/__pycache__/bdist_wheel.cpython-39.opt-2.pyc
--- replaced obj /usr/lib/python3.9/site-packages/wheel/__pycache__/bdist_wheel.cpython-39.opt-1.pyc
--- replaced obj /usr/lib/python3.9/site-packages/wheel/__pycache__/__main__.cpython-39.pyc
--- replaced obj /usr/lib/python3.9/site-packages/wheel/__pycache__/__main__.cpython-39.opt-2.pyc
--- replaced obj /usr/lib/python3.9/site-packages/wheel/__pycache__/__main__.cpython-39.opt-1.pyc
--- replaced obj /usr/lib/python3.9/site-packages/wheel/__pycache__/__init__.cpython-39.pyc
--- replaced obj /usr/lib/python3.9/site-packages/wheel/__pycache__/__init__.cpython-39.opt-2.pyc
--- replaced obj /usr/lib/python3.9/site-packages/wheel/__pycache__/__init__.cpython-39.opt-1.pyc
--- replaced dir /usr/lib/python3.9/site-packages/wheel/__pycache__
--- replaced obj /usr/lib/python3.9/site-packages/wheel/__main__.py
--- replaced obj /usr/lib/python3.9/site-packages/wheel/__init__.py
--- replaced obj /usr/lib/python3.9/site-packages/wheel-0.34.2-py3.9.egg-info/top_level.txt
--- replaced obj /usr/lib/python3.9/site-packages/wheel-0.34.2-py3.9.egg-info/requires.txt
--- replaced obj /usr/lib/python3.9/site-packages/wheel-0.34.2-py3.9.egg-info/not-zip-safe
--- replaced obj /usr/lib/python3.9/site-packages/wheel-0.34.2-py3.9.egg-info/entry_points.txt
--- replaced obj /usr/lib/python3.9/site-packages/wheel-0.34.2-py3.9.egg-info/dependency_links.txt
--- replaced obj /usr/lib/python3.9/site-packages/wheel-0.34.2-py3.9.egg-info/SOURCES.txt
--- replaced obj /usr/lib/python3.9/site-packages/wheel-0.34.2-py3.9.egg-info/PKG-INFO
--- replaced dir /usr/lib/python3.9/site-packages/wheel-0.34.2-py3.9.egg-info
--- replaced dir /usr/lib/python3.9/site-packages/wheel
--- replaced dir /usr/lib/python3.9/site-packages
--- replaced dir /usr/lib/python3.9
--- replaced obj /usr/lib/python3.8/site-packages/wheel/wheelfile.py
--- replaced obj /usr/lib/python3.8/site-packages/wheel/util.py
--- replaced obj /usr/lib/python3.8/site-packages/wheel/pkginfo.py
--- replaced obj /usr/lib/python3.8/site-packages/wheel/pep425tags.py
--- replaced obj /usr/lib/python3.8/site-packages/wheel/metadata.py
--- replaced obj /usr/lib/python3.8/site-packages/wheel/macosx_libfile.py
--- replaced obj /usr/lib/python3.8/site-packages/wheel/cli/unpack.py
--- replaced obj /usr/lib/python3.8/site-packages/wheel/cli/pack.py
--- replaced obj /usr/lib/python3.8/site-packages/wheel/cli/convert.py
--- replaced obj /usr/lib/python3.8/site-packages/wheel/cli/__pycache__/unpack.cpython-38.pyc
--- replaced obj /usr/lib/python3.8/site-packages/wheel/cli/__pycache__/unpack.cpython-38.opt-2.pyc
--- replaced obj /usr/lib/python3.8/site-packages/wheel/cli/__pycache__/unpack.cpython-38.opt-1.pyc
--- replaced obj /usr/lib/python3.8/site-packages/wheel/cli/__pycache__/pack.cpython-38.pyc
--- replaced obj /usr/lib/python3.8/site-packages/wheel/cli/__pycache__/pack.cpython-38.opt-2.pyc
--- replaced obj /usr/lib/python3.8/site-packages/wheel/cli/__pycache__/pack.cpython-38.opt-1.pyc
--- replaced obj /usr/lib/python3.8/site-packages/wheel/cli/__pycache__/convert.cpython-38.pyc
--- replaced obj /usr/lib/python3.8/site-packages/wheel/cli/__pycache__/convert.cpython-38.opt-2.pyc
--- replaced obj /usr/lib/python3.8/site-packages/wheel/cli/__pycache__/convert.cpython-38.opt-1.pyc
--- replaced obj /usr/lib/python3.8/site-packages/wheel/cli/__pycache__/__init__.cpython-38.pyc
--- replaced obj /usr/lib/python3.8/site-packages/wheel/cli/__pycache__/__init__.cpython-38.opt-2.pyc
--- replaced obj /usr/lib/python3.8/site-packages/wheel/cli/__pycache__/__init__.cpython-38.opt-1.pyc
--- replaced dir /usr/lib/python3.8/site-packages/wheel/cli/__pycache__
--- replaced obj /usr/lib/python3.8/site-packages/wheel/cli/__init__.py
--- replaced dir /usr/lib/python3.8/site-packages/wheel/cli
--- replaced obj /usr/lib/python3.8/site-packages/wheel/bdist_wheel.py
--- replaced obj /usr/lib/python3.8/site-packages/wheel/__pycache__/wheelfile.cpython-38.pyc
--- replaced obj /usr/lib/python3.8/site-packages/wheel/__pycache__/wheelfile.cpython-38.opt-2.pyc
--- replaced obj /usr/lib/python3.8/site-packages/wheel/__pycache__/wheelfile.cpython-38.opt-1.pyc
--- replaced obj /usr/lib/python3.8/site-packages/wheel/__pycache__/util.cpython-38.pyc
--- replaced obj /usr/lib/python3.8/site-packages/wheel/__pycache__/util.cpython-38.opt-2.pyc
--- replaced obj /usr/lib/python3.8/site-packages/wheel/__pycache__/util.cpython-38.opt-1.pyc
--- replaced obj /usr/lib/python3.8/site-packages/wheel/__pycache__/pkginfo.cpython-38.pyc
--- replaced obj /usr/lib/python3.8/site-packages/wheel/__pycache__/pkginfo.cpython-38.opt-2.pyc
--- replaced obj /usr/lib/python3.8/site-packages/wheel/__pycache__/pkginfo.cpython-38.opt-1.pyc
--- replaced obj /usr/lib/python3.8/site-packages/wheel/__pycache__/pep425tags.cpython-38.pyc
--- replaced obj /usr/lib/python3.8/site-packages/wheel/__pycache__/pep425tags.cpython-38.opt-2.pyc
--- replaced obj /usr/lib/python3.8/site-packages/wheel/__pycache__/pep425tags.cpython-38.opt-1.pyc
--- replaced obj /usr/lib/python3.8/site-packages/wheel/__pycache__/metadata.cpython-38.pyc
--- replaced obj /usr/lib/python3.8/site-packages/wheel/__pycache__/metadata.cpython-38.opt-2.pyc
--- replaced obj /usr/lib/python3.8/site-packages/wheel/__pycache__/metadata.cpython-38.opt-1.pyc
--- replaced obj /usr/lib/python3.8/site-packages/wheel/__pycache__/macosx_libfile.cpython-38.pyc
--- replaced obj /usr/lib/python3.8/site-packages/wheel/__pycache__/macosx_libfile.cpython-38.opt-2.pyc
--- replaced obj /usr/lib/python3.8/site-packages/wheel/__pycache__/macosx_libfile.cpython-38.opt-1.pyc
--- replaced obj /usr/lib/python3.8/site-packages/wheel/__pycache__/bdist_wheel.cpython-38.pyc
--- replaced obj /usr/lib/python3.8/site-packages/wheel/__pycache__/bdist_wheel.cpython-38.opt-2.pyc
--- replaced obj /usr/lib/python3.8/site-packages/wheel/__pycache__/bdist_wheel.cpython-38.opt-1.pyc
--- replaced obj /usr/lib/python3.8/site-packages/wheel/__pycache__/__main__.cpython-38.pyc
--- replaced obj /usr/lib/python3.8/site-packages/wheel/__pycache__/__main__.cpython-38.opt-2.pyc
--- replaced obj /usr/lib/python3.8/site-packages/wheel/__pycache__/__main__.cpython-38.opt-1.pyc
--- replaced obj /usr/lib/python3.8/site-packages/wheel/__pycache__/__init__.cpython-38.pyc
--- replaced obj /usr/lib/python3.8/site-packages/wheel/__pycache__/__init__.cpython-38.opt-2.pyc
--- replaced obj /usr/lib/python3.8/site-packages/wheel/__pycache__/__init__.cpython-38.opt-1.pyc
--- replaced dir /usr/lib/python3.8/site-packages/wheel/__pycache__
--- replaced obj /usr/lib/python3.8/site-packages/wheel/__main__.py
--- replaced obj /usr/lib/python3.8/site-packages/wheel/__init__.py
--- replaced obj /usr/lib/python3.8/site-packages/wheel-0.34.2-py3.8.egg-info/top_level.txt
--- replaced obj /usr/lib/python3.8/site-packages/wheel-0.34.2-py3.8.egg-info/requires.txt
--- replaced obj /usr/lib/python3.8/site-packages/wheel-0.34.2-py3.8.egg-info/not-zip-safe
--- replaced obj /usr/lib/python3.8/site-packages/wheel-0.34.2-py3.8.egg-info/entry_points.txt
--- replaced obj /usr/lib/python3.8/site-packages/wheel-0.34.2-py3.8.egg-info/dependency_links.txt
--- replaced obj /usr/lib/python3.8/site-packages/wheel-0.34.2-py3.8.egg-info/SOURCES.txt
--- replaced obj /usr/lib/python3.8/site-packages/wheel-0.34.2-py3.8.egg-info/PKG-INFO
--- replaced dir /usr/lib/python3.8/site-packages/wheel-0.34.2-py3.8.egg-info
--- replaced dir /usr/lib/python3.8/site-packages/wheel
--- replaced dir /usr/lib/python3.8/site-packages
--- replaced dir /usr/lib/python3.8
--- replaced obj /usr/lib/python3.7/site-packages/wheel/wheelfile.py
--- replaced obj /usr/lib/python3.7/site-packages/wheel/util.py
--- replaced obj /usr/lib/python3.7/site-packages/wheel/pkginfo.py
--- replaced obj /usr/lib/python3.7/site-packages/wheel/pep425tags.py
--- replaced obj /usr/lib/python3.7/site-packages/wheel/metadata.py
--- replaced obj /usr/lib/python3.7/site-packages/wheel/macosx_libfile.py
--- replaced obj /usr/lib/python3.7/site-packages/wheel/cli/unpack.py
--- replaced obj /usr/lib/python3.7/site-packages/wheel/cli/pack.py
--- replaced obj /usr/lib/python3.7/site-packages/wheel/cli/convert.py
--- replaced obj /usr/lib/python3.7/site-packages/wheel/cli/__pycache__/unpack.cpython-37.pyc
--- replaced obj /usr/lib/python3.7/site-packages/wheel/cli/__pycache__/unpack.cpython-37.opt-2.pyc
--- replaced obj /usr/lib/python3.7/site-packages/wheel/cli/__pycache__/unpack.cpython-37.opt-1.pyc
--- replaced obj /usr/lib/python3.7/site-packages/wheel/cli/__pycache__/pack.cpython-37.pyc
--- replaced obj /usr/lib/python3.7/site-packages/wheel/cli/__pycache__/pack.cpython-37.opt-2.pyc
--- replaced obj /usr/lib/python3.7/site-packages/wheel/cli/__pycache__/pack.cpython-37.opt-1.pyc
--- replaced obj /usr/lib/python3.7/site-packages/wheel/cli/__pycache__/convert.cpython-37.pyc
--- replaced obj /usr/lib/python3.7/site-packages/wheel/cli/__pycache__/convert.cpython-37.opt-2.pyc
--- replaced obj /usr/lib/python3.7/site-packages/wheel/cli/__pycache__/convert.cpython-37.opt-1.pyc
--- replaced obj /usr/lib/python3.7/site-packages/wheel/cli/__pycache__/__init__.cpython-37.pyc
--- replaced obj /usr/lib/python3.7/site-packages/wheel/cli/__pycache__/__init__.cpython-37.opt-2.pyc
--- replaced obj /usr/lib/python3.7/site-packages/wheel/cli/__pycache__/__init__.cpython-37.opt-1.pyc
--- replaced dir /usr/lib/python3.7/site-packages/wheel/cli/__pycache__
--- replaced obj /usr/lib/python3.7/site-packages/wheel/cli/__init__.py
--- replaced dir /usr/lib/python3.7/site-packages/wheel/cli
--- replaced obj /usr/lib/python3.7/site-packages/wheel/bdist_wheel.py
--- replaced obj /usr/lib/python3.7/site-packages/wheel/__pycache__/wheelfile.cpython-37.pyc
--- replaced obj /usr/lib/python3.7/site-packages/wheel/__pycache__/wheelfile.cpython-37.opt-2.pyc
--- replaced obj /usr/lib/python3.7/site-packages/wheel/__pycache__/wheelfile.cpython-37.opt-1.pyc
--- replaced obj /usr/lib/python3.7/site-packages/wheel/__pycache__/util.cpython-37.pyc
--- replaced obj /usr/lib/python3.7/site-packages/wheel/__pycache__/util.cpython-37.opt-2.pyc
--- replaced obj /usr/lib/python3.7/site-packages/wheel/__pycache__/util.cpython-37.opt-1.pyc
--- replaced obj /usr/lib/python3.7/site-packages/wheel/__pycache__/pkginfo.cpython-37.pyc
--- replaced obj /usr/lib/python3.7/site-packages/wheel/__pycache__/pkginfo.cpython-37.opt-2.pyc
--- replaced obj /usr/lib/python3.7/site-packages/wheel/__pycache__/pkginfo.cpython-37.opt-1.pyc
--- replaced obj /usr/lib/python3.7/site-packages/wheel/__pycache__/pep425tags.cpython-37.pyc
--- replaced obj /usr/lib/python3.7/site-packages/wheel/__pycache__/pep425tags.cpython-37.opt-2.pyc
--- replaced obj /usr/lib/python3.7/site-packages/wheel/__pycache__/pep425tags.cpython-37.opt-1.pyc
--- replaced obj /usr/lib/python3.7/site-packages/wheel/__pycache__/metadata.cpython-37.pyc
--- replaced obj /usr/lib/python3.7/site-packages/wheel/__pycache__/metadata.cpython-37.opt-2.pyc
--- replaced obj /usr/lib/python3.7/site-packages/wheel/__pycache__/metadata.cpython-37.opt-1.pyc
--- replaced obj /usr/lib/python3.7/site-packages/wheel/__pycache__/macosx_libfile.cpython-37.pyc
--- replaced obj /usr/lib/python3.7/site-packages/wheel/__pycache__/macosx_libfile.cpython-37.opt-2.pyc
--- replaced obj /usr/lib/python3.7/site-packages/wheel/__pycache__/macosx_libfile.cpython-37.opt-1.pyc
--- replaced obj /usr/lib/python3.7/site-packages/wheel/__pycache__/bdist_wheel.cpython-37.pyc
--- replaced obj /usr/lib/python3.7/site-packages/wheel/__pycache__/bdist_wheel.cpython-37.opt-2.pyc
--- replaced obj /usr/lib/python3.7/site-packages/wheel/__pycache__/bdist_wheel.cpython-37.opt-1.pyc
--- replaced obj /usr/lib/python3.7/site-packages/wheel/__pycache__/__main__.cpython-37.pyc
--- replaced obj /usr/lib/python3.7/site-packages/wheel/__pycache__/__main__.cpython-37.opt-2.pyc
--- replaced obj /usr/lib/python3.7/site-packages/wheel/__pycache__/__main__.cpython-37.opt-1.pyc
--- replaced obj /usr/lib/python3.7/site-packages/wheel/__pycache__/__init__.cpython-37.pyc
--- replaced obj /usr/lib/python3.7/site-packages/wheel/__pycache__/__init__.cpython-37.opt-2.pyc
--- replaced obj /usr/lib/python3.7/site-packages/wheel/__pycache__/__init__.cpython-37.opt-1.pyc
--- replaced dir /usr/lib/python3.7/site-packages/wheel/__pycache__
--- replaced obj /usr/lib/python3.7/site-packages/wheel/__main__.py
--- replaced obj /usr/lib/python3.7/site-packages/wheel/__init__.py
--- replaced obj /usr/lib/python3.7/site-packages/wheel-0.34.2-py3.7.egg-info/top_level.txt
--- replaced obj /usr/lib/python3.7/site-packages/wheel-0.34.2-py3.7.egg-info/requires.txt
--- replaced obj /usr/lib/python3.7/site-packages/wheel-0.34.2-py3.7.egg-info/not-zip-safe
--- replaced obj /usr/lib/python3.7/site-packages/wheel-0.34.2-py3.7.egg-info/entry_points.txt
--- replaced obj /usr/lib/python3.7/site-packages/wheel-0.34.2-py3.7.egg-info/dependency_links.txt
--- replaced obj /usr/lib/python3.7/site-packages/wheel-0.34.2-py3.7.egg-info/SOURCES.txt
--- replaced obj /usr/lib/python3.7/site-packages/wheel-0.34.2-py3.7.egg-info/PKG-INFO
--- replaced dir /usr/lib/python3.7/site-packages/wheel-0.34.2-py3.7.egg-info
--- replaced dir /usr/lib/python3.7/site-packages/wheel
--- replaced dir /usr/lib/python3.7/site-packages
--- replaced dir /usr/lib/python3.7
--- replaced obj /usr/lib/python-exec/python3.9/wheel
--- replaced dir /usr/lib/python-exec/python3.9
--- replaced obj /usr/lib/python-exec/python3.8/wheel
--- replaced dir /usr/lib/python-exec/python3.8
--- replaced obj /usr/lib/python-exec/python3.7/wheel
--- replaced dir /usr/lib/python-exec/python3.7
--- replaced obj /usr/lib/python-exec/python2.7/wheel
--- replaced dir /usr/lib/python-exec/python2.7
--- replaced obj /usr/lib/python-exec/pypy3/wheel
--- replaced dir /usr/lib/python-exec/pypy3
--- replaced dir /usr/lib/python-exec
--- replaced obj /usr/lib/pypy3.6/site-packages/wheel/wheelfile.py
--- replaced obj /usr/lib/pypy3.6/site-packages/wheel/util.py
--- replaced obj /usr/lib/pypy3.6/site-packages/wheel/pkginfo.py
--- replaced obj /usr/lib/pypy3.6/site-packages/wheel/pep425tags.py
--- replaced obj /usr/lib/pypy3.6/site-packages/wheel/metadata.py
--- replaced obj /usr/lib/pypy3.6/site-packages/wheel/macosx_libfile.py
--- replaced obj /usr/lib/pypy3.6/site-packages/wheel/cli/unpack.py
--- replaced obj /usr/lib/pypy3.6/site-packages/wheel/cli/pack.py
--- replaced obj /usr/lib/pypy3.6/site-packages/wheel/cli/convert.py
--- replaced obj /usr/lib/pypy3.6/site-packages/wheel/cli/__pycache__/unpack.pypy36.pyc
--- replaced obj /usr/lib/pypy3.6/site-packages/wheel/cli/__pycache__/unpack.pypy36.opt-2.pyc
--- replaced obj /usr/lib/pypy3.6/site-packages/wheel/cli/__pycache__/unpack.pypy36.opt-1.pyc
--- replaced obj /usr/lib/pypy3.6/site-packages/wheel/cli/__pycache__/pack.pypy36.pyc
--- replaced obj /usr/lib/pypy3.6/site-packages/wheel/cli/__pycache__/pack.pypy36.opt-2.pyc
--- replaced obj /usr/lib/pypy3.6/site-packages/wheel/cli/__pycache__/pack.pypy36.opt-1.pyc
--- replaced obj /usr/lib/pypy3.6/site-packages/wheel/cli/__pycache__/convert.pypy36.pyc
--- replaced obj /usr/lib/pypy3.6/site-packages/wheel/cli/__pycache__/convert.pypy36.opt-2.pyc
--- replaced obj /usr/lib/pypy3.6/site-packages/wheel/cli/__pycache__/convert.pypy36.opt-1.pyc
--- replaced obj /usr/lib/pypy3.6/site-packages/wheel/cli/__pycache__/__init__.pypy36.pyc
--- replaced obj /usr/lib/pypy3.6/site-packages/wheel/cli/__pycache__/__init__.pypy36.opt-2.pyc
--- replaced obj /usr/lib/pypy3.6/site-packages/wheel/cli/__pycache__/__init__.pypy36.opt-1.pyc
--- replaced dir /usr/lib/pypy3.6/site-packages/wheel/cli/__pycache__
--- replaced obj /usr/lib/pypy3.6/site-packages/wheel/cli/__init__.py
--- replaced dir /usr/lib/pypy3.6/site-packages/wheel/cli
--- replaced obj /usr/lib/pypy3.6/site-packages/wheel/bdist_wheel.py
--- replaced obj /usr/lib/pypy3.6/site-packages/wheel/__pycache__/wheelfile.pypy36.pyc
--- replaced obj /usr/lib/pypy3.6/site-packages/wheel/__pycache__/wheelfile.pypy36.opt-2.pyc
--- replaced obj /usr/lib/pypy3.6/site-packages/wheel/__pycache__/wheelfile.pypy36.opt-1.pyc
--- replaced obj /usr/lib/pypy3.6/site-packages/wheel/__pycache__/util.pypy36.pyc
--- replaced obj /usr/lib/pypy3.6/site-packages/wheel/__pycache__/util.pypy36.opt-2.pyc
--- replaced obj /usr/lib/pypy3.6/site-packages/wheel/__pycache__/util.pypy36.opt-1.pyc
--- replaced obj /usr/lib/pypy3.6/site-packages/wheel/__pycache__/pkginfo.pypy36.pyc
--- replaced obj /usr/lib/pypy3.6/site-packages/wheel/__pycache__/pkginfo.pypy36.opt-2.pyc
--- replaced obj /usr/lib/pypy3.6/site-packages/wheel/__pycache__/pkginfo.pypy36.opt-1.pyc
--- replaced obj /usr/lib/pypy3.6/site-packages/wheel/__pycache__/pep425tags.pypy36.pyc
--- replaced obj /usr/lib/pypy3.6/site-packages/wheel/__pycache__/pep425tags.pypy36.opt-2.pyc
--- replaced obj /usr/lib/pypy3.6/site-packages/wheel/__pycache__/pep425tags.pypy36.opt-1.pyc
--- replaced obj /usr/lib/pypy3.6/site-packages/wheel/__pycache__/metadata.pypy36.pyc
--- replaced obj /usr/lib/pypy3.6/site-packages/wheel/__pycache__/metadata.pypy36.opt-2.pyc
--- replaced obj /usr/lib/pypy3.6/site-packages/wheel/__pycache__/metadata.pypy36.opt-1.pyc
--- replaced obj /usr/lib/pypy3.6/site-packages/wheel/__pycache__/macosx_libfile.pypy36.pyc
--- replaced obj /usr/lib/pypy3.6/site-packages/wheel/__pycache__/macosx_libfile.pypy36.opt-2.pyc
--- replaced obj /usr/lib/pypy3.6/site-packages/wheel/__pycache__/macosx_libfile.pypy36.opt-1.pyc
--- replaced obj /usr/lib/pypy3.6/site-packages/wheel/__pycache__/bdist_wheel.pypy36.pyc
--- replaced obj /usr/lib/pypy3.6/site-packages/wheel/__pycache__/bdist_wheel.pypy36.opt-2.pyc
--- replaced obj /usr/lib/pypy3.6/site-packages/wheel/__pycache__/bdist_wheel.pypy36.opt-1.pyc
--- replaced obj /usr/lib/pypy3.6/site-packages/wheel/__pycache__/__main__.pypy36.pyc
--- replaced obj /usr/lib/pypy3.6/site-packages/wheel/__pycache__/__main__.pypy36.opt-2.pyc
--- replaced obj /usr/lib/pypy3.6/site-packages/wheel/__pycache__/__main__.pypy36.opt-1.pyc
--- replaced obj /usr/lib/pypy3.6/site-packages/wheel/__pycache__/__init__.pypy36.pyc
--- replaced obj /usr/lib/pypy3.6/site-packages/wheel/__pycache__/__init__.pypy36.opt-2.pyc
--- replaced obj /usr/lib/pypy3.6/site-packages/wheel/__pycache__/__init__.pypy36.opt-1.pyc
--- replaced dir /usr/lib/pypy3.6/site-packages/wheel/__pycache__
--- replaced obj /usr/lib/pypy3.6/site-packages/wheel/__main__.py
--- replaced obj /usr/lib/pypy3.6/site-packages/wheel/__init__.py
--- replaced obj /usr/lib/pypy3.6/site-packages/wheel-0.34.2-py3.6.egg-info/top_level.txt
--- replaced obj /usr/lib/pypy3.6/site-packages/wheel-0.34.2-py3.6.egg-info/requires.txt
--- replaced obj /usr/lib/pypy3.6/site-packages/wheel-0.34.2-py3.6.egg-info/not-zip-safe
--- replaced obj /usr/lib/pypy3.6/site-packages/wheel-0.34.2-py3.6.egg-info/entry_points.txt
--- replaced obj /usr/lib/pypy3.6/site-packages/wheel-0.34.2-py3.6.egg-info/dependency_links.txt
--- replaced obj /usr/lib/pypy3.6/site-packages/wheel-0.34.2-py3.6.egg-info/SOURCES.txt
--- replaced obj /usr/lib/pypy3.6/site-packages/wheel-0.34.2-py3.6.egg-info/PKG-INFO
--- replaced dir /usr/lib/pypy3.6/site-packages/wheel-0.34.2-py3.6.egg-info
--- replaced dir /usr/lib/pypy3.6/site-packages/wheel
--- replaced dir /usr/lib/pypy3.6/site-packages
--- replaced dir /usr/lib/pypy3.6
--- replaced dir /usr/lib
--- replaced sym /usr/bin/wheel
--- replaced dir /usr/bin
--- replaced dir /usr
>>> Regenerating /etc/ld.so.cache...
