 * Package:    dev-libs/libusb-1.0.23-r1
 * Repository: gentoo
 * Maintainer: base-system@gentoo.org
 * USE:        abi_x86_64 amd64 elibc_glibc examples kernel_linux split-usr udev userland_GNU
 * FEATURES:   network-sandbox preserve-libs sandbox userpriv usersandbox
 * FEATURES='unmerge-backup ipc-sandbox merge-sync news binpkg-multi-instance config-protect-if-modified compress-index parallel-fetch binpkg-docompress downgrade-backup unknown-features-warn buildpkg multilib-strict strict-keepdir unmerge-orphans userfetch userpriv usersync parallel-install nodoc assume-digests pid-sandbox strict sfperms distlocks xattr binpkg-logs unmerge-logs usersandbox fixlafiles binpkg-dostrip qa-unresolved-soname-deps network-sandbox sandbox cgroup preserve-libs'
 * CFLAGS='-march=native -O3 -fgraphite-identity -floop-nest-optimize -fdevirtualize-at-ltrans -fipa-pta -fno-semantic-interposition -flto=12 -fno-plt -fno-math-errno -fno-trapping-math -fuse-linker-plugin -pipe -g0 -falign-functions=32 -Wl,-O1 -Wl,--as-needed -Wl,--hash-style=gnu,-z,norelro,--as-needed'
 * CXXFLAGS='-march=native -O3 -fgraphite-identity -floop-nest-optimize -fdevirtualize-at-ltrans -fipa-pta -fno-semantic-interposition -flto=12 -fno-plt -fno-math-errno -fno-trapping-math -fuse-linker-plugin -pipe -g0 -falign-functions=32 -Wl,-O1 -Wl,--as-needed -Wl,--hash-style=gnu,-z,norelro,--as-needed'
 * FFLAGS='-march=native -O3 -fgraphite-identity -floop-nest-optimize -fdevirtualize-at-ltrans -fipa-pta -fno-semantic-interposition -flto=12 -fno-plt -fno-math-errno -fno-trapping-math -fuse-linker-plugin -pipe -g0 -falign-functions=32 -Wl,-O1 -Wl,--as-needed -Wl,--hash-style=gnu,-z,norelro,--as-needed'
 * FCFLAGS='-march=native -O3 -fgraphite-identity -floop-nest-optimize -fdevirtualize-at-ltrans -fipa-pta -fno-semantic-interposition -flto=12 -fno-plt -fno-math-errno -fno-trapping-math -fuse-linker-plugin -pipe -g0 -falign-functions=32 -Wl,-O1 -Wl,--as-needed -Wl,--hash-style=gnu,-z,norelro,--as-needed'
 * F77FLAGS='-march=native -O3 -fgraphite-identity -floop-nest-optimize -fdevirtualize-at-ltrans -fipa-pta -fno-semantic-interposition -flto=12 -fno-plt -fno-math-errno -fno-trapping-math -fuse-linker-plugin -pipe -g0 -falign-functions=32 -Wl,-O1 -Wl,--as-needed -Wl,--hash-style=gnu,-z,norelro,--as-needed'
 * LDFLAGS='-Wl,-O1 -Wl,--as-needed -Wl,--hash-style=gnu,-z,norelro,--as-needed -march=native -O3 -fgraphite-identity -floop-nest-optimize -fdevirtualize-at-ltrans -fipa-pta -fno-semantic-interposition -flto=12 -fno-plt -fno-math-errno -fno-trapping-math -fuse-linker-plugin -pipe -g0 -falign-functions=32'
 * MAKEOPTS='-j12 -l12'
 * gcc (Gentoo 11.0.0_pre9999 p1, commit 584d52b088f9fcf78704b504c3f1f07e17c1cded) 11.0.0 20200523 (experimental)
 * g++ (Gentoo 11.0.0_pre9999 p1, commit 584d52b088f9fcf78704b504c3f1f07e17c1cded) 11.0.0 20200523 (experimental)
 * GNU ld (Gentoo 2.34 p4) 2.34.0
 * Linux ryzen.gnum.org 5.4.36 #1 SMP Thu Apr 30 04:38:28 UTC 2020 x86_64 AMD Ryzen 5 3600 6-Core Processor AuthenticAMD GNU/Linux
dev-libs/libusb: 11 seconds average for 6 merges
2020-05-15T03:41:14 >>> dev-libs/libusb: 22 seconds
2020-05-15T12:52:07 >>> dev-libs/libusb: 13 seconds
2020-05-20T02:16:22 >>> dev-libs/libusb: 6 seconds
2020-05-20T04:25:51 >>> dev-libs/libusb: 4 seconds
2020-05-21T12:51:04 >>> dev-libs/libusb: 5 seconds
2020-05-23T12:33:20 >>> dev-libs/libusb: 19 seconds
]0;emerge 18:46:47 266|980 libusb 00:09 (root@ryzen.gnum.org)kemerge 18:46:47 266|980 libusb 00:09 (root@ryzen.gnum.org)\>>> Unpacking source...
>>> Unpacking libusb-1.0.23.tar.bz2 to /tmp/portage/dev-libs/libusb-1.0.23-r1/work
>>> Source unpacked in /tmp/portage/dev-libs/libusb-1.0.23-r1/work
>>> Preparing source in /tmp/portage/dev-libs/libusb-1.0.23-r1/work/libusb-1.0.23 ...
>>> Source prepared.
>>> Configuring source in /tmp/portage/dev-libs/libusb-1.0.23-r1/work/libusb-1.0.23 ...
 * abi_x86_64.amd64: running multilib-minimal_abi_src_configure
 * econf: updating libusb-1.0.23/config.guess with /usr/share/gnuconfig/config.guess
 * econf: updating libusb-1.0.23/config.sub with /usr/share/gnuconfig/config.sub
/tmp/portage/dev-libs/libusb-1.0.23-r1/work/libusb-1.0.23/configure --prefix=/usr --build=x86_64-pc-linux-gnu --host=x86_64-pc-linux-gnu --mandir=/usr/share/man --infodir=/usr/share/info --datadir=/usr/share --sysconfdir=/etc --localstatedir=/var/lib --disable-dependency-tracking --disable-silent-rules --docdir=/usr/share/doc/libusb-1.0.23-r1 --htmldir=/usr/share/doc/libusb-1.0.23-r1/html --with-sysroot=/ --libdir=/usr/lib64 --disable-static --enable-udev --disable-debug-log --disable-tests-build
checking for a BSD-compatible install... /tmp/portage/._portage_reinstall_.9hwlekaq/bin/ebuild-helpers/xattr/install -c
checking whether build environment is sane... yes
checking for a thread-safe mkdir -p... /bin/mkdir -p
checking for gawk... gawk
checking whether make sets $(MAKE)... yes
checking whether make supports nested variables... yes
checking whether make supports nested variables... (cached) yes
checking for x86_64-pc-linux-gnu-gcc... x86_64-pc-linux-gnu-gcc
checking whether the C compiler works... yes
checking for C compiler default output file name... a.out
checking for suffix of executables... 
checking whether we are cross compiling... no
checking for suffix of object files... o
checking whether we are using the GNU C compiler... yes
checking whether x86_64-pc-linux-gnu-gcc accepts -g... yes
checking for x86_64-pc-linux-gnu-gcc option to accept ISO C89... none needed
checking whether x86_64-pc-linux-gnu-gcc understands -c and -o together... yes
checking for style of include used by make... GNU
checking dependency style of x86_64-pc-linux-gnu-gcc... none
checking for x86_64-pc-linux-gnu-g++... x86_64-pc-linux-gnu-g++
checking whether we are using the GNU C++ compiler... yes
checking whether x86_64-pc-linux-gnu-g++ accepts -g... yes
checking dependency style of x86_64-pc-linux-gnu-g++... none
checking build system type... x86_64-pc-linux-gnu
checking host system type... x86_64-pc-linux-gnu
checking how to print strings... printf
checking for a sed that does not truncate output... /bin/sed
checking for grep that handles long lines and -e... /bin/grep
checking for egrep... /bin/grep -E
checking for fgrep... /bin/grep -F
checking for ld used by x86_64-pc-linux-gnu-gcc... /usr/x86_64-pc-linux-gnu/bin/ld
checking if the linker (/usr/x86_64-pc-linux-gnu/bin/ld) is GNU ld... yes
checking for BSD- or MS-compatible name lister (nm)... /usr/bin/x86_64-pc-linux-gnu-nm -B
checking the name lister (/usr/bin/x86_64-pc-linux-gnu-nm -B) interface... BSD nm
checking whether ln -s works... yes
checking the maximum length of command line arguments... 1572864
checking how to convert x86_64-pc-linux-gnu file names to x86_64-pc-linux-gnu format... func_convert_file_noop
checking how to convert x86_64-pc-linux-gnu file names to toolchain format... func_convert_file_noop
checking for /usr/x86_64-pc-linux-gnu/bin/ld option to reload object files... -r
checking for x86_64-pc-linux-gnu-objdump... x86_64-pc-linux-gnu-objdump
checking how to recognize dependent libraries... pass_all
checking for x86_64-pc-linux-gnu-dlltool... x86_64-pc-linux-gnu-dlltool
checking how to associate runtime and link libraries... printf %s\n
checking for x86_64-pc-linux-gnu-ar... x86_64-pc-linux-gnu-ar
checking for archiver @FILE support... @
checking for x86_64-pc-linux-gnu-strip... x86_64-pc-linux-gnu-strip
checking for x86_64-pc-linux-gnu-ranlib... x86_64-pc-linux-gnu-ranlib
checking command to parse /usr/bin/x86_64-pc-linux-gnu-nm -B output from x86_64-pc-linux-gnu-gcc object... ok
checking for sysroot... /
checking for a working dd... /bin/dd
checking how to truncate binary pipes... /bin/dd bs=4096 count=1
checking for x86_64-pc-linux-gnu-mt... no
checking for mt... no
checking if : is a manifest tool... no
checking how to run the C preprocessor... x86_64-pc-linux-gnu-gcc -E
checking for ANSI C header files... yes
checking for sys/types.h... yes
checking for sys/stat.h... yes
checking for stdlib.h... yes
checking for string.h... yes
checking for memory.h... yes
checking for strings.h... yes
checking for inttypes.h... yes
checking for stdint.h... yes
checking for unistd.h... yes
checking for dlfcn.h... yes
checking for objdir... .libs
checking if x86_64-pc-linux-gnu-gcc supports -fno-rtti -fno-exceptions... no
checking for x86_64-pc-linux-gnu-gcc option to produce PIC... -fPIC -DPIC
checking if x86_64-pc-linux-gnu-gcc PIC flag -fPIC -DPIC works... yes
checking if x86_64-pc-linux-gnu-gcc static flag -static works... yes
checking if x86_64-pc-linux-gnu-gcc supports -c -o file.o... yes
checking if x86_64-pc-linux-gnu-gcc supports -c -o file.o... (cached) yes
checking whether the x86_64-pc-linux-gnu-gcc linker (/usr/x86_64-pc-linux-gnu/bin/ld -m elf_x86_64) supports shared libraries... yes
checking whether -lc should be explicitly linked in... no
checking dynamic linker characteristics... GNU/Linux ld.so
checking how to hardcode library paths into programs... immediate
checking whether stripping libraries is possible... yes
checking if libtool supports shared libraries... yes
checking whether to build shared libraries... yes
checking whether to build static libraries... no
checking how to run the C++ preprocessor... x86_64-pc-linux-gnu-g++ -E
checking for ld used by x86_64-pc-linux-gnu-g++... /usr/x86_64-pc-linux-gnu/bin/ld -m elf_x86_64
checking if the linker (/usr/x86_64-pc-linux-gnu/bin/ld -m elf_x86_64) is GNU ld... yes
checking whether the x86_64-pc-linux-gnu-g++ linker (/usr/x86_64-pc-linux-gnu/bin/ld -m elf_x86_64) supports shared libraries... yes
checking for x86_64-pc-linux-gnu-g++ option to produce PIC... -fPIC -DPIC
checking if x86_64-pc-linux-gnu-g++ PIC flag -fPIC -DPIC works... yes
checking if x86_64-pc-linux-gnu-g++ static flag -static works... yes
checking if x86_64-pc-linux-gnu-g++ supports -c -o file.o... yes
checking if x86_64-pc-linux-gnu-g++ supports -c -o file.o... (cached) yes
checking whether the x86_64-pc-linux-gnu-g++ linker (/usr/x86_64-pc-linux-gnu/bin/ld -m elf_x86_64) supports shared libraries... yes
checking dynamic linker characteristics... (cached) GNU/Linux ld.so
checking how to hardcode library paths into programs... immediate
checking for x86_64-pc-linux-gnu-windres... x86_64-pc-linux-gnu-windres
checking for inline... inline
checking operating system... Linux
checking for library containing clock_gettime... none required
checking libudev.h usability... yes
checking libudev.h presence... yes
checking for libudev.h... yes
checking for udev_new in -ludev... yes
checking poll.h usability... yes
checking poll.h presence... yes
checking for poll.h... yes
checking sys/timerfd.h usability... yes
checking sys/timerfd.h presence... yes
checking for sys/timerfd.h... yes
checking whether TFD_NONBLOCK is declared... yes
checking whether TFD_CLOEXEC is declared... yes
checking whether to use timerfd for timing... yes
checking for pipe2... yes
checking for struct timespec... yes
checking sys/time.h usability... yes
checking sys/time.h presence... yes
checking for sys/time.h... yes
checking for sigaction... yes
checking whether CC supports -std=gnu99... yes
checking that generated files are newer than configure... done
configure: creating ./config.status
config.status: creating libusb-1.0.pc
config.status: creating Makefile
config.status: creating libusb/Makefile
config.status: creating examples/Makefile
config.status: creating tests/Makefile
config.status: creating doc/Makefile
config.status: creating doc/doxygen.cfg
config.status: creating config.h
config.status: executing depfiles commands
config.status: executing libtool commands
>>> Source configured.
>>> Compiling source in /tmp/portage/dev-libs/libusb-1.0.23-r1/work/libusb-1.0.23 ...
 * abi_x86_64.amd64: running multilib-minimal_abi_src_compile
make -j12 -l12 
make  all-recursive
make[1]: Entering directory '/tmp/portage/dev-libs/libusb-1.0.23-r1/work/libusb-1.0.23-abi_x86_64.amd64'
Making all in libusb
make[2]: Entering directory '/tmp/portage/dev-libs/libusb-1.0.23-r1/work/libusb-1.0.23-abi_x86_64.amd64/libusb'
/bin/sh ../libtool  --tag=CC   --mode=compile x86_64-pc-linux-gnu-gcc -DHAVE_CONFIG_H -I. -I/tmp/portage/dev-libs/libusb-1.0.23-r1/work/libusb-1.0.23/libusb -I..    -std=gnu99 -Wall -Wundef -Wunused -Wstrict-prototypes -Werror-implicit-function-declaration -Wno-pointer-sign -Wshadow -pthread -fvisibility=hidden -march=native -O3 -fgraphite-identity -floop-nest-optimize -fdevirtualize-at-ltrans -fipa-pta -fno-semantic-interposition -flto=12 -fno-plt -fno-math-errno -fno-trapping-math -fuse-linker-plugin -pipe -g0 -falign-functions=32 -Wl,-O1 -Wl,--as-needed -Wl,--hash-style=gnu,-z,norelro,--as-needed -c -o libusb_1_0_la-core.lo `test -f 'core.c' || echo '/tmp/portage/dev-libs/libusb-1.0.23-r1/work/libusb-1.0.23/libusb/'`core.c
/bin/sh ../libtool  --tag=CC   --mode=compile x86_64-pc-linux-gnu-gcc -DHAVE_CONFIG_H -I. -I/tmp/portage/dev-libs/libusb-1.0.23-r1/work/libusb-1.0.23/libusb -I..    -std=gnu99 -Wall -Wundef -Wunused -Wstrict-prototypes -Werror-implicit-function-declaration -Wno-pointer-sign -Wshadow -pthread -fvisibility=hidden -march=native -O3 -fgraphite-identity -floop-nest-optimize -fdevirtualize-at-ltrans -fipa-pta -fno-semantic-interposition -flto=12 -fno-plt -fno-math-errno -fno-trapping-math -fuse-linker-plugin -pipe -g0 -falign-functions=32 -Wl,-O1 -Wl,--as-needed -Wl,--hash-style=gnu,-z,norelro,--as-needed -c -o libusb_1_0_la-descriptor.lo `test -f 'descriptor.c' || echo '/tmp/portage/dev-libs/libusb-1.0.23-r1/work/libusb-1.0.23/libusb/'`descriptor.c
/bin/sh ../libtool  --tag=CC   --mode=compile x86_64-pc-linux-gnu-gcc -DHAVE_CONFIG_H -I. -I/tmp/portage/dev-libs/libusb-1.0.23-r1/work/libusb-1.0.23/libusb -I..    -std=gnu99 -Wall -Wundef -Wunused -Wstrict-prototypes -Werror-implicit-function-declaration -Wno-pointer-sign -Wshadow -pthread -fvisibility=hidden -march=native -O3 -fgraphite-identity -floop-nest-optimize -fdevirtualize-at-ltrans -fipa-pta -fno-semantic-interposition -flto=12 -fno-plt -fno-math-errno -fno-trapping-math -fuse-linker-plugin -pipe -g0 -falign-functions=32 -Wl,-O1 -Wl,--as-needed -Wl,--hash-style=gnu,-z,norelro,--as-needed -c -o libusb_1_0_la-hotplug.lo `test -f 'hotplug.c' || echo '/tmp/portage/dev-libs/libusb-1.0.23-r1/work/libusb-1.0.23/libusb/'`hotplug.c
/bin/sh ../libtool  --tag=CC   --mode=compile x86_64-pc-linux-gnu-gcc -DHAVE_CONFIG_H -I. -I/tmp/portage/dev-libs/libusb-1.0.23-r1/work/libusb-1.0.23/libusb -I..    -std=gnu99 -Wall -Wundef -Wunused -Wstrict-prototypes -Werror-implicit-function-declaration -Wno-pointer-sign -Wshadow -pthread -fvisibility=hidden -march=native -O3 -fgraphite-identity -floop-nest-optimize -fdevirtualize-at-ltrans -fipa-pta -fno-semantic-interposition -flto=12 -fno-plt -fno-math-errno -fno-trapping-math -fuse-linker-plugin -pipe -g0 -falign-functions=32 -Wl,-O1 -Wl,--as-needed -Wl,--hash-style=gnu,-z,norelro,--as-needed -c -o libusb_1_0_la-io.lo `test -f 'io.c' || echo '/tmp/portage/dev-libs/libusb-1.0.23-r1/work/libusb-1.0.23/libusb/'`io.c
/bin/sh ../libtool  --tag=CC   --mode=compile x86_64-pc-linux-gnu-gcc -DHAVE_CONFIG_H -I. -I/tmp/portage/dev-libs/libusb-1.0.23-r1/work/libusb-1.0.23/libusb -I..    -std=gnu99 -Wall -Wundef -Wunused -Wstrict-prototypes -Werror-implicit-function-declaration -Wno-pointer-sign -Wshadow -pthread -fvisibility=hidden -march=native -O3 -fgraphite-identity -floop-nest-optimize -fdevirtualize-at-ltrans -fipa-pta -fno-semantic-interposition -flto=12 -fno-plt -fno-math-errno -fno-trapping-math -fuse-linker-plugin -pipe -g0 -falign-functions=32 -Wl,-O1 -Wl,--as-needed -Wl,--hash-style=gnu,-z,norelro,--as-needed -c -o libusb_1_0_la-strerror.lo `test -f 'strerror.c' || echo '/tmp/portage/dev-libs/libusb-1.0.23-r1/work/libusb-1.0.23/libusb/'`strerror.c
/bin/sh ../libtool  --tag=CC   --mode=compile x86_64-pc-linux-gnu-gcc -DHAVE_CONFIG_H -I. -I/tmp/portage/dev-libs/libusb-1.0.23-r1/work/libusb-1.0.23/libusb -I..    -std=gnu99 -Wall -Wundef -Wunused -Wstrict-prototypes -Werror-implicit-function-declaration -Wno-pointer-sign -Wshadow -pthread -fvisibility=hidden -march=native -O3 -fgraphite-identity -floop-nest-optimize -fdevirtualize-at-ltrans -fipa-pta -fno-semantic-interposition -flto=12 -fno-plt -fno-math-errno -fno-trapping-math -fuse-linker-plugin -pipe -g0 -falign-functions=32 -Wl,-O1 -Wl,--as-needed -Wl,--hash-style=gnu,-z,norelro,--as-needed -c -o libusb_1_0_la-sync.lo `test -f 'sync.c' || echo '/tmp/portage/dev-libs/libusb-1.0.23-r1/work/libusb-1.0.23/libusb/'`sync.c
/bin/sh ../libtool  --tag=CC   --mode=compile x86_64-pc-linux-gnu-gcc -DHAVE_CONFIG_H -I. -I/tmp/portage/dev-libs/libusb-1.0.23-r1/work/libusb-1.0.23/libusb -I..    -std=gnu99 -Wall -Wundef -Wunused -Wstrict-prototypes -Werror-implicit-function-declaration -Wno-pointer-sign -Wshadow -pthread -fvisibility=hidden -march=native -O3 -fgraphite-identity -floop-nest-optimize -fdevirtualize-at-ltrans -fipa-pta -fno-semantic-interposition -flto=12 -fno-plt -fno-math-errno -fno-trapping-math -fuse-linker-plugin -pipe -g0 -falign-functions=32 -Wl,-O1 -Wl,--as-needed -Wl,--hash-style=gnu,-z,norelro,--as-needed -c -o os/libusb_1_0_la-poll_posix.lo `test -f 'os/poll_posix.c' || echo '/tmp/portage/dev-libs/libusb-1.0.23-r1/work/libusb-1.0.23/libusb/'`os/poll_posix.c
/bin/sh ../libtool  --tag=CC   --mode=compile x86_64-pc-linux-gnu-gcc -DHAVE_CONFIG_H -I. -I/tmp/portage/dev-libs/libusb-1.0.23-r1/work/libusb-1.0.23/libusb -I..    -std=gnu99 -Wall -Wundef -Wunused -Wstrict-prototypes -Werror-implicit-function-declaration -Wno-pointer-sign -Wshadow -pthread -fvisibility=hidden -march=native -O3 -fgraphite-identity -floop-nest-optimize -fdevirtualize-at-ltrans -fipa-pta -fno-semantic-interposition -flto=12 -fno-plt -fno-math-errno -fno-trapping-math -fuse-linker-plugin -pipe -g0 -falign-functions=32 -Wl,-O1 -Wl,--as-needed -Wl,--hash-style=gnu,-z,norelro,--as-needed -c -o os/libusb_1_0_la-threads_posix.lo `test -f 'os/threads_posix.c' || echo '/tmp/portage/dev-libs/libusb-1.0.23-r1/work/libusb-1.0.23/libusb/'`os/threads_posix.c
/bin/sh ../libtool  --tag=CC   --mode=compile x86_64-pc-linux-gnu-gcc -DHAVE_CONFIG_H -I. -I/tmp/portage/dev-libs/libusb-1.0.23-r1/work/libusb-1.0.23/libusb -I..    -std=gnu99 -Wall -Wundef -Wunused -Wstrict-prototypes -Werror-implicit-function-declaration -Wno-pointer-sign -Wshadow -pthread -fvisibility=hidden -march=native -O3 -fgraphite-identity -floop-nest-optimize -fdevirtualize-at-ltrans -fipa-pta -fno-semantic-interposition -flto=12 -fno-plt -fno-math-errno -fno-trapping-math -fuse-linker-plugin -pipe -g0 -falign-functions=32 -Wl,-O1 -Wl,--as-needed -Wl,--hash-style=gnu,-z,norelro,--as-needed -c -o os/libusb_1_0_la-linux_usbfs.lo `test -f 'os/linux_usbfs.c' || echo '/tmp/portage/dev-libs/libusb-1.0.23-r1/work/libusb-1.0.23/libusb/'`os/linux_usbfs.c
/bin/sh ../libtool  --tag=CC   --mode=compile x86_64-pc-linux-gnu-gcc -DHAVE_CONFIG_H -I. -I/tmp/portage/dev-libs/libusb-1.0.23-r1/work/libusb-1.0.23/libusb -I..    -std=gnu99 -Wall -Wundef -Wunused -Wstrict-prototypes -Werror-implicit-function-declaration -Wno-pointer-sign -Wshadow -pthread -fvisibility=hidden -march=native -O3 -fgraphite-identity -floop-nest-optimize -fdevirtualize-at-ltrans -fipa-pta -fno-semantic-interposition -flto=12 -fno-plt -fno-math-errno -fno-trapping-math -fuse-linker-plugin -pipe -g0 -falign-functions=32 -Wl,-O1 -Wl,--as-needed -Wl,--hash-style=gnu,-z,norelro,--as-needed -c -o os/libusb_1_0_la-linux_udev.lo `test -f 'os/linux_udev.c' || echo '/tmp/portage/dev-libs/libusb-1.0.23-r1/work/libusb-1.0.23/libusb/'`os/linux_udev.c
libtool: compile:  x86_64-pc-linux-gnu-gcc -DHAVE_CONFIG_H -I. -I/tmp/portage/dev-libs/libusb-1.0.23-r1/work/libusb-1.0.23/libusb -I.. -std=gnu99 -Wall -Wundef -Wunused -Wstrict-prototypes -Werror-implicit-function-declaration -Wno-pointer-sign -Wshadow -pthread -fvisibility=hidden -march=native -O3 -fgraphite-identity -floop-nest-optimize -fdevirtualize-at-ltrans -fipa-pta -fno-semantic-interposition -flto=12 -fno-plt -fno-math-errno -fno-trapping-math -fuse-linker-plugin -pipe -g0 -falign-functions=32 -Wl,-O1 -Wl,--as-needed -Wl,--hash-style=gnu,-z,norelro,--as-needed -c /tmp/portage/dev-libs/libusb-1.0.23-r1/work/libusb-1.0.23/libusb/sync.c  -fPIC -DPIC -o .libs/libusb_1_0_la-sync.o
libtool: compile:  x86_64-pc-linux-gnu-gcc -DHAVE_CONFIG_H -I. -I/tmp/portage/dev-libs/libusb-1.0.23-r1/work/libusb-1.0.23/libusb -I.. -std=gnu99 -Wall -Wundef -Wunused -Wstrict-prototypes -Werror-implicit-function-declaration -Wno-pointer-sign -Wshadow -pthread -fvisibility=hidden -march=native -O3 -fgraphite-identity -floop-nest-optimize -fdevirtualize-at-ltrans -fipa-pta -fno-semantic-interposition -flto=12 -fno-plt -fno-math-errno -fno-trapping-math -fuse-linker-plugin -pipe -g0 -falign-functions=32 -Wl,-O1 -Wl,--as-needed -Wl,--hash-style=gnu,-z,norelro,--as-needed -c /tmp/portage/dev-libs/libusb-1.0.23-r1/work/libusb-1.0.23/libusb/descriptor.c  -fPIC -DPIC -o .libs/libusb_1_0_la-descriptor.o
libtool: compile:  x86_64-pc-linux-gnu-gcc -DHAVE_CONFIG_H -I. -I/tmp/portage/dev-libs/libusb-1.0.23-r1/work/libusb-1.0.23/libusb -I.. -std=gnu99 -Wall -Wundef -Wunused -Wstrict-prototypes -Werror-implicit-function-declaration -Wno-pointer-sign -Wshadow -pthread -fvisibility=hidden -march=native -O3 -fgraphite-identity -floop-nest-optimize -fdevirtualize-at-ltrans -fipa-pta -fno-semantic-interposition -flto=12 -fno-plt -fno-math-errno -fno-trapping-math -fuse-linker-plugin -pipe -g0 -falign-functions=32 -Wl,-O1 -Wl,--as-needed -Wl,--hash-style=gnu,-z,norelro,--as-needed -c /tmp/portage/dev-libs/libusb-1.0.23-r1/work/libusb-1.0.23/libusb/io.c  -fPIC -DPIC -o .libs/libusb_1_0_la-io.o
libtool: compile:  x86_64-pc-linux-gnu-gcc -DHAVE_CONFIG_H -I. -I/tmp/portage/dev-libs/libusb-1.0.23-r1/work/libusb-1.0.23/libusb -I.. -std=gnu99 -Wall -Wundef -Wunused -Wstrict-prototypes -Werror-implicit-function-declaration -Wno-pointer-sign -Wshadow -pthread -fvisibility=hidden -march=native -O3 -fgraphite-identity -floop-nest-optimize -fdevirtualize-at-ltrans -fipa-pta -fno-semantic-interposition -flto=12 -fno-plt -fno-math-errno -fno-trapping-math -fuse-linker-plugin -pipe -g0 -falign-functions=32 -Wl,-O1 -Wl,--as-needed -Wl,--hash-style=gnu,-z,norelro,--as-needed -c /tmp/portage/dev-libs/libusb-1.0.23-r1/work/libusb-1.0.23/libusb/hotplug.c  -fPIC -DPIC -o .libs/libusb_1_0_la-hotplug.o
libtool: compile:  x86_64-pc-linux-gnu-gcc -DHAVE_CONFIG_H -I. -I/tmp/portage/dev-libs/libusb-1.0.23-r1/work/libusb-1.0.23/libusb -I.. -std=gnu99 -Wall -Wundef -Wunused -Wstrict-prototypes -Werror-implicit-function-declaration -Wno-pointer-sign -Wshadow -pthread -fvisibility=hidden -march=native -O3 -fgraphite-identity -floop-nest-optimize -fdevirtualize-at-ltrans -fipa-pta -fno-semantic-interposition -flto=12 -fno-plt -fno-math-errno -fno-trapping-math -fuse-linker-plugin -pipe -g0 -falign-functions=32 -Wl,-O1 -Wl,--as-needed -Wl,--hash-style=gnu,-z,norelro,--as-needed -c /tmp/portage/dev-libs/libusb-1.0.23-r1/work/libusb-1.0.23/libusb/core.c  -fPIC -DPIC -o .libs/libusb_1_0_la-core.o
libtool: compile:  x86_64-pc-linux-gnu-gcc -DHAVE_CONFIG_H -I. -I/tmp/portage/dev-libs/libusb-1.0.23-r1/work/libusb-1.0.23/libusb -I.. -std=gnu99 -Wall -Wundef -Wunused -Wstrict-prototypes -Werror-implicit-function-declaration -Wno-pointer-sign -Wshadow -pthread -fvisibility=hidden -march=native -O3 -fgraphite-identity -floop-nest-optimize -fdevirtualize-at-ltrans -fipa-pta -fno-semantic-interposition -flto=12 -fno-plt -fno-math-errno -fno-trapping-math -fuse-linker-plugin -pipe -g0 -falign-functions=32 -Wl,-O1 -Wl,--as-needed -Wl,--hash-style=gnu,-z,norelro,--as-needed -c /tmp/portage/dev-libs/libusb-1.0.23-r1/work/libusb-1.0.23/libusb/strerror.c  -fPIC -DPIC -o .libs/libusb_1_0_la-strerror.o
libtool: compile:  x86_64-pc-linux-gnu-gcc -DHAVE_CONFIG_H -I. -I/tmp/portage/dev-libs/libusb-1.0.23-r1/work/libusb-1.0.23/libusb -I.. -std=gnu99 -Wall -Wundef -Wunused -Wstrict-prototypes -Werror-implicit-function-declaration -Wno-pointer-sign -Wshadow -pthread -fvisibility=hidden -march=native -O3 -fgraphite-identity -floop-nest-optimize -fdevirtualize-at-ltrans -fipa-pta -fno-semantic-interposition -flto=12 -fno-plt -fno-math-errno -fno-trapping-math -fuse-linker-plugin -pipe -g0 -falign-functions=32 -Wl,-O1 -Wl,--as-needed -Wl,--hash-style=gnu,-z,norelro,--as-needed -c /tmp/portage/dev-libs/libusb-1.0.23-r1/work/libusb-1.0.23/libusb/os/threads_posix.c  -fPIC -DPIC -o os/.libs/libusb_1_0_la-threads_posix.o
libtool: compile:  x86_64-pc-linux-gnu-gcc -DHAVE_CONFIG_H -I. -I/tmp/portage/dev-libs/libusb-1.0.23-r1/work/libusb-1.0.23/libusb -I.. -std=gnu99 -Wall -Wundef -Wunused -Wstrict-prototypes -Werror-implicit-function-declaration -Wno-pointer-sign -Wshadow -pthread -fvisibility=hidden -march=native -O3 -fgraphite-identity -floop-nest-optimize -fdevirtualize-at-ltrans -fipa-pta -fno-semantic-interposition -flto=12 -fno-plt -fno-math-errno -fno-trapping-math -fuse-linker-plugin -pipe -g0 -falign-functions=32 -Wl,-O1 -Wl,--as-needed -Wl,--hash-style=gnu,-z,norelro,--as-needed -c /tmp/portage/dev-libs/libusb-1.0.23-r1/work/libusb-1.0.23/libusb/os/linux_usbfs.c  -fPIC -DPIC -o os/.libs/libusb_1_0_la-linux_usbfs.o
libtool: compile:  x86_64-pc-linux-gnu-gcc -DHAVE_CONFIG_H -I. -I/tmp/portage/dev-libs/libusb-1.0.23-r1/work/libusb-1.0.23/libusb -I.. -std=gnu99 -Wall -Wundef -Wunused -Wstrict-prototypes -Werror-implicit-function-declaration -Wno-pointer-sign -Wshadow -pthread -fvisibility=hidden -march=native -O3 -fgraphite-identity -floop-nest-optimize -fdevirtualize-at-ltrans -fipa-pta -fno-semantic-interposition -flto=12 -fno-plt -fno-math-errno -fno-trapping-math -fuse-linker-plugin -pipe -g0 -falign-functions=32 -Wl,-O1 -Wl,--as-needed -Wl,--hash-style=gnu,-z,norelro,--as-needed -c /tmp/portage/dev-libs/libusb-1.0.23-r1/work/libusb-1.0.23/libusb/os/poll_posix.c  -fPIC -DPIC -o os/.libs/libusb_1_0_la-poll_posix.o
libtool: compile:  x86_64-pc-linux-gnu-gcc -DHAVE_CONFIG_H -I. -I/tmp/portage/dev-libs/libusb-1.0.23-r1/work/libusb-1.0.23/libusb -I.. -std=gnu99 -Wall -Wundef -Wunused -Wstrict-prototypes -Werror-implicit-function-declaration -Wno-pointer-sign -Wshadow -pthread -fvisibility=hidden -march=native -O3 -fgraphite-identity -floop-nest-optimize -fdevirtualize-at-ltrans -fipa-pta -fno-semantic-interposition -flto=12 -fno-plt -fno-math-errno -fno-trapping-math -fuse-linker-plugin -pipe -g0 -falign-functions=32 -Wl,-O1 -Wl,--as-needed -Wl,--hash-style=gnu,-z,norelro,--as-needed -c /tmp/portage/dev-libs/libusb-1.0.23-r1/work/libusb-1.0.23/libusb/os/linux_udev.c  -fPIC -DPIC -o os/.libs/libusb_1_0_la-linux_udev.o
In file included from /tmp/portage/dev-libs/libusb-1.0.23-r1/work/libusb-1.0.23/libusb/descriptor.c:29:
/tmp/portage/dev-libs/libusb-1.0.23-r1/work/libusb-1.0.23/libusb/descriptor.c: In function 'libusb_get_device_descriptor':
/tmp/portage/dev-libs/libusb-1.0.23-r1/work/libusb-1.0.23/libusb/descriptor.c:546:11: warning: zero-length gnu_printf format string [-Wformat-zero-length]
  546 |  usbi_dbg("");
      |           ^~
/tmp/portage/dev-libs/libusb-1.0.23-r1/work/libusb-1.0.23/libusb/libusbi.h:238:71: note: in definition of macro '_usbi_log'
  238 | #define _usbi_log(ctx, level, ...) usbi_log(ctx, level, __FUNCTION__, __VA_ARGS__)
      |                                                                       ^~~~~~~~~~~
/tmp/portage/dev-libs/libusb-1.0.23-r1/work/libusb-1.0.23/libusb/descriptor.c:546:2: note: in expansion of macro 'usbi_dbg'
  546 |  usbi_dbg("");
      |  ^~~~~~~~
In file included from /tmp/portage/dev-libs/libusb-1.0.23-r1/work/libusb-1.0.23/libusb/io.c:40:
/tmp/portage/dev-libs/libusb-1.0.23-r1/work/libusb-1.0.23/libusb/io.c: In function 'disarm_timerfd':
/tmp/portage/dev-libs/libusb-1.0.23-r1/work/libusb-1.0.23/libusb/io.c:1333:11: warning: zero-length gnu_printf format string [-Wformat-zero-length]
 1333 |  usbi_dbg("");
      |           ^~
/tmp/portage/dev-libs/libusb-1.0.23-r1/work/libusb-1.0.23/libusb/libusbi.h:238:71: note: in definition of macro '_usbi_log'
  238 | #define _usbi_log(ctx, level, ...) usbi_log(ctx, level, __FUNCTION__, __VA_ARGS__)
      |                                                                       ^~~~~~~~~~~
/tmp/portage/dev-libs/libusb-1.0.23-r1/work/libusb-1.0.23/libusb/io.c:1333:2: note: in expansion of macro 'usbi_dbg'
 1333 |  usbi_dbg("");
      |  ^~~~~~~~
/tmp/portage/dev-libs/libusb-1.0.23-r1/work/libusb-1.0.23/libusb/io.c: In function 'libusb_interrupt_event_handler':
/tmp/portage/dev-libs/libusb-1.0.23-r1/work/libusb-1.0.23/libusb/io.c:1915:11: warning: zero-length gnu_printf format string [-Wformat-zero-length]
 1915 |  usbi_dbg("");
      |           ^~
/tmp/portage/dev-libs/libusb-1.0.23-r1/work/libusb-1.0.23/libusb/libusbi.h:238:71: note: in definition of macro '_usbi_log'
  238 | #define _usbi_log(ctx, level, ...) usbi_log(ctx, level, __FUNCTION__, __VA_ARGS__)
      |                                                                       ^~~~~~~~~~~
/tmp/portage/dev-libs/libusb-1.0.23-r1/work/libusb-1.0.23/libusb/io.c:1915:2: note: in expansion of macro 'usbi_dbg'
 1915 |  usbi_dbg("");
      |  ^~~~~~~~
In file included from /tmp/portage/dev-libs/libusb-1.0.23-r1/work/libusb-1.0.23/libusb/core.c:44:
/tmp/portage/dev-libs/libusb-1.0.23-r1/work/libusb-1.0.23/libusb/core.c: In function 'libusb_get_device_list':
/tmp/portage/dev-libs/libusb-1.0.23-r1/work/libusb-1.0.23/libusb/core.c:815:11: warning: zero-length gnu_printf format string [-Wformat-zero-length]
  815 |  usbi_dbg("");
      |           ^~
/tmp/portage/dev-libs/libusb-1.0.23-r1/work/libusb-1.0.23/libusb/libusbi.h:238:71: note: in definition of macro '_usbi_log'
  238 | #define _usbi_log(ctx, level, ...) usbi_log(ctx, level, __FUNCTION__, __VA_ARGS__)
      |                                                                       ^~~~~~~~~~~
/tmp/portage/dev-libs/libusb-1.0.23-r1/work/libusb-1.0.23/libusb/core.c:815:2: note: in expansion of macro 'usbi_dbg'
  815 |  usbi_dbg("");
      |  ^~~~~~~~
/tmp/portage/dev-libs/libusb-1.0.23-r1/work/libusb-1.0.23/libusb/core.c: In function 'libusb_close':
/tmp/portage/dev-libs/libusb-1.0.23-r1/work/libusb-1.0.23/libusb/core.c:1495:11: warning: zero-length gnu_printf format string [-Wformat-zero-length]
 1495 |  usbi_dbg("");
      |           ^~
/tmp/portage/dev-libs/libusb-1.0.23-r1/work/libusb-1.0.23/libusb/libusbi.h:238:71: note: in definition of macro '_usbi_log'
  238 | #define _usbi_log(ctx, level, ...) usbi_log(ctx, level, __FUNCTION__, __VA_ARGS__)
      |                                                                       ^~~~~~~~~~~
/tmp/portage/dev-libs/libusb-1.0.23-r1/work/libusb-1.0.23/libusb/core.c:1495:2: note: in expansion of macro 'usbi_dbg'
 1495 |  usbi_dbg("");
      |  ^~~~~~~~
/tmp/portage/dev-libs/libusb-1.0.23-r1/work/libusb-1.0.23/libusb/core.c: In function 'libusb_get_configuration':
/tmp/portage/dev-libs/libusb-1.0.23-r1/work/libusb-1.0.23/libusb/core.c:1578:11: warning: zero-length gnu_printf format string [-Wformat-zero-length]
 1578 |  usbi_dbg("");
      |           ^~
/tmp/portage/dev-libs/libusb-1.0.23-r1/work/libusb-1.0.23/libusb/libusbi.h:238:71: note: in definition of macro '_usbi_log'
  238 | #define _usbi_log(ctx, level, ...) usbi_log(ctx, level, __FUNCTION__, __VA_ARGS__)
      |                                                                       ^~~~~~~~~~~
/tmp/portage/dev-libs/libusb-1.0.23-r1/work/libusb-1.0.23/libusb/core.c:1578:2: note: in expansion of macro 'usbi_dbg'
 1578 |  usbi_dbg("");
      |  ^~~~~~~~
/tmp/portage/dev-libs/libusb-1.0.23-r1/work/libusb-1.0.23/libusb/core.c: In function 'libusb_reset_device':
/tmp/portage/dev-libs/libusb-1.0.23-r1/work/libusb-1.0.23/libusb/core.c:1846:11: warning: zero-length gnu_printf format string [-Wformat-zero-length]
 1846 |  usbi_dbg("");
      |           ^~
/tmp/portage/dev-libs/libusb-1.0.23-r1/work/libusb-1.0.23/libusb/libusbi.h:238:71: note: in definition of macro '_usbi_log'
  238 | #define _usbi_log(ctx, level, ...) usbi_log(ctx, level, __FUNCTION__, __VA_ARGS__)
      |                                                                       ^~~~~~~~~~~
/tmp/portage/dev-libs/libusb-1.0.23-r1/work/libusb-1.0.23/libusb/core.c:1846:2: note: in expansion of macro 'usbi_dbg'
 1846 |  usbi_dbg("");
      |  ^~~~~~~~
/tmp/portage/dev-libs/libusb-1.0.23-r1/work/libusb-1.0.23/libusb/core.c: In function 'libusb_exit':
/tmp/portage/dev-libs/libusb-1.0.23-r1/work/libusb-1.0.23/libusb/core.c:2370:11: warning: zero-length gnu_printf format string [-Wformat-zero-length]
 2370 |  usbi_dbg("");
      |           ^~
/tmp/portage/dev-libs/libusb-1.0.23-r1/work/libusb-1.0.23/libusb/libusbi.h:238:71: note: in definition of macro '_usbi_log'
  238 | #define _usbi_log(ctx, level, ...) usbi_log(ctx, level, __FUNCTION__, __VA_ARGS__)
      |                                                                       ^~~~~~~~~~~
/tmp/portage/dev-libs/libusb-1.0.23-r1/work/libusb-1.0.23/libusb/core.c:2370:2: note: in expansion of macro 'usbi_dbg'
 2370 |  usbi_dbg("");
      |  ^~~~~~~~
/bin/sh ../libtool  --tag=CC   --mode=link x86_64-pc-linux-gnu-gcc -std=gnu99 -Wall -Wundef -Wunused -Wstrict-prototypes -Werror-implicit-function-declaration -Wno-pointer-sign -Wshadow -pthread -fvisibility=hidden -march=native -O3 -fgraphite-identity -floop-nest-optimize -fdevirtualize-at-ltrans -fipa-pta -fno-semantic-interposition -flto=12 -fno-plt -fno-math-errno -fno-trapping-math -fuse-linker-plugin -pipe -g0 -falign-functions=32 -Wl,-O1 -Wl,--as-needed -Wl,--hash-style=gnu,-z,norelro,--as-needed -version-info 2:0:2 -no-undefined -Wl,-O1 -Wl,--as-needed -Wl,--hash-style=gnu,-z,norelro,--as-needed -march=native -O3 -fgraphite-identity -floop-nest-optimize -fdevirtualize-at-ltrans -fipa-pta -fno-semantic-interposition -flto=12 -fno-plt -fno-math-errno -fno-trapping-math -fuse-linker-plugin -pipe -g0 -falign-functions=32 -o libusb-1.0.la -rpath /usr/lib64 libusb_1_0_la-core.lo libusb_1_0_la-descriptor.lo libusb_1_0_la-hotplug.lo libusb_1_0_la-io.lo libusb_1_0_la-strerror.lo libusb_1_0_la-sync.lo os/libusb_1_0_la-poll_posix.lo os/libusb_1_0_la-threads_posix.lo os/libusb_1_0_la-linux_usbfs.lo os/libusb_1_0_la-linux_udev.lo  -ludev  -pthread
libtool: link: x86_64-pc-linux-gnu-gcc -shared  -fPIC -DPIC  .libs/libusb_1_0_la-core.o .libs/libusb_1_0_la-descriptor.o .libs/libusb_1_0_la-hotplug.o .libs/libusb_1_0_la-io.o .libs/libusb_1_0_la-strerror.o .libs/libusb_1_0_la-sync.o os/.libs/libusb_1_0_la-poll_posix.o os/.libs/libusb_1_0_la-threads_posix.o os/.libs/libusb_1_0_la-linux_usbfs.o os/.libs/libusb_1_0_la-linux_udev.o   -ludev  -pthread -march=native -O3 -flto=12 -fuse-linker-plugin -g0 -Wl,-O1 -Wl,--as-needed -Wl,--hash-style=gnu -Wl,-z -Wl,norelro -Wl,--as-needed -Wl,-O1 -Wl,--as-needed -Wl,--hash-style=gnu -Wl,-z -Wl,norelro -Wl,--as-needed -march=native -O3 -flto=12 -fuse-linker-plugin -g0 -pthread   -pthread -Wl,-soname -Wl,libusb-1.0.so.0 -o .libs/libusb-1.0.so.0.2.0
libtool: link: (cd ".libs" && rm -f "libusb-1.0.so.0" && ln -s "libusb-1.0.so.0.2.0" "libusb-1.0.so.0")
libtool: link: (cd ".libs" && rm -f "libusb-1.0.so" && ln -s "libusb-1.0.so.0.2.0" "libusb-1.0.so")
libtool: link: ( cd ".libs" && rm -f "libusb-1.0.la" && ln -s "../libusb-1.0.la" "libusb-1.0.la" )
make[2]: Leaving directory '/tmp/portage/dev-libs/libusb-1.0.23-r1/work/libusb-1.0.23-abi_x86_64.amd64/libusb'
Making all in doc
make[2]: Entering directory '/tmp/portage/dev-libs/libusb-1.0.23-r1/work/libusb-1.0.23-abi_x86_64.amd64/doc'
make[2]: Nothing to be done for 'all'.
make[2]: Leaving directory '/tmp/portage/dev-libs/libusb-1.0.23-r1/work/libusb-1.0.23-abi_x86_64.amd64/doc'
make[2]: Entering directory '/tmp/portage/dev-libs/libusb-1.0.23-r1/work/libusb-1.0.23-abi_x86_64.amd64'
make[2]: Leaving directory '/tmp/portage/dev-libs/libusb-1.0.23-r1/work/libusb-1.0.23-abi_x86_64.amd64'
make[1]: Leaving directory '/tmp/portage/dev-libs/libusb-1.0.23-r1/work/libusb-1.0.23-abi_x86_64.amd64'
>>> Source compiled.
 * Skipping make test/check due to ebuild restriction.
>>> Test phase [disabled because of RESTRICT=test]: dev-libs/libusb-1.0.23-r1

>>> Install dev-libs/libusb-1.0.23-r1 into /tmp/portage/dev-libs/libusb-1.0.23-r1/image
 * abi_x86_64.amd64: running multilib-minimal_abi_src_install
make -j12 -l12 DESTDIR=/tmp/portage/dev-libs/libusb-1.0.23-r1/image install 
Making install in libusb
make[1]: Entering directory '/tmp/portage/dev-libs/libusb-1.0.23-r1/work/libusb-1.0.23-abi_x86_64.amd64/libusb'
make[2]: Entering directory '/tmp/portage/dev-libs/libusb-1.0.23-r1/work/libusb-1.0.23-abi_x86_64.amd64/libusb'
 /bin/mkdir -p '/tmp/portage/dev-libs/libusb-1.0.23-r1/image/usr/lib64'
 /bin/mkdir -p '/tmp/portage/dev-libs/libusb-1.0.23-r1/image/usr/include/libusb-1.0'
 /bin/sh ../libtool   --mode=install /tmp/portage/._portage_reinstall_.9hwlekaq/bin/ebuild-helpers/xattr/install -c   libusb-1.0.la '/tmp/portage/dev-libs/libusb-1.0.23-r1/image/usr/lib64'
 /tmp/portage/._portage_reinstall_.9hwlekaq/bin/ebuild-helpers/xattr/install -c -m 644 /tmp/portage/dev-libs/libusb-1.0.23-r1/work/libusb-1.0.23/libusb/libusb.h '/tmp/portage/dev-libs/libusb-1.0.23-r1/image/usr/include/libusb-1.0'
libtool: install: /tmp/portage/._portage_reinstall_.9hwlekaq/bin/ebuild-helpers/xattr/install -c .libs/libusb-1.0.so.0.2.0 /tmp/portage/dev-libs/libusb-1.0.23-r1/image/usr/lib64/libusb-1.0.so.0.2.0
libtool: install: (cd /tmp/portage/dev-libs/libusb-1.0.23-r1/image/usr/lib64 && { ln -s -f libusb-1.0.so.0.2.0 libusb-1.0.so.0 || { rm -f libusb-1.0.so.0 && ln -s libusb-1.0.so.0.2.0 libusb-1.0.so.0; }; })
libtool: install: (cd /tmp/portage/dev-libs/libusb-1.0.23-r1/image/usr/lib64 && { ln -s -f libusb-1.0.so.0.2.0 libusb-1.0.so || { rm -f libusb-1.0.so && ln -s libusb-1.0.so.0.2.0 libusb-1.0.so; }; })
libtool: install: /tmp/portage/._portage_reinstall_.9hwlekaq/bin/ebuild-helpers/xattr/install -c .libs/libusb-1.0.lai /tmp/portage/dev-libs/libusb-1.0.23-r1/image/usr/lib64/libusb-1.0.la
libtool: warning: remember to run 'libtool --finish /usr/lib64'
make[2]: Leaving directory '/tmp/portage/dev-libs/libusb-1.0.23-r1/work/libusb-1.0.23-abi_x86_64.amd64/libusb'
make[1]: Leaving directory '/tmp/portage/dev-libs/libusb-1.0.23-r1/work/libusb-1.0.23-abi_x86_64.amd64/libusb'
Making install in doc
make[1]: Entering directory '/tmp/portage/dev-libs/libusb-1.0.23-r1/work/libusb-1.0.23-abi_x86_64.amd64/doc'
make[2]: Entering directory '/tmp/portage/dev-libs/libusb-1.0.23-r1/work/libusb-1.0.23-abi_x86_64.amd64/doc'
make[2]: Nothing to be done for 'install-exec-am'.
make[2]: Nothing to be done for 'install-data-am'.
make[2]: Leaving directory '/tmp/portage/dev-libs/libusb-1.0.23-r1/work/libusb-1.0.23-abi_x86_64.amd64/doc'
make[1]: Leaving directory '/tmp/portage/dev-libs/libusb-1.0.23-r1/work/libusb-1.0.23-abi_x86_64.amd64/doc'
make[1]: Entering directory '/tmp/portage/dev-libs/libusb-1.0.23-r1/work/libusb-1.0.23-abi_x86_64.amd64'
make[2]: Entering directory '/tmp/portage/dev-libs/libusb-1.0.23-r1/work/libusb-1.0.23-abi_x86_64.amd64'
make[2]: Nothing to be done for 'install-exec-am'.
 /bin/mkdir -p '/tmp/portage/dev-libs/libusb-1.0.23-r1/image/usr/lib64/pkgconfig'
 /tmp/portage/._portage_reinstall_.9hwlekaq/bin/ebuild-helpers/xattr/install -c -m 644 libusb-1.0.pc '/tmp/portage/dev-libs/libusb-1.0.23-r1/image/usr/lib64/pkgconfig'
make[2]: Leaving directory '/tmp/portage/dev-libs/libusb-1.0.23-r1/work/libusb-1.0.23-abi_x86_64.amd64'
make[1]: Leaving directory '/tmp/portage/dev-libs/libusb-1.0.23-r1/work/libusb-1.0.23-abi_x86_64.amd64'
>>> Completed installing dev-libs/libusb-1.0.23-r1 into /tmp/portage/dev-libs/libusb-1.0.23-r1/image

 * Final size of build directory: 5484 KiB (5.3 MiB)
 * Final size of installed tree:   480 KiB

strip: x86_64-pc-linux-gnu-strip --strip-unneeded -N __gentoo_check_ldflags__ -R .comment -R .GCC.command.line -R .note.gnu.gold-version
   /lib64/libusb-1.0.so.0.2.0
./
./usr/
./usr/include/
./usr/include/libusb-1.0/
./usr/include/libusb-1.0/libusb.h
./usr/share/
./usr/share/doc/
./usr/share/doc/libusb-1.0.23-r1/
./usr/share/doc/libusb-1.0.23-r1/README.bz2
./usr/share/doc/libusb-1.0.23-r1/ChangeLog.bz2
./usr/share/doc/libusb-1.0.23-r1/examples/
./usr/share/doc/libusb-1.0.23-r1/examples/hotplugtest.c.bz2
./usr/share/doc/libusb-1.0.23-r1/examples/dpfp.c.bz2
./usr/share/doc/libusb-1.0.23-r1/examples/getopt/
./usr/share/doc/libusb-1.0.23-r1/examples/getopt/getopt1.c.bz2
./usr/share/doc/libusb-1.0.23-r1/examples/getopt/getopt.h.bz2
./usr/share/doc/libusb-1.0.23-r1/examples/getopt/getopt.c.bz2
./usr/share/doc/libusb-1.0.23-r1/examples/testlibusb.c.bz2
./usr/share/doc/libusb-1.0.23-r1/examples/sam3u_benchmark.c.bz2
./usr/share/doc/libusb-1.0.23-r1/examples/listdevs.c.bz2
./usr/share/doc/libusb-1.0.23-r1/examples/xusb.c.bz2
./usr/share/doc/libusb-1.0.23-r1/examples/dpfp_threaded.c.bz2
./usr/share/doc/libusb-1.0.23-r1/examples/fxload.c.bz2
./usr/share/doc/libusb-1.0.23-r1/examples/ezusb.c.bz2
./usr/share/doc/libusb-1.0.23-r1/examples/ezusb.h.bz2
./usr/share/doc/libusb-1.0.23-r1/NEWS
./usr/share/doc/libusb-1.0.23-r1/AUTHORS.bz2
./usr/share/doc/libusb-1.0.23-r1/TODO
./usr/share/doc/libusb-1.0.23-r1/PORTING.bz2
./usr/lib64/
./usr/lib64/pkgconfig/
./usr/lib64/pkgconfig/libusb-1.0.pc
./usr/lib64/libusb-1.0.so
./lib64/
./lib64/libusb-1.0.so.0
./lib64/libusb-1.0.so.0.2.0
>>> Done.
 * checking 5 files for package collisions
>>> Merging dev-libs/libusb-1.0.23-r1 to /
 * removing unneeded *.la files
--- /lib64/
>>> /lib64/libusb-1.0.so.0.2.0
>>> /lib64/libusb-1.0.so.0 -> libusb-1.0.so.0.2.0
--- /usr/
--- /usr/lib64/
>>> /usr/lib64/libusb-1.0.so
--- /usr/lib64/pkgconfig/
>>> /usr/lib64/pkgconfig/libusb-1.0.pc
--- /usr/include/
--- /usr/include/libusb-1.0/
>>> /usr/include/libusb-1.0/libusb.h
>>> Safely unmerging already-installed instance...
>>> Original instance of package unmerged safely.
>>> dev-libs/libusb-1.0.23-r1 merged.
>>> Regenerating /etc/ld.so.cache...
