 * Package:    dev-perl/DateTime-Format-Builder-0.810.0-r1
 * Repository: gentoo
 * Maintainer: perl@gentoo.org
 * USE:        abi_x86_64 amd64 elibc_glibc kernel_linux userland_GNU
 * FEATURES:   network-sandbox preserve-libs sandbox userpriv usersandbox
 * FEATURES='assume-digests binpkg-docompress binpkg-dostrip binpkg-logs buildpkg cgroup compress-index config-protect-if-modified distlocks ebuild-locks fixlafiles ipc-sandbox merge-sync multilib-strict network-sandbox news nodoc parallel-fetch pid-sandbox preserve-libs qa-unresolved-soname-deps sandbox sfperms strict strict-keepdir unknown-features-warn unmerge-logs unmerge-orphans userfetch userpriv usersandbox usersync xattr'
 * CFLAGS='-march=znver2 -Ofast -pipe -g0 -fno-common -fgraphite-identity -floop-interchange -floop-nest-optimize -floop-parallelize-all -ftree-parallelize-loops=12 -ftree-vectorize -fdevirtualize-at-ltrans -fipa-pta -fno-semantic-interposition -flto=12 -fno-plt -falign-functions=32 -fno-stack-protector -fno-stack-clash-protection -fstack-check=no -fno-stack-check -fuse-linker-plugin -Wl,-O1,--sort-common,--as-needed,-z,norelro,-z,now,-lgomp,-lpthread'
 * CXXFLAGS='-march=znver2 -Ofast -pipe -g0 -fno-common -fgraphite-identity -floop-interchange -floop-nest-optimize -floop-parallelize-all -ftree-parallelize-loops=12 -ftree-vectorize -fdevirtualize-at-ltrans -fipa-pta -fno-semantic-interposition -flto=12 -fno-plt -falign-functions=32 -fno-stack-protector -fno-stack-clash-protection -fstack-check=no -fno-stack-check -fuse-linker-plugin -Wl,-O1,--sort-common,--as-needed,-z,norelro,-z,now,-lgomp,-lpthread'
 * FFLAGS='-march=znver2 -Ofast -pipe -g0 -fno-common -fgraphite-identity -floop-interchange -floop-nest-optimize -floop-parallelize-all -ftree-parallelize-loops=12 -ftree-vectorize -fdevirtualize-at-ltrans -fipa-pta -fno-semantic-interposition -flto=12 -fno-plt -falign-functions=32 -fno-stack-protector -fno-stack-clash-protection -fstack-check=no -fno-stack-check -fuse-linker-plugin -Wl,-O1,--sort-common,--as-needed,-z,norelro,-z,now,-lgomp,-lpthread'
 * FCFLAGS='-march=znver2 -Ofast -pipe -g0 -fno-common -fgraphite-identity -floop-interchange -floop-nest-optimize -floop-parallelize-all -ftree-parallelize-loops=12 -ftree-vectorize -fdevirtualize-at-ltrans -fipa-pta -fno-semantic-interposition -flto=12 -fno-plt -falign-functions=32 -fno-stack-protector -fno-stack-clash-protection -fstack-check=no -fno-stack-check -fuse-linker-plugin -Wl,-O1,--sort-common,--as-needed,-z,norelro,-z,now,-lgomp,-lpthread'
 * F77FLAGS='-march=znver2 -Ofast -pipe -g0 -fno-common -fgraphite-identity -floop-interchange -floop-nest-optimize -floop-parallelize-all -ftree-parallelize-loops=12 -ftree-vectorize -fdevirtualize-at-ltrans -fipa-pta -fno-semantic-interposition -flto=12 -fno-plt -falign-functions=32 -fno-stack-protector -fno-stack-clash-protection -fstack-check=no -fno-stack-check -fuse-linker-plugin -Wl,-O1,--sort-common,--as-needed,-z,norelro,-z,now,-lgomp,-lpthread'
 * LDFLAGS='-Wl,-O1,--sort-common,--as-needed,-z,norelro,-z,now,-lgomp,-lpthread -march=znver2 -Ofast -pipe -g0 -fno-common -fgraphite-identity -floop-interchange -floop-nest-optimize -floop-parallelize-all -ftree-parallelize-loops=12 -ftree-vectorize -fdevirtualize-at-ltrans -fipa-pta -fno-semantic-interposition -flto=12 -fno-plt -falign-functions=32 -fno-stack-protector -fno-stack-clash-protection -fstack-check=no -fno-stack-check -fuse-linker-plugin'
 * MAKEOPTS='-j12 -l12'
 * gcc () 11.0.0 20200616 (experimental)
 * g++ () 11.0.0 20200616 (experimental)
 * GNU ld (Gentoo 2.34 p4) 2.34.0
 * Linux rescue 5.4.36 #1 SMP Thu Apr 30 04:38:28 UTC 2020 x86_64 AMD Ryzen 5 3600 6-Core Processor AuthenticAMD GNU/Linux
dev-perl/DateTime-Format-Builder: 6 seconds average for 5 merges
2020-06-03T13:53:56 >>> dev-perl/DateTime-Format-Builder: 11 seconds
2020-06-12T01:55:53 >>> dev-perl/DateTime-Format-Builder: 5 seconds
2020-06-13T20:33:52 >>> dev-perl/DateTime-Format-Builder: 5 seconds
2020-06-15T14:11:42 >>> dev-perl/DateTime-Format-Builder: 4 seconds
2020-06-16T15:54:33 >>> dev-perl/DateTime-Format-Builder: 9 seconds
]0;emerge 15:30:22 37|410 DateTime-Format-Builder 00:06 (root@rescue)>>> Unpacking source...
>>> Unpacking DateTime-Format-Builder-0.81.tar.gz to /tmp/portage/dev-perl/DateTime-Format-Builder-0.810.0-r1/work
>>> Source unpacked in /tmp/portage/dev-perl/DateTime-Format-Builder-0.810.0-r1/work
>>> Preparing source in /tmp/portage/dev-perl/DateTime-Format-Builder-0.810.0-r1/work/DateTime-Format-Builder-0.81 ...
>>> Source prepared.
>>> Configuring source in /tmp/portage/dev-perl/DateTime-Format-Builder-0.810.0-r1/work/DateTime-Format-Builder-0.81 ...
 * Using ExtUtils::MakeMaker
 * perl Makefile.PL PREFIX=/usr INSTALLDIRS=vendor INSTALLMAN3DIR=none DESTDIR=/tmp/portage/dev-perl/DateTime-Format-Builder-0.810.0-r1/image/
Checking if your kit is complete...
Looks good
Generating a Unix-style Makefile
Writing Makefile for DateTime::Format::Builder
Writing MYMETA.yml and MYMETA.json
>>> Source configured.
>>> Compiling source in /tmp/portage/dev-perl/DateTime-Format-Builder-0.810.0-r1/work/DateTime-Format-Builder-0.81 ...
 * emake OTHERLDFLAGS=-Wl,-O1,--sort-common,--as-needed,-z,norelro,-z,now,-lgomp,-lpthread -march=znver2 -Ofast -pipe -g0 -fno-common -fgraphite-identity -floop-interchange -floop-nest-optimize -floop-parallelize-all -ftree-parallelize-loops=12 -ftree-vectorize -fdevirtualize-at-ltrans -fipa-pta -fno-semantic-interposition -flto=12 -fno-plt -falign-functions=32 -fno-stack-protector -fno-stack-clash-protection -fstack-check=no -fno-stack-check -fuse-linker-plugin
make -j12 -l12 'OTHERLDFLAGS=-Wl,-O1,--sort-common,--as-needed,-z,norelro,-z,now,-lgomp,-lpthread -march=znver2 -Ofast -pipe -g0 -fno-common -fgraphite-identity -floop-interchange -floop-nest-optimize -floop-parallelize-all -ftree-parallelize-loops=12 -ftree-vectorize -fdevirtualize-at-ltrans -fipa-pta -fno-semantic-interposition -flto=12 -fno-plt -falign-functions=32 -fno-stack-protector -fno-stack-clash-protection -fstack-check=no -fno-stack-check -fuse-linker-plugin' 
cp lib/DateTime/Format/Builder/Parser.pm blib/lib/DateTime/Format/Builder/Parser.pm
cp lib/DateTime/Format/Builder/Parser/Quick.pm blib/lib/DateTime/Format/Builder/Parser/Quick.pm
cp lib/DateTime/Format/Builder/Parser/Strptime.pm blib/lib/DateTime/Format/Builder/Parser/Strptime.pm
cp lib/DateTime/Format/Builder/Parser/generic.pm blib/lib/DateTime/Format/Builder/Parser/generic.pm
cp lib/DateTime/Format/Builder/Parser/Regex.pm blib/lib/DateTime/Format/Builder/Parser/Regex.pm
cp lib/DateTime/Format/Builder/Parser/Dispatch.pm blib/lib/DateTime/Format/Builder/Parser/Dispatch.pm
cp lib/DateTime/Format/Builder/Tutorial.pod blib/lib/DateTime/Format/Builder/Tutorial.pod
cp lib/DateTime/Format/Builder.pm blib/lib/DateTime/Format/Builder.pm
>>> Source compiled.
>>> Test phase [not enabled]: dev-perl/DateTime-Format-Builder-0.810.0-r1

>>> Install dev-perl/DateTime-Format-Builder-0.810.0-r1 into /tmp/portage/dev-perl/DateTime-Format-Builder-0.810.0-r1/image/
make -j12 -l12 pure_install 
Installing /tmp/portage/dev-perl/DateTime-Format-Builder-0.810.0-r1/image/usr/lib64/perl5/vendor_perl/5.30.3/DateTime/Format/Builder.pm
Installing /tmp/portage/dev-perl/DateTime-Format-Builder-0.810.0-r1/image/usr/lib64/perl5/vendor_perl/5.30.3/DateTime/Format/Builder/Parser.pm
Installing /tmp/portage/dev-perl/DateTime-Format-Builder-0.810.0-r1/image/usr/lib64/perl5/vendor_perl/5.30.3/DateTime/Format/Builder/Tutorial.pod
Installing /tmp/portage/dev-perl/DateTime-Format-Builder-0.810.0-r1/image/usr/lib64/perl5/vendor_perl/5.30.3/DateTime/Format/Builder/Parser/Strptime.pm
Installing /tmp/portage/dev-perl/DateTime-Format-Builder-0.810.0-r1/image/usr/lib64/perl5/vendor_perl/5.30.3/DateTime/Format/Builder/Parser/Dispatch.pm
Installing /tmp/portage/dev-perl/DateTime-Format-Builder-0.810.0-r1/image/usr/lib64/perl5/vendor_perl/5.30.3/DateTime/Format/Builder/Parser/generic.pm
Installing /tmp/portage/dev-perl/DateTime-Format-Builder-0.810.0-r1/image/usr/lib64/perl5/vendor_perl/5.30.3/DateTime/Format/Builder/Parser/Regex.pm
Installing /tmp/portage/dev-perl/DateTime-Format-Builder-0.810.0-r1/image/usr/lib64/perl5/vendor_perl/5.30.3/DateTime/Format/Builder/Parser/Quick.pm
>>> Completed installing dev-perl/DateTime-Format-Builder-0.810.0-r1 into /tmp/portage/dev-perl/DateTime-Format-Builder-0.810.0-r1/image/

 * Final size of build directory: 536 KiB
 * Final size of installed tree:  152 KiB

Parallel BZIP2 v1.1.13 [Dec 18, 2015]
By: Jeff Gilchrist [http://compression.ca]
Major contributions: Yavor Nikolov [http://javornikolov.wordpress.com]
Uses libbzip2 by Julian Seward

         # CPUs: 9
   Load Average: 2.79
 BWT Block Size: 200 KB
File Block Size: 900 KB
 Maximum Memory: 1024 MB
-------------------------------------------
         File #: 1 of 1
     Input Name: compressme
    Output Name: compressme.bz2

     Input Size: 3895 bytes
Compressing data (no threads)...
Completed: 100%                 Output Size: 918 bytes
-------------------------------------------

     Wall Clock: 0.001129 seconds
Parallel BZIP2 v1.1.13 [Dec 18, 2015]
By: Jeff Gilchrist [http://compression.ca]
Major contributions: Yavor Nikolov [http://javornikolov.wordpress.com]
Uses libbzip2 by Julian Seward

         # CPUs: 9
   Load Average: 2.79
 BWT Block Size: 200 KB
File Block Size: 900 KB
 Maximum Memory: 1024 MB
-------------------------------------------
Parallel BZIP2 v1.1.13 [Dec 18, 2015]
By: Jeff Gilchrist [http://compression.ca]
Major contributions: Yavor Nikolov [http://javornikolov.wordpress.com]
Uses libbzip2 by Julian Seward
         File #: 1 of 1
     Input Name: /tmp/portage/dev-perl/DateTime-Format-Builder-0.810.0-r1/image/usr/share/doc/DateTime-Format-Builder-0.810.0-r1/Changes

         # CPUs: 9
    Output Name: /tmp/portage/dev-perl/DateTime-Format-Builder-0.810.0-r1/image/usr/share/doc/DateTime-Format-Builder-0.810.0-r1/Changes.bz2

     Input Size: 4716 bytes
   Load Average: 2.79
 BWT Block Size: 200 KB
File Block Size: 900 KB
 Maximum Memory: 1024 MB
-------------------------------------------
Compressing data (no threads)...
         File #: 1 of 1
     Input Name: /tmp/portage/dev-perl/DateTime-Format-Builder-0.810.0-r1/image/usr/share/doc/DateTime-Format-Builder-0.810.0-r1/README
    Output Name: /tmp/portage/dev-perl/DateTime-Format-Builder-0.810.0-r1/image/usr/share/doc/DateTime-Format-Builder-0.810.0-r1/README.bz2

     Input Size: 267 bytes
Compressing data (no threads)...
Completed: 100%                 Output Size: 239 bytes
-------------------------------------------

     Wall Clock: 0.000444 seconds
Completed: 100%                 Output Size: 2166 bytes
-------------------------------------------

     Wall Clock: 0.001298 seconds
./
./usr/
./usr/share/
./usr/share/doc/
./usr/share/doc/DateTime-Format-Builder-0.810.0-r1/
./usr/share/doc/DateTime-Format-Builder-0.810.0-r1/README
./usr/share/doc/DateTime-Format-Builder-0.810.0-r1/README.bz2
./usr/share/doc/DateTime-Format-Builder-0.810.0-r1/Changes
./usr/share/doc/DateTime-Format-Builder-0.810.0-r1/Changes.bz2
./usr/lib64/
./usr/lib64/perl5/
./usr/lib64/perl5/vendor_perl/
./usr/lib64/perl5/vendor_perl/5.30.3/
./usr/lib64/perl5/vendor_perl/5.30.3/DateTime/
./usr/lib64/perl5/vendor_perl/5.30.3/DateTime/Format/
./usr/lib64/perl5/vendor_perl/5.30.3/DateTime/Format/Builder.pm
./usr/lib64/perl5/vendor_perl/5.30.3/DateTime/Format/Builder/
./usr/lib64/perl5/vendor_perl/5.30.3/DateTime/Format/Builder/Parser/
./usr/lib64/perl5/vendor_perl/5.30.3/DateTime/Format/Builder/Parser/Strptime.pm
./usr/lib64/perl5/vendor_perl/5.30.3/DateTime/Format/Builder/Parser/Dispatch.pm
./usr/lib64/perl5/vendor_perl/5.30.3/DateTime/Format/Builder/Parser/generic.pm
./usr/lib64/perl5/vendor_perl/5.30.3/DateTime/Format/Builder/Parser/Regex.pm
./usr/lib64/perl5/vendor_perl/5.30.3/DateTime/Format/Builder/Parser/Quick.pm
./usr/lib64/perl5/vendor_perl/5.30.3/DateTime/Format/Builder/Parser.pm
./usr/lib64/perl5/vendor_perl/5.30.3/DateTime/Format/Builder/Tutorial.pod
>>> Done.
 * checking 8 files for package collisions
>>> Merging dev-perl/DateTime-Format-Builder-0.810.0-r1 to /
 * removing unneeded *.la files
--- /usr/
--- /usr/lib64/
--- /usr/lib64/perl5/
--- /usr/lib64/perl5/vendor_perl/
--- /usr/lib64/perl5/vendor_perl/5.30.3/
--- /usr/lib64/perl5/vendor_perl/5.30.3/DateTime/
--- /usr/lib64/perl5/vendor_perl/5.30.3/DateTime/Format/
--- /usr/lib64/perl5/vendor_perl/5.30.3/DateTime/Format/Builder/
>>> /usr/lib64/perl5/vendor_perl/5.30.3/DateTime/Format/Builder/Tutorial.pod
>>> /usr/lib64/perl5/vendor_perl/5.30.3/DateTime/Format/Builder/Parser.pm
--- /usr/lib64/perl5/vendor_perl/5.30.3/DateTime/Format/Builder/Parser/
>>> /usr/lib64/perl5/vendor_perl/5.30.3/DateTime/Format/Builder/Parser/Quick.pm
>>> /usr/lib64/perl5/vendor_perl/5.30.3/DateTime/Format/Builder/Parser/Regex.pm
>>> /usr/lib64/perl5/vendor_perl/5.30.3/DateTime/Format/Builder/Parser/generic.pm
>>> /usr/lib64/perl5/vendor_perl/5.30.3/DateTime/Format/Builder/Parser/Dispatch.pm
>>> /usr/lib64/perl5/vendor_perl/5.30.3/DateTime/Format/Builder/Parser/Strptime.pm
>>> /usr/lib64/perl5/vendor_perl/5.30.3/DateTime/Format/Builder.pm
>>> Safely unmerging already-installed instance...
>>> Original instance of package unmerged safely.
>>> dev-perl/DateTime-Format-Builder-0.810.0-r1 merged.
