No package files given... Grabbing a set.
--- replaced obj /usr/share/man/man1/pwhich.1.bz2
--- replaced obj /usr/share/man/man1/pwhere.1.bz2
--- replaced dir /usr/share/man/man1
--- replaced dir /usr/share/man
--- replaced dir /usr/share
--- replaced obj /usr/lib64/perl5/vendor_perl/5.30.2/x86_64-linux/auto/App/pwhich/.packlist
--- replaced dir /usr/lib64/perl5/vendor_perl/5.30.2/x86_64-linux/auto/App/pwhich
--- replaced dir /usr/lib64/perl5/vendor_perl/5.30.2/x86_64-linux/auto/App
--- replaced dir /usr/lib64/perl5/vendor_perl/5.30.2/x86_64-linux/auto
--- replaced dir /usr/lib64/perl5/vendor_perl/5.30.2/x86_64-linux
--- replaced obj /usr/lib64/perl5/vendor_perl/5.30.2/App/pwhich.pm
--- replaced dir /usr/lib64/perl5/vendor_perl/5.30.2/App
--- replaced dir /usr/lib64/perl5/vendor_perl/5.30.2
--- replaced dir /usr/lib64/perl5/vendor_perl
--- replaced dir /usr/lib64/perl5
--- replaced dir /usr/lib64
--- replaced obj /usr/bin/pwhich
--- replaced obj /usr/bin/pwhere
--- replaced dir /usr/bin
--- replaced dir /usr
>>> Regenerating /etc/ld.so.cache...
