 * Package:    dev-libs/jansson-2.12
 * Repository: gentoo
 * Maintainer: zero-one@zer0-one.net proxy-maint@gentoo.org
 * USE:        abi_x86_64 amd64 elibc_glibc kernel_linux userland_GNU
 * FEATURES:   network-sandbox preserve-libs sandbox userpriv usersandbox
 * /etc/portage/package.cflags/ltoworkarounds.conf -> dev-libs/jansson: *FLAGS-=-flto*
 * FEATURES='assume-digests binpkg-docompress binpkg-dostrip binpkg-logs buildpkg cgroup compress-index config-protect-if-modified distlocks ebuild-locks fixlafiles ipc-sandbox merge-sync multilib-strict network-sandbox news nodoc parallel-fetch pid-sandbox preserve-libs qa-unresolved-soname-deps sandbox sfperms strict strict-keepdir unknown-features-warn unmerge-logs unmerge-orphans userfetch userpriv usersandbox usersync xattr'
 * CFLAGS='-march=znver2 -Ofast -pipe -g0 -fno-common -fgraphite-identity -floop-interchange -floop-nest-optimize -floop-parallelize-all -ftree-parallelize-loops=12 -ftree-vectorize -fdevirtualize-at-ltrans -fipa-pta -fno-semantic-interposition -fno-plt -falign-functions=32 -fno-stack-protector -fno-stack-clash-protection -fstack-check=no -fno-stack-check -fuse-linker-plugin -Wl,-O1,--sort-common,--as-needed,-z,norelro,-z,now,-lgomp,-lpthread'
 * CXXFLAGS='-march=znver2 -Ofast -pipe -g0 -fno-common -fgraphite-identity -floop-interchange -floop-nest-optimize -floop-parallelize-all -ftree-parallelize-loops=12 -ftree-vectorize -fdevirtualize-at-ltrans -fipa-pta -fno-semantic-interposition -fno-plt -falign-functions=32 -fno-stack-protector -fno-stack-clash-protection -fstack-check=no -fno-stack-check -fuse-linker-plugin -Wl,-O1,--sort-common,--as-needed,-z,norelro,-z,now,-lgomp,-lpthread'
 * FFLAGS='-march=znver2 -Ofast -pipe -g0 -fno-common -fgraphite-identity -floop-interchange -floop-nest-optimize -floop-parallelize-all -ftree-parallelize-loops=12 -ftree-vectorize -fdevirtualize-at-ltrans -fipa-pta -fno-semantic-interposition -fno-plt -falign-functions=32 -fno-stack-protector -fno-stack-clash-protection -fstack-check=no -fno-stack-check -fuse-linker-plugin -Wl,-O1,--sort-common,--as-needed,-z,norelro,-z,now,-lgomp,-lpthread'
 * FCFLAGS='-march=znver2 -Ofast -pipe -g0 -fno-common -fgraphite-identity -floop-interchange -floop-nest-optimize -floop-parallelize-all -ftree-parallelize-loops=12 -ftree-vectorize -fdevirtualize-at-ltrans -fipa-pta -fno-semantic-interposition -fno-plt -falign-functions=32 -fno-stack-protector -fno-stack-clash-protection -fstack-check=no -fno-stack-check -fuse-linker-plugin -Wl,-O1,--sort-common,--as-needed,-z,norelro,-z,now,-lgomp,-lpthread'
 * F77FLAGS='-march=znver2 -Ofast -pipe -g0 -fno-common -fgraphite-identity -floop-interchange -floop-nest-optimize -floop-parallelize-all -ftree-parallelize-loops=12 -ftree-vectorize -fdevirtualize-at-ltrans -fipa-pta -fno-semantic-interposition -fno-plt -falign-functions=32 -fno-stack-protector -fno-stack-clash-protection -fstack-check=no -fno-stack-check -fuse-linker-plugin -Wl,-O1,--sort-common,--as-needed,-z,norelro,-z,now,-lgomp,-lpthread'
 * LDFLAGS='-Wl,-O1,--sort-common,--as-needed,-z,norelro,-z,now,-lgomp,-lpthread'
 * MAKEOPTS='-j12 -l12'
 * gcc () 11.0.0 20200616 (experimental)
 * g++ () 11.0.0 20200616 (experimental)
 * GNU ld (Gentoo 2.34 p4) 2.34.0
 * Linux rescue 5.4.36 #1 SMP Thu Apr 30 04:38:28 UTC 2020 x86_64 AMD Ryzen 5 3600 6-Core Processor AuthenticAMD GNU/Linux
dev-libs/jansson: 4 minutes, 30 seconds average for 29 merges
2020-05-15T03:28:35 >>> dev-libs/jansson: 15 seconds
2020-05-20T00:56:38 >>> dev-libs/jansson: 12 seconds
2020-05-21T05:48:53 >>> dev-libs/jansson: 5 seconds
2020-05-22T01:54:09 >>> dev-libs/jansson: 6 minutes, 56 seconds
2020-05-22T03:05:26 >>> dev-libs/jansson: 7 minutes, 37 seconds
2020-05-22T12:24:59 >>> dev-libs/jansson: 7 minutes, 23 seconds
2020-05-23T03:26:53 >>> dev-libs/jansson: 7 minutes, 6 seconds
2020-05-24T22:35:03 >>> dev-libs/jansson: 8 minutes
2020-05-24T23:22:49 >>> dev-libs/jansson: 9 minutes, 40 seconds
2020-05-25T03:01:53 >>> dev-libs/jansson: 3 minutes, 56 seconds
2020-05-25T14:37:23 >>> dev-libs/jansson: 3 minutes, 56 seconds
2020-05-25T18:12:21 >>> dev-libs/jansson: 7 minutes, 26 seconds
2020-05-25T19:49:59 >>> dev-libs/jansson: 4 minutes, 29 seconds
2020-05-26T12:31:22 >>> dev-libs/jansson: 4 minutes, 17 seconds
2020-05-26T13:46:06 >>> dev-libs/jansson: 3 minutes, 22 seconds
2020-05-27T01:24:02 >>> dev-libs/jansson: 3 minutes, 35 seconds
2020-05-27T02:58:45 >>> dev-libs/jansson: 8 minutes, 19 seconds
2020-05-28T13:21:46 >>> dev-libs/jansson: 6 minutes, 58 seconds
2020-05-28T14:11:29 >>> dev-libs/jansson: 4 minutes, 7 seconds
2020-05-29T01:32:07 >>> dev-libs/jansson: 6 minutes, 31 seconds
2020-05-30T12:29:42 >>> dev-libs/jansson: 29 seconds
2020-05-30T21:32:48 >>> dev-libs/jansson: 16 seconds
2020-06-01T01:45:52 >>> dev-libs/jansson: 28 seconds
2020-06-04T11:49:12 >>> dev-libs/jansson: 17 minutes, 38 seconds
2020-06-12T01:22:32 >>> dev-libs/jansson: 2 minutes, 20 seconds
2020-06-13T03:23:39 >>> dev-libs/jansson: 1 minute, 17 seconds
2020-06-13T19:55:51 >>> dev-libs/jansson: 1 minute, 49 seconds
2020-06-14T04:35:08 >>> dev-libs/jansson: 51 seconds
2020-06-16T13:36:28 >>> dev-libs/jansson: 1 minute, 14 seconds
]0;emerge 13:35:31 83|895 jansson 01:18 (root@rescue)>>> Unpacking source...
>>> Unpacking jansson-2.12.tar.gz to /tmp/portage/dev-libs/jansson-2.12/work
>>> Source unpacked in /tmp/portage/dev-libs/jansson-2.12/work
>>> Preparing source in /tmp/portage/dev-libs/jansson-2.12/work/jansson-2.12 ...
>>> Source prepared.
>>> Configuring source in /tmp/portage/dev-libs/jansson-2.12/work/jansson-2.12 ...
 * abi_x86_64.amd64: running multilib-minimal_abi_src_configure
 * econf: updating jansson-2.12/config.guess with /usr/share/gnuconfig/config.guess
 * econf: updating jansson-2.12/config.sub with /usr/share/gnuconfig/config.sub
/tmp/portage/dev-libs/jansson-2.12/work/jansson-2.12/configure --prefix=/usr --build=x86_64-pc-linux-gnu --host=x86_64-pc-linux-gnu --mandir=/usr/share/man --infodir=/usr/share/info --datadir=/usr/share --sysconfdir=/etc --localstatedir=/var/lib --disable-dependency-tracking --disable-silent-rules --docdir=/usr/share/doc/jansson-2.12 --htmldir=/usr/share/doc/jansson-2.12/html --with-sysroot=/ --libdir=/usr/lib64 --disable-static
checking for a BSD-compatible install... /tmp/portage/._portage_reinstall_.z8sq2nh6/bin/ebuild-helpers/xattr/install -c
checking whether build environment is sane... yes
checking for a thread-safe mkdir -p... /bin/mkdir -p
checking for gawk... gawk
checking whether make sets $(MAKE)... yes
checking whether make supports nested variables... yes
checking for x86_64-pc-linux-gnu-gcc... x86_64-pc-linux-gnu-gcc
checking whether the C compiler works... yes
checking for C compiler default output file name... a.out
checking for suffix of executables... 
checking whether we are cross compiling... no
checking for suffix of object files... o
checking whether we are using the GNU C compiler... yes
checking whether x86_64-pc-linux-gnu-gcc accepts -g... yes
checking for x86_64-pc-linux-gnu-gcc option to accept ISO C89... none needed
checking whether x86_64-pc-linux-gnu-gcc understands -c and -o together... yes
checking whether make supports the include directive... yes (GNU style)
checking dependency style of x86_64-pc-linux-gnu-gcc... none
checking build system type... x86_64-pc-linux-gnu
checking host system type... x86_64-pc-linux-gnu
checking how to print strings... printf
checking for a sed that does not truncate output... /bin/sed
checking for grep that handles long lines and -e... /bin/grep
checking for egrep... /bin/grep -E
checking for fgrep... /bin/grep -F
checking for ld used by x86_64-pc-linux-gnu-gcc... /usr/x86_64-pc-linux-gnu/bin/ld
checking if the linker (/usr/x86_64-pc-linux-gnu/bin/ld) is GNU ld... yes
checking for BSD- or MS-compatible name lister (nm)... /usr/bin/x86_64-pc-linux-gnu-nm -B
checking the name lister (/usr/bin/x86_64-pc-linux-gnu-nm -B) interface... BSD nm
checking whether ln -s works... yes
checking the maximum length of command line arguments... 1572864
checking how to convert x86_64-pc-linux-gnu file names to x86_64-pc-linux-gnu format... func_convert_file_noop
checking how to convert x86_64-pc-linux-gnu file names to toolchain format... func_convert_file_noop
checking for /usr/x86_64-pc-linux-gnu/bin/ld option to reload object files... -r
checking for x86_64-pc-linux-gnu-objdump... x86_64-pc-linux-gnu-objdump
checking how to recognize dependent libraries... pass_all
checking for x86_64-pc-linux-gnu-dlltool... x86_64-pc-linux-gnu-dlltool
checking how to associate runtime and link libraries... printf %s\n
checking for x86_64-pc-linux-gnu-ar... x86_64-pc-linux-gnu-ar
checking for archiver @FILE support... @
checking for x86_64-pc-linux-gnu-strip... x86_64-pc-linux-gnu-strip
checking for x86_64-pc-linux-gnu-ranlib... x86_64-pc-linux-gnu-ranlib
checking command to parse /usr/bin/x86_64-pc-linux-gnu-nm -B output from x86_64-pc-linux-gnu-gcc object... ok
checking for sysroot... /
checking for a working dd... /bin/dd
checking how to truncate binary pipes... /bin/dd bs=4096 count=1
checking for x86_64-pc-linux-gnu-mt... no
checking for mt... no
checking if : is a manifest tool... no
checking how to run the C preprocessor... x86_64-pc-linux-gnu-gcc -E
checking for ANSI C header files... yes
checking for sys/types.h... yes
checking for sys/stat.h... yes
checking for stdlib.h... yes
checking for string.h... yes
checking for memory.h... yes
checking for strings.h... yes
checking for inttypes.h... yes
checking for stdint.h... yes
checking for unistd.h... yes
checking for dlfcn.h... yes
checking for objdir... .libs
checking if x86_64-pc-linux-gnu-gcc supports -fno-rtti -fno-exceptions... no
checking for x86_64-pc-linux-gnu-gcc option to produce PIC... -fPIC -DPIC
checking if x86_64-pc-linux-gnu-gcc PIC flag -fPIC -DPIC works... yes
checking if x86_64-pc-linux-gnu-gcc static flag -static works... yes
checking if x86_64-pc-linux-gnu-gcc supports -c -o file.o... yes
checking if x86_64-pc-linux-gnu-gcc supports -c -o file.o... (cached) yes
checking whether the x86_64-pc-linux-gnu-gcc linker (/usr/x86_64-pc-linux-gnu/bin/ld -m elf_x86_64) supports shared libraries... yes
checking whether -lc should be explicitly linked in... no
checking dynamic linker characteristics... GNU/Linux ld.so
checking how to hardcode library paths into programs... immediate
checking whether stripping libraries is possible... yes
checking if libtool supports shared libraries... yes
checking whether to build shared libraries... yes
checking whether to build static libraries... no
checking endian.h usability... yes
checking endian.h presence... yes
checking for endian.h... yes
checking fcntl.h usability... yes
checking fcntl.h presence... yes
checking for fcntl.h... yes
checking locale.h usability... yes
checking locale.h presence... yes
checking for locale.h... yes
checking sched.h usability... yes
checking sched.h presence... yes
checking for sched.h... yes
checking for unistd.h... (cached) yes
checking sys/param.h usability... yes
checking sys/param.h presence... yes
checking for sys/param.h... yes
checking for sys/stat.h... (cached) yes
checking sys/time.h usability... yes
checking sys/time.h presence... yes
checking for sys/time.h... yes
checking for sys/types.h... (cached) yes
checking for int32_t... yes
checking for uint32_t... yes
checking for uint16_t... yes
checking for uint8_t... yes
checking for unsigned long long int... yes
checking for long long int... yes
checking for inline... inline
checking for close... yes
checking for getpid... yes
checking for gettimeofday... yes
checking for localeconv... yes
checking for open... yes
checking for read... yes
checking for sched_yield... yes
checking for strtoll... yes
checking for gcc __sync builtins... yes
checking for gcc __atomic builtins... yes
checking for -Bsymbolic-functions linker flag... yes
checking for -Wno-format-truncation... yes
checking that generated files are newer than configure... done
configure: creating ./config.status
config.status: creating jansson.pc
config.status: creating Makefile
config.status: creating doc/Makefile
config.status: creating src/Makefile
config.status: creating src/jansson_config.h
config.status: creating test/Makefile
config.status: creating test/bin/Makefile
config.status: creating test/suites/Makefile
config.status: creating test/suites/api/Makefile
config.status: creating jansson_private_config.h
config.status: executing depfiles commands
config.status: executing libtool commands
>>> Source configured.
>>> Compiling source in /tmp/portage/dev-libs/jansson-2.12/work/jansson-2.12 ...
 * abi_x86_64.amd64: running multilib-minimal_abi_src_compile
make -j12 -l12 
make  all-recursive
make[1]: Entering directory '/tmp/portage/dev-libs/jansson-2.12/work/jansson-2.12-abi_x86_64.amd64'
Making all in doc
make[2]: Entering directory '/tmp/portage/dev-libs/jansson-2.12/work/jansson-2.12-abi_x86_64.amd64/doc'
make[2]: Nothing to be done for 'all'.
make[2]: Leaving directory '/tmp/portage/dev-libs/jansson-2.12/work/jansson-2.12-abi_x86_64.amd64/doc'
Making all in src
make[2]: Entering directory '/tmp/portage/dev-libs/jansson-2.12/work/jansson-2.12-abi_x86_64.amd64/src'
/bin/sh ../libtool  --tag=CC   --mode=compile x86_64-pc-linux-gnu-gcc -DHAVE_CONFIG_H -I. -I/tmp/portage/dev-libs/jansson-2.12/work/jansson-2.12/src -I..    -Wall -Wextra -Wdeclaration-after-statement -Wshadow -Wno-format-truncation -march=znver2 -Ofast -pipe -g0 -fno-common -fgraphite-identity -floop-interchange -floop-nest-optimize -floop-parallelize-all -ftree-parallelize-loops=12 -ftree-vectorize -fdevirtualize-at-ltrans -fipa-pta -fno-semantic-interposition -fno-plt -falign-functions=32 -fno-stack-protector -fno-stack-clash-protection -fstack-check=no -fno-stack-check -fuse-linker-plugin -Wl,-O1,--sort-common,--as-needed,-z,norelro,-z,now,-lgomp,-lpthread -c -o dump.lo /tmp/portage/dev-libs/jansson-2.12/work/jansson-2.12/src/dump.c
/bin/sh ../libtool  --tag=CC   --mode=compile x86_64-pc-linux-gnu-gcc -DHAVE_CONFIG_H -I. -I/tmp/portage/dev-libs/jansson-2.12/work/jansson-2.12/src -I..    -Wall -Wextra -Wdeclaration-after-statement -Wshadow -Wno-format-truncation -march=znver2 -Ofast -pipe -g0 -fno-common -fgraphite-identity -floop-interchange -floop-nest-optimize -floop-parallelize-all -ftree-parallelize-loops=12 -ftree-vectorize -fdevirtualize-at-ltrans -fipa-pta -fno-semantic-interposition -fno-plt -falign-functions=32 -fno-stack-protector -fno-stack-clash-protection -fstack-check=no -fno-stack-check -fuse-linker-plugin -Wl,-O1,--sort-common,--as-needed,-z,norelro,-z,now,-lgomp,-lpthread -c -o error.lo /tmp/portage/dev-libs/jansson-2.12/work/jansson-2.12/src/error.c
/bin/sh ../libtool  --tag=CC   --mode=compile x86_64-pc-linux-gnu-gcc -DHAVE_CONFIG_H -I. -I/tmp/portage/dev-libs/jansson-2.12/work/jansson-2.12/src -I..    -Wall -Wextra -Wdeclaration-after-statement -Wshadow -Wno-format-truncation -march=znver2 -Ofast -pipe -g0 -fno-common -fgraphite-identity -floop-interchange -floop-nest-optimize -floop-parallelize-all -ftree-parallelize-loops=12 -ftree-vectorize -fdevirtualize-at-ltrans -fipa-pta -fno-semantic-interposition -fno-plt -falign-functions=32 -fno-stack-protector -fno-stack-clash-protection -fstack-check=no -fno-stack-check -fuse-linker-plugin -Wl,-O1,--sort-common,--as-needed,-z,norelro,-z,now,-lgomp,-lpthread -c -o hashtable.lo /tmp/portage/dev-libs/jansson-2.12/work/jansson-2.12/src/hashtable.c
/bin/sh ../libtool  --tag=CC   --mode=compile x86_64-pc-linux-gnu-gcc -DHAVE_CONFIG_H -I. -I/tmp/portage/dev-libs/jansson-2.12/work/jansson-2.12/src -I..    -Wall -Wextra -Wdeclaration-after-statement -Wshadow -Wno-format-truncation -march=znver2 -Ofast -pipe -g0 -fno-common -fgraphite-identity -floop-interchange -floop-nest-optimize -floop-parallelize-all -ftree-parallelize-loops=12 -ftree-vectorize -fdevirtualize-at-ltrans -fipa-pta -fno-semantic-interposition -fno-plt -falign-functions=32 -fno-stack-protector -fno-stack-clash-protection -fstack-check=no -fno-stack-check -fuse-linker-plugin -Wl,-O1,--sort-common,--as-needed,-z,norelro,-z,now,-lgomp,-lpthread -c -o hashtable_seed.lo /tmp/portage/dev-libs/jansson-2.12/work/jansson-2.12/src/hashtable_seed.c
/bin/sh ../libtool  --tag=CC   --mode=compile x86_64-pc-linux-gnu-gcc -DHAVE_CONFIG_H -I. -I/tmp/portage/dev-libs/jansson-2.12/work/jansson-2.12/src -I..    -Wall -Wextra -Wdeclaration-after-statement -Wshadow -Wno-format-truncation -march=znver2 -Ofast -pipe -g0 -fno-common -fgraphite-identity -floop-interchange -floop-nest-optimize -floop-parallelize-all -ftree-parallelize-loops=12 -ftree-vectorize -fdevirtualize-at-ltrans -fipa-pta -fno-semantic-interposition -fno-plt -falign-functions=32 -fno-stack-protector -fno-stack-clash-protection -fstack-check=no -fno-stack-check -fuse-linker-plugin -Wl,-O1,--sort-common,--as-needed,-z,norelro,-z,now,-lgomp,-lpthread -c -o load.lo /tmp/portage/dev-libs/jansson-2.12/work/jansson-2.12/src/load.c
/bin/sh ../libtool  --tag=CC   --mode=compile x86_64-pc-linux-gnu-gcc -DHAVE_CONFIG_H -I. -I/tmp/portage/dev-libs/jansson-2.12/work/jansson-2.12/src -I..    -Wall -Wextra -Wdeclaration-after-statement -Wshadow -Wno-format-truncation -march=znver2 -Ofast -pipe -g0 -fno-common -fgraphite-identity -floop-interchange -floop-nest-optimize -floop-parallelize-all -ftree-parallelize-loops=12 -ftree-vectorize -fdevirtualize-at-ltrans -fipa-pta -fno-semantic-interposition -fno-plt -falign-functions=32 -fno-stack-protector -fno-stack-clash-protection -fstack-check=no -fno-stack-check -fuse-linker-plugin -Wl,-O1,--sort-common,--as-needed,-z,norelro,-z,now,-lgomp,-lpthread -c -o memory.lo /tmp/portage/dev-libs/jansson-2.12/work/jansson-2.12/src/memory.c
/bin/sh ../libtool  --tag=CC   --mode=compile x86_64-pc-linux-gnu-gcc -DHAVE_CONFIG_H -I. -I/tmp/portage/dev-libs/jansson-2.12/work/jansson-2.12/src -I..    -Wall -Wextra -Wdeclaration-after-statement -Wshadow -Wno-format-truncation -march=znver2 -Ofast -pipe -g0 -fno-common -fgraphite-identity -floop-interchange -floop-nest-optimize -floop-parallelize-all -ftree-parallelize-loops=12 -ftree-vectorize -fdevirtualize-at-ltrans -fipa-pta -fno-semantic-interposition -fno-plt -falign-functions=32 -fno-stack-protector -fno-stack-clash-protection -fstack-check=no -fno-stack-check -fuse-linker-plugin -Wl,-O1,--sort-common,--as-needed,-z,norelro,-z,now,-lgomp,-lpthread -c -o pack_unpack.lo /tmp/portage/dev-libs/jansson-2.12/work/jansson-2.12/src/pack_unpack.c
/bin/sh ../libtool  --tag=CC   --mode=compile x86_64-pc-linux-gnu-gcc -DHAVE_CONFIG_H -I. -I/tmp/portage/dev-libs/jansson-2.12/work/jansson-2.12/src -I..    -Wall -Wextra -Wdeclaration-after-statement -Wshadow -Wno-format-truncation -march=znver2 -Ofast -pipe -g0 -fno-common -fgraphite-identity -floop-interchange -floop-nest-optimize -floop-parallelize-all -ftree-parallelize-loops=12 -ftree-vectorize -fdevirtualize-at-ltrans -fipa-pta -fno-semantic-interposition -fno-plt -falign-functions=32 -fno-stack-protector -fno-stack-clash-protection -fstack-check=no -fno-stack-check -fuse-linker-plugin -Wl,-O1,--sort-common,--as-needed,-z,norelro,-z,now,-lgomp,-lpthread -c -o strbuffer.lo /tmp/portage/dev-libs/jansson-2.12/work/jansson-2.12/src/strbuffer.c
/bin/sh ../libtool  --tag=CC   --mode=compile x86_64-pc-linux-gnu-gcc -DHAVE_CONFIG_H -I. -I/tmp/portage/dev-libs/jansson-2.12/work/jansson-2.12/src -I..    -Wall -Wextra -Wdeclaration-after-statement -Wshadow -Wno-format-truncation -march=znver2 -Ofast -pipe -g0 -fno-common -fgraphite-identity -floop-interchange -floop-nest-optimize -floop-parallelize-all -ftree-parallelize-loops=12 -ftree-vectorize -fdevirtualize-at-ltrans -fipa-pta -fno-semantic-interposition -fno-plt -falign-functions=32 -fno-stack-protector -fno-stack-clash-protection -fstack-check=no -fno-stack-check -fuse-linker-plugin -Wl,-O1,--sort-common,--as-needed,-z,norelro,-z,now,-lgomp,-lpthread -c -o strconv.lo /tmp/portage/dev-libs/jansson-2.12/work/jansson-2.12/src/strconv.c
/bin/sh ../libtool  --tag=CC   --mode=compile x86_64-pc-linux-gnu-gcc -DHAVE_CONFIG_H -I. -I/tmp/portage/dev-libs/jansson-2.12/work/jansson-2.12/src -I..    -Wall -Wextra -Wdeclaration-after-statement -Wshadow -Wno-format-truncation -march=znver2 -Ofast -pipe -g0 -fno-common -fgraphite-identity -floop-interchange -floop-nest-optimize -floop-parallelize-all -ftree-parallelize-loops=12 -ftree-vectorize -fdevirtualize-at-ltrans -fipa-pta -fno-semantic-interposition -fno-plt -falign-functions=32 -fno-stack-protector -fno-stack-clash-protection -fstack-check=no -fno-stack-check -fuse-linker-plugin -Wl,-O1,--sort-common,--as-needed,-z,norelro,-z,now,-lgomp,-lpthread -c -o utf.lo /tmp/portage/dev-libs/jansson-2.12/work/jansson-2.12/src/utf.c
/bin/sh ../libtool  --tag=CC   --mode=compile x86_64-pc-linux-gnu-gcc -DHAVE_CONFIG_H -I. -I/tmp/portage/dev-libs/jansson-2.12/work/jansson-2.12/src -I..    -Wall -Wextra -Wdeclaration-after-statement -Wshadow -Wno-format-truncation -march=znver2 -Ofast -pipe -g0 -fno-common -fgraphite-identity -floop-interchange -floop-nest-optimize -floop-parallelize-all -ftree-parallelize-loops=12 -ftree-vectorize -fdevirtualize-at-ltrans -fipa-pta -fno-semantic-interposition -fno-plt -falign-functions=32 -fno-stack-protector -fno-stack-clash-protection -fstack-check=no -fno-stack-check -fuse-linker-plugin -Wl,-O1,--sort-common,--as-needed,-z,norelro,-z,now,-lgomp,-lpthread -c -o value.lo /tmp/portage/dev-libs/jansson-2.12/work/jansson-2.12/src/value.c
libtool: compile:  x86_64-pc-linux-gnu-gcc -DHAVE_CONFIG_H -I. -I/tmp/portage/dev-libs/jansson-2.12/work/jansson-2.12/src -I.. -Wall -Wextra -Wdeclaration-after-statement -Wshadow -Wno-format-truncation -march=znver2 -Ofast -pipe -g0 -fno-common -fgraphite-identity -floop-interchange -floop-nest-optimize -floop-parallelize-all -ftree-parallelize-loops=12 -ftree-vectorize -fdevirtualize-at-ltrans -fipa-pta -fno-semantic-interposition -fno-plt -falign-functions=32 -fno-stack-protector -fno-stack-clash-protection -fstack-check=no -fno-stack-check -fuse-linker-plugin -Wl,-O1,--sort-common,--as-needed,-z,norelro,-z,now,-lgomp,-lpthread -c /tmp/portage/dev-libs/jansson-2.12/work/jansson-2.12/src/hashtable.c  -fPIC -DPIC -o .libs/hashtable.o
libtool: compile:  x86_64-pc-linux-gnu-gcc -DHAVE_CONFIG_H -I. -I/tmp/portage/dev-libs/jansson-2.12/work/jansson-2.12/src -I.. -Wall -Wextra -Wdeclaration-after-statement -Wshadow -Wno-format-truncation -march=znver2 -Ofast -pipe -g0 -fno-common -fgraphite-identity -floop-interchange -floop-nest-optimize -floop-parallelize-all -ftree-parallelize-loops=12 -ftree-vectorize -fdevirtualize-at-ltrans -fipa-pta -fno-semantic-interposition -fno-plt -falign-functions=32 -fno-stack-protector -fno-stack-clash-protection -fstack-check=no -fno-stack-check -fuse-linker-plugin -Wl,-O1,--sort-common,--as-needed,-z,norelro,-z,now,-lgomp,-lpthread -c /tmp/portage/dev-libs/jansson-2.12/work/jansson-2.12/src/error.c  -fPIC -DPIC -o .libs/error.o
libtool: compile:  x86_64-pc-linux-gnu-gcc -DHAVE_CONFIG_H -I. -I/tmp/portage/dev-libs/jansson-2.12/work/jansson-2.12/src -I.. -Wall -Wextra -Wdeclaration-after-statement -Wshadow -Wno-format-truncation -march=znver2 -Ofast -pipe -g0 -fno-common -fgraphite-identity -floop-interchange -floop-nest-optimize -floop-parallelize-all -ftree-parallelize-loops=12 -ftree-vectorize -fdevirtualize-at-ltrans -fipa-pta -fno-semantic-interposition -fno-plt -falign-functions=32 -fno-stack-protector -fno-stack-clash-protection -fstack-check=no -fno-stack-check -fuse-linker-plugin -Wl,-O1,--sort-common,--as-needed,-z,norelro,-z,now,-lgomp,-lpthread -c /tmp/portage/dev-libs/jansson-2.12/work/jansson-2.12/src/strbuffer.c  -fPIC -DPIC -o .libs/strbuffer.o
libtool: compile:  x86_64-pc-linux-gnu-gcc -DHAVE_CONFIG_H -I. -I/tmp/portage/dev-libs/jansson-2.12/work/jansson-2.12/src -I.. -Wall -Wextra -Wdeclaration-after-statement -Wshadow -Wno-format-truncation -march=znver2 -Ofast -pipe -g0 -fno-common -fgraphite-identity -floop-interchange -floop-nest-optimize -floop-parallelize-all -ftree-parallelize-loops=12 -ftree-vectorize -fdevirtualize-at-ltrans -fipa-pta -fno-semantic-interposition -fno-plt -falign-functions=32 -fno-stack-protector -fno-stack-clash-protection -fstack-check=no -fno-stack-check -fuse-linker-plugin -Wl,-O1,--sort-common,--as-needed,-z,norelro,-z,now,-lgomp,-lpthread -c /tmp/portage/dev-libs/jansson-2.12/work/jansson-2.12/src/hashtable_seed.c  -fPIC -DPIC -o .libs/hashtable_seed.o
libtool: compile:  x86_64-pc-linux-gnu-gcc -DHAVE_CONFIG_H -I. -I/tmp/portage/dev-libs/jansson-2.12/work/jansson-2.12/src -I.. -Wall -Wextra -Wdeclaration-after-statement -Wshadow -Wno-format-truncation -march=znver2 -Ofast -pipe -g0 -fno-common -fgraphite-identity -floop-interchange -floop-nest-optimize -floop-parallelize-all -ftree-parallelize-loops=12 -ftree-vectorize -fdevirtualize-at-ltrans -fipa-pta -fno-semantic-interposition -fno-plt -falign-functions=32 -fno-stack-protector -fno-stack-clash-protection -fstack-check=no -fno-stack-check -fuse-linker-plugin -Wl,-O1,--sort-common,--as-needed,-z,norelro,-z,now,-lgomp,-lpthread -c /tmp/portage/dev-libs/jansson-2.12/work/jansson-2.12/src/memory.c  -fPIC -DPIC -o .libs/memory.o
libtool: compile:  x86_64-pc-linux-gnu-gcc -DHAVE_CONFIG_H -I. -I/tmp/portage/dev-libs/jansson-2.12/work/jansson-2.12/src -I.. -Wall -Wextra -Wdeclaration-after-statement -Wshadow -Wno-format-truncation -march=znver2 -Ofast -pipe -g0 -fno-common -fgraphite-identity -floop-interchange -floop-nest-optimize -floop-parallelize-all -ftree-parallelize-loops=12 -ftree-vectorize -fdevirtualize-at-ltrans -fipa-pta -fno-semantic-interposition -fno-plt -falign-functions=32 -fno-stack-protector -fno-stack-clash-protection -fstack-check=no -fno-stack-check -fuse-linker-plugin -Wl,-O1,--sort-common,--as-needed,-z,norelro,-z,now,-lgomp,-lpthread -c /tmp/portage/dev-libs/jansson-2.12/work/jansson-2.12/src/utf.c  -fPIC -DPIC -o .libs/utf.o
libtool: compile:  x86_64-pc-linux-gnu-gcc -DHAVE_CONFIG_H -I. -I/tmp/portage/dev-libs/jansson-2.12/work/jansson-2.12/src -I.. -Wall -Wextra -Wdeclaration-after-statement -Wshadow -Wno-format-truncation -march=znver2 -Ofast -pipe -g0 -fno-common -fgraphite-identity -floop-interchange -floop-nest-optimize -floop-parallelize-all -ftree-parallelize-loops=12 -ftree-vectorize -fdevirtualize-at-ltrans -fipa-pta -fno-semantic-interposition -fno-plt -falign-functions=32 -fno-stack-protector -fno-stack-clash-protection -fstack-check=no -fno-stack-check -fuse-linker-plugin -Wl,-O1,--sort-common,--as-needed,-z,norelro,-z,now,-lgomp,-lpthread -c /tmp/portage/dev-libs/jansson-2.12/work/jansson-2.12/src/strconv.c  -fPIC -DPIC -o .libs/strconv.o
libtool: compile:  x86_64-pc-linux-gnu-gcc -DHAVE_CONFIG_H -I. -I/tmp/portage/dev-libs/jansson-2.12/work/jansson-2.12/src -I.. -Wall -Wextra -Wdeclaration-after-statement -Wshadow -Wno-format-truncation -march=znver2 -Ofast -pipe -g0 -fno-common -fgraphite-identity -floop-interchange -floop-nest-optimize -floop-parallelize-all -ftree-parallelize-loops=12 -ftree-vectorize -fdevirtualize-at-ltrans -fipa-pta -fno-semantic-interposition -fno-plt -falign-functions=32 -fno-stack-protector -fno-stack-clash-protection -fstack-check=no -fno-stack-check -fuse-linker-plugin -Wl,-O1,--sort-common,--as-needed,-z,norelro,-z,now,-lgomp,-lpthread -c /tmp/portage/dev-libs/jansson-2.12/work/jansson-2.12/src/dump.c  -fPIC -DPIC -o .libs/dump.o
libtool: compile:  x86_64-pc-linux-gnu-gcc -DHAVE_CONFIG_H -I. -I/tmp/portage/dev-libs/jansson-2.12/work/jansson-2.12/src -I.. -Wall -Wextra -Wdeclaration-after-statement -Wshadow -Wno-format-truncation -march=znver2 -Ofast -pipe -g0 -fno-common -fgraphite-identity -floop-interchange -floop-nest-optimize -floop-parallelize-all -ftree-parallelize-loops=12 -ftree-vectorize -fdevirtualize-at-ltrans -fipa-pta -fno-semantic-interposition -fno-plt -falign-functions=32 -fno-stack-protector -fno-stack-clash-protection -fstack-check=no -fno-stack-check -fuse-linker-plugin -Wl,-O1,--sort-common,--as-needed,-z,norelro,-z,now,-lgomp,-lpthread -c /tmp/portage/dev-libs/jansson-2.12/work/jansson-2.12/src/pack_unpack.c  -fPIC -DPIC -o .libs/pack_unpack.o
libtool: compile:  x86_64-pc-linux-gnu-gcc -DHAVE_CONFIG_H -I. -I/tmp/portage/dev-libs/jansson-2.12/work/jansson-2.12/src -I.. -Wall -Wextra -Wdeclaration-after-statement -Wshadow -Wno-format-truncation -march=znver2 -Ofast -pipe -g0 -fno-common -fgraphite-identity -floop-interchange -floop-nest-optimize -floop-parallelize-all -ftree-parallelize-loops=12 -ftree-vectorize -fdevirtualize-at-ltrans -fipa-pta -fno-semantic-interposition -fno-plt -falign-functions=32 -fno-stack-protector -fno-stack-clash-protection -fstack-check=no -fno-stack-check -fuse-linker-plugin -Wl,-O1,--sort-common,--as-needed,-z,norelro,-z,now,-lgomp,-lpthread -c /tmp/portage/dev-libs/jansson-2.12/work/jansson-2.12/src/load.c  -fPIC -DPIC -o .libs/load.o
libtool: compile:  x86_64-pc-linux-gnu-gcc -DHAVE_CONFIG_H -I. -I/tmp/portage/dev-libs/jansson-2.12/work/jansson-2.12/src -I.. -Wall -Wextra -Wdeclaration-after-statement -Wshadow -Wno-format-truncation -march=znver2 -Ofast -pipe -g0 -fno-common -fgraphite-identity -floop-interchange -floop-nest-optimize -floop-parallelize-all -ftree-parallelize-loops=12 -ftree-vectorize -fdevirtualize-at-ltrans -fipa-pta -fno-semantic-interposition -fno-plt -falign-functions=32 -fno-stack-protector -fno-stack-clash-protection -fstack-check=no -fno-stack-check -fuse-linker-plugin -Wl,-O1,--sort-common,--as-needed,-z,norelro,-z,now,-lgomp,-lpthread -c /tmp/portage/dev-libs/jansson-2.12/work/jansson-2.12/src/value.c  -fPIC -DPIC -o .libs/value.o
In function ‘jsonp_error_set_source’,
    inlined from ‘jsonp_error_init’ at /tmp/portage/dev-libs/jansson-2.12/work/jansson-2.12/src/error.c:19:6:
/tmp/portage/dev-libs/jansson-2.12/work/jansson-2.12/src/error.c:28:9: warning: ‘strncpy’ specified bound depends on the length of the source argument [-Wstringop-overflow=]
   28 |         strncpy(error->source, source, length + 1);
      |         ^~~~~~~~~~~~~~~~~~~~~~~~~~~~~~~~~~~~~~~~~~
/tmp/portage/dev-libs/jansson-2.12/work/jansson-2.12/src/error.c: In function ‘jsonp_error_init’:
/tmp/portage/dev-libs/jansson-2.12/work/jansson-2.12/src/error.c:26:14: note: length computed here
   26 |     length = strlen(source);
      |              ^~~~~~~~~~~~~~
In function ‘jsonp_error_set_source’,
    inlined from ‘jsonp_error_set_source’ at /tmp/portage/dev-libs/jansson-2.12/work/jansson-2.12/src/error.c:19:6:
/tmp/portage/dev-libs/jansson-2.12/work/jansson-2.12/src/error.c:28:9: warning: ‘strncpy’ specified bound depends on the length of the source argument [-Wstringop-overflow=]
   28 |         strncpy(error->source, source, length + 1);
      |         ^~~~~~~~~~~~~~~~~~~~~~~~~~~~~~~~~~~~~~~~~~
/tmp/portage/dev-libs/jansson-2.12/work/jansson-2.12/src/error.c: In function ‘jsonp_error_set_source’:
/tmp/portage/dev-libs/jansson-2.12/work/jansson-2.12/src/error.c:26:14: note: length computed here
   26 |     length = strlen(source);
      |              ^~~~~~~~~~~~~~
/bin/sh ../libtool  --tag=CC   --mode=link x86_64-pc-linux-gnu-gcc -Wall -Wextra -Wdeclaration-after-statement -Wshadow -Wno-format-truncation -march=znver2 -Ofast -pipe -g0 -fno-common -fgraphite-identity -floop-interchange -floop-nest-optimize -floop-parallelize-all -ftree-parallelize-loops=12 -ftree-vectorize -fdevirtualize-at-ltrans -fipa-pta -fno-semantic-interposition -fno-plt -falign-functions=32 -fno-stack-protector -fno-stack-clash-protection -fstack-check=no -fno-stack-check -fuse-linker-plugin -Wl,-O1,--sort-common,--as-needed,-z,norelro,-z,now,-lgomp,-lpthread -no-undefined -export-symbols-regex '^json_' -version-info 15:1:11 -Wl,-Bsymbolic-functions -Wl,-O1,--sort-common,--as-needed,-z,norelro,-z,now,-lgomp,-lpthread -o libjansson.la -rpath /usr/lib64 dump.lo error.lo hashtable.lo hashtable_seed.lo load.lo memory.lo pack_unpack.lo strbuffer.lo strconv.lo utf.lo value.lo  
libtool: link: /usr/bin/x86_64-pc-linux-gnu-nm -B  .libs/dump.o .libs/error.o .libs/hashtable.o .libs/hashtable_seed.o .libs/load.o .libs/memory.o .libs/pack_unpack.o .libs/strbuffer.o .libs/strconv.o .libs/utf.o .libs/value.o   | sed -n -e 's/^.*[	 ]\([ABCDGIRSTW][ABCDGIRSTW]*\)[	 ][	 ]*\([_A-Za-z][_A-Za-z0-9]*\)$/\1 \2 \2/p' | sed '/ __gnu_lto/d' | /bin/sed 's/.* //' | sort | uniq > .libs/libjansson.exp
libtool: link: /bin/grep -E -e "^json_" ".libs/libjansson.exp" > ".libs/libjansson.expT"
libtool: link: mv -f ".libs/libjansson.expT" ".libs/libjansson.exp"
libtool: link: echo "{ global:" > .libs/libjansson.ver
libtool: link:  cat .libs/libjansson.exp | sed -e "s/\(.*\)/\1;/" >> .libs/libjansson.ver
libtool: link:  echo "local: *; };" >> .libs/libjansson.ver
libtool: link:  x86_64-pc-linux-gnu-gcc -shared  -fPIC -DPIC  .libs/dump.o .libs/error.o .libs/hashtable.o .libs/hashtable_seed.o .libs/load.o .libs/memory.o .libs/pack_unpack.o .libs/strbuffer.o .libs/strconv.o .libs/utf.o .libs/value.o    -march=znver2 -Ofast -g0 -fuse-linker-plugin -Wl,-O1 -Wl,--sort-common -Wl,--as-needed -Wl,-z -Wl,norelro -Wl,-z -Wl,now -Wl,-lgomp -Wl,-lpthread -Wl,-Bsymbolic-functions -Wl,-O1 -Wl,--sort-common -Wl,--as-needed -Wl,-z -Wl,norelro -Wl,-z -Wl,now -Wl,-lgomp -Wl,-lpthread   -Wl,-soname -Wl,libjansson.so.4 -Wl,-version-script -Wl,.libs/libjansson.ver -o .libs/libjansson.so.4.11.1
libtool: link: (cd ".libs" && rm -f "libjansson.so.4" && ln -s "libjansson.so.4.11.1" "libjansson.so.4")
libtool: link: (cd ".libs" && rm -f "libjansson.so" && ln -s "libjansson.so.4.11.1" "libjansson.so")
libtool: link: ( cd ".libs" && rm -f "libjansson.la" && ln -s "../libjansson.la" "libjansson.la" )
make[2]: Leaving directory '/tmp/portage/dev-libs/jansson-2.12/work/jansson-2.12-abi_x86_64.amd64/src'
Making all in test
make[2]: Entering directory '/tmp/portage/dev-libs/jansson-2.12/work/jansson-2.12-abi_x86_64.amd64/test'
Making all in bin
make[3]: Entering directory '/tmp/portage/dev-libs/jansson-2.12/work/jansson-2.12-abi_x86_64.amd64/test/bin'
make[3]: Nothing to be done for 'all'.
make[3]: Leaving directory '/tmp/portage/dev-libs/jansson-2.12/work/jansson-2.12-abi_x86_64.amd64/test/bin'
Making all in suites
make[3]: Entering directory '/tmp/portage/dev-libs/jansson-2.12/work/jansson-2.12-abi_x86_64.amd64/test/suites'
Making all in api
make[4]: Entering directory '/tmp/portage/dev-libs/jansson-2.12/work/jansson-2.12-abi_x86_64.amd64/test/suites/api'
make[4]: Nothing to be done for 'all'.
make[4]: Leaving directory '/tmp/portage/dev-libs/jansson-2.12/work/jansson-2.12-abi_x86_64.amd64/test/suites/api'
make[4]: Entering directory '/tmp/portage/dev-libs/jansson-2.12/work/jansson-2.12-abi_x86_64.amd64/test/suites'
make[4]: Nothing to be done for 'all-am'.
make[4]: Leaving directory '/tmp/portage/dev-libs/jansson-2.12/work/jansson-2.12-abi_x86_64.amd64/test/suites'
make[3]: Leaving directory '/tmp/portage/dev-libs/jansson-2.12/work/jansson-2.12-abi_x86_64.amd64/test/suites'
make[3]: Entering directory '/tmp/portage/dev-libs/jansson-2.12/work/jansson-2.12-abi_x86_64.amd64/test'
make[3]: Nothing to be done for 'all-am'.
make[3]: Leaving directory '/tmp/portage/dev-libs/jansson-2.12/work/jansson-2.12-abi_x86_64.amd64/test'
make[2]: Leaving directory '/tmp/portage/dev-libs/jansson-2.12/work/jansson-2.12-abi_x86_64.amd64/test'
make[2]: Entering directory '/tmp/portage/dev-libs/jansson-2.12/work/jansson-2.12-abi_x86_64.amd64'
make[2]: Leaving directory '/tmp/portage/dev-libs/jansson-2.12/work/jansson-2.12-abi_x86_64.amd64'
make[1]: Leaving directory '/tmp/portage/dev-libs/jansson-2.12/work/jansson-2.12-abi_x86_64.amd64'
>>> Source compiled.
>>> Test phase [not enabled]: dev-libs/jansson-2.12

>>> Install dev-libs/jansson-2.12 into /tmp/portage/dev-libs/jansson-2.12/image
 * abi_x86_64.amd64: running multilib-minimal_abi_src_install
make -j12 -l12 DESTDIR=/tmp/portage/dev-libs/jansson-2.12/image install 
Making install in doc
make[1]: Entering directory '/tmp/portage/dev-libs/jansson-2.12/work/jansson-2.12-abi_x86_64.amd64/doc'
make[2]: Entering directory '/tmp/portage/dev-libs/jansson-2.12/work/jansson-2.12-abi_x86_64.amd64/doc'
make[2]: Nothing to be done for 'install-exec-am'.
make[2]: Nothing to be done for 'install-data-am'.
make[2]: Leaving directory '/tmp/portage/dev-libs/jansson-2.12/work/jansson-2.12-abi_x86_64.amd64/doc'
make[1]: Leaving directory '/tmp/portage/dev-libs/jansson-2.12/work/jansson-2.12-abi_x86_64.amd64/doc'
Making install in src
make[1]: Entering directory '/tmp/portage/dev-libs/jansson-2.12/work/jansson-2.12-abi_x86_64.amd64/src'
make[2]: Entering directory '/tmp/portage/dev-libs/jansson-2.12/work/jansson-2.12-abi_x86_64.amd64/src'
 /bin/mkdir -p '/tmp/portage/dev-libs/jansson-2.12/image/usr/lib64'
 /bin/mkdir -p '/tmp/portage/dev-libs/jansson-2.12/image/usr/include'
 /bin/mkdir -p '/tmp/portage/dev-libs/jansson-2.12/image/usr/include'
 /bin/sh ../libtool   --mode=install /tmp/portage/._portage_reinstall_.z8sq2nh6/bin/ebuild-helpers/xattr/install -c   libjansson.la '/tmp/portage/dev-libs/jansson-2.12/image/usr/lib64'
 /tmp/portage/._portage_reinstall_.z8sq2nh6/bin/ebuild-helpers/xattr/install -c -m 644 jansson_config.h '/tmp/portage/dev-libs/jansson-2.12/image/usr/include'
 /tmp/portage/._portage_reinstall_.z8sq2nh6/bin/ebuild-helpers/xattr/install -c -m 644 /tmp/portage/dev-libs/jansson-2.12/work/jansson-2.12/src/jansson.h '/tmp/portage/dev-libs/jansson-2.12/image/usr/include'
libtool: install: /tmp/portage/._portage_reinstall_.z8sq2nh6/bin/ebuild-helpers/xattr/install -c .libs/libjansson.so.4.11.1 /tmp/portage/dev-libs/jansson-2.12/image/usr/lib64/libjansson.so.4.11.1
libtool: install: (cd /tmp/portage/dev-libs/jansson-2.12/image/usr/lib64 && { ln -s -f libjansson.so.4.11.1 libjansson.so.4 || { rm -f libjansson.so.4 && ln -s libjansson.so.4.11.1 libjansson.so.4; }; })
libtool: install: (cd /tmp/portage/dev-libs/jansson-2.12/image/usr/lib64 && { ln -s -f libjansson.so.4.11.1 libjansson.so || { rm -f libjansson.so && ln -s libjansson.so.4.11.1 libjansson.so; }; })
libtool: install: /tmp/portage/._portage_reinstall_.z8sq2nh6/bin/ebuild-helpers/xattr/install -c .libs/libjansson.lai /tmp/portage/dev-libs/jansson-2.12/image/usr/lib64/libjansson.la
libtool: warning: remember to run 'libtool --finish /usr/lib64'
make[2]: Leaving directory '/tmp/portage/dev-libs/jansson-2.12/work/jansson-2.12-abi_x86_64.amd64/src'
make[1]: Leaving directory '/tmp/portage/dev-libs/jansson-2.12/work/jansson-2.12-abi_x86_64.amd64/src'
Making install in test
make[1]: Entering directory '/tmp/portage/dev-libs/jansson-2.12/work/jansson-2.12-abi_x86_64.amd64/test'
Making install in bin
make[2]: Entering directory '/tmp/portage/dev-libs/jansson-2.12/work/jansson-2.12-abi_x86_64.amd64/test/bin'
make[3]: Entering directory '/tmp/portage/dev-libs/jansson-2.12/work/jansson-2.12-abi_x86_64.amd64/test/bin'
make[3]: Nothing to be done for 'install-exec-am'.
make[3]: Nothing to be done for 'install-data-am'.
make[3]: Leaving directory '/tmp/portage/dev-libs/jansson-2.12/work/jansson-2.12-abi_x86_64.amd64/test/bin'
make[2]: Leaving directory '/tmp/portage/dev-libs/jansson-2.12/work/jansson-2.12-abi_x86_64.amd64/test/bin'
Making install in suites
make[2]: Entering directory '/tmp/portage/dev-libs/jansson-2.12/work/jansson-2.12-abi_x86_64.amd64/test/suites'
Making install in api
make[3]: Entering directory '/tmp/portage/dev-libs/jansson-2.12/work/jansson-2.12-abi_x86_64.amd64/test/suites/api'
make[4]: Entering directory '/tmp/portage/dev-libs/jansson-2.12/work/jansson-2.12-abi_x86_64.amd64/test/suites/api'
make[4]: Nothing to be done for 'install-exec-am'.
make[4]: Nothing to be done for 'install-data-am'.
make[4]: Leaving directory '/tmp/portage/dev-libs/jansson-2.12/work/jansson-2.12-abi_x86_64.amd64/test/suites/api'
make[3]: Leaving directory '/tmp/portage/dev-libs/jansson-2.12/work/jansson-2.12-abi_x86_64.amd64/test/suites/api'
make[3]: Entering directory '/tmp/portage/dev-libs/jansson-2.12/work/jansson-2.12-abi_x86_64.amd64/test/suites'
make[4]: Entering directory '/tmp/portage/dev-libs/jansson-2.12/work/jansson-2.12-abi_x86_64.amd64/test/suites'
make[4]: Nothing to be done for 'install-exec-am'.
make[4]: Nothing to be done for 'install-data-am'.
make[4]: Leaving directory '/tmp/portage/dev-libs/jansson-2.12/work/jansson-2.12-abi_x86_64.amd64/test/suites'
make[3]: Leaving directory '/tmp/portage/dev-libs/jansson-2.12/work/jansson-2.12-abi_x86_64.amd64/test/suites'
make[2]: Leaving directory '/tmp/portage/dev-libs/jansson-2.12/work/jansson-2.12-abi_x86_64.amd64/test/suites'
make[2]: Entering directory '/tmp/portage/dev-libs/jansson-2.12/work/jansson-2.12-abi_x86_64.amd64/test'
make[3]: Entering directory '/tmp/portage/dev-libs/jansson-2.12/work/jansson-2.12-abi_x86_64.amd64/test'
make[3]: Nothing to be done for 'install-exec-am'.
make[3]: Nothing to be done for 'install-data-am'.
make[3]: Leaving directory '/tmp/portage/dev-libs/jansson-2.12/work/jansson-2.12-abi_x86_64.amd64/test'
make[2]: Leaving directory '/tmp/portage/dev-libs/jansson-2.12/work/jansson-2.12-abi_x86_64.amd64/test'
make[1]: Leaving directory '/tmp/portage/dev-libs/jansson-2.12/work/jansson-2.12-abi_x86_64.amd64/test'
make[1]: Entering directory '/tmp/portage/dev-libs/jansson-2.12/work/jansson-2.12-abi_x86_64.amd64'
make[2]: Entering directory '/tmp/portage/dev-libs/jansson-2.12/work/jansson-2.12-abi_x86_64.amd64'
make[2]: Nothing to be done for 'install-exec-am'.
 /bin/mkdir -p '/tmp/portage/dev-libs/jansson-2.12/image/usr/lib64/pkgconfig'
 /tmp/portage/._portage_reinstall_.z8sq2nh6/bin/ebuild-helpers/xattr/install -c -m 644 jansson.pc '/tmp/portage/dev-libs/jansson-2.12/image/usr/lib64/pkgconfig'
make[2]: Leaving directory '/tmp/portage/dev-libs/jansson-2.12/work/jansson-2.12-abi_x86_64.amd64'
make[1]: Leaving directory '/tmp/portage/dev-libs/jansson-2.12/work/jansson-2.12-abi_x86_64.amd64'
>>> Completed installing dev-libs/jansson-2.12 into /tmp/portage/dev-libs/jansson-2.12/image

 * Final size of build directory: 4644 KiB (4.5 MiB)
 * Final size of installed tree:   180 KiB

Parallel BZIP2 v1.1.13 [Dec 18, 2015]
By: Jeff Gilchrist [http://compression.ca]
Major contributions: Yavor Nikolov [http://javornikolov.wordpress.com]
Uses libbzip2 by Julian Seward

         # CPUs: 3
   Load Average: 9.15
 BWT Block Size: 200 KB
File Block Size: 900 KB
 Maximum Memory: 1024 MB
-------------------------------------------
         File #: 1 of 1
     Input Name: compressme
    Output Name: compressme.bz2

     Input Size: 3895 bytes
Compressing data (no threads)...
Completed: 100%                 Output Size: 918 bytes
-------------------------------------------

     Wall Clock: 0.000898 seconds
Parallel BZIP2 v1.1.13 [Dec 18, 2015]
By: Jeff Gilchrist [http://compression.ca]
Major contributions: Yavor Nikolov [http://javornikolov.wordpress.com]
Uses libbzip2 by Julian Seward

         # CPUs: 3
   Load Average: 9.15
 BWT Block Size: 200 KB
File Block Size: 900 KB
 Maximum Memory: 1024 MB
-------------------------------------------
         File #: 1 of 1
     Input Name: /tmp/portage/dev-libs/jansson-2.12/image/usr/share/doc/jansson-2.12/README.rst
    Output Name: /tmp/portage/dev-libs/jansson-2.12/image/usr/share/doc/jansson-2.12/README.rst.bz2

     Input Size: 1882 bytes
Compressing data (no threads)...
Completed: 100%                 Output Size: 989 bytes
-------------------------------------------

     Wall Clock: 0.012716 seconds
Parallel BZIP2 v1.1.13 [Dec 18, 2015]
By: Jeff Gilchrist [http://compression.ca]
Major contributions: Yavor Nikolov [http://javornikolov.wordpress.com]
Uses libbzip2 by Julian Seward

         # CPUs: 3
   Load Average: 9.15
 BWT Block Size: 200 KB
File Block Size: 900 KB
 Maximum Memory: 1024 MB
-------------------------------------------
         File #: 1 of 1
     Input Name: /tmp/portage/dev-libs/jansson-2.12/image/usr/share/doc/jansson-2.12/CHANGES
    Output Name: /tmp/portage/dev-libs/jansson-2.12/image/usr/share/doc/jansson-2.12/CHANGES.bz2

     Input Size: 22005 bytes
Compressing data (no threads)...
Completed: 100%                 Output Size: 7164 bytes
-------------------------------------------

     Wall Clock: 0.003093 seconds
strip: x86_64-pc-linux-gnu-strip --strip-unneeded -N __gentoo_check_ldflags__ -R .comment -R .GCC.command.line -R .note.gnu.gold-version
   /usr/lib64/libjansson.so.4.11.1
./
./usr/
./usr/include/
./usr/include/jansson.h
./usr/include/jansson_config.h
./usr/share/
./usr/share/doc/
./usr/share/doc/jansson-2.12/
./usr/share/doc/jansson-2.12/README.rst.bz2
./usr/share/doc/jansson-2.12/README.rst
./usr/share/doc/jansson-2.12/CHANGES
./usr/share/doc/jansson-2.12/CHANGES.bz2
./usr/lib64/
./usr/lib64/libjansson.so.4.11.1
./usr/lib64/libjansson.so
./usr/lib64/pkgconfig/
./usr/lib64/pkgconfig/jansson.pc
./usr/lib64/libjansson.so.4
>>> Done.
 * checking 6 files for package collisions
>>> Merging dev-libs/jansson-2.12 to /
 * removing unneeded *.la files
--- /usr/
--- /usr/lib64/
>>> /usr/lib64/libjansson.so.4 -> libjansson.so.4.11.1
--- /usr/lib64/pkgconfig/
>>> /usr/lib64/pkgconfig/jansson.pc
>>> /usr/lib64/libjansson.so -> libjansson.so.4.11.1
>>> /usr/lib64/libjansson.so.4.11.1
--- /usr/include/
>>> /usr/include/jansson_config.h
>>> /usr/include/jansson.h
>>> Safely unmerging already-installed instance...
>>> Original instance of package unmerged safely.
>>> dev-libs/jansson-2.12 merged.
>>> Regenerating /etc/ld.so.cache...
