No package files given... Grabbing a set.
--- replaced obj /usr/share/man/man3/ev.3.bz2
--- replaced dir /usr/share/man/man3
--- replaced dir /usr/share/man
--- replaced dir /usr/share
--- replaced obj /usr/lib64/pkgconfig/libev.pc
--- replaced dir /usr/lib64/pkgconfig
--- replaced obj /usr/lib64/libev.so.4.0.0
--- replaced sym /usr/lib64/libev.so.4
--- replaced sym /usr/lib64/libev.so
--- replaced dir /usr/lib64
--- replaced obj /usr/include/ev.h
--- replaced obj /usr/include/ev++.h
--- replaced dir /usr/include
--- replaced dir /usr
>>> Regenerating /etc/ld.so.cache...
