[32;01m * [39;49;00mPackage:    dev-lang/ghc-8.6.5
[32;01m * [39;49;00mRepository: haskell
[32;01m * [39;49;00mMaintainer: haskell@gentoo.org
[32;01m * [39;49;00mUSE:        abi_x86_64 amd64 elibc_glibc gmp kernel_linux profile userland_GNU
[32;01m * [39;49;00mFEATURES:   ccache network-sandbox preserve-libs sandbox userpriv usersandbox
 [32;01m*[0m Checking for at least 8 GiB disk space at "/tmp/portage/dev-lang/ghc-8.6.5/temp" ...
[A[263C [34;01m[ [32;01mok[34;01m ][0m
 [32;01m*[0m Checking for at least 2 GiB disk space at "/usr" ...
[A[263C [34;01m[ [32;01mok[34;01m ][0m
