 * Package:    dev-ruby/builder-3.2.4
 * Repository: gentoo
 * Maintainer: ruby@gentoo.org
 * USE:        abi_x86_64 amd64 elibc_glibc kernel_linux ruby_targets_ruby26 ruby_targets_ruby27 test userland_GNU
 * FEATURES:   ccache network-sandbox preserve-libs sandbox userpriv usersandbox
 * FEATURES='assume-digests binpkg-docompress binpkg-dostrip binpkg-logs binpkg-multi-instance buildpkg ccache compress-index config-protect-if-modified distlocks downgrade-backup fixlafiles ipc-sandbox merge-sync multilib-strict network-sandbox news nodoc parallel-fetch parallel-install pid-sandbox preserve-libs qa-unresolved-soname-deps sandbox sfperms strict unknown-features-warn unmerge-backup unmerge-logs unmerge-orphans userfetch userpriv usersandbox usersync xattr'
 * CFLAGS='-march=znver2 -O3 -fgraphite-identity -floop-nest-optimize -fdevirtualize-at-ltrans -fipa-pta -fno-semantic-interposition -flto=12 -fno-plt -fno-signed-zeros -fno-trapping-math -fassociative-math -freciprocal-math -fno-math-errno -ffinite-math-only -fno-rounding-math -fno-signaling-nans -fcx-limited-range -fexcess-precision=fast -falign-functions=32 -fno-stack-protector -fno-stack-clash-protection -fstack-check=no -fno-stack-check -fuse-linker-plugin -pipe -g0 -Wl,-O1 -Wl,--as-needed -Wl,-z,norelro -Wl,-z,now -Wl,--sort-common -s'
 * CXXFLAGS='-march=znver2 -O3 -fgraphite-identity -floop-nest-optimize -fdevirtualize-at-ltrans -fipa-pta -fno-semantic-interposition -flto=12 -fno-plt -fno-signed-zeros -fno-trapping-math -fassociative-math -freciprocal-math -fno-math-errno -ffinite-math-only -fno-rounding-math -fno-signaling-nans -fcx-limited-range -fexcess-precision=fast -falign-functions=32 -fno-stack-protector -fno-stack-clash-protection -fstack-check=no -fno-stack-check -fuse-linker-plugin -pipe -g0 -Wl,-O1 -Wl,--as-needed -Wl,-z,norelro -Wl,-z,now -Wl,--sort-common -s'
 * FFLAGS='-march=znver2 -O3 -fgraphite-identity -floop-nest-optimize -fdevirtualize-at-ltrans -fipa-pta -fno-semantic-interposition -flto=12 -fno-plt -fno-signed-zeros -fno-trapping-math -fassociative-math -freciprocal-math -fno-math-errno -ffinite-math-only -fno-rounding-math -fno-signaling-nans -fcx-limited-range -fexcess-precision=fast -falign-functions=32 -fno-stack-protector -fno-stack-clash-protection -fstack-check=no -fno-stack-check -fuse-linker-plugin -pipe -g0 -Wl,-O1 -Wl,--as-needed -Wl,-z,norelro -Wl,-z,now -Wl,--sort-common -s'
 * FCFLAGS='-march=znver2 -O3 -fgraphite-identity -floop-nest-optimize -fdevirtualize-at-ltrans -fipa-pta -fno-semantic-interposition -flto=12 -fno-plt -fno-signed-zeros -fno-trapping-math -fassociative-math -freciprocal-math -fno-math-errno -ffinite-math-only -fno-rounding-math -fno-signaling-nans -fcx-limited-range -fexcess-precision=fast -falign-functions=32 -fno-stack-protector -fno-stack-clash-protection -fstack-check=no -fno-stack-check -fuse-linker-plugin -pipe -g0 -Wl,-O1 -Wl,--as-needed -Wl,-z,norelro -Wl,-z,now -Wl,--sort-common -s'
 * F77FLAGS='-march=znver2 -O3 -fgraphite-identity -floop-nest-optimize -fdevirtualize-at-ltrans -fipa-pta -fno-semantic-interposition -flto=12 -fno-plt -fno-signed-zeros -fno-trapping-math -fassociative-math -freciprocal-math -fno-math-errno -ffinite-math-only -fno-rounding-math -fno-signaling-nans -fcx-limited-range -fexcess-precision=fast -falign-functions=32 -fno-stack-protector -fno-stack-clash-protection -fstack-check=no -fno-stack-check -fuse-linker-plugin -pipe -g0 -Wl,-O1 -Wl,--as-needed -Wl,-z,norelro -Wl,-z,now -Wl,--sort-common -s'
 * LDFLAGS='-Wl,-O1 -Wl,--as-needed -Wl,-z,norelro -Wl,-z,now -Wl,--sort-common -s -march=znver2 -O3 -fgraphite-identity -floop-nest-optimize -fdevirtualize-at-ltrans -fipa-pta -fno-semantic-interposition -flto=12 -fno-plt -fno-signed-zeros -fno-trapping-math -fassociative-math -freciprocal-math -fno-math-errno -ffinite-math-only -fno-rounding-math -fno-signaling-nans -fcx-limited-range -fexcess-precision=fast -falign-functions=32 -fno-stack-protector -fno-stack-clash-protection -fstack-check=no -fno-stack-check -fuse-linker-plugin -pipe -g0'
 * MAKEOPTS='-j12 -l12'
 * gcc () 11.0.0 20200530 (experimental)
 * g++ () 11.0.0 20200530 (experimental)
 * GNU ld (Gentoo 2.34 p4) 2.34.0
 * Linux ryzen.gnum.org 5.4.36 #1 SMP Thu Apr 30 04:38:28 UTC 2020 x86_64 AMD Ryzen 5 3600 6-Core Processor AuthenticAMD GNU/Linux
dev-ruby/builder: 10 seconds average for 2 merges
2020-05-16T15:55:02 >>> dev-ruby/builder: 6 seconds
2020-05-28T10:42:26 >>> dev-ruby/builder: 15 seconds
]0;emerge 00:30:10 288|337 builder 00:11 (root@ryzen.gnum.org)kemerge 00:30:10 288|337 builder 00:11 (root@ryzen.gnum.org)\>>> Unpacking source...
 * Running unpack phase for all ...
 * Unpacking .gem file... ...
 [ ok ]
 * Uncompressing metadata ...
 [ ok ]
 * Unpacking data.tar.gz ...
 [ ok ]
>>> Source unpacked in /tmp/portage/dev-ruby/builder-3.2.4/work
>>> Preparing source in /tmp/portage/dev-ruby/builder-3.2.4/work ...
 * Running prepare phase for all ...
 * Running prepare phase for all ...
 * Running source copy phase for ruby26 ...
 * Running source copy phase for ruby27 ...
>>> Source prepared.
>>> Configuring source in /tmp/portage/dev-ruby/builder-3.2.4/work ...
>>> Source configured.
>>> Compiling source in /tmp/portage/dev-ruby/builder-3.2.4/work ...
 * Running compile phase for all ...
>>> Source compiled.
>>> Test phase [not enabled]: dev-ruby/builder-3.2.4

>>> Install dev-ruby/builder-3.2.4 into /tmp/portage/dev-ruby/builder-3.2.4/image
 * Running install phase for ruby26 ...
 * Running install phase for ruby27 ...
 * Running install phase for all ...
 * Running check install phase for ruby26 ...
 * Running check install phase for ruby27 ...
>>> Completed installing dev-ruby/builder-3.2.4 into /tmp/portage/dev-ruby/builder-3.2.4/image

 * Final size of build directory: 296 KiB
 * Final size of installed tree:  196 KiB

./
./usr/
./usr/share/
./usr/share/doc/
./usr/share/doc/builder-3.2.4/
./usr/share/doc/builder-3.2.4/README.md.bz2
./usr/share/doc/builder-3.2.4/CHANGES.bz2
./usr/lib64/
./usr/lib64/ruby/
./usr/lib64/ruby/gems/
./usr/lib64/ruby/gems/2.6.0/
./usr/lib64/ruby/gems/2.6.0/specifications/
./usr/lib64/ruby/gems/2.6.0/specifications/builder-3.2.4.gemspec
./usr/lib64/ruby/gems/2.6.0/gems/
./usr/lib64/ruby/gems/2.6.0/gems/builder-3.2.4/
./usr/lib64/ruby/gems/2.6.0/gems/builder-3.2.4/lib/
./usr/lib64/ruby/gems/2.6.0/gems/builder-3.2.4/lib/builder/
./usr/lib64/ruby/gems/2.6.0/gems/builder-3.2.4/lib/builder/xmlmarkup.rb
./usr/lib64/ruby/gems/2.6.0/gems/builder-3.2.4/lib/builder/xmlbase.rb
./usr/lib64/ruby/gems/2.6.0/gems/builder-3.2.4/lib/builder/version.rb
./usr/lib64/ruby/gems/2.6.0/gems/builder-3.2.4/lib/builder/xchar.rb
./usr/lib64/ruby/gems/2.6.0/gems/builder-3.2.4/lib/builder/xmlevents.rb
./usr/lib64/ruby/gems/2.6.0/gems/builder-3.2.4/lib/builder/blankslate.rb
./usr/lib64/ruby/gems/2.6.0/gems/builder-3.2.4/lib/builder.rb
./usr/lib64/ruby/gems/2.6.0/gems/builder-3.2.4/lib/blankslate.rb
./usr/lib64/ruby/gems/2.7.0/
./usr/lib64/ruby/gems/2.7.0/specifications/
./usr/lib64/ruby/gems/2.7.0/specifications/builder-3.2.4.gemspec
./usr/lib64/ruby/gems/2.7.0/gems/
./usr/lib64/ruby/gems/2.7.0/gems/builder-3.2.4/
./usr/lib64/ruby/gems/2.7.0/gems/builder-3.2.4/lib/
./usr/lib64/ruby/gems/2.7.0/gems/builder-3.2.4/lib/builder/
./usr/lib64/ruby/gems/2.7.0/gems/builder-3.2.4/lib/builder/xmlmarkup.rb
./usr/lib64/ruby/gems/2.7.0/gems/builder-3.2.4/lib/builder/xmlbase.rb
./usr/lib64/ruby/gems/2.7.0/gems/builder-3.2.4/lib/builder/version.rb
./usr/lib64/ruby/gems/2.7.0/gems/builder-3.2.4/lib/builder/xchar.rb
./usr/lib64/ruby/gems/2.7.0/gems/builder-3.2.4/lib/builder/xmlevents.rb
./usr/lib64/ruby/gems/2.7.0/gems/builder-3.2.4/lib/builder/blankslate.rb
./usr/lib64/ruby/gems/2.7.0/gems/builder-3.2.4/lib/builder.rb
./usr/lib64/ruby/gems/2.7.0/gems/builder-3.2.4/lib/blankslate.rb
>>> Done.
 * checking 18 files for package collisions
[32;01m * [39;49;00mBuilding package for dev-ruby/builder-3.2.4 ...[32;01m * [39;49;00mwaiting for lock on /usr/portage/packages/.Packages.portage_lockfile ...  [34;01m[ [39;49;00m[32;01mok[39;49;00m[34;01m ][39;49;00m
                       [34;01m[ [39;49;00m[32;01mok[39;49;00m[34;01m ][39;49;00m
[32;01m * [39;49;00mPackages now in '/usr/portage/packages':
[32;01m * [39;49;00mdev-ruby/builder-3.2.4: 44.5K

>>> Merging dev-ruby/builder-3.2.4 to /
 * removing unneeded *.la files
--- /usr/
--- /usr/lib64/
--- /usr/lib64/ruby/
--- /usr/lib64/ruby/gems/
--- /usr/lib64/ruby/gems/2.7.0/
--- /usr/lib64/ruby/gems/2.7.0/gems/
--- /usr/lib64/ruby/gems/2.7.0/gems/builder-3.2.4/
--- /usr/lib64/ruby/gems/2.7.0/gems/builder-3.2.4/lib/
>>> /usr/lib64/ruby/gems/2.7.0/gems/builder-3.2.4/lib/blankslate.rb
>>> /usr/lib64/ruby/gems/2.7.0/gems/builder-3.2.4/lib/builder.rb
--- /usr/lib64/ruby/gems/2.7.0/gems/builder-3.2.4/lib/builder/
>>> /usr/lib64/ruby/gems/2.7.0/gems/builder-3.2.4/lib/builder/blankslate.rb
>>> /usr/lib64/ruby/gems/2.7.0/gems/builder-3.2.4/lib/builder/xmlevents.rb
>>> /usr/lib64/ruby/gems/2.7.0/gems/builder-3.2.4/lib/builder/xchar.rb
>>> /usr/lib64/ruby/gems/2.7.0/gems/builder-3.2.4/lib/builder/version.rb
>>> /usr/lib64/ruby/gems/2.7.0/gems/builder-3.2.4/lib/builder/xmlbase.rb
>>> /usr/lib64/ruby/gems/2.7.0/gems/builder-3.2.4/lib/builder/xmlmarkup.rb
--- /usr/lib64/ruby/gems/2.7.0/specifications/
>>> /usr/lib64/ruby/gems/2.7.0/specifications/builder-3.2.4.gemspec
--- /usr/lib64/ruby/gems/2.6.0/
--- /usr/lib64/ruby/gems/2.6.0/gems/
--- /usr/lib64/ruby/gems/2.6.0/gems/builder-3.2.4/
--- /usr/lib64/ruby/gems/2.6.0/gems/builder-3.2.4/lib/
>>> /usr/lib64/ruby/gems/2.6.0/gems/builder-3.2.4/lib/blankslate.rb
>>> /usr/lib64/ruby/gems/2.6.0/gems/builder-3.2.4/lib/builder.rb
--- /usr/lib64/ruby/gems/2.6.0/gems/builder-3.2.4/lib/builder/
>>> /usr/lib64/ruby/gems/2.6.0/gems/builder-3.2.4/lib/builder/blankslate.rb
>>> /usr/lib64/ruby/gems/2.6.0/gems/builder-3.2.4/lib/builder/xmlevents.rb
>>> /usr/lib64/ruby/gems/2.6.0/gems/builder-3.2.4/lib/builder/xchar.rb
>>> /usr/lib64/ruby/gems/2.6.0/gems/builder-3.2.4/lib/builder/version.rb
>>> /usr/lib64/ruby/gems/2.6.0/gems/builder-3.2.4/lib/builder/xmlbase.rb
>>> /usr/lib64/ruby/gems/2.6.0/gems/builder-3.2.4/lib/builder/xmlmarkup.rb
--- /usr/lib64/ruby/gems/2.6.0/specifications/
>>> /usr/lib64/ruby/gems/2.6.0/specifications/builder-3.2.4.gemspec
>>> Safely unmerging already-installed instance...
>>> Original instance of package unmerged safely.
>>> dev-ruby/builder-3.2.4 merged.
