No package files given... Grabbing a set.
<<<          obj /usr/share/cppunit/examples/simple/simple_plugin.vcproj
<<<          obj /usr/share/cppunit/examples/simple/simple_plugin.opt
<<<          obj /usr/share/cppunit/examples/simple/simple_plugin.dsp
<<<          obj /usr/share/cppunit/examples/simple/simple.vcproj
<<<          obj /usr/share/cppunit/examples/simple/simple.dsp
<<<          obj /usr/share/cppunit/examples/simple/SimplePlugIn.cpp
<<<          obj /usr/share/cppunit/examples/simple/Makefile.in
<<<          obj /usr/share/cppunit/examples/simple/Makefile.am
<<<          obj /usr/share/cppunit/examples/simple/Makefile
<<<          obj /usr/share/cppunit/examples/simple/Main.cpp
<<<          obj /usr/share/cppunit/examples/simple/ExampleTestCase.h
<<<          obj /usr/share/cppunit/examples/simple/ExampleTestCase.cpp
<<<          obj /usr/share/cppunit/examples/simple/.gitignore
<<<          obj /usr/share/cppunit/examples/simple/.deps/Main.Po
<<<          obj /usr/share/cppunit/examples/simple/.deps/ExampleTestCase.Po
<<<          obj /usr/share/cppunit/examples/money/money.vcproj
<<<          obj /usr/share/cppunit/examples/money/money.dsw
<<<          obj /usr/share/cppunit/examples/money/money.dsp
<<<          obj /usr/share/cppunit/examples/money/configure.in
<<<          obj /usr/share/cppunit/examples/money/StdAfx.h
<<<          obj /usr/share/cppunit/examples/money/StdAfx.cpp
<<<          obj /usr/share/cppunit/examples/money/MoneyTest.h
<<<          obj /usr/share/cppunit/examples/money/MoneyTest.cpp
<<<          obj /usr/share/cppunit/examples/money/MoneyApp.cpp
<<<          obj /usr/share/cppunit/examples/money/Money.h
<<<          obj /usr/share/cppunit/examples/money/Makefile.in
<<<          obj /usr/share/cppunit/examples/money/Makefile.am
<<<          obj /usr/share/cppunit/examples/money/Makefile
<<<          obj /usr/share/cppunit/examples/money/.deps/MoneyApp-MoneyTest.Po
<<<          obj /usr/share/cppunit/examples/money/.deps/MoneyApp-MoneyApp.Po
<<<          obj /usr/share/cppunit/examples/hierarchy/main.cpp
<<<          obj /usr/share/cppunit/examples/hierarchy/hierarchy.vcproj
<<<          obj /usr/share/cppunit/examples/hierarchy/hierarchy.dsw
<<<          obj /usr/share/cppunit/examples/hierarchy/hierarchy.dsp
<<<          obj /usr/share/cppunit/examples/hierarchy/Makefile.in
<<<          obj /usr/share/cppunit/examples/hierarchy/Makefile.am
<<<          obj /usr/share/cppunit/examples/hierarchy/Makefile
<<<          obj /usr/share/cppunit/examples/hierarchy/ChessTest.h
<<<          obj /usr/share/cppunit/examples/hierarchy/Chess.h
<<<          obj /usr/share/cppunit/examples/hierarchy/Chess.cpp
<<<          obj /usr/share/cppunit/examples/hierarchy/BoardGameTest.h
<<<          obj /usr/share/cppunit/examples/hierarchy/BoardGame.h
<<<          obj /usr/share/cppunit/examples/hierarchy/BoardGame.cpp
<<<          obj /usr/share/cppunit/examples/hierarchy/.deps/main.Po
<<<          obj /usr/share/cppunit/examples/hierarchy/.deps/Chess.Po
<<<          obj /usr/share/cppunit/examples/hierarchy/.deps/BoardGame.Po
<<<          obj /usr/share/cppunit/examples/examples2008.sln
<<<          obj /usr/share/cppunit/examples/examples.opt
<<<          obj /usr/share/cppunit/examples/examples.dsw
<<<          obj /usr/share/cppunit/examples/cppunittest/test.txt
<<<          obj /usr/share/cppunit/examples/cppunittest/assertion_traitsTest.h
<<<          obj /usr/share/cppunit/examples/cppunittest/assertion_traitsTest.cpp
<<<          obj /usr/share/cppunit/examples/cppunittest/XmlUniformiserTest.h
<<<          obj /usr/share/cppunit/examples/cppunittest/XmlUniformiserTest.cpp
<<<          obj /usr/share/cppunit/examples/cppunittest/XmlUniformiser.h
<<<          obj /usr/share/cppunit/examples/cppunittest/XmlUniformiser.cpp
<<<          obj /usr/share/cppunit/examples/cppunittest/XmlOutputterTest.h
<<<          obj /usr/share/cppunit/examples/cppunittest/XmlOutputterTest.cpp
<<<          obj /usr/share/cppunit/examples/cppunittest/XmlElementTest.h
<<<          obj /usr/share/cppunit/examples/cppunittest/XmlElementTest.cpp
<<<          obj /usr/share/cppunit/examples/cppunittest/UnitTestToolSuite.h
<<<          obj /usr/share/cppunit/examples/cppunittest/TrackedTestCase.h
<<<          obj /usr/share/cppunit/examples/cppunittest/TrackedTestCase.cpp
<<<          obj /usr/share/cppunit/examples/cppunittest/ToolsSuite.h
<<<          obj /usr/share/cppunit/examples/cppunittest/TestTest.h
<<<          obj /usr/share/cppunit/examples/cppunittest/TestTest.cpp
<<<          obj /usr/share/cppunit/examples/cppunittest/TestSuiteTest.h
<<<          obj /usr/share/cppunit/examples/cppunittest/TestSuiteTest.cpp
<<<          obj /usr/share/cppunit/examples/cppunittest/TestSetUpTest.h
<<<          obj /usr/share/cppunit/examples/cppunittest/TestSetUpTest.cpp
<<<          obj /usr/share/cppunit/examples/cppunittest/TestResultTest.h
<<<          obj /usr/share/cppunit/examples/cppunittest/TestResultTest.cpp
<<<          obj /usr/share/cppunit/examples/cppunittest/TestResultCollectorTest.h
<<<          obj /usr/share/cppunit/examples/cppunittest/TestResultCollectorTest.cpp
<<<          obj /usr/share/cppunit/examples/cppunittest/TestPathTest.h
<<<          obj /usr/share/cppunit/examples/cppunittest/TestPathTest.cpp
<<<          obj /usr/share/cppunit/examples/cppunittest/TestFailureTest.h
<<<          obj /usr/share/cppunit/examples/cppunittest/TestFailureTest.cpp
<<<          obj /usr/share/cppunit/examples/cppunittest/TestDecoratorTest.h
<<<          obj /usr/share/cppunit/examples/cppunittest/TestDecoratorTest.cpp
<<<          obj /usr/share/cppunit/examples/cppunittest/TestCaseTest.h
<<<          obj /usr/share/cppunit/examples/cppunittest/TestCaseTest.cpp
<<<          obj /usr/share/cppunit/examples/cppunittest/TestCallerTest.h
<<<          obj /usr/share/cppunit/examples/cppunittest/TestCallerTest.cpp
<<<          obj /usr/share/cppunit/examples/cppunittest/TestAssertTest.h
<<<          obj /usr/share/cppunit/examples/cppunittest/TestAssertTest.cpp
<<<          obj /usr/share/cppunit/examples/cppunittest/SynchronizedTestResult.h
<<<          obj /usr/share/cppunit/examples/cppunittest/SubclassedTestCase.h
<<<          obj /usr/share/cppunit/examples/cppunittest/SubclassedTestCase.cpp
<<<          obj /usr/share/cppunit/examples/cppunittest/StringToolsTest.h
<<<          obj /usr/share/cppunit/examples/cppunittest/StringToolsTest.cpp
<<<          obj /usr/share/cppunit/examples/cppunittest/RepeatedTestTest.h
<<<          obj /usr/share/cppunit/examples/cppunittest/RepeatedTestTest.cpp
<<<          obj /usr/share/cppunit/examples/cppunittest/OutputSuite.h
<<<          obj /usr/share/cppunit/examples/cppunittest/OrthodoxTest.h
<<<          obj /usr/share/cppunit/examples/cppunittest/OrthodoxTest.cpp
<<<          obj /usr/share/cppunit/examples/cppunittest/MockTestListener.h
<<<          obj /usr/share/cppunit/examples/cppunittest/MockTestListener.cpp
<<<          obj /usr/share/cppunit/examples/cppunittest/MockTestCase.h
<<<          obj /usr/share/cppunit/examples/cppunittest/MockTestCase.cpp
<<<          obj /usr/share/cppunit/examples/cppunittest/MockProtector.h
<<<          obj /usr/share/cppunit/examples/cppunittest/MockFunctor.h
<<<          obj /usr/share/cppunit/examples/cppunittest/MessageTest.h
<<<          obj /usr/share/cppunit/examples/cppunittest/MessageTest.cpp
<<<          obj /usr/share/cppunit/examples/cppunittest/Makefile.in
<<<          obj /usr/share/cppunit/examples/cppunittest/Makefile.am
<<<          obj /usr/share/cppunit/examples/cppunittest/Makefile
<<<          obj /usr/share/cppunit/examples/cppunittest/HelperSuite.h
<<<          obj /usr/share/cppunit/examples/cppunittest/HelperMacrosTest.h
<<<          obj /usr/share/cppunit/examples/cppunittest/HelperMacrosTest.cpp
<<<          obj /usr/share/cppunit/examples/cppunittest/FailureException.h
<<<          obj /usr/share/cppunit/examples/cppunittest/ExtensionSuite.h
<<<          obj /usr/share/cppunit/examples/cppunittest/ExceptionTestCaseDecoratorTest.h
<<<          obj /usr/share/cppunit/examples/cppunittest/ExceptionTestCaseDecoratorTest.cpp
<<<          obj /usr/share/cppunit/examples/cppunittest/ExceptionTest.h
<<<          obj /usr/share/cppunit/examples/cppunittest/ExceptionTest.cpp
<<<          obj /usr/share/cppunit/examples/cppunittest/CppUnitTestSuite.cpp
<<<          obj /usr/share/cppunit/examples/cppunittest/CppUnitTestPlugIn.vcproj
<<<          obj /usr/share/cppunit/examples/cppunittest/CppUnitTestPlugIn.dsp
<<<          obj /usr/share/cppunit/examples/cppunittest/CppUnitTestPlugIn.cpp
<<<          obj /usr/share/cppunit/examples/cppunittest/CppUnitTestMain.vcproj
<<<          obj /usr/share/cppunit/examples/cppunittest/CppUnitTestMain.dsw
<<<          obj /usr/share/cppunit/examples/cppunittest/CppUnitTestMain.dsp
<<<          obj /usr/share/cppunit/examples/cppunittest/CppUnitTestMain.cpp
<<<          obj /usr/share/cppunit/examples/cppunittest/CoreSuite.h
<<<          obj /usr/share/cppunit/examples/cppunittest/BaseTestCase.h
<<<          obj /usr/share/cppunit/examples/cppunittest/BaseTestCase.cpp
<<<          obj /usr/share/cppunit/examples/cppunittest/.deps/assertion_traitsTest.Po
<<<          obj /usr/share/cppunit/examples/cppunittest/.deps/XmlUniformiserTest.Po
<<<          obj /usr/share/cppunit/examples/cppunittest/.deps/XmlUniformiser.Po
<<<          obj /usr/share/cppunit/examples/cppunittest/.deps/XmlOutputterTest.Po
<<<          obj /usr/share/cppunit/examples/cppunittest/.deps/XmlElementTest.Po
<<<          obj /usr/share/cppunit/examples/cppunittest/.deps/TrackedTestCase.Po
<<<          obj /usr/share/cppunit/examples/cppunittest/.deps/TestTest.Po
<<<          obj /usr/share/cppunit/examples/cppunittest/.deps/TestSuiteTest.Po
<<<          obj /usr/share/cppunit/examples/cppunittest/.deps/TestSetUpTest.Po
<<<          obj /usr/share/cppunit/examples/cppunittest/.deps/TestResultTest.Po
<<<          obj /usr/share/cppunit/examples/cppunittest/.deps/TestResultCollectorTest.Po
<<<          obj /usr/share/cppunit/examples/cppunittest/.deps/TestPathTest.Po
<<<          obj /usr/share/cppunit/examples/cppunittest/.deps/TestFailureTest.Po
<<<          obj /usr/share/cppunit/examples/cppunittest/.deps/TestDecoratorTest.Po
<<<          obj /usr/share/cppunit/examples/cppunittest/.deps/TestCaseTest.Po
<<<          obj /usr/share/cppunit/examples/cppunittest/.deps/TestCallerTest.Po
<<<          obj /usr/share/cppunit/examples/cppunittest/.deps/TestAssertTest.Po
<<<          obj /usr/share/cppunit/examples/cppunittest/.deps/SubclassedTestCase.Po
<<<          obj /usr/share/cppunit/examples/cppunittest/.deps/StringToolsTest.Po
<<<          obj /usr/share/cppunit/examples/cppunittest/.deps/RepeatedTestTest.Po
<<<          obj /usr/share/cppunit/examples/cppunittest/.deps/OrthodoxTest.Po
<<<          obj /usr/share/cppunit/examples/cppunittest/.deps/MockTestListener.Po
<<<          obj /usr/share/cppunit/examples/cppunittest/.deps/MockTestCase.Po
<<<          obj /usr/share/cppunit/examples/cppunittest/.deps/MessageTest.Po
<<<          obj /usr/share/cppunit/examples/cppunittest/.deps/HelperMacrosTest.Po
<<<          obj /usr/share/cppunit/examples/cppunittest/.deps/ExceptionTestCaseDecoratorTest.Po
<<<          obj /usr/share/cppunit/examples/cppunittest/.deps/ExceptionTest.Po
<<<          obj /usr/share/cppunit/examples/cppunittest/.deps/CppUnitTestSuite.Po
<<<          obj /usr/share/cppunit/examples/cppunittest/.deps/CppUnitTestMain.Po
<<<          obj /usr/share/cppunit/examples/cppunittest/.deps/BaseTestCase.Po
<<<          obj /usr/share/cppunit/examples/ReadMe.txt
<<<          obj /usr/share/cppunit/examples/Makefile.in
<<<          obj /usr/share/cppunit/examples/Makefile.am
<<<          obj /usr/share/cppunit/examples/Makefile
<<<          obj /usr/share/cppunit/examples/DumperPlugIn/Makefile.in
<<<          obj /usr/share/cppunit/examples/DumperPlugIn/Makefile.am
<<<          obj /usr/share/cppunit/examples/DumperPlugIn/Makefile
<<<          obj /usr/share/cppunit/examples/DumperPlugIn/DumperPlugIn.vcproj
<<<          obj /usr/share/cppunit/examples/DumperPlugIn/DumperPlugIn.dsp
<<<          obj /usr/share/cppunit/examples/DumperPlugIn/DumperPlugIn.cpp
<<<          obj /usr/share/cppunit/examples/DumperPlugIn/DumperListener.h
<<<          obj /usr/share/cppunit/examples/DumperPlugIn/DumperListener.cpp
<<<          obj /usr/share/cppunit/examples/ClockerPlugIn/WinNtTimer.h
<<<          obj /usr/share/cppunit/examples/ClockerPlugIn/WinNtTimer.cpp
<<<          obj /usr/share/cppunit/examples/ClockerPlugIn/Timer.h
<<<          obj /usr/share/cppunit/examples/ClockerPlugIn/Timer.cpp
<<<          obj /usr/share/cppunit/examples/ClockerPlugIn/ReadMe.txt
<<<          obj /usr/share/cppunit/examples/ClockerPlugIn/Makefile.in
<<<          obj /usr/share/cppunit/examples/ClockerPlugIn/Makefile.am
<<<          obj /usr/share/cppunit/examples/ClockerPlugIn/Makefile
<<<          obj /usr/share/cppunit/examples/ClockerPlugIn/ClockerXmlHook.h
<<<          obj /usr/share/cppunit/examples/ClockerPlugIn/ClockerXmlHook.cpp
<<<          obj /usr/share/cppunit/examples/ClockerPlugIn/ClockerPlugIn.vcproj
<<<          obj /usr/share/cppunit/examples/ClockerPlugIn/ClockerPlugIn.dsp
<<<          obj /usr/share/cppunit/examples/ClockerPlugIn/ClockerPlugIn.cpp
<<<          obj /usr/share/cppunit/examples/ClockerPlugIn/ClockerModel.h
<<<          obj /usr/share/cppunit/examples/ClockerPlugIn/ClockerModel.cpp
<<<          obj /usr/share/cppunit/examples/ClockerPlugIn/ClockerListener.h
<<<          obj /usr/share/cppunit/examples/ClockerPlugIn/ClockerListener.cpp
--- replaced obj /usr/lib64/pkgconfig/cppunit.pc
--- replaced dir /usr/lib64/pkgconfig
--- replaced sym /usr/lib64/libcppunit.so
--- replaced obj /usr/lib64/libcppunit-1.14.so.0.0.0
--- replaced sym /usr/lib64/libcppunit-1.14.so.0
--- replaced dir /usr/lib64
--- replaced obj /usr/include/cppunit/ui/text/TextTestRunner.h
--- replaced obj /usr/include/cppunit/ui/text/TestRunner.h
--- replaced dir /usr/include/cppunit/ui/text
--- replaced dir /usr/include/cppunit/ui
--- replaced obj /usr/include/cppunit/tools/XmlElement.h
--- replaced obj /usr/include/cppunit/tools/XmlDocument.h
--- replaced obj /usr/include/cppunit/tools/StringTools.h
--- replaced obj /usr/include/cppunit/tools/StringHelper.h
--- replaced obj /usr/include/cppunit/tools/Algorithm.h
--- replaced dir /usr/include/cppunit/tools
--- replaced obj /usr/include/cppunit/portability/Stream.h
--- replaced obj /usr/include/cppunit/portability/FloatingPoint.h
--- replaced dir /usr/include/cppunit/portability
--- replaced obj /usr/include/cppunit/plugin/TestPlugInDefaultImpl.h
--- replaced obj /usr/include/cppunit/plugin/TestPlugIn.h
--- replaced obj /usr/include/cppunit/plugin/PlugInParameters.h
--- replaced obj /usr/include/cppunit/plugin/PlugInManager.h
--- replaced obj /usr/include/cppunit/plugin/DynamicLibraryManagerException.h
--- replaced obj /usr/include/cppunit/plugin/DynamicLibraryManager.h
--- replaced dir /usr/include/cppunit/plugin
--- replaced obj /usr/include/cppunit/extensions/TypeInfoHelper.h
--- replaced obj /usr/include/cppunit/extensions/TestSuiteFactory.h
--- replaced obj /usr/include/cppunit/extensions/TestSuiteBuilderContext.h
--- replaced obj /usr/include/cppunit/extensions/TestSetUp.h
--- replaced obj /usr/include/cppunit/extensions/TestNamer.h
--- replaced obj /usr/include/cppunit/extensions/TestFixtureFactory.h
--- replaced obj /usr/include/cppunit/extensions/TestFactoryRegistry.h
--- replaced obj /usr/include/cppunit/extensions/TestFactory.h
--- replaced obj /usr/include/cppunit/extensions/TestDecorator.h
--- replaced obj /usr/include/cppunit/extensions/TestCaseDecorator.h
--- replaced obj /usr/include/cppunit/extensions/RepeatedTest.h
--- replaced obj /usr/include/cppunit/extensions/Orthodox.h
--- replaced obj /usr/include/cppunit/extensions/HelperMacros.h
--- replaced obj /usr/include/cppunit/extensions/ExceptionTestCaseDecorator.h
--- replaced obj /usr/include/cppunit/extensions/AutoRegisterSuite.h
--- replaced dir /usr/include/cppunit/extensions
--- replaced obj /usr/include/cppunit/config/config-msvc6.h
--- replaced obj /usr/include/cppunit/config/config-mac.h
--- replaced obj /usr/include/cppunit/config/config-evc4.h
--- replaced obj /usr/include/cppunit/config/config-bcb5.h
--- replaced obj /usr/include/cppunit/config/SourcePrefix.h
--- replaced obj /usr/include/cppunit/config/SelectDllLoader.h
--- replaced obj /usr/include/cppunit/config/CppUnitApi.h
--- replaced obj /usr/include/cppunit/config-auto.h
--- replaced dir /usr/include/cppunit/config
--- replaced obj /usr/include/cppunit/XmlOutputterHook.h
--- replaced obj /usr/include/cppunit/XmlOutputter.h
--- replaced obj /usr/include/cppunit/TextTestRunner.h
--- replaced obj /usr/include/cppunit/TextTestResult.h
--- replaced obj /usr/include/cppunit/TextTestProgressListener.h
--- replaced obj /usr/include/cppunit/TextOutputter.h
--- replaced obj /usr/include/cppunit/TestSuite.h
--- replaced obj /usr/include/cppunit/TestSuccessListener.h
--- replaced obj /usr/include/cppunit/TestRunner.h
--- replaced obj /usr/include/cppunit/TestResultCollector.h
--- replaced obj /usr/include/cppunit/TestResult.h
--- replaced obj /usr/include/cppunit/TestPath.h
--- replaced obj /usr/include/cppunit/TestListener.h
--- replaced obj /usr/include/cppunit/TestLeaf.h
--- replaced obj /usr/include/cppunit/TestFixture.h
--- replaced obj /usr/include/cppunit/TestFailure.h
--- replaced obj /usr/include/cppunit/TestComposite.h
--- replaced obj /usr/include/cppunit/TestCase.h
--- replaced obj /usr/include/cppunit/TestCaller.h
--- replaced obj /usr/include/cppunit/TestAssert.h
--- replaced obj /usr/include/cppunit/Test.h
--- replaced obj /usr/include/cppunit/SynchronizedObject.h
--- replaced obj /usr/include/cppunit/SourceLine.h
--- replaced obj /usr/include/cppunit/Protector.h
--- replaced obj /usr/include/cppunit/Portability.h
--- replaced obj /usr/include/cppunit/Outputter.h
--- replaced obj /usr/include/cppunit/Message.h
--- replaced obj /usr/include/cppunit/Exception.h
--- replaced obj /usr/include/cppunit/CompilerOutputter.h
--- replaced obj /usr/include/cppunit/BriefTestProgressListener.h
--- replaced obj /usr/include/cppunit/Asserter.h
--- replaced obj /usr/include/cppunit/AdditionalMessage.h
--- replaced dir /usr/include/cppunit
--- replaced dir /usr/include
--- replaced obj /usr/bin/DllPlugInTester
--- replaced dir /usr/bin
--- replaced dir /usr
<<<          dir /usr/share/cppunit/examples/simple/.deps
<<<          dir /usr/share/cppunit/examples/simple
<<<          dir /usr/share/cppunit/examples/money/.deps
<<<          dir /usr/share/cppunit/examples/money
<<<          dir /usr/share/cppunit/examples/hierarchy/.deps
<<<          dir /usr/share/cppunit/examples/hierarchy
<<<          dir /usr/share/cppunit/examples/cppunittest/.deps
<<<          dir /usr/share/cppunit/examples/cppunittest
<<<          dir /usr/share/cppunit/examples/DumperPlugIn
<<<          dir /usr/share/cppunit/examples/ClockerPlugIn
<<<          dir /usr/share/cppunit/examples
<<<          dir /usr/share/cppunit
--- !empty   dir /usr/share
>>> Regenerating /etc/ld.so.cache...
