No package files given... Grabbing a set.
--- !found   obj /usr/lib64/perl5/vendor_perl/5.30.3/x86_64-linux-thread-multi/auto/Test/Needs/.packlist
--- !found   dir /usr/lib64/perl5/vendor_perl/5.30.3/x86_64-linux-thread-multi/auto/Test/Needs
--- !found   obj /usr/lib64/perl5/vendor_perl/5.30.3/Test/Needs.pm
--- !empty   dir /usr/lib64/perl5/vendor_perl/5.30.3/x86_64-linux-thread-multi/auto/Test
--- !empty   dir /usr/lib64/perl5/vendor_perl/5.30.3/x86_64-linux-thread-multi/auto
--- !empty   dir /usr/lib64/perl5/vendor_perl/5.30.3/x86_64-linux-thread-multi
--- !empty   dir /usr/lib64/perl5/vendor_perl/5.30.3/Test
--- !empty   dir /usr/lib64/perl5/vendor_perl/5.30.3
--- !empty   dir /usr/lib64/perl5/vendor_perl
--- !empty   dir /usr/lib64/perl5
--- !empty   dir /usr/lib64
--- !empty   dir /usr
