No package files given... Grabbing a set.
<<<          obj /usr/lib64/pkgconfig/libutf8proc.pc
<<<          obj /usr/lib64/libutf8proc.so.2.3.2
<<<          sym /usr/lib64/libutf8proc.so.2
<<<          sym /usr/lib64/libutf8proc.so
<<<          obj /usr/include/utf8proc.h
--- !empty   dir /usr/lib64/pkgconfig
--- !empty   dir /usr/lib64
--- !empty   dir /usr/include
--- !empty   dir /usr
>>> Regenerating /etc/ld.so.cache...
