 * Package:    dev-perl/Devel-Caller-2.60.0
 * Repository: gentoo
 * Maintainer: perl@gentoo.org
 * USE:        abi_x86_64 amd64 elibc_glibc kernel_linux userland_GNU
 * FEATURES:   network-sandbox preserve-libs sandbox userpriv usersandbox
 * FEATURES='assume-digests binpkg-docompress binpkg-dostrip binpkg-logs buildpkg cgroup compress-index config-protect-if-modified distlocks ebuild-locks fixlafiles ipc-sandbox merge-sync multilib-strict network-sandbox news nodoc parallel-fetch pid-sandbox preserve-libs qa-unresolved-soname-deps sandbox sfperms strict strict-keepdir unknown-features-warn unmerge-logs unmerge-orphans userfetch userpriv usersandbox usersync xattr'
 * CFLAGS='-march=znver2 -O2 -pipe -fno-stack-protector -fno-stack-clash-protection -fstack-check=no -fno-stack-check -Wl,-O1 -Wl,--as-needed'
 * CXXFLAGS='-march=znver2 -O2 -pipe -fno-stack-protector -fno-stack-clash-protection -fstack-check=no -fno-stack-check -Wl,-O1 -Wl,--as-needed'
 * FFLAGS='-march=znver2 -O2 -pipe -fno-stack-protector -fno-stack-clash-protection -fstack-check=no -fno-stack-check -Wl,-O1 -Wl,--as-needed'
 * FCFLAGS='-march=znver2 -O2 -pipe -fno-stack-protector -fno-stack-clash-protection -fstack-check=no -fno-stack-check -Wl,-O1 -Wl,--as-needed'
 * F77FLAGS='-march=znver2 -O2 -pipe -fno-stack-protector -fno-stack-clash-protection -fstack-check=no -fno-stack-check -Wl,-O1 -Wl,--as-needed'
 * LDFLAGS='-Wl,-O1 -Wl,--as-needed'
 * MAKEOPTS='-j12 -l12'
 * gcc (Gentoo 10.1.0-r1 p2) 10.1.0
 * g++ (Gentoo 10.1.0-r1 p2) 10.1.0
 * GNU gold (Gentoo 2.34 p4 2.34.0) 1.16
 * Linux rescue 5.4.36 #1 SMP Thu Apr 30 04:38:28 UTC 2020 x86_64 AMD Ryzen 5 3600 6-Core Processor AuthenticAMD GNU/Linux
dev-perl/Devel-Caller: 7 seconds average for 16 merges
2020-05-21T06:50:41 >>> dev-perl/Devel-Caller: 4 seconds
2020-05-23T14:24:01 >>> dev-perl/Devel-Caller: 10 seconds
2020-05-24T05:17:44 >>> dev-perl/Devel-Caller: 5 seconds
2020-05-24T16:40:33 >>> dev-perl/Devel-Caller: 5 seconds
2020-05-25T00:40:03 >>> dev-perl/Devel-Caller: 10 seconds
2020-05-25T23:06:51 >>> dev-perl/Devel-Caller: 10 seconds
2020-05-26T14:22:37 >>> dev-perl/Devel-Caller: 7 seconds
2020-05-27T01:59:39 >>> dev-perl/Devel-Caller: 6 seconds
2020-05-27T04:26:32 >>> dev-perl/Devel-Caller: 11 seconds
2020-05-29T02:22:43 >>> dev-perl/Devel-Caller: 9 seconds
2020-05-30T15:07:36 >>> dev-perl/Devel-Caller: 11 seconds
2020-06-01T04:47:42 >>> dev-perl/Devel-Caller: 12 seconds
2020-06-03T13:16:19 >>> dev-perl/Devel-Caller: 12 seconds
2020-06-12T01:52:20 >>> dev-perl/Devel-Caller: 5 seconds
2020-06-13T20:30:42 >>> dev-perl/Devel-Caller: 4 seconds
2020-06-15T14:08:37 >>> dev-perl/Devel-Caller: 5 seconds
]0;emerge 15:54:43 495|895 Devel-Caller 00:05 (root@rescue)>>> Unpacking source...
>>> Unpacking Devel-Caller-2.06.tar.gz to /tmp/portage/dev-perl/Devel-Caller-2.60.0/work
>>> Source unpacked in /tmp/portage/dev-perl/Devel-Caller-2.60.0/work
>>> Preparing source in /tmp/portage/dev-perl/Devel-Caller-2.60.0/work/Devel-Caller-2.06 ...
>>> Source prepared.
>>> Configuring source in /tmp/portage/dev-perl/Devel-Caller-2.60.0/work/Devel-Caller-2.06 ...
 * Using ExtUtils::MakeMaker
 * perl Makefile.PL PREFIX=/usr INSTALLDIRS=vendor INSTALLMAN3DIR=none DESTDIR=/tmp/portage/dev-perl/Devel-Caller-2.60.0/image/
Checking if your kit is complete...
Looks good
Generating a Unix-style Makefile
Writing Makefile for Devel::Caller
Writing MYMETA.yml and MYMETA.json
>>> Source configured.
>>> Compiling source in /tmp/portage/dev-perl/Devel-Caller-2.60.0/work/Devel-Caller-2.06 ...
 * emake OTHERLDFLAGS=-Wl,-O1 -Wl,--as-needed
make -j12 -l12 'OTHERLDFLAGS=-Wl,-O1 -Wl,--as-needed' 
Running Mkbootstrap for Caller ()
"/usr/bin/perl" "/usr/lib64/perl5/5.30.3/ExtUtils/xsubpp"  -typemap '/usr/lib64/perl5/5.30.3/ExtUtils/typemap'  Caller.xs > Caller.xsc
chmod 644 "Caller.bs"
"/usr/bin/perl" -MExtUtils::Command::MM -e 'cp_nonempty' -- Caller.bs blib/arch/auto/Devel/Caller/Caller.bs 644
cp lib/Devel/Caller.pm blib/lib/Devel/Caller.pm
Please specify prototyping behavior for Caller.xs (see perlxs manual)
mv Caller.xsc Caller.c
x86_64-pc-linux-gnu-gcc -c   -D_REENTRANT -D_GNU_SOURCE -fwrapv -fno-strict-aliasing -pipe -D_LARGEFILE_SOURCE -D_FILE_OFFSET_BITS=64 -march=znver2 -O2 -pipe -fno-stack-protector -fno-stack-clash-protection -fstack-check=no -fno-stack-check -Wl,-O1 -Wl,--as-needed   -DVERSION=\"2.06\" -DXS_VERSION=\"2.06\" -fPIC "-I/usr/lib64/perl5/5.30.3/x86_64-linux-thread-multi/CORE"   Caller.c
rm -f blib/arch/auto/Devel/Caller/Caller.so
x86_64-pc-linux-gnu-gcc  -shared -march=znver2 -O2 -pipe -fno-stack-protector -fno-stack-clash-protection -fstack-check=no -fno-stack-check -Wl,-O1 -Wl,--as-needed -Wl,-O1 -Wl,--as-needed  Caller.o -Wl,-O1 -Wl,--as-needed -o blib/arch/auto/Devel/Caller/Caller.so  \
      \
  
chmod 755 blib/arch/auto/Devel/Caller/Caller.so
>>> Source compiled.
>>> Test phase [not enabled]: dev-perl/Devel-Caller-2.60.0

>>> Install dev-perl/Devel-Caller-2.60.0 into /tmp/portage/dev-perl/Devel-Caller-2.60.0/image/
make -j12 -l12 pure_install 
"/usr/bin/perl" -MExtUtils::Command::MM -e 'cp_nonempty' -- Caller.bs blib/arch/auto/Devel/Caller/Caller.bs 644
Files found in blib/arch: installing files in blib/lib into architecture dependent library tree
Installing /tmp/portage/dev-perl/Devel-Caller-2.60.0/image/usr/lib64/perl5/vendor_perl/5.30.3/x86_64-linux-thread-multi/auto/Devel/Caller/Caller.so
Installing /tmp/portage/dev-perl/Devel-Caller-2.60.0/image/usr/lib64/perl5/vendor_perl/5.30.3/x86_64-linux-thread-multi/Devel/Caller.pm
>>> Completed installing dev-perl/Devel-Caller-2.60.0 into /tmp/portage/dev-perl/Devel-Caller-2.60.0/image/

 * Final size of build directory: 192 KiB
 * Final size of installed tree:   76 KiB

Parallel BZIP2 v1.1.13 [Dec 18, 2015]
By: Jeff Gilchrist [http://compression.ca]
Major contributions: Yavor Nikolov [http://javornikolov.wordpress.com]
Uses libbzip2 by Julian Seward

         # CPUs: 11
   Load Average: 1.47
 BWT Block Size: 200 KB
File Block Size: 900 KB
 Maximum Memory: 1024 MB
-------------------------------------------
         File #: 1 of 1
     Input Name: compressme
    Output Name: compressme.bz2

     Input Size: 3895 bytes
Compressing data (no threads)...
Completed: 100%                 Output Size: 918 bytes
-------------------------------------------

     Wall Clock: 0.001118 seconds
Parallel BZIP2 v1.1.13 [Dec 18, 2015]
By: Jeff Gilchrist [http://compression.ca]
Major contributions: Yavor Nikolov [http://javornikolov.wordpress.com]
Uses libbzip2 by Julian Seward

         # CPUs: 11
   Load Average: 1.47
 BWT Block Size: 200 KB
File Block Size: 900 KB
 Maximum Memory: 1024 MB
-------------------------------------------
         File #: 1 of 1
     Input Name: /tmp/portage/dev-perl/Devel-Caller-2.60.0/image/usr/share/doc/Devel-Caller-2.60.0/Changes
    Output Name: /tmp/portage/dev-perl/Devel-Caller-2.60.0/image/usr/share/doc/Devel-Caller-2.60.0/Changes.bz2

     Input Size: 2174 bytes
Compressing data (no threads)...
Completed: 100%                 Output Size: 1324 bytes
-------------------------------------------

     Wall Clock: 0.001331 seconds
strip: x86_64-pc-linux-gnu-strip --strip-unneeded -N __gentoo_check_ldflags__ -R .comment -R .GCC.command.line -R .note.gnu.gold-version
   /usr/lib64/perl5/vendor_perl/5.30.3/x86_64-linux-thread-multi/auto/Devel/Caller/Caller.so
./
./usr/
./usr/share/
./usr/share/doc/
./usr/share/doc/Devel-Caller-2.60.0/
./usr/share/doc/Devel-Caller-2.60.0/Changes
./usr/share/doc/Devel-Caller-2.60.0/Changes.bz2
./usr/lib64/
./usr/lib64/perl5/
./usr/lib64/perl5/vendor_perl/
./usr/lib64/perl5/vendor_perl/5.30.3/
./usr/lib64/perl5/vendor_perl/5.30.3/x86_64-linux-thread-multi/
./usr/lib64/perl5/vendor_perl/5.30.3/x86_64-linux-thread-multi/auto/
./usr/lib64/perl5/vendor_perl/5.30.3/x86_64-linux-thread-multi/auto/Devel/
./usr/lib64/perl5/vendor_perl/5.30.3/x86_64-linux-thread-multi/auto/Devel/Caller/
./usr/lib64/perl5/vendor_perl/5.30.3/x86_64-linux-thread-multi/auto/Devel/Caller/Caller.so
./usr/lib64/perl5/vendor_perl/5.30.3/x86_64-linux-thread-multi/Devel/
./usr/lib64/perl5/vendor_perl/5.30.3/x86_64-linux-thread-multi/Devel/Caller.pm
>>> Done.
 * checking 2 files for package collisions
>>> Merging dev-perl/Devel-Caller-2.60.0 to /
 * removing unneeded *.la files
--- /usr/
--- /usr/lib64/
--- /usr/lib64/perl5/
--- /usr/lib64/perl5/vendor_perl/
--- /usr/lib64/perl5/vendor_perl/5.30.3/
--- /usr/lib64/perl5/vendor_perl/5.30.3/x86_64-linux-thread-multi/
--- /usr/lib64/perl5/vendor_perl/5.30.3/x86_64-linux-thread-multi/Devel/
>>> /usr/lib64/perl5/vendor_perl/5.30.3/x86_64-linux-thread-multi/Devel/Caller.pm
--- /usr/lib64/perl5/vendor_perl/5.30.3/x86_64-linux-thread-multi/auto/
--- /usr/lib64/perl5/vendor_perl/5.30.3/x86_64-linux-thread-multi/auto/Devel/
--- /usr/lib64/perl5/vendor_perl/5.30.3/x86_64-linux-thread-multi/auto/Devel/Caller/
>>> /usr/lib64/perl5/vendor_perl/5.30.3/x86_64-linux-thread-multi/auto/Devel/Caller/Caller.so
>>> Safely unmerging already-installed instance...
!!! File Not Found: '/etc/env.d/99lcdfilter'
>>> Original instance of package unmerged safely.
>>> dev-perl/Devel-Caller-2.60.0 merged.
!!! File Not Found: '/etc/env.d/99lcdfilter'
