 * Package:    dev-python/wcwidth-0.1.9
 * Repository: gentoo
 * Maintainer: python@gentoo.org
 * USE:        abi_x86_64 amd64 elibc_glibc kernel_linux python_targets_pypy3 python_targets_python2_7 python_targets_python3_7 python_targets_python3_8 userland_GNU
 * FEATURES:   ccache network-sandbox preserve-libs sandbox userpriv usersandbox
 * FEATURES='userpriv binpkg-logs binpkg-multi-instance compress-index merge-sync xattr collision-protect usersync ccache preserve-libs userfetch multilib-strict fixlafiles strict sandbox network-sandbox nodoc sfperms assume-digests strict-keepdir usersandbox ipc-sandbox binpkg-docompress buildpkg parallel-fetch qa-unresolved-soname-deps unmerge-orphans cgroup distlocks binpkg-dostrip news unknown-features-warn pid-sandbox config-protect-if-modified downgrade-backup unmerge-backup parallel-install protect-owned unmerge-logs'
 * CFLAGS='-march=native -O3 -fgraphite-identity -floop-nest-optimize -fdevirtualize-at-ltrans -fipa-pta -fno-semantic-interposition -flto=12 -fno-plt -fno-math-errno -fno-trapping-math -fuse-linker-plugin -pipe -g0 -Wl,-O1 -Wl,--as-needed -Wl,--hash-style=gnu,-z,norelro,--as-needed'
 * CXXFLAGS='-march=native -O3 -fgraphite-identity -floop-nest-optimize -fdevirtualize-at-ltrans -fipa-pta -fno-semantic-interposition -flto=12 -fno-plt -fno-math-errno -fno-trapping-math -fuse-linker-plugin -pipe -g0 -Wl,-O1 -Wl,--as-needed -Wl,--hash-style=gnu,-z,norelro,--as-needed'
 * FFLAGS='-march=native -O3 -fgraphite-identity -floop-nest-optimize -fdevirtualize-at-ltrans -fipa-pta -fno-semantic-interposition -flto=12 -fno-plt -fno-math-errno -fno-trapping-math -fuse-linker-plugin -pipe -g0 -Wl,-O1 -Wl,--as-needed -Wl,--hash-style=gnu,-z,norelro,--as-needed'
 * FCFLAGS='-march=native -O3 -fgraphite-identity -floop-nest-optimize -fdevirtualize-at-ltrans -fipa-pta -fno-semantic-interposition -flto=12 -fno-plt -fno-math-errno -fno-trapping-math -fuse-linker-plugin -pipe -g0 -Wl,-O1 -Wl,--as-needed -Wl,--hash-style=gnu,-z,norelro,--as-needed'
 * F77FLAGS='-march=native -O3 -fgraphite-identity -floop-nest-optimize -fdevirtualize-at-ltrans -fipa-pta -fno-semantic-interposition -flto=12 -fno-plt -fno-math-errno -fno-trapping-math -fuse-linker-plugin -pipe -g0 -Wl,-O1 -Wl,--as-needed -Wl,--hash-style=gnu,-z,norelro,--as-needed'
 * LDFLAGS='-Wl,-O1 -Wl,--as-needed -Wl,--hash-style=gnu,-z,norelro,--as-needed -march=native -O3 -fgraphite-identity -floop-nest-optimize -fdevirtualize-at-ltrans -fipa-pta -fno-semantic-interposition -flto=12 -fno-plt -fno-math-errno -fno-trapping-math -fuse-linker-plugin -pipe -g0'
 * MAKEOPTS='-j12 -l12'
 * gcc (Gentoo 11.0.0_pre9999 p1, commit 584d52b088f9fcf78704b504c3f1f07e17c1cded) 11.0.0 20200523 (experimental)
 * g++ (Gentoo 11.0.0_pre9999 p1, commit 584d52b088f9fcf78704b504c3f1f07e17c1cded) 11.0.0 20200523 (experimental)
 * GNU ld (Gentoo 2.34 p4) 2.34.0
 * Linux ryzen.gnum.org 5.4.36 #1 SMP Thu Apr 30 04:38:28 UTC 2020 x86_64 AMD Ryzen 5 3600 6-Core Processor AuthenticAMD GNU/Linux
dev-python/wcwidth: 16 seconds average for 2 merges
2020-05-20T08:19:18 >>> dev-python/wcwidth: 21 seconds
2020-05-24T19:54:46 >>> dev-python/wcwidth: 11 seconds
]0;emerge 03:50:59 9|45 wcwidth 00:16 (root@ryzen.gnum.org)kemerge 03:50:59 9|45 wcwidth 00:16 (root@ryzen.gnum.org)\>>> Unpacking source...
>>> Unpacking wcwidth-0.1.9.tar.gz to /tmp/portage/dev-python/wcwidth-0.1.9/work
>>> Source unpacked in /tmp/portage/dev-python/wcwidth-0.1.9/work
>>> Preparing source in /tmp/portage/dev-python/wcwidth-0.1.9/work/wcwidth-0.1.9 ...
>>> Source prepared.
>>> Configuring source in /tmp/portage/dev-python/wcwidth-0.1.9/work/wcwidth-0.1.9 ...
>>> Source configured.
>>> Compiling source in /tmp/portage/dev-python/wcwidth-0.1.9/work/wcwidth-0.1.9 ...
 * pypy3: running distutils-r1_run_phase distutils-r1_python_compile
pypy3 setup.py build -j 12
running build
running build_py
creating /tmp/portage/dev-python/wcwidth-0.1.9/work/wcwidth-0.1.9-pypy3/lib/wcwidth
copying wcwidth/__init__.py -> /tmp/portage/dev-python/wcwidth-0.1.9/work/wcwidth-0.1.9-pypy3/lib/wcwidth
copying wcwidth/wcwidth.py -> /tmp/portage/dev-python/wcwidth-0.1.9/work/wcwidth-0.1.9-pypy3/lib/wcwidth
copying wcwidth/table_zero.py -> /tmp/portage/dev-python/wcwidth-0.1.9/work/wcwidth-0.1.9-pypy3/lib/wcwidth
copying wcwidth/table_wide.py -> /tmp/portage/dev-python/wcwidth-0.1.9/work/wcwidth-0.1.9-pypy3/lib/wcwidth
creating /tmp/portage/dev-python/wcwidth-0.1.9/work/wcwidth-0.1.9-pypy3/lib/wcwidth/tests
copying wcwidth/tests/__init__.py -> /tmp/portage/dev-python/wcwidth-0.1.9/work/wcwidth-0.1.9-pypy3/lib/wcwidth/tests
copying wcwidth/tests/test_core.py -> /tmp/portage/dev-python/wcwidth-0.1.9/work/wcwidth-0.1.9-pypy3/lib/wcwidth/tests
running egg_info
writing wcwidth.egg-info/PKG-INFO
writing dependency_links to wcwidth.egg-info/dependency_links.txt
writing top-level names to wcwidth.egg-info/top_level.txt
reading manifest file 'wcwidth.egg-info/SOURCES.txt'
reading manifest template 'MANIFEST.in'
writing manifest file 'wcwidth.egg-info/SOURCES.txt'
warning: build_py: byte-compiling is disabled, skipping.

 * python2_7: running distutils-r1_run_phase distutils-r1_python_compile
python2.7 setup.py build
running build
running build_py
creating /tmp/portage/dev-python/wcwidth-0.1.9/work/wcwidth-0.1.9-python2_7/lib/wcwidth
copying wcwidth/__init__.py -> /tmp/portage/dev-python/wcwidth-0.1.9/work/wcwidth-0.1.9-python2_7/lib/wcwidth
copying wcwidth/wcwidth.py -> /tmp/portage/dev-python/wcwidth-0.1.9/work/wcwidth-0.1.9-python2_7/lib/wcwidth
copying wcwidth/table_zero.py -> /tmp/portage/dev-python/wcwidth-0.1.9/work/wcwidth-0.1.9-python2_7/lib/wcwidth
copying wcwidth/table_wide.py -> /tmp/portage/dev-python/wcwidth-0.1.9/work/wcwidth-0.1.9-python2_7/lib/wcwidth
creating /tmp/portage/dev-python/wcwidth-0.1.9/work/wcwidth-0.1.9-python2_7/lib/wcwidth/tests
copying wcwidth/tests/__init__.py -> /tmp/portage/dev-python/wcwidth-0.1.9/work/wcwidth-0.1.9-python2_7/lib/wcwidth/tests
copying wcwidth/tests/test_core.py -> /tmp/portage/dev-python/wcwidth-0.1.9/work/wcwidth-0.1.9-python2_7/lib/wcwidth/tests
running egg_info
writing wcwidth.egg-info/PKG-INFO
writing top-level names to wcwidth.egg-info/top_level.txt
writing dependency_links to wcwidth.egg-info/dependency_links.txt
reading manifest file 'wcwidth.egg-info/SOURCES.txt'
reading manifest template 'MANIFEST.in'
writing manifest file 'wcwidth.egg-info/SOURCES.txt'
warning: build_py: byte-compiling is disabled, skipping.

 * python3_7: running distutils-r1_run_phase distutils-r1_python_compile
python3.7 setup.py build -j 12
running build
running build_py
creating /tmp/portage/dev-python/wcwidth-0.1.9/work/wcwidth-0.1.9-python3_7/lib/wcwidth
copying wcwidth/__init__.py -> /tmp/portage/dev-python/wcwidth-0.1.9/work/wcwidth-0.1.9-python3_7/lib/wcwidth
copying wcwidth/wcwidth.py -> /tmp/portage/dev-python/wcwidth-0.1.9/work/wcwidth-0.1.9-python3_7/lib/wcwidth
copying wcwidth/table_zero.py -> /tmp/portage/dev-python/wcwidth-0.1.9/work/wcwidth-0.1.9-python3_7/lib/wcwidth
copying wcwidth/table_wide.py -> /tmp/portage/dev-python/wcwidth-0.1.9/work/wcwidth-0.1.9-python3_7/lib/wcwidth
creating /tmp/portage/dev-python/wcwidth-0.1.9/work/wcwidth-0.1.9-python3_7/lib/wcwidth/tests
copying wcwidth/tests/__init__.py -> /tmp/portage/dev-python/wcwidth-0.1.9/work/wcwidth-0.1.9-python3_7/lib/wcwidth/tests
copying wcwidth/tests/test_core.py -> /tmp/portage/dev-python/wcwidth-0.1.9/work/wcwidth-0.1.9-python3_7/lib/wcwidth/tests
running egg_info
writing wcwidth.egg-info/PKG-INFO
writing dependency_links to wcwidth.egg-info/dependency_links.txt
writing top-level names to wcwidth.egg-info/top_level.txt
reading manifest file 'wcwidth.egg-info/SOURCES.txt'
reading manifest template 'MANIFEST.in'
writing manifest file 'wcwidth.egg-info/SOURCES.txt'
warning: build_py: byte-compiling is disabled, skipping.

 * python3_8: running distutils-r1_run_phase distutils-r1_python_compile
python3.8 setup.py build -j 12
running build
running build_py
creating /tmp/portage/dev-python/wcwidth-0.1.9/work/wcwidth-0.1.9-python3_8/lib/wcwidth
copying wcwidth/__init__.py -> /tmp/portage/dev-python/wcwidth-0.1.9/work/wcwidth-0.1.9-python3_8/lib/wcwidth
copying wcwidth/wcwidth.py -> /tmp/portage/dev-python/wcwidth-0.1.9/work/wcwidth-0.1.9-python3_8/lib/wcwidth
copying wcwidth/table_zero.py -> /tmp/portage/dev-python/wcwidth-0.1.9/work/wcwidth-0.1.9-python3_8/lib/wcwidth
copying wcwidth/table_wide.py -> /tmp/portage/dev-python/wcwidth-0.1.9/work/wcwidth-0.1.9-python3_8/lib/wcwidth
creating /tmp/portage/dev-python/wcwidth-0.1.9/work/wcwidth-0.1.9-python3_8/lib/wcwidth/tests
copying wcwidth/tests/__init__.py -> /tmp/portage/dev-python/wcwidth-0.1.9/work/wcwidth-0.1.9-python3_8/lib/wcwidth/tests
copying wcwidth/tests/test_core.py -> /tmp/portage/dev-python/wcwidth-0.1.9/work/wcwidth-0.1.9-python3_8/lib/wcwidth/tests
running egg_info
writing wcwidth.egg-info/PKG-INFO
writing dependency_links to wcwidth.egg-info/dependency_links.txt
writing top-level names to wcwidth.egg-info/top_level.txt
reading manifest file 'wcwidth.egg-info/SOURCES.txt'
reading manifest template 'MANIFEST.in'
writing manifest file 'wcwidth.egg-info/SOURCES.txt'
warning: build_py: byte-compiling is disabled, skipping.

>>> Source compiled.
 * Skipping make test/check due to ebuild restriction.
>>> Test phase [disabled because of RESTRICT=test]: dev-python/wcwidth-0.1.9

>>> Install dev-python/wcwidth-0.1.9 into /tmp/portage/dev-python/wcwidth-0.1.9/image
 * pypy3: running distutils-r1_run_phase distutils-r1_python_install
pypy3 setup.py install --skip-build --root=/tmp/portage/dev-python/wcwidth-0.1.9/image/_pypy3
running install
running install_lib
creating /tmp/portage/dev-python/wcwidth-0.1.9/image/_pypy3
creating /tmp/portage/dev-python/wcwidth-0.1.9/image/_pypy3/usr
creating /tmp/portage/dev-python/wcwidth-0.1.9/image/_pypy3/usr/lib
creating /tmp/portage/dev-python/wcwidth-0.1.9/image/_pypy3/usr/lib/pypy3.6
creating /tmp/portage/dev-python/wcwidth-0.1.9/image/_pypy3/usr/lib/pypy3.6/site-packages
creating /tmp/portage/dev-python/wcwidth-0.1.9/image/_pypy3/usr/lib/pypy3.6/site-packages/wcwidth
copying /tmp/portage/dev-python/wcwidth-0.1.9/work/wcwidth-0.1.9-pypy3/lib/wcwidth/__init__.py -> /tmp/portage/dev-python/wcwidth-0.1.9/image/_pypy3/usr/lib/pypy3.6/site-packages/wcwidth
copying /tmp/portage/dev-python/wcwidth-0.1.9/work/wcwidth-0.1.9-pypy3/lib/wcwidth/wcwidth.py -> /tmp/portage/dev-python/wcwidth-0.1.9/image/_pypy3/usr/lib/pypy3.6/site-packages/wcwidth
creating /tmp/portage/dev-python/wcwidth-0.1.9/image/_pypy3/usr/lib/pypy3.6/site-packages/wcwidth/tests
copying /tmp/portage/dev-python/wcwidth-0.1.9/work/wcwidth-0.1.9-pypy3/lib/wcwidth/tests/__init__.py -> /tmp/portage/dev-python/wcwidth-0.1.9/image/_pypy3/usr/lib/pypy3.6/site-packages/wcwidth/tests
copying /tmp/portage/dev-python/wcwidth-0.1.9/work/wcwidth-0.1.9-pypy3/lib/wcwidth/tests/test_core.py -> /tmp/portage/dev-python/wcwidth-0.1.9/image/_pypy3/usr/lib/pypy3.6/site-packages/wcwidth/tests
copying /tmp/portage/dev-python/wcwidth-0.1.9/work/wcwidth-0.1.9-pypy3/lib/wcwidth/table_zero.py -> /tmp/portage/dev-python/wcwidth-0.1.9/image/_pypy3/usr/lib/pypy3.6/site-packages/wcwidth
copying /tmp/portage/dev-python/wcwidth-0.1.9/work/wcwidth-0.1.9-pypy3/lib/wcwidth/table_wide.py -> /tmp/portage/dev-python/wcwidth-0.1.9/image/_pypy3/usr/lib/pypy3.6/site-packages/wcwidth
byte-compiling /tmp/portage/dev-python/wcwidth-0.1.9/image/_pypy3/usr/lib/pypy3.6/site-packages/wcwidth/__init__.py to __init__.pypy36.pyc
byte-compiling /tmp/portage/dev-python/wcwidth-0.1.9/image/_pypy3/usr/lib/pypy3.6/site-packages/wcwidth/wcwidth.py to wcwidth.pypy36.pyc
byte-compiling /tmp/portage/dev-python/wcwidth-0.1.9/image/_pypy3/usr/lib/pypy3.6/site-packages/wcwidth/tests/__init__.py to __init__.pypy36.pyc
byte-compiling /tmp/portage/dev-python/wcwidth-0.1.9/image/_pypy3/usr/lib/pypy3.6/site-packages/wcwidth/tests/test_core.py to test_core.pypy36.pyc
byte-compiling /tmp/portage/dev-python/wcwidth-0.1.9/image/_pypy3/usr/lib/pypy3.6/site-packages/wcwidth/table_zero.py to table_zero.pypy36.pyc
byte-compiling /tmp/portage/dev-python/wcwidth-0.1.9/image/_pypy3/usr/lib/pypy3.6/site-packages/wcwidth/table_wide.py to table_wide.pypy36.pyc
writing byte-compilation script '/tmp/portage/dev-python/wcwidth-0.1.9/temp/tmpp1320yte.py'
/usr/bin/pypy3 /tmp/portage/dev-python/wcwidth-0.1.9/temp/tmpp1320yte.py
removing /tmp/portage/dev-python/wcwidth-0.1.9/temp/tmpp1320yte.py
writing byte-compilation script '/tmp/portage/dev-python/wcwidth-0.1.9/temp/tmpk_9j75un.py'
/usr/bin/pypy3 /tmp/portage/dev-python/wcwidth-0.1.9/temp/tmpk_9j75un.py
removing /tmp/portage/dev-python/wcwidth-0.1.9/temp/tmpk_9j75un.py
running install_egg_info
running egg_info
writing wcwidth.egg-info/PKG-INFO
writing dependency_links to wcwidth.egg-info/dependency_links.txt
writing top-level names to wcwidth.egg-info/top_level.txt
reading manifest file 'wcwidth.egg-info/SOURCES.txt'
reading manifest template 'MANIFEST.in'
writing manifest file 'wcwidth.egg-info/SOURCES.txt'
Copying wcwidth.egg-info to /tmp/portage/dev-python/wcwidth-0.1.9/image/_pypy3/usr/lib/pypy3.6/site-packages/wcwidth-0.1.9-py3.6.egg-info
running install_scripts
 * python2_7: running distutils-r1_run_phase distutils-r1_python_install
python2.7 setup.py install --skip-build --root=/tmp/portage/dev-python/wcwidth-0.1.9/image/_python2.7
running install
running install_lib
creating /tmp/portage/dev-python/wcwidth-0.1.9/image/_python2.7
creating /tmp/portage/dev-python/wcwidth-0.1.9/image/_python2.7/usr
creating /tmp/portage/dev-python/wcwidth-0.1.9/image/_python2.7/usr/lib64
creating /tmp/portage/dev-python/wcwidth-0.1.9/image/_python2.7/usr/lib64/python2.7
creating /tmp/portage/dev-python/wcwidth-0.1.9/image/_python2.7/usr/lib64/python2.7/site-packages
creating /tmp/portage/dev-python/wcwidth-0.1.9/image/_python2.7/usr/lib64/python2.7/site-packages/wcwidth
copying /tmp/portage/dev-python/wcwidth-0.1.9/work/wcwidth-0.1.9-python2_7/lib/wcwidth/__init__.py -> /tmp/portage/dev-python/wcwidth-0.1.9/image/_python2.7/usr/lib64/python2.7/site-packages/wcwidth
copying /tmp/portage/dev-python/wcwidth-0.1.9/work/wcwidth-0.1.9-python2_7/lib/wcwidth/wcwidth.py -> /tmp/portage/dev-python/wcwidth-0.1.9/image/_python2.7/usr/lib64/python2.7/site-packages/wcwidth
creating /tmp/portage/dev-python/wcwidth-0.1.9/image/_python2.7/usr/lib64/python2.7/site-packages/wcwidth/tests
copying /tmp/portage/dev-python/wcwidth-0.1.9/work/wcwidth-0.1.9-python2_7/lib/wcwidth/tests/__init__.py -> /tmp/portage/dev-python/wcwidth-0.1.9/image/_python2.7/usr/lib64/python2.7/site-packages/wcwidth/tests
copying /tmp/portage/dev-python/wcwidth-0.1.9/work/wcwidth-0.1.9-python2_7/lib/wcwidth/tests/test_core.py -> /tmp/portage/dev-python/wcwidth-0.1.9/image/_python2.7/usr/lib64/python2.7/site-packages/wcwidth/tests
copying /tmp/portage/dev-python/wcwidth-0.1.9/work/wcwidth-0.1.9-python2_7/lib/wcwidth/table_zero.py -> /tmp/portage/dev-python/wcwidth-0.1.9/image/_python2.7/usr/lib64/python2.7/site-packages/wcwidth
copying /tmp/portage/dev-python/wcwidth-0.1.9/work/wcwidth-0.1.9-python2_7/lib/wcwidth/table_wide.py -> /tmp/portage/dev-python/wcwidth-0.1.9/image/_python2.7/usr/lib64/python2.7/site-packages/wcwidth
byte-compiling /tmp/portage/dev-python/wcwidth-0.1.9/image/_python2.7/usr/lib64/python2.7/site-packages/wcwidth/__init__.py to __init__.pyc
byte-compiling /tmp/portage/dev-python/wcwidth-0.1.9/image/_python2.7/usr/lib64/python2.7/site-packages/wcwidth/wcwidth.py to wcwidth.pyc
byte-compiling /tmp/portage/dev-python/wcwidth-0.1.9/image/_python2.7/usr/lib64/python2.7/site-packages/wcwidth/tests/__init__.py to __init__.pyc
byte-compiling /tmp/portage/dev-python/wcwidth-0.1.9/image/_python2.7/usr/lib64/python2.7/site-packages/wcwidth/tests/test_core.py to test_core.pyc
byte-compiling /tmp/portage/dev-python/wcwidth-0.1.9/image/_python2.7/usr/lib64/python2.7/site-packages/wcwidth/table_zero.py to table_zero.pyc
byte-compiling /tmp/portage/dev-python/wcwidth-0.1.9/image/_python2.7/usr/lib64/python2.7/site-packages/wcwidth/table_wide.py to table_wide.pyc
writing byte-compilation script '/tmp/portage/dev-python/wcwidth-0.1.9/temp/tmpvVL6cn.py'
/usr/bin/python2.7 -OO /tmp/portage/dev-python/wcwidth-0.1.9/temp/tmpvVL6cn.py
removing /tmp/portage/dev-python/wcwidth-0.1.9/temp/tmpvVL6cn.py
running install_egg_info
running egg_info
writing wcwidth.egg-info/PKG-INFO
writing top-level names to wcwidth.egg-info/top_level.txt
writing dependency_links to wcwidth.egg-info/dependency_links.txt
reading manifest file 'wcwidth.egg-info/SOURCES.txt'
reading manifest template 'MANIFEST.in'
writing manifest file 'wcwidth.egg-info/SOURCES.txt'
Copying wcwidth.egg-info to /tmp/portage/dev-python/wcwidth-0.1.9/image/_python2.7/usr/lib64/python2.7/site-packages/wcwidth-0.1.9-py2.7.egg-info
running install_scripts
 * python3_7: running distutils-r1_run_phase distutils-r1_python_install
python3.7 setup.py install --skip-build --root=/tmp/portage/dev-python/wcwidth-0.1.9/image/_python3.7
running install
running install_lib
creating /tmp/portage/dev-python/wcwidth-0.1.9/image/_python3.7
creating /tmp/portage/dev-python/wcwidth-0.1.9/image/_python3.7/usr
creating /tmp/portage/dev-python/wcwidth-0.1.9/image/_python3.7/usr/lib
creating /tmp/portage/dev-python/wcwidth-0.1.9/image/_python3.7/usr/lib/python3.7
creating /tmp/portage/dev-python/wcwidth-0.1.9/image/_python3.7/usr/lib/python3.7/site-packages
creating /tmp/portage/dev-python/wcwidth-0.1.9/image/_python3.7/usr/lib/python3.7/site-packages/wcwidth
copying /tmp/portage/dev-python/wcwidth-0.1.9/work/wcwidth-0.1.9-python3_7/lib/wcwidth/__init__.py -> /tmp/portage/dev-python/wcwidth-0.1.9/image/_python3.7/usr/lib/python3.7/site-packages/wcwidth
copying /tmp/portage/dev-python/wcwidth-0.1.9/work/wcwidth-0.1.9-python3_7/lib/wcwidth/wcwidth.py -> /tmp/portage/dev-python/wcwidth-0.1.9/image/_python3.7/usr/lib/python3.7/site-packages/wcwidth
creating /tmp/portage/dev-python/wcwidth-0.1.9/image/_python3.7/usr/lib/python3.7/site-packages/wcwidth/tests
copying /tmp/portage/dev-python/wcwidth-0.1.9/work/wcwidth-0.1.9-python3_7/lib/wcwidth/tests/__init__.py -> /tmp/portage/dev-python/wcwidth-0.1.9/image/_python3.7/usr/lib/python3.7/site-packages/wcwidth/tests
copying /tmp/portage/dev-python/wcwidth-0.1.9/work/wcwidth-0.1.9-python3_7/lib/wcwidth/tests/test_core.py -> /tmp/portage/dev-python/wcwidth-0.1.9/image/_python3.7/usr/lib/python3.7/site-packages/wcwidth/tests
copying /tmp/portage/dev-python/wcwidth-0.1.9/work/wcwidth-0.1.9-python3_7/lib/wcwidth/table_zero.py -> /tmp/portage/dev-python/wcwidth-0.1.9/image/_python3.7/usr/lib/python3.7/site-packages/wcwidth
copying /tmp/portage/dev-python/wcwidth-0.1.9/work/wcwidth-0.1.9-python3_7/lib/wcwidth/table_wide.py -> /tmp/portage/dev-python/wcwidth-0.1.9/image/_python3.7/usr/lib/python3.7/site-packages/wcwidth
byte-compiling /tmp/portage/dev-python/wcwidth-0.1.9/image/_python3.7/usr/lib/python3.7/site-packages/wcwidth/__init__.py to __init__.cpython-37.pyc
byte-compiling /tmp/portage/dev-python/wcwidth-0.1.9/image/_python3.7/usr/lib/python3.7/site-packages/wcwidth/wcwidth.py to wcwidth.cpython-37.pyc
byte-compiling /tmp/portage/dev-python/wcwidth-0.1.9/image/_python3.7/usr/lib/python3.7/site-packages/wcwidth/tests/__init__.py to __init__.cpython-37.pyc
byte-compiling /tmp/portage/dev-python/wcwidth-0.1.9/image/_python3.7/usr/lib/python3.7/site-packages/wcwidth/tests/test_core.py to test_core.cpython-37.pyc
byte-compiling /tmp/portage/dev-python/wcwidth-0.1.9/image/_python3.7/usr/lib/python3.7/site-packages/wcwidth/table_zero.py to table_zero.cpython-37.pyc
byte-compiling /tmp/portage/dev-python/wcwidth-0.1.9/image/_python3.7/usr/lib/python3.7/site-packages/wcwidth/table_wide.py to table_wide.cpython-37.pyc
writing byte-compilation script '/tmp/portage/dev-python/wcwidth-0.1.9/temp/tmpr9b6bc5b.py'
/usr/bin/python3.7 /tmp/portage/dev-python/wcwidth-0.1.9/temp/tmpr9b6bc5b.py
removing /tmp/portage/dev-python/wcwidth-0.1.9/temp/tmpr9b6bc5b.py
writing byte-compilation script '/tmp/portage/dev-python/wcwidth-0.1.9/temp/tmp2t9aw15i.py'
/usr/bin/python3.7 /tmp/portage/dev-python/wcwidth-0.1.9/temp/tmp2t9aw15i.py
removing /tmp/portage/dev-python/wcwidth-0.1.9/temp/tmp2t9aw15i.py
running install_egg_info
running egg_info
writing wcwidth.egg-info/PKG-INFO
writing dependency_links to wcwidth.egg-info/dependency_links.txt
writing top-level names to wcwidth.egg-info/top_level.txt
reading manifest file 'wcwidth.egg-info/SOURCES.txt'
reading manifest template 'MANIFEST.in'
writing manifest file 'wcwidth.egg-info/SOURCES.txt'
Copying wcwidth.egg-info to /tmp/portage/dev-python/wcwidth-0.1.9/image/_python3.7/usr/lib/python3.7/site-packages/wcwidth-0.1.9-py3.7.egg-info
running install_scripts
 * python3_8: running distutils-r1_run_phase distutils-r1_python_install
python3.8 setup.py install --skip-build --root=/tmp/portage/dev-python/wcwidth-0.1.9/image/_python3.8
running install
running install_lib
creating /tmp/portage/dev-python/wcwidth-0.1.9/image/_python3.8
creating /tmp/portage/dev-python/wcwidth-0.1.9/image/_python3.8/usr
creating /tmp/portage/dev-python/wcwidth-0.1.9/image/_python3.8/usr/lib
creating /tmp/portage/dev-python/wcwidth-0.1.9/image/_python3.8/usr/lib/python3.8
creating /tmp/portage/dev-python/wcwidth-0.1.9/image/_python3.8/usr/lib/python3.8/site-packages
creating /tmp/portage/dev-python/wcwidth-0.1.9/image/_python3.8/usr/lib/python3.8/site-packages/wcwidth
copying /tmp/portage/dev-python/wcwidth-0.1.9/work/wcwidth-0.1.9-python3_8/lib/wcwidth/__init__.py -> /tmp/portage/dev-python/wcwidth-0.1.9/image/_python3.8/usr/lib/python3.8/site-packages/wcwidth
copying /tmp/portage/dev-python/wcwidth-0.1.9/work/wcwidth-0.1.9-python3_8/lib/wcwidth/wcwidth.py -> /tmp/portage/dev-python/wcwidth-0.1.9/image/_python3.8/usr/lib/python3.8/site-packages/wcwidth
creating /tmp/portage/dev-python/wcwidth-0.1.9/image/_python3.8/usr/lib/python3.8/site-packages/wcwidth/tests
copying /tmp/portage/dev-python/wcwidth-0.1.9/work/wcwidth-0.1.9-python3_8/lib/wcwidth/tests/__init__.py -> /tmp/portage/dev-python/wcwidth-0.1.9/image/_python3.8/usr/lib/python3.8/site-packages/wcwidth/tests
copying /tmp/portage/dev-python/wcwidth-0.1.9/work/wcwidth-0.1.9-python3_8/lib/wcwidth/tests/test_core.py -> /tmp/portage/dev-python/wcwidth-0.1.9/image/_python3.8/usr/lib/python3.8/site-packages/wcwidth/tests
copying /tmp/portage/dev-python/wcwidth-0.1.9/work/wcwidth-0.1.9-python3_8/lib/wcwidth/table_zero.py -> /tmp/portage/dev-python/wcwidth-0.1.9/image/_python3.8/usr/lib/python3.8/site-packages/wcwidth
copying /tmp/portage/dev-python/wcwidth-0.1.9/work/wcwidth-0.1.9-python3_8/lib/wcwidth/table_wide.py -> /tmp/portage/dev-python/wcwidth-0.1.9/image/_python3.8/usr/lib/python3.8/site-packages/wcwidth
byte-compiling /tmp/portage/dev-python/wcwidth-0.1.9/image/_python3.8/usr/lib/python3.8/site-packages/wcwidth/__init__.py to __init__.cpython-38.pyc
byte-compiling /tmp/portage/dev-python/wcwidth-0.1.9/image/_python3.8/usr/lib/python3.8/site-packages/wcwidth/wcwidth.py to wcwidth.cpython-38.pyc
byte-compiling /tmp/portage/dev-python/wcwidth-0.1.9/image/_python3.8/usr/lib/python3.8/site-packages/wcwidth/tests/__init__.py to __init__.cpython-38.pyc
byte-compiling /tmp/portage/dev-python/wcwidth-0.1.9/image/_python3.8/usr/lib/python3.8/site-packages/wcwidth/tests/test_core.py to test_core.cpython-38.pyc
byte-compiling /tmp/portage/dev-python/wcwidth-0.1.9/image/_python3.8/usr/lib/python3.8/site-packages/wcwidth/table_zero.py to table_zero.cpython-38.pyc
byte-compiling /tmp/portage/dev-python/wcwidth-0.1.9/image/_python3.8/usr/lib/python3.8/site-packages/wcwidth/table_wide.py to table_wide.cpython-38.pyc
writing byte-compilation script '/tmp/portage/dev-python/wcwidth-0.1.9/temp/tmpdgq9n3x1.py'
/usr/bin/python3.8 /tmp/portage/dev-python/wcwidth-0.1.9/temp/tmpdgq9n3x1.py
removing /tmp/portage/dev-python/wcwidth-0.1.9/temp/tmpdgq9n3x1.py
writing byte-compilation script '/tmp/portage/dev-python/wcwidth-0.1.9/temp/tmpzmdl38kz.py'
/usr/bin/python3.8 /tmp/portage/dev-python/wcwidth-0.1.9/temp/tmpzmdl38kz.py
removing /tmp/portage/dev-python/wcwidth-0.1.9/temp/tmpzmdl38kz.py
running install_egg_info
running egg_info
writing wcwidth.egg-info/PKG-INFO
writing dependency_links to wcwidth.egg-info/dependency_links.txt
writing top-level names to wcwidth.egg-info/top_level.txt
reading manifest file 'wcwidth.egg-info/SOURCES.txt'
reading manifest template 'MANIFEST.in'
writing manifest file 'wcwidth.egg-info/SOURCES.txt'
Copying wcwidth.egg-info to /tmp/portage/dev-python/wcwidth-0.1.9/image/_python3.8/usr/lib/python3.8/site-packages/wcwidth-0.1.9-py3.8.egg-info
running install_scripts
 * Using python3.8 in global scope
 * python3_8: running distutils-r1_run_phase distutils-r1_python_install_all
>>> Completed installing dev-python/wcwidth-0.1.9 into /tmp/portage/dev-python/wcwidth-0.1.9/image

 * Final size of build directory: 548 KiB
 * Final size of installed tree:  836 KiB

 * Verifying compiled files in /usr/lib/pypy3.6/site-packages
 * Verifying compiled files in /usr/lib64/python2.7/site-packages
 * Verifying compiled files in /usr/lib/python3.7/site-packages
 * Verifying compiled files in /usr/lib/python3.8/site-packages
./
./usr/
./usr/lib/
./usr/lib/python3.8/
./usr/lib/python3.8/site-packages/
./usr/lib/python3.8/site-packages/wcwidth/
./usr/lib/python3.8/site-packages/wcwidth/__init__.py
./usr/lib/python3.8/site-packages/wcwidth/wcwidth.py
./usr/lib/python3.8/site-packages/wcwidth/tests/
./usr/lib/python3.8/site-packages/wcwidth/tests/__init__.py
./usr/lib/python3.8/site-packages/wcwidth/tests/__pycache__/
./usr/lib/python3.8/site-packages/wcwidth/tests/__pycache__/test_core.cpython-38.pyc
./usr/lib/python3.8/site-packages/wcwidth/tests/__pycache__/__init__.cpython-38.opt-1.pyc
./usr/lib/python3.8/site-packages/wcwidth/tests/__pycache__/__init__.cpython-38.pyc
./usr/lib/python3.8/site-packages/wcwidth/tests/__pycache__/__init__.cpython-38.opt-2.pyc
./usr/lib/python3.8/site-packages/wcwidth/tests/__pycache__/test_core.cpython-38.opt-1.pyc
./usr/lib/python3.8/site-packages/wcwidth/tests/__pycache__/test_core.cpython-38.opt-2.pyc
./usr/lib/python3.8/site-packages/wcwidth/tests/test_core.py
./usr/lib/python3.8/site-packages/wcwidth/table_zero.py
./usr/lib/python3.8/site-packages/wcwidth/__pycache__/
./usr/lib/python3.8/site-packages/wcwidth/__pycache__/table_zero.cpython-38.opt-2.pyc
./usr/lib/python3.8/site-packages/wcwidth/__pycache__/table_zero.cpython-38.pyc
./usr/lib/python3.8/site-packages/wcwidth/__pycache__/__init__.cpython-38.opt-1.pyc
./usr/lib/python3.8/site-packages/wcwidth/__pycache__/table_zero.cpython-38.opt-1.pyc
./usr/lib/python3.8/site-packages/wcwidth/__pycache__/table_wide.cpython-38.opt-1.pyc
./usr/lib/python3.8/site-packages/wcwidth/__pycache__/__init__.cpython-38.pyc
./usr/lib/python3.8/site-packages/wcwidth/__pycache__/__init__.cpython-38.opt-2.pyc
./usr/lib/python3.8/site-packages/wcwidth/__pycache__/wcwidth.cpython-38.pyc
./usr/lib/python3.8/site-packages/wcwidth/__pycache__/table_wide.cpython-38.opt-2.pyc
./usr/lib/python3.8/site-packages/wcwidth/__pycache__/wcwidth.cpython-38.opt-1.pyc
./usr/lib/python3.8/site-packages/wcwidth/__pycache__/table_wide.cpython-38.pyc
./usr/lib/python3.8/site-packages/wcwidth/__pycache__/wcwidth.cpython-38.opt-2.pyc
./usr/lib/python3.8/site-packages/wcwidth/table_wide.py
./usr/lib/python3.8/site-packages/wcwidth-0.1.9-py3.8.egg-info/
./usr/lib/python3.8/site-packages/wcwidth-0.1.9-py3.8.egg-info/top_level.txt
./usr/lib/python3.8/site-packages/wcwidth-0.1.9-py3.8.egg-info/zip-safe
./usr/lib/python3.8/site-packages/wcwidth-0.1.9-py3.8.egg-info/SOURCES.txt
./usr/lib/python3.8/site-packages/wcwidth-0.1.9-py3.8.egg-info/dependency_links.txt
./usr/lib/python3.8/site-packages/wcwidth-0.1.9-py3.8.egg-info/PKG-INFO
./usr/lib/python3.7/
./usr/lib/python3.7/site-packages/
./usr/lib/python3.7/site-packages/wcwidth-0.1.9-py3.7.egg-info/
./usr/lib/python3.7/site-packages/wcwidth-0.1.9-py3.7.egg-info/top_level.txt
./usr/lib/python3.7/site-packages/wcwidth-0.1.9-py3.7.egg-info/zip-safe
./usr/lib/python3.7/site-packages/wcwidth-0.1.9-py3.7.egg-info/SOURCES.txt
./usr/lib/python3.7/site-packages/wcwidth-0.1.9-py3.7.egg-info/dependency_links.txt
./usr/lib/python3.7/site-packages/wcwidth-0.1.9-py3.7.egg-info/PKG-INFO
./usr/lib/python3.7/site-packages/wcwidth/
./usr/lib/python3.7/site-packages/wcwidth/__init__.py
./usr/lib/python3.7/site-packages/wcwidth/wcwidth.py
./usr/lib/python3.7/site-packages/wcwidth/tests/
./usr/lib/python3.7/site-packages/wcwidth/tests/__init__.py
./usr/lib/python3.7/site-packages/wcwidth/tests/__pycache__/
./usr/lib/python3.7/site-packages/wcwidth/tests/__pycache__/test_core.cpython-37.opt-1.pyc
./usr/lib/python3.7/site-packages/wcwidth/tests/__pycache__/test_core.cpython-37.pyc
./usr/lib/python3.7/site-packages/wcwidth/tests/__pycache__/__init__.cpython-37.opt-1.pyc
./usr/lib/python3.7/site-packages/wcwidth/tests/__pycache__/__init__.cpython-37.opt-2.pyc
./usr/lib/python3.7/site-packages/wcwidth/tests/__pycache__/test_core.cpython-37.opt-2.pyc
./usr/lib/python3.7/site-packages/wcwidth/tests/__pycache__/__init__.cpython-37.pyc
./usr/lib/python3.7/site-packages/wcwidth/tests/test_core.py
./usr/lib/python3.7/site-packages/wcwidth/table_zero.py
./usr/lib/python3.7/site-packages/wcwidth/__pycache__/
./usr/lib/python3.7/site-packages/wcwidth/__pycache__/wcwidth.cpython-37.opt-1.pyc
./usr/lib/python3.7/site-packages/wcwidth/__pycache__/table_wide.cpython-37.pyc
./usr/lib/python3.7/site-packages/wcwidth/__pycache__/wcwidth.cpython-37.opt-2.pyc
./usr/lib/python3.7/site-packages/wcwidth/__pycache__/table_zero.cpython-37.pyc
./usr/lib/python3.7/site-packages/wcwidth/__pycache__/wcwidth.cpython-37.pyc
./usr/lib/python3.7/site-packages/wcwidth/__pycache__/__init__.cpython-37.opt-1.pyc
./usr/lib/python3.7/site-packages/wcwidth/__pycache__/__init__.cpython-37.opt-2.pyc
./usr/lib/python3.7/site-packages/wcwidth/__pycache__/table_wide.cpython-37.opt-1.pyc
./usr/lib/python3.7/site-packages/wcwidth/__pycache__/__init__.cpython-37.pyc
./usr/lib/python3.7/site-packages/wcwidth/__pycache__/table_zero.cpython-37.opt-2.pyc
./usr/lib/python3.7/site-packages/wcwidth/__pycache__/table_wide.cpython-37.opt-2.pyc
./usr/lib/python3.7/site-packages/wcwidth/__pycache__/table_zero.cpython-37.opt-1.pyc
./usr/lib/python3.7/site-packages/wcwidth/table_wide.py
./usr/lib/pypy3.6/
./usr/lib/pypy3.6/site-packages/
./usr/lib/pypy3.6/site-packages/wcwidth/
./usr/lib/pypy3.6/site-packages/wcwidth/__init__.py
./usr/lib/pypy3.6/site-packages/wcwidth/wcwidth.py
./usr/lib/pypy3.6/site-packages/wcwidth/tests/
./usr/lib/pypy3.6/site-packages/wcwidth/tests/__init__.py
./usr/lib/pypy3.6/site-packages/wcwidth/tests/__pycache__/
./usr/lib/pypy3.6/site-packages/wcwidth/tests/__pycache__/test_core.pypy36.opt-2.pyc
./usr/lib/pypy3.6/site-packages/wcwidth/tests/__pycache__/test_core.pypy36.pyc
./usr/lib/pypy3.6/site-packages/wcwidth/tests/__pycache__/__init__.pypy36.pyc
./usr/lib/pypy3.6/site-packages/wcwidth/tests/__pycache__/__init__.pypy36.opt-2.pyc
./usr/lib/pypy3.6/site-packages/wcwidth/tests/__pycache__/test_core.pypy36.opt-1.pyc
./usr/lib/pypy3.6/site-packages/wcwidth/tests/__pycache__/__init__.pypy36.opt-1.pyc
./usr/lib/pypy3.6/site-packages/wcwidth/tests/test_core.py
./usr/lib/pypy3.6/site-packages/wcwidth/table_zero.py
./usr/lib/pypy3.6/site-packages/wcwidth/__pycache__/
./usr/lib/pypy3.6/site-packages/wcwidth/__pycache__/table_zero.pypy36.opt-1.pyc
./usr/lib/pypy3.6/site-packages/wcwidth/__pycache__/table_zero.pypy36.opt-2.pyc
./usr/lib/pypy3.6/site-packages/wcwidth/__pycache__/table_zero.pypy36.pyc
./usr/lib/pypy3.6/site-packages/wcwidth/__pycache__/wcwidth.pypy36.opt-2.pyc
./usr/lib/pypy3.6/site-packages/wcwidth/__pycache__/table_wide.pypy36.opt-1.pyc
./usr/lib/pypy3.6/site-packages/wcwidth/__pycache__/table_wide.pypy36.opt-2.pyc
./usr/lib/pypy3.6/site-packages/wcwidth/__pycache__/table_wide.pypy36.pyc
./usr/lib/pypy3.6/site-packages/wcwidth/__pycache__/__init__.pypy36.pyc
./usr/lib/pypy3.6/site-packages/wcwidth/__pycache__/wcwidth.pypy36.opt-1.pyc
./usr/lib/pypy3.6/site-packages/wcwidth/__pycache__/wcwidth.pypy36.pyc
./usr/lib/pypy3.6/site-packages/wcwidth/__pycache__/__init__.pypy36.opt-2.pyc
./usr/lib/pypy3.6/site-packages/wcwidth/__pycache__/__init__.pypy36.opt-1.pyc
./usr/lib/pypy3.6/site-packages/wcwidth/table_wide.py
./usr/lib/pypy3.6/site-packages/wcwidth-0.1.9-py3.6.egg-info/
./usr/lib/pypy3.6/site-packages/wcwidth-0.1.9-py3.6.egg-info/top_level.txt
./usr/lib/pypy3.6/site-packages/wcwidth-0.1.9-py3.6.egg-info/zip-safe
./usr/lib/pypy3.6/site-packages/wcwidth-0.1.9-py3.6.egg-info/SOURCES.txt
./usr/lib/pypy3.6/site-packages/wcwidth-0.1.9-py3.6.egg-info/dependency_links.txt
./usr/lib/pypy3.6/site-packages/wcwidth-0.1.9-py3.6.egg-info/PKG-INFO
./usr/share/
./usr/share/doc/
./usr/share/doc/wcwidth-0.1.9/
./usr/share/doc/wcwidth-0.1.9/README.rst.bz2
./usr/lib64/
./usr/lib64/python2.7/
./usr/lib64/python2.7/site-packages/
./usr/lib64/python2.7/site-packages/wcwidth/
./usr/lib64/python2.7/site-packages/wcwidth/__init__.pyo
./usr/lib64/python2.7/site-packages/wcwidth/__init__.py
./usr/lib64/python2.7/site-packages/wcwidth/wcwidth.py
./usr/lib64/python2.7/site-packages/wcwidth/tests/
./usr/lib64/python2.7/site-packages/wcwidth/tests/__init__.pyo
./usr/lib64/python2.7/site-packages/wcwidth/tests/test_core.pyc
./usr/lib64/python2.7/site-packages/wcwidth/tests/__init__.py
./usr/lib64/python2.7/site-packages/wcwidth/tests/test_core.pyo
./usr/lib64/python2.7/site-packages/wcwidth/tests/test_core.py
./usr/lib64/python2.7/site-packages/wcwidth/tests/__init__.pyc
./usr/lib64/python2.7/site-packages/wcwidth/wcwidth.pyo
./usr/lib64/python2.7/site-packages/wcwidth/table_wide.pyc
./usr/lib64/python2.7/site-packages/wcwidth/table_zero.py
./usr/lib64/python2.7/site-packages/wcwidth/table_zero.pyo
./usr/lib64/python2.7/site-packages/wcwidth/wcwidth.pyc
./usr/lib64/python2.7/site-packages/wcwidth/table_zero.pyc
./usr/lib64/python2.7/site-packages/wcwidth/__init__.pyc
./usr/lib64/python2.7/site-packages/wcwidth/table_wide.pyo
./usr/lib64/python2.7/site-packages/wcwidth/table_wide.py
./usr/lib64/python2.7/site-packages/wcwidth-0.1.9-py2.7.egg-info/
./usr/lib64/python2.7/site-packages/wcwidth-0.1.9-py2.7.egg-info/top_level.txt
./usr/lib64/python2.7/site-packages/wcwidth-0.1.9-py2.7.egg-info/zip-safe
./usr/lib64/python2.7/site-packages/wcwidth-0.1.9-py2.7.egg-info/SOURCES.txt
./usr/lib64/python2.7/site-packages/wcwidth-0.1.9-py2.7.egg-info/dependency_links.txt
./usr/lib64/python2.7/site-packages/wcwidth-0.1.9-py2.7.egg-info/PKG-INFO
>>> Done.
 * checking 110 files for package collisions
>>> Merging dev-python/wcwidth-0.1.9 to /
 * removing unneeded *.la files
--- /usr/
--- /usr/lib64/
--- /usr/lib64/python2.7/
--- /usr/lib64/python2.7/site-packages/
>>> /usr/lib64/python2.7/site-packages/wcwidth-0.1.9-py2.7.egg-info/
>>> /usr/lib64/python2.7/site-packages/wcwidth-0.1.9-py2.7.egg-info/PKG-INFO
>>> /usr/lib64/python2.7/site-packages/wcwidth-0.1.9-py2.7.egg-info/dependency_links.txt
>>> /usr/lib64/python2.7/site-packages/wcwidth-0.1.9-py2.7.egg-info/SOURCES.txt
>>> /usr/lib64/python2.7/site-packages/wcwidth-0.1.9-py2.7.egg-info/zip-safe
>>> /usr/lib64/python2.7/site-packages/wcwidth-0.1.9-py2.7.egg-info/top_level.txt
>>> /usr/lib64/python2.7/site-packages/wcwidth/
>>> /usr/lib64/python2.7/site-packages/wcwidth/table_wide.py
>>> /usr/lib64/python2.7/site-packages/wcwidth/table_wide.pyo
>>> /usr/lib64/python2.7/site-packages/wcwidth/__init__.pyc
>>> /usr/lib64/python2.7/site-packages/wcwidth/table_zero.pyc
>>> /usr/lib64/python2.7/site-packages/wcwidth/wcwidth.pyc
>>> /usr/lib64/python2.7/site-packages/wcwidth/table_zero.pyo
>>> /usr/lib64/python2.7/site-packages/wcwidth/table_zero.py
>>> /usr/lib64/python2.7/site-packages/wcwidth/table_wide.pyc
>>> /usr/lib64/python2.7/site-packages/wcwidth/wcwidth.pyo
>>> /usr/lib64/python2.7/site-packages/wcwidth/tests/
>>> /usr/lib64/python2.7/site-packages/wcwidth/tests/__init__.pyc
>>> /usr/lib64/python2.7/site-packages/wcwidth/tests/test_core.py
>>> /usr/lib64/python2.7/site-packages/wcwidth/tests/test_core.pyo
>>> /usr/lib64/python2.7/site-packages/wcwidth/tests/__init__.py
>>> /usr/lib64/python2.7/site-packages/wcwidth/tests/test_core.pyc
>>> /usr/lib64/python2.7/site-packages/wcwidth/tests/__init__.pyo
>>> /usr/lib64/python2.7/site-packages/wcwidth/wcwidth.py
>>> /usr/lib64/python2.7/site-packages/wcwidth/__init__.py
>>> /usr/lib64/python2.7/site-packages/wcwidth/__init__.pyo
--- /usr/lib/
--- /usr/lib/pypy3.6/
--- /usr/lib/pypy3.6/site-packages/
>>> /usr/lib/pypy3.6/site-packages/wcwidth-0.1.9-py3.6.egg-info/
>>> /usr/lib/pypy3.6/site-packages/wcwidth-0.1.9-py3.6.egg-info/PKG-INFO
>>> /usr/lib/pypy3.6/site-packages/wcwidth-0.1.9-py3.6.egg-info/dependency_links.txt
>>> /usr/lib/pypy3.6/site-packages/wcwidth-0.1.9-py3.6.egg-info/SOURCES.txt
>>> /usr/lib/pypy3.6/site-packages/wcwidth-0.1.9-py3.6.egg-info/zip-safe
>>> /usr/lib/pypy3.6/site-packages/wcwidth-0.1.9-py3.6.egg-info/top_level.txt
>>> /usr/lib/pypy3.6/site-packages/wcwidth/
>>> /usr/lib/pypy3.6/site-packages/wcwidth/table_wide.py
>>> /usr/lib/pypy3.6/site-packages/wcwidth/__pycache__/
>>> /usr/lib/pypy3.6/site-packages/wcwidth/__pycache__/__init__.pypy36.opt-1.pyc
>>> /usr/lib/pypy3.6/site-packages/wcwidth/__pycache__/__init__.pypy36.opt-2.pyc
>>> /usr/lib/pypy3.6/site-packages/wcwidth/__pycache__/wcwidth.pypy36.pyc
>>> /usr/lib/pypy3.6/site-packages/wcwidth/__pycache__/wcwidth.pypy36.opt-1.pyc
>>> /usr/lib/pypy3.6/site-packages/wcwidth/__pycache__/__init__.pypy36.pyc
>>> /usr/lib/pypy3.6/site-packages/wcwidth/__pycache__/table_wide.pypy36.pyc
>>> /usr/lib/pypy3.6/site-packages/wcwidth/__pycache__/table_wide.pypy36.opt-2.pyc
>>> /usr/lib/pypy3.6/site-packages/wcwidth/__pycache__/table_wide.pypy36.opt-1.pyc
>>> /usr/lib/pypy3.6/site-packages/wcwidth/__pycache__/wcwidth.pypy36.opt-2.pyc
>>> /usr/lib/pypy3.6/site-packages/wcwidth/__pycache__/table_zero.pypy36.pyc
>>> /usr/lib/pypy3.6/site-packages/wcwidth/__pycache__/table_zero.pypy36.opt-2.pyc
>>> /usr/lib/pypy3.6/site-packages/wcwidth/__pycache__/table_zero.pypy36.opt-1.pyc
>>> /usr/lib/pypy3.6/site-packages/wcwidth/table_zero.py
>>> /usr/lib/pypy3.6/site-packages/wcwidth/tests/
>>> /usr/lib/pypy3.6/site-packages/wcwidth/tests/test_core.py
>>> /usr/lib/pypy3.6/site-packages/wcwidth/tests/__pycache__/
>>> /usr/lib/pypy3.6/site-packages/wcwidth/tests/__pycache__/__init__.pypy36.opt-1.pyc
>>> /usr/lib/pypy3.6/site-packages/wcwidth/tests/__pycache__/test_core.pypy36.opt-1.pyc
>>> /usr/lib/pypy3.6/site-packages/wcwidth/tests/__pycache__/__init__.pypy36.opt-2.pyc
>>> /usr/lib/pypy3.6/site-packages/wcwidth/tests/__pycache__/__init__.pypy36.pyc
>>> /usr/lib/pypy3.6/site-packages/wcwidth/tests/__pycache__/test_core.pypy36.pyc
>>> /usr/lib/pypy3.6/site-packages/wcwidth/tests/__pycache__/test_core.pypy36.opt-2.pyc
>>> /usr/lib/pypy3.6/site-packages/wcwidth/tests/__init__.py
>>> /usr/lib/pypy3.6/site-packages/wcwidth/wcwidth.py
>>> /usr/lib/pypy3.6/site-packages/wcwidth/__init__.py
--- /usr/lib/python3.7/
--- /usr/lib/python3.7/site-packages/
>>> /usr/lib/python3.7/site-packages/wcwidth/
>>> /usr/lib/python3.7/site-packages/wcwidth/table_wide.py
>>> /usr/lib/python3.7/site-packages/wcwidth/__pycache__/
>>> /usr/lib/python3.7/site-packages/wcwidth/__pycache__/table_zero.cpython-37.opt-1.pyc
>>> /usr/lib/python3.7/site-packages/wcwidth/__pycache__/table_wide.cpython-37.opt-2.pyc
>>> /usr/lib/python3.7/site-packages/wcwidth/__pycache__/table_zero.cpython-37.opt-2.pyc
>>> /usr/lib/python3.7/site-packages/wcwidth/__pycache__/__init__.cpython-37.pyc
>>> /usr/lib/python3.7/site-packages/wcwidth/__pycache__/table_wide.cpython-37.opt-1.pyc
>>> /usr/lib/python3.7/site-packages/wcwidth/__pycache__/__init__.cpython-37.opt-2.pyc
>>> /usr/lib/python3.7/site-packages/wcwidth/__pycache__/__init__.cpython-37.opt-1.pyc
>>> /usr/lib/python3.7/site-packages/wcwidth/__pycache__/wcwidth.cpython-37.pyc
>>> /usr/lib/python3.7/site-packages/wcwidth/__pycache__/table_zero.cpython-37.pyc
>>> /usr/lib/python3.7/site-packages/wcwidth/__pycache__/wcwidth.cpython-37.opt-2.pyc
>>> /usr/lib/python3.7/site-packages/wcwidth/__pycache__/table_wide.cpython-37.pyc
>>> /usr/lib/python3.7/site-packages/wcwidth/__pycache__/wcwidth.cpython-37.opt-1.pyc
>>> /usr/lib/python3.7/site-packages/wcwidth/table_zero.py
>>> /usr/lib/python3.7/site-packages/wcwidth/tests/
>>> /usr/lib/python3.7/site-packages/wcwidth/tests/test_core.py
>>> /usr/lib/python3.7/site-packages/wcwidth/tests/__pycache__/
>>> /usr/lib/python3.7/site-packages/wcwidth/tests/__pycache__/__init__.cpython-37.pyc
>>> /usr/lib/python3.7/site-packages/wcwidth/tests/__pycache__/test_core.cpython-37.opt-2.pyc
>>> /usr/lib/python3.7/site-packages/wcwidth/tests/__pycache__/__init__.cpython-37.opt-2.pyc
>>> /usr/lib/python3.7/site-packages/wcwidth/tests/__pycache__/__init__.cpython-37.opt-1.pyc
>>> /usr/lib/python3.7/site-packages/wcwidth/tests/__pycache__/test_core.cpython-37.pyc
>>> /usr/lib/python3.7/site-packages/wcwidth/tests/__pycache__/test_core.cpython-37.opt-1.pyc
>>> /usr/lib/python3.7/site-packages/wcwidth/tests/__init__.py
>>> /usr/lib/python3.7/site-packages/wcwidth/wcwidth.py
>>> /usr/lib/python3.7/site-packages/wcwidth/__init__.py
>>> /usr/lib/python3.7/site-packages/wcwidth-0.1.9-py3.7.egg-info/
>>> /usr/lib/python3.7/site-packages/wcwidth-0.1.9-py3.7.egg-info/PKG-INFO
>>> /usr/lib/python3.7/site-packages/wcwidth-0.1.9-py3.7.egg-info/dependency_links.txt
>>> /usr/lib/python3.7/site-packages/wcwidth-0.1.9-py3.7.egg-info/SOURCES.txt
>>> /usr/lib/python3.7/site-packages/wcwidth-0.1.9-py3.7.egg-info/zip-safe
>>> /usr/lib/python3.7/site-packages/wcwidth-0.1.9-py3.7.egg-info/top_level.txt
--- /usr/lib/python3.8/
--- /usr/lib/python3.8/site-packages/
--- /usr/lib/python3.8/site-packages/wcwidth-0.1.9-py3.8.egg-info/
>>> /usr/lib/python3.8/site-packages/wcwidth-0.1.9-py3.8.egg-info/PKG-INFO
>>> /usr/lib/python3.8/site-packages/wcwidth-0.1.9-py3.8.egg-info/dependency_links.txt
>>> /usr/lib/python3.8/site-packages/wcwidth-0.1.9-py3.8.egg-info/SOURCES.txt
>>> /usr/lib/python3.8/site-packages/wcwidth-0.1.9-py3.8.egg-info/zip-safe
>>> /usr/lib/python3.8/site-packages/wcwidth-0.1.9-py3.8.egg-info/top_level.txt
--- /usr/lib/python3.8/site-packages/wcwidth/
>>> /usr/lib/python3.8/site-packages/wcwidth/table_wide.py
--- /usr/lib/python3.8/site-packages/wcwidth/__pycache__/
>>> /usr/lib/python3.8/site-packages/wcwidth/__pycache__/wcwidth.cpython-38.opt-2.pyc
>>> /usr/lib/python3.8/site-packages/wcwidth/__pycache__/table_wide.cpython-38.pyc
>>> /usr/lib/python3.8/site-packages/wcwidth/__pycache__/wcwidth.cpython-38.opt-1.pyc
>>> /usr/lib/python3.8/site-packages/wcwidth/__pycache__/table_wide.cpython-38.opt-2.pyc
>>> /usr/lib/python3.8/site-packages/wcwidth/__pycache__/wcwidth.cpython-38.pyc
>>> /usr/lib/python3.8/site-packages/wcwidth/__pycache__/__init__.cpython-38.opt-2.pyc
>>> /usr/lib/python3.8/site-packages/wcwidth/__pycache__/__init__.cpython-38.pyc
>>> /usr/lib/python3.8/site-packages/wcwidth/__pycache__/table_wide.cpython-38.opt-1.pyc
>>> /usr/lib/python3.8/site-packages/wcwidth/__pycache__/table_zero.cpython-38.opt-1.pyc
>>> /usr/lib/python3.8/site-packages/wcwidth/__pycache__/__init__.cpython-38.opt-1.pyc
>>> /usr/lib/python3.8/site-packages/wcwidth/__pycache__/table_zero.cpython-38.pyc
>>> /usr/lib/python3.8/site-packages/wcwidth/__pycache__/table_zero.cpython-38.opt-2.pyc
>>> /usr/lib/python3.8/site-packages/wcwidth/table_zero.py
--- /usr/lib/python3.8/site-packages/wcwidth/tests/
>>> /usr/lib/python3.8/site-packages/wcwidth/tests/test_core.py
--- /usr/lib/python3.8/site-packages/wcwidth/tests/__pycache__/
>>> /usr/lib/python3.8/site-packages/wcwidth/tests/__pycache__/test_core.cpython-38.opt-2.pyc
>>> /usr/lib/python3.8/site-packages/wcwidth/tests/__pycache__/test_core.cpython-38.opt-1.pyc
>>> /usr/lib/python3.8/site-packages/wcwidth/tests/__pycache__/__init__.cpython-38.opt-2.pyc
>>> /usr/lib/python3.8/site-packages/wcwidth/tests/__pycache__/__init__.cpython-38.pyc
>>> /usr/lib/python3.8/site-packages/wcwidth/tests/__pycache__/__init__.cpython-38.opt-1.pyc
>>> /usr/lib/python3.8/site-packages/wcwidth/tests/__pycache__/test_core.cpython-38.pyc
>>> /usr/lib/python3.8/site-packages/wcwidth/tests/__init__.py
>>> /usr/lib/python3.8/site-packages/wcwidth/wcwidth.py
>>> /usr/lib/python3.8/site-packages/wcwidth/__init__.py
>>> Safely unmerging already-installed instance...
>>> Original instance of package unmerged safely.
>>> dev-python/wcwidth-0.1.9 merged.
