No package files given... Grabbing a set.
--- replaced obj /usr/lib64/perl5/vendor_perl/5.30.3/x86_64-linux-thread-multi/auto/MRO/Compat/.packlist
--- replaced dir /usr/lib64/perl5/vendor_perl/5.30.3/x86_64-linux-thread-multi/auto/MRO/Compat
--- replaced dir /usr/lib64/perl5/vendor_perl/5.30.3/x86_64-linux-thread-multi/auto/MRO
--- replaced dir /usr/lib64/perl5/vendor_perl/5.30.3/x86_64-linux-thread-multi/auto
--- replaced dir /usr/lib64/perl5/vendor_perl/5.30.3/x86_64-linux-thread-multi
--- replaced obj /usr/lib64/perl5/vendor_perl/5.30.3/MRO/Compat.pm
--- replaced dir /usr/lib64/perl5/vendor_perl/5.30.3/MRO
--- replaced dir /usr/lib64/perl5/vendor_perl/5.30.3
--- replaced dir /usr/lib64/perl5/vendor_perl
--- replaced dir /usr/lib64/perl5
--- replaced dir /usr/lib64
--- replaced dir /usr
>>> Regenerating /etc/ld.so.cache...
