No package files given... Grabbing a set.
--- replaced obj /usr/lib64/perl5/vendor_perl/5.30.2/x86_64-linux/auto/Term/ReadKey/ReadKey.so
--- replaced obj /usr/lib64/perl5/vendor_perl/5.30.2/x86_64-linux/auto/Term/ReadKey/.packlist
--- replaced dir /usr/lib64/perl5/vendor_perl/5.30.2/x86_64-linux/auto/Term/ReadKey
--- replaced dir /usr/lib64/perl5/vendor_perl/5.30.2/x86_64-linux/auto/Term
--- replaced dir /usr/lib64/perl5/vendor_perl/5.30.2/x86_64-linux/auto
--- replaced obj /usr/lib64/perl5/vendor_perl/5.30.2/x86_64-linux/Term/ReadKey.pm
--- replaced dir /usr/lib64/perl5/vendor_perl/5.30.2/x86_64-linux/Term
--- replaced dir /usr/lib64/perl5/vendor_perl/5.30.2/x86_64-linux
--- replaced dir /usr/lib64/perl5/vendor_perl/5.30.2
--- replaced dir /usr/lib64/perl5/vendor_perl
--- replaced dir /usr/lib64/perl5
--- replaced dir /usr/lib64
--- replaced dir /usr
>>> Regenerating /etc/ld.so.cache...
