No package files given... Grabbing a set.
--- replaced obj /usr/share/man/man1/strace.1.bz2
--- replaced obj /usr/share/man/man1/strace-log-merge.1.bz2
--- replaced dir /usr/share/man/man1
--- replaced dir /usr/share/man
--- replaced dir /usr/share
--- replaced obj /usr/bin/strace-log-merge
--- replaced obj /usr/bin/strace
--- replaced dir /usr/bin
--- replaced dir /usr
>>> Regenerating /etc/ld.so.cache...
