No package files given... Grabbing a set.
--- replaced obj /usr/share/man/man3/ffi_prep_cif_var.3.bz2
--- replaced obj /usr/share/man/man3/ffi_prep_cif.3.bz2
--- replaced obj /usr/share/man/man3/ffi_call.3.bz2
--- replaced obj /usr/share/man/man3/ffi.3.bz2
--- replaced dir /usr/share/man/man3
--- replaced dir /usr/share/man
--- replaced obj /usr/share/info/libffi.info.bz2
--- replaced dir /usr/share/info
--- replaced dir /usr/share
--- replaced obj /usr/lib64/pkgconfig/libffi.pc
--- replaced dir /usr/lib64/pkgconfig
--- replaced obj /usr/lib64/libffi/include/ffitarget.h
--- replaced obj /usr/lib64/libffi/include/ffi.h
--- replaced dir /usr/lib64/libffi/include
--- replaced obj /usr/lib64/libffi.so.7.1.0
--- replaced sym /usr/lib64/libffi.so.7
--- replaced sym /usr/lib64/libffi.so
--- replaced dir /usr/lib64/libffi
--- replaced dir /usr/lib64
--- replaced dir /usr
>>> Regenerating /etc/ld.so.cache...
