No package files given... Grabbing a set.
--- !found   obj /usr/lib64/perl5/vendor_perl/5.30.3/x86_64-linux-thread-multi/auto/Taint/Runtime/Runtime.so
--- !found   dir /usr/lib64/perl5/vendor_perl/5.30.3/x86_64-linux-thread-multi/auto/Taint/Runtime
--- !found   dir /usr/lib64/perl5/vendor_perl/5.30.3/x86_64-linux-thread-multi/auto/Taint
--- !found   obj /usr/lib64/perl5/vendor_perl/5.30.3/x86_64-linux-thread-multi/Taint/is_taint_bench.pl
--- !found   obj /usr/lib64/perl5/vendor_perl/5.30.3/x86_64-linux-thread-multi/Taint/Runtime.pm
--- !found   dir /usr/lib64/perl5/vendor_perl/5.30.3/x86_64-linux-thread-multi/Taint
--- !empty   dir /usr/lib64/perl5/vendor_perl/5.30.3/x86_64-linux-thread-multi/auto
--- !empty   dir /usr/lib64/perl5/vendor_perl/5.30.3/x86_64-linux-thread-multi
--- !empty   dir /usr/lib64/perl5/vendor_perl/5.30.3
--- !empty   dir /usr/lib64/perl5/vendor_perl
--- !empty   dir /usr/lib64/perl5
--- !empty   dir /usr/lib64
--- !empty   dir /usr
