No package files given... Grabbing a set.
--- replaced obj /usr/lib64/perl5/vendor_perl/5.30.2/x86_64-linux/auto/Dist/CheckConflicts/.packlist
--- replaced dir /usr/lib64/perl5/vendor_perl/5.30.2/x86_64-linux/auto/Dist/CheckConflicts
--- replaced dir /usr/lib64/perl5/vendor_perl/5.30.2/x86_64-linux/auto/Dist
--- replaced dir /usr/lib64/perl5/vendor_perl/5.30.2/x86_64-linux/auto
--- replaced dir /usr/lib64/perl5/vendor_perl/5.30.2/x86_64-linux
--- replaced obj /usr/lib64/perl5/vendor_perl/5.30.2/Dist/CheckConflicts.pm
--- replaced dir /usr/lib64/perl5/vendor_perl/5.30.2/Dist
--- replaced dir /usr/lib64/perl5/vendor_perl/5.30.2
--- replaced dir /usr/lib64/perl5/vendor_perl
--- replaced dir /usr/lib64/perl5
--- replaced dir /usr/lib64
--- replaced dir /usr
>>> Regenerating /etc/ld.so.cache...
