No package files given... Grabbing a set.
--- replaced obj /usr/share/man/man1/rdx.1.bz2
--- replaced obj /usr/share/man/man1/rdflib.1.bz2
--- replaced obj /usr/share/man/man1/rdfdump.1.bz2
--- replaced obj /usr/share/man/man1/rdf2srec.1
--- replaced obj /usr/share/man/man1/rdf2ith.1
--- replaced obj /usr/share/man/man1/rdf2ihx.1
--- replaced obj /usr/share/man/man1/rdf2com.1
--- replaced obj /usr/share/man/man1/rdf2bin.1.bz2
--- replaced obj /usr/share/man/man1/ndisasm.1.bz2
--- replaced obj /usr/share/man/man1/nasm.1.bz2
--- replaced obj /usr/share/man/man1/ldrdf.1.bz2
--- replaced dir /usr/share/man/man1
--- replaced dir /usr/share/man
--- replaced dir /usr/share
--- replaced obj /usr/bin/rdx
--- replaced obj /usr/bin/rdflib
--- replaced obj /usr/bin/rdfdump
--- replaced sym /usr/bin/rdf2srec
--- replaced sym /usr/bin/rdf2ith
--- replaced sym /usr/bin/rdf2ihx
--- replaced sym /usr/bin/rdf2com
--- replaced obj /usr/bin/rdf2bin
--- replaced obj /usr/bin/ndisasm
--- replaced obj /usr/bin/nasm
--- replaced obj /usr/bin/ldrdf
--- replaced dir /usr/bin
--- replaced dir /usr
>>> Regenerating /etc/ld.so.cache...
