No package files given... Grabbing a set.
--- replaced obj /usr/share/pixmaps/lua.ico
--- replaced dir /usr/share/pixmaps
--- replaced obj /usr/share/man/man1/luac.1.bz2
--- replaced obj /usr/share/man/man1/lua.1.bz2
--- replaced dir /usr/share/man/man1
--- replaced dir /usr/share/man
--- replaced dir /usr/share
--- replaced obj /usr/lib64/pkgconfig/lua.pc
--- replaced dir /usr/lib64/pkgconfig
--- replaced obj /usr/lib64/liblua.so.5.1.5
--- replaced sym /usr/lib64/liblua.so.5
--- replaced sym /usr/lib64/liblua.so
--- replaced obj /usr/lib64/liblua.a
--- replaced dir /usr/lib64
--- replaced obj /usr/include/x86_64-pc-linux-gnu/luaconf.h
--- replaced dir /usr/include/x86_64-pc-linux-gnu
--- replaced obj /usr/include/lualib.h
--- replaced obj /usr/include/luaconf.h
--- replaced obj /usr/include/lua.hpp
--- replaced obj /usr/include/lua.h
--- replaced obj /usr/include/lauxlib.h
--- replaced dir /usr/include
--- replaced obj /usr/bin/luac
--- replaced obj /usr/bin/lua
--- replaced dir /usr/bin
--- replaced dir /usr
>>> Regenerating /etc/ld.so.cache...
