No package files given... Grabbing a set.
--- replaced obj /var/lib/texmf/.keep_dev-libs_kpathsea-0
--- replaced dir /var/lib/texmf
--- replaced dir /var/lib
--- replaced dir /var
--- replaced obj /usr/share/tlpkg/tlpobj/kpathsea.tlpobj
--- replaced dir /usr/share/tlpkg/tlpobj
--- replaced dir /usr/share/tlpkg
--- replaced obj /usr/share/texmf-dist/web2c/viscii-t5.tcx
--- replaced sym /usr/share/texmf-dist/web2c/texmf.cnf
--- replaced obj /usr/share/texmf-dist/web2c/tcvn-t5.tcx
--- replaced obj /usr/share/texmf-dist/web2c/natural.tcx
--- replaced obj /usr/share/texmf-dist/web2c/mktexupd
--- replaced obj /usr/share/texmf-dist/web2c/mktexnam.opt
--- replaced obj /usr/share/texmf-dist/web2c/mktexnam
--- replaced obj /usr/share/texmf-dist/web2c/mktexdir.opt
--- replaced obj /usr/share/texmf-dist/web2c/mktexdir
--- replaced obj /usr/share/texmf-dist/web2c/mktex.opt
--- replaced obj /usr/share/texmf-dist/web2c/mktex.cnf
--- replaced obj /usr/share/texmf-dist/web2c/maz-pl.tcx
--- replaced obj /usr/share/texmf-dist/web2c/macce-t1.tcx
--- replaced obj /usr/share/texmf-dist/web2c/macce-pl.tcx
--- replaced obj /usr/share/texmf-dist/web2c/kam-t1.tcx
--- replaced obj /usr/share/texmf-dist/web2c/kam-cs.tcx
--- replaced obj /usr/share/texmf-dist/web2c/il2-t1.tcx
--- replaced obj /usr/share/texmf-dist/web2c/il2-pl.tcx
--- replaced obj /usr/share/texmf-dist/web2c/il2-cs.tcx
--- replaced obj /usr/share/texmf-dist/web2c/il1-t1.tcx
--- replaced sym /usr/share/texmf-dist/web2c/fmtutil.cnf
--- replaced obj /usr/share/texmf-dist/web2c/empty.tcx
--- replaced obj /usr/share/texmf-dist/web2c/cp8bit.tcx
--- replaced obj /usr/share/texmf-dist/web2c/cp852-pl.tcx
--- replaced obj /usr/share/texmf-dist/web2c/cp852-cs.tcx
--- replaced obj /usr/share/texmf-dist/web2c/cp227.tcx
--- replaced obj /usr/share/texmf-dist/web2c/cp1250t1.tcx
--- replaced obj /usr/share/texmf-dist/web2c/cp1250pl.tcx
--- replaced obj /usr/share/texmf-dist/web2c/cp1250cs.tcx
--- replaced obj /usr/share/texmf-dist/web2c/amiga-pl.tcx
--- replaced dir /usr/share/texmf-dist/web2c
--- replaced dir /usr/share/texmf-dist
--- replaced obj /usr/share/man/man1/kpsewhich.1.bz2
--- replaced obj /usr/share/man/man1/kpsestat.1.bz2
--- replaced obj /usr/share/man/man1/kpsereadlink.1.bz2
--- replaced obj /usr/share/man/man1/kpseaccess.1.bz2
--- replaced dir /usr/share/man/man1
--- replaced dir /usr/share/man
--- replaced obj /usr/share/info/kpathsea.info.bz2
--- replaced dir /usr/share/info
--- replaced dir /usr/share
--- replaced obj /usr/sbin/texmf-update
--- replaced dir /usr/sbin
--- replaced obj /usr/lib64/pkgconfig/kpathsea.pc
--- replaced dir /usr/lib64/pkgconfig
--- replaced obj /usr/lib64/libkpathsea.so.6.3.2
--- replaced sym /usr/lib64/libkpathsea.so.6
--- replaced sym /usr/lib64/libkpathsea.so
--- replaced dir /usr/lib64
--- replaced obj /usr/include/kpathsea/win32lib.h
--- replaced obj /usr/include/kpathsea/version.h
--- replaced obj /usr/include/kpathsea/variable.h
--- replaced obj /usr/include/kpathsea/types.h
--- replaced obj /usr/include/kpathsea/tex-make.h
--- replaced obj /usr/include/kpathsea/tex-hush.h
--- replaced obj /usr/include/kpathsea/tex-glyph.h
--- replaced obj /usr/include/kpathsea/tex-file.h
--- replaced obj /usr/include/kpathsea/systypes.h
--- replaced obj /usr/include/kpathsea/str-llist.h
--- replaced obj /usr/include/kpathsea/str-list.h
--- replaced obj /usr/include/kpathsea/simpletypes.h
--- replaced obj /usr/include/kpathsea/readable.h
--- replaced obj /usr/include/kpathsea/progname.h
--- replaced obj /usr/include/kpathsea/proginit.h
--- replaced obj /usr/include/kpathsea/pathsearch.h
--- replaced obj /usr/include/kpathsea/paths.h
--- replaced obj /usr/include/kpathsea/mingw32.h
--- replaced obj /usr/include/kpathsea/magstep.h
--- replaced obj /usr/include/kpathsea/line.h
--- replaced obj /usr/include/kpathsea/lib.h
--- replaced obj /usr/include/kpathsea/kpathsea.h
--- replaced obj /usr/include/kpathsea/knj.h
--- replaced obj /usr/include/kpathsea/hash.h
--- replaced obj /usr/include/kpathsea/getopt.h
--- replaced obj /usr/include/kpathsea/expand.h
--- replaced obj /usr/include/kpathsea/debug.h
--- replaced obj /usr/include/kpathsea/config.h
--- replaced obj /usr/include/kpathsea/concatn.h
--- replaced obj /usr/include/kpathsea/cnf.h
--- replaced obj /usr/include/kpathsea/c-unistd.h
--- replaced obj /usr/include/kpathsea/c-std.h
--- replaced obj /usr/include/kpathsea/c-stat.h
--- replaced obj /usr/include/kpathsea/c-proto.h
--- replaced obj /usr/include/kpathsea/c-pathmx.h
--- replaced obj /usr/include/kpathsea/c-pathch.h
--- replaced obj /usr/include/kpathsea/c-namemx.h
--- replaced obj /usr/include/kpathsea/c-minmax.h
--- replaced obj /usr/include/kpathsea/c-memstr.h
--- replaced obj /usr/include/kpathsea/c-limits.h
--- replaced obj /usr/include/kpathsea/c-fopen.h
--- replaced obj /usr/include/kpathsea/c-errno.h
--- replaced obj /usr/include/kpathsea/c-dir.h
--- replaced obj /usr/include/kpathsea/c-ctype.h
--- replaced obj /usr/include/kpathsea/c-auto.h
--- replaced obj /usr/include/kpathsea/absolute.h
--- replaced dir /usr/include/kpathsea
--- replaced dir /usr/include
--- replaced obj /usr/bin/kpsewhich
--- replaced obj /usr/bin/kpsestat
--- replaced obj /usr/bin/kpsereadlink
--- replaced obj /usr/bin/kpseaccess
--- replaced dir /usr/bin
--- replaced dir /usr
--- replaced obj /etc/texmf/texmf.d/20sizes.cnf
--- replaced obj /etc/texmf/texmf.d/15options.cnf
--- replaced obj /etc/texmf/texmf.d/10standardpaths.cnf
--- replaced obj /etc/texmf/texmf.d/05searchpaths.cnf
--- replaced obj /etc/texmf/texmf.d/00header.cnf
--- replaced dir /etc/texmf/texmf.d
--- replaced dir /etc/texmf
--- replaced dir /etc
Configuring TeXLive ...
Generating /etc/texmf/web2c/texmf.cnf from /etc/texmf/texmf.d ...
Generating /etc/texmf/web2c/fmtutil.cnf from /etc/texmf/fmtutil.d ...
Generating /etc/texmf/web2c/updmap.cfg from /etc/texmf/updmap.d ...
Generating ls-R files
dirname: missing operand
Try 'dirname --help' for more information.
Skipping format files, since they are unchanged
Skipping font maps, since they are unchanged

Use 'texconfig font ro'(rw) to disable (enable) font generation for users

>>> Regenerating /etc/ld.so.cache...
