No package files given... Grabbing a set.
--- replaced obj /usr/lib64/perl5/vendor_perl/5.30.2/x86_64-linux/auto/Package/Stash/XS/XS.so
--- replaced dir /usr/lib64/perl5/vendor_perl/5.30.2/x86_64-linux/auto/Package/Stash/XS
--- replaced dir /usr/lib64/perl5/vendor_perl/5.30.2/x86_64-linux/auto/Package/Stash
--- replaced dir /usr/lib64/perl5/vendor_perl/5.30.2/x86_64-linux/auto/Package
--- replaced dir /usr/lib64/perl5/vendor_perl/5.30.2/x86_64-linux/auto
--- replaced obj /usr/lib64/perl5/vendor_perl/5.30.2/x86_64-linux/Package/Stash/XS.pm
--- replaced dir /usr/lib64/perl5/vendor_perl/5.30.2/x86_64-linux/Package/Stash
--- replaced dir /usr/lib64/perl5/vendor_perl/5.30.2/x86_64-linux/Package
--- replaced dir /usr/lib64/perl5/vendor_perl/5.30.2/x86_64-linux
--- replaced dir /usr/lib64/perl5/vendor_perl/5.30.2
--- replaced dir /usr/lib64/perl5/vendor_perl
--- replaced dir /usr/lib64/perl5
--- replaced dir /usr/lib64
--- replaced dir /usr
>>> Regenerating /etc/ld.so.cache...
