No package files given... Grabbing a set.
--- replaced obj /usr/lib64/perl5/vendor_perl/5.30.2/x86_64-linux/auto/namespace/clean/.packlist
--- replaced dir /usr/lib64/perl5/vendor_perl/5.30.2/x86_64-linux/auto/namespace/clean
--- replaced dir /usr/lib64/perl5/vendor_perl/5.30.2/x86_64-linux/auto/namespace
--- replaced dir /usr/lib64/perl5/vendor_perl/5.30.2/x86_64-linux/auto
--- replaced dir /usr/lib64/perl5/vendor_perl/5.30.2/x86_64-linux
--- replaced obj /usr/lib64/perl5/vendor_perl/5.30.2/namespace/clean/_Util.pm
--- replaced obj /usr/lib64/perl5/vendor_perl/5.30.2/namespace/clean.pm
--- replaced dir /usr/lib64/perl5/vendor_perl/5.30.2/namespace/clean
--- replaced dir /usr/lib64/perl5/vendor_perl/5.30.2/namespace
--- replaced dir /usr/lib64/perl5/vendor_perl/5.30.2
--- replaced dir /usr/lib64/perl5/vendor_perl
--- replaced dir /usr/lib64/perl5
--- replaced dir /usr/lib64
--- replaced dir /usr
>>> Regenerating /etc/ld.so.cache...
