>>> Extracting info
[32;01m * [39;49;00mPackage:    dev-perl/URI-1.730.0
[32;01m * [39;49;00mRepository: gentoo
[32;01m * [39;49;00mUSE:        userland_GNU abi_x86_64 elibc_glibc kernel_linux amd64
[32;01m * [39;49;00mFEATURES:   ccache network-sandbox preserve-libs sandbox userpriv usersandbox
 [32;01m*[0m FEATURES='downgrade-backup unmerge-orphans usersync distlocks binpkg-dostrip strict-keepdir binpkg-logs assume-digests buildpkg news fixlafiles cgroup binpkg-docompress preserve-libs ipc-sandbox userfetch binpkg-multi-instance sandbox parallel-fetch nodoc compress-index xattr unmerge-backup usersandbox multilib-strict pid-sandbox config-protect-if-modified strict userpriv sfperms unknown-features-warn unmerge-logs qa-unresolved-soname-deps parallel-install network-sandbox merge-sync ccache'
 [32;01m*[0m CFLAGS='-march=native -O3 -fdevirtualize-at-ltrans -fipa-pta -fno-semantic-interposition -fno-signed-zeros -fno-trapping-math -fassociative-math -freciprocal-math -fno-math-errno -ffinite-math-only -fno-rounding-math -fno-signaling-nans -fcx-limited-range -fexcess-precision=fast -fno-plt -fno-common -pipe -g0 -fno-stack-protector -fno-stack-clash-protection -fstack-check=no -fno-stack-check -Wl,-O4,--hash-style=gnu,--sort-common,--as-needed,-z,relro,-z,now,-lgomp,-lpthread'
 [32;01m*[0m CXXFLAGS='-march=native -O3 -fdevirtualize-at-ltrans -fipa-pta -fno-semantic-interposition -fno-signed-zeros -fno-trapping-math -fassociative-math -freciprocal-math -fno-math-errno -ffinite-math-only -fno-rounding-math -fno-signaling-nans -fcx-limited-range -fexcess-precision=fast -fno-plt -fno-common -pipe -g0 -fno-stack-protector -fno-stack-clash-protection -fstack-check=no -fno-stack-check -Wl,-O4,--hash-style=gnu,--sort-common,--as-needed,-z,relro,-z,now,-lgomp,-lpthread'
 [32;01m*[0m FFLAGS='-march=native -O3 -fdevirtualize-at-ltrans -fipa-pta -fno-semantic-interposition -fno-signed-zeros -fno-trapping-math -fassociative-math -freciprocal-math -fno-math-errno -ffinite-math-only -fno-rounding-math -fno-signaling-nans -fcx-limited-range -fexcess-precision=fast -fno-plt -fno-common -pipe -g0 -fno-stack-protector -fno-stack-clash-protection -fstack-check=no -fno-stack-check -Wl,-O4,--hash-style=gnu,--sort-common,--as-needed,-z,relro,-z,now,-lgomp,-lpthread'
 [32;01m*[0m FCFLAGS='-march=native -O3 -fdevirtualize-at-ltrans -fipa-pta -fno-semantic-interposition -fno-signed-zeros -fno-trapping-math -fassociative-math -freciprocal-math -fno-math-errno -ffinite-math-only -fno-rounding-math -fno-signaling-nans -fcx-limited-range -fexcess-precision=fast -fno-plt -fno-common -pipe -g0 -fno-stack-protector -fno-stack-clash-protection -fstack-check=no -fno-stack-check -Wl,-O4,--hash-style=gnu,--sort-common,--as-needed,-z,relro,-z,now,-lgomp,-lpthread'
 [32;01m*[0m F77FLAGS='-march=native -O3 -fdevirtualize-at-ltrans -fipa-pta -fno-semantic-interposition -fno-signed-zeros -fno-trapping-math -fassociative-math -freciprocal-math -fno-math-errno -ffinite-math-only -fno-rounding-math -fno-signaling-nans -fcx-limited-range -fexcess-precision=fast -fno-plt -fno-common -pipe -g0 -fno-stack-protector -fno-stack-clash-protection -fstack-check=no -fno-stack-check -Wl,-O4,--hash-style=gnu,--sort-common,--as-needed,-z,relro,-z,now,-lgomp,-lpthread'
 [32;01m*[0m LDFLAGS='-Wl,-O4,--hash-style=gnu,--sort-common,--as-needed,-z,relro,-z,now,-lgomp,-lpthread'
 [32;01m*[0m MAKEOPTS='-j12'
 [32;01m*[0m gcc (Gentoo 10.1.0 p1) 10.1.0
 [32;01m*[0m g++ (Gentoo 10.1.0 p1) 10.1.0
 [32;01m*[0m GNU ld (Gentoo 9999 p5) 2.34.50.20200520
 [32;01m*[0m Linux ryzen.gnum.org 5.4.36 #1 SMP Thu Apr 30 04:38:28 UTC 2020 x86_64 AMD Ryzen 5 3600 6-Core Processor AuthenticAMD GNU/Linux
[00;01mdev-perl/[00;00m[36;01mURI[00;00m: [32;01m7[00;00m seconds average for [32;01m4[00;00m merges
2020-05-15T04:07:27 >>> [00;01mdev-perl/[00;00m[36;01mURI[00;00m: [32;01m7[00;00m seconds
2020-05-15T12:45:18 >>> [00;01mdev-perl/[00;00m[36;01mURI[00;00m: [32;01m7[00;00m seconds
2020-05-16T22:25:33 >>> [00;01mdev-perl/[00;00m[36;01mURI[00;00m: [32;01m9[00;00m seconds
2020-05-20T01:21:34 >>> [00;01mdev-perl/[00;00m[36;01mURI[00;00m: [32;01m7[00;00m seconds
]0;emerge 06:42:26 452|1170 URI 00:08 (root@ryzen.gnum.org)>>> Extracting dev-perl/URI-1.730.0
 [32;01m*[39;49;00m checking 54 files for package collisions
>>> Merging dev-perl/URI-1.730.0 to /
 [32;01m*[0m removing unneeded *.la files
--- /usr/
--- /usr/lib64/
--- /usr/lib64/perl5/
--- /usr/lib64/perl5/vendor_perl/
--- /usr/lib64/perl5/vendor_perl/5.30.2/
>>> /usr/lib64/perl5/vendor_perl/5.30.2/URI.pm
--- /usr/lib64/perl5/vendor_perl/5.30.2/x86_64-linux/
--- /usr/lib64/perl5/vendor_perl/5.30.2/x86_64-linux/auto/
--- /usr/lib64/perl5/vendor_perl/5.30.2/x86_64-linux/auto/URI/
>>> /usr/lib64/perl5/vendor_perl/5.30.2/x86_64-linux/auto/URI/.packlist
--- /usr/lib64/perl5/vendor_perl/5.30.2/URI/
>>> /usr/lib64/perl5/vendor_perl/5.30.2/URI/_punycode.pm
>>> /usr/lib64/perl5/vendor_perl/5.30.2/URI/Heuristic.pm
>>> /usr/lib64/perl5/vendor_perl/5.30.2/URI/nntp.pm
>>> /usr/lib64/perl5/vendor_perl/5.30.2/URI/QueryParam.pm
>>> /usr/lib64/perl5/vendor_perl/5.30.2/URI/_ldap.pm
>>> /usr/lib64/perl5/vendor_perl/5.30.2/URI/URL.pm
>>> /usr/lib64/perl5/vendor_perl/5.30.2/URI/ldapi.pm
>>> /usr/lib64/perl5/vendor_perl/5.30.2/URI/pop.pm
>>> /usr/lib64/perl5/vendor_perl/5.30.2/URI/mms.pm
>>> /usr/lib64/perl5/vendor_perl/5.30.2/URI/sftp.pm
>>> /usr/lib64/perl5/vendor_perl/5.30.2/URI/telnet.pm
>>> /usr/lib64/perl5/vendor_perl/5.30.2/URI/mailto.pm
>>> /usr/lib64/perl5/vendor_perl/5.30.2/URI/rtsp.pm
>>> /usr/lib64/perl5/vendor_perl/5.30.2/URI/snews.pm
>>> /usr/lib64/perl5/vendor_perl/5.30.2/URI/_query.pm
>>> /usr/lib64/perl5/vendor_perl/5.30.2/URI/http.pm
>>> /usr/lib64/perl5/vendor_perl/5.30.2/URI/_foreign.pm
>>> /usr/lib64/perl5/vendor_perl/5.30.2/URI/rlogin.pm
>>> /usr/lib64/perl5/vendor_perl/5.30.2/URI/ssh.pm
>>> /usr/lib64/perl5/vendor_perl/5.30.2/URI/Escape.pm
>>> /usr/lib64/perl5/vendor_perl/5.30.2/URI/WithBase.pm
>>> /usr/lib64/perl5/vendor_perl/5.30.2/URI/https.pm
>>> /usr/lib64/perl5/vendor_perl/5.30.2/URI/rsync.pm
>>> /usr/lib64/perl5/vendor_perl/5.30.2/URI/_login.pm
>>> /usr/lib64/perl5/vendor_perl/5.30.2/URI/_userpass.pm
>>> /usr/lib64/perl5/vendor_perl/5.30.2/URI/data.pm
>>> /usr/lib64/perl5/vendor_perl/5.30.2/URI/tn3270.pm
>>> /usr/lib64/perl5/vendor_perl/5.30.2/URI/_generic.pm
>>> /usr/lib64/perl5/vendor_perl/5.30.2/URI/gopher.pm
--- /usr/lib64/perl5/vendor_perl/5.30.2/URI/file/
>>> /usr/lib64/perl5/vendor_perl/5.30.2/URI/file/OS2.pm
>>> /usr/lib64/perl5/vendor_perl/5.30.2/URI/file/Base.pm
>>> /usr/lib64/perl5/vendor_perl/5.30.2/URI/file/Mac.pm
>>> /usr/lib64/perl5/vendor_perl/5.30.2/URI/file/Win32.pm
>>> /usr/lib64/perl5/vendor_perl/5.30.2/URI/file/Unix.pm
>>> /usr/lib64/perl5/vendor_perl/5.30.2/URI/file/QNX.pm
>>> /usr/lib64/perl5/vendor_perl/5.30.2/URI/file/FAT.pm
>>> /usr/lib64/perl5/vendor_perl/5.30.2/URI/news.pm
>>> /usr/lib64/perl5/vendor_perl/5.30.2/URI/rtspu.pm
>>> /usr/lib64/perl5/vendor_perl/5.30.2/URI/_server.pm
--- /usr/lib64/perl5/vendor_perl/5.30.2/URI/urn/
>>> /usr/lib64/perl5/vendor_perl/5.30.2/URI/urn/oid.pm
>>> /usr/lib64/perl5/vendor_perl/5.30.2/URI/urn/isbn.pm
>>> /usr/lib64/perl5/vendor_perl/5.30.2/URI/file.pm
>>> /usr/lib64/perl5/vendor_perl/5.30.2/URI/ldaps.pm
>>> /usr/lib64/perl5/vendor_perl/5.30.2/URI/_segment.pm
>>> /usr/lib64/perl5/vendor_perl/5.30.2/URI/sips.pm
>>> /usr/lib64/perl5/vendor_perl/5.30.2/URI/_idna.pm
>>> /usr/lib64/perl5/vendor_perl/5.30.2/URI/urn.pm
>>> /usr/lib64/perl5/vendor_perl/5.30.2/URI/ftp.pm
>>> /usr/lib64/perl5/vendor_perl/5.30.2/URI/ldap.pm
>>> /usr/lib64/perl5/vendor_perl/5.30.2/URI/Split.pm
>>> /usr/lib64/perl5/vendor_perl/5.30.2/URI/IRI.pm
>>> /usr/lib64/perl5/vendor_perl/5.30.2/URI/sip.pm
>>> Safely unmerging already-installed instance...
No package files given... Grabbing a set.
--- replaced obj /usr/lib64/perl5/vendor_perl/5.30.2/x86_64-linux/auto/URI/.packlist
--- replaced dir /usr/lib64/perl5/vendor_perl/5.30.2/x86_64-linux/auto/URI
--- replaced dir /usr/lib64/perl5/vendor_perl/5.30.2/x86_64-linux/auto
--- replaced dir /usr/lib64/perl5/vendor_perl/5.30.2/x86_64-linux
--- replaced obj /usr/lib64/perl5/vendor_perl/5.30.2/URI/urn/oid.pm
--- replaced obj /usr/lib64/perl5/vendor_perl/5.30.2/URI/urn/isbn.pm
--- replaced obj /usr/lib64/perl5/vendor_perl/5.30.2/URI/urn.pm
--- replaced dir /usr/lib64/perl5/vendor_perl/5.30.2/URI/urn
--- replaced obj /usr/lib64/perl5/vendor_perl/5.30.2/URI/tn3270.pm
--- replaced obj /usr/lib64/perl5/vendor_perl/5.30.2/URI/telnet.pm
--- replaced obj /usr/lib64/perl5/vendor_perl/5.30.2/URI/ssh.pm
--- replaced obj /usr/lib64/perl5/vendor_perl/5.30.2/URI/snews.pm
--- replaced obj /usr/lib64/perl5/vendor_perl/5.30.2/URI/sips.pm
--- replaced obj /usr/lib64/perl5/vendor_perl/5.30.2/URI/sip.pm
--- replaced obj /usr/lib64/perl5/vendor_perl/5.30.2/URI/sftp.pm
--- replaced obj /usr/lib64/perl5/vendor_perl/5.30.2/URI/rtspu.pm
--- replaced obj /usr/lib64/perl5/vendor_perl/5.30.2/URI/rtsp.pm
--- replaced obj /usr/lib64/perl5/vendor_perl/5.30.2/URI/rsync.pm
--- replaced obj /usr/lib64/perl5/vendor_perl/5.30.2/URI/rlogin.pm
--- replaced obj /usr/lib64/perl5/vendor_perl/5.30.2/URI/pop.pm
--- replaced obj /usr/lib64/perl5/vendor_perl/5.30.2/URI/nntp.pm
--- replaced obj /usr/lib64/perl5/vendor_perl/5.30.2/URI/news.pm
--- replaced obj /usr/lib64/perl5/vendor_perl/5.30.2/URI/mms.pm
--- replaced obj /usr/lib64/perl5/vendor_perl/5.30.2/URI/mailto.pm
--- replaced obj /usr/lib64/perl5/vendor_perl/5.30.2/URI/ldaps.pm
--- replaced obj /usr/lib64/perl5/vendor_perl/5.30.2/URI/ldapi.pm
--- replaced obj /usr/lib64/perl5/vendor_perl/5.30.2/URI/ldap.pm
--- replaced obj /usr/lib64/perl5/vendor_perl/5.30.2/URI/https.pm
--- replaced obj /usr/lib64/perl5/vendor_perl/5.30.2/URI/http.pm
--- replaced obj /usr/lib64/perl5/vendor_perl/5.30.2/URI/gopher.pm
--- replaced obj /usr/lib64/perl5/vendor_perl/5.30.2/URI/ftp.pm
--- replaced obj /usr/lib64/perl5/vendor_perl/5.30.2/URI/file/Win32.pm
--- replaced obj /usr/lib64/perl5/vendor_perl/5.30.2/URI/file/Unix.pm
--- replaced obj /usr/lib64/perl5/vendor_perl/5.30.2/URI/file/QNX.pm
--- replaced obj /usr/lib64/perl5/vendor_perl/5.30.2/URI/file/OS2.pm
--- replaced obj /usr/lib64/perl5/vendor_perl/5.30.2/URI/file/Mac.pm
--- replaced obj /usr/lib64/perl5/vendor_perl/5.30.2/URI/file/FAT.pm
--- replaced obj /usr/lib64/perl5/vendor_perl/5.30.2/URI/file/Base.pm
--- replaced obj /usr/lib64/perl5/vendor_perl/5.30.2/URI/file.pm
--- replaced dir /usr/lib64/perl5/vendor_perl/5.30.2/URI/file
--- replaced obj /usr/lib64/perl5/vendor_perl/5.30.2/URI/data.pm
--- replaced obj /usr/lib64/perl5/vendor_perl/5.30.2/URI/_userpass.pm
--- replaced obj /usr/lib64/perl5/vendor_perl/5.30.2/URI/_server.pm
--- replaced obj /usr/lib64/perl5/vendor_perl/5.30.2/URI/_segment.pm
--- replaced obj /usr/lib64/perl5/vendor_perl/5.30.2/URI/_query.pm
--- replaced obj /usr/lib64/perl5/vendor_perl/5.30.2/URI/_punycode.pm
--- replaced obj /usr/lib64/perl5/vendor_perl/5.30.2/URI/_login.pm
--- replaced obj /usr/lib64/perl5/vendor_perl/5.30.2/URI/_ldap.pm
--- replaced obj /usr/lib64/perl5/vendor_perl/5.30.2/URI/_idna.pm
--- replaced obj /usr/lib64/perl5/vendor_perl/5.30.2/URI/_generic.pm
--- replaced obj /usr/lib64/perl5/vendor_perl/5.30.2/URI/_foreign.pm
--- replaced obj /usr/lib64/perl5/vendor_perl/5.30.2/URI/WithBase.pm
--- replaced obj /usr/lib64/perl5/vendor_perl/5.30.2/URI/URL.pm
--- replaced obj /usr/lib64/perl5/vendor_perl/5.30.2/URI/Split.pm
--- replaced obj /usr/lib64/perl5/vendor_perl/5.30.2/URI/QueryParam.pm
--- replaced obj /usr/lib64/perl5/vendor_perl/5.30.2/URI/IRI.pm
--- replaced obj /usr/lib64/perl5/vendor_perl/5.30.2/URI/Heuristic.pm
--- replaced obj /usr/lib64/perl5/vendor_perl/5.30.2/URI/Escape.pm
--- replaced obj /usr/lib64/perl5/vendor_perl/5.30.2/URI.pm
--- replaced dir /usr/lib64/perl5/vendor_perl/5.30.2/URI
--- replaced dir /usr/lib64/perl5/vendor_perl/5.30.2
--- replaced dir /usr/lib64/perl5/vendor_perl
--- replaced dir /usr/lib64/perl5
--- replaced dir /usr/lib64
--- replaced dir /usr
>>> Regenerating /etc/ld.so.cache...
>>> Original instance of package unmerged safely.
>>> dev-perl/URI-1.730.0 merged.
