No package files given... Grabbing a set.
--- replaced obj /usr/lib64/perl5/vendor_perl/5.30.2/x86_64-linux/auto/ExtUtils/Helpers/.packlist
--- replaced dir /usr/lib64/perl5/vendor_perl/5.30.2/x86_64-linux/auto/ExtUtils/Helpers
--- replaced dir /usr/lib64/perl5/vendor_perl/5.30.2/x86_64-linux/auto/ExtUtils
--- replaced dir /usr/lib64/perl5/vendor_perl/5.30.2/x86_64-linux/auto
--- replaced dir /usr/lib64/perl5/vendor_perl/5.30.2/x86_64-linux
--- replaced obj /usr/lib64/perl5/vendor_perl/5.30.2/ExtUtils/Helpers/Windows.pm
--- replaced obj /usr/lib64/perl5/vendor_perl/5.30.2/ExtUtils/Helpers/VMS.pm
--- replaced obj /usr/lib64/perl5/vendor_perl/5.30.2/ExtUtils/Helpers/Unix.pm
--- replaced obj /usr/lib64/perl5/vendor_perl/5.30.2/ExtUtils/Helpers.pm
--- replaced dir /usr/lib64/perl5/vendor_perl/5.30.2/ExtUtils/Helpers
--- replaced dir /usr/lib64/perl5/vendor_perl/5.30.2/ExtUtils
--- replaced dir /usr/lib64/perl5/vendor_perl/5.30.2
--- replaced dir /usr/lib64/perl5/vendor_perl
--- replaced dir /usr/lib64/perl5
--- replaced dir /usr/lib64
--- replaced dir /usr
>>> Regenerating /etc/ld.so.cache...
