No package files given... Grabbing a set.
--- replaced obj /usr/lib64/pkgconfig/libverto.pc
--- replaced obj /usr/lib64/pkgconfig/libverto-libev.pc
--- replaced dir /usr/lib64/pkgconfig
--- replaced obj /usr/lib64/libverto.so.1.0.0
--- replaced sym /usr/lib64/libverto.so.1
--- replaced sym /usr/lib64/libverto.so
--- replaced obj /usr/lib64/libverto-libev.so.1.0.0
--- replaced sym /usr/lib64/libverto-libev.so.1
--- replaced sym /usr/lib64/libverto-libev.so
--- replaced dir /usr/lib64
--- replaced obj /usr/include/verto.h
--- replaced obj /usr/include/verto-module.h
--- replaced obj /usr/include/verto-libev.h
--- replaced dir /usr/include
--- replaced dir /usr
>>> Regenerating /etc/ld.so.cache...
