 * Package:    dev-perl/Locale-Maketext-Lexicon-1.0.0
 * Repository: gentoo
 * Maintainer: perl@gentoo.org
 * USE:        abi_x86_64 amd64 elibc_glibc kernel_linux userland_GNU
 * FEATURES:   network-sandbox preserve-libs sandbox userpriv usersandbox
 * FEATURES='config-protect-if-modified nodoc unknown-features-warn buildpkg binpkg-dostrip preserve-libs userfetch assume-digests binpkg-logs news unmerge-logs sfperms multilib-strict strict merge-sync compress-index fixlafiles network-sandbox sandbox pid-sandbox usersandbox usersync cgroup ipc-sandbox qa-unresolved-soname-deps unmerge-orphans parallel-fetch strict-keepdir binpkg-docompress xattr ebuild-locks userpriv distlocks'
 * CFLAGS='-march=znver2 -O2 -pipe -fno-stack-protector -fno-stack-clash-protection -fstack-check=no -fno-stack-check -Wl,-O1 -Wl,--as-needed'
 * CXXFLAGS='-march=znver2 -O2 -pipe -fno-stack-protector -fno-stack-clash-protection -fstack-check=no -fno-stack-check -Wl,-O1 -Wl,--as-needed'
 * FFLAGS='-march=znver2 -O2 -pipe -fno-stack-protector -fno-stack-clash-protection -fstack-check=no -fno-stack-check -Wl,-O1 -Wl,--as-needed'
 * FCFLAGS='-march=znver2 -O2 -pipe -fno-stack-protector -fno-stack-clash-protection -fstack-check=no -fno-stack-check -Wl,-O1 -Wl,--as-needed'
 * F77FLAGS='-march=znver2 -O2 -pipe -fno-stack-protector -fno-stack-clash-protection -fstack-check=no -fno-stack-check -Wl,-O1 -Wl,--as-needed'
 * LDFLAGS='-Wl,-O1 -Wl,--as-needed'
 * MAKEOPTS='-j12 -l12'
 * gcc (Gentoo 10.1.0-r1 p2) 10.1.0
 * g++ (Gentoo 10.1.0-r1 p2) 10.1.0
 * GNU gold (Gentoo 2.34 p4 2.34.0) 1.16
 * Linux rescue 5.4.36 #1 SMP Thu Apr 30 04:38:28 UTC 2020 x86_64 AMD Ryzen 5 3600 6-Core Processor AuthenticAMD GNU/Linux
dev-perl/Locale-Maketext-Lexicon: 8 seconds average for 15 merges
2020-05-16T15:37:46 >>> dev-perl/Locale-Maketext-Lexicon: 7 seconds
2020-05-20T01:23:02 >>> dev-perl/Locale-Maketext-Lexicon: 4 seconds
2020-05-21T06:44:44 >>> dev-perl/Locale-Maketext-Lexicon: 5 seconds
2020-05-23T14:24:31 >>> dev-perl/Locale-Maketext-Lexicon: 11 seconds
2020-05-25T00:36:23 >>> dev-perl/Locale-Maketext-Lexicon: 11 seconds
2020-05-25T22:54:05 >>> dev-perl/Locale-Maketext-Lexicon: 11 seconds
2020-05-26T14:20:06 >>> dev-perl/Locale-Maketext-Lexicon: 6 seconds
2020-05-27T01:57:13 >>> dev-perl/Locale-Maketext-Lexicon: 6 seconds
2020-05-27T04:08:00 >>> dev-perl/Locale-Maketext-Lexicon: 11 seconds
2020-06-03T12:23:18 >>> dev-perl/Locale-Maketext-Lexicon: 11 seconds
2020-06-03T13:12:02 >>> dev-perl/Locale-Maketext-Lexicon: 13 seconds
2020-06-06T11:12:06 >>> dev-perl/Locale-Maketext-Lexicon: 13 seconds
2020-06-12T01:51:05 >>> dev-perl/Locale-Maketext-Lexicon: 5 seconds
2020-06-13T20:29:21 >>> dev-perl/Locale-Maketext-Lexicon: 5 seconds
2020-06-15T14:07:29 >>> dev-perl/Locale-Maketext-Lexicon: 5 seconds
]0;emerge 15:55:40 501|895 Locale-Maketext-Lexicon 00:05 (root@rescue)>>> Unpacking source...
>>> Unpacking Locale-Maketext-Lexicon-1.00.tar.gz to /tmp/portage/dev-perl/Locale-Maketext-Lexicon-1.0.0/work
>>> Source unpacked in /tmp/portage/dev-perl/Locale-Maketext-Lexicon-1.0.0/work
>>> Preparing source in /tmp/portage/dev-perl/Locale-Maketext-Lexicon-1.0.0/work/Locale-Maketext-Lexicon-1.00 ...
>>> Source prepared.
>>> Configuring source in /tmp/portage/dev-perl/Locale-Maketext-Lexicon-1.0.0/work/Locale-Maketext-Lexicon-1.00 ...
 * Using ExtUtils::MakeMaker
 * perl Makefile.PL PREFIX=/usr INSTALLDIRS=vendor INSTALLMAN3DIR=none DESTDIR=/tmp/portage/dev-perl/Locale-Maketext-Lexicon-1.0.0/image/
Checking if your kit is complete...
Looks good
Generating a Unix-style Makefile
Writing Makefile for Locale::Maketext::Lexicon
Writing MYMETA.yml and MYMETA.json
>>> Source configured.
>>> Compiling source in /tmp/portage/dev-perl/Locale-Maketext-Lexicon-1.0.0/work/Locale-Maketext-Lexicon-1.00 ...
 * emake OTHERLDFLAGS=-Wl,-O1 -Wl,--as-needed
make -j12 -l12 'OTHERLDFLAGS=-Wl,-O1 -Wl,--as-needed' 
cp lib/Locale/Maketext/Extract/Plugin/Generic.pm blib/lib/Locale/Maketext/Extract/Plugin/Generic.pm
cp lib/Locale/Maketext/Extract/Plugin/YAML.pm blib/lib/Locale/Maketext/Extract/Plugin/YAML.pm
cp lib/Locale/Maketext/Extract/Plugin/TT2.pm blib/lib/Locale/Maketext/Extract/Plugin/TT2.pm
cp lib/Locale/Maketext/Extract/Plugin/Mason.pm blib/lib/Locale/Maketext/Extract/Plugin/Mason.pm
cp lib/Locale/Maketext/Extract/Plugin/PPI.pm blib/lib/Locale/Maketext/Extract/Plugin/PPI.pm
cp lib/Locale/Maketext/Extract/Run.pm blib/lib/Locale/Maketext/Extract/Run.pm
cp lib/Locale/Maketext/Lexicon/Auto.pm blib/lib/Locale/Maketext/Lexicon/Auto.pm
cp lib/Locale/Maketext/Lexicon.pm blib/lib/Locale/Maketext/Lexicon.pm
cp lib/Locale/Maketext/Lexicon/Msgcat.pm blib/lib/Locale/Maketext/Lexicon/Msgcat.pm
cp lib/Locale/Maketext/Lexicon/Gettext.pm blib/lib/Locale/Maketext/Lexicon/Gettext.pm
cp lib/Locale/Maketext/Extract.pm blib/lib/Locale/Maketext/Extract.pm
cp lib/Locale/Maketext/Extract/Plugin/FormFu.pm blib/lib/Locale/Maketext/Extract/Plugin/FormFu.pm
cp lib/Locale/Maketext/Extract/Plugin/Perl.pm blib/lib/Locale/Maketext/Extract/Plugin/Perl.pm
cp lib/Locale/Maketext/Lexicon/Tie.pm blib/lib/Locale/Maketext/Lexicon/Tie.pm
cp lib/Locale/Maketext/Extract/Plugin/Base.pm blib/lib/Locale/Maketext/Extract/Plugin/Base.pm
cp lib/Locale/Maketext/Extract/Plugin/TextTemplate.pm blib/lib/Locale/Maketext/Extract/Plugin/TextTemplate.pm
cp lib/Locale/Maketext/Extract/Plugin/Haml.pm blib/lib/Locale/Maketext/Extract/Plugin/Haml.pm
cp script/xgettext.pl blib/script/xgettext.pl
"/usr/bin/perl" -MExtUtils::MY -e 'MY->fixin(shift)' -- blib/script/xgettext.pl
Manifying 1 pod document
>>> Source compiled.
 * Skipping make test/check due to ebuild restriction.
>>> Test phase [disabled because of RESTRICT=test]: dev-perl/Locale-Maketext-Lexicon-1.0.0

>>> Install dev-perl/Locale-Maketext-Lexicon-1.0.0 into /tmp/portage/dev-perl/Locale-Maketext-Lexicon-1.0.0/image/
make -j12 -l12 pure_install 
Manifying 1 pod document
Installing /tmp/portage/dev-perl/Locale-Maketext-Lexicon-1.0.0/image/usr/lib64/perl5/vendor_perl/5.30.3/Locale/Maketext/Extract.pm
Installing /tmp/portage/dev-perl/Locale-Maketext-Lexicon-1.0.0/image/usr/lib64/perl5/vendor_perl/5.30.3/Locale/Maketext/Lexicon.pm
Installing /tmp/portage/dev-perl/Locale-Maketext-Lexicon-1.0.0/image/usr/lib64/perl5/vendor_perl/5.30.3/Locale/Maketext/Lexicon/Auto.pm
Installing /tmp/portage/dev-perl/Locale-Maketext-Lexicon-1.0.0/image/usr/lib64/perl5/vendor_perl/5.30.3/Locale/Maketext/Lexicon/Msgcat.pm
Installing /tmp/portage/dev-perl/Locale-Maketext-Lexicon-1.0.0/image/usr/lib64/perl5/vendor_perl/5.30.3/Locale/Maketext/Lexicon/Tie.pm
Installing /tmp/portage/dev-perl/Locale-Maketext-Lexicon-1.0.0/image/usr/lib64/perl5/vendor_perl/5.30.3/Locale/Maketext/Lexicon/Gettext.pm
Installing /tmp/portage/dev-perl/Locale-Maketext-Lexicon-1.0.0/image/usr/lib64/perl5/vendor_perl/5.30.3/Locale/Maketext/Extract/Run.pm
Installing /tmp/portage/dev-perl/Locale-Maketext-Lexicon-1.0.0/image/usr/lib64/perl5/vendor_perl/5.30.3/Locale/Maketext/Extract/Plugin/Perl.pm
Installing /tmp/portage/dev-perl/Locale-Maketext-Lexicon-1.0.0/image/usr/lib64/perl5/vendor_perl/5.30.3/Locale/Maketext/Extract/Plugin/PPI.pm
Installing /tmp/portage/dev-perl/Locale-Maketext-Lexicon-1.0.0/image/usr/lib64/perl5/vendor_perl/5.30.3/Locale/Maketext/Extract/Plugin/FormFu.pm
Installing /tmp/portage/dev-perl/Locale-Maketext-Lexicon-1.0.0/image/usr/lib64/perl5/vendor_perl/5.30.3/Locale/Maketext/Extract/Plugin/Mason.pm
Installing /tmp/portage/dev-perl/Locale-Maketext-Lexicon-1.0.0/image/usr/lib64/perl5/vendor_perl/5.30.3/Locale/Maketext/Extract/Plugin/Haml.pm
Installing /tmp/portage/dev-perl/Locale-Maketext-Lexicon-1.0.0/image/usr/lib64/perl5/vendor_perl/5.30.3/Locale/Maketext/Extract/Plugin/Base.pm
Installing /tmp/portage/dev-perl/Locale-Maketext-Lexicon-1.0.0/image/usr/lib64/perl5/vendor_perl/5.30.3/Locale/Maketext/Extract/Plugin/Generic.pm
Installing /tmp/portage/dev-perl/Locale-Maketext-Lexicon-1.0.0/image/usr/lib64/perl5/vendor_perl/5.30.3/Locale/Maketext/Extract/Plugin/TT2.pm
Installing /tmp/portage/dev-perl/Locale-Maketext-Lexicon-1.0.0/image/usr/lib64/perl5/vendor_perl/5.30.3/Locale/Maketext/Extract/Plugin/TextTemplate.pm
Installing /tmp/portage/dev-perl/Locale-Maketext-Lexicon-1.0.0/image/usr/lib64/perl5/vendor_perl/5.30.3/Locale/Maketext/Extract/Plugin/YAML.pm
Installing /tmp/portage/dev-perl/Locale-Maketext-Lexicon-1.0.0/image/usr/share/man/man1/xgettext.pl.1
Installing /tmp/portage/dev-perl/Locale-Maketext-Lexicon-1.0.0/image/usr/bin/xgettext.pl
>>> Completed installing dev-perl/Locale-Maketext-Lexicon-1.0.0 into /tmp/portage/dev-perl/Locale-Maketext-Lexicon-1.0.0/image/

 * Final size of build directory: 884 KiB
 * Final size of installed tree:  288 KiB

Parallel BZIP2 v1.1.13 [Dec 18, 2015]
By: Jeff Gilchrist [http://compression.ca]
Major contributions: Yavor Nikolov [http://javornikolov.wordpress.com]
Uses libbzip2 by Julian Seward

         # CPUs: 11
   Load Average: 1.42
 BWT Block Size: 200 KB
File Block Size: 900 KB
 Maximum Memory: 1024 MB
-------------------------------------------
         File #: 1 of 1
     Input Name: compressme
    Output Name: compressme.bz2

     Input Size: 3895 bytes
Compressing data (no threads)...
Completed: 100%                 Output Size: 918 bytes
-------------------------------------------

     Wall Clock: 0.000846 seconds
Parallel BZIP2 v1.1.13 [Dec 18, 2015]
By: Jeff Gilchrist [http://compression.ca]
Major contributions: Yavor Nikolov [http://javornikolov.wordpress.com]
Uses libbzip2 by Julian Seward

         # CPUs: 11
   Load Average: 1.42
 BWT Block Size: 200 KB
File Block Size: 900 KB
 Maximum Memory: 1024 MB
-------------------------------------------
         File #: 1 of 1
     Input Name: /tmp/portage/dev-perl/Locale-Maketext-Lexicon-1.0.0/image/usr/share/man/man1/xgettext.pl.1
    Output Name: /tmp/portage/dev-perl/Locale-Maketext-Lexicon-1.0.0/image/usr/share/man/man1/xgettext.pl.1.bz2

     Input Size: 11537 bytes
Compressing data (no threads)...
Completed: 100%                 Output Size: 3987 bytes
-------------------------------------------

     Wall Clock: 0.002362 seconds
Parallel BZIP2 v1.1.13 [Dec 18, 2015]
By: Jeff Gilchrist [http://compression.ca]
Major contributions: Yavor Nikolov [http://javornikolov.wordpress.com]
Uses libbzip2 by Julian Seward

         # CPUs: 11
   Load Average: 1.42
 BWT Block Size: 200 KB
File Block Size: 900 KB
 Maximum Memory: 1024 MB
-------------------------------------------
         File #: 1 of 1
     Input Name: /tmp/portage/dev-perl/Locale-Maketext-Lexicon-1.0.0/image/usr/share/doc/Locale-Maketext-Lexicon-1.0.0/README
    Output Name: /tmp/portage/dev-perl/Locale-Maketext-Lexicon-1.0.0/image/usr/share/doc/Locale-Maketext-Lexicon-1.0.0/README.bz2

     Input Size: 8680 bytes
Compressing data (no threads)...
Completed: 100%                 Output Size: 3503 bytes
-------------------------------------------

     Wall Clock: 0.001886 seconds
Parallel BZIP2 v1.1.13 [Dec 18, 2015]
By: Jeff Gilchrist [http://compression.ca]
Major contributions: Yavor Nikolov [http://javornikolov.wordpress.com]
Uses libbzip2 by Julian Seward

         # CPUs: 11
   Load Average: 1.42
 BWT Block Size: 200 KB
File Block Size: 900 KB
 Maximum Memory: 1024 MB
-------------------------------------------
         File #: 1 of 1
     Input Name: /tmp/portage/dev-perl/Locale-Maketext-Lexicon-1.0.0/image/usr/share/doc/Locale-Maketext-Lexicon-1.0.0/Changes
    Output Name: /tmp/portage/dev-perl/Locale-Maketext-Lexicon-1.0.0/image/usr/share/doc/Locale-Maketext-Lexicon-1.0.0/Changes.bz2

     Input Size: 21271 bytes
Compressing data (no threads)...
Completed: 100%                 Output Size: 7383 bytes
-------------------------------------------

     Wall Clock: 0.003196 seconds
./
./usr/
./usr/bin/
./usr/bin/xgettext.pl
./usr/share/
./usr/share/man/
./usr/share/man/man1/
./usr/share/man/man1/xgettext.pl.1
./usr/share/man/man1/xgettext.pl.1.bz2
./usr/share/doc/
./usr/share/doc/Locale-Maketext-Lexicon-1.0.0/
./usr/share/doc/Locale-Maketext-Lexicon-1.0.0/README
./usr/share/doc/Locale-Maketext-Lexicon-1.0.0/README.bz2
./usr/share/doc/Locale-Maketext-Lexicon-1.0.0/Changes
./usr/share/doc/Locale-Maketext-Lexicon-1.0.0/Changes.bz2
./usr/lib64/
./usr/lib64/perl5/
./usr/lib64/perl5/vendor_perl/
./usr/lib64/perl5/vendor_perl/5.30.3/
./usr/lib64/perl5/vendor_perl/5.30.3/Locale/
./usr/lib64/perl5/vendor_perl/5.30.3/Locale/Maketext/
./usr/lib64/perl5/vendor_perl/5.30.3/Locale/Maketext/Extract.pm
./usr/lib64/perl5/vendor_perl/5.30.3/Locale/Maketext/Lexicon.pm
./usr/lib64/perl5/vendor_perl/5.30.3/Locale/Maketext/Lexicon/
./usr/lib64/perl5/vendor_perl/5.30.3/Locale/Maketext/Lexicon/Auto.pm
./usr/lib64/perl5/vendor_perl/5.30.3/Locale/Maketext/Lexicon/Msgcat.pm
./usr/lib64/perl5/vendor_perl/5.30.3/Locale/Maketext/Lexicon/Tie.pm
./usr/lib64/perl5/vendor_perl/5.30.3/Locale/Maketext/Lexicon/Gettext.pm
./usr/lib64/perl5/vendor_perl/5.30.3/Locale/Maketext/Extract/
./usr/lib64/perl5/vendor_perl/5.30.3/Locale/Maketext/Extract/Plugin/
./usr/lib64/perl5/vendor_perl/5.30.3/Locale/Maketext/Extract/Plugin/Perl.pm
./usr/lib64/perl5/vendor_perl/5.30.3/Locale/Maketext/Extract/Plugin/PPI.pm
./usr/lib64/perl5/vendor_perl/5.30.3/Locale/Maketext/Extract/Plugin/FormFu.pm
./usr/lib64/perl5/vendor_perl/5.30.3/Locale/Maketext/Extract/Plugin/Mason.pm
./usr/lib64/perl5/vendor_perl/5.30.3/Locale/Maketext/Extract/Plugin/Haml.pm
./usr/lib64/perl5/vendor_perl/5.30.3/Locale/Maketext/Extract/Plugin/Base.pm
./usr/lib64/perl5/vendor_perl/5.30.3/Locale/Maketext/Extract/Plugin/Generic.pm
./usr/lib64/perl5/vendor_perl/5.30.3/Locale/Maketext/Extract/Plugin/TT2.pm
./usr/lib64/perl5/vendor_perl/5.30.3/Locale/Maketext/Extract/Plugin/TextTemplate.pm
./usr/lib64/perl5/vendor_perl/5.30.3/Locale/Maketext/Extract/Plugin/YAML.pm
./usr/lib64/perl5/vendor_perl/5.30.3/Locale/Maketext/Extract/Run.pm
>>> Done.
 * checking 20 files for package collisions
>>> Merging dev-perl/Locale-Maketext-Lexicon-1.0.0 to /
 * removing unneeded *.la files
--- /usr/
--- /usr/lib64/
--- /usr/lib64/perl5/
--- /usr/lib64/perl5/vendor_perl/
--- /usr/lib64/perl5/vendor_perl/5.30.3/
--- /usr/lib64/perl5/vendor_perl/5.30.3/Locale/
--- /usr/lib64/perl5/vendor_perl/5.30.3/Locale/Maketext/
--- /usr/lib64/perl5/vendor_perl/5.30.3/Locale/Maketext/Extract/
>>> /usr/lib64/perl5/vendor_perl/5.30.3/Locale/Maketext/Extract/Run.pm
--- /usr/lib64/perl5/vendor_perl/5.30.3/Locale/Maketext/Extract/Plugin/
>>> /usr/lib64/perl5/vendor_perl/5.30.3/Locale/Maketext/Extract/Plugin/YAML.pm
>>> /usr/lib64/perl5/vendor_perl/5.30.3/Locale/Maketext/Extract/Plugin/TextTemplate.pm
>>> /usr/lib64/perl5/vendor_perl/5.30.3/Locale/Maketext/Extract/Plugin/TT2.pm
>>> /usr/lib64/perl5/vendor_perl/5.30.3/Locale/Maketext/Extract/Plugin/Generic.pm
>>> /usr/lib64/perl5/vendor_perl/5.30.3/Locale/Maketext/Extract/Plugin/Base.pm
>>> /usr/lib64/perl5/vendor_perl/5.30.3/Locale/Maketext/Extract/Plugin/Haml.pm
>>> /usr/lib64/perl5/vendor_perl/5.30.3/Locale/Maketext/Extract/Plugin/Mason.pm
>>> /usr/lib64/perl5/vendor_perl/5.30.3/Locale/Maketext/Extract/Plugin/FormFu.pm
>>> /usr/lib64/perl5/vendor_perl/5.30.3/Locale/Maketext/Extract/Plugin/PPI.pm
>>> /usr/lib64/perl5/vendor_perl/5.30.3/Locale/Maketext/Extract/Plugin/Perl.pm
--- /usr/lib64/perl5/vendor_perl/5.30.3/Locale/Maketext/Lexicon/
>>> /usr/lib64/perl5/vendor_perl/5.30.3/Locale/Maketext/Lexicon/Gettext.pm
>>> /usr/lib64/perl5/vendor_perl/5.30.3/Locale/Maketext/Lexicon/Tie.pm
>>> /usr/lib64/perl5/vendor_perl/5.30.3/Locale/Maketext/Lexicon/Msgcat.pm
>>> /usr/lib64/perl5/vendor_perl/5.30.3/Locale/Maketext/Lexicon/Auto.pm
>>> /usr/lib64/perl5/vendor_perl/5.30.3/Locale/Maketext/Lexicon.pm
>>> /usr/lib64/perl5/vendor_perl/5.30.3/Locale/Maketext/Extract.pm
--- /usr/share/
--- /usr/share/man/
--- /usr/share/man/man1/
>>> /usr/share/man/man1/xgettext.pl.1.bz2
>>> /usr/share/man/man1/xgettext.pl.1
--- /usr/bin/
>>> /usr/bin/xgettext.pl
>>> Safely unmerging already-installed instance...
!!! File Not Found: '/etc/env.d/99lcdfilter'
>>> Original instance of package unmerged safely.
>>> dev-perl/Locale-Maketext-Lexicon-1.0.0 merged.
!!! File Not Found: '/etc/env.d/99lcdfilter'
