No package files given... Grabbing a set.
--- replaced obj /usr/lib/python-exec/python-exec2
--- replaced dir /usr/lib/python-exec
--- replaced dir /usr/lib
--- replaced sym /usr/bin/pyvenv
--- replaced sym /usr/bin/python3-config
--- replaced sym /usr/bin/python3
--- replaced sym /usr/bin/python2-config
--- replaced sym /usr/bin/python2
--- replaced obj /usr/bin/python-exec2c
--- replaced sym /usr/bin/python-config
--- replaced sym /usr/bin/python
--- replaced sym /usr/bin/pydoc
--- replaced sym /usr/bin/idle
--- replaced sym /usr/bin/2to3
--- replaced dir /usr/bin
--- replaced dir /usr
--- replaced obj /etc/python-exec/python-exec.conf
--- replaced dir /etc/python-exec
--- replaced dir /etc
>>> Regenerating /etc/ld.so.cache...
