 * Package:    dev-perl/HTTP-Cookies-6.40.0
 * Repository: gentoo
 * Maintainer: perl@gentoo.org
 * USE:        abi_x86_64 amd64 elibc_glibc kernel_linux test userland_GNU
 * FEATURES:   ccache network-sandbox preserve-libs sandbox userpriv usersandbox
 * FEATURES='assume-digests binpkg-docompress binpkg-dostrip binpkg-logs binpkg-multi-instance buildpkg ccache compress-index config-protect-if-modified distlocks downgrade-backup fixlafiles ipc-sandbox merge-sync multilib-strict network-sandbox news nodoc parallel-fetch parallel-install pid-sandbox preserve-libs qa-unresolved-soname-deps sandbox sfperms strict unknown-features-warn unmerge-backup unmerge-logs unmerge-orphans userfetch userpriv usersandbox usersync xattr'
 * CFLAGS='-march=znver2 -O3 -fgraphite-identity -floop-nest-optimize -fdevirtualize-at-ltrans -fipa-pta -fno-semantic-interposition -flto=12 -fno-plt -fno-signed-zeros -fno-trapping-math -fassociative-math -freciprocal-math -fno-math-errno -ffinite-math-only -fno-rounding-math -fno-signaling-nans -fcx-limited-range -fexcess-precision=fast -falign-functions=32 -fno-stack-protector -fno-stack-clash-protection -fstack-check=no -fno-stack-check -fuse-linker-plugin -pipe -g0 -Wl,-O1 -Wl,--as-needed -Wl,-z,norelro -Wl,-z,now -Wl,--sort-common -s'
 * CXXFLAGS='-march=znver2 -O3 -fgraphite-identity -floop-nest-optimize -fdevirtualize-at-ltrans -fipa-pta -fno-semantic-interposition -flto=12 -fno-plt -fno-signed-zeros -fno-trapping-math -fassociative-math -freciprocal-math -fno-math-errno -ffinite-math-only -fno-rounding-math -fno-signaling-nans -fcx-limited-range -fexcess-precision=fast -falign-functions=32 -fno-stack-protector -fno-stack-clash-protection -fstack-check=no -fno-stack-check -fuse-linker-plugin -pipe -g0 -Wl,-O1 -Wl,--as-needed -Wl,-z,norelro -Wl,-z,now -Wl,--sort-common -s'
 * FFLAGS='-march=znver2 -O3 -fgraphite-identity -floop-nest-optimize -fdevirtualize-at-ltrans -fipa-pta -fno-semantic-interposition -flto=12 -fno-plt -fno-signed-zeros -fno-trapping-math -fassociative-math -freciprocal-math -fno-math-errno -ffinite-math-only -fno-rounding-math -fno-signaling-nans -fcx-limited-range -fexcess-precision=fast -falign-functions=32 -fno-stack-protector -fno-stack-clash-protection -fstack-check=no -fno-stack-check -fuse-linker-plugin -pipe -g0 -Wl,-O1 -Wl,--as-needed -Wl,-z,norelro -Wl,-z,now -Wl,--sort-common -s'
 * FCFLAGS='-march=znver2 -O3 -fgraphite-identity -floop-nest-optimize -fdevirtualize-at-ltrans -fipa-pta -fno-semantic-interposition -flto=12 -fno-plt -fno-signed-zeros -fno-trapping-math -fassociative-math -freciprocal-math -fno-math-errno -ffinite-math-only -fno-rounding-math -fno-signaling-nans -fcx-limited-range -fexcess-precision=fast -falign-functions=32 -fno-stack-protector -fno-stack-clash-protection -fstack-check=no -fno-stack-check -fuse-linker-plugin -pipe -g0 -Wl,-O1 -Wl,--as-needed -Wl,-z,norelro -Wl,-z,now -Wl,--sort-common -s'
 * F77FLAGS='-march=znver2 -O3 -fgraphite-identity -floop-nest-optimize -fdevirtualize-at-ltrans -fipa-pta -fno-semantic-interposition -flto=12 -fno-plt -fno-signed-zeros -fno-trapping-math -fassociative-math -freciprocal-math -fno-math-errno -ffinite-math-only -fno-rounding-math -fno-signaling-nans -fcx-limited-range -fexcess-precision=fast -falign-functions=32 -fno-stack-protector -fno-stack-clash-protection -fstack-check=no -fno-stack-check -fuse-linker-plugin -pipe -g0 -Wl,-O1 -Wl,--as-needed -Wl,-z,norelro -Wl,-z,now -Wl,--sort-common -s'
 * LDFLAGS='-Wl,-O1 -Wl,--as-needed -Wl,-z,norelro -Wl,-z,now -Wl,--sort-common -s -march=znver2 -O3 -fgraphite-identity -floop-nest-optimize -fdevirtualize-at-ltrans -fipa-pta -fno-semantic-interposition -flto=12 -fno-plt -fno-signed-zeros -fno-trapping-math -fassociative-math -freciprocal-math -fno-math-errno -ffinite-math-only -fno-rounding-math -fno-signaling-nans -fcx-limited-range -fexcess-precision=fast -falign-functions=32 -fno-stack-protector -fno-stack-clash-protection -fstack-check=no -fno-stack-check -fuse-linker-plugin -pipe -g0'
 * MAKEOPTS='-j12 -l12'
 * gcc () 11.0.0 20200526 (experimental)
 * g++ () 11.0.0 20200526 (experimental)
 * GNU ld (Gentoo 2.34 p4) 2.34.0
 * Linux ryzen.gnum.org 5.4.36 #1 SMP Thu Apr 30 04:38:28 UTC 2020 x86_64 AMD Ryzen 5 3600 6-Core Processor AuthenticAMD GNU/Linux
dev-perl/HTTP-Cookies: 9 seconds average for 12 merges
2020-05-15T04:07:41 >>> dev-perl/HTTP-Cookies: 6 seconds
2020-05-15T12:46:02 >>> dev-perl/HTTP-Cookies: 7 seconds
2020-05-20T01:24:23 >>> dev-perl/HTTP-Cookies: 6 seconds
2020-05-21T06:52:57 >>> dev-perl/HTTP-Cookies: 5 seconds
2020-05-23T14:21:59 >>> dev-perl/HTTP-Cookies: 10 seconds
2020-05-25T00:25:53 >>> dev-perl/HTTP-Cookies: 10 seconds
2020-05-25T23:09:51 >>> dev-perl/HTTP-Cookies: 10 seconds
2020-05-26T14:23:02 >>> dev-perl/HTTP-Cookies: 6 seconds
2020-05-27T02:00:08 >>> dev-perl/HTTP-Cookies: 6 seconds
2020-05-27T04:27:14 >>> dev-perl/HTTP-Cookies: 37 seconds
2020-05-28T03:37:04 >>> dev-perl/HTTP-Cookies: 6 seconds
2020-05-29T03:18:14 >>> dev-perl/HTTP-Cookies: 6 seconds
]0;emerge 12:44:40 79|273 HTTP-Cookies 00:16 (root@ryzen.gnum.org)kemerge 12:44:40 79|273 HTTP-Cookies 00:16 (root@ryzen.gnum.org)\>>> Unpacking source...
>>> Unpacking HTTP-Cookies-6.04.tar.gz to /tmp/portage/dev-perl/HTTP-Cookies-6.40.0/work
>>> Source unpacked in /tmp/portage/dev-perl/HTTP-Cookies-6.40.0/work
>>> Preparing source in /tmp/portage/dev-perl/HTTP-Cookies-6.40.0/work/HTTP-Cookies-6.04 ...
>>> Source prepared.
>>> Configuring source in /tmp/portage/dev-perl/HTTP-Cookies-6.40.0/work/HTTP-Cookies-6.04 ...
 * Using ExtUtils::MakeMaker
 * perl Makefile.PL PREFIX=/usr INSTALLDIRS=vendor INSTALLMAN3DIR=none DESTDIR=/tmp/portage/dev-perl/HTTP-Cookies-6.40.0/image/
Checking if your kit is complete...
Looks good
Generating a Unix-style Makefile
Writing Makefile for HTTP::Cookies
Writing MYMETA.yml and MYMETA.json
>>> Source configured.
>>> Compiling source in /tmp/portage/dev-perl/HTTP-Cookies-6.40.0/work/HTTP-Cookies-6.04 ...
 * emake OTHERLDFLAGS=-Wl,-O1 -Wl,--as-needed -Wl,-z,norelro -Wl,-z,now -Wl,--sort-common -s -march=znver2 -O3 -fgraphite-identity -floop-nest-optimize -fdevirtualize-at-ltrans -fipa-pta -fno-semantic-interposition -flto=12 -fno-plt -fno-signed-zeros -fno-trapping-math -fassociative-math -freciprocal-math -fno-math-errno -ffinite-math-only -fno-rounding-math -fno-signaling-nans -fcx-limited-range -fexcess-precision=fast -falign-functions=32 -fno-stack-protector -fno-stack-clash-protection -fstack-check=no -fno-stack-check -fuse-linker-plugin -pipe -g0
make -j12 -l12 'OTHERLDFLAGS=-Wl,-O1 -Wl,--as-needed -Wl,-z,norelro -Wl,-z,now -Wl,--sort-common -s -march=znver2 -O3 -fgraphite-identity -floop-nest-optimize -fdevirtualize-at-ltrans -fipa-pta -fno-semantic-interposition -flto=12 -fno-plt -fno-signed-zeros -fno-trapping-math -fassociative-math -freciprocal-math -fno-math-errno -ffinite-math-only -fno-rounding-math -fno-signaling-nans -fcx-limited-range -fexcess-precision=fast -falign-functions=32 -fno-stack-protector -fno-stack-clash-protection -fstack-check=no -fno-stack-check -fuse-linker-plugin -pipe -g0' 
>>> Source compiled.
>>> Test phase [not enabled]: dev-perl/HTTP-Cookies-6.40.0

>>> Install dev-perl/HTTP-Cookies-6.40.0 into /tmp/portage/dev-perl/HTTP-Cookies-6.40.0/image/
make -j12 -l12 pure_install 
Installing /tmp/portage/dev-perl/HTTP-Cookies-6.40.0/image/usr/lib64/perl5/vendor_perl/5.30.2/HTTP/Cookies.pm
Installing /tmp/portage/dev-perl/HTTP-Cookies-6.40.0/image/usr/lib64/perl5/vendor_perl/5.30.2/HTTP/Cookies/Netscape.pm
Installing /tmp/portage/dev-perl/HTTP-Cookies-6.40.0/image/usr/lib64/perl5/vendor_perl/5.30.2/HTTP/Cookies/Microsoft.pm
 * Fixing packlist file /usr/lib64/perl5/vendor_perl/5.30.2/x86_64-linux/auto/HTTP/Cookies/.packlist
>>> Completed installing dev-perl/HTTP-Cookies-6.40.0 into /tmp/portage/dev-perl/HTTP-Cookies-6.40.0/image/

 * Final size of build directory: 420 KiB
 * Final size of installed tree:  116 KiB

./
./usr/
./usr/share/
./usr/share/doc/
./usr/share/doc/HTTP-Cookies-6.40.0/
./usr/share/doc/HTTP-Cookies-6.40.0/README.md.bz2
./usr/share/doc/HTTP-Cookies-6.40.0/Changes.bz2
./usr/lib64/
./usr/lib64/perl5/
./usr/lib64/perl5/vendor_perl/
./usr/lib64/perl5/vendor_perl/5.30.2/
./usr/lib64/perl5/vendor_perl/5.30.2/x86_64-linux/
./usr/lib64/perl5/vendor_perl/5.30.2/x86_64-linux/auto/
./usr/lib64/perl5/vendor_perl/5.30.2/x86_64-linux/auto/HTTP/
./usr/lib64/perl5/vendor_perl/5.30.2/x86_64-linux/auto/HTTP/Cookies/
./usr/lib64/perl5/vendor_perl/5.30.2/x86_64-linux/auto/HTTP/Cookies/.packlist
./usr/lib64/perl5/vendor_perl/5.30.2/HTTP/
./usr/lib64/perl5/vendor_perl/5.30.2/HTTP/Cookies.pm
./usr/lib64/perl5/vendor_perl/5.30.2/HTTP/Cookies/
./usr/lib64/perl5/vendor_perl/5.30.2/HTTP/Cookies/Netscape.pm
./usr/lib64/perl5/vendor_perl/5.30.2/HTTP/Cookies/Microsoft.pm
>>> Done.
 * checking 4 files for package collisions
>>> Merging dev-perl/HTTP-Cookies-6.40.0 to /
 * removing unneeded *.la files
--- /usr/
--- /usr/lib64/
--- /usr/lib64/perl5/
--- /usr/lib64/perl5/vendor_perl/
--- /usr/lib64/perl5/vendor_perl/5.30.2/
--- /usr/lib64/perl5/vendor_perl/5.30.2/HTTP/
--- /usr/lib64/perl5/vendor_perl/5.30.2/HTTP/Cookies/
>>> /usr/lib64/perl5/vendor_perl/5.30.2/HTTP/Cookies/Microsoft.pm
>>> /usr/lib64/perl5/vendor_perl/5.30.2/HTTP/Cookies/Netscape.pm
>>> /usr/lib64/perl5/vendor_perl/5.30.2/HTTP/Cookies.pm
--- /usr/lib64/perl5/vendor_perl/5.30.2/x86_64-linux/
--- /usr/lib64/perl5/vendor_perl/5.30.2/x86_64-linux/auto/
--- /usr/lib64/perl5/vendor_perl/5.30.2/x86_64-linux/auto/HTTP/
--- /usr/lib64/perl5/vendor_perl/5.30.2/x86_64-linux/auto/HTTP/Cookies/
>>> /usr/lib64/perl5/vendor_perl/5.30.2/x86_64-linux/auto/HTTP/Cookies/.packlist
>>> Safely unmerging already-installed instance...
>>> Original instance of package unmerged safely.
>>> dev-perl/HTTP-Cookies-6.40.0 merged.
