[32;01m * [39;49;00mPackage:    dev-perl/X11-Protocol-0.560.0-r2
[32;01m * [39;49;00mRepository: gentoo
[32;01m * [39;49;00mMaintainer: perl@gentoo.org
[32;01m * [39;49;00mUSE:        abi_x86_64 amd64 elibc_glibc kernel_linux userland_GNU
[32;01m * [39;49;00mFEATURES:   network-sandbox preserve-libs sandbox userpriv usersandbox
>>> Unpacking source...
>>> Unpacking X11-Protocol-0.56.tar.gz to /tmp/portage/dev-perl/X11-Protocol-0.560.0-r2/work
>>> Source unpacked in /tmp/portage/dev-perl/X11-Protocol-0.560.0-r2/work
>>> Preparing source in /tmp/portage/dev-perl/X11-Protocol-0.560.0-r2/work/X11-Protocol-0.56 ...
 [32;01m*[0m Applying X11-Protocol-0.56-test-timeout.patch ...
[A[263C [34;01m[ [32;01mok[34;01m ][0m
 [32;01m*[0m Applying X11-Protocol-0.56-test-tap.patch ...
[A[263C [34;01m[ [32;01mok[34;01m ][0m
>>> Source prepared.
>>> Configuring source in /tmp/portage/dev-perl/X11-Protocol-0.560.0-r2/work/X11-Protocol-0.56 ...
perl: warning: Setting locale failed.
perl: warning: Please check that your locale settings:
	LANGUAGE = (unset),
	LC_ALL = (unset),
	LC_COLLATE = "C",
	LC_MESSAGES = "C",
	LANG = "it_IT.UTF-8"
    are supported and installed on your system.
perl: warning: Falling back to the standard locale ("C").
 [32;01m*[0m Using ExtUtils::MakeMaker
 [32;01m*[0m perl Makefile.PL PREFIX=/usr INSTALLDIRS=vendor INSTALLMAN3DIR=none DESTDIR=/tmp/portage/dev-perl/X11-Protocol-0.560.0-r2/image/
perl: warning: Setting locale failed.
perl: warning: Please check that your locale settings:
	LANGUAGE = (unset),
	LC_ALL = (unset),
	LC_COLLATE = "C",
	LC_MESSAGES = "C",
	LANG = "it_IT.UTF-8"
    are supported and installed on your system.
perl: warning: Falling back to the standard locale ("C").
Checking if your kit is complete...
Looks good
Generating a Unix-style Makefile
Writing Makefile for X11::Protocol
Writing MYMETA.yml and MYMETA.json
>>> Source configured.
>>> Compiling source in /tmp/portage/dev-perl/X11-Protocol-0.560.0-r2/work/X11-Protocol-0.56 ...
 [32;01m*[0m emake OTHERLDFLAGS=-Wl,-O1 -Wl,--as-needed -Wl,--defsym=__gentoo_check_ldflags__=0 -Wl,--hash-style=gnu -Wl,-z,norelro
make -j12 'OTHERLDFLAGS=-Wl,-O1 -Wl,--as-needed -Wl,--defsym=__gentoo_check_ldflags__=0 -Wl,--hash-style=gnu -Wl,-z,norelro' 
perl: warning: Setting locale failed.
perl: warning: Please check that your locale settings:
	LANGUAGE = (unset),
	LC_ALL = (unset),
	LC_COLLATE = "C",
	LC_MESSAGES = "C",
	LANG = "it_IT.UTF-8"
    are supported and installed on your system.
perl: warning: Falling back to the standard locale ("C").
perl: warning: Setting locale failed.
perl: warning: Please check that your locale settings:
	LANGUAGE = (unset),
	LC_ALL = (unset),
	LC_COLLATE = "C",
	LC_MESSAGES = "C",
	LANG = "it_IT.UTF-8"
    are supported and installed on your system.
perl: warning: Falling back to the standard locale ("C").
perl: warning: Setting locale failed.
perl: warning: Please check that your locale settings:
	LANGUAGE = (unset),
	LC_ALL = (unset),
	LC_COLLATE = "C",
	LC_MESSAGES = "C",
	LANG = "it_IT.UTF-8"
    are supported and installed on your system.
perl: warning: Falling back to the standard locale ("C").
perl: warning: Setting locale failed.
perl: warning: Please check that your locale settings:
	LANGUAGE = (unset),
	LC_ALL = (unset),
perl: warning: Setting locale failed.
	LC_COLLATE = "C",
	LC_MESSAGES = "C",
perl: warning: Please check that your locale settings:
	LANG = "it_IT.UTF-8"
	LANGUAGE = (unset),
    are supported and installed on your system.
	LC_ALL = (unset),
	LC_COLLATE = "C",
perl: warning: Falling back to the standard locale ("C").
	LC_MESSAGES = "C",
	LANG = "it_IT.UTF-8"
    are supported and installed on your system.
perl: warning: Falling back to the standard locale ("C").
perl: warning: Setting locale failed.
perl: warning: Please check that your locale settings:
	LANGUAGE = (unset),
	LC_ALL = (unset),
	LC_COLLATE = "C",
	LC_MESSAGES = "C",
	LANG = "it_IT.UTF-8"
    are supported and installed on your system.
perl: warning: Falling back to the standard locale ("C").
perl: warning: Setting locale failed.
perl: warning: Please check that your locale settings:
	LANGUAGE = (unset),
	LC_ALL = (unset),
	LC_COLLATE = "C",
	LC_MESSAGES = "C",
	LANG = "it_IT.UTF-8"
    are supported and installed on your system.
perl: warning: Falling back to the standard locale ("C").
perl: warning: Setting locale failed.
perl: warning: Please check that your locale settings:
	LANGUAGE = (unset),
	LC_ALL = (unset),
	LC_COLLATE = "C",
	LC_MESSAGES = "C",
	LANG = "it_IT.UTF-8"
    are supported and installed on your system.
perl: warning: Falling back to the standard locale ("C").
perl: warning: Setting locale failed.
perl: warning: Please check that your locale settings:
	LANGUAGE = (unset),
	LC_ALL = (unset),
	LC_COLLATE = "C",
	LC_MESSAGES = "C",
	LANG = "it_IT.UTF-8"
    are supported and installed on your system.
perl: warning: Falling back to the standard locale ("C").
cp Keysyms.pm blib/lib/X11/Keysyms.pm
cp Protocol/Ext/BIG_REQUESTS.pm blib/lib/X11/Protocol/Ext/BIG_REQUESTS.pm
cp Protocol/Connection.pm blib/lib/X11/Protocol/Connection.pm
cp Protocol.pm blib/lib/X11/Protocol.pm
cp Protocol/Connection/UNIXSocket.pm blib/lib/X11/Protocol/Connection/UNIXSocket.pm
cp Auth.pm blib/lib/X11/Auth.pm
cp Protocol/Connection/FileHandle.pm blib/lib/X11/Protocol/Connection/FileHandle.pm
cp Protocol/Ext/RENDER.pm blib/lib/X11/Protocol/Ext/RENDER.pm
cp Protocol/Ext/XC_MISC.pm blib/lib/X11/Protocol/Ext/XC_MISC.pm
cp Protocol/Constants.pm blib/lib/X11/Protocol/Constants.pm
cp Protocol/Connection/UNIXFH.pm blib/lib/X11/Protocol/Connection/UNIXFH.pm
cp Protocol/Connection/INETFH.pm blib/lib/X11/Protocol/Connection/INETFH.pm
cp Protocol/Connection/INETSocket.pm blib/lib/X11/Protocol/Connection/INETSocket.pm
cp Protocol/Connection/Socket.pm blib/lib/X11/Protocol/Connection/Socket.pm
cp Protocol/Ext/SHAPE.pm blib/lib/X11/Protocol/Ext/SHAPE.pm
cp Protocol/Ext/DPMS.pm blib/lib/X11/Protocol/Ext/DPMS.pm
cp Protocol/Ext/XFree86_Misc.pm blib/lib/X11/Protocol/Ext/XFree86_Misc.pm
>>> Source compiled.
 [32;01m*[0m Skipping make test/check due to ebuild restriction.
>>> Test phase [disabled because of RESTRICT=test]: dev-perl/X11-Protocol-0.560.0-r2

>>> Install dev-perl/X11-Protocol-0.560.0-r2 into /tmp/portage/dev-perl/X11-Protocol-0.560.0-r2/image/
make -j12 pure_install 
perl: warning: Setting locale failed.
perl: warning: Please check that your locale settings:
	LANGUAGE = (unset),
	LC_ALL = (unset),
	LC_COLLATE = "C",
	LC_MESSAGES = "C",
	LANG = "it_IT.UTF-8"
    are supported and installed on your system.
perl: warning: Falling back to the standard locale ("C").
Installing /tmp/portage/dev-perl/X11-Protocol-0.560.0-r2/image/usr/lib64/perl5/vendor_perl/5.30.2/X11/Auth.pm
Installing /tmp/portage/dev-perl/X11-Protocol-0.560.0-r2/image/usr/lib64/perl5/vendor_perl/5.30.2/X11/Protocol.pm
Installing /tmp/portage/dev-perl/X11-Protocol-0.560.0-r2/image/usr/lib64/perl5/vendor_perl/5.30.2/X11/Keysyms.pm
Installing /tmp/portage/dev-perl/X11-Protocol-0.560.0-r2/image/usr/lib64/perl5/vendor_perl/5.30.2/X11/Protocol/Connection.pm
Installing /tmp/portage/dev-perl/X11-Protocol-0.560.0-r2/image/usr/lib64/perl5/vendor_perl/5.30.2/X11/Protocol/Constants.pm
Installing /tmp/portage/dev-perl/X11-Protocol-0.560.0-r2/image/usr/lib64/perl5/vendor_perl/5.30.2/X11/Protocol/Ext/BIG_REQUESTS.pm
Installing /tmp/portage/dev-perl/X11-Protocol-0.560.0-r2/image/usr/lib64/perl5/vendor_perl/5.30.2/X11/Protocol/Ext/SHAPE.pm
Installing /tmp/portage/dev-perl/X11-Protocol-0.560.0-r2/image/usr/lib64/perl5/vendor_perl/5.30.2/X11/Protocol/Ext/XC_MISC.pm
Installing /tmp/portage/dev-perl/X11-Protocol-0.560.0-r2/image/usr/lib64/perl5/vendor_perl/5.30.2/X11/Protocol/Ext/DPMS.pm
Installing /tmp/portage/dev-perl/X11-Protocol-0.560.0-r2/image/usr/lib64/perl5/vendor_perl/5.30.2/X11/Protocol/Ext/XFree86_Misc.pm
Installing /tmp/portage/dev-perl/X11-Protocol-0.560.0-r2/image/usr/lib64/perl5/vendor_perl/5.30.2/X11/Protocol/Ext/RENDER.pm
Installing /tmp/portage/dev-perl/X11-Protocol-0.560.0-r2/image/usr/lib64/perl5/vendor_perl/5.30.2/X11/Protocol/Connection/Socket.pm
Installing /tmp/portage/dev-perl/X11-Protocol-0.560.0-r2/image/usr/lib64/perl5/vendor_perl/5.30.2/X11/Protocol/Connection/UNIXSocket.pm
Installing /tmp/portage/dev-perl/X11-Protocol-0.560.0-r2/image/usr/lib64/perl5/vendor_perl/5.30.2/X11/Protocol/Connection/UNIXFH.pm
Installing /tmp/portage/dev-perl/X11-Protocol-0.560.0-r2/image/usr/lib64/perl5/vendor_perl/5.30.2/X11/Protocol/Connection/INETFH.pm
Installing /tmp/portage/dev-perl/X11-Protocol-0.560.0-r2/image/usr/lib64/perl5/vendor_perl/5.30.2/X11/Protocol/Connection/FileHandle.pm
Installing /tmp/portage/dev-perl/X11-Protocol-0.560.0-r2/image/usr/lib64/perl5/vendor_perl/5.30.2/X11/Protocol/Connection/INETSocket.pm
 [32;01m*[0m Fixing packlist file /usr/lib64/perl5/vendor_perl/5.30.2/x86_64-linux/auto/X11/Protocol/.packlist
>>> Completed installing dev-perl/X11-Protocol-0.560.0-r2 into /tmp/portage/dev-perl/X11-Protocol-0.560.0-r2/image/

 [32;01m*[0m Final size of build directory: 872 KiB
 [32;01m*[0m Final size of installed tree:  352 KiB

./
./usr/
./usr/share/
./usr/share/doc/
./usr/share/doc/X11-Protocol-0.560.0-r2/
./usr/share/doc/X11-Protocol-0.560.0-r2/README.bz2
./usr/share/doc/X11-Protocol-0.560.0-r2/Changes.bz2
./usr/lib64/
./usr/lib64/perl5/
./usr/lib64/perl5/vendor_perl/
./usr/lib64/perl5/vendor_perl/5.30.2/
./usr/lib64/perl5/vendor_perl/5.30.2/x86_64-linux/
./usr/lib64/perl5/vendor_perl/5.30.2/x86_64-linux/auto/
./usr/lib64/perl5/vendor_perl/5.30.2/x86_64-linux/auto/X11/
./usr/lib64/perl5/vendor_perl/5.30.2/x86_64-linux/auto/X11/Protocol/
./usr/lib64/perl5/vendor_perl/5.30.2/x86_64-linux/auto/X11/Protocol/.packlist
./usr/lib64/perl5/vendor_perl/5.30.2/X11/
./usr/lib64/perl5/vendor_perl/5.30.2/X11/Auth.pm
./usr/lib64/perl5/vendor_perl/5.30.2/X11/Protocol.pm
./usr/lib64/perl5/vendor_perl/5.30.2/X11/Protocol/
./usr/lib64/perl5/vendor_perl/5.30.2/X11/Protocol/Connection.pm
./usr/lib64/perl5/vendor_perl/5.30.2/X11/Protocol/Ext/
./usr/lib64/perl5/vendor_perl/5.30.2/X11/Protocol/Ext/BIG_REQUESTS.pm
./usr/lib64/perl5/vendor_perl/5.30.2/X11/Protocol/Ext/SHAPE.pm
./usr/lib64/perl5/vendor_perl/5.30.2/X11/Protocol/Ext/XC_MISC.pm
./usr/lib64/perl5/vendor_perl/5.30.2/X11/Protocol/Ext/DPMS.pm
./usr/lib64/perl5/vendor_perl/5.30.2/X11/Protocol/Ext/XFree86_Misc.pm
./usr/lib64/perl5/vendor_perl/5.30.2/X11/Protocol/Ext/RENDER.pm
./usr/lib64/perl5/vendor_perl/5.30.2/X11/Protocol/Connection/
./usr/lib64/perl5/vendor_perl/5.30.2/X11/Protocol/Connection/Socket.pm
./usr/lib64/perl5/vendor_perl/5.30.2/X11/Protocol/Connection/UNIXSocket.pm
./usr/lib64/perl5/vendor_perl/5.30.2/X11/Protocol/Connection/UNIXFH.pm
./usr/lib64/perl5/vendor_perl/5.30.2/X11/Protocol/Connection/INETFH.pm
./usr/lib64/perl5/vendor_perl/5.30.2/X11/Protocol/Connection/FileHandle.pm
./usr/lib64/perl5/vendor_perl/5.30.2/X11/Protocol/Connection/INETSocket.pm
./usr/lib64/perl5/vendor_perl/5.30.2/X11/Protocol/Constants.pm
./usr/lib64/perl5/vendor_perl/5.30.2/X11/Keysyms.pm
>>> Done.
 [32;01m*[39;49;00m checking 20 files for package collisions
>>> Merging dev-perl/X11-Protocol-0.560.0-r2 to /
--- /usr/
--- /usr/lib64/
--- /usr/lib64/perl5/
--- /usr/lib64/perl5/vendor_perl/
--- /usr/lib64/perl5/vendor_perl/5.30.2/
>>> /usr/lib64/perl5/vendor_perl/5.30.2/X11/
>>> /usr/lib64/perl5/vendor_perl/5.30.2/X11/Keysyms.pm
>>> /usr/lib64/perl5/vendor_perl/5.30.2/X11/Protocol/
>>> /usr/lib64/perl5/vendor_perl/5.30.2/X11/Protocol/Constants.pm
>>> /usr/lib64/perl5/vendor_perl/5.30.2/X11/Protocol/Connection/
>>> /usr/lib64/perl5/vendor_perl/5.30.2/X11/Protocol/Connection/INETSocket.pm
>>> /usr/lib64/perl5/vendor_perl/5.30.2/X11/Protocol/Connection/FileHandle.pm
>>> /usr/lib64/perl5/vendor_perl/5.30.2/X11/Protocol/Connection/INETFH.pm
>>> /usr/lib64/perl5/vendor_perl/5.30.2/X11/Protocol/Connection/UNIXFH.pm
>>> /usr/lib64/perl5/vendor_perl/5.30.2/X11/Protocol/Connection/UNIXSocket.pm
>>> /usr/lib64/perl5/vendor_perl/5.30.2/X11/Protocol/Connection/Socket.pm
>>> /usr/lib64/perl5/vendor_perl/5.30.2/X11/Protocol/Ext/
>>> /usr/lib64/perl5/vendor_perl/5.30.2/X11/Protocol/Ext/RENDER.pm
>>> /usr/lib64/perl5/vendor_perl/5.30.2/X11/Protocol/Ext/XFree86_Misc.pm
>>> /usr/lib64/perl5/vendor_perl/5.30.2/X11/Protocol/Ext/DPMS.pm
>>> /usr/lib64/perl5/vendor_perl/5.30.2/X11/Protocol/Ext/XC_MISC.pm
>>> /usr/lib64/perl5/vendor_perl/5.30.2/X11/Protocol/Ext/SHAPE.pm
>>> /usr/lib64/perl5/vendor_perl/5.30.2/X11/Protocol/Ext/BIG_REQUESTS.pm
>>> /usr/lib64/perl5/vendor_perl/5.30.2/X11/Protocol/Connection.pm
>>> /usr/lib64/perl5/vendor_perl/5.30.2/X11/Protocol.pm
>>> /usr/lib64/perl5/vendor_perl/5.30.2/X11/Auth.pm
--- /usr/lib64/perl5/vendor_perl/5.30.2/x86_64-linux/
--- /usr/lib64/perl5/vendor_perl/5.30.2/x86_64-linux/auto/
>>> /usr/lib64/perl5/vendor_perl/5.30.2/x86_64-linux/auto/X11/
>>> /usr/lib64/perl5/vendor_perl/5.30.2/x86_64-linux/auto/X11/Protocol/
>>> /usr/lib64/perl5/vendor_perl/5.30.2/x86_64-linux/auto/X11/Protocol/.packlist
--- /usr/share/
--- /usr/share/doc/
>>> /usr/share/doc/X11-Protocol-0.560.0-r2/
>>> /usr/share/doc/X11-Protocol-0.560.0-r2/Changes.bz2
>>> /usr/share/doc/X11-Protocol-0.560.0-r2/README.bz2
>>> dev-perl/X11-Protocol-0.560.0-r2 merged.
>>> Regenerating /etc/ld.so.cache...
