 * Package:    dev-java/ant-core-1.10.7-r1
 * Repository: gentoo
 * Maintainer: java@gentoo.org
 * USE:        abi_x86_64 amd64 elibc_glibc kernel_linux source userland_GNU
 * FEATURES:   ccache network-sandbox preserve-libs sandbox userpriv usersandbox
 * /etc/portage/package.cflags/ltoworkarounds.conf -> dev-java/ant-core: *FLAGS-=-flto*
 * FEATURES='assume-digests binpkg-docompress binpkg-dostrip binpkg-logs binpkg-multi-instance buildpkg ccache cgroup collision-protect compress-index config-protect-if-modified distlocks downgrade-backup fixlafiles ipc-sandbox merge-sync multilib-strict network-sandbox news nodoc parallel-fetch parallel-install pid-sandbox preserve-libs protect-owned qa-unresolved-soname-deps sandbox sfperms strict strict-keepdir unknown-features-warn unmerge-backup unmerge-logs unmerge-orphans userfetch userpriv usersandbox usersync xattr'
 * CFLAGS='-march=native -O2 -pipe -pipe -g0 -Wl,-O1 -Wl,--as-needed -Wl,--hash-style=gnu,-z,norelro,--as-needed'
 * CXXFLAGS='-march=native -O2 -pipe -pipe -g0 -Wl,-O1 -Wl,--as-needed -Wl,--hash-style=gnu,-z,norelro,--as-needed'
 * FFLAGS='-march=native -O2 -pipe -pipe -g0 -Wl,-O1 -Wl,--as-needed -Wl,--hash-style=gnu,-z,norelro,--as-needed'
 * FCFLAGS='-march=native -O2 -pipe -pipe -g0 -Wl,-O1 -Wl,--as-needed -Wl,--hash-style=gnu,-z,norelro,--as-needed'
 * F77FLAGS='-march=native -O2 -pipe -pipe -g0 -Wl,-O1 -Wl,--as-needed -Wl,--hash-style=gnu,-z,norelro,--as-needed'
 * LDFLAGS='-Wl,-O1 -Wl,--as-needed -Wl,--hash-style=gnu,-z,norelro,--as-needed'
 * MAKEOPTS='-j12 -l12'
 * gcc (Gentoo 10.1.0 p1) 10.1.0
 * g++ (Gentoo 10.1.0 p1) 10.1.0
 * GNU ld (Gentoo 9999 p5) 2.34.50.20200520
 * Linux ryzen.gnum.org 5.4.36 #1 SMP Thu Apr 30 04:38:28 UTC 2020 x86_64 AMD Ryzen 5 3600 6-Core Processor AuthenticAMD GNU/Linux
]0;emerge 23:09:07 7|67 ant-core (root@ryzen.gnum.org)/usr/lib/python-exec/python3.8/java-config-2:202: SyntaxWarning: "is" with a literal. Did you mean "=="?
  if os.getuid() is 0:
/usr/lib/python-exec/python3.8/java-config-2:230: SyntaxWarning: "is" with a literal. Did you mean "=="?
  if os.getuid() is 0:
/usr/lib/python-exec/python3.8/java-config-2:255: SyntaxWarning: "is" with a literal. Did you mean "=="?
  if os.getuid() is 0:
/usr/lib/python-exec/python3.8/java-config-2:280: SyntaxWarning: "is" with a literal. Did you mean "=="?
  if os.getuid() is 0:
/usr/lib/python-exec/python3.8/java-config-2:202: SyntaxWarning: "is" with a literal. Did you mean "=="?
  if os.getuid() is 0:
/usr/lib/python-exec/python3.8/java-config-2:230: SyntaxWarning: "is" with a literal. Did you mean "=="?
  if os.getuid() is 0:
/usr/lib/python-exec/python3.8/java-config-2:255: SyntaxWarning: "is" with a literal. Did you mean "=="?
  if os.getuid() is 0:
/usr/lib/python-exec/python3.8/java-config-2:280: SyntaxWarning: "is" with a literal. Did you mean "=="?
  if os.getuid() is 0:
/usr/lib/python-exec/python3.8/java-config-2:202: SyntaxWarning: "is" with a literal. Did you mean "=="?
  if os.getuid() is 0:
/usr/lib/python-exec/python3.8/java-config-2:230: SyntaxWarning: "is" with a literal. Did you mean "=="?
  if os.getuid() is 0:
/usr/lib/python-exec/python3.8/java-config-2:255: SyntaxWarning: "is" with a literal. Did you mean "=="?
  if os.getuid() is 0:
/usr/lib/python-exec/python3.8/java-config-2:280: SyntaxWarning: "is" with a literal. Did you mean "=="?
  if os.getuid() is 0:
/usr/lib/python-exec/python3.8/java-config-2:202: SyntaxWarning: "is" with a literal. Did you mean "=="?
  if os.getuid() is 0:
/usr/lib/python-exec/python3.8/java-config-2:230: SyntaxWarning: "is" with a literal. Did you mean "=="?
  if os.getuid() is 0:
/usr/lib/python-exec/python3.8/java-config-2:255: SyntaxWarning: "is" with a literal. Did you mean "=="?
  if os.getuid() is 0:
/usr/lib/python-exec/python3.8/java-config-2:280: SyntaxWarning: "is" with a literal. Did you mean "=="?
  if os.getuid() is 0:
/usr/lib/python-exec/python3.8/java-config-2:202: SyntaxWarning: "is" with a literal. Did you mean "=="?
  if os.getuid() is 0:
/usr/lib/python-exec/python3.8/java-config-2:230: SyntaxWarning: "is" with a literal. Did you mean "=="?
  if os.getuid() is 0:
/usr/lib/python-exec/python3.8/java-config-2:255: SyntaxWarning: "is" with a literal. Did you mean "=="?
  if os.getuid() is 0:
/usr/lib/python-exec/python3.8/java-config-2:280: SyntaxWarning: "is" with a literal. Did you mean "=="?
  if os.getuid() is 0:
/usr/lib/python-exec/python3.8/java-config-2:202: SyntaxWarning: "is" with a literal. Did you mean "=="?
  if os.getuid() is 0:
/usr/lib/python-exec/python3.8/java-config-2:230: SyntaxWarning: "is" with a literal. Did you mean "=="?
  if os.getuid() is 0:
/usr/lib/python-exec/python3.8/java-config-2:255: SyntaxWarning: "is" with a literal. Did you mean "=="?
  if os.getuid() is 0:
/usr/lib/python-exec/python3.8/java-config-2:280: SyntaxWarning: "is" with a literal. Did you mean "=="?
  if os.getuid() is 0:
/usr/lib/python-exec/python3.8/java-config-2:202: SyntaxWarning: "is" with a literal. Did you mean "=="?
  if os.getuid() is 0:
/usr/lib/python-exec/python3.8/java-config-2:230: SyntaxWarning: "is" with a literal. Did you mean "=="?
  if os.getuid() is 0:
/usr/lib/python-exec/python3.8/java-config-2:255: SyntaxWarning: "is" with a literal. Did you mean "=="?
  if os.getuid() is 0:
/usr/lib/python-exec/python3.8/java-config-2:280: SyntaxWarning: "is" with a literal. Did you mean "=="?
  if os.getuid() is 0:
/usr/lib/python-exec/python3.8/java-config-2:202: SyntaxWarning: "is" with a literal. Did you mean "=="?
  if os.getuid() is 0:
/usr/lib/python-exec/python3.8/java-config-2:230: SyntaxWarning: "is" with a literal. Did you mean "=="?
  if os.getuid() is 0:
/usr/lib/python-exec/python3.8/java-config-2:255: SyntaxWarning: "is" with a literal. Did you mean "=="?
  if os.getuid() is 0:
/usr/lib/python-exec/python3.8/java-config-2:280: SyntaxWarning: "is" with a literal. Did you mean "=="?
  if os.getuid() is 0:
/usr/lib/python-exec/python3.8/java-config-2:202: SyntaxWarning: "is" with a literal. Did you mean "=="?
  if os.getuid() is 0:
/usr/lib/python-exec/python3.8/java-config-2:230: SyntaxWarning: "is" with a literal. Did you mean "=="?
  if os.getuid() is 0:
/usr/lib/python-exec/python3.8/java-config-2:255: SyntaxWarning: "is" with a literal. Did you mean "=="?
  if os.getuid() is 0:
/usr/lib/python-exec/python3.8/java-config-2:280: SyntaxWarning: "is" with a literal. Did you mean "=="?
  if os.getuid() is 0:
 * Using: icedtea-bin-8
>>> Unpacking source...
>>> Unpacking apache-ant-1.10.7-src.tar.bz2 to /tmp/portage/dev-java/ant-core-1.10.7-r1/work
>>> Unpacking ant-1.10.7-gentoo.tar.bz2 to /tmp/portage/dev-java/ant-core-1.10.7-r1/work
>>> Source unpacked in /tmp/portage/dev-java/ant-core-1.10.7-r1/work
>>> Preparing source in /tmp/portage/dev-java/ant-core-1.10.7-r1/work/apache-ant-1.10.7 ...
 * Applying 1.10.7-cmdline-args.patch ...
 [ ok ]
 * Applying 1.10.7-build.patch ...
 [ ok ]
 * Applying 1.10.7-launch.patch ...
 [ ok ]
 * Adjusting to prefix /
 *   ant ...
 [ ok ]
Rewriting build.xml
Rewriting attributes
Rewriting build.xml
 * Removing JDK9+ classes (Jmod and Link)
>>> Source prepared.
>>> Configuring source in /tmp/portage/dev-java/ant-core-1.10.7-r1/work/apache-ant-1.10.7 ...
Rewriting attributes
Rewriting ./build.xml
>>> Source configured.
>>> Compiling source in /tmp/portage/dev-java/ant-core-1.10.7-r1/work/apache-ant-1.10.7 ...
/usr/lib/python-exec/python3.8/java-config-2:202: SyntaxWarning: "is" with a literal. Did you mean "=="?
  if os.getuid() is 0:
/usr/lib/python-exec/python3.8/java-config-2:230: SyntaxWarning: "is" with a literal. Did you mean "=="?
  if os.getuid() is 0:
/usr/lib/python-exec/python3.8/java-config-2:255: SyntaxWarning: "is" with a literal. Did you mean "=="?
  if os.getuid() is 0:
/usr/lib/python-exec/python3.8/java-config-2:280: SyntaxWarning: "is" with a literal. Did you mean "=="?
  if os.getuid() is 0:
/usr/lib/python-exec/python3.8/java-config-2:202: SyntaxWarning: "is" with a literal. Did you mean "=="?
  if os.getuid() is 0:
/usr/lib/python-exec/python3.8/java-config-2:230: SyntaxWarning: "is" with a literal. Did you mean "=="?
  if os.getuid() is 0:
/usr/lib/python-exec/python3.8/java-config-2:255: SyntaxWarning: "is" with a literal. Did you mean "=="?
  if os.getuid() is 0:
/usr/lib/python-exec/python3.8/java-config-2:280: SyntaxWarning: "is" with a literal. Did you mean "=="?
  if os.getuid() is 0:
... Bootstrapping Ant Distribution
... Compiling Ant Classes
Note: Some input files use or override a deprecated API.
Note: Recompile with -Xlint:deprecation for details.
... Copying Required Files
... Building Ant Distribution
Buildfile: /tmp/portage/dev-java/ant-core-1.10.7-r1/work/apache-ant-1.10.7/build.xml

bootstrap:

check-optional-packages:

prepare:
Copying 6 files to /tmp/portage/dev-java/ant-core-1.10.7-r1/work/apache-ant-1.10.7/build/classes
Copying 2 files to /tmp/portage/dev-java/ant-core-1.10.7-r1/work/apache-ant-1.10.7/build/classes

build-core:
Compiling 254 source files to /tmp/portage/dev-java/ant-core-1.10.7-r1/work/apache-ant-1.10.7/build/classes
Note: Some input files use or override a deprecated API.
Note: Recompile with -Xlint:deprecation for details.
Creating empty /tmp/portage/dev-java/ant-core-1.10.7-r1/work/apache-ant-1.10.7/build/classes/org/apache/tools/ant/taskdefs/modules/package-info.class

jars-prep:
Copying 2 files to /tmp/portage/dev-java/ant-core-1.10.7-r1/work/apache-ant-1.10.7/build

jar-launcher:
Building jar: /tmp/portage/dev-java/ant-core-1.10.7-r1/work/apache-ant-1.10.7/build/lib/ant-launcher.jar

jar-ant:
Building jar: /tmp/portage/dev-java/ant-core-1.10.7-r1/work/apache-ant-1.10.7/build/lib/ant.jar

jar-bootstrap:
Building jar: /tmp/portage/dev-java/ant-core-1.10.7-r1/work/apache-ant-1.10.7/build/lib/ant-bootstrap.jar

jars-core:

dist-lite-internal:
Created dir: /tmp/portage/dev-java/ant-core-1.10.7-r1/work/apache-ant-1.10.7/bootstrap
Created dir: /tmp/portage/dev-java/ant-core-1.10.7-r1/work/apache-ant-1.10.7/bootstrap/bin
Created dir: /tmp/portage/dev-java/ant-core-1.10.7-r1/work/apache-ant-1.10.7/bootstrap/lib
Copying 2 files to /tmp/portage/dev-java/ant-core-1.10.7-r1/work/apache-ant-1.10.7/bootstrap/lib
Copying 13 files to /tmp/portage/dev-java/ant-core-1.10.7-r1/work/apache-ant-1.10.7/bootstrap/bin

BUILD FAILED
/tmp/portage/dev-java/ant-core-1.10.7-r1/work/apache-ant-1.10.7/build.xml:931: The following error occurred while executing this line:
/tmp/portage/dev-java/ant-core-1.10.7-r1/work/apache-ant-1.10.7/build.xml:853: Could not create tempfile in /tmp

Total time: 2 seconds
... Failed Building Ant Distribution !
Bootstrap FAILED
 * ERROR: dev-java/ant-core-1.10.7-r1::gentoo failed (compile phase):
 *   build failed
 * 
 * Call stack:
 *     ebuild.sh, line 125:  Called src_compile
 *   environment, line 4328:  Called die
 * The specific snippet of code:
 *       CLASSPATH="$(java-config -t)" ./build.sh ${bsyscp} jars dist-internal $(use_doc javadocs) || die "build failed"
 * 
 * If you need support, post the output of `emerge --info '=dev-java/ant-core-1.10.7-r1::gentoo'`,
 * the complete build log and the output of `emerge -pqv '=dev-java/ant-core-1.10.7-r1::gentoo'`.
!!! When you file a bug report, please include the following information:
GENTOO_VM=icedtea-bin-8  CLASSPATH="" JAVA_HOME="/opt/icedtea-bin-3.16.0"
JAVACFLAGS="-source 1.8 -target 1.8" COMPILER=""
and of course, the output of emerge --info =ant-core-1.10.7
 * The complete build log is located at '/var/log/emerge-log/dev-java:ant-core-1.10.7-r1:20200523-210905.log'.
 * For convenience, a symlink to the build log is located at '/tmp/portage/dev-java/ant-core-1.10.7-r1/temp/build.log'.
 * The ebuild environment file is located at '/tmp/portage/dev-java/ant-core-1.10.7-r1/temp/environment'.
 * Working directory: '/tmp/portage/dev-java/ant-core-1.10.7-r1/work/apache-ant-1.10.7'
 * S: '/tmp/portage/dev-java/ant-core-1.10.7-r1/work/apache-ant-1.10.7'
