No package files given... Grabbing a set.
--- replaced obj /usr/share/man/man1/qtchooser.1.bz2
--- replaced dir /usr/share/man/man1
--- replaced dir /usr/share/man
--- replaced dir /usr/share
--- replaced sym /usr/bin/xmlpatternsvalidator
--- replaced sym /usr/bin/xmlpatterns
--- replaced sym /usr/bin/uic3
--- replaced sym /usr/bin/uic
--- replaced sym /usr/bin/repc
--- replaced sym /usr/bin/rcc
--- replaced sym /usr/bin/qvkgen
--- replaced sym /usr/bin/qtplugininfo
--- replaced sym /usr/bin/qtpaths
--- replaced sym /usr/bin/qtdiag
--- replaced sym /usr/bin/qtconfig
--- replaced obj /usr/bin/qtchooser
--- replaced sym /usr/bin/qtattributionsscanner
--- replaced sym /usr/bin/qmlviewer
--- replaced sym /usr/bin/qmltestrunner
--- replaced sym /usr/bin/qmlscene
--- replaced sym /usr/bin/qmlprofiler
--- replaced sym /usr/bin/qmlplugindump
--- replaced sym /usr/bin/qmlmin
--- replaced sym /usr/bin/qmllint
--- replaced sym /usr/bin/qmljs
--- replaced sym /usr/bin/qmlimportscanner
--- replaced sym /usr/bin/qmleasing
--- replaced sym /usr/bin/qmlcachegen
--- replaced sym /usr/bin/qmlbundle
--- replaced sym /usr/bin/qml1plugindump
--- replaced sym /usr/bin/qml
--- replaced sym /usr/bin/qmake
--- replaced sym /usr/bin/qlalr
--- replaced sym /usr/bin/qhelpgenerator
--- replaced sym /usr/bin/qhelpconverter
--- replaced sym /usr/bin/qgltf
--- replaced sym /usr/bin/qdoc3
--- replaced sym /usr/bin/qdoc
--- replaced sym /usr/bin/qdbusxml2cpp
--- replaced sym /usr/bin/qdbusviewer
--- replaced sym /usr/bin/qdbuscpp2xml
--- replaced sym /usr/bin/qdbus
--- replaced sym /usr/bin/qcollectiongenerator
--- replaced sym /usr/bin/pixeltool
--- replaced sym /usr/bin/moc
--- replaced sym /usr/bin/lupdate
--- replaced sym /usr/bin/lrelease
--- replaced sym /usr/bin/linguist
--- replaced sym /usr/bin/lconvert
--- replaced sym /usr/bin/designer
--- replaced sym /usr/bin/assistant
--- replaced dir /usr/bin
--- replaced dir /usr
--- replaced obj /etc/xdg/qtchooser/.keep_dev-qt_qtchooser-0
--- replaced dir /etc/xdg/qtchooser
--- replaced dir /etc/xdg
--- replaced dir /etc
>>> Regenerating /etc/ld.so.cache...
