 * Package:    dev-perl/Test-NoWarnings-1.40.0-r3
 * Repository: gentoo
 * Maintainer: perl@gentoo.org
 * USE:        abi_x86_64 amd64 elibc_glibc kernel_linux userland_GNU
 * FEATURES:   ccache network-sandbox preserve-libs sandbox userpriv usersandbox
 * FEATURES='assume-digests binpkg-docompress binpkg-dostrip binpkg-logs binpkg-multi-instance buildpkg ccache compress-index config-protect-if-modified distlocks downgrade-backup fixlafiles ipc-sandbox merge-sync multilib-strict network-sandbox news nodoc parallel-fetch parallel-install pid-sandbox preserve-libs qa-unresolved-soname-deps sandbox sfperms strict unknown-features-warn unmerge-backup unmerge-logs unmerge-orphans userfetch userpriv usersandbox usersync xattr'
 * CFLAGS='-march=znver2 -O3 -fgraphite-identity -floop-nest-optimize -fdevirtualize-at-ltrans -fipa-pta -fno-semantic-interposition -flto=12 -fno-plt -fno-signed-zeros -fno-trapping-math -fassociative-math -freciprocal-math -fno-math-errno -ffinite-math-only -fno-rounding-math -fno-signaling-nans -fcx-limited-range -fexcess-precision=fast -falign-functions=32 -fno-stack-protector -fno-stack-clash-protection -fstack-check=no -fno-stack-check -fuse-linker-plugin -pipe -g0 -Wl,-O1 -Wl,--as-needed -Wl,-z,norelro -Wl,-z,now -Wl,--sort-common -s'
 * CXXFLAGS='-march=znver2 -O3 -fgraphite-identity -floop-nest-optimize -fdevirtualize-at-ltrans -fipa-pta -fno-semantic-interposition -flto=12 -fno-plt -fno-signed-zeros -fno-trapping-math -fassociative-math -freciprocal-math -fno-math-errno -ffinite-math-only -fno-rounding-math -fno-signaling-nans -fcx-limited-range -fexcess-precision=fast -falign-functions=32 -fno-stack-protector -fno-stack-clash-protection -fstack-check=no -fno-stack-check -fuse-linker-plugin -pipe -g0 -Wl,-O1 -Wl,--as-needed -Wl,-z,norelro -Wl,-z,now -Wl,--sort-common -s'
 * FFLAGS='-march=znver2 -O3 -fgraphite-identity -floop-nest-optimize -fdevirtualize-at-ltrans -fipa-pta -fno-semantic-interposition -flto=12 -fno-plt -fno-signed-zeros -fno-trapping-math -fassociative-math -freciprocal-math -fno-math-errno -ffinite-math-only -fno-rounding-math -fno-signaling-nans -fcx-limited-range -fexcess-precision=fast -falign-functions=32 -fno-stack-protector -fno-stack-clash-protection -fstack-check=no -fno-stack-check -fuse-linker-plugin -pipe -g0 -Wl,-O1 -Wl,--as-needed -Wl,-z,norelro -Wl,-z,now -Wl,--sort-common -s'
 * FCFLAGS='-march=znver2 -O3 -fgraphite-identity -floop-nest-optimize -fdevirtualize-at-ltrans -fipa-pta -fno-semantic-interposition -flto=12 -fno-plt -fno-signed-zeros -fno-trapping-math -fassociative-math -freciprocal-math -fno-math-errno -ffinite-math-only -fno-rounding-math -fno-signaling-nans -fcx-limited-range -fexcess-precision=fast -falign-functions=32 -fno-stack-protector -fno-stack-clash-protection -fstack-check=no -fno-stack-check -fuse-linker-plugin -pipe -g0 -Wl,-O1 -Wl,--as-needed -Wl,-z,norelro -Wl,-z,now -Wl,--sort-common -s'
 * F77FLAGS='-march=znver2 -O3 -fgraphite-identity -floop-nest-optimize -fdevirtualize-at-ltrans -fipa-pta -fno-semantic-interposition -flto=12 -fno-plt -fno-signed-zeros -fno-trapping-math -fassociative-math -freciprocal-math -fno-math-errno -ffinite-math-only -fno-rounding-math -fno-signaling-nans -fcx-limited-range -fexcess-precision=fast -falign-functions=32 -fno-stack-protector -fno-stack-clash-protection -fstack-check=no -fno-stack-check -fuse-linker-plugin -pipe -g0 -Wl,-O1 -Wl,--as-needed -Wl,-z,norelro -Wl,-z,now -Wl,--sort-common -s'
 * LDFLAGS='-Wl,-O1 -Wl,--as-needed -Wl,-z,norelro -Wl,-z,now -Wl,--sort-common -s -march=znver2 -O3 -fgraphite-identity -floop-nest-optimize -fdevirtualize-at-ltrans -fipa-pta -fno-semantic-interposition -flto=12 -fno-plt -fno-signed-zeros -fno-trapping-math -fassociative-math -freciprocal-math -fno-math-errno -ffinite-math-only -fno-rounding-math -fno-signaling-nans -fcx-limited-range -fexcess-precision=fast -falign-functions=32 -fno-stack-protector -fno-stack-clash-protection -fstack-check=no -fno-stack-check -fuse-linker-plugin -pipe -g0'
 * MAKEOPTS='-j12 -l12'
 * gcc () 11.0.0 20200530 (experimental)
 * g++ () 11.0.0 20200530 (experimental)
 * GNU ld (Gentoo 2.34 p4) 2.34.0
 * Linux ryzen.gnum.org 5.4.36 #1 SMP Thu Apr 30 04:38:28 UTC 2020 x86_64 AMD Ryzen 5 3600 6-Core Processor AuthenticAMD GNU/Linux
dev-perl/Test-NoWarnings: 5 seconds average for 2 merges
2020-05-15T04:06:59 >>> dev-perl/Test-NoWarnings: 7 seconds
2020-05-28T03:35:26 >>> dev-perl/Test-NoWarnings: 4 seconds
]0;emerge 17:45:03 1590853503:  === Unmerging... (dev-perl/XML-NamespaceSupport-1.120.0) Test-NoWarnings 00:06 (root@ryzen.gnum.org)kemerge 17:45:03 1590853503:  === Unmerging... (dev-perl/XML-NamespaceSupport-1.120.0) Test-NoWarnings 00:06 (root@ryzen.gnum.org)\>>> Unpacking source...
>>> Unpacking Test-NoWarnings-1.04.tar.gz to /tmp/portage/dev-perl/Test-NoWarnings-1.40.0-r3/work
>>> Source unpacked in /tmp/portage/dev-perl/Test-NoWarnings-1.40.0-r3/work
>>> Preparing source in /tmp/portage/dev-perl/Test-NoWarnings-1.40.0-r3/work/Test-NoWarnings-1.04 ...
>>> Source prepared.
>>> Configuring source in /tmp/portage/dev-perl/Test-NoWarnings-1.40.0-r3/work/Test-NoWarnings-1.04 ...
 * Using ExtUtils::MakeMaker
 * perl Makefile.PL PREFIX=/usr INSTALLDIRS=vendor INSTALLMAN3DIR=none DESTDIR=/tmp/portage/dev-perl/Test-NoWarnings-1.40.0-r3/image/
Checking if your kit is complete...
Looks good
Generating a Unix-style Makefile
Writing Makefile for Test::NoWarnings
Writing MYMETA.yml and MYMETA.json
>>> Source configured.
>>> Compiling source in /tmp/portage/dev-perl/Test-NoWarnings-1.40.0-r3/work/Test-NoWarnings-1.04 ...
 * emake OTHERLDFLAGS=-Wl,-O1 -Wl,--as-needed -Wl,-z,norelro -Wl,-z,now -Wl,--sort-common -s -march=znver2 -O3 -fgraphite-identity -floop-nest-optimize -fdevirtualize-at-ltrans -fipa-pta -fno-semantic-interposition -flto=12 -fno-plt -fno-signed-zeros -fno-trapping-math -fassociative-math -freciprocal-math -fno-math-errno -ffinite-math-only -fno-rounding-math -fno-signaling-nans -fcx-limited-range -fexcess-precision=fast -falign-functions=32 -fno-stack-protector -fno-stack-clash-protection -fstack-check=no -fno-stack-check -fuse-linker-plugin -pipe -g0
make -j12 -l12 'OTHERLDFLAGS=-Wl,-O1 -Wl,--as-needed -Wl,-z,norelro -Wl,-z,now -Wl,--sort-common -s -march=znver2 -O3 -fgraphite-identity -floop-nest-optimize -fdevirtualize-at-ltrans -fipa-pta -fno-semantic-interposition -flto=12 -fno-plt -fno-signed-zeros -fno-trapping-math -fassociative-math -freciprocal-math -fno-math-errno -ffinite-math-only -fno-rounding-math -fno-signaling-nans -fcx-limited-range -fexcess-precision=fast -falign-functions=32 -fno-stack-protector -fno-stack-clash-protection -fstack-check=no -fno-stack-check -fuse-linker-plugin -pipe -g0' 
>>> Source compiled.
>>> Test phase [not enabled]: dev-perl/Test-NoWarnings-1.40.0-r3

>>> Install dev-perl/Test-NoWarnings-1.40.0-r3 into /tmp/portage/dev-perl/Test-NoWarnings-1.40.0-r3/image/
make -j12 -l12 pure_install 
Installing /tmp/portage/dev-perl/Test-NoWarnings-1.40.0-r3/image/usr/lib64/perl5/vendor_perl/5.30.2/Test/NoWarnings.pm
Installing /tmp/portage/dev-perl/Test-NoWarnings-1.40.0-r3/image/usr/lib64/perl5/vendor_perl/5.30.2/Test/NoWarnings/Warning.pm
>>> Completed installing dev-perl/Test-NoWarnings-1.40.0-r3 into /tmp/portage/dev-perl/Test-NoWarnings-1.40.0-r3/image/

 * Final size of build directory: 244 KiB
 * Final size of installed tree:   68 KiB

./
./usr/
./usr/share/
./usr/share/doc/
./usr/share/doc/Test-NoWarnings-1.40.0-r3/
./usr/share/doc/Test-NoWarnings-1.40.0-r3/README.bz2
./usr/share/doc/Test-NoWarnings-1.40.0-r3/Changes.bz2
./usr/lib64/
./usr/lib64/perl5/
./usr/lib64/perl5/vendor_perl/
./usr/lib64/perl5/vendor_perl/5.30.2/
./usr/lib64/perl5/vendor_perl/5.30.2/Test/
./usr/lib64/perl5/vendor_perl/5.30.2/Test/NoWarnings/
./usr/lib64/perl5/vendor_perl/5.30.2/Test/NoWarnings/Warning.pm
./usr/lib64/perl5/vendor_perl/5.30.2/Test/NoWarnings.pm
>>> Done.
 * checking 2 files for package collisions
>>> Merging dev-perl/Test-NoWarnings-1.40.0-r3 to /
 * removing unneeded *.la files
--- /usr/
--- /usr/lib64/
--- /usr/lib64/perl5/
--- /usr/lib64/perl5/vendor_perl/
--- /usr/lib64/perl5/vendor_perl/5.30.2/
--- /usr/lib64/perl5/vendor_perl/5.30.2/Test/
>>> /usr/lib64/perl5/vendor_perl/5.30.2/Test/NoWarnings.pm
--- /usr/lib64/perl5/vendor_perl/5.30.2/Test/NoWarnings/
>>> /usr/lib64/perl5/vendor_perl/5.30.2/Test/NoWarnings/Warning.pm
>>> Safely unmerging already-installed instance...
>>> Original instance of package unmerged safely.
>>> dev-perl/Test-NoWarnings-1.40.0-r3 merged.
