 * Package:    dev-perl/Test-Fatal-0.14.0
 * Repository: gentoo
 * Maintainer: perl@gentoo.org
 * USE:        abi_x86_64 amd64 elibc_glibc kernel_linux userland_GNU
 * FEATURES:   network-sandbox preserve-libs sandbox userpriv usersandbox
 * FEATURES='merge-sync ebuild-locks usersandbox sfperms userpriv usersync sandbox strict unmerge-logs network-sandbox ipc-sandbox binpkg-logs multilib-strict unmerge-orphans config-protect-if-modified strict-keepdir xattr qa-unresolved-soname-deps preserve-libs compress-index binpkg-dostrip nodoc news unknown-features-warn cgroup fixlafiles binpkg-docompress parallel-fetch buildpkg assume-digests userfetch pid-sandbox distlocks'
 * CFLAGS='-march=znver2 -Ofast -pipe -g0 -fno-common -fgraphite-identity -floop-interchange -floop-nest-optimize -floop-parallelize-all -ftree-parallelize-loops=12 -ftree-vectorize -fdevirtualize-at-ltrans -fipa-pta -fno-semantic-interposition -flto=12 -fno-plt -falign-functions=32 -fno-stack-protector -fno-stack-clash-protection -fstack-check=no -fno-stack-check -fuse-linker-plugin -Wl,-O1,--sort-common,--as-needed,-z,norelro,-z,now,-lgomp,-lpthread'
 * CXXFLAGS='-march=znver2 -Ofast -pipe -g0 -fno-common -fgraphite-identity -floop-interchange -floop-nest-optimize -floop-parallelize-all -ftree-parallelize-loops=12 -ftree-vectorize -fdevirtualize-at-ltrans -fipa-pta -fno-semantic-interposition -flto=12 -fno-plt -falign-functions=32 -fno-stack-protector -fno-stack-clash-protection -fstack-check=no -fno-stack-check -fuse-linker-plugin -Wl,-O1,--sort-common,--as-needed,-z,norelro,-z,now,-lgomp,-lpthread'
 * FFLAGS='-march=znver2 -Ofast -pipe -g0 -fno-common -fgraphite-identity -floop-interchange -floop-nest-optimize -floop-parallelize-all -ftree-parallelize-loops=12 -ftree-vectorize -fdevirtualize-at-ltrans -fipa-pta -fno-semantic-interposition -flto=12 -fno-plt -falign-functions=32 -fno-stack-protector -fno-stack-clash-protection -fstack-check=no -fno-stack-check -fuse-linker-plugin -Wl,-O1,--sort-common,--as-needed,-z,norelro,-z,now,-lgomp,-lpthread'
 * FCFLAGS='-march=znver2 -Ofast -pipe -g0 -fno-common -fgraphite-identity -floop-interchange -floop-nest-optimize -floop-parallelize-all -ftree-parallelize-loops=12 -ftree-vectorize -fdevirtualize-at-ltrans -fipa-pta -fno-semantic-interposition -flto=12 -fno-plt -falign-functions=32 -fno-stack-protector -fno-stack-clash-protection -fstack-check=no -fno-stack-check -fuse-linker-plugin -Wl,-O1,--sort-common,--as-needed,-z,norelro,-z,now,-lgomp,-lpthread'
 * F77FLAGS='-march=znver2 -Ofast -pipe -g0 -fno-common -fgraphite-identity -floop-interchange -floop-nest-optimize -floop-parallelize-all -ftree-parallelize-loops=12 -ftree-vectorize -fdevirtualize-at-ltrans -fipa-pta -fno-semantic-interposition -flto=12 -fno-plt -falign-functions=32 -fno-stack-protector -fno-stack-clash-protection -fstack-check=no -fno-stack-check -fuse-linker-plugin -Wl,-O1,--sort-common,--as-needed,-z,norelro,-z,now,-lgomp,-lpthread'
 * LDFLAGS='-Wl,-O1,--sort-common,--as-needed,-z,norelro,-z,now,-lgomp,-lpthread -march=znver2 -Ofast -pipe -g0 -fno-common -fgraphite-identity -floop-interchange -floop-nest-optimize -floop-parallelize-all -ftree-parallelize-loops=12 -ftree-vectorize -fdevirtualize-at-ltrans -fipa-pta -fno-semantic-interposition -flto=12 -fno-plt -falign-functions=32 -fno-stack-protector -fno-stack-clash-protection -fstack-check=no -fno-stack-check -fuse-linker-plugin'
 * MAKEOPTS='-j12 -l12'
 * gcc () 11.0.0 20200616 (experimental)
 * g++ () 11.0.0 20200616 (experimental)
 * GNU ld (Gentoo 2.34 p4) 2.34.0
 * Linux rescue 5.4.36 #1 SMP Thu Apr 30 04:38:28 UTC 2020 x86_64 AMD Ryzen 5 3600 6-Core Processor AuthenticAMD GNU/Linux
dev-perl/Test-Fatal: 8 seconds average for 23 merges
2020-05-15T04:06:47 >>> dev-perl/Test-Fatal: 6 seconds
2020-05-21T06:55:30 >>> dev-perl/Test-Fatal: 9 seconds
2020-05-23T14:26:34 >>> dev-perl/Test-Fatal: 10 seconds
2020-05-24T05:18:04 >>> dev-perl/Test-Fatal: 5 seconds
2020-05-24T16:40:19 >>> dev-perl/Test-Fatal: 5 seconds
2020-05-25T00:39:31 >>> dev-perl/Test-Fatal: 10 seconds
2020-05-25T23:11:11 >>> dev-perl/Test-Fatal: 10 seconds
2020-05-26T14:23:48 >>> dev-perl/Test-Fatal: 6 seconds
2020-05-27T02:00:48 >>> dev-perl/Test-Fatal: 6 seconds
2020-05-27T04:29:06 >>> dev-perl/Test-Fatal: 11 seconds
2020-05-28T03:10:32 >>> dev-perl/Test-Fatal: 7 seconds
2020-05-29T02:20:10 >>> dev-perl/Test-Fatal: 11 seconds
2020-05-29T12:43:02 >>> dev-perl/Test-Fatal: 11 seconds
2020-05-30T14:03:27 >>> dev-perl/Test-Fatal: 10 seconds
2020-06-01T03:31:58 >>> dev-perl/Test-Fatal: 12 seconds
2020-06-03T13:22:00 >>> dev-perl/Test-Fatal: 11 seconds
2020-06-04T14:08:16 >>> dev-perl/Test-Fatal: 14 seconds
2020-06-06T10:56:25 >>> dev-perl/Test-Fatal: 12 seconds
2020-06-12T01:53:49 >>> dev-perl/Test-Fatal: 5 seconds
2020-06-13T20:31:58 >>> dev-perl/Test-Fatal: 4 seconds
2020-06-15T14:09:52 >>> dev-perl/Test-Fatal: 5 seconds
2020-06-16T15:30:30 >>> dev-perl/Test-Fatal: 9 seconds
2020-06-17T15:05:21 >>> dev-perl/Test-Fatal: 9 seconds
]0;emerge 01:31:22 156|415 Test-Fatal 00:08 (root@rescue)>>> Unpacking source...
>>> Unpacking Test-Fatal-0.014.tar.gz to /tmp/portage/dev-perl/Test-Fatal-0.14.0/work
>>> Source unpacked in /tmp/portage/dev-perl/Test-Fatal-0.14.0/work
>>> Preparing source in /tmp/portage/dev-perl/Test-Fatal-0.14.0/work/Test-Fatal-0.014 ...
>>> Source prepared.
>>> Configuring source in /tmp/portage/dev-perl/Test-Fatal-0.14.0/work/Test-Fatal-0.014 ...
 * Using ExtUtils::MakeMaker
 * perl Makefile.PL PREFIX=/usr INSTALLDIRS=vendor INSTALLMAN3DIR=none DESTDIR=/tmp/portage/dev-perl/Test-Fatal-0.14.0/image/
Checking if your kit is complete...
Looks good
Generating a Unix-style Makefile
Writing Makefile for Test::Fatal
Writing MYMETA.yml and MYMETA.json
>>> Source configured.
>>> Compiling source in /tmp/portage/dev-perl/Test-Fatal-0.14.0/work/Test-Fatal-0.014 ...
 * emake OTHERLDFLAGS=-Wl,-O1,--sort-common,--as-needed,-z,norelro,-z,now,-lgomp,-lpthread -march=znver2 -Ofast -pipe -g0 -fno-common -fgraphite-identity -floop-interchange -floop-nest-optimize -floop-parallelize-all -ftree-parallelize-loops=12 -ftree-vectorize -fdevirtualize-at-ltrans -fipa-pta -fno-semantic-interposition -flto=12 -fno-plt -falign-functions=32 -fno-stack-protector -fno-stack-clash-protection -fstack-check=no -fno-stack-check -fuse-linker-plugin
make -j12 -l12 'OTHERLDFLAGS=-Wl,-O1,--sort-common,--as-needed,-z,norelro,-z,now,-lgomp,-lpthread -march=znver2 -Ofast -pipe -g0 -fno-common -fgraphite-identity -floop-interchange -floop-nest-optimize -floop-parallelize-all -ftree-parallelize-loops=12 -ftree-vectorize -fdevirtualize-at-ltrans -fipa-pta -fno-semantic-interposition -flto=12 -fno-plt -falign-functions=32 -fno-stack-protector -fno-stack-clash-protection -fstack-check=no -fno-stack-check -fuse-linker-plugin' 
cp lib/Test/Fatal.pm blib/lib/Test/Fatal.pm
>>> Source compiled.
 * Skipping make test/check due to ebuild restriction.
>>> Test phase [disabled because of RESTRICT=test]: dev-perl/Test-Fatal-0.14.0

>>> Install dev-perl/Test-Fatal-0.14.0 into /tmp/portage/dev-perl/Test-Fatal-0.14.0/image/
make -j12 -l12 pure_install 
Installing /tmp/portage/dev-perl/Test-Fatal-0.14.0/image/usr/lib64/perl5/vendor_perl/5.30.3/Test/Fatal.pm
 * Fixing packlist file /usr/lib64/perl5/vendor_perl/5.30.3/x86_64-linux-thread-multi/auto/Test/Fatal/.packlist
>>> Completed installing dev-perl/Test-Fatal-0.14.0 into /tmp/portage/dev-perl/Test-Fatal-0.14.0/image/

 * Final size of build directory: 288 KiB
 * Final size of installed tree:   80 KiB

Parallel BZIP2 v1.1.13 [Dec 18, 2015]
By: Jeff Gilchrist [http://compression.ca]
Major contributions: Yavor Nikolov [http://javornikolov.wordpress.com]
Uses libbzip2 by Julian Seward

         # CPUs: 11
   Load Average: 1.23
 BWT Block Size: 200 KB
File Block Size: 900 KB
 Maximum Memory: 1024 MB
-------------------------------------------
         File #: 1 of 1
     Input Name: compressme
    Output Name: compressme.bz2

     Input Size: 3895 bytes
Compressing data (no threads)...
Completed: 100%                 Output Size: 918 bytes
-------------------------------------------

     Wall Clock: 0.000960 seconds
Parallel BZIP2 v1.1.13 [Dec 18, 2015]
By: Jeff Gilchrist [http://compression.ca]
Major contributions: Yavor Nikolov [http://javornikolov.wordpress.com]
Uses libbzip2 by Julian Seward

         # CPUs: 11
   Load Average: 1.23
 BWT Block Size: 200 KB
File Block Size: 900 KB
 Maximum Memory: 1024 MB
-------------------------------------------
         File #: 1 of 1
     Input Name: /tmp/portage/dev-perl/Test-Fatal-0.14.0/image/usr/share/doc/Test-Fatal-0.14.0/Changes
    Output Name: /tmp/portage/dev-perl/Test-Fatal-0.14.0/image/usr/share/doc/Test-Fatal-0.14.0/Changes.bz2

     Input Size: 2004 bytes
Compressing data (no threads)...
Completed: 100%                 Output Size: 949 bytes
-------------------------------------------

     Wall Clock: 0.000836 seconds
Parallel BZIP2 v1.1.13 [Dec 18, 2015]
By: Jeff Gilchrist [http://compression.ca]
Major contributions: Yavor Nikolov [http://javornikolov.wordpress.com]
Uses libbzip2 by Julian Seward

         # CPUs: 11
   Load Average: 1.23
 BWT Block Size: 200 KB
File Block Size: 900 KB
 Maximum Memory: 1024 MB
-------------------------------------------
         File #: 1 of 1
     Input Name: /tmp/portage/dev-perl/Test-Fatal-0.14.0/image/usr/share/doc/Test-Fatal-0.14.0/README
    Output Name: /tmp/portage/dev-perl/Test-Fatal-0.14.0/image/usr/share/doc/Test-Fatal-0.14.0/README.bz2

     Input Size: 395 bytes
Compressing data (no threads)...
Completed: 100%                 Output Size: 329 bytes
-------------------------------------------

     Wall Clock: 0.000516 seconds
./
./usr/
./usr/share/
./usr/share/doc/
./usr/share/doc/Test-Fatal-0.14.0/
./usr/share/doc/Test-Fatal-0.14.0/README
./usr/share/doc/Test-Fatal-0.14.0/README.bz2
./usr/share/doc/Test-Fatal-0.14.0/Changes
./usr/share/doc/Test-Fatal-0.14.0/Changes.bz2
./usr/lib64/
./usr/lib64/perl5/
./usr/lib64/perl5/vendor_perl/
./usr/lib64/perl5/vendor_perl/5.30.3/
./usr/lib64/perl5/vendor_perl/5.30.3/x86_64-linux-thread-multi/
./usr/lib64/perl5/vendor_perl/5.30.3/x86_64-linux-thread-multi/auto/
./usr/lib64/perl5/vendor_perl/5.30.3/x86_64-linux-thread-multi/auto/Test/
./usr/lib64/perl5/vendor_perl/5.30.3/x86_64-linux-thread-multi/auto/Test/Fatal/
./usr/lib64/perl5/vendor_perl/5.30.3/x86_64-linux-thread-multi/auto/Test/Fatal/.packlist
./usr/lib64/perl5/vendor_perl/5.30.3/Test/
./usr/lib64/perl5/vendor_perl/5.30.3/Test/Fatal.pm
>>> Done.
 * checking 2 files for package collisions
>>> Merging dev-perl/Test-Fatal-0.14.0 to /
 * removing unneeded *.la files
--- /usr/
--- /usr/lib64/
--- /usr/lib64/perl5/
--- /usr/lib64/perl5/vendor_perl/
--- /usr/lib64/perl5/vendor_perl/5.30.3/
--- /usr/lib64/perl5/vendor_perl/5.30.3/Test/
>>> /usr/lib64/perl5/vendor_perl/5.30.3/Test/Fatal.pm
--- /usr/lib64/perl5/vendor_perl/5.30.3/x86_64-linux-thread-multi/
--- /usr/lib64/perl5/vendor_perl/5.30.3/x86_64-linux-thread-multi/auto/
--- /usr/lib64/perl5/vendor_perl/5.30.3/x86_64-linux-thread-multi/auto/Test/
--- /usr/lib64/perl5/vendor_perl/5.30.3/x86_64-linux-thread-multi/auto/Test/Fatal/
>>> /usr/lib64/perl5/vendor_perl/5.30.3/x86_64-linux-thread-multi/auto/Test/Fatal/.packlist
>>> Safely unmerging already-installed instance...
>>> Original instance of package unmerged safely.
>>> dev-perl/Test-Fatal-0.14.0 merged.
