No package files given... Grabbing a set.
--- replaced obj /usr/share/man/man1/sqlite3.1.bz2
--- replaced obj /usr/share/man/man1/sqlite3.1
--- replaced dir /usr/share/man/man1
--- replaced dir /usr/share/man
--- replaced dir /usr/share
--- replaced obj /usr/lib64/sqlite-3.31.1/pkgIndex.tcl
--- replaced obj /usr/lib64/sqlite-3.31.1/libtclsqlite3.so
--- replaced dir /usr/lib64/sqlite-3.31.1
--- replaced obj /usr/lib64/pkgconfig/sqlite3.pc
--- replaced dir /usr/lib64/pkgconfig
--- replaced obj /usr/lib64/libsqlite3.so.0.8.6
--- replaced sym /usr/lib64/libsqlite3.so.0
--- replaced sym /usr/lib64/libsqlite3.so
--- replaced dir /usr/lib64
--- replaced obj /usr/include/sqlite3ext.h
--- replaced obj /usr/include/sqlite3.h
--- replaced dir /usr/include
--- replaced obj /usr/bin/sqlite3-tclsh
--- replaced obj /usr/bin/sqlite3-show-wal
--- replaced obj /usr/bin/sqlite3-show-stat4
--- replaced obj /usr/bin/sqlite3-show-shm
--- replaced obj /usr/bin/sqlite3-show-journal
--- replaced obj /usr/bin/sqlite3-show-db
--- replaced obj /usr/bin/sqlite3-scrub
--- replaced obj /usr/bin/sqlite3-rbu
--- replaced obj /usr/bin/sqlite3-index-usage
--- replaced obj /usr/bin/sqlite3-expert
--- replaced obj /usr/bin/sqlite3-diff
--- replaced obj /usr/bin/sqlite3-db-to-txt
--- replaced obj /usr/bin/sqlite3-db-hash
--- replaced obj /usr/bin/sqlite3-db-dump
--- replaced obj /usr/bin/sqlite3-checker
--- replaced obj /usr/bin/sqlite3-changeset
--- replaced obj /usr/bin/sqlite3-analyzer
--- replaced obj /usr/bin/sqlite3
--- replaced dir /usr/bin
--- replaced dir /usr
>>> Regenerating /etc/ld.so.cache...
