No package files given... Grabbing a set.
--- replaced obj /usr/lib64/python2.7/site-packages/configparser.pyo
--- replaced obj /usr/lib64/python2.7/site-packages/configparser.pyc
--- replaced obj /usr/lib64/python2.7/site-packages/configparser.py
--- replaced obj /usr/lib64/python2.7/site-packages/configparser-3.5.0-py2.7.egg-info/top_level.txt
--- replaced obj /usr/lib64/python2.7/site-packages/configparser-3.5.0-py2.7.egg-info/not-zip-safe
--- replaced obj /usr/lib64/python2.7/site-packages/configparser-3.5.0-py2.7.egg-info/namespace_packages.txt
--- replaced obj /usr/lib64/python2.7/site-packages/configparser-3.5.0-py2.7.egg-info/dependency_links.txt
--- replaced obj /usr/lib64/python2.7/site-packages/configparser-3.5.0-py2.7.egg-info/SOURCES.txt
--- replaced obj /usr/lib64/python2.7/site-packages/configparser-3.5.0-py2.7.egg-info/PKG-INFO
--- replaced dir /usr/lib64/python2.7/site-packages/configparser-3.5.0-py2.7.egg-info
--- replaced obj /usr/lib64/python2.7/site-packages/backports/configparser/helpers.pyo
--- replaced obj /usr/lib64/python2.7/site-packages/backports/configparser/helpers.pyc
--- replaced obj /usr/lib64/python2.7/site-packages/backports/configparser/helpers.py
--- replaced obj /usr/lib64/python2.7/site-packages/backports/configparser/__init__.pyo
--- replaced obj /usr/lib64/python2.7/site-packages/backports/configparser/__init__.pyc
--- replaced obj /usr/lib64/python2.7/site-packages/backports/configparser/__init__.py
--- replaced dir /usr/lib64/python2.7/site-packages/backports/configparser
--- replaced dir /usr/lib64/python2.7/site-packages/backports
--- replaced dir /usr/lib64/python2.7/site-packages
--- replaced dir /usr/lib64/python2.7
--- replaced dir /usr/lib64
--- replaced dir /usr
>>> Regenerating /etc/ld.so.cache...
