No package files given... Grabbing a set.
<<<          obj /usr/lib64/perl5/vendor_perl/5.30.2/x86_64-linux/auto/SGMLSpm/.packlist
<<<          obj /usr/lib64/perl5/vendor_perl/5.30.2/sgmlspl-specs/skel.pl
<<<          obj /usr/lib64/perl5/vendor_perl/5.30.2/SGMLS/Refs.pm
<<<          obj /usr/lib64/perl5/vendor_perl/5.30.2/SGMLS/Output.pm
<<<          obj /usr/lib64/perl5/vendor_perl/5.30.2/SGMLS.pm
--- replaced dir /usr/lib64/perl5/vendor_perl
--- replaced dir /usr/lib64/perl5
--- replaced dir /usr/lib64
--- replaced obj /usr/bin/sgmlspl.pl
--- replaced sym /usr/bin/sgmlspl
--- replaced dir /usr/bin
--- replaced dir /usr
<<<          dir /usr/lib64/perl5/vendor_perl/5.30.2/x86_64-linux/auto/SGMLSpm
--- !empty   dir /usr/lib64/perl5/vendor_perl/5.30.2/x86_64-linux/auto
--- !empty   dir /usr/lib64/perl5/vendor_perl/5.30.2/x86_64-linux
<<<          dir /usr/lib64/perl5/vendor_perl/5.30.2/sgmlspl-specs
<<<          dir /usr/lib64/perl5/vendor_perl/5.30.2/SGMLS
--- !empty   dir /usr/lib64/perl5/vendor_perl/5.30.2
>>> Regenerating /etc/ld.so.cache...
