No package files given... Grabbing a set.
--- replaced obj /usr/share/man/man7/yasm_parsers.7.bz2
--- replaced obj /usr/share/man/man7/yasm_objfmts.7.bz2
--- replaced obj /usr/share/man/man7/yasm_dbgfmts.7.bz2
--- replaced obj /usr/share/man/man7/yasm_arch.7.bz2
--- replaced dir /usr/share/man/man7
--- replaced obj /usr/share/man/man1/yasm.1.bz2
--- replaced dir /usr/share/man/man1
--- replaced dir /usr/share/man
--- replaced dir /usr/share
--- replaced obj /usr/lib64/python2.7/site-packages/yasm.so
--- replaced obj /usr/lib64/python2.7/site-packages/yasm-0.0-py2.7.egg-info
--- replaced dir /usr/lib64/python2.7/site-packages
--- replaced dir /usr/lib64/python2.7
--- replaced obj /usr/lib64/libyasm.a
--- replaced dir /usr/lib64
--- replaced obj /usr/include/libyasm/value.h
--- replaced obj /usr/include/libyasm/valparam.h
--- replaced obj /usr/include/libyasm/symrec.h
--- replaced obj /usr/include/libyasm/section.h
--- replaced obj /usr/include/libyasm/preproc.h
--- replaced obj /usr/include/libyasm/phash.h
--- replaced obj /usr/include/libyasm/parser.h
--- replaced obj /usr/include/libyasm/objfmt.h
--- replaced obj /usr/include/libyasm/module.h
--- replaced obj /usr/include/libyasm/md5.h
--- replaced obj /usr/include/libyasm/listfmt.h
--- replaced obj /usr/include/libyasm/linemap.h
--- replaced obj /usr/include/libyasm/inttree.h
--- replaced obj /usr/include/libyasm/intnum.h
--- replaced obj /usr/include/libyasm/insn.h
--- replaced obj /usr/include/libyasm/hamt.h
--- replaced obj /usr/include/libyasm/floatnum.h
--- replaced obj /usr/include/libyasm/file.h
--- replaced obj /usr/include/libyasm/expr.h
--- replaced obj /usr/include/libyasm/errwarn.h
--- replaced obj /usr/include/libyasm/dbgfmt.h
--- replaced obj /usr/include/libyasm/coretype.h
--- replaced obj /usr/include/libyasm/compat-queue.h
--- replaced obj /usr/include/libyasm/bytecode.h
--- replaced obj /usr/include/libyasm/bitvect.h
--- replaced obj /usr/include/libyasm/assocdat.h
--- replaced obj /usr/include/libyasm/arch.h
--- replaced obj /usr/include/libyasm.h
--- replaced obj /usr/include/libyasm-stdint.h
--- replaced dir /usr/include/libyasm
--- replaced dir /usr/include
--- replaced obj /usr/bin/ytasm
--- replaced obj /usr/bin/yasm
--- replaced obj /usr/bin/vsyasm
--- replaced dir /usr/bin
--- replaced dir /usr
>>> Regenerating /etc/ld.so.cache...
