No package files given... Grabbing a set.
--- replaced obj /usr/lib64/qt5/plugins/bearer/libqgenericbearer.so
--- replaced dir /usr/lib64/qt5/plugins/bearer
--- replaced dir /usr/lib64/qt5/plugins
--- replaced obj /usr/lib64/qt5/mkspecs/modules/qt_lib_network_private.pri
--- replaced obj /usr/lib64/qt5/mkspecs/modules/qt_lib_network.pri
--- replaced dir /usr/lib64/qt5/mkspecs/modules
--- replaced obj /usr/lib64/qt5/mkspecs/gentoo/qtnetwork-qmodule.pri
--- replaced obj /usr/lib64/qt5/mkspecs/gentoo/qtnetwork-qconfig.pri
--- replaced dir /usr/lib64/qt5/mkspecs/gentoo
--- replaced dir /usr/lib64/qt5/mkspecs
--- replaced dir /usr/lib64/qt5
--- replaced obj /usr/lib64/pkgconfig/Qt5Network.pc
--- replaced dir /usr/lib64/pkgconfig
--- replaced obj /usr/lib64/libQt5Network.so.5.15.0
--- replaced sym /usr/lib64/libQt5Network.so.5.15
--- replaced sym /usr/lib64/libQt5Network.so.5
--- replaced sym /usr/lib64/libQt5Network.so
--- replaced obj /usr/lib64/libQt5Network.prl
--- replaced obj /usr/lib64/cmake/Qt5Network/Qt5Network_QGenericEnginePlugin.cmake
--- replaced obj /usr/lib64/cmake/Qt5Network/Qt5NetworkConfigVersion.cmake
--- replaced obj /usr/lib64/cmake/Qt5Network/Qt5NetworkConfig.cmake
--- replaced dir /usr/lib64/cmake/Qt5Network
--- replaced dir /usr/lib64/cmake
--- replaced dir /usr/lib64
--- replaced obj /usr/include/qt5/QtNetwork/qudpsocket.h
--- replaced obj /usr/include/qt5/QtNetwork/qtnetworkversion.h
--- replaced obj /usr/include/qt5/QtNetwork/qtnetworkglobal.h
--- replaced obj /usr/include/qt5/QtNetwork/qtnetwork-config.h
--- replaced obj /usr/include/qt5/QtNetwork/qtcpsocket.h
--- replaced obj /usr/include/qt5/QtNetwork/qtcpserver.h
--- replaced obj /usr/include/qt5/QtNetwork/qsslsocket.h
--- replaced obj /usr/include/qt5/QtNetwork/qsslpresharedkeyauthenticator.h
--- replaced obj /usr/include/qt5/QtNetwork/qsslkey.h
--- replaced obj /usr/include/qt5/QtNetwork/qsslerror.h
--- replaced obj /usr/include/qt5/QtNetwork/qsslellipticcurve.h
--- replaced obj /usr/include/qt5/QtNetwork/qssldiffiehellmanparameters.h
--- replaced obj /usr/include/qt5/QtNetwork/qsslconfiguration.h
--- replaced obj /usr/include/qt5/QtNetwork/qsslcipher.h
--- replaced obj /usr/include/qt5/QtNetwork/qsslcertificateextension.h
--- replaced obj /usr/include/qt5/QtNetwork/qsslcertificate.h
--- replaced obj /usr/include/qt5/QtNetwork/qssl.h
--- replaced obj /usr/include/qt5/QtNetwork/qsctpsocket.h
--- replaced obj /usr/include/qt5/QtNetwork/qsctpserver.h
--- replaced obj /usr/include/qt5/QtNetwork/qpassworddigestor.h
--- replaced obj /usr/include/qt5/QtNetwork/qocspresponse.h
--- replaced obj /usr/include/qt5/QtNetwork/qnetworksession.h
--- replaced obj /usr/include/qt5/QtNetwork/qnetworkrequest.h
--- replaced obj /usr/include/qt5/QtNetwork/qnetworkreply.h
--- replaced obj /usr/include/qt5/QtNetwork/qnetworkproxy.h
--- replaced obj /usr/include/qt5/QtNetwork/qnetworkinterface.h
--- replaced obj /usr/include/qt5/QtNetwork/qnetworkdiskcache.h
--- replaced obj /usr/include/qt5/QtNetwork/qnetworkdatagram.h
--- replaced obj /usr/include/qt5/QtNetwork/qnetworkcookiejar.h
--- replaced obj /usr/include/qt5/QtNetwork/qnetworkcookie.h
--- replaced obj /usr/include/qt5/QtNetwork/qnetworkconfiguration.h
--- replaced obj /usr/include/qt5/QtNetwork/qnetworkconfigmanager.h
--- replaced obj /usr/include/qt5/QtNetwork/qnetworkaccessmanager.h
--- replaced obj /usr/include/qt5/QtNetwork/qlocalsocket.h
--- replaced obj /usr/include/qt5/QtNetwork/qlocalserver.h
--- replaced obj /usr/include/qt5/QtNetwork/qhttpmultipart.h
--- replaced obj /usr/include/qt5/QtNetwork/qhttp2configuration.h
--- replaced obj /usr/include/qt5/QtNetwork/qhstspolicy.h
--- replaced obj /usr/include/qt5/QtNetwork/qhostinfo.h
--- replaced obj /usr/include/qt5/QtNetwork/qhostaddress.h
--- replaced obj /usr/include/qt5/QtNetwork/qdtls.h
--- replaced obj /usr/include/qt5/QtNetwork/qdnslookup.h
--- replaced obj /usr/include/qt5/QtNetwork/qauthenticator.h
--- replaced obj /usr/include/qt5/QtNetwork/qabstractsocket.h
--- replaced obj /usr/include/qt5/QtNetwork/qabstractnetworkcache.h
--- replaced obj /usr/include/qt5/QtNetwork/QtNetworkVersion
--- replaced obj /usr/include/qt5/QtNetwork/QtNetworkDepends
--- replaced obj /usr/include/qt5/QtNetwork/QtNetwork
--- replaced obj /usr/include/qt5/QtNetwork/Q_IPV6ADDR
--- replaced obj /usr/include/qt5/QtNetwork/QUdpSocket
--- replaced obj /usr/include/qt5/QtNetwork/QTcpSocket
--- replaced obj /usr/include/qt5/QtNetwork/QTcpServer
--- replaced obj /usr/include/qt5/QtNetwork/QSslSocket
--- replaced obj /usr/include/qt5/QtNetwork/QSslPreSharedKeyAuthenticator
--- replaced obj /usr/include/qt5/QtNetwork/QSslKey
--- replaced obj /usr/include/qt5/QtNetwork/QSslError
--- replaced obj /usr/include/qt5/QtNetwork/QSslEllipticCurve
--- replaced obj /usr/include/qt5/QtNetwork/QSslDiffieHellmanParameters
--- replaced obj /usr/include/qt5/QtNetwork/QSslConfiguration
--- replaced obj /usr/include/qt5/QtNetwork/QSslCipher
--- replaced obj /usr/include/qt5/QtNetwork/QSslCertificateExtension
--- replaced obj /usr/include/qt5/QtNetwork/QSslCertificate
--- replaced obj /usr/include/qt5/QtNetwork/QSsl
--- replaced obj /usr/include/qt5/QtNetwork/QSctpSocket
--- replaced obj /usr/include/qt5/QtNetwork/QSctpServer
--- replaced obj /usr/include/qt5/QtNetwork/QPasswordDigestor
--- replaced obj /usr/include/qt5/QtNetwork/QOcspResponse
--- replaced obj /usr/include/qt5/QtNetwork/QNetworkSession
--- replaced obj /usr/include/qt5/QtNetwork/QNetworkRequest
--- replaced obj /usr/include/qt5/QtNetwork/QNetworkReply
--- replaced obj /usr/include/qt5/QtNetwork/QNetworkProxyQuery
--- replaced obj /usr/include/qt5/QtNetwork/QNetworkProxyFactory
--- replaced obj /usr/include/qt5/QtNetwork/QNetworkProxy
--- replaced obj /usr/include/qt5/QtNetwork/QNetworkInterface
--- replaced obj /usr/include/qt5/QtNetwork/QNetworkDiskCache
--- replaced obj /usr/include/qt5/QtNetwork/QNetworkDatagram
--- replaced obj /usr/include/qt5/QtNetwork/QNetworkCookieJar
--- replaced obj /usr/include/qt5/QtNetwork/QNetworkCookie
--- replaced obj /usr/include/qt5/QtNetwork/QNetworkConfigurationManager
--- replaced obj /usr/include/qt5/QtNetwork/QNetworkConfiguration
--- replaced obj /usr/include/qt5/QtNetwork/QNetworkCacheMetaData
--- replaced obj /usr/include/qt5/QtNetwork/QNetworkAddressEntry
--- replaced obj /usr/include/qt5/QtNetwork/QNetworkAccessManager
--- replaced obj /usr/include/qt5/QtNetwork/QLocalSocket
--- replaced obj /usr/include/qt5/QtNetwork/QLocalServer
--- replaced obj /usr/include/qt5/QtNetwork/QIPv6Address
--- replaced obj /usr/include/qt5/QtNetwork/QHttpPart
--- replaced obj /usr/include/qt5/QtNetwork/QHttpMultiPart
--- replaced obj /usr/include/qt5/QtNetwork/QHttp2Configuration
--- replaced obj /usr/include/qt5/QtNetwork/QHstsPolicy
--- replaced obj /usr/include/qt5/QtNetwork/QHostInfo
--- replaced obj /usr/include/qt5/QtNetwork/QHostAddress
--- replaced obj /usr/include/qt5/QtNetwork/QDtlsClientVerifier
--- replaced obj /usr/include/qt5/QtNetwork/QDtls
--- replaced obj /usr/include/qt5/QtNetwork/QDnsTextRecord
--- replaced obj /usr/include/qt5/QtNetwork/QDnsServiceRecord
--- replaced obj /usr/include/qt5/QtNetwork/QDnsMailExchangeRecord
--- replaced obj /usr/include/qt5/QtNetwork/QDnsLookup
--- replaced obj /usr/include/qt5/QtNetwork/QDnsHostAddressRecord
--- replaced obj /usr/include/qt5/QtNetwork/QDnsDomainNameRecord
--- replaced obj /usr/include/qt5/QtNetwork/QAuthenticator
--- replaced obj /usr/include/qt5/QtNetwork/QAbstractSocket
--- replaced obj /usr/include/qt5/QtNetwork/QAbstractNetworkCache
--- replaced obj /usr/include/qt5/QtNetwork/5.15.0/QtNetwork/private/qwindowscarootfetcher_p.h
--- replaced obj /usr/include/qt5/QtNetwork/5.15.0/QtNetwork/private/qurlinfo_p.h
--- replaced obj /usr/include/qt5/QtNetwork/5.15.0/QtNetwork/private/qtnetworkglobal_p.h
--- replaced obj /usr/include/qt5/QtNetwork/5.15.0/QtNetwork/private/qtnetwork-config_p.h
--- replaced obj /usr/include/qt5/QtNetwork/5.15.0/QtNetwork/private/qtcpsocket_p.h
--- replaced obj /usr/include/qt5/QtNetwork/5.15.0/QtNetwork/private/qtcpserver_p.h
--- replaced obj /usr/include/qt5/QtNetwork/5.15.0/QtNetwork/private/qsslsocket_winrt_p.h
--- replaced obj /usr/include/qt5/QtNetwork/5.15.0/QtNetwork/private/qsslsocket_schannel_p.h
--- replaced obj /usr/include/qt5/QtNetwork/5.15.0/QtNetwork/private/qsslsocket_p.h
--- replaced obj /usr/include/qt5/QtNetwork/5.15.0/QtNetwork/private/qsslsocket_openssl_symbols_p.h
--- replaced obj /usr/include/qt5/QtNetwork/5.15.0/QtNetwork/private/qsslsocket_openssl_p.h
--- replaced obj /usr/include/qt5/QtNetwork/5.15.0/QtNetwork/private/qsslsocket_mac_p.h
--- replaced obj /usr/include/qt5/QtNetwork/5.15.0/QtNetwork/private/qsslpresharedkeyauthenticator_p.h
--- replaced obj /usr/include/qt5/QtNetwork/5.15.0/QtNetwork/private/qsslkey_p.h
--- replaced obj /usr/include/qt5/QtNetwork/5.15.0/QtNetwork/private/qssldiffiehellmanparameters_p.h
--- replaced obj /usr/include/qt5/QtNetwork/5.15.0/QtNetwork/private/qsslcontext_openssl_p.h
--- replaced obj /usr/include/qt5/QtNetwork/5.15.0/QtNetwork/private/qsslconfiguration_p.h
--- replaced obj /usr/include/qt5/QtNetwork/5.15.0/QtNetwork/private/qsslcipher_p.h
--- replaced obj /usr/include/qt5/QtNetwork/5.15.0/QtNetwork/private/qsslcertificateextension_p.h
--- replaced obj /usr/include/qt5/QtNetwork/5.15.0/QtNetwork/private/qsslcertificate_p.h
--- replaced obj /usr/include/qt5/QtNetwork/5.15.0/QtNetwork/private/qssl_p.h
--- replaced obj /usr/include/qt5/QtNetwork/5.15.0/QtNetwork/private/qspdyprotocolhandler_p.h
--- replaced obj /usr/include/qt5/QtNetwork/5.15.0/QtNetwork/private/qsocks5socketengine_p.h
--- replaced obj /usr/include/qt5/QtNetwork/5.15.0/QtNetwork/private/qsharednetworksession_p.h
--- replaced obj /usr/include/qt5/QtNetwork/5.15.0/QtNetwork/private/qsctpsocket_p.h
--- replaced obj /usr/include/qt5/QtNetwork/5.15.0/QtNetwork/private/qsctpserver_p.h
--- replaced obj /usr/include/qt5/QtNetwork/5.15.0/QtNetwork/private/qocspresponse_p.h
--- replaced obj /usr/include/qt5/QtNetwork/5.15.0/QtNetwork/private/qocsp_p.h
--- replaced obj /usr/include/qt5/QtNetwork/5.15.0/QtNetwork/private/qnetworksession_p.h
--- replaced obj /usr/include/qt5/QtNetwork/5.15.0/QtNetwork/private/qnetworkrequest_p.h
--- replaced obj /usr/include/qt5/QtNetwork/5.15.0/QtNetwork/private/qnetworkreplywasmimpl_p.h
--- replaced obj /usr/include/qt5/QtNetwork/5.15.0/QtNetwork/private/qnetworkreplyimpl_p.h
--- replaced obj /usr/include/qt5/QtNetwork/5.15.0/QtNetwork/private/qnetworkreplyhttpimpl_p.h
--- replaced obj /usr/include/qt5/QtNetwork/5.15.0/QtNetwork/private/qnetworkreplyfileimpl_p.h
--- replaced obj /usr/include/qt5/QtNetwork/5.15.0/QtNetwork/private/qnetworkreplydataimpl_p.h
--- replaced obj /usr/include/qt5/QtNetwork/5.15.0/QtNetwork/private/qnetworkreply_p.h
--- replaced obj /usr/include/qt5/QtNetwork/5.15.0/QtNetwork/private/qnetworkinterface_unix_p.h
--- replaced obj /usr/include/qt5/QtNetwork/5.15.0/QtNetwork/private/qnetworkinterface_uikit_p.h
--- replaced obj /usr/include/qt5/QtNetwork/5.15.0/QtNetwork/private/qnetworkinterface_p.h
--- replaced obj /usr/include/qt5/QtNetwork/5.15.0/QtNetwork/private/qnetworkfile_p.h
--- replaced obj /usr/include/qt5/QtNetwork/5.15.0/QtNetwork/private/qnetworkdiskcache_p.h
--- replaced obj /usr/include/qt5/QtNetwork/5.15.0/QtNetwork/private/qnetworkdatagram_p.h
--- replaced obj /usr/include/qt5/QtNetwork/5.15.0/QtNetwork/private/qnetworkcookiejar_p.h
--- replaced obj /usr/include/qt5/QtNetwork/5.15.0/QtNetwork/private/qnetworkcookie_p.h
--- replaced obj /usr/include/qt5/QtNetwork/5.15.0/QtNetwork/private/qnetworkconfiguration_p.h
--- replaced obj /usr/include/qt5/QtNetwork/5.15.0/QtNetwork/private/qnetworkconfigmanager_p.h
--- replaced obj /usr/include/qt5/QtNetwork/5.15.0/QtNetwork/private/qnetworkaccessmanager_p.h
--- replaced obj /usr/include/qt5/QtNetwork/5.15.0/QtNetwork/private/qnetworkaccessftpbackend_p.h
--- replaced obj /usr/include/qt5/QtNetwork/5.15.0/QtNetwork/private/qnetworkaccessfilebackend_p.h
--- replaced obj /usr/include/qt5/QtNetwork/5.15.0/QtNetwork/private/qnetworkaccessdebugpipebackend_p.h
--- replaced obj /usr/include/qt5/QtNetwork/5.15.0/QtNetwork/private/qnetworkaccesscachebackend_p.h
--- replaced obj /usr/include/qt5/QtNetwork/5.15.0/QtNetwork/private/qnetworkaccesscache_p.h
--- replaced obj /usr/include/qt5/QtNetwork/5.15.0/QtNetwork/private/qnetworkaccessbackend_p.h
--- replaced obj /usr/include/qt5/QtNetwork/5.15.0/QtNetwork/private/qnetworkaccessauthenticationmanager_p.h
--- replaced obj /usr/include/qt5/QtNetwork/5.15.0/QtNetwork/private/qnetconmonitor_p.h
--- replaced obj /usr/include/qt5/QtNetwork/5.15.0/QtNetwork/private/qnet_unix_p.h
--- replaced obj /usr/include/qt5/QtNetwork/5.15.0/QtNetwork/private/qnativesocketengine_winrt_p.h
--- replaced obj /usr/include/qt5/QtNetwork/5.15.0/QtNetwork/private/qnativesocketengine_p.h
--- replaced obj /usr/include/qt5/QtNetwork/5.15.0/QtNetwork/private/qlocalsocket_p.h
--- replaced obj /usr/include/qt5/QtNetwork/5.15.0/QtNetwork/private/qlocalserver_p.h
--- replaced obj /usr/include/qt5/QtNetwork/5.15.0/QtNetwork/private/qhttpthreaddelegate_p.h
--- replaced obj /usr/include/qt5/QtNetwork/5.15.0/QtNetwork/private/qhttpsocketengine_p.h
--- replaced obj /usr/include/qt5/QtNetwork/5.15.0/QtNetwork/private/qhttpprotocolhandler_p.h
--- replaced obj /usr/include/qt5/QtNetwork/5.15.0/QtNetwork/private/qhttpnetworkrequest_p.h
--- replaced obj /usr/include/qt5/QtNetwork/5.15.0/QtNetwork/private/qhttpnetworkreply_p.h
--- replaced obj /usr/include/qt5/QtNetwork/5.15.0/QtNetwork/private/qhttpnetworkheader_p.h
--- replaced obj /usr/include/qt5/QtNetwork/5.15.0/QtNetwork/private/qhttpnetworkconnectionchannel_p.h
--- replaced obj /usr/include/qt5/QtNetwork/5.15.0/QtNetwork/private/qhttpnetworkconnection_p.h
--- replaced obj /usr/include/qt5/QtNetwork/5.15.0/QtNetwork/private/qhttpmultipart_p.h
--- replaced obj /usr/include/qt5/QtNetwork/5.15.0/QtNetwork/private/qhttp2protocolhandler_p.h
--- replaced obj /usr/include/qt5/QtNetwork/5.15.0/QtNetwork/private/qhstsstore_p.h
--- replaced obj /usr/include/qt5/QtNetwork/5.15.0/QtNetwork/private/qhsts_p.h
--- replaced obj /usr/include/qt5/QtNetwork/5.15.0/QtNetwork/private/qhostinfo_p.h
--- replaced obj /usr/include/qt5/QtNetwork/5.15.0/QtNetwork/private/qhostaddress_p.h
--- replaced obj /usr/include/qt5/QtNetwork/5.15.0/QtNetwork/private/qftp_p.h
--- replaced obj /usr/include/qt5/QtNetwork/5.15.0/QtNetwork/private/qdtls_p.h
--- replaced obj /usr/include/qt5/QtNetwork/5.15.0/QtNetwork/private/qdtls_openssl_p.h
--- replaced obj /usr/include/qt5/QtNetwork/5.15.0/QtNetwork/private/qdnslookup_p.h
--- replaced obj /usr/include/qt5/QtNetwork/5.15.0/QtNetwork/private/qbearerplugin_p.h
--- replaced obj /usr/include/qt5/QtNetwork/5.15.0/QtNetwork/private/qbearerengine_p.h
--- replaced obj /usr/include/qt5/QtNetwork/5.15.0/QtNetwork/private/qauthenticator_p.h
--- replaced obj /usr/include/qt5/QtNetwork/5.15.0/QtNetwork/private/qasn1element_p.h
--- replaced obj /usr/include/qt5/QtNetwork/5.15.0/QtNetwork/private/qabstractsocketengine_p.h
--- replaced obj /usr/include/qt5/QtNetwork/5.15.0/QtNetwork/private/qabstractsocket_p.h
--- replaced obj /usr/include/qt5/QtNetwork/5.15.0/QtNetwork/private/qabstractprotocolhandler_p.h
--- replaced obj /usr/include/qt5/QtNetwork/5.15.0/QtNetwork/private/qabstractnetworkcache_p.h
--- replaced obj /usr/include/qt5/QtNetwork/5.15.0/QtNetwork/private/huffman_p.h
--- replaced obj /usr/include/qt5/QtNetwork/5.15.0/QtNetwork/private/http2streams_p.h
--- replaced obj /usr/include/qt5/QtNetwork/5.15.0/QtNetwork/private/http2protocol_p.h
--- replaced obj /usr/include/qt5/QtNetwork/5.15.0/QtNetwork/private/http2frames_p.h
--- replaced obj /usr/include/qt5/QtNetwork/5.15.0/QtNetwork/private/hpacktable_p.h
--- replaced obj /usr/include/qt5/QtNetwork/5.15.0/QtNetwork/private/hpack_p.h
--- replaced obj /usr/include/qt5/QtNetwork/5.15.0/QtNetwork/private/bitstreams_p.h
--- replaced dir /usr/include/qt5/QtNetwork/5.15.0/QtNetwork/private
--- replaced dir /usr/include/qt5/QtNetwork/5.15.0/QtNetwork
--- replaced dir /usr/include/qt5/QtNetwork/5.15.0
--- replaced dir /usr/include/qt5/QtNetwork
--- replaced obj /usr/include/qt5/Gentoo/qtnetwork-qconfig.h
--- replaced dir /usr/include/qt5/Gentoo
--- replaced dir /usr/include/qt5
--- replaced dir /usr/include
--- replaced dir /usr
>>> Regenerating /etc/ld.so.cache...
