>>> Extracting info
 * Package:    dev-lang/ruby-2.6.6-r2
 * Repository: gentoo
 * USE:        elibc_glibc berkdb tk amd64 socks5 systemtap ssl userland_GNU abi_x86_64 kernel_linux gdbm jemalloc jit
 * FEATURES:   preserve-libs
 * /etc/portage/package.cflags/ltoworkarounds.conf -> */*: *FLAGS+=-Wl,-O4 *FLAGS-=-Wl,-O1
 * /etc/portage/package.cflags/ltoworkarounds.conf -> dev-lang/ruby: *FLAGS-=-flto* # Test failure
 * /etc/portage/package.cflags/ltoworkarounds.conf -> dev-lang/ruby: *FLAGS+=-fno-strict-aliasing # No build or runtime failures, but recommended by the package to avoid incorrect optimizations
 * FEATURES='assume-digests binpkg-dostrip binpkg-logs buildpkg config-protect-if-modified distlocks ebuild-locks fixlafiles merge-sync multilib-strict news nodoc parallel-fetch preserve-libs qa-unresolved-soname-deps sfperms strict strict-keepdir unknown-features-warn unmerge-logs unmerge-orphans xattr'
 * CFLAGS='-march=znver2 -O2 -pipe -g0 -fno-semantic-interposition -fno-plt -falign-functions=32 -fno-stack-protector -fno-stack-clash-protection -fstack-check=no -fno-stack-check -Wl,-O4 -fno-strict-aliasing -Wl,-O4,--sort-common,--as-needed,-z,norelro,-z,now,-lgomp,-lpthread -fno-strict-aliasing'
 * CXXFLAGS='-march=znver2 -O2 -pipe -g0 -fno-semantic-interposition -fno-plt -falign-functions=32 -fno-stack-protector -fno-stack-clash-protection -fstack-check=no -fno-stack-check -Wl,-O4 -fno-strict-aliasing -Wl,-O4,--sort-common,--as-needed,-z,norelro,-z,now,-lgomp,-lpthread -fno-strict-aliasing'
 * FFLAGS='-march=znver2 -O2 -pipe -g0 -fno-semantic-interposition -fno-plt -falign-functions=32 -fno-stack-protector -fno-stack-clash-protection -fstack-check=no -fno-stack-check -Wl,-O4 -fno-strict-aliasing -Wl,-O4,--sort-common,--as-needed,-z,norelro,-z,now,-lgomp,-lpthread -fno-strict-aliasing'
 * FCFLAGS='-march=znver2 -O2 -pipe -g0 -fno-semantic-interposition -fno-plt -falign-functions=32 -fno-stack-protector -fno-stack-clash-protection -fstack-check=no -fno-stack-check -Wl,-O4 -fno-strict-aliasing -Wl,-O4,--sort-common,--as-needed,-z,norelro,-z,now,-lgomp,-lpthread -fno-strict-aliasing'
 * F77FLAGS='-march=znver2 -O2 -pipe -g0 -fno-semantic-interposition -fno-plt -falign-functions=32 -fno-stack-protector -fno-stack-clash-protection -fstack-check=no -fno-stack-check -Wl,-O4 -fno-strict-aliasing -Wl,-O4,--sort-common,--as-needed,-z,norelro,-z,now,-lgomp,-lpthread -fno-strict-aliasing'
 * LDFLAGS='-march=znver2 -O2 -pipe -g0 -fno-semantic-interposition -fno-plt -falign-functions=32 -fno-stack-protector -fno-stack-clash-protection -fstack-check=no -fno-stack-check -Wl,-O4,--sort-common,--as-needed,-z,norelro,-z,now,-lgomp,-lpthread'
 * MAKEOPTS='-j12 -l12'
 * gcc (Gentoo 11.0.0_pre9999 p1, commit 184c21bf1cd04a108ed9bd04635e7d57ac39f616) 11.0.0 20200611 (experimental)
 * g++ (Gentoo 11.0.0_pre9999 p1, commit 184c21bf1cd04a108ed9bd04635e7d57ac39f616) 11.0.0 20200611 (experimental)
 * GNU ld (Gentoo 2.34 p4) 2.34.0
 * Linux rescue 5.4.36 #1 SMP Thu Apr 30 04:38:28 UTC 2020 x86_64 AMD Ryzen 5 3600 6-Core Processor AuthenticAMD GNU/Linux
dev-lang/ruby: 1 minute, 53 seconds average for 33 merges
2020-05-15T07:18:24 >>> dev-lang/ruby: 1 minute, 43 seconds
2020-05-15T07:36:25 >>> dev-lang/ruby: 1 minute, 31 seconds
2020-05-15T10:23:43 >>> dev-lang/ruby: 2 minutes, 17 seconds
2020-05-16T14:51:26 >>> dev-lang/ruby: 1 minute, 23 seconds
2020-05-16T15:53:39 >>> dev-lang/ruby: 1 minute, 23 seconds
2020-05-20T01:38:11 >>> dev-lang/ruby: 6 seconds
2020-05-20T01:38:18 >>> dev-lang/ruby: 1 minute, 34 seconds
2020-05-20T01:39:52 >>> dev-lang/ruby: 2 minutes, 36 seconds
2020-05-20T08:36:21 >>> dev-lang/ruby: 7 seconds
2020-05-20T08:36:30 >>> dev-lang/ruby: 7 seconds
2020-05-20T08:36:38 >>> dev-lang/ruby: 7 seconds
2020-05-20T13:13:29 >>> dev-lang/ruby: 17 seconds
2020-05-20T13:52:28 >>> dev-lang/ruby: 10 seconds
2020-05-21T13:15:31 >>> dev-lang/ruby: 3 minutes
2020-05-21T14:35:06 >>> dev-lang/ruby: 1 minute, 45 seconds
2020-05-21T14:36:52 >>> dev-lang/ruby: 14 minutes, 9 seconds
2020-05-23T21:12:31 >>> dev-lang/ruby: 1 minute, 39 seconds
2020-05-24T14:59:24 >>> dev-lang/ruby: 2 minutes, 42 seconds
2020-05-24T15:25:00 >>> dev-lang/ruby: 4 minutes, 8 seconds
2020-05-24T19:47:32 >>> dev-lang/ruby: 6 seconds
2020-05-28T08:11:42 >>> dev-lang/ruby: 1 minute, 51 seconds
2020-05-28T08:17:51 >>> dev-lang/ruby: 1 minute, 46 seconds
2020-05-31T00:22:17 >>> dev-lang/ruby: 3 minutes, 11 seconds
2020-05-31T00:25:42 >>> dev-lang/ruby: 2 minutes, 19 seconds
2020-06-01T05:48:49 >>> dev-lang/ruby: 1 minute, 43 seconds
2020-06-01T05:52:11 >>> dev-lang/ruby: 1 minute, 44 seconds
2020-06-03T14:09:41 >>> dev-lang/ruby: 1 minute, 43 seconds
2020-06-03T14:11:24 >>> dev-lang/ruby: 1 minute, 45 seconds
2020-06-06T00:33:04 >>> dev-lang/ruby: 1 minute, 39 seconds
2020-06-06T00:34:43 >>> dev-lang/ruby: 1 minute, 46 seconds
2020-06-06T00:36:29 >>> dev-lang/ruby: 1 minute, 47 seconds
2020-06-12T02:14:41 >>> dev-lang/ruby: 11 seconds
2020-06-12T02:14:53 >>> dev-lang/ruby: 11 seconds
]0;emerge 02:15:04 567|626 ruby 00:43 (root@rescue)>>> Extracting dev-lang/ruby-2.6.6-r2
 * One or more compressed files were found in docompress-ed directories.
 * Please fix the ebuild not to install compressed files (manpages,
 * documentation) when automatic compression is used:
 * 
 *   /usr/share/man/man5/gemfile26.5.bz2
 *   /usr/share/man/man1/ruby26.1.bz2
 *   /usr/share/man/man1/ri26.1.bz2
 *   /usr/share/man/man1/irb26.1.bz2
 *   /usr/share/man/man1/erb26.1.bz2
 *   /usr/share/man/man1/bundle26.1.bz2
 *   /usr/share/man/man1/bundle-viz26.1.bz2
 *   /usr/share/man/man1/bundle-update26.1.bz2
 *   /usr/share/man/man1/bundle-show26.1.bz2
 *   /usr/share/man/man1/bundle-remove26.1.bz2
 *   /usr/share/man/man1/bundle-pristine26.1.bz2
 *   ...
 * checking 601 files for package collisions
>>> Merging dev-lang/ruby-2.6.6-r2 to /
 * removing unneeded *.la files
--- /usr/
--- /usr/bin/
>>> /usr/bin/erb26
>>> /usr/bin/irb26
>>> /usr/bin/ruby26
--- /usr/include/
--- /usr/include/ruby-2.6.0/
--- /usr/include/ruby-2.6.0/ruby/
--- /usr/include/ruby-2.6.0/ruby/backward/
>>> /usr/include/ruby-2.6.0/ruby/backward/classext.h
>>> /usr/include/ruby-2.6.0/ruby/backward/rubyio.h
>>> /usr/include/ruby-2.6.0/ruby/backward/rubysig.h
>>> /usr/include/ruby-2.6.0/ruby/backward/st.h
>>> /usr/include/ruby-2.6.0/ruby/backward/util.h
>>> /usr/include/ruby-2.6.0/ruby/backward.h
>>> /usr/include/ruby-2.6.0/ruby/debug.h
>>> /usr/include/ruby-2.6.0/ruby/defines.h
>>> /usr/include/ruby-2.6.0/ruby/digest.h
>>> /usr/include/ruby-2.6.0/ruby/encoding.h
>>> /usr/include/ruby-2.6.0/ruby/intern.h
>>> /usr/include/ruby-2.6.0/ruby/io.h
>>> /usr/include/ruby-2.6.0/ruby/missing.h
>>> /usr/include/ruby-2.6.0/ruby/onigmo.h
>>> /usr/include/ruby-2.6.0/ruby/oniguruma.h
>>> /usr/include/ruby-2.6.0/ruby/re.h
>>> /usr/include/ruby-2.6.0/ruby/regex.h
>>> /usr/include/ruby-2.6.0/ruby/ruby.h
>>> /usr/include/ruby-2.6.0/ruby/st.h
>>> /usr/include/ruby-2.6.0/ruby/subst.h
>>> /usr/include/ruby-2.6.0/ruby/thread.h
>>> /usr/include/ruby-2.6.0/ruby/thread_native.h
>>> /usr/include/ruby-2.6.0/ruby/util.h
>>> /usr/include/ruby-2.6.0/ruby/version.h
>>> /usr/include/ruby-2.6.0/ruby/vm.h
>>> /usr/include/ruby-2.6.0/ruby.h
--- /usr/include/ruby-2.6.0/x86_64-linux/
>>> /usr/include/ruby-2.6.0/x86_64-linux/rb_mjit_min_header-2.6.6.h
--- /usr/include/ruby-2.6.0/x86_64-linux/ruby/
>>> /usr/include/ruby-2.6.0/x86_64-linux/ruby/config.h
--- /usr/lib64/
>>> /usr/lib64/libruby26.so -> libruby26.so.2.6.6
>>> /usr/lib64/libruby26.so.2.6 -> libruby26.so.2.6.6
>>> /usr/lib64/libruby26.so.2.6.6
--- /usr/lib64/pkgconfig/
>>> /usr/lib64/pkgconfig/ruby-2.6.pc
--- /usr/lib64/ruby/
--- /usr/lib64/ruby/2.6.0/
>>> /usr/lib64/ruby/2.6.0/English.rb
>>> /usr/lib64/ruby/2.6.0/abbrev.rb
>>> /usr/lib64/ruby/2.6.0/base64.rb
>>> /usr/lib64/ruby/2.6.0/benchmark.rb
--- /usr/lib64/ruby/2.6.0/bigdecimal/
>>> /usr/lib64/ruby/2.6.0/bigdecimal/jacobian.rb
>>> /usr/lib64/ruby/2.6.0/bigdecimal/ludcmp.rb
>>> /usr/lib64/ruby/2.6.0/bigdecimal/math.rb
>>> /usr/lib64/ruby/2.6.0/bigdecimal/newton.rb
>>> /usr/lib64/ruby/2.6.0/bigdecimal/util.rb
>>> /usr/lib64/ruby/2.6.0/bigdecimal.rb
--- /usr/lib64/ruby/2.6.0/cgi/
>>> /usr/lib64/ruby/2.6.0/cgi/cookie.rb
>>> /usr/lib64/ruby/2.6.0/cgi/core.rb
>>> /usr/lib64/ruby/2.6.0/cgi/html.rb
--- /usr/lib64/ruby/2.6.0/cgi/session/
>>> /usr/lib64/ruby/2.6.0/cgi/session/pstore.rb
>>> /usr/lib64/ruby/2.6.0/cgi/session.rb
>>> /usr/lib64/ruby/2.6.0/cgi/util.rb
>>> /usr/lib64/ruby/2.6.0/cgi.rb
>>> /usr/lib64/ruby/2.6.0/cmath.rb
>>> /usr/lib64/ruby/2.6.0/coverage.rb
--- /usr/lib64/ruby/2.6.0/csv/
--- /usr/lib64/ruby/2.6.0/csv/core_ext/
>>> /usr/lib64/ruby/2.6.0/csv/core_ext/array.rb
>>> /usr/lib64/ruby/2.6.0/csv/core_ext/string.rb
>>> /usr/lib64/ruby/2.6.0/csv/delete_suffix.rb
>>> /usr/lib64/ruby/2.6.0/csv/fields_converter.rb
>>> /usr/lib64/ruby/2.6.0/csv/match_p.rb
>>> /usr/lib64/ruby/2.6.0/csv/parser.rb
>>> /usr/lib64/ruby/2.6.0/csv/row.rb
>>> /usr/lib64/ruby/2.6.0/csv/table.rb
>>> /usr/lib64/ruby/2.6.0/csv/version.rb
>>> /usr/lib64/ruby/2.6.0/csv/writer.rb
>>> /usr/lib64/ruby/2.6.0/csv.rb
>>> /usr/lib64/ruby/2.6.0/date.rb
>>> /usr/lib64/ruby/2.6.0/debug.rb
>>> /usr/lib64/ruby/2.6.0/delegate.rb
--- /usr/lib64/ruby/2.6.0/digest/
>>> /usr/lib64/ruby/2.6.0/digest/sha2.rb
>>> /usr/lib64/ruby/2.6.0/digest.rb
--- /usr/lib64/ruby/2.6.0/drb/
>>> /usr/lib64/ruby/2.6.0/drb/acl.rb
>>> /usr/lib64/ruby/2.6.0/drb/drb.rb
>>> /usr/lib64/ruby/2.6.0/drb/eq.rb
>>> /usr/lib64/ruby/2.6.0/drb/extserv.rb
>>> /usr/lib64/ruby/2.6.0/drb/extservm.rb
>>> /usr/lib64/ruby/2.6.0/drb/gw.rb
>>> /usr/lib64/ruby/2.6.0/drb/invokemethod.rb
>>> /usr/lib64/ruby/2.6.0/drb/observer.rb
>>> /usr/lib64/ruby/2.6.0/drb/ssl.rb
>>> /usr/lib64/ruby/2.6.0/drb/timeridconv.rb
>>> /usr/lib64/ruby/2.6.0/drb/unix.rb
>>> /usr/lib64/ruby/2.6.0/drb.rb
--- /usr/lib64/ruby/2.6.0/e2mmap/
>>> /usr/lib64/ruby/2.6.0/e2mmap/version.rb
>>> /usr/lib64/ruby/2.6.0/e2mmap.rb
>>> /usr/lib64/ruby/2.6.0/erb.rb
>>> /usr/lib64/ruby/2.6.0/expect.rb
--- /usr/lib64/ruby/2.6.0/fiddle/
>>> /usr/lib64/ruby/2.6.0/fiddle/closure.rb
>>> /usr/lib64/ruby/2.6.0/fiddle/cparser.rb
>>> /usr/lib64/ruby/2.6.0/fiddle/function.rb
>>> /usr/lib64/ruby/2.6.0/fiddle/import.rb
>>> /usr/lib64/ruby/2.6.0/fiddle/pack.rb
>>> /usr/lib64/ruby/2.6.0/fiddle/struct.rb
>>> /usr/lib64/ruby/2.6.0/fiddle/types.rb
>>> /usr/lib64/ruby/2.6.0/fiddle/value.rb
>>> /usr/lib64/ruby/2.6.0/fiddle.rb
--- /usr/lib64/ruby/2.6.0/fileutils/
>>> /usr/lib64/ruby/2.6.0/fileutils/version.rb
>>> /usr/lib64/ruby/2.6.0/fileutils.rb
>>> /usr/lib64/ruby/2.6.0/find.rb
--- /usr/lib64/ruby/2.6.0/forwardable/
>>> /usr/lib64/ruby/2.6.0/forwardable/impl.rb
>>> /usr/lib64/ruby/2.6.0/forwardable.rb
>>> /usr/lib64/ruby/2.6.0/getoptlong.rb
--- /usr/lib64/ruby/2.6.0/io/
--- /usr/lib64/ruby/2.6.0/io/console/
>>> /usr/lib64/ruby/2.6.0/io/console/size.rb
>>> /usr/lib64/ruby/2.6.0/ipaddr.rb
--- /usr/lib64/ruby/2.6.0/irb/
--- /usr/lib64/ruby/2.6.0/irb/cmd/
>>> /usr/lib64/ruby/2.6.0/irb/cmd/chws.rb
>>> /usr/lib64/ruby/2.6.0/irb/cmd/fork.rb
>>> /usr/lib64/ruby/2.6.0/irb/cmd/help.rb
>>> /usr/lib64/ruby/2.6.0/irb/cmd/load.rb
>>> /usr/lib64/ruby/2.6.0/irb/cmd/nop.rb
>>> /usr/lib64/ruby/2.6.0/irb/cmd/pushws.rb
>>> /usr/lib64/ruby/2.6.0/irb/cmd/subirb.rb
>>> /usr/lib64/ruby/2.6.0/irb/completion.rb
>>> /usr/lib64/ruby/2.6.0/irb/context.rb
--- /usr/lib64/ruby/2.6.0/irb/ext/
>>> /usr/lib64/ruby/2.6.0/irb/ext/change-ws.rb
>>> /usr/lib64/ruby/2.6.0/irb/ext/history.rb
>>> /usr/lib64/ruby/2.6.0/irb/ext/loader.rb
>>> /usr/lib64/ruby/2.6.0/irb/ext/multi-irb.rb
>>> /usr/lib64/ruby/2.6.0/irb/ext/save-history.rb
>>> /usr/lib64/ruby/2.6.0/irb/ext/tracer.rb
>>> /usr/lib64/ruby/2.6.0/irb/ext/use-loader.rb
>>> /usr/lib64/ruby/2.6.0/irb/ext/workspaces.rb
>>> /usr/lib64/ruby/2.6.0/irb/extend-command.rb
>>> /usr/lib64/ruby/2.6.0/irb/frame.rb
>>> /usr/lib64/ruby/2.6.0/irb/help.rb
>>> /usr/lib64/ruby/2.6.0/irb/init.rb
>>> /usr/lib64/ruby/2.6.0/irb/input-method.rb
>>> /usr/lib64/ruby/2.6.0/irb/inspector.rb
--- /usr/lib64/ruby/2.6.0/irb/lc/
>>> /usr/lib64/ruby/2.6.0/irb/lc/error.rb
>>> /usr/lib64/ruby/2.6.0/irb/lc/help-message
--- /usr/lib64/ruby/2.6.0/irb/lc/ja/
>>> /usr/lib64/ruby/2.6.0/irb/lc/ja/encoding_aliases.rb
>>> /usr/lib64/ruby/2.6.0/irb/lc/ja/error.rb
>>> /usr/lib64/ruby/2.6.0/irb/lc/ja/help-message
>>> /usr/lib64/ruby/2.6.0/irb/locale.rb
>>> /usr/lib64/ruby/2.6.0/irb/magic-file.rb
>>> /usr/lib64/ruby/2.6.0/irb/notifier.rb
>>> /usr/lib64/ruby/2.6.0/irb/output-method.rb
>>> /usr/lib64/ruby/2.6.0/irb/ruby-lex.rb
>>> /usr/lib64/ruby/2.6.0/irb/ruby-token.rb
>>> /usr/lib64/ruby/2.6.0/irb/slex.rb
>>> /usr/lib64/ruby/2.6.0/irb/src_encoding.rb
>>> /usr/lib64/ruby/2.6.0/irb/version.rb
>>> /usr/lib64/ruby/2.6.0/irb/workspace.rb
>>> /usr/lib64/ruby/2.6.0/irb/ws-for-case-2.rb
>>> /usr/lib64/ruby/2.6.0/irb/xmp.rb
>>> /usr/lib64/ruby/2.6.0/irb.rb
--- /usr/lib64/ruby/2.6.0/json/
--- /usr/lib64/ruby/2.6.0/json/add/
>>> /usr/lib64/ruby/2.6.0/json/add/bigdecimal.rb
>>> /usr/lib64/ruby/2.6.0/json/add/complex.rb
>>> /usr/lib64/ruby/2.6.0/json/add/core.rb
>>> /usr/lib64/ruby/2.6.0/json/add/date.rb
>>> /usr/lib64/ruby/2.6.0/json/add/date_time.rb
>>> /usr/lib64/ruby/2.6.0/json/add/exception.rb
>>> /usr/lib64/ruby/2.6.0/json/add/ostruct.rb
>>> /usr/lib64/ruby/2.6.0/json/add/range.rb
>>> /usr/lib64/ruby/2.6.0/json/add/rational.rb
>>> /usr/lib64/ruby/2.6.0/json/add/regexp.rb
>>> /usr/lib64/ruby/2.6.0/json/add/struct.rb
>>> /usr/lib64/ruby/2.6.0/json/add/symbol.rb
>>> /usr/lib64/ruby/2.6.0/json/add/time.rb
>>> /usr/lib64/ruby/2.6.0/json/common.rb
>>> /usr/lib64/ruby/2.6.0/json/ext.rb
>>> /usr/lib64/ruby/2.6.0/json/generic_object.rb
>>> /usr/lib64/ruby/2.6.0/json/version.rb
>>> /usr/lib64/ruby/2.6.0/json.rb
>>> /usr/lib64/ruby/2.6.0/kconv.rb
>>> /usr/lib64/ruby/2.6.0/logger.rb
--- /usr/lib64/ruby/2.6.0/matrix/
>>> /usr/lib64/ruby/2.6.0/matrix/eigenvalue_decomposition.rb
>>> /usr/lib64/ruby/2.6.0/matrix/lup_decomposition.rb
>>> /usr/lib64/ruby/2.6.0/matrix.rb
>>> /usr/lib64/ruby/2.6.0/mkmf.rb
>>> /usr/lib64/ruby/2.6.0/monitor.rb
>>> /usr/lib64/ruby/2.6.0/mutex_m.rb
--- /usr/lib64/ruby/2.6.0/net/
>>> /usr/lib64/ruby/2.6.0/net/ftp.rb
--- /usr/lib64/ruby/2.6.0/net/http/
>>> /usr/lib64/ruby/2.6.0/net/http/backward.rb
>>> /usr/lib64/ruby/2.6.0/net/http/exceptions.rb
>>> /usr/lib64/ruby/2.6.0/net/http/generic_request.rb
>>> /usr/lib64/ruby/2.6.0/net/http/header.rb
>>> /usr/lib64/ruby/2.6.0/net/http/proxy_delta.rb
>>> /usr/lib64/ruby/2.6.0/net/http/request.rb
>>> /usr/lib64/ruby/2.6.0/net/http/requests.rb
>>> /usr/lib64/ruby/2.6.0/net/http/response.rb
>>> /usr/lib64/ruby/2.6.0/net/http/responses.rb
>>> /usr/lib64/ruby/2.6.0/net/http/status.rb
>>> /usr/lib64/ruby/2.6.0/net/http.rb
>>> /usr/lib64/ruby/2.6.0/net/https.rb
>>> /usr/lib64/ruby/2.6.0/net/imap.rb
>>> /usr/lib64/ruby/2.6.0/net/pop.rb
>>> /usr/lib64/ruby/2.6.0/net/protocol.rb
>>> /usr/lib64/ruby/2.6.0/net/smtp.rb
>>> /usr/lib64/ruby/2.6.0/observer.rb
>>> /usr/lib64/ruby/2.6.0/open-uri.rb
>>> /usr/lib64/ruby/2.6.0/open3.rb
--- /usr/lib64/ruby/2.6.0/openssl/
>>> /usr/lib64/ruby/2.6.0/openssl/bn.rb
>>> /usr/lib64/ruby/2.6.0/openssl/buffering.rb
>>> /usr/lib64/ruby/2.6.0/openssl/cipher.rb
>>> /usr/lib64/ruby/2.6.0/openssl/config.rb
>>> /usr/lib64/ruby/2.6.0/openssl/digest.rb
>>> /usr/lib64/ruby/2.6.0/openssl/pkcs5.rb
>>> /usr/lib64/ruby/2.6.0/openssl/pkey.rb
>>> /usr/lib64/ruby/2.6.0/openssl/ssl.rb
>>> /usr/lib64/ruby/2.6.0/openssl/x509.rb
>>> /usr/lib64/ruby/2.6.0/openssl.rb
>>> /usr/lib64/ruby/2.6.0/optionparser.rb
--- /usr/lib64/ruby/2.6.0/optparse/
>>> /usr/lib64/ruby/2.6.0/optparse/ac.rb
>>> /usr/lib64/ruby/2.6.0/optparse/date.rb
>>> /usr/lib64/ruby/2.6.0/optparse/kwargs.rb
>>> /usr/lib64/ruby/2.6.0/optparse/shellwords.rb
>>> /usr/lib64/ruby/2.6.0/optparse/time.rb
>>> /usr/lib64/ruby/2.6.0/optparse/uri.rb
>>> /usr/lib64/ruby/2.6.0/optparse/version.rb
>>> /usr/lib64/ruby/2.6.0/optparse.rb
>>> /usr/lib64/ruby/2.6.0/ostruct.rb
>>> /usr/lib64/ruby/2.6.0/pathname.rb
>>> /usr/lib64/ruby/2.6.0/pp.rb
>>> /usr/lib64/ruby/2.6.0/prettyprint.rb
>>> /usr/lib64/ruby/2.6.0/prime.rb
>>> /usr/lib64/ruby/2.6.0/profile.rb
>>> /usr/lib64/ruby/2.6.0/profiler.rb
>>> /usr/lib64/ruby/2.6.0/pstore.rb
--- /usr/lib64/ruby/2.6.0/psych/
>>> /usr/lib64/ruby/2.6.0/psych/class_loader.rb
>>> /usr/lib64/ruby/2.6.0/psych/coder.rb
>>> /usr/lib64/ruby/2.6.0/psych/core_ext.rb
>>> /usr/lib64/ruby/2.6.0/psych/exception.rb
>>> /usr/lib64/ruby/2.6.0/psych/handler.rb
--- /usr/lib64/ruby/2.6.0/psych/handlers/
>>> /usr/lib64/ruby/2.6.0/psych/handlers/document_stream.rb
>>> /usr/lib64/ruby/2.6.0/psych/handlers/recorder.rb
--- /usr/lib64/ruby/2.6.0/psych/json/
>>> /usr/lib64/ruby/2.6.0/psych/json/ruby_events.rb
>>> /usr/lib64/ruby/2.6.0/psych/json/stream.rb
>>> /usr/lib64/ruby/2.6.0/psych/json/tree_builder.rb
>>> /usr/lib64/ruby/2.6.0/psych/json/yaml_events.rb
--- /usr/lib64/ruby/2.6.0/psych/nodes/
>>> /usr/lib64/ruby/2.6.0/psych/nodes/alias.rb
>>> /usr/lib64/ruby/2.6.0/psych/nodes/document.rb
>>> /usr/lib64/ruby/2.6.0/psych/nodes/mapping.rb
>>> /usr/lib64/ruby/2.6.0/psych/nodes/node.rb
>>> /usr/lib64/ruby/2.6.0/psych/nodes/scalar.rb
>>> /usr/lib64/ruby/2.6.0/psych/nodes/sequence.rb
>>> /usr/lib64/ruby/2.6.0/psych/nodes/stream.rb
>>> /usr/lib64/ruby/2.6.0/psych/nodes.rb
>>> /usr/lib64/ruby/2.6.0/psych/omap.rb
>>> /usr/lib64/ruby/2.6.0/psych/parser.rb
>>> /usr/lib64/ruby/2.6.0/psych/scalar_scanner.rb
>>> /usr/lib64/ruby/2.6.0/psych/set.rb
>>> /usr/lib64/ruby/2.6.0/psych/stream.rb
>>> /usr/lib64/ruby/2.6.0/psych/streaming.rb
>>> /usr/lib64/ruby/2.6.0/psych/syntax_error.rb
>>> /usr/lib64/ruby/2.6.0/psych/tree_builder.rb
>>> /usr/lib64/ruby/2.6.0/psych/versions.rb
--- /usr/lib64/ruby/2.6.0/psych/visitors/
>>> /usr/lib64/ruby/2.6.0/psych/visitors/depth_first.rb
>>> /usr/lib64/ruby/2.6.0/psych/visitors/emitter.rb
>>> /usr/lib64/ruby/2.6.0/psych/visitors/json_tree.rb
>>> /usr/lib64/ruby/2.6.0/psych/visitors/to_ruby.rb
>>> /usr/lib64/ruby/2.6.0/psych/visitors/visitor.rb
>>> /usr/lib64/ruby/2.6.0/psych/visitors/yaml_tree.rb
>>> /usr/lib64/ruby/2.6.0/psych/visitors.rb
>>> /usr/lib64/ruby/2.6.0/psych/y.rb
>>> /usr/lib64/ruby/2.6.0/psych.rb
--- /usr/lib64/ruby/2.6.0/racc/
>>> /usr/lib64/ruby/2.6.0/racc/parser.rb
>>> /usr/lib64/ruby/2.6.0/resolv-replace.rb
>>> /usr/lib64/ruby/2.6.0/resolv.rb
--- /usr/lib64/ruby/2.6.0/rexml/
>>> /usr/lib64/ruby/2.6.0/rexml/attlistdecl.rb
>>> /usr/lib64/ruby/2.6.0/rexml/attribute.rb
>>> /usr/lib64/ruby/2.6.0/rexml/cdata.rb
>>> /usr/lib64/ruby/2.6.0/rexml/child.rb
>>> /usr/lib64/ruby/2.6.0/rexml/comment.rb
>>> /usr/lib64/ruby/2.6.0/rexml/doctype.rb
>>> /usr/lib64/ruby/2.6.0/rexml/document.rb
--- /usr/lib64/ruby/2.6.0/rexml/dtd/
>>> /usr/lib64/ruby/2.6.0/rexml/dtd/attlistdecl.rb
>>> /usr/lib64/ruby/2.6.0/rexml/dtd/dtd.rb
>>> /usr/lib64/ruby/2.6.0/rexml/dtd/elementdecl.rb
>>> /usr/lib64/ruby/2.6.0/rexml/dtd/entitydecl.rb
>>> /usr/lib64/ruby/2.6.0/rexml/dtd/notationdecl.rb
>>> /usr/lib64/ruby/2.6.0/rexml/element.rb
>>> /usr/lib64/ruby/2.6.0/rexml/encoding.rb
>>> /usr/lib64/ruby/2.6.0/rexml/entity.rb
--- /usr/lib64/ruby/2.6.0/rexml/formatters/
>>> /usr/lib64/ruby/2.6.0/rexml/formatters/default.rb
>>> /usr/lib64/ruby/2.6.0/rexml/formatters/pretty.rb
>>> /usr/lib64/ruby/2.6.0/rexml/formatters/transitive.rb
>>> /usr/lib64/ruby/2.6.0/rexml/functions.rb
>>> /usr/lib64/ruby/2.6.0/rexml/instruction.rb
--- /usr/lib64/ruby/2.6.0/rexml/light/
>>> /usr/lib64/ruby/2.6.0/rexml/light/node.rb
>>> /usr/lib64/ruby/2.6.0/rexml/namespace.rb
>>> /usr/lib64/ruby/2.6.0/rexml/node.rb
>>> /usr/lib64/ruby/2.6.0/rexml/output.rb
>>> /usr/lib64/ruby/2.6.0/rexml/parent.rb
>>> /usr/lib64/ruby/2.6.0/rexml/parseexception.rb
--- /usr/lib64/ruby/2.6.0/rexml/parsers/
>>> /usr/lib64/ruby/2.6.0/rexml/parsers/baseparser.rb
>>> /usr/lib64/ruby/2.6.0/rexml/parsers/lightparser.rb
>>> /usr/lib64/ruby/2.6.0/rexml/parsers/pullparser.rb
>>> /usr/lib64/ruby/2.6.0/rexml/parsers/sax2parser.rb
>>> /usr/lib64/ruby/2.6.0/rexml/parsers/streamparser.rb
>>> /usr/lib64/ruby/2.6.0/rexml/parsers/treeparser.rb
>>> /usr/lib64/ruby/2.6.0/rexml/parsers/ultralightparser.rb
>>> /usr/lib64/ruby/2.6.0/rexml/parsers/xpathparser.rb
>>> /usr/lib64/ruby/2.6.0/rexml/quickpath.rb
>>> /usr/lib64/ruby/2.6.0/rexml/rexml.rb
>>> /usr/lib64/ruby/2.6.0/rexml/sax2listener.rb
>>> /usr/lib64/ruby/2.6.0/rexml/security.rb
>>> /usr/lib64/ruby/2.6.0/rexml/source.rb
>>> /usr/lib64/ruby/2.6.0/rexml/streamlistener.rb
>>> /usr/lib64/ruby/2.6.0/rexml/syncenumerator.rb
>>> /usr/lib64/ruby/2.6.0/rexml/text.rb
>>> /usr/lib64/ruby/2.6.0/rexml/undefinednamespaceexception.rb
--- /usr/lib64/ruby/2.6.0/rexml/validation/
>>> /usr/lib64/ruby/2.6.0/rexml/validation/relaxng.rb
>>> /usr/lib64/ruby/2.6.0/rexml/validation/validation.rb
>>> /usr/lib64/ruby/2.6.0/rexml/validation/validationexception.rb
>>> /usr/lib64/ruby/2.6.0/rexml/xmldecl.rb
>>> /usr/lib64/ruby/2.6.0/rexml/xmltokens.rb
>>> /usr/lib64/ruby/2.6.0/rexml/xpath.rb
>>> /usr/lib64/ruby/2.6.0/rexml/xpath_parser.rb
--- /usr/lib64/ruby/2.6.0/rinda/
>>> /usr/lib64/ruby/2.6.0/rinda/rinda.rb
>>> /usr/lib64/ruby/2.6.0/rinda/ring.rb
>>> /usr/lib64/ruby/2.6.0/rinda/tuplespace.rb
--- /usr/lib64/ruby/2.6.0/ripper/
>>> /usr/lib64/ruby/2.6.0/ripper/core.rb
>>> /usr/lib64/ruby/2.6.0/ripper/filter.rb
>>> /usr/lib64/ruby/2.6.0/ripper/lexer.rb
>>> /usr/lib64/ruby/2.6.0/ripper/sexp.rb
>>> /usr/lib64/ruby/2.6.0/ripper.rb
--- /usr/lib64/ruby/2.6.0/rss/
>>> /usr/lib64/ruby/2.6.0/rss/0.9.rb
>>> /usr/lib64/ruby/2.6.0/rss/1.0.rb
>>> /usr/lib64/ruby/2.6.0/rss/2.0.rb
>>> /usr/lib64/ruby/2.6.0/rss/atom.rb
--- /usr/lib64/ruby/2.6.0/rss/content/
>>> /usr/lib64/ruby/2.6.0/rss/content/1.0.rb
>>> /usr/lib64/ruby/2.6.0/rss/content/2.0.rb
>>> /usr/lib64/ruby/2.6.0/rss/content.rb
>>> /usr/lib64/ruby/2.6.0/rss/converter.rb
--- /usr/lib64/ruby/2.6.0/rss/dublincore/
>>> /usr/lib64/ruby/2.6.0/rss/dublincore/1.0.rb
>>> /usr/lib64/ruby/2.6.0/rss/dublincore/2.0.rb
>>> /usr/lib64/ruby/2.6.0/rss/dublincore/atom.rb
>>> /usr/lib64/ruby/2.6.0/rss/dublincore.rb
>>> /usr/lib64/ruby/2.6.0/rss/image.rb
>>> /usr/lib64/ruby/2.6.0/rss/itunes.rb
--- /usr/lib64/ruby/2.6.0/rss/maker/
>>> /usr/lib64/ruby/2.6.0/rss/maker/0.9.rb
>>> /usr/lib64/ruby/2.6.0/rss/maker/1.0.rb
>>> /usr/lib64/ruby/2.6.0/rss/maker/2.0.rb
>>> /usr/lib64/ruby/2.6.0/rss/maker/atom.rb
>>> /usr/lib64/ruby/2.6.0/rss/maker/base.rb
>>> /usr/lib64/ruby/2.6.0/rss/maker/content.rb
>>> /usr/lib64/ruby/2.6.0/rss/maker/dublincore.rb
>>> /usr/lib64/ruby/2.6.0/rss/maker/entry.rb
>>> /usr/lib64/ruby/2.6.0/rss/maker/feed.rb
>>> /usr/lib64/ruby/2.6.0/rss/maker/image.rb
>>> /usr/lib64/ruby/2.6.0/rss/maker/itunes.rb
>>> /usr/lib64/ruby/2.6.0/rss/maker/slash.rb
>>> /usr/lib64/ruby/2.6.0/rss/maker/syndication.rb
>>> /usr/lib64/ruby/2.6.0/rss/maker/taxonomy.rb
>>> /usr/lib64/ruby/2.6.0/rss/maker/trackback.rb
>>> /usr/lib64/ruby/2.6.0/rss/maker.rb
>>> /usr/lib64/ruby/2.6.0/rss/parser.rb
>>> /usr/lib64/ruby/2.6.0/rss/rexmlparser.rb
>>> /usr/lib64/ruby/2.6.0/rss/rss.rb
>>> /usr/lib64/ruby/2.6.0/rss/slash.rb
>>> /usr/lib64/ruby/2.6.0/rss/syndication.rb
>>> /usr/lib64/ruby/2.6.0/rss/taxonomy.rb
>>> /usr/lib64/ruby/2.6.0/rss/trackback.rb
>>> /usr/lib64/ruby/2.6.0/rss/utils.rb
>>> /usr/lib64/ruby/2.6.0/rss/xml-stylesheet.rb
>>> /usr/lib64/ruby/2.6.0/rss/xml.rb
>>> /usr/lib64/ruby/2.6.0/rss/xmlparser.rb
>>> /usr/lib64/ruby/2.6.0/rss/xmlscanner.rb
>>> /usr/lib64/ruby/2.6.0/rss.rb
>>> /usr/lib64/ruby/2.6.0/rubygems.rb
>>> /usr/lib64/ruby/2.6.0/scanf.rb
>>> /usr/lib64/ruby/2.6.0/securerandom.rb
>>> /usr/lib64/ruby/2.6.0/set.rb
--- /usr/lib64/ruby/2.6.0/shell/
>>> /usr/lib64/ruby/2.6.0/shell/builtin-command.rb
>>> /usr/lib64/ruby/2.6.0/shell/command-processor.rb
>>> /usr/lib64/ruby/2.6.0/shell/error.rb
>>> /usr/lib64/ruby/2.6.0/shell/filter.rb
>>> /usr/lib64/ruby/2.6.0/shell/process-controller.rb
>>> /usr/lib64/ruby/2.6.0/shell/system-command.rb
>>> /usr/lib64/ruby/2.6.0/shell/version.rb
>>> /usr/lib64/ruby/2.6.0/shell.rb
>>> /usr/lib64/ruby/2.6.0/shellwords.rb
>>> /usr/lib64/ruby/2.6.0/singleton.rb
>>> /usr/lib64/ruby/2.6.0/socket.rb
>>> /usr/lib64/ruby/2.6.0/sync.rb
--- /usr/lib64/ruby/2.6.0/syslog/
>>> /usr/lib64/ruby/2.6.0/syslog/logger.rb
>>> /usr/lib64/ruby/2.6.0/tempfile.rb
--- /usr/lib64/ruby/2.6.0/thwait/
>>> /usr/lib64/ruby/2.6.0/thwait/version.rb
>>> /usr/lib64/ruby/2.6.0/thwait.rb
>>> /usr/lib64/ruby/2.6.0/time.rb
>>> /usr/lib64/ruby/2.6.0/timeout.rb
>>> /usr/lib64/ruby/2.6.0/tmpdir.rb
--- /usr/lib64/ruby/2.6.0/tracer/
>>> /usr/lib64/ruby/2.6.0/tracer/version.rb
>>> /usr/lib64/ruby/2.6.0/tracer.rb
>>> /usr/lib64/ruby/2.6.0/tsort.rb
>>> /usr/lib64/ruby/2.6.0/un.rb
--- /usr/lib64/ruby/2.6.0/unicode_normalize/
>>> /usr/lib64/ruby/2.6.0/unicode_normalize/normalize.rb
>>> /usr/lib64/ruby/2.6.0/unicode_normalize/tables.rb
--- /usr/lib64/ruby/2.6.0/uri/
>>> /usr/lib64/ruby/2.6.0/uri/common.rb
>>> /usr/lib64/ruby/2.6.0/uri/file.rb
>>> /usr/lib64/ruby/2.6.0/uri/ftp.rb
>>> /usr/lib64/ruby/2.6.0/uri/generic.rb
>>> /usr/lib64/ruby/2.6.0/uri/http.rb
>>> /usr/lib64/ruby/2.6.0/uri/https.rb
>>> /usr/lib64/ruby/2.6.0/uri/ldap.rb
>>> /usr/lib64/ruby/2.6.0/uri/ldaps.rb
>>> /usr/lib64/ruby/2.6.0/uri/mailto.rb
>>> /usr/lib64/ruby/2.6.0/uri/rfc2396_parser.rb
>>> /usr/lib64/ruby/2.6.0/uri/rfc3986_parser.rb
>>> /usr/lib64/ruby/2.6.0/uri.rb
>>> /usr/lib64/ruby/2.6.0/weakref.rb
--- /usr/lib64/ruby/2.6.0/webrick/
>>> /usr/lib64/ruby/2.6.0/webrick/accesslog.rb
>>> /usr/lib64/ruby/2.6.0/webrick/cgi.rb
>>> /usr/lib64/ruby/2.6.0/webrick/compat.rb
>>> /usr/lib64/ruby/2.6.0/webrick/config.rb
>>> /usr/lib64/ruby/2.6.0/webrick/cookie.rb
>>> /usr/lib64/ruby/2.6.0/webrick/htmlutils.rb
--- /usr/lib64/ruby/2.6.0/webrick/httpauth/
>>> /usr/lib64/ruby/2.6.0/webrick/httpauth/authenticator.rb
>>> /usr/lib64/ruby/2.6.0/webrick/httpauth/basicauth.rb
>>> /usr/lib64/ruby/2.6.0/webrick/httpauth/digestauth.rb
>>> /usr/lib64/ruby/2.6.0/webrick/httpauth/htdigest.rb
>>> /usr/lib64/ruby/2.6.0/webrick/httpauth/htgroup.rb
>>> /usr/lib64/ruby/2.6.0/webrick/httpauth/htpasswd.rb
>>> /usr/lib64/ruby/2.6.0/webrick/httpauth/userdb.rb
>>> /usr/lib64/ruby/2.6.0/webrick/httpauth.rb
>>> /usr/lib64/ruby/2.6.0/webrick/httpproxy.rb
>>> /usr/lib64/ruby/2.6.0/webrick/httprequest.rb
>>> /usr/lib64/ruby/2.6.0/webrick/httpresponse.rb
>>> /usr/lib64/ruby/2.6.0/webrick/https.rb
>>> /usr/lib64/ruby/2.6.0/webrick/httpserver.rb
--- /usr/lib64/ruby/2.6.0/webrick/httpservlet/
>>> /usr/lib64/ruby/2.6.0/webrick/httpservlet/abstract.rb
>>> /usr/lib64/ruby/2.6.0/webrick/httpservlet/cgi_runner.rb
>>> /usr/lib64/ruby/2.6.0/webrick/httpservlet/cgihandler.rb
>>> /usr/lib64/ruby/2.6.0/webrick/httpservlet/erbhandler.rb
>>> /usr/lib64/ruby/2.6.0/webrick/httpservlet/filehandler.rb
>>> /usr/lib64/ruby/2.6.0/webrick/httpservlet/prochandler.rb
>>> /usr/lib64/ruby/2.6.0/webrick/httpservlet.rb
>>> /usr/lib64/ruby/2.6.0/webrick/httpstatus.rb
>>> /usr/lib64/ruby/2.6.0/webrick/httputils.rb
>>> /usr/lib64/ruby/2.6.0/webrick/httpversion.rb
>>> /usr/lib64/ruby/2.6.0/webrick/log.rb
>>> /usr/lib64/ruby/2.6.0/webrick/server.rb
>>> /usr/lib64/ruby/2.6.0/webrick/ssl.rb
>>> /usr/lib64/ruby/2.6.0/webrick/utils.rb
>>> /usr/lib64/ruby/2.6.0/webrick/version.rb
>>> /usr/lib64/ruby/2.6.0/webrick.rb
--- /usr/lib64/ruby/2.6.0/x86_64-linux/
--- /usr/lib64/ruby/2.6.0/x86_64-linux/bigdecimal/
>>> /usr/lib64/ruby/2.6.0/x86_64-linux/bigdecimal/util.so
>>> /usr/lib64/ruby/2.6.0/x86_64-linux/bigdecimal.so
--- /usr/lib64/ruby/2.6.0/x86_64-linux/cgi/
>>> /usr/lib64/ruby/2.6.0/x86_64-linux/cgi/escape.so
>>> /usr/lib64/ruby/2.6.0/x86_64-linux/continuation.so
>>> /usr/lib64/ruby/2.6.0/x86_64-linux/coverage.so
>>> /usr/lib64/ruby/2.6.0/x86_64-linux/date_core.so
>>> /usr/lib64/ruby/2.6.0/x86_64-linux/dbm.so
--- /usr/lib64/ruby/2.6.0/x86_64-linux/digest/
>>> /usr/lib64/ruby/2.6.0/x86_64-linux/digest/bubblebabble.so
>>> /usr/lib64/ruby/2.6.0/x86_64-linux/digest/md5.so
>>> /usr/lib64/ruby/2.6.0/x86_64-linux/digest/rmd160.so
>>> /usr/lib64/ruby/2.6.0/x86_64-linux/digest/sha1.so
>>> /usr/lib64/ruby/2.6.0/x86_64-linux/digest/sha2.so
>>> /usr/lib64/ruby/2.6.0/x86_64-linux/digest.so
--- /usr/lib64/ruby/2.6.0/x86_64-linux/enc/
>>> /usr/lib64/ruby/2.6.0/x86_64-linux/enc/big5.so
>>> /usr/lib64/ruby/2.6.0/x86_64-linux/enc/cp949.so
>>> /usr/lib64/ruby/2.6.0/x86_64-linux/enc/emacs_mule.so
>>> /usr/lib64/ruby/2.6.0/x86_64-linux/enc/encdb.so
>>> /usr/lib64/ruby/2.6.0/x86_64-linux/enc/euc_jp.so
>>> /usr/lib64/ruby/2.6.0/x86_64-linux/enc/euc_kr.so
>>> /usr/lib64/ruby/2.6.0/x86_64-linux/enc/euc_tw.so
>>> /usr/lib64/ruby/2.6.0/x86_64-linux/enc/gb18030.so
>>> /usr/lib64/ruby/2.6.0/x86_64-linux/enc/gb2312.so
>>> /usr/lib64/ruby/2.6.0/x86_64-linux/enc/gbk.so
>>> /usr/lib64/ruby/2.6.0/x86_64-linux/enc/iso_8859_1.so
>>> /usr/lib64/ruby/2.6.0/x86_64-linux/enc/iso_8859_10.so
>>> /usr/lib64/ruby/2.6.0/x86_64-linux/enc/iso_8859_11.so
>>> /usr/lib64/ruby/2.6.0/x86_64-linux/enc/iso_8859_13.so
>>> /usr/lib64/ruby/2.6.0/x86_64-linux/enc/iso_8859_14.so
>>> /usr/lib64/ruby/2.6.0/x86_64-linux/enc/iso_8859_15.so
>>> /usr/lib64/ruby/2.6.0/x86_64-linux/enc/iso_8859_16.so
>>> /usr/lib64/ruby/2.6.0/x86_64-linux/enc/iso_8859_2.so
>>> /usr/lib64/ruby/2.6.0/x86_64-linux/enc/iso_8859_3.so
>>> /usr/lib64/ruby/2.6.0/x86_64-linux/enc/iso_8859_4.so
>>> /usr/lib64/ruby/2.6.0/x86_64-linux/enc/iso_8859_5.so
>>> /usr/lib64/ruby/2.6.0/x86_64-linux/enc/iso_8859_6.so
>>> /usr/lib64/ruby/2.6.0/x86_64-linux/enc/iso_8859_7.so
>>> /usr/lib64/ruby/2.6.0/x86_64-linux/enc/iso_8859_8.so
>>> /usr/lib64/ruby/2.6.0/x86_64-linux/enc/iso_8859_9.so
>>> /usr/lib64/ruby/2.6.0/x86_64-linux/enc/koi8_r.so
>>> /usr/lib64/ruby/2.6.0/x86_64-linux/enc/koi8_u.so
>>> /usr/lib64/ruby/2.6.0/x86_64-linux/enc/shift_jis.so
--- /usr/lib64/ruby/2.6.0/x86_64-linux/enc/trans/
>>> /usr/lib64/ruby/2.6.0/x86_64-linux/enc/trans/big5.so
>>> /usr/lib64/ruby/2.6.0/x86_64-linux/enc/trans/chinese.so
>>> /usr/lib64/ruby/2.6.0/x86_64-linux/enc/trans/ebcdic.so
>>> /usr/lib64/ruby/2.6.0/x86_64-linux/enc/trans/emoji.so
>>> /usr/lib64/ruby/2.6.0/x86_64-linux/enc/trans/emoji_iso2022_kddi.so
>>> /usr/lib64/ruby/2.6.0/x86_64-linux/enc/trans/emoji_sjis_docomo.so
>>> /usr/lib64/ruby/2.6.0/x86_64-linux/enc/trans/emoji_sjis_kddi.so
>>> /usr/lib64/ruby/2.6.0/x86_64-linux/enc/trans/emoji_sjis_softbank.so
>>> /usr/lib64/ruby/2.6.0/x86_64-linux/enc/trans/escape.so
>>> /usr/lib64/ruby/2.6.0/x86_64-linux/enc/trans/gb18030.so
>>> /usr/lib64/ruby/2.6.0/x86_64-linux/enc/trans/gbk.so
>>> /usr/lib64/ruby/2.6.0/x86_64-linux/enc/trans/iso2022.so
>>> /usr/lib64/ruby/2.6.0/x86_64-linux/enc/trans/japanese.so
>>> /usr/lib64/ruby/2.6.0/x86_64-linux/enc/trans/japanese_euc.so
>>> /usr/lib64/ruby/2.6.0/x86_64-linux/enc/trans/japanese_sjis.so
>>> /usr/lib64/ruby/2.6.0/x86_64-linux/enc/trans/korean.so
>>> /usr/lib64/ruby/2.6.0/x86_64-linux/enc/trans/single_byte.so
>>> /usr/lib64/ruby/2.6.0/x86_64-linux/enc/trans/transdb.so
>>> /usr/lib64/ruby/2.6.0/x86_64-linux/enc/trans/utf8_mac.so
>>> /usr/lib64/ruby/2.6.0/x86_64-linux/enc/trans/utf_16_32.so
>>> /usr/lib64/ruby/2.6.0/x86_64-linux/enc/utf_16be.so
>>> /usr/lib64/ruby/2.6.0/x86_64-linux/enc/utf_16le.so
>>> /usr/lib64/ruby/2.6.0/x86_64-linux/enc/utf_32be.so
>>> /usr/lib64/ruby/2.6.0/x86_64-linux/enc/utf_32le.so
>>> /usr/lib64/ruby/2.6.0/x86_64-linux/enc/windows_1250.so
>>> /usr/lib64/ruby/2.6.0/x86_64-linux/enc/windows_1251.so
>>> /usr/lib64/ruby/2.6.0/x86_64-linux/enc/windows_1252.so
>>> /usr/lib64/ruby/2.6.0/x86_64-linux/enc/windows_1253.so
>>> /usr/lib64/ruby/2.6.0/x86_64-linux/enc/windows_1254.so
>>> /usr/lib64/ruby/2.6.0/x86_64-linux/enc/windows_1257.so
>>> /usr/lib64/ruby/2.6.0/x86_64-linux/enc/windows_31j.so
>>> /usr/lib64/ruby/2.6.0/x86_64-linux/etc.so
>>> /usr/lib64/ruby/2.6.0/x86_64-linux/fcntl.so
>>> /usr/lib64/ruby/2.6.0/x86_64-linux/fiber.so
>>> /usr/lib64/ruby/2.6.0/x86_64-linux/fiddle.so
>>> /usr/lib64/ruby/2.6.0/x86_64-linux/gdbm.so
--- /usr/lib64/ruby/2.6.0/x86_64-linux/io/
>>> /usr/lib64/ruby/2.6.0/x86_64-linux/io/console.so
>>> /usr/lib64/ruby/2.6.0/x86_64-linux/io/nonblock.so
>>> /usr/lib64/ruby/2.6.0/x86_64-linux/io/wait.so
--- /usr/lib64/ruby/2.6.0/x86_64-linux/json/
--- /usr/lib64/ruby/2.6.0/x86_64-linux/json/ext/
>>> /usr/lib64/ruby/2.6.0/x86_64-linux/json/ext/generator.so
>>> /usr/lib64/ruby/2.6.0/x86_64-linux/json/ext/parser.so
>>> /usr/lib64/ruby/2.6.0/x86_64-linux/nkf.so
>>> /usr/lib64/ruby/2.6.0/x86_64-linux/objspace.so
>>> /usr/lib64/ruby/2.6.0/x86_64-linux/openssl.so
>>> /usr/lib64/ruby/2.6.0/x86_64-linux/pathname.so
>>> /usr/lib64/ruby/2.6.0/x86_64-linux/psych.so
>>> /usr/lib64/ruby/2.6.0/x86_64-linux/pty.so
--- /usr/lib64/ruby/2.6.0/x86_64-linux/racc/
>>> /usr/lib64/ruby/2.6.0/x86_64-linux/racc/cparse.so
--- /usr/lib64/ruby/2.6.0/x86_64-linux/rbconfig/
>>> /usr/lib64/ruby/2.6.0/x86_64-linux/rbconfig/sizeof.so
>>> /usr/lib64/ruby/2.6.0/x86_64-linux/rbconfig.rb
>>> /usr/lib64/ruby/2.6.0/x86_64-linux/readline.so
>>> /usr/lib64/ruby/2.6.0/x86_64-linux/ripper.so
>>> /usr/lib64/ruby/2.6.0/x86_64-linux/sdbm.so
>>> /usr/lib64/ruby/2.6.0/x86_64-linux/socket.so
>>> /usr/lib64/ruby/2.6.0/x86_64-linux/stringio.so
>>> /usr/lib64/ruby/2.6.0/x86_64-linux/strscan.so
>>> /usr/lib64/ruby/2.6.0/x86_64-linux/syslog.so
>>> /usr/lib64/ruby/2.6.0/x86_64-linux/zlib.so
--- /usr/lib64/ruby/2.6.0/yaml/
>>> /usr/lib64/ruby/2.6.0/yaml/dbm.rb
>>> /usr/lib64/ruby/2.6.0/yaml/store.rb
>>> /usr/lib64/ruby/2.6.0/yaml.rb
--- /usr/lib64/ruby/gems/
--- /usr/lib64/ruby/gems/2.6.0/
--- /usr/lib64/ruby/gems/2.6.0/gems/
--- /usr/lib64/ruby/gems/2.6.0/gems/irb-1.0.0/
--- /usr/lib64/ruby/gems/2.6.0/gems/irb-1.0.0/exe/
>>> /usr/lib64/ruby/gems/2.6.0/gems/irb-1.0.0/exe/irb
--- /usr/lib64/ruby/gems/2.6.0/specifications/
--- /usr/lib64/ruby/gems/2.6.0/specifications/default/
>>> /usr/lib64/ruby/gems/2.6.0/specifications/default/bigdecimal-1.4.1.gemspec
>>> /usr/lib64/ruby/gems/2.6.0/specifications/default/cmath-1.0.0.gemspec
>>> /usr/lib64/ruby/gems/2.6.0/specifications/default/csv-3.0.9.gemspec
>>> /usr/lib64/ruby/gems/2.6.0/specifications/default/date-2.0.0.gemspec
>>> /usr/lib64/ruby/gems/2.6.0/specifications/default/dbm-1.0.0.gemspec
>>> /usr/lib64/ruby/gems/2.6.0/specifications/default/e2mmap-0.1.0.gemspec
>>> /usr/lib64/ruby/gems/2.6.0/specifications/default/etc-1.0.1.gemspec
>>> /usr/lib64/ruby/gems/2.6.0/specifications/default/fcntl-1.0.0.gemspec
>>> /usr/lib64/ruby/gems/2.6.0/specifications/default/fiddle-1.0.0.gemspec
>>> /usr/lib64/ruby/gems/2.6.0/specifications/default/fileutils-1.1.0.gemspec
>>> /usr/lib64/ruby/gems/2.6.0/specifications/default/forwardable-1.2.0.gemspec
>>> /usr/lib64/ruby/gems/2.6.0/specifications/default/gdbm-2.0.0.gemspec
>>> /usr/lib64/ruby/gems/2.6.0/specifications/default/io-console-0.4.7.gemspec
>>> /usr/lib64/ruby/gems/2.6.0/specifications/default/ipaddr-1.2.2.gemspec
>>> /usr/lib64/ruby/gems/2.6.0/specifications/default/irb-1.0.0.gemspec
>>> /usr/lib64/ruby/gems/2.6.0/specifications/default/logger-1.3.0.gemspec
>>> /usr/lib64/ruby/gems/2.6.0/specifications/default/matrix-0.1.0.gemspec
>>> /usr/lib64/ruby/gems/2.6.0/specifications/default/mutex_m-0.1.0.gemspec
>>> /usr/lib64/ruby/gems/2.6.0/specifications/default/openssl-2.1.2.gemspec
>>> /usr/lib64/ruby/gems/2.6.0/specifications/default/ostruct-0.1.0.gemspec
>>> /usr/lib64/ruby/gems/2.6.0/specifications/default/prime-0.1.0.gemspec
>>> /usr/lib64/ruby/gems/2.6.0/specifications/default/psych-3.1.0.gemspec
>>> /usr/lib64/ruby/gems/2.6.0/specifications/default/rexml-3.1.9.gemspec
>>> /usr/lib64/ruby/gems/2.6.0/specifications/default/rss-0.2.7.gemspec
>>> /usr/lib64/ruby/gems/2.6.0/specifications/default/scanf-1.0.0.gemspec
>>> /usr/lib64/ruby/gems/2.6.0/specifications/default/sdbm-1.0.0.gemspec
>>> /usr/lib64/ruby/gems/2.6.0/specifications/default/shell-0.7.gemspec
>>> /usr/lib64/ruby/gems/2.6.0/specifications/default/stringio-0.0.2.gemspec
>>> /usr/lib64/ruby/gems/2.6.0/specifications/default/strscan-1.0.0.gemspec
>>> /usr/lib64/ruby/gems/2.6.0/specifications/default/sync-0.5.0.gemspec
>>> /usr/lib64/ruby/gems/2.6.0/specifications/default/thwait-0.1.0.gemspec
>>> /usr/lib64/ruby/gems/2.6.0/specifications/default/tracer-0.1.0.gemspec
>>> /usr/lib64/ruby/gems/2.6.0/specifications/default/webrick-1.4.2.gemspec
>>> /usr/lib64/ruby/gems/2.6.0/specifications/default/zlib-1.0.0.gemspec
--- /usr/share/
--- /usr/share/man/
--- /usr/share/man/man1/
>>> /usr/share/man/man1/bundle-config26.1.bz2
>>> /usr/share/man/man1/bundle-doctor26.1.bz2
>>> /usr/share/man/man1/bundle-add26.1.bz2
>>> /usr/share/man/man1/bundle-check26.1.bz2
>>> /usr/share/man/man1/bundle-binstubs26.1.bz2
>>> /usr/share/man/man1/bundle-gem26.1.bz2
>>> /usr/share/man/man1/bundle-info26.1.bz2
>>> /usr/share/man/man1/bundle-clean26.1.bz2
>>> /usr/share/man/man1/bundle-exec26.1.bz2
>>> /usr/share/man/man1/bundle-init26.1.bz2
>>> /usr/share/man/man1/bundle-inject26.1.bz2
>>> /usr/share/man/man1/bundle-open26.1.bz2
>>> /usr/share/man/man1/bundle-install26.1.bz2
>>> /usr/share/man/man1/bundle-lock26.1.bz2
>>> /usr/share/man/man1/bundle-outdated26.1.bz2
>>> /usr/share/man/man1/bundle-list26.1.bz2
>>> /usr/share/man/man1/bundle-platform26.1.bz2
>>> /usr/share/man/man1/bundle-remove26.1.bz2
>>> /usr/share/man/man1/bundle-show26.1.bz2
>>> /usr/share/man/man1/bundle-update26.1.bz2
>>> /usr/share/man/man1/bundle-package26.1.bz2
>>> /usr/share/man/man1/bundle-viz26.1.bz2
>>> /usr/share/man/man1/bundle-pristine26.1.bz2
>>> /usr/share/man/man1/bundle26.1.bz2
>>> /usr/share/man/man1/irb26.1.bz2
>>> /usr/share/man/man1/ri26.1.bz2
>>> /usr/share/man/man1/erb26.1.bz2
>>> /usr/share/man/man1/ruby26.1.bz2
--- /usr/share/man/man5/
>>> /usr/share/man/man5/gemfile26.5.bz2
>>> Safely unmerging already-installed instance...
>>> Original instance of package unmerged safely.
 * 
 * To switch between available Ruby profiles, execute as root:
 * 	eselect ruby set ruby(23|24|...)
 * 
>>> dev-lang/ruby-2.6.6-r2 merged.
>>> Regenerating /etc/ld.so.cache...
