No package files given... Grabbing a set.
--- replaced obj /usr/lib64/perl5/vendor_perl/5.30.3/x86_64-linux-thread-multi/auto/CGI/.packlist
--- replaced dir /usr/lib64/perl5/vendor_perl/5.30.3/x86_64-linux-thread-multi/auto/CGI
--- replaced dir /usr/lib64/perl5/vendor_perl/5.30.3/x86_64-linux-thread-multi/auto
--- replaced dir /usr/lib64/perl5/vendor_perl/5.30.3/x86_64-linux-thread-multi
--- replaced obj /usr/lib64/perl5/vendor_perl/5.30.3/Fh.pm
--- replaced obj /usr/lib64/perl5/vendor_perl/5.30.3/CGI/Util.pm
--- replaced obj /usr/lib64/perl5/vendor_perl/5.30.3/CGI/Push.pm
--- replaced obj /usr/lib64/perl5/vendor_perl/5.30.3/CGI/Pretty.pm
--- replaced obj /usr/lib64/perl5/vendor_perl/5.30.3/CGI/HTML/Functions.pod
--- replaced obj /usr/lib64/perl5/vendor_perl/5.30.3/CGI/HTML/Functions.pm
--- replaced dir /usr/lib64/perl5/vendor_perl/5.30.3/CGI/HTML
--- replaced obj /usr/lib64/perl5/vendor_perl/5.30.3/CGI/File/Temp.pm
--- replaced dir /usr/lib64/perl5/vendor_perl/5.30.3/CGI/File
--- replaced obj /usr/lib64/perl5/vendor_perl/5.30.3/CGI/Cookie.pm
--- replaced obj /usr/lib64/perl5/vendor_perl/5.30.3/CGI/Carp.pm
--- replaced obj /usr/lib64/perl5/vendor_perl/5.30.3/CGI.pod
--- replaced obj /usr/lib64/perl5/vendor_perl/5.30.3/CGI.pm
--- replaced dir /usr/lib64/perl5/vendor_perl/5.30.3/CGI
--- replaced dir /usr/lib64/perl5/vendor_perl/5.30.3
--- replaced dir /usr/lib64/perl5/vendor_perl
--- replaced dir /usr/lib64/perl5
--- replaced dir /usr/lib64
--- replaced dir /usr
>>> Regenerating /etc/ld.so.cache...
