 * Package:    dev-java/icedtea-bin-3.16.0
 * Repository: gentoo
 * Maintainer: gyakovlev@gentoo.org java@gentoo.org
 * USE:        abi_x86_64 alsa amd64 cups elibc_glibc gtk kernel_linux source userland_GNU
 * FEATURES:   ccache network-sandbox preserve-libs sandbox userpriv usersandbox
 * /etc/portage/package.cflags/ltoworkarounds.conf -> */*: *FLAGS+=-Wl,-O4 *FLAGS-=-Wl,-O1
 * FEATURES='assume-digests binpkg-docompress binpkg-dostrip binpkg-logs binpkg-multi-instance buildpkg ccache cgroup compress-index config-protect-if-modified distlocks fixlafiles ipc-sandbox merge-sync multilib-strict network-sandbox news nodoc parallel-fetch parallel-install pid-sandbox preserve-libs qa-unresolved-soname-deps sandbox sfperms strict unknown-features-warn unmerge-logs unmerge-orphans userfetch userpriv usersandbox usersync xattr'
 * CFLAGS='-march=znver2 -pipe -g0 -O3 -fgraphite-identity -floop-nest-optimize -fdevirtualize-at-ltrans -fipa-pta -fno-semantic-interposition -flto=12 -fno-plt -fno-signed-zeros -fno-trapping-math -fassociative-math -freciprocal-math -fno-math-errno -ffinite-math-only -fno-rounding-math -fno-signaling-nans -fcx-limited-range -fexcess-precision=fast -falign-functions=32 -fno-stack-protector -fno-stack-clash-protection -fstack-check=no -fno-stack-check -fuse-linker-plugin -Wl,-O4 -Wl,--as-needed -Wl,-lpthread -Wl,-lgomp -Wl,-z,norelro -Wl,-z,now -Wl,--sort-common -s'
 * CXXFLAGS='-march=znver2 -pipe -g0 -O3 -fgraphite-identity -floop-nest-optimize -fdevirtualize-at-ltrans -fipa-pta -fno-semantic-interposition -flto=12 -fno-plt -fno-signed-zeros -fno-trapping-math -fassociative-math -freciprocal-math -fno-math-errno -ffinite-math-only -fno-rounding-math -fno-signaling-nans -fcx-limited-range -fexcess-precision=fast -falign-functions=32 -fno-stack-protector -fno-stack-clash-protection -fstack-check=no -fno-stack-check -fuse-linker-plugin -Wl,-O4 -Wl,--as-needed -Wl,-lpthread -Wl,-lgomp -Wl,-z,norelro -Wl,-z,now -Wl,--sort-common -s'
 * FFLAGS='-march=znver2 -pipe -g0 -O3 -fgraphite-identity -floop-nest-optimize -fdevirtualize-at-ltrans -fipa-pta -fno-semantic-interposition -flto=12 -fno-plt -fno-signed-zeros -fno-trapping-math -fassociative-math -freciprocal-math -fno-math-errno -ffinite-math-only -fno-rounding-math -fno-signaling-nans -fcx-limited-range -fexcess-precision=fast -falign-functions=32 -fno-stack-protector -fno-stack-clash-protection -fstack-check=no -fno-stack-check -fuse-linker-plugin -Wl,-O4 -Wl,--as-needed -Wl,-lpthread -Wl,-lgomp -Wl,-z,norelro -Wl,-z,now -Wl,--sort-common -s'
 * FCFLAGS='-march=znver2 -pipe -g0 -O3 -fgraphite-identity -floop-nest-optimize -fdevirtualize-at-ltrans -fipa-pta -fno-semantic-interposition -flto=12 -fno-plt -fno-signed-zeros -fno-trapping-math -fassociative-math -freciprocal-math -fno-math-errno -ffinite-math-only -fno-rounding-math -fno-signaling-nans -fcx-limited-range -fexcess-precision=fast -falign-functions=32 -fno-stack-protector -fno-stack-clash-protection -fstack-check=no -fno-stack-check -fuse-linker-plugin -Wl,-O4 -Wl,--as-needed -Wl,-lpthread -Wl,-lgomp -Wl,-z,norelro -Wl,-z,now -Wl,--sort-common -s'
 * F77FLAGS='-march=znver2 -pipe -g0 -O3 -fgraphite-identity -floop-nest-optimize -fdevirtualize-at-ltrans -fipa-pta -fno-semantic-interposition -flto=12 -fno-plt -fno-signed-zeros -fno-trapping-math -fassociative-math -freciprocal-math -fno-math-errno -ffinite-math-only -fno-rounding-math -fno-signaling-nans -fcx-limited-range -fexcess-precision=fast -falign-functions=32 -fno-stack-protector -fno-stack-clash-protection -fstack-check=no -fno-stack-check -fuse-linker-plugin -Wl,-O4 -Wl,--as-needed -Wl,-lpthread -Wl,-lgomp -Wl,-z,norelro -Wl,-z,now -Wl,--sort-common -s'
 * LDFLAGS='-march=znver2 -pipe -g0 -O3 -fgraphite-identity -floop-nest-optimize -fdevirtualize-at-ltrans -fipa-pta -fno-semantic-interposition -flto=12 -fno-plt -fno-signed-zeros -fno-trapping-math -fassociative-math -freciprocal-math -fno-math-errno -ffinite-math-only -fno-rounding-math -fno-signaling-nans -fcx-limited-range -fexcess-precision=fast -falign-functions=32 -fno-stack-protector -fno-stack-clash-protection -fstack-check=no -fno-stack-check -fuse-linker-plugin -Wl,-O4 -Wl,--as-needed -Wl,-lpthread -Wl,-lgomp -Wl,-z,norelro -Wl,-z,now -Wl,--sort-common -s'
 * MAKEOPTS='-j12 -l12'
 * gcc () 11.0.0 20200531 (experimental)
 * g++ () 11.0.0 20200531 (experimental)
 * GNU ld (Gentoo 2.34 p4) 2.34.0
 * Linux ryzen.gnum.org 5.4.36 #1 SMP Thu Apr 30 04:38:28 UTC 2020 x86_64 AMD Ryzen 5 3600 6-Core Processor AuthenticAMD GNU/Linux
dev-java/icedtea-bin: 32 seconds average for 6 merges
2020-05-16T16:03:17 >>> dev-java/icedtea-bin: 18 seconds
2020-05-20T09:38:09 >>> dev-java/icedtea-bin: 49 seconds
2020-05-21T14:55:39 >>> dev-java/icedtea-bin: 31 seconds
2020-05-25T15:25:44 >>> dev-java/icedtea-bin: 16 seconds
2020-05-28T02:53:41 >>> dev-java/icedtea-bin: 15 seconds
2020-05-30T22:19:09 >>> dev-java/icedtea-bin: 1 minute, 5 seconds
]0;emerge 00:28:09 110|130 icedtea-bin 00:32 (root@ryzen.gnum.org)kemerge 00:28:09 110|130 icedtea-bin 00:32 (root@ryzen.gnum.org)\>>> Unpacking source...
>>> Unpacking icedtea-bin-src-3.16.0.tar.xz to /tmp/portage/dev-java/icedtea-bin-3.16.0/work
>>> Unpacking icedtea-bin-core-3.16.0-amd64.tar.xz to /tmp/portage/dev-java/icedtea-bin-3.16.0/work
>>> Source unpacked in /tmp/portage/dev-java/icedtea-bin-3.16.0/work
>>> Preparing source in /tmp/portage/dev-java/icedtea-bin-3.16.0/work ...
>>> Source prepared.
>>> Configuring source in /tmp/portage/dev-java/icedtea-bin-3.16.0/work ...
>>> Source configured.
>>> Compiling source in /tmp/portage/dev-java/icedtea-bin-3.16.0/work ...
>>> Source compiled.
>>> Test phase [not enabled]: dev-java/icedtea-bin-3.16.0

>>> Install dev-java/icedtea-bin-3.16.0 into /tmp/portage/dev-java/icedtea-bin-3.16.0/image/
>>> Completed installing dev-java/icedtea-bin-3.16.0 into /tmp/portage/dev-java/icedtea-bin-3.16.0/image/

 * Final size of build directory: 152440 KiB (148.8 MiB)
 * Final size of installed tree:  150800 KiB (147.2 MiB)

./
./usr/
./usr/lib/
./usr/lib/jvm/
./usr/lib/jvm/icedtea-bin-8
./usr/share/
./usr/share/java-config-2/
./usr/share/java-config-2/vm/
./usr/share/java-config-2/vm/icedtea-bin-8
./usr/share/doc/
./usr/share/doc/icedtea-bin-3.16.0/
./usr/share/doc/icedtea-bin-3.16.0/README.bz2
./usr/share/doc/icedtea-bin-3.16.0/AUTHORS.bz2
./usr/share/doc/icedtea-bin-3.16.0/ASSEMBLY_EXCEPTION.bz2
./usr/share/doc/icedtea-bin-3.16.0/NEWS.bz2
./usr/share/doc/icedtea-bin-3.16.0/THIRD_PARTY_README.bz2
./opt/
./opt/icedtea-bin-3.16.0/
./opt/icedtea-bin-3.16.0/lib/
./opt/icedtea-bin-3.16.0/lib/amd64/
./opt/icedtea-bin-3.16.0/lib/amd64/libjawt.so
./opt/icedtea-bin-3.16.0/lib/amd64/jli/
./opt/icedtea-bin-3.16.0/lib/amd64/jli/libjli.so
./opt/icedtea-bin-3.16.0/lib/jconsole.jar
./opt/icedtea-bin-3.16.0/lib/dt.jar
./opt/icedtea-bin-3.16.0/lib/jexec
./opt/icedtea-bin-3.16.0/lib/sa-jdi.jar
./opt/icedtea-bin-3.16.0/lib/orb.idl
./opt/icedtea-bin-3.16.0/lib/tools.jar
./opt/icedtea-bin-3.16.0/lib/ir.idl
./opt/icedtea-bin-3.16.0/jre/
./opt/icedtea-bin-3.16.0/jre/lib/
./opt/icedtea-bin-3.16.0/jre/lib/charsets.jar
./opt/icedtea-bin-3.16.0/jre/lib/meta-index
./opt/icedtea-bin-3.16.0/jre/lib/jvm.hprof.txt
./opt/icedtea-bin-3.16.0/jre/lib/management-agent.jar
./opt/icedtea-bin-3.16.0/jre/lib/calendars.properties
./opt/icedtea-bin-3.16.0/jre/lib/jce.jar
./opt/icedtea-bin-3.16.0/jre/lib/sound.properties
./opt/icedtea-bin-3.16.0/jre/lib/amd64/
./opt/icedtea-bin-3.16.0/jre/lib/amd64/libawt.so
./opt/icedtea-bin-3.16.0/jre/lib/amd64/libnpt.so
./opt/icedtea-bin-3.16.0/jre/lib/amd64/libhprof.so
./opt/icedtea-bin-3.16.0/jre/lib/amd64/libjsdt.so
./opt/icedtea-bin-3.16.0/jre/lib/amd64/server/
./opt/icedtea-bin-3.16.0/jre/lib/amd64/server/libjsig.so
./opt/icedtea-bin-3.16.0/jre/lib/amd64/server/libjvm.so
./opt/icedtea-bin-3.16.0/jre/lib/amd64/server/classes.jsa
./opt/icedtea-bin-3.16.0/jre/lib/amd64/server/Xusage.txt
./opt/icedtea-bin-3.16.0/jre/lib/amd64/libsaproc.so
./opt/icedtea-bin-3.16.0/jre/lib/amd64/libnet.so
./opt/icedtea-bin-3.16.0/jre/lib/amd64/libmanagement.so
./opt/icedtea-bin-3.16.0/jre/lib/amd64/libattach.so
./opt/icedtea-bin-3.16.0/jre/lib/amd64/libdt_socket.so
./opt/icedtea-bin-3.16.0/jre/lib/amd64/libjsig.so
./opt/icedtea-bin-3.16.0/jre/lib/amd64/libjsoundalsa.so
./opt/icedtea-bin-3.16.0/jre/lib/amd64/libawt_headless.so
./opt/icedtea-bin-3.16.0/jre/lib/amd64/libj2sctp.so
./opt/icedtea-bin-3.16.0/jre/lib/amd64/libjavalcms.so
./opt/icedtea-bin-3.16.0/jre/lib/amd64/libjsound.so
./opt/icedtea-bin-3.16.0/jre/lib/amd64/libj2gss.so
./opt/icedtea-bin-3.16.0/jre/lib/amd64/libjava_crw_demo.so
./opt/icedtea-bin-3.16.0/jre/lib/amd64/libfontmanager.so
./opt/icedtea-bin-3.16.0/jre/lib/amd64/libjawt.so
./opt/icedtea-bin-3.16.0/jre/lib/amd64/jvm.cfg
./opt/icedtea-bin-3.16.0/jre/lib/amd64/libsunec.so
./opt/icedtea-bin-3.16.0/jre/lib/amd64/libunpack.so
./opt/icedtea-bin-3.16.0/jre/lib/amd64/libawt_xawt.so
./opt/icedtea-bin-3.16.0/jre/lib/amd64/libnio.so
./opt/icedtea-bin-3.16.0/jre/lib/amd64/libjavajpeg.so
./opt/icedtea-bin-3.16.0/jre/lib/amd64/libmlib_image.so
./opt/icedtea-bin-3.16.0/jre/lib/amd64/libj2pkcs11.so
./opt/icedtea-bin-3.16.0/jre/lib/amd64/libj2pcsc.so
./opt/icedtea-bin-3.16.0/jre/lib/amd64/libsplashscreen.so
./opt/icedtea-bin-3.16.0/jre/lib/amd64/jli/
./opt/icedtea-bin-3.16.0/jre/lib/amd64/jli/libjli.so
./opt/icedtea-bin-3.16.0/jre/lib/amd64/libjdwp.so
./opt/icedtea-bin-3.16.0/jre/lib/amd64/libverify.so
./opt/icedtea-bin-3.16.0/jre/lib/amd64/libjaas_unix.so
./opt/icedtea-bin-3.16.0/jre/lib/amd64/libjava.so
./opt/icedtea-bin-3.16.0/jre/lib/amd64/libinstrument.so
./opt/icedtea-bin-3.16.0/jre/lib/amd64/libzip.so
./opt/icedtea-bin-3.16.0/jre/lib/psfont.properties.ja
./opt/icedtea-bin-3.16.0/jre/lib/resources.jar
./opt/icedtea-bin-3.16.0/jre/lib/currency.data
./opt/icedtea-bin-3.16.0/jre/lib/classlist
./opt/icedtea-bin-3.16.0/jre/lib/images/
./opt/icedtea-bin-3.16.0/jre/lib/images/cursors/
./opt/icedtea-bin-3.16.0/jre/lib/images/cursors/invalid32x32.gif
./opt/icedtea-bin-3.16.0/jre/lib/images/cursors/motif_MoveNoDrop32x32.gif
./opt/icedtea-bin-3.16.0/jre/lib/images/cursors/motif_MoveDrop32x32.gif
./opt/icedtea-bin-3.16.0/jre/lib/images/cursors/motif_CopyDrop32x32.gif
./opt/icedtea-bin-3.16.0/jre/lib/images/cursors/motif_CopyNoDrop32x32.gif
./opt/icedtea-bin-3.16.0/jre/lib/images/cursors/motif_LinkDrop32x32.gif
./opt/icedtea-bin-3.16.0/jre/lib/images/cursors/motif_LinkNoDrop32x32.gif
./opt/icedtea-bin-3.16.0/jre/lib/images/cursors/cursors.properties
./opt/icedtea-bin-3.16.0/jre/lib/jsse.jar
./opt/icedtea-bin-3.16.0/jre/lib/management/
./opt/icedtea-bin-3.16.0/jre/lib/management/snmp.acl.template
./opt/icedtea-bin-3.16.0/jre/lib/management/management.properties
./opt/icedtea-bin-3.16.0/jre/lib/management/jmxremote.password.template
./opt/icedtea-bin-3.16.0/jre/lib/management/jmxremote.access
./opt/icedtea-bin-3.16.0/jre/lib/hijrah-config-umalqura.properties
./opt/icedtea-bin-3.16.0/jre/lib/security/
./opt/icedtea-bin-3.16.0/jre/lib/security/policy/
./opt/icedtea-bin-3.16.0/jre/lib/security/policy/limited/
./opt/icedtea-bin-3.16.0/jre/lib/security/policy/limited/local_policy.jar
./opt/icedtea-bin-3.16.0/jre/lib/security/policy/limited/US_export_policy.jar
./opt/icedtea-bin-3.16.0/jre/lib/security/policy/unlimited/
./opt/icedtea-bin-3.16.0/jre/lib/security/policy/unlimited/local_policy.jar
./opt/icedtea-bin-3.16.0/jre/lib/security/policy/unlimited/US_export_policy.jar
./opt/icedtea-bin-3.16.0/jre/lib/security/java.policy
./opt/icedtea-bin-3.16.0/jre/lib/security/blacklisted.certs
./opt/icedtea-bin-3.16.0/jre/lib/security/java.security
./opt/icedtea-bin-3.16.0/jre/lib/security/cacerts
./opt/icedtea-bin-3.16.0/jre/lib/security/nss.cfg
./opt/icedtea-bin-3.16.0/jre/lib/cmm/
./opt/icedtea-bin-3.16.0/jre/lib/cmm/PYCC.pf
./opt/icedtea-bin-3.16.0/jre/lib/cmm/LINEAR_RGB.pf
./opt/icedtea-bin-3.16.0/jre/lib/cmm/CIEXYZ.pf
./opt/icedtea-bin-3.16.0/jre/lib/cmm/GRAY.pf
./opt/icedtea-bin-3.16.0/jre/lib/cmm/sRGB.pf
./opt/icedtea-bin-3.16.0/jre/lib/rt.jar
./opt/icedtea-bin-3.16.0/jre/lib/jexec
./opt/icedtea-bin-3.16.0/jre/lib/ext/
./opt/icedtea-bin-3.16.0/jre/lib/ext/meta-index
./opt/icedtea-bin-3.16.0/jre/lib/ext/cldrdata.jar
./opt/icedtea-bin-3.16.0/jre/lib/ext/dnsns.jar
./opt/icedtea-bin-3.16.0/jre/lib/ext/sunec.jar
./opt/icedtea-bin-3.16.0/jre/lib/ext/nashorn.jar
./opt/icedtea-bin-3.16.0/jre/lib/ext/localedata.jar
./opt/icedtea-bin-3.16.0/jre/lib/ext/zipfs.jar
./opt/icedtea-bin-3.16.0/jre/lib/ext/sunpkcs11.jar
./opt/icedtea-bin-3.16.0/jre/lib/ext/sunjce_provider.jar
./opt/icedtea-bin-3.16.0/jre/lib/ext/jaccess.jar
./opt/icedtea-bin-3.16.0/jre/lib/psfontj2d.properties
./opt/icedtea-bin-3.16.0/jre/lib/tz.properties
./opt/icedtea-bin-3.16.0/jre/lib/logging.properties
./opt/icedtea-bin-3.16.0/jre/lib/net.properties
./opt/icedtea-bin-3.16.0/jre/lib/tzdb.dat
./opt/icedtea-bin-3.16.0/jre/lib/content-types.properties
./opt/icedtea-bin-3.16.0/jre/lib/flavormap.properties
./opt/icedtea-bin-3.16.0/jre/bin/
./opt/icedtea-bin-3.16.0/jre/bin/rmid
./opt/icedtea-bin-3.16.0/jre/bin/servertool
./opt/icedtea-bin-3.16.0/jre/bin/jjs
./opt/icedtea-bin-3.16.0/jre/bin/policytool
./opt/icedtea-bin-3.16.0/jre/bin/java
./opt/icedtea-bin-3.16.0/jre/bin/rmiregistry
./opt/icedtea-bin-3.16.0/jre/bin/tnameserv
./opt/icedtea-bin-3.16.0/jre/bin/orbd
./opt/icedtea-bin-3.16.0/jre/bin/keytool
./opt/icedtea-bin-3.16.0/jre/bin/unpack200
./opt/icedtea-bin-3.16.0/jre/bin/pack200
./opt/icedtea-bin-3.16.0/jre/.systemPrefs/
./opt/icedtea-bin-3.16.0/jre/.systemPrefs/.system.lock
./opt/icedtea-bin-3.16.0/jre/.systemPrefs/.systemRootModFile
./opt/icedtea-bin-3.16.0/bin/
./opt/icedtea-bin-3.16.0/bin/rmid
./opt/icedtea-bin-3.16.0/bin/jstack
./opt/icedtea-bin-3.16.0/bin/wsimport
./opt/icedtea-bin-3.16.0/bin/servertool
./opt/icedtea-bin-3.16.0/bin/jjs
./opt/icedtea-bin-3.16.0/bin/native2ascii
./opt/icedtea-bin-3.16.0/bin/java-rmi.cgi
./opt/icedtea-bin-3.16.0/bin/policytool
./opt/icedtea-bin-3.16.0/bin/jdeps
./opt/icedtea-bin-3.16.0/bin/idlj
./opt/icedtea-bin-3.16.0/bin/java
./opt/icedtea-bin-3.16.0/bin/jhat
./opt/icedtea-bin-3.16.0/bin/schemagen
./opt/icedtea-bin-3.16.0/bin/javac
./opt/icedtea-bin-3.16.0/bin/javah
./opt/icedtea-bin-3.16.0/bin/jrunscript
./opt/icedtea-bin-3.16.0/bin/rmiregistry
./opt/icedtea-bin-3.16.0/bin/jcmd
./opt/icedtea-bin-3.16.0/bin/tnameserv
./opt/icedtea-bin-3.16.0/bin/jarsigner
./opt/icedtea-bin-3.16.0/bin/jdb
./opt/icedtea-bin-3.16.0/bin/appletviewer
./opt/icedtea-bin-3.16.0/bin/extcheck
./opt/icedtea-bin-3.16.0/bin/jinfo
./opt/icedtea-bin-3.16.0/bin/jmap
./opt/icedtea-bin-3.16.0/bin/jar
./opt/icedtea-bin-3.16.0/bin/serialver
./opt/icedtea-bin-3.16.0/bin/javap
./opt/icedtea-bin-3.16.0/bin/javadoc
./opt/icedtea-bin-3.16.0/bin/clhsdb
./opt/icedtea-bin-3.16.0/bin/jstatd
./opt/icedtea-bin-3.16.0/bin/hsdb
./opt/icedtea-bin-3.16.0/bin/xjc
./opt/icedtea-bin-3.16.0/bin/jconsole
./opt/icedtea-bin-3.16.0/bin/jsadebugd
./opt/icedtea-bin-3.16.0/bin/rmic
./opt/icedtea-bin-3.16.0/bin/orbd
./opt/icedtea-bin-3.16.0/bin/jps
./opt/icedtea-bin-3.16.0/bin/keytool
./opt/icedtea-bin-3.16.0/bin/wsgen
./opt/icedtea-bin-3.16.0/bin/unpack200
./opt/icedtea-bin-3.16.0/bin/jstat
./opt/icedtea-bin-3.16.0/bin/pack200
./opt/icedtea-bin-3.16.0/include/
./opt/icedtea-bin-3.16.0/include/classfile_constants.h
./opt/icedtea-bin-3.16.0/include/jawt.h
./opt/icedtea-bin-3.16.0/include/jni.h
./opt/icedtea-bin-3.16.0/include/jdwpTransport.h
./opt/icedtea-bin-3.16.0/include/jvmticmlr.h
./opt/icedtea-bin-3.16.0/include/linux/
./opt/icedtea-bin-3.16.0/include/linux/jawt_md.h
./opt/icedtea-bin-3.16.0/include/linux/jni_md.h
./opt/icedtea-bin-3.16.0/include/jvmti.h
./opt/icedtea-bin-3.16.0/src.zip
./opt/icedtea-bin-3.16.0/man/
./opt/icedtea-bin-3.16.0/man/man1/
./opt/icedtea-bin-3.16.0/man/man1/jsadebugd.1
./opt/icedtea-bin-3.16.0/man/man1/jjs.1
./opt/icedtea-bin-3.16.0/man/man1/wsgen.1
./opt/icedtea-bin-3.16.0/man/man1/idlj.1
./opt/icedtea-bin-3.16.0/man/man1/javap.1
./opt/icedtea-bin-3.16.0/man/man1/native2ascii.1
./opt/icedtea-bin-3.16.0/man/man1/java.1
./opt/icedtea-bin-3.16.0/man/man1/rmid.1
./opt/icedtea-bin-3.16.0/man/man1/extcheck.1
./opt/icedtea-bin-3.16.0/man/man1/jinfo.1
./opt/icedtea-bin-3.16.0/man/man1/jarsigner.1
./opt/icedtea-bin-3.16.0/man/man1/jmap.1
./opt/icedtea-bin-3.16.0/man/man1/rmiregistry.1
./opt/icedtea-bin-3.16.0/man/man1/appletviewer.1
./opt/icedtea-bin-3.16.0/man/man1/jstack.1
./opt/icedtea-bin-3.16.0/man/man1/wsimport.1
./opt/icedtea-bin-3.16.0/man/man1/jdb.1
./opt/icedtea-bin-3.16.0/man/man1/xjc.1
./opt/icedtea-bin-3.16.0/man/man1/serialver.1
./opt/icedtea-bin-3.16.0/man/man1/jconsole.1
./opt/icedtea-bin-3.16.0/man/man1/jrunscript.1
./opt/icedtea-bin-3.16.0/man/man1/orbd.1
./opt/icedtea-bin-3.16.0/man/man1/javac.1
./opt/icedtea-bin-3.16.0/man/man1/jhat.1
./opt/icedtea-bin-3.16.0/man/man1/policytool.1
./opt/icedtea-bin-3.16.0/man/man1/unpack200.1
./opt/icedtea-bin-3.16.0/man/man1/pack200.1
./opt/icedtea-bin-3.16.0/man/man1/rmic.1
./opt/icedtea-bin-3.16.0/man/man1/tnameserv.1
./opt/icedtea-bin-3.16.0/man/man1/jar.1
./opt/icedtea-bin-3.16.0/man/man1/jcmd.1
./opt/icedtea-bin-3.16.0/man/man1/schemagen.1
./opt/icedtea-bin-3.16.0/man/man1/jdeps.1
./opt/icedtea-bin-3.16.0/man/man1/javah.1
./opt/icedtea-bin-3.16.0/man/man1/jstat.1
./opt/icedtea-bin-3.16.0/man/man1/jstatd.1
./opt/icedtea-bin-3.16.0/man/man1/servertool.1
./opt/icedtea-bin-3.16.0/man/man1/javadoc.1
./opt/icedtea-bin-3.16.0/man/man1/keytool.1
./opt/icedtea-bin-3.16.0/man/man1/jps.1
./opt/icedtea-bin-3.16.0/man/ja_JP.UTF-8/
./opt/icedtea-bin-3.16.0/man/ja_JP.UTF-8/man1/
./opt/icedtea-bin-3.16.0/man/ja_JP.UTF-8/man1/jsadebugd.1
./opt/icedtea-bin-3.16.0/man/ja_JP.UTF-8/man1/jjs.1
./opt/icedtea-bin-3.16.0/man/ja_JP.UTF-8/man1/wsgen.1
./opt/icedtea-bin-3.16.0/man/ja_JP.UTF-8/man1/idlj.1
./opt/icedtea-bin-3.16.0/man/ja_JP.UTF-8/man1/javap.1
./opt/icedtea-bin-3.16.0/man/ja_JP.UTF-8/man1/native2ascii.1
./opt/icedtea-bin-3.16.0/man/ja_JP.UTF-8/man1/java.1
./opt/icedtea-bin-3.16.0/man/ja_JP.UTF-8/man1/rmid.1
./opt/icedtea-bin-3.16.0/man/ja_JP.UTF-8/man1/extcheck.1
./opt/icedtea-bin-3.16.0/man/ja_JP.UTF-8/man1/jinfo.1
./opt/icedtea-bin-3.16.0/man/ja_JP.UTF-8/man1/jarsigner.1
./opt/icedtea-bin-3.16.0/man/ja_JP.UTF-8/man1/jmap.1
./opt/icedtea-bin-3.16.0/man/ja_JP.UTF-8/man1/rmiregistry.1
./opt/icedtea-bin-3.16.0/man/ja_JP.UTF-8/man1/appletviewer.1
./opt/icedtea-bin-3.16.0/man/ja_JP.UTF-8/man1/jstack.1
./opt/icedtea-bin-3.16.0/man/ja_JP.UTF-8/man1/wsimport.1
./opt/icedtea-bin-3.16.0/man/ja_JP.UTF-8/man1/jdb.1
./opt/icedtea-bin-3.16.0/man/ja_JP.UTF-8/man1/xjc.1
./opt/icedtea-bin-3.16.0/man/ja_JP.UTF-8/man1/serialver.1
./opt/icedtea-bin-3.16.0/man/ja_JP.UTF-8/man1/jconsole.1
./opt/icedtea-bin-3.16.0/man/ja_JP.UTF-8/man1/jrunscript.1
./opt/icedtea-bin-3.16.0/man/ja_JP.UTF-8/man1/orbd.1
./opt/icedtea-bin-3.16.0/man/ja_JP.UTF-8/man1/javac.1
./opt/icedtea-bin-3.16.0/man/ja_JP.UTF-8/man1/jhat.1
./opt/icedtea-bin-3.16.0/man/ja_JP.UTF-8/man1/policytool.1
./opt/icedtea-bin-3.16.0/man/ja_JP.UTF-8/man1/unpack200.1
./opt/icedtea-bin-3.16.0/man/ja_JP.UTF-8/man1/pack200.1
./opt/icedtea-bin-3.16.0/man/ja_JP.UTF-8/man1/rmic.1
./opt/icedtea-bin-3.16.0/man/ja_JP.UTF-8/man1/tnameserv.1
./opt/icedtea-bin-3.16.0/man/ja_JP.UTF-8/man1/jar.1
./opt/icedtea-bin-3.16.0/man/ja_JP.UTF-8/man1/jcmd.1
./opt/icedtea-bin-3.16.0/man/ja_JP.UTF-8/man1/schemagen.1
./opt/icedtea-bin-3.16.0/man/ja_JP.UTF-8/man1/jdeps.1
./opt/icedtea-bin-3.16.0/man/ja_JP.UTF-8/man1/javah.1
./opt/icedtea-bin-3.16.0/man/ja_JP.UTF-8/man1/jstat.1
./opt/icedtea-bin-3.16.0/man/ja_JP.UTF-8/man1/jstatd.1
./opt/icedtea-bin-3.16.0/man/ja_JP.UTF-8/man1/servertool.1
./opt/icedtea-bin-3.16.0/man/ja_JP.UTF-8/man1/javadoc.1
./opt/icedtea-bin-3.16.0/man/ja_JP.UTF-8/man1/keytool.1
./opt/icedtea-bin-3.16.0/man/ja_JP.UTF-8/man1/jps.1
./etc/
./etc/sandbox.d/
./etc/sandbox.d/20icedtea-bin-8
./etc/revdep-rebuild/
./etc/revdep-rebuild/61-icedtea-bin-8
>>> Done.
 * checking 255 files for package collisions
>>> Merging dev-java/icedtea-bin-3.16.0 to /
 * removing unneeded *.la files
--- /etc/
--- /etc/revdep-rebuild/
>>> /etc/revdep-rebuild/61-icedtea-bin-8
--- /etc/sandbox.d/
>>> /etc/sandbox.d/20icedtea-bin-8
--- /opt/
--- /opt/icedtea-bin-3.16.0/
--- /opt/icedtea-bin-3.16.0/man/
--- /opt/icedtea-bin-3.16.0/man/ja_JP.UTF-8/
--- /opt/icedtea-bin-3.16.0/man/ja_JP.UTF-8/man1/
>>> /opt/icedtea-bin-3.16.0/man/ja_JP.UTF-8/man1/jps.1
>>> /opt/icedtea-bin-3.16.0/man/ja_JP.UTF-8/man1/keytool.1
>>> /opt/icedtea-bin-3.16.0/man/ja_JP.UTF-8/man1/javadoc.1
>>> /opt/icedtea-bin-3.16.0/man/ja_JP.UTF-8/man1/servertool.1
>>> /opt/icedtea-bin-3.16.0/man/ja_JP.UTF-8/man1/jstatd.1
>>> /opt/icedtea-bin-3.16.0/man/ja_JP.UTF-8/man1/jstat.1
>>> /opt/icedtea-bin-3.16.0/man/ja_JP.UTF-8/man1/javah.1
>>> /opt/icedtea-bin-3.16.0/man/ja_JP.UTF-8/man1/jdeps.1
>>> /opt/icedtea-bin-3.16.0/man/ja_JP.UTF-8/man1/schemagen.1
>>> /opt/icedtea-bin-3.16.0/man/ja_JP.UTF-8/man1/jcmd.1
>>> /opt/icedtea-bin-3.16.0/man/ja_JP.UTF-8/man1/jar.1
>>> /opt/icedtea-bin-3.16.0/man/ja_JP.UTF-8/man1/tnameserv.1
>>> /opt/icedtea-bin-3.16.0/man/ja_JP.UTF-8/man1/rmic.1
>>> /opt/icedtea-bin-3.16.0/man/ja_JP.UTF-8/man1/pack200.1
>>> /opt/icedtea-bin-3.16.0/man/ja_JP.UTF-8/man1/unpack200.1
>>> /opt/icedtea-bin-3.16.0/man/ja_JP.UTF-8/man1/policytool.1
>>> /opt/icedtea-bin-3.16.0/man/ja_JP.UTF-8/man1/jhat.1
>>> /opt/icedtea-bin-3.16.0/man/ja_JP.UTF-8/man1/javac.1
>>> /opt/icedtea-bin-3.16.0/man/ja_JP.UTF-8/man1/orbd.1
>>> /opt/icedtea-bin-3.16.0/man/ja_JP.UTF-8/man1/jrunscript.1
>>> /opt/icedtea-bin-3.16.0/man/ja_JP.UTF-8/man1/jconsole.1
>>> /opt/icedtea-bin-3.16.0/man/ja_JP.UTF-8/man1/serialver.1
>>> /opt/icedtea-bin-3.16.0/man/ja_JP.UTF-8/man1/xjc.1
>>> /opt/icedtea-bin-3.16.0/man/ja_JP.UTF-8/man1/jdb.1
>>> /opt/icedtea-bin-3.16.0/man/ja_JP.UTF-8/man1/wsimport.1
>>> /opt/icedtea-bin-3.16.0/man/ja_JP.UTF-8/man1/jstack.1
>>> /opt/icedtea-bin-3.16.0/man/ja_JP.UTF-8/man1/appletviewer.1
>>> /opt/icedtea-bin-3.16.0/man/ja_JP.UTF-8/man1/rmiregistry.1
>>> /opt/icedtea-bin-3.16.0/man/ja_JP.UTF-8/man1/jmap.1
>>> /opt/icedtea-bin-3.16.0/man/ja_JP.UTF-8/man1/jarsigner.1
>>> /opt/icedtea-bin-3.16.0/man/ja_JP.UTF-8/man1/jinfo.1
>>> /opt/icedtea-bin-3.16.0/man/ja_JP.UTF-8/man1/extcheck.1
>>> /opt/icedtea-bin-3.16.0/man/ja_JP.UTF-8/man1/rmid.1
>>> /opt/icedtea-bin-3.16.0/man/ja_JP.UTF-8/man1/java.1
>>> /opt/icedtea-bin-3.16.0/man/ja_JP.UTF-8/man1/native2ascii.1
>>> /opt/icedtea-bin-3.16.0/man/ja_JP.UTF-8/man1/javap.1
>>> /opt/icedtea-bin-3.16.0/man/ja_JP.UTF-8/man1/idlj.1
>>> /opt/icedtea-bin-3.16.0/man/ja_JP.UTF-8/man1/wsgen.1
>>> /opt/icedtea-bin-3.16.0/man/ja_JP.UTF-8/man1/jjs.1
>>> /opt/icedtea-bin-3.16.0/man/ja_JP.UTF-8/man1/jsadebugd.1
--- /opt/icedtea-bin-3.16.0/man/man1/
>>> /opt/icedtea-bin-3.16.0/man/man1/jps.1
>>> /opt/icedtea-bin-3.16.0/man/man1/keytool.1
>>> /opt/icedtea-bin-3.16.0/man/man1/javadoc.1
>>> /opt/icedtea-bin-3.16.0/man/man1/servertool.1
>>> /opt/icedtea-bin-3.16.0/man/man1/jstatd.1
>>> /opt/icedtea-bin-3.16.0/man/man1/jstat.1
>>> /opt/icedtea-bin-3.16.0/man/man1/javah.1
>>> /opt/icedtea-bin-3.16.0/man/man1/jdeps.1
>>> /opt/icedtea-bin-3.16.0/man/man1/schemagen.1
>>> /opt/icedtea-bin-3.16.0/man/man1/jcmd.1
>>> /opt/icedtea-bin-3.16.0/man/man1/jar.1
>>> /opt/icedtea-bin-3.16.0/man/man1/tnameserv.1
>>> /opt/icedtea-bin-3.16.0/man/man1/rmic.1
>>> /opt/icedtea-bin-3.16.0/man/man1/pack200.1
>>> /opt/icedtea-bin-3.16.0/man/man1/unpack200.1
>>> /opt/icedtea-bin-3.16.0/man/man1/policytool.1
>>> /opt/icedtea-bin-3.16.0/man/man1/jhat.1
>>> /opt/icedtea-bin-3.16.0/man/man1/javac.1
>>> /opt/icedtea-bin-3.16.0/man/man1/orbd.1
>>> /opt/icedtea-bin-3.16.0/man/man1/jrunscript.1
>>> /opt/icedtea-bin-3.16.0/man/man1/jconsole.1
>>> /opt/icedtea-bin-3.16.0/man/man1/serialver.1
>>> /opt/icedtea-bin-3.16.0/man/man1/xjc.1
>>> /opt/icedtea-bin-3.16.0/man/man1/jdb.1
>>> /opt/icedtea-bin-3.16.0/man/man1/wsimport.1
>>> /opt/icedtea-bin-3.16.0/man/man1/jstack.1
>>> /opt/icedtea-bin-3.16.0/man/man1/appletviewer.1
>>> /opt/icedtea-bin-3.16.0/man/man1/rmiregistry.1
>>> /opt/icedtea-bin-3.16.0/man/man1/jmap.1
>>> /opt/icedtea-bin-3.16.0/man/man1/jarsigner.1
>>> /opt/icedtea-bin-3.16.0/man/man1/jinfo.1
>>> /opt/icedtea-bin-3.16.0/man/man1/extcheck.1
>>> /opt/icedtea-bin-3.16.0/man/man1/rmid.1
>>> /opt/icedtea-bin-3.16.0/man/man1/java.1
>>> /opt/icedtea-bin-3.16.0/man/man1/native2ascii.1
>>> /opt/icedtea-bin-3.16.0/man/man1/javap.1
>>> /opt/icedtea-bin-3.16.0/man/man1/idlj.1
>>> /opt/icedtea-bin-3.16.0/man/man1/wsgen.1
>>> /opt/icedtea-bin-3.16.0/man/man1/jjs.1
>>> /opt/icedtea-bin-3.16.0/man/man1/jsadebugd.1
>>> /opt/icedtea-bin-3.16.0/src.zip
--- /opt/icedtea-bin-3.16.0/include/
>>> /opt/icedtea-bin-3.16.0/include/jvmti.h
--- /opt/icedtea-bin-3.16.0/include/linux/
>>> /opt/icedtea-bin-3.16.0/include/linux/jni_md.h
>>> /opt/icedtea-bin-3.16.0/include/linux/jawt_md.h
>>> /opt/icedtea-bin-3.16.0/include/jvmticmlr.h
>>> /opt/icedtea-bin-3.16.0/include/jdwpTransport.h
>>> /opt/icedtea-bin-3.16.0/include/jni.h
>>> /opt/icedtea-bin-3.16.0/include/jawt.h
>>> /opt/icedtea-bin-3.16.0/include/classfile_constants.h
--- /opt/icedtea-bin-3.16.0/bin/
>>> /opt/icedtea-bin-3.16.0/bin/pack200
>>> /opt/icedtea-bin-3.16.0/bin/jstat
>>> /opt/icedtea-bin-3.16.0/bin/unpack200
>>> /opt/icedtea-bin-3.16.0/bin/wsgen
>>> /opt/icedtea-bin-3.16.0/bin/keytool
>>> /opt/icedtea-bin-3.16.0/bin/jps
>>> /opt/icedtea-bin-3.16.0/bin/orbd
>>> /opt/icedtea-bin-3.16.0/bin/rmic
>>> /opt/icedtea-bin-3.16.0/bin/jsadebugd
>>> /opt/icedtea-bin-3.16.0/bin/jconsole
>>> /opt/icedtea-bin-3.16.0/bin/xjc
>>> /opt/icedtea-bin-3.16.0/bin/hsdb
>>> /opt/icedtea-bin-3.16.0/bin/jstatd
>>> /opt/icedtea-bin-3.16.0/bin/clhsdb
>>> /opt/icedtea-bin-3.16.0/bin/javadoc
>>> /opt/icedtea-bin-3.16.0/bin/javap
>>> /opt/icedtea-bin-3.16.0/bin/serialver
>>> /opt/icedtea-bin-3.16.0/bin/jar
>>> /opt/icedtea-bin-3.16.0/bin/jmap
>>> /opt/icedtea-bin-3.16.0/bin/jinfo
>>> /opt/icedtea-bin-3.16.0/bin/extcheck
>>> /opt/icedtea-bin-3.16.0/bin/appletviewer
>>> /opt/icedtea-bin-3.16.0/bin/jdb
>>> /opt/icedtea-bin-3.16.0/bin/jarsigner
>>> /opt/icedtea-bin-3.16.0/bin/tnameserv
>>> /opt/icedtea-bin-3.16.0/bin/jcmd
>>> /opt/icedtea-bin-3.16.0/bin/rmiregistry
>>> /opt/icedtea-bin-3.16.0/bin/jrunscript
>>> /opt/icedtea-bin-3.16.0/bin/javah
>>> /opt/icedtea-bin-3.16.0/bin/javac
>>> /opt/icedtea-bin-3.16.0/bin/schemagen
>>> /opt/icedtea-bin-3.16.0/bin/jhat
>>> /opt/icedtea-bin-3.16.0/bin/java
>>> /opt/icedtea-bin-3.16.0/bin/idlj
>>> /opt/icedtea-bin-3.16.0/bin/jdeps
>>> /opt/icedtea-bin-3.16.0/bin/policytool
>>> /opt/icedtea-bin-3.16.0/bin/java-rmi.cgi
>>> /opt/icedtea-bin-3.16.0/bin/native2ascii
>>> /opt/icedtea-bin-3.16.0/bin/jjs
>>> /opt/icedtea-bin-3.16.0/bin/servertool
>>> /opt/icedtea-bin-3.16.0/bin/wsimport
>>> /opt/icedtea-bin-3.16.0/bin/jstack
>>> /opt/icedtea-bin-3.16.0/bin/rmid
--- /opt/icedtea-bin-3.16.0/jre/
--- /opt/icedtea-bin-3.16.0/jre/.systemPrefs/
>>> /opt/icedtea-bin-3.16.0/jre/.systemPrefs/.systemRootModFile
>>> /opt/icedtea-bin-3.16.0/jre/.systemPrefs/.system.lock
--- /opt/icedtea-bin-3.16.0/jre/bin/
>>> /opt/icedtea-bin-3.16.0/jre/bin/pack200
>>> /opt/icedtea-bin-3.16.0/jre/bin/unpack200
>>> /opt/icedtea-bin-3.16.0/jre/bin/keytool
>>> /opt/icedtea-bin-3.16.0/jre/bin/orbd
>>> /opt/icedtea-bin-3.16.0/jre/bin/tnameserv
>>> /opt/icedtea-bin-3.16.0/jre/bin/rmiregistry
>>> /opt/icedtea-bin-3.16.0/jre/bin/java
>>> /opt/icedtea-bin-3.16.0/jre/bin/policytool
>>> /opt/icedtea-bin-3.16.0/jre/bin/jjs
>>> /opt/icedtea-bin-3.16.0/jre/bin/servertool
>>> /opt/icedtea-bin-3.16.0/jre/bin/rmid
--- /opt/icedtea-bin-3.16.0/jre/lib/
>>> /opt/icedtea-bin-3.16.0/jre/lib/flavormap.properties
>>> /opt/icedtea-bin-3.16.0/jre/lib/content-types.properties
>>> /opt/icedtea-bin-3.16.0/jre/lib/tzdb.dat
>>> /opt/icedtea-bin-3.16.0/jre/lib/net.properties
>>> /opt/icedtea-bin-3.16.0/jre/lib/logging.properties
>>> /opt/icedtea-bin-3.16.0/jre/lib/tz.properties
>>> /opt/icedtea-bin-3.16.0/jre/lib/psfontj2d.properties
--- /opt/icedtea-bin-3.16.0/jre/lib/ext/
>>> /opt/icedtea-bin-3.16.0/jre/lib/ext/jaccess.jar
>>> /opt/icedtea-bin-3.16.0/jre/lib/ext/sunjce_provider.jar
>>> /opt/icedtea-bin-3.16.0/jre/lib/ext/sunpkcs11.jar
>>> /opt/icedtea-bin-3.16.0/jre/lib/ext/zipfs.jar
>>> /opt/icedtea-bin-3.16.0/jre/lib/ext/localedata.jar
>>> /opt/icedtea-bin-3.16.0/jre/lib/ext/nashorn.jar
>>> /opt/icedtea-bin-3.16.0/jre/lib/ext/sunec.jar
>>> /opt/icedtea-bin-3.16.0/jre/lib/ext/dnsns.jar
>>> /opt/icedtea-bin-3.16.0/jre/lib/ext/cldrdata.jar
>>> /opt/icedtea-bin-3.16.0/jre/lib/ext/meta-index
>>> /opt/icedtea-bin-3.16.0/jre/lib/jexec
>>> /opt/icedtea-bin-3.16.0/jre/lib/rt.jar
--- /opt/icedtea-bin-3.16.0/jre/lib/cmm/
>>> /opt/icedtea-bin-3.16.0/jre/lib/cmm/sRGB.pf
>>> /opt/icedtea-bin-3.16.0/jre/lib/cmm/GRAY.pf
>>> /opt/icedtea-bin-3.16.0/jre/lib/cmm/CIEXYZ.pf
>>> /opt/icedtea-bin-3.16.0/jre/lib/cmm/LINEAR_RGB.pf
>>> /opt/icedtea-bin-3.16.0/jre/lib/cmm/PYCC.pf
--- /opt/icedtea-bin-3.16.0/jre/lib/security/
>>> /opt/icedtea-bin-3.16.0/jre/lib/security/nss.cfg
>>> /opt/icedtea-bin-3.16.0/jre/lib/security/cacerts -> ../../../../../etc/ssl/certs/java/cacerts
>>> /opt/icedtea-bin-3.16.0/jre/lib/security/java.security
>>> /opt/icedtea-bin-3.16.0/jre/lib/security/blacklisted.certs
>>> /opt/icedtea-bin-3.16.0/jre/lib/security/java.policy
--- /opt/icedtea-bin-3.16.0/jre/lib/security/policy/
--- /opt/icedtea-bin-3.16.0/jre/lib/security/policy/unlimited/
>>> /opt/icedtea-bin-3.16.0/jre/lib/security/policy/unlimited/US_export_policy.jar
>>> /opt/icedtea-bin-3.16.0/jre/lib/security/policy/unlimited/local_policy.jar
--- /opt/icedtea-bin-3.16.0/jre/lib/security/policy/limited/
>>> /opt/icedtea-bin-3.16.0/jre/lib/security/policy/limited/US_export_policy.jar
>>> /opt/icedtea-bin-3.16.0/jre/lib/security/policy/limited/local_policy.jar
>>> /opt/icedtea-bin-3.16.0/jre/lib/hijrah-config-umalqura.properties
--- /opt/icedtea-bin-3.16.0/jre/lib/management/
>>> /opt/icedtea-bin-3.16.0/jre/lib/management/jmxremote.access
>>> /opt/icedtea-bin-3.16.0/jre/lib/management/jmxremote.password.template
>>> /opt/icedtea-bin-3.16.0/jre/lib/management/management.properties
>>> /opt/icedtea-bin-3.16.0/jre/lib/management/snmp.acl.template
>>> /opt/icedtea-bin-3.16.0/jre/lib/jsse.jar
--- /opt/icedtea-bin-3.16.0/jre/lib/images/
--- /opt/icedtea-bin-3.16.0/jre/lib/images/cursors/
>>> /opt/icedtea-bin-3.16.0/jre/lib/images/cursors/cursors.properties
>>> /opt/icedtea-bin-3.16.0/jre/lib/images/cursors/motif_LinkNoDrop32x32.gif
>>> /opt/icedtea-bin-3.16.0/jre/lib/images/cursors/motif_LinkDrop32x32.gif
>>> /opt/icedtea-bin-3.16.0/jre/lib/images/cursors/motif_CopyNoDrop32x32.gif
>>> /opt/icedtea-bin-3.16.0/jre/lib/images/cursors/motif_CopyDrop32x32.gif
>>> /opt/icedtea-bin-3.16.0/jre/lib/images/cursors/motif_MoveDrop32x32.gif
>>> /opt/icedtea-bin-3.16.0/jre/lib/images/cursors/motif_MoveNoDrop32x32.gif
>>> /opt/icedtea-bin-3.16.0/jre/lib/images/cursors/invalid32x32.gif
>>> /opt/icedtea-bin-3.16.0/jre/lib/classlist
>>> /opt/icedtea-bin-3.16.0/jre/lib/currency.data
>>> /opt/icedtea-bin-3.16.0/jre/lib/resources.jar
>>> /opt/icedtea-bin-3.16.0/jre/lib/psfont.properties.ja
--- /opt/icedtea-bin-3.16.0/jre/lib/amd64/
>>> /opt/icedtea-bin-3.16.0/jre/lib/amd64/libzip.so
>>> /opt/icedtea-bin-3.16.0/jre/lib/amd64/libinstrument.so
>>> /opt/icedtea-bin-3.16.0/jre/lib/amd64/libjava.so
>>> /opt/icedtea-bin-3.16.0/jre/lib/amd64/libjaas_unix.so
>>> /opt/icedtea-bin-3.16.0/jre/lib/amd64/libverify.so
>>> /opt/icedtea-bin-3.16.0/jre/lib/amd64/libjdwp.so
--- /opt/icedtea-bin-3.16.0/jre/lib/amd64/jli/
>>> /opt/icedtea-bin-3.16.0/jre/lib/amd64/jli/libjli.so
>>> /opt/icedtea-bin-3.16.0/jre/lib/amd64/libsplashscreen.so
>>> /opt/icedtea-bin-3.16.0/jre/lib/amd64/libj2pcsc.so
>>> /opt/icedtea-bin-3.16.0/jre/lib/amd64/libj2pkcs11.so
>>> /opt/icedtea-bin-3.16.0/jre/lib/amd64/libmlib_image.so
>>> /opt/icedtea-bin-3.16.0/jre/lib/amd64/libjavajpeg.so
>>> /opt/icedtea-bin-3.16.0/jre/lib/amd64/libnio.so
>>> /opt/icedtea-bin-3.16.0/jre/lib/amd64/libawt_xawt.so
>>> /opt/icedtea-bin-3.16.0/jre/lib/amd64/libunpack.so
>>> /opt/icedtea-bin-3.16.0/jre/lib/amd64/libsunec.so
>>> /opt/icedtea-bin-3.16.0/jre/lib/amd64/jvm.cfg
>>> /opt/icedtea-bin-3.16.0/jre/lib/amd64/libjawt.so
>>> /opt/icedtea-bin-3.16.0/jre/lib/amd64/libfontmanager.so
>>> /opt/icedtea-bin-3.16.0/jre/lib/amd64/libjava_crw_demo.so
>>> /opt/icedtea-bin-3.16.0/jre/lib/amd64/libj2gss.so
>>> /opt/icedtea-bin-3.16.0/jre/lib/amd64/libjsound.so
>>> /opt/icedtea-bin-3.16.0/jre/lib/amd64/libjavalcms.so
>>> /opt/icedtea-bin-3.16.0/jre/lib/amd64/libj2sctp.so
>>> /opt/icedtea-bin-3.16.0/jre/lib/amd64/libawt_headless.so
>>> /opt/icedtea-bin-3.16.0/jre/lib/amd64/libjsoundalsa.so
>>> /opt/icedtea-bin-3.16.0/jre/lib/amd64/libjsig.so
>>> /opt/icedtea-bin-3.16.0/jre/lib/amd64/libdt_socket.so
>>> /opt/icedtea-bin-3.16.0/jre/lib/amd64/libattach.so
>>> /opt/icedtea-bin-3.16.0/jre/lib/amd64/libmanagement.so
>>> /opt/icedtea-bin-3.16.0/jre/lib/amd64/libnet.so
>>> /opt/icedtea-bin-3.16.0/jre/lib/amd64/libsaproc.so
--- /opt/icedtea-bin-3.16.0/jre/lib/amd64/server/
>>> /opt/icedtea-bin-3.16.0/jre/lib/amd64/server/Xusage.txt
>>> /opt/icedtea-bin-3.16.0/jre/lib/amd64/server/classes.jsa
>>> /opt/icedtea-bin-3.16.0/jre/lib/amd64/server/libjvm.so
>>> /opt/icedtea-bin-3.16.0/jre/lib/amd64/server/libjsig.so
>>> /opt/icedtea-bin-3.16.0/jre/lib/amd64/libjsdt.so
>>> /opt/icedtea-bin-3.16.0/jre/lib/amd64/libhprof.so
>>> /opt/icedtea-bin-3.16.0/jre/lib/amd64/libnpt.so
>>> /opt/icedtea-bin-3.16.0/jre/lib/amd64/libawt.so
>>> /opt/icedtea-bin-3.16.0/jre/lib/sound.properties
>>> /opt/icedtea-bin-3.16.0/jre/lib/jce.jar
>>> /opt/icedtea-bin-3.16.0/jre/lib/calendars.properties
>>> /opt/icedtea-bin-3.16.0/jre/lib/management-agent.jar
>>> /opt/icedtea-bin-3.16.0/jre/lib/jvm.hprof.txt
>>> /opt/icedtea-bin-3.16.0/jre/lib/meta-index
>>> /opt/icedtea-bin-3.16.0/jre/lib/charsets.jar
--- /opt/icedtea-bin-3.16.0/lib/
>>> /opt/icedtea-bin-3.16.0/lib/ir.idl
>>> /opt/icedtea-bin-3.16.0/lib/tools.jar
>>> /opt/icedtea-bin-3.16.0/lib/orb.idl
>>> /opt/icedtea-bin-3.16.0/lib/sa-jdi.jar
>>> /opt/icedtea-bin-3.16.0/lib/jexec
>>> /opt/icedtea-bin-3.16.0/lib/dt.jar
>>> /opt/icedtea-bin-3.16.0/lib/jconsole.jar
--- /opt/icedtea-bin-3.16.0/lib/amd64/
--- /opt/icedtea-bin-3.16.0/lib/amd64/jli/
>>> /opt/icedtea-bin-3.16.0/lib/amd64/jli/libjli.so
>>> /opt/icedtea-bin-3.16.0/lib/amd64/libjawt.so
--- /usr/
--- /usr/share/
--- /usr/share/java-config-2/
--- /usr/share/java-config-2/vm/
>>> /usr/share/java-config-2/vm/icedtea-bin-8
--- /usr/lib/
--- /usr/lib/jvm/
>>> /usr/lib/jvm/icedtea-bin-8 -> /opt/icedtea-bin-3.16.0
>>> Safely unmerging already-installed instance...
>>> Original instance of package unmerged safely.
 * Updating .desktop files database ...
 [ ok ]
>>> dev-java/icedtea-bin-3.16.0 merged.
