No package files given... Grabbing a set.
<<<          obj /usr/lib64/python3.6/site-packages/pyflakes/test/test_undefined_names.py
<<<          obj /usr/lib64/python3.6/site-packages/pyflakes/test/test_type_annotations.py
<<<          obj /usr/lib64/python3.6/site-packages/pyflakes/test/test_return_with_arguments_inside_generator.py
<<<          obj /usr/lib64/python3.6/site-packages/pyflakes/test/test_other.py
<<<          obj /usr/lib64/python3.6/site-packages/pyflakes/test/test_is_literal.py
<<<          obj /usr/lib64/python3.6/site-packages/pyflakes/test/test_imports.py
<<<          obj /usr/lib64/python3.6/site-packages/pyflakes/test/test_doctests.py
<<<          obj /usr/lib64/python3.6/site-packages/pyflakes/test/test_dict.py
<<<          obj /usr/lib64/python3.6/site-packages/pyflakes/test/test_code_segment.py
<<<          obj /usr/lib64/python3.6/site-packages/pyflakes/test/test_checker.py
<<<          obj /usr/lib64/python3.6/site-packages/pyflakes/test/test_builtin.py
<<<          obj /usr/lib64/python3.6/site-packages/pyflakes/test/test_api.py
<<<          obj /usr/lib64/python3.6/site-packages/pyflakes/test/harness.py
<<<          obj /usr/lib64/python3.6/site-packages/pyflakes/test/__pycache__/test_undefined_names.cpython-36.pyc
<<<          obj /usr/lib64/python3.6/site-packages/pyflakes/test/__pycache__/test_undefined_names.cpython-36.opt-2.pyc
<<<          obj /usr/lib64/python3.6/site-packages/pyflakes/test/__pycache__/test_undefined_names.cpython-36.opt-1.pyc
<<<          obj /usr/lib64/python3.6/site-packages/pyflakes/test/__pycache__/test_type_annotations.cpython-36.pyc
<<<          obj /usr/lib64/python3.6/site-packages/pyflakes/test/__pycache__/test_type_annotations.cpython-36.opt-2.pyc
<<<          obj /usr/lib64/python3.6/site-packages/pyflakes/test/__pycache__/test_type_annotations.cpython-36.opt-1.pyc
<<<          obj /usr/lib64/python3.6/site-packages/pyflakes/test/__pycache__/test_return_with_arguments_inside_generator.cpython-36.pyc
<<<          obj /usr/lib64/python3.6/site-packages/pyflakes/test/__pycache__/test_return_with_arguments_inside_generator.cpython-36.opt-2.pyc
<<<          obj /usr/lib64/python3.6/site-packages/pyflakes/test/__pycache__/test_return_with_arguments_inside_generator.cpython-36.opt-1.pyc
<<<          obj /usr/lib64/python3.6/site-packages/pyflakes/test/__pycache__/test_other.cpython-36.pyc
<<<          obj /usr/lib64/python3.6/site-packages/pyflakes/test/__pycache__/test_other.cpython-36.opt-2.pyc
<<<          obj /usr/lib64/python3.6/site-packages/pyflakes/test/__pycache__/test_other.cpython-36.opt-1.pyc
<<<          obj /usr/lib64/python3.6/site-packages/pyflakes/test/__pycache__/test_is_literal.cpython-36.pyc
<<<          obj /usr/lib64/python3.6/site-packages/pyflakes/test/__pycache__/test_is_literal.cpython-36.opt-2.pyc
<<<          obj /usr/lib64/python3.6/site-packages/pyflakes/test/__pycache__/test_is_literal.cpython-36.opt-1.pyc
<<<          obj /usr/lib64/python3.6/site-packages/pyflakes/test/__pycache__/test_imports.cpython-36.pyc
<<<          obj /usr/lib64/python3.6/site-packages/pyflakes/test/__pycache__/test_imports.cpython-36.opt-2.pyc
<<<          obj /usr/lib64/python3.6/site-packages/pyflakes/test/__pycache__/test_imports.cpython-36.opt-1.pyc
<<<          obj /usr/lib64/python3.6/site-packages/pyflakes/test/__pycache__/test_doctests.cpython-36.pyc
<<<          obj /usr/lib64/python3.6/site-packages/pyflakes/test/__pycache__/test_doctests.cpython-36.opt-2.pyc
<<<          obj /usr/lib64/python3.6/site-packages/pyflakes/test/__pycache__/test_doctests.cpython-36.opt-1.pyc
<<<          obj /usr/lib64/python3.6/site-packages/pyflakes/test/__pycache__/test_dict.cpython-36.pyc
<<<          obj /usr/lib64/python3.6/site-packages/pyflakes/test/__pycache__/test_dict.cpython-36.opt-2.pyc
<<<          obj /usr/lib64/python3.6/site-packages/pyflakes/test/__pycache__/test_dict.cpython-36.opt-1.pyc
<<<          obj /usr/lib64/python3.6/site-packages/pyflakes/test/__pycache__/test_code_segment.cpython-36.pyc
<<<          obj /usr/lib64/python3.6/site-packages/pyflakes/test/__pycache__/test_code_segment.cpython-36.opt-2.pyc
<<<          obj /usr/lib64/python3.6/site-packages/pyflakes/test/__pycache__/test_code_segment.cpython-36.opt-1.pyc
<<<          obj /usr/lib64/python3.6/site-packages/pyflakes/test/__pycache__/test_checker.cpython-36.pyc
<<<          obj /usr/lib64/python3.6/site-packages/pyflakes/test/__pycache__/test_checker.cpython-36.opt-2.pyc
<<<          obj /usr/lib64/python3.6/site-packages/pyflakes/test/__pycache__/test_checker.cpython-36.opt-1.pyc
<<<          obj /usr/lib64/python3.6/site-packages/pyflakes/test/__pycache__/test_builtin.cpython-36.pyc
<<<          obj /usr/lib64/python3.6/site-packages/pyflakes/test/__pycache__/test_builtin.cpython-36.opt-2.pyc
<<<          obj /usr/lib64/python3.6/site-packages/pyflakes/test/__pycache__/test_builtin.cpython-36.opt-1.pyc
<<<          obj /usr/lib64/python3.6/site-packages/pyflakes/test/__pycache__/test_api.cpython-36.pyc
<<<          obj /usr/lib64/python3.6/site-packages/pyflakes/test/__pycache__/test_api.cpython-36.opt-2.pyc
<<<          obj /usr/lib64/python3.6/site-packages/pyflakes/test/__pycache__/test_api.cpython-36.opt-1.pyc
<<<          obj /usr/lib64/python3.6/site-packages/pyflakes/test/__pycache__/harness.cpython-36.pyc
<<<          obj /usr/lib64/python3.6/site-packages/pyflakes/test/__pycache__/harness.cpython-36.opt-2.pyc
<<<          obj /usr/lib64/python3.6/site-packages/pyflakes/test/__pycache__/harness.cpython-36.opt-1.pyc
<<<          obj /usr/lib64/python3.6/site-packages/pyflakes/test/__pycache__/__init__.cpython-36.pyc
<<<          obj /usr/lib64/python3.6/site-packages/pyflakes/test/__pycache__/__init__.cpython-36.opt-2.pyc
<<<          obj /usr/lib64/python3.6/site-packages/pyflakes/test/__pycache__/__init__.cpython-36.opt-1.pyc
<<<          obj /usr/lib64/python3.6/site-packages/pyflakes/test/__init__.py
<<<          obj /usr/lib64/python3.6/site-packages/pyflakes/scripts/pyflakes.py
<<<          obj /usr/lib64/python3.6/site-packages/pyflakes/scripts/__pycache__/pyflakes.cpython-36.pyc
<<<          obj /usr/lib64/python3.6/site-packages/pyflakes/scripts/__pycache__/pyflakes.cpython-36.opt-2.pyc
<<<          obj /usr/lib64/python3.6/site-packages/pyflakes/scripts/__pycache__/pyflakes.cpython-36.opt-1.pyc
<<<          obj /usr/lib64/python3.6/site-packages/pyflakes/scripts/__pycache__/__init__.cpython-36.pyc
<<<          obj /usr/lib64/python3.6/site-packages/pyflakes/scripts/__pycache__/__init__.cpython-36.opt-2.pyc
<<<          obj /usr/lib64/python3.6/site-packages/pyflakes/scripts/__pycache__/__init__.cpython-36.opt-1.pyc
<<<          obj /usr/lib64/python3.6/site-packages/pyflakes/scripts/__init__.py
<<<          obj /usr/lib64/python3.6/site-packages/pyflakes/reporter.py
<<<          obj /usr/lib64/python3.6/site-packages/pyflakes/messages.py
<<<          obj /usr/lib64/python3.6/site-packages/pyflakes/checker.py
<<<          obj /usr/lib64/python3.6/site-packages/pyflakes/api.py
<<<          obj /usr/lib64/python3.6/site-packages/pyflakes/__pycache__/reporter.cpython-36.pyc
<<<          obj /usr/lib64/python3.6/site-packages/pyflakes/__pycache__/reporter.cpython-36.opt-2.pyc
<<<          obj /usr/lib64/python3.6/site-packages/pyflakes/__pycache__/reporter.cpython-36.opt-1.pyc
<<<          obj /usr/lib64/python3.6/site-packages/pyflakes/__pycache__/messages.cpython-36.pyc
<<<          obj /usr/lib64/python3.6/site-packages/pyflakes/__pycache__/messages.cpython-36.opt-2.pyc
<<<          obj /usr/lib64/python3.6/site-packages/pyflakes/__pycache__/messages.cpython-36.opt-1.pyc
<<<          obj /usr/lib64/python3.6/site-packages/pyflakes/__pycache__/checker.cpython-36.pyc
<<<          obj /usr/lib64/python3.6/site-packages/pyflakes/__pycache__/checker.cpython-36.opt-2.pyc
<<<          obj /usr/lib64/python3.6/site-packages/pyflakes/__pycache__/checker.cpython-36.opt-1.pyc
<<<          obj /usr/lib64/python3.6/site-packages/pyflakes/__pycache__/api.cpython-36.pyc
<<<          obj /usr/lib64/python3.6/site-packages/pyflakes/__pycache__/api.cpython-36.opt-2.pyc
<<<          obj /usr/lib64/python3.6/site-packages/pyflakes/__pycache__/api.cpython-36.opt-1.pyc
<<<          obj /usr/lib64/python3.6/site-packages/pyflakes/__pycache__/__main__.cpython-36.pyc
<<<          obj /usr/lib64/python3.6/site-packages/pyflakes/__pycache__/__main__.cpython-36.opt-2.pyc
<<<          obj /usr/lib64/python3.6/site-packages/pyflakes/__pycache__/__main__.cpython-36.opt-1.pyc
<<<          obj /usr/lib64/python3.6/site-packages/pyflakes/__pycache__/__init__.cpython-36.pyc
<<<          obj /usr/lib64/python3.6/site-packages/pyflakes/__pycache__/__init__.cpython-36.opt-2.pyc
<<<          obj /usr/lib64/python3.6/site-packages/pyflakes/__pycache__/__init__.cpython-36.opt-1.pyc
<<<          obj /usr/lib64/python3.6/site-packages/pyflakes/__main__.py
<<<          obj /usr/lib64/python3.6/site-packages/pyflakes/__init__.py
<<<          obj /usr/lib64/python3.6/site-packages/pyflakes-2.2.0-py3.6.egg-info/top_level.txt
<<<          obj /usr/lib64/python3.6/site-packages/pyflakes-2.2.0-py3.6.egg-info/entry_points.txt
<<<          obj /usr/lib64/python3.6/site-packages/pyflakes-2.2.0-py3.6.egg-info/dependency_links.txt
<<<          obj /usr/lib64/python3.6/site-packages/pyflakes-2.2.0-py3.6.egg-info/SOURCES.txt
<<<          obj /usr/lib64/python3.6/site-packages/pyflakes-2.2.0-py3.6.egg-info/PKG-INFO
<<<          obj /usr/lib/python3.8/site-packages/pyflakes/test/test_undefined_names.py
<<<          obj /usr/lib/python3.8/site-packages/pyflakes/test/test_type_annotations.py
<<<          obj /usr/lib/python3.8/site-packages/pyflakes/test/test_return_with_arguments_inside_generator.py
<<<          obj /usr/lib/python3.8/site-packages/pyflakes/test/test_other.py
<<<          obj /usr/lib/python3.8/site-packages/pyflakes/test/test_is_literal.py
<<<          obj /usr/lib/python3.8/site-packages/pyflakes/test/test_imports.py
<<<          obj /usr/lib/python3.8/site-packages/pyflakes/test/test_doctests.py
<<<          obj /usr/lib/python3.8/site-packages/pyflakes/test/test_dict.py
<<<          obj /usr/lib/python3.8/site-packages/pyflakes/test/test_code_segment.py
<<<          obj /usr/lib/python3.8/site-packages/pyflakes/test/test_checker.py
<<<          obj /usr/lib/python3.8/site-packages/pyflakes/test/test_builtin.py
<<<          obj /usr/lib/python3.8/site-packages/pyflakes/test/test_api.py
<<<          obj /usr/lib/python3.8/site-packages/pyflakes/test/harness.py
<<<          obj /usr/lib/python3.8/site-packages/pyflakes/test/__pycache__/test_undefined_names.cpython-38.pyc
<<<          obj /usr/lib/python3.8/site-packages/pyflakes/test/__pycache__/test_undefined_names.cpython-38.opt-2.pyc
<<<          obj /usr/lib/python3.8/site-packages/pyflakes/test/__pycache__/test_undefined_names.cpython-38.opt-1.pyc
<<<          obj /usr/lib/python3.8/site-packages/pyflakes/test/__pycache__/test_type_annotations.cpython-38.pyc
<<<          obj /usr/lib/python3.8/site-packages/pyflakes/test/__pycache__/test_type_annotations.cpython-38.opt-2.pyc
<<<          obj /usr/lib/python3.8/site-packages/pyflakes/test/__pycache__/test_type_annotations.cpython-38.opt-1.pyc
<<<          obj /usr/lib/python3.8/site-packages/pyflakes/test/__pycache__/test_return_with_arguments_inside_generator.cpython-38.pyc
<<<          obj /usr/lib/python3.8/site-packages/pyflakes/test/__pycache__/test_return_with_arguments_inside_generator.cpython-38.opt-2.pyc
<<<          obj /usr/lib/python3.8/site-packages/pyflakes/test/__pycache__/test_return_with_arguments_inside_generator.cpython-38.opt-1.pyc
<<<          obj /usr/lib/python3.8/site-packages/pyflakes/test/__pycache__/test_other.cpython-38.pyc
<<<          obj /usr/lib/python3.8/site-packages/pyflakes/test/__pycache__/test_other.cpython-38.opt-2.pyc
<<<          obj /usr/lib/python3.8/site-packages/pyflakes/test/__pycache__/test_other.cpython-38.opt-1.pyc
<<<          obj /usr/lib/python3.8/site-packages/pyflakes/test/__pycache__/test_is_literal.cpython-38.pyc
<<<          obj /usr/lib/python3.8/site-packages/pyflakes/test/__pycache__/test_is_literal.cpython-38.opt-2.pyc
<<<          obj /usr/lib/python3.8/site-packages/pyflakes/test/__pycache__/test_is_literal.cpython-38.opt-1.pyc
<<<          obj /usr/lib/python3.8/site-packages/pyflakes/test/__pycache__/test_imports.cpython-38.pyc
<<<          obj /usr/lib/python3.8/site-packages/pyflakes/test/__pycache__/test_imports.cpython-38.opt-2.pyc
<<<          obj /usr/lib/python3.8/site-packages/pyflakes/test/__pycache__/test_imports.cpython-38.opt-1.pyc
<<<          obj /usr/lib/python3.8/site-packages/pyflakes/test/__pycache__/test_doctests.cpython-38.pyc
<<<          obj /usr/lib/python3.8/site-packages/pyflakes/test/__pycache__/test_doctests.cpython-38.opt-2.pyc
<<<          obj /usr/lib/python3.8/site-packages/pyflakes/test/__pycache__/test_doctests.cpython-38.opt-1.pyc
<<<          obj /usr/lib/python3.8/site-packages/pyflakes/test/__pycache__/test_dict.cpython-38.pyc
<<<          obj /usr/lib/python3.8/site-packages/pyflakes/test/__pycache__/test_dict.cpython-38.opt-2.pyc
<<<          obj /usr/lib/python3.8/site-packages/pyflakes/test/__pycache__/test_dict.cpython-38.opt-1.pyc
<<<          obj /usr/lib/python3.8/site-packages/pyflakes/test/__pycache__/test_code_segment.cpython-38.pyc
<<<          obj /usr/lib/python3.8/site-packages/pyflakes/test/__pycache__/test_code_segment.cpython-38.opt-2.pyc
<<<          obj /usr/lib/python3.8/site-packages/pyflakes/test/__pycache__/test_code_segment.cpython-38.opt-1.pyc
<<<          obj /usr/lib/python3.8/site-packages/pyflakes/test/__pycache__/test_checker.cpython-38.pyc
<<<          obj /usr/lib/python3.8/site-packages/pyflakes/test/__pycache__/test_checker.cpython-38.opt-2.pyc
<<<          obj /usr/lib/python3.8/site-packages/pyflakes/test/__pycache__/test_checker.cpython-38.opt-1.pyc
<<<          obj /usr/lib/python3.8/site-packages/pyflakes/test/__pycache__/test_builtin.cpython-38.pyc
<<<          obj /usr/lib/python3.8/site-packages/pyflakes/test/__pycache__/test_builtin.cpython-38.opt-2.pyc
<<<          obj /usr/lib/python3.8/site-packages/pyflakes/test/__pycache__/test_builtin.cpython-38.opt-1.pyc
<<<          obj /usr/lib/python3.8/site-packages/pyflakes/test/__pycache__/test_api.cpython-38.pyc
<<<          obj /usr/lib/python3.8/site-packages/pyflakes/test/__pycache__/test_api.cpython-38.opt-2.pyc
<<<          obj /usr/lib/python3.8/site-packages/pyflakes/test/__pycache__/test_api.cpython-38.opt-1.pyc
<<<          obj /usr/lib/python3.8/site-packages/pyflakes/test/__pycache__/harness.cpython-38.pyc
<<<          obj /usr/lib/python3.8/site-packages/pyflakes/test/__pycache__/harness.cpython-38.opt-2.pyc
<<<          obj /usr/lib/python3.8/site-packages/pyflakes/test/__pycache__/harness.cpython-38.opt-1.pyc
<<<          obj /usr/lib/python3.8/site-packages/pyflakes/test/__pycache__/__init__.cpython-38.pyc
<<<          obj /usr/lib/python3.8/site-packages/pyflakes/test/__pycache__/__init__.cpython-38.opt-2.pyc
<<<          obj /usr/lib/python3.8/site-packages/pyflakes/test/__pycache__/__init__.cpython-38.opt-1.pyc
<<<          obj /usr/lib/python3.8/site-packages/pyflakes/test/__init__.py
<<<          obj /usr/lib/python3.8/site-packages/pyflakes/scripts/pyflakes.py
<<<          obj /usr/lib/python3.8/site-packages/pyflakes/scripts/__pycache__/pyflakes.cpython-38.pyc
<<<          obj /usr/lib/python3.8/site-packages/pyflakes/scripts/__pycache__/pyflakes.cpython-38.opt-2.pyc
<<<          obj /usr/lib/python3.8/site-packages/pyflakes/scripts/__pycache__/pyflakes.cpython-38.opt-1.pyc
<<<          obj /usr/lib/python3.8/site-packages/pyflakes/scripts/__pycache__/__init__.cpython-38.pyc
<<<          obj /usr/lib/python3.8/site-packages/pyflakes/scripts/__pycache__/__init__.cpython-38.opt-2.pyc
<<<          obj /usr/lib/python3.8/site-packages/pyflakes/scripts/__pycache__/__init__.cpython-38.opt-1.pyc
<<<          obj /usr/lib/python3.8/site-packages/pyflakes/scripts/__init__.py
<<<          obj /usr/lib/python3.8/site-packages/pyflakes/reporter.py
<<<          obj /usr/lib/python3.8/site-packages/pyflakes/messages.py
<<<          obj /usr/lib/python3.8/site-packages/pyflakes/checker.py
<<<          obj /usr/lib/python3.8/site-packages/pyflakes/api.py
<<<          obj /usr/lib/python3.8/site-packages/pyflakes/__pycache__/reporter.cpython-38.pyc
<<<          obj /usr/lib/python3.8/site-packages/pyflakes/__pycache__/reporter.cpython-38.opt-2.pyc
<<<          obj /usr/lib/python3.8/site-packages/pyflakes/__pycache__/reporter.cpython-38.opt-1.pyc
<<<          obj /usr/lib/python3.8/site-packages/pyflakes/__pycache__/messages.cpython-38.pyc
<<<          obj /usr/lib/python3.8/site-packages/pyflakes/__pycache__/messages.cpython-38.opt-2.pyc
<<<          obj /usr/lib/python3.8/site-packages/pyflakes/__pycache__/messages.cpython-38.opt-1.pyc
<<<          obj /usr/lib/python3.8/site-packages/pyflakes/__pycache__/checker.cpython-38.pyc
<<<          obj /usr/lib/python3.8/site-packages/pyflakes/__pycache__/checker.cpython-38.opt-2.pyc
<<<          obj /usr/lib/python3.8/site-packages/pyflakes/__pycache__/checker.cpython-38.opt-1.pyc
<<<          obj /usr/lib/python3.8/site-packages/pyflakes/__pycache__/api.cpython-38.pyc
<<<          obj /usr/lib/python3.8/site-packages/pyflakes/__pycache__/api.cpython-38.opt-2.pyc
<<<          obj /usr/lib/python3.8/site-packages/pyflakes/__pycache__/api.cpython-38.opt-1.pyc
<<<          obj /usr/lib/python3.8/site-packages/pyflakes/__pycache__/__main__.cpython-38.pyc
<<<          obj /usr/lib/python3.8/site-packages/pyflakes/__pycache__/__main__.cpython-38.opt-2.pyc
<<<          obj /usr/lib/python3.8/site-packages/pyflakes/__pycache__/__main__.cpython-38.opt-1.pyc
<<<          obj /usr/lib/python3.8/site-packages/pyflakes/__pycache__/__init__.cpython-38.pyc
<<<          obj /usr/lib/python3.8/site-packages/pyflakes/__pycache__/__init__.cpython-38.opt-2.pyc
<<<          obj /usr/lib/python3.8/site-packages/pyflakes/__pycache__/__init__.cpython-38.opt-1.pyc
<<<          obj /usr/lib/python3.8/site-packages/pyflakes/__main__.py
<<<          obj /usr/lib/python3.8/site-packages/pyflakes/__init__.py
<<<          obj /usr/lib/python3.8/site-packages/pyflakes-2.2.0-py3.8.egg-info/top_level.txt
<<<          obj /usr/lib/python3.8/site-packages/pyflakes-2.2.0-py3.8.egg-info/entry_points.txt
<<<          obj /usr/lib/python3.8/site-packages/pyflakes-2.2.0-py3.8.egg-info/dependency_links.txt
<<<          obj /usr/lib/python3.8/site-packages/pyflakes-2.2.0-py3.8.egg-info/SOURCES.txt
<<<          obj /usr/lib/python3.8/site-packages/pyflakes-2.2.0-py3.8.egg-info/PKG-INFO
<<<          obj /usr/lib/python3.7/site-packages/pyflakes/test/test_undefined_names.py
<<<          obj /usr/lib/python3.7/site-packages/pyflakes/test/test_type_annotations.py
<<<          obj /usr/lib/python3.7/site-packages/pyflakes/test/test_return_with_arguments_inside_generator.py
<<<          obj /usr/lib/python3.7/site-packages/pyflakes/test/test_other.py
<<<          obj /usr/lib/python3.7/site-packages/pyflakes/test/test_is_literal.py
<<<          obj /usr/lib/python3.7/site-packages/pyflakes/test/test_imports.py
<<<          obj /usr/lib/python3.7/site-packages/pyflakes/test/test_doctests.py
<<<          obj /usr/lib/python3.7/site-packages/pyflakes/test/test_dict.py
<<<          obj /usr/lib/python3.7/site-packages/pyflakes/test/test_code_segment.py
<<<          obj /usr/lib/python3.7/site-packages/pyflakes/test/test_checker.py
<<<          obj /usr/lib/python3.7/site-packages/pyflakes/test/test_builtin.py
<<<          obj /usr/lib/python3.7/site-packages/pyflakes/test/test_api.py
<<<          obj /usr/lib/python3.7/site-packages/pyflakes/test/harness.py
<<<          obj /usr/lib/python3.7/site-packages/pyflakes/test/__pycache__/test_undefined_names.cpython-37.pyc
<<<          obj /usr/lib/python3.7/site-packages/pyflakes/test/__pycache__/test_undefined_names.cpython-37.opt-2.pyc
<<<          obj /usr/lib/python3.7/site-packages/pyflakes/test/__pycache__/test_undefined_names.cpython-37.opt-1.pyc
<<<          obj /usr/lib/python3.7/site-packages/pyflakes/test/__pycache__/test_type_annotations.cpython-37.pyc
<<<          obj /usr/lib/python3.7/site-packages/pyflakes/test/__pycache__/test_type_annotations.cpython-37.opt-2.pyc
<<<          obj /usr/lib/python3.7/site-packages/pyflakes/test/__pycache__/test_type_annotations.cpython-37.opt-1.pyc
<<<          obj /usr/lib/python3.7/site-packages/pyflakes/test/__pycache__/test_return_with_arguments_inside_generator.cpython-37.pyc
<<<          obj /usr/lib/python3.7/site-packages/pyflakes/test/__pycache__/test_return_with_arguments_inside_generator.cpython-37.opt-2.pyc
<<<          obj /usr/lib/python3.7/site-packages/pyflakes/test/__pycache__/test_return_with_arguments_inside_generator.cpython-37.opt-1.pyc
<<<          obj /usr/lib/python3.7/site-packages/pyflakes/test/__pycache__/test_other.cpython-37.pyc
<<<          obj /usr/lib/python3.7/site-packages/pyflakes/test/__pycache__/test_other.cpython-37.opt-2.pyc
<<<          obj /usr/lib/python3.7/site-packages/pyflakes/test/__pycache__/test_other.cpython-37.opt-1.pyc
<<<          obj /usr/lib/python3.7/site-packages/pyflakes/test/__pycache__/test_is_literal.cpython-37.pyc
<<<          obj /usr/lib/python3.7/site-packages/pyflakes/test/__pycache__/test_is_literal.cpython-37.opt-2.pyc
<<<          obj /usr/lib/python3.7/site-packages/pyflakes/test/__pycache__/test_is_literal.cpython-37.opt-1.pyc
<<<          obj /usr/lib/python3.7/site-packages/pyflakes/test/__pycache__/test_imports.cpython-37.pyc
<<<          obj /usr/lib/python3.7/site-packages/pyflakes/test/__pycache__/test_imports.cpython-37.opt-2.pyc
<<<          obj /usr/lib/python3.7/site-packages/pyflakes/test/__pycache__/test_imports.cpython-37.opt-1.pyc
<<<          obj /usr/lib/python3.7/site-packages/pyflakes/test/__pycache__/test_doctests.cpython-37.pyc
<<<          obj /usr/lib/python3.7/site-packages/pyflakes/test/__pycache__/test_doctests.cpython-37.opt-2.pyc
<<<          obj /usr/lib/python3.7/site-packages/pyflakes/test/__pycache__/test_doctests.cpython-37.opt-1.pyc
<<<          obj /usr/lib/python3.7/site-packages/pyflakes/test/__pycache__/test_dict.cpython-37.pyc
<<<          obj /usr/lib/python3.7/site-packages/pyflakes/test/__pycache__/test_dict.cpython-37.opt-2.pyc
<<<          obj /usr/lib/python3.7/site-packages/pyflakes/test/__pycache__/test_dict.cpython-37.opt-1.pyc
<<<          obj /usr/lib/python3.7/site-packages/pyflakes/test/__pycache__/test_code_segment.cpython-37.pyc
<<<          obj /usr/lib/python3.7/site-packages/pyflakes/test/__pycache__/test_code_segment.cpython-37.opt-2.pyc
<<<          obj /usr/lib/python3.7/site-packages/pyflakes/test/__pycache__/test_code_segment.cpython-37.opt-1.pyc
<<<          obj /usr/lib/python3.7/site-packages/pyflakes/test/__pycache__/test_checker.cpython-37.pyc
<<<          obj /usr/lib/python3.7/site-packages/pyflakes/test/__pycache__/test_checker.cpython-37.opt-2.pyc
<<<          obj /usr/lib/python3.7/site-packages/pyflakes/test/__pycache__/test_checker.cpython-37.opt-1.pyc
<<<          obj /usr/lib/python3.7/site-packages/pyflakes/test/__pycache__/test_builtin.cpython-37.pyc
<<<          obj /usr/lib/python3.7/site-packages/pyflakes/test/__pycache__/test_builtin.cpython-37.opt-2.pyc
<<<          obj /usr/lib/python3.7/site-packages/pyflakes/test/__pycache__/test_builtin.cpython-37.opt-1.pyc
<<<          obj /usr/lib/python3.7/site-packages/pyflakes/test/__pycache__/test_api.cpython-37.pyc
<<<          obj /usr/lib/python3.7/site-packages/pyflakes/test/__pycache__/test_api.cpython-37.opt-2.pyc
<<<          obj /usr/lib/python3.7/site-packages/pyflakes/test/__pycache__/test_api.cpython-37.opt-1.pyc
<<<          obj /usr/lib/python3.7/site-packages/pyflakes/test/__pycache__/harness.cpython-37.pyc
<<<          obj /usr/lib/python3.7/site-packages/pyflakes/test/__pycache__/harness.cpython-37.opt-2.pyc
<<<          obj /usr/lib/python3.7/site-packages/pyflakes/test/__pycache__/harness.cpython-37.opt-1.pyc
<<<          obj /usr/lib/python3.7/site-packages/pyflakes/test/__pycache__/__init__.cpython-37.pyc
<<<          obj /usr/lib/python3.7/site-packages/pyflakes/test/__pycache__/__init__.cpython-37.opt-2.pyc
<<<          obj /usr/lib/python3.7/site-packages/pyflakes/test/__pycache__/__init__.cpython-37.opt-1.pyc
<<<          obj /usr/lib/python3.7/site-packages/pyflakes/test/__init__.py
<<<          obj /usr/lib/python3.7/site-packages/pyflakes/scripts/pyflakes.py
<<<          obj /usr/lib/python3.7/site-packages/pyflakes/scripts/__pycache__/pyflakes.cpython-37.pyc
<<<          obj /usr/lib/python3.7/site-packages/pyflakes/scripts/__pycache__/pyflakes.cpython-37.opt-2.pyc
<<<          obj /usr/lib/python3.7/site-packages/pyflakes/scripts/__pycache__/pyflakes.cpython-37.opt-1.pyc
<<<          obj /usr/lib/python3.7/site-packages/pyflakes/scripts/__pycache__/__init__.cpython-37.pyc
<<<          obj /usr/lib/python3.7/site-packages/pyflakes/scripts/__pycache__/__init__.cpython-37.opt-2.pyc
<<<          obj /usr/lib/python3.7/site-packages/pyflakes/scripts/__pycache__/__init__.cpython-37.opt-1.pyc
<<<          obj /usr/lib/python3.7/site-packages/pyflakes/scripts/__init__.py
<<<          obj /usr/lib/python3.7/site-packages/pyflakes/reporter.py
<<<          obj /usr/lib/python3.7/site-packages/pyflakes/messages.py
<<<          obj /usr/lib/python3.7/site-packages/pyflakes/checker.py
<<<          obj /usr/lib/python3.7/site-packages/pyflakes/api.py
<<<          obj /usr/lib/python3.7/site-packages/pyflakes/__pycache__/reporter.cpython-37.pyc
<<<          obj /usr/lib/python3.7/site-packages/pyflakes/__pycache__/reporter.cpython-37.opt-2.pyc
<<<          obj /usr/lib/python3.7/site-packages/pyflakes/__pycache__/reporter.cpython-37.opt-1.pyc
<<<          obj /usr/lib/python3.7/site-packages/pyflakes/__pycache__/messages.cpython-37.pyc
<<<          obj /usr/lib/python3.7/site-packages/pyflakes/__pycache__/messages.cpython-37.opt-2.pyc
<<<          obj /usr/lib/python3.7/site-packages/pyflakes/__pycache__/messages.cpython-37.opt-1.pyc
<<<          obj /usr/lib/python3.7/site-packages/pyflakes/__pycache__/checker.cpython-37.pyc
<<<          obj /usr/lib/python3.7/site-packages/pyflakes/__pycache__/checker.cpython-37.opt-2.pyc
<<<          obj /usr/lib/python3.7/site-packages/pyflakes/__pycache__/checker.cpython-37.opt-1.pyc
<<<          obj /usr/lib/python3.7/site-packages/pyflakes/__pycache__/api.cpython-37.pyc
<<<          obj /usr/lib/python3.7/site-packages/pyflakes/__pycache__/api.cpython-37.opt-2.pyc
<<<          obj /usr/lib/python3.7/site-packages/pyflakes/__pycache__/api.cpython-37.opt-1.pyc
<<<          obj /usr/lib/python3.7/site-packages/pyflakes/__pycache__/__main__.cpython-37.pyc
<<<          obj /usr/lib/python3.7/site-packages/pyflakes/__pycache__/__main__.cpython-37.opt-2.pyc
<<<          obj /usr/lib/python3.7/site-packages/pyflakes/__pycache__/__main__.cpython-37.opt-1.pyc
<<<          obj /usr/lib/python3.7/site-packages/pyflakes/__pycache__/__init__.cpython-37.pyc
<<<          obj /usr/lib/python3.7/site-packages/pyflakes/__pycache__/__init__.cpython-37.opt-2.pyc
<<<          obj /usr/lib/python3.7/site-packages/pyflakes/__pycache__/__init__.cpython-37.opt-1.pyc
<<<          obj /usr/lib/python3.7/site-packages/pyflakes/__main__.py
<<<          obj /usr/lib/python3.7/site-packages/pyflakes/__init__.py
<<<          obj /usr/lib/python3.7/site-packages/pyflakes-2.2.0-py3.7.egg-info/top_level.txt
<<<          obj /usr/lib/python3.7/site-packages/pyflakes-2.2.0-py3.7.egg-info/entry_points.txt
<<<          obj /usr/lib/python3.7/site-packages/pyflakes-2.2.0-py3.7.egg-info/dependency_links.txt
<<<          obj /usr/lib/python3.7/site-packages/pyflakes-2.2.0-py3.7.egg-info/SOURCES.txt
<<<          obj /usr/lib/python3.7/site-packages/pyflakes-2.2.0-py3.7.egg-info/PKG-INFO
<<<          obj /usr/lib/python-exec/python3.8/pyflakes
<<<          obj /usr/lib/python-exec/python3.7/pyflakes
<<<          obj /usr/lib/python-exec/python3.6/pyflakes
<<<          obj /usr/lib/python-exec/pypy3/pyflakes
<<<          obj /usr/lib/pypy3.6/site-packages/pyflakes/test/test_undefined_names.py
<<<          obj /usr/lib/pypy3.6/site-packages/pyflakes/test/test_type_annotations.py
<<<          obj /usr/lib/pypy3.6/site-packages/pyflakes/test/test_return_with_arguments_inside_generator.py
<<<          obj /usr/lib/pypy3.6/site-packages/pyflakes/test/test_other.py
<<<          obj /usr/lib/pypy3.6/site-packages/pyflakes/test/test_is_literal.py
<<<          obj /usr/lib/pypy3.6/site-packages/pyflakes/test/test_imports.py
<<<          obj /usr/lib/pypy3.6/site-packages/pyflakes/test/test_doctests.py
<<<          obj /usr/lib/pypy3.6/site-packages/pyflakes/test/test_dict.py
<<<          obj /usr/lib/pypy3.6/site-packages/pyflakes/test/test_code_segment.py
<<<          obj /usr/lib/pypy3.6/site-packages/pyflakes/test/test_checker.py
<<<          obj /usr/lib/pypy3.6/site-packages/pyflakes/test/test_builtin.py
<<<          obj /usr/lib/pypy3.6/site-packages/pyflakes/test/test_api.py
<<<          obj /usr/lib/pypy3.6/site-packages/pyflakes/test/harness.py
<<<          obj /usr/lib/pypy3.6/site-packages/pyflakes/test/__pycache__/test_undefined_names.pypy36.pyc
<<<          obj /usr/lib/pypy3.6/site-packages/pyflakes/test/__pycache__/test_undefined_names.pypy36.opt-2.pyc
<<<          obj /usr/lib/pypy3.6/site-packages/pyflakes/test/__pycache__/test_undefined_names.pypy36.opt-1.pyc
<<<          obj /usr/lib/pypy3.6/site-packages/pyflakes/test/__pycache__/test_type_annotations.pypy36.pyc
<<<          obj /usr/lib/pypy3.6/site-packages/pyflakes/test/__pycache__/test_type_annotations.pypy36.opt-2.pyc
<<<          obj /usr/lib/pypy3.6/site-packages/pyflakes/test/__pycache__/test_type_annotations.pypy36.opt-1.pyc
<<<          obj /usr/lib/pypy3.6/site-packages/pyflakes/test/__pycache__/test_return_with_arguments_inside_generator.pypy36.pyc
<<<          obj /usr/lib/pypy3.6/site-packages/pyflakes/test/__pycache__/test_return_with_arguments_inside_generator.pypy36.opt-2.pyc
<<<          obj /usr/lib/pypy3.6/site-packages/pyflakes/test/__pycache__/test_return_with_arguments_inside_generator.pypy36.opt-1.pyc
<<<          obj /usr/lib/pypy3.6/site-packages/pyflakes/test/__pycache__/test_other.pypy36.pyc
<<<          obj /usr/lib/pypy3.6/site-packages/pyflakes/test/__pycache__/test_other.pypy36.opt-2.pyc
<<<          obj /usr/lib/pypy3.6/site-packages/pyflakes/test/__pycache__/test_other.pypy36.opt-1.pyc
<<<          obj /usr/lib/pypy3.6/site-packages/pyflakes/test/__pycache__/test_is_literal.pypy36.pyc
<<<          obj /usr/lib/pypy3.6/site-packages/pyflakes/test/__pycache__/test_is_literal.pypy36.opt-2.pyc
<<<          obj /usr/lib/pypy3.6/site-packages/pyflakes/test/__pycache__/test_is_literal.pypy36.opt-1.pyc
<<<          obj /usr/lib/pypy3.6/site-packages/pyflakes/test/__pycache__/test_imports.pypy36.pyc
<<<          obj /usr/lib/pypy3.6/site-packages/pyflakes/test/__pycache__/test_imports.pypy36.opt-2.pyc
<<<          obj /usr/lib/pypy3.6/site-packages/pyflakes/test/__pycache__/test_imports.pypy36.opt-1.pyc
<<<          obj /usr/lib/pypy3.6/site-packages/pyflakes/test/__pycache__/test_doctests.pypy36.pyc
<<<          obj /usr/lib/pypy3.6/site-packages/pyflakes/test/__pycache__/test_doctests.pypy36.opt-2.pyc
<<<          obj /usr/lib/pypy3.6/site-packages/pyflakes/test/__pycache__/test_doctests.pypy36.opt-1.pyc
<<<          obj /usr/lib/pypy3.6/site-packages/pyflakes/test/__pycache__/test_dict.pypy36.pyc
<<<          obj /usr/lib/pypy3.6/site-packages/pyflakes/test/__pycache__/test_dict.pypy36.opt-2.pyc
<<<          obj /usr/lib/pypy3.6/site-packages/pyflakes/test/__pycache__/test_dict.pypy36.opt-1.pyc
<<<          obj /usr/lib/pypy3.6/site-packages/pyflakes/test/__pycache__/test_code_segment.pypy36.pyc
<<<          obj /usr/lib/pypy3.6/site-packages/pyflakes/test/__pycache__/test_code_segment.pypy36.opt-2.pyc
<<<          obj /usr/lib/pypy3.6/site-packages/pyflakes/test/__pycache__/test_code_segment.pypy36.opt-1.pyc
<<<          obj /usr/lib/pypy3.6/site-packages/pyflakes/test/__pycache__/test_checker.pypy36.pyc
<<<          obj /usr/lib/pypy3.6/site-packages/pyflakes/test/__pycache__/test_checker.pypy36.opt-2.pyc
<<<          obj /usr/lib/pypy3.6/site-packages/pyflakes/test/__pycache__/test_checker.pypy36.opt-1.pyc
<<<          obj /usr/lib/pypy3.6/site-packages/pyflakes/test/__pycache__/test_builtin.pypy36.pyc
<<<          obj /usr/lib/pypy3.6/site-packages/pyflakes/test/__pycache__/test_builtin.pypy36.opt-2.pyc
<<<          obj /usr/lib/pypy3.6/site-packages/pyflakes/test/__pycache__/test_builtin.pypy36.opt-1.pyc
<<<          obj /usr/lib/pypy3.6/site-packages/pyflakes/test/__pycache__/test_api.pypy36.pyc
<<<          obj /usr/lib/pypy3.6/site-packages/pyflakes/test/__pycache__/test_api.pypy36.opt-2.pyc
<<<          obj /usr/lib/pypy3.6/site-packages/pyflakes/test/__pycache__/test_api.pypy36.opt-1.pyc
<<<          obj /usr/lib/pypy3.6/site-packages/pyflakes/test/__pycache__/harness.pypy36.pyc
<<<          obj /usr/lib/pypy3.6/site-packages/pyflakes/test/__pycache__/harness.pypy36.opt-2.pyc
<<<          obj /usr/lib/pypy3.6/site-packages/pyflakes/test/__pycache__/harness.pypy36.opt-1.pyc
<<<          obj /usr/lib/pypy3.6/site-packages/pyflakes/test/__pycache__/__init__.pypy36.pyc
<<<          obj /usr/lib/pypy3.6/site-packages/pyflakes/test/__pycache__/__init__.pypy36.opt-2.pyc
<<<          obj /usr/lib/pypy3.6/site-packages/pyflakes/test/__pycache__/__init__.pypy36.opt-1.pyc
<<<          obj /usr/lib/pypy3.6/site-packages/pyflakes/test/__init__.py
<<<          obj /usr/lib/pypy3.6/site-packages/pyflakes/scripts/pyflakes.py
<<<          obj /usr/lib/pypy3.6/site-packages/pyflakes/scripts/__pycache__/pyflakes.pypy36.pyc
<<<          obj /usr/lib/pypy3.6/site-packages/pyflakes/scripts/__pycache__/pyflakes.pypy36.opt-2.pyc
<<<          obj /usr/lib/pypy3.6/site-packages/pyflakes/scripts/__pycache__/pyflakes.pypy36.opt-1.pyc
<<<          obj /usr/lib/pypy3.6/site-packages/pyflakes/scripts/__pycache__/__init__.pypy36.pyc
<<<          obj /usr/lib/pypy3.6/site-packages/pyflakes/scripts/__pycache__/__init__.pypy36.opt-2.pyc
<<<          obj /usr/lib/pypy3.6/site-packages/pyflakes/scripts/__pycache__/__init__.pypy36.opt-1.pyc
<<<          obj /usr/lib/pypy3.6/site-packages/pyflakes/scripts/__init__.py
<<<          obj /usr/lib/pypy3.6/site-packages/pyflakes/reporter.py
<<<          obj /usr/lib/pypy3.6/site-packages/pyflakes/messages.py
<<<          obj /usr/lib/pypy3.6/site-packages/pyflakes/checker.py
<<<          obj /usr/lib/pypy3.6/site-packages/pyflakes/api.py
<<<          obj /usr/lib/pypy3.6/site-packages/pyflakes/__pycache__/reporter.pypy36.pyc
<<<          obj /usr/lib/pypy3.6/site-packages/pyflakes/__pycache__/reporter.pypy36.opt-2.pyc
<<<          obj /usr/lib/pypy3.6/site-packages/pyflakes/__pycache__/reporter.pypy36.opt-1.pyc
<<<          obj /usr/lib/pypy3.6/site-packages/pyflakes/__pycache__/messages.pypy36.pyc
<<<          obj /usr/lib/pypy3.6/site-packages/pyflakes/__pycache__/messages.pypy36.opt-2.pyc
<<<          obj /usr/lib/pypy3.6/site-packages/pyflakes/__pycache__/messages.pypy36.opt-1.pyc
<<<          obj /usr/lib/pypy3.6/site-packages/pyflakes/__pycache__/checker.pypy36.pyc
<<<          obj /usr/lib/pypy3.6/site-packages/pyflakes/__pycache__/checker.pypy36.opt-2.pyc
<<<          obj /usr/lib/pypy3.6/site-packages/pyflakes/__pycache__/checker.pypy36.opt-1.pyc
<<<          obj /usr/lib/pypy3.6/site-packages/pyflakes/__pycache__/api.pypy36.pyc
<<<          obj /usr/lib/pypy3.6/site-packages/pyflakes/__pycache__/api.pypy36.opt-2.pyc
<<<          obj /usr/lib/pypy3.6/site-packages/pyflakes/__pycache__/api.pypy36.opt-1.pyc
<<<          obj /usr/lib/pypy3.6/site-packages/pyflakes/__pycache__/__main__.pypy36.pyc
<<<          obj /usr/lib/pypy3.6/site-packages/pyflakes/__pycache__/__main__.pypy36.opt-2.pyc
<<<          obj /usr/lib/pypy3.6/site-packages/pyflakes/__pycache__/__main__.pypy36.opt-1.pyc
<<<          obj /usr/lib/pypy3.6/site-packages/pyflakes/__pycache__/__init__.pypy36.pyc
<<<          obj /usr/lib/pypy3.6/site-packages/pyflakes/__pycache__/__init__.pypy36.opt-2.pyc
<<<          obj /usr/lib/pypy3.6/site-packages/pyflakes/__pycache__/__init__.pypy36.opt-1.pyc
<<<          obj /usr/lib/pypy3.6/site-packages/pyflakes/__main__.py
<<<          obj /usr/lib/pypy3.6/site-packages/pyflakes/__init__.py
<<<          obj /usr/lib/pypy3.6/site-packages/pyflakes-2.2.0-py3.6.egg-info/top_level.txt
<<<          obj /usr/lib/pypy3.6/site-packages/pyflakes-2.2.0-py3.6.egg-info/entry_points.txt
<<<          obj /usr/lib/pypy3.6/site-packages/pyflakes-2.2.0-py3.6.egg-info/dependency_links.txt
<<<          obj /usr/lib/pypy3.6/site-packages/pyflakes-2.2.0-py3.6.egg-info/SOURCES.txt
<<<          obj /usr/lib/pypy3.6/site-packages/pyflakes-2.2.0-py3.6.egg-info/PKG-INFO
<<<          sym /usr/bin/pyflakes
<<<          dir /usr/lib64/python3.6/site-packages/pyflakes/test/__pycache__
<<<          dir /usr/lib64/python3.6/site-packages/pyflakes/test
<<<          dir /usr/lib64/python3.6/site-packages/pyflakes/scripts/__pycache__
<<<          dir /usr/lib64/python3.6/site-packages/pyflakes/scripts
<<<          dir /usr/lib64/python3.6/site-packages/pyflakes/__pycache__
<<<          dir /usr/lib64/python3.6/site-packages/pyflakes-2.2.0-py3.6.egg-info
<<<          dir /usr/lib64/python3.6/site-packages/pyflakes
--- !empty   dir /usr/lib64/python3.6/site-packages
--- !empty   dir /usr/lib64/python3.6
--- !empty   dir /usr/lib64
<<<          dir /usr/lib/python3.8/site-packages/pyflakes/test/__pycache__
<<<          dir /usr/lib/python3.8/site-packages/pyflakes/test
<<<          dir /usr/lib/python3.8/site-packages/pyflakes/scripts/__pycache__
<<<          dir /usr/lib/python3.8/site-packages/pyflakes/scripts
<<<          dir /usr/lib/python3.8/site-packages/pyflakes/__pycache__
<<<          dir /usr/lib/python3.8/site-packages/pyflakes-2.2.0-py3.8.egg-info
<<<          dir /usr/lib/python3.8/site-packages/pyflakes
--- !empty   dir /usr/lib/python3.8/site-packages
--- !empty   dir /usr/lib/python3.8
<<<          dir /usr/lib/python3.7/site-packages/pyflakes/test/__pycache__
<<<          dir /usr/lib/python3.7/site-packages/pyflakes/test
<<<          dir /usr/lib/python3.7/site-packages/pyflakes/scripts/__pycache__
<<<          dir /usr/lib/python3.7/site-packages/pyflakes/scripts
<<<          dir /usr/lib/python3.7/site-packages/pyflakes/__pycache__
<<<          dir /usr/lib/python3.7/site-packages/pyflakes-2.2.0-py3.7.egg-info
<<<          dir /usr/lib/python3.7/site-packages/pyflakes
--- !empty   dir /usr/lib/python3.7/site-packages
--- !empty   dir /usr/lib/python3.7
--- !empty   dir /usr/lib/python-exec/python3.8
--- !empty   dir /usr/lib/python-exec/python3.7
--- !empty   dir /usr/lib/python-exec/python3.6
--- !empty   dir /usr/lib/python-exec/pypy3
--- !empty   dir /usr/lib/python-exec
<<<          dir /usr/lib/pypy3.6/site-packages/pyflakes/test/__pycache__
<<<          dir /usr/lib/pypy3.6/site-packages/pyflakes/test
<<<          dir /usr/lib/pypy3.6/site-packages/pyflakes/scripts/__pycache__
<<<          dir /usr/lib/pypy3.6/site-packages/pyflakes/scripts
<<<          dir /usr/lib/pypy3.6/site-packages/pyflakes/__pycache__
<<<          dir /usr/lib/pypy3.6/site-packages/pyflakes-2.2.0-py3.6.egg-info
<<<          dir /usr/lib/pypy3.6/site-packages/pyflakes
--- !empty   dir /usr/lib/pypy3.6/site-packages
--- !empty   dir /usr/lib/pypy3.6
--- !empty   dir /usr/lib
--- !empty   dir /usr/bin
--- !empty   dir /usr
