No package files given... Grabbing a set.
--- replaced obj /usr/lib64/qt5/mkspecs/modules/qt_lib_dbus_private.pri
--- replaced obj /usr/lib64/qt5/mkspecs/modules/qt_lib_dbus.pri
--- replaced dir /usr/lib64/qt5/mkspecs/modules
--- replaced obj /usr/lib64/qt5/mkspecs/gentoo/qtdbus-qmodule.pri
--- replaced obj /usr/lib64/qt5/mkspecs/gentoo/qtdbus-qconfig.pri
--- replaced dir /usr/lib64/qt5/mkspecs/gentoo
--- replaced dir /usr/lib64/qt5/mkspecs
--- replaced obj /usr/lib64/qt5/bin/qdbusxml2cpp
--- replaced obj /usr/lib64/qt5/bin/qdbuscpp2xml
--- replaced dir /usr/lib64/qt5/bin
--- replaced dir /usr/lib64/qt5
--- replaced obj /usr/lib64/pkgconfig/Qt5DBus.pc
--- replaced dir /usr/lib64/pkgconfig
--- replaced obj /usr/lib64/libQt5DBus.so.5.15.0
--- replaced sym /usr/lib64/libQt5DBus.so.5.15
--- replaced sym /usr/lib64/libQt5DBus.so.5
--- replaced sym /usr/lib64/libQt5DBus.so
--- replaced obj /usr/lib64/libQt5DBus.prl
--- replaced obj /usr/lib64/cmake/Qt5DBus/Qt5DBusMacros.cmake
--- replaced obj /usr/lib64/cmake/Qt5DBus/Qt5DBusConfigVersion.cmake
--- replaced obj /usr/lib64/cmake/Qt5DBus/Qt5DBusConfigExtras.cmake
--- replaced obj /usr/lib64/cmake/Qt5DBus/Qt5DBusConfig.cmake
--- replaced dir /usr/lib64/cmake/Qt5DBus
--- replaced dir /usr/lib64/cmake
--- replaced dir /usr/lib64
--- replaced obj /usr/include/qt5/QtDBus/qtdbusversion.h
--- replaced obj /usr/include/qt5/QtDBus/qtdbusglobal.h
--- replaced obj /usr/include/qt5/QtDBus/qdbusvirtualobject.h
--- replaced obj /usr/include/qt5/QtDBus/qdbusunixfiledescriptor.h
--- replaced obj /usr/include/qt5/QtDBus/qdbusservicewatcher.h
--- replaced obj /usr/include/qt5/QtDBus/qdbusserver.h
--- replaced obj /usr/include/qt5/QtDBus/qdbusreply.h
--- replaced obj /usr/include/qt5/QtDBus/qdbuspendingreply.h
--- replaced obj /usr/include/qt5/QtDBus/qdbuspendingcall.h
--- replaced obj /usr/include/qt5/QtDBus/qdbusmetatype.h
--- replaced obj /usr/include/qt5/QtDBus/qdbusmessage.h
--- replaced obj /usr/include/qt5/QtDBus/qdbusmacros.h
--- replaced obj /usr/include/qt5/QtDBus/qdbusinterface.h
--- replaced obj /usr/include/qt5/QtDBus/qdbusextratypes.h
--- replaced obj /usr/include/qt5/QtDBus/qdbuserror.h
--- replaced obj /usr/include/qt5/QtDBus/qdbuscontext.h
--- replaced obj /usr/include/qt5/QtDBus/qdbusconnectioninterface.h
--- replaced obj /usr/include/qt5/QtDBus/qdbusconnection.h
--- replaced obj /usr/include/qt5/QtDBus/qdbusargument.h
--- replaced obj /usr/include/qt5/QtDBus/qdbusabstractinterface.h
--- replaced obj /usr/include/qt5/QtDBus/qdbusabstractadaptor.h
--- replaced obj /usr/include/qt5/QtDBus/QtDBusVersion
--- replaced obj /usr/include/qt5/QtDBus/QtDBusDepends
--- replaced obj /usr/include/qt5/QtDBus/QtDBus
--- replaced obj /usr/include/qt5/QtDBus/QDBusVirtualObject
--- replaced obj /usr/include/qt5/QtDBus/QDBusVariant
--- replaced obj /usr/include/qt5/QtDBus/QDBusUnixFileDescriptor
--- replaced obj /usr/include/qt5/QtDBus/QDBusSignature
--- replaced obj /usr/include/qt5/QtDBus/QDBusServiceWatcher
--- replaced obj /usr/include/qt5/QtDBus/QDBusServer
--- replaced obj /usr/include/qt5/QtDBus/QDBusReply
--- replaced obj /usr/include/qt5/QtDBus/QDBusPendingReplyData
--- replaced obj /usr/include/qt5/QtDBus/QDBusPendingReply
--- replaced obj /usr/include/qt5/QtDBus/QDBusPendingCallWatcher
--- replaced obj /usr/include/qt5/QtDBus/QDBusPendingCall
--- replaced obj /usr/include/qt5/QtDBus/QDBusObjectPath
--- replaced obj /usr/include/qt5/QtDBus/QDBusMetaType
--- replaced obj /usr/include/qt5/QtDBus/QDBusMessage
--- replaced obj /usr/include/qt5/QtDBus/QDBusInterface
--- replaced obj /usr/include/qt5/QtDBus/QDBusError
--- replaced obj /usr/include/qt5/QtDBus/QDBusContext
--- replaced obj /usr/include/qt5/QtDBus/QDBusConnectionInterface
--- replaced obj /usr/include/qt5/QtDBus/QDBusConnection
--- replaced obj /usr/include/qt5/QtDBus/QDBusArgument
--- replaced obj /usr/include/qt5/QtDBus/QDBusAbstractInterfaceBase
--- replaced obj /usr/include/qt5/QtDBus/QDBusAbstractInterface
--- replaced obj /usr/include/qt5/QtDBus/QDBusAbstractAdaptor
--- replaced obj /usr/include/qt5/QtDBus/5.15.0/QtDBus/private/qtdbusglobal_p.h
--- replaced obj /usr/include/qt5/QtDBus/5.15.0/QtDBus/private/qdbusxmlparser_p.h
--- replaced obj /usr/include/qt5/QtDBus/5.15.0/QtDBus/private/qdbusutil_p.h
--- replaced obj /usr/include/qt5/QtDBus/5.15.0/QtDBus/private/qdbusthreaddebug_p.h
--- replaced obj /usr/include/qt5/QtDBus/5.15.0/QtDBus/private/qdbuspendingcall_p.h
--- replaced obj /usr/include/qt5/QtDBus/5.15.0/QtDBus/private/qdbusmetatype_p.h
--- replaced obj /usr/include/qt5/QtDBus/5.15.0/QtDBus/private/qdbusmetaobject_p.h
--- replaced obj /usr/include/qt5/QtDBus/5.15.0/QtDBus/private/qdbusmessage_p.h
--- replaced obj /usr/include/qt5/QtDBus/5.15.0/QtDBus/private/qdbusintrospection_p.h
--- replaced obj /usr/include/qt5/QtDBus/5.15.0/QtDBus/private/qdbusinterface_p.h
--- replaced obj /usr/include/qt5/QtDBus/5.15.0/QtDBus/private/qdbusintegrator_p.h
--- replaced obj /usr/include/qt5/QtDBus/5.15.0/QtDBus/private/qdbuscontext_p.h
--- replaced obj /usr/include/qt5/QtDBus/5.15.0/QtDBus/private/qdbusconnectionmanager_p.h
--- replaced obj /usr/include/qt5/QtDBus/5.15.0/QtDBus/private/qdbusconnection_p.h
--- replaced obj /usr/include/qt5/QtDBus/5.15.0/QtDBus/private/qdbusargument_p.h
--- replaced obj /usr/include/qt5/QtDBus/5.15.0/QtDBus/private/qdbusabstractinterface_p.h
--- replaced obj /usr/include/qt5/QtDBus/5.15.0/QtDBus/private/qdbusabstractadaptor_p.h
--- replaced obj /usr/include/qt5/QtDBus/5.15.0/QtDBus/private/qdbus_symbols_p.h
--- replaced obj /usr/include/qt5/QtDBus/5.15.0/QtDBus/private/dbus_minimal_p.h
--- replaced dir /usr/include/qt5/QtDBus/5.15.0/QtDBus/private
--- replaced dir /usr/include/qt5/QtDBus/5.15.0/QtDBus
--- replaced dir /usr/include/qt5/QtDBus/5.15.0
--- replaced dir /usr/include/qt5/QtDBus
--- replaced obj /usr/include/qt5/Gentoo/qtdbus-qconfig.h
--- replaced dir /usr/include/qt5/Gentoo
--- replaced dir /usr/include/qt5
--- replaced dir /usr/include
--- replaced dir /usr
>>> Regenerating /etc/ld.so.cache...
