>>> Extracting info
 * Package:    dev-cpp/nlohmann_json-3.7.3
 * Repository: gentoo
 * USE:        amd64 userland_GNU abi_x86_64 elibc_glibc kernel_linux
 * FEATURES:   ccache preserve-libs userpriv
 * FEATURES='userpriv ccache distlocks strict fixlafiles nodoc buildpkg config-protect-if-modified xattr strict-keepdir preserve-libs cgroup compress-index qa-unresolved-soname-deps merge-sync binpkg-dostrip multilib-strict news unmerge-orphans assume-digests parallel-fetch sfperms binpkg-logs unmerge-logs ebuild-locks userfetch unknown-features-warn usersync binpkg-docompress'
 * CFLAGS='-O2 -pipe -Wl,-O1,--sort-common,--as-needed,-z,norelro,-z,now'
 * CXXFLAGS='-O2 -pipe -Wl,-O1,--sort-common,--as-needed,-z,norelro,-z,now'
 * FFLAGS='-O2 -pipe -Wl,-O1,--sort-common,--as-needed,-z,norelro,-z,now'
 * FCFLAGS='-O2 -pipe -Wl,-O1,--sort-common,--as-needed,-z,norelro,-z,now'
 * F77FLAGS='-O2 -pipe -Wl,-O1,--sort-common,--as-needed,-z,norelro,-z,now'
 * LDFLAGS='-Wl,-O1,--sort-common,--as-needed,-z,norelro,-z,now'
 * MAKEOPTS='-j12 -l12'
 * gcc (Gentoo 11.0.0_pre9999 p1, commit 184c21bf1cd04a108ed9bd04635e7d57ac39f616) 11.0.0 20200611 (experimental)
 * g++ (Gentoo 11.0.0_pre9999 p1, commit 184c21bf1cd04a108ed9bd04635e7d57ac39f616) 11.0.0 20200611 (experimental)
 * GNU ld (Gentoo 2.34 p4) 2.34.0
 * Linux rescue 5.4.36 #1 SMP Thu Apr 30 04:38:28 UTC 2020 x86_64 AMD Ryzen 5 3600 6-Core Processor AuthenticAMD GNU/Linux
dev-cpp/nlohmann_json: 1 minute, 4 seconds average for 9 merges
2020-05-20T08:48:38 >>> dev-cpp/nlohmann_json: 39 seconds
2020-05-21T06:15:32 >>> dev-cpp/nlohmann_json: 6 seconds
2020-05-26T14:10:02 >>> dev-cpp/nlohmann_json: 19 seconds
2020-05-28T05:56:39 >>> dev-cpp/nlohmann_json: 2 minutes, 9 seconds
2020-05-28T14:34:25 >>> dev-cpp/nlohmann_json: 16 seconds
2020-05-29T13:52:28 >>> dev-cpp/nlohmann_json: 2 minutes, 4 seconds
2020-05-31T00:06:19 >>> dev-cpp/nlohmann_json: 2 minutes, 16 seconds
2020-06-01T08:14:04 >>> dev-cpp/nlohmann_json: 1 minute, 35 seconds
2020-06-12T03:40:54 >>> dev-cpp/nlohmann_json: 19 seconds
]0;emerge 20:19:02 307|882 nlohmann_json 01:23 (root@rescue)>>> Extracting dev-cpp/nlohmann_json-3.7.3
 * checking 37 files for package collisions
>>> Merging dev-cpp/nlohmann_json-3.7.3 to /
 * removing unneeded *.la files
--- /usr/
--- /usr/lib64/
--- /usr/lib64/cmake/
--- /usr/lib64/cmake/nlohmann_json/
>>> /usr/lib64/cmake/nlohmann_json/nlohmann_jsonConfig.cmake
>>> /usr/lib64/cmake/nlohmann_json/nlohmann_jsonTargets.cmake
>>> /usr/lib64/cmake/nlohmann_json/nlohmann_jsonConfigVersion.cmake
--- /usr/include/
--- /usr/include/nlohmann/
>>> /usr/include/nlohmann/json_fwd.hpp
>>> /usr/include/nlohmann/json.hpp
--- /usr/include/nlohmann/thirdparty/
--- /usr/include/nlohmann/thirdparty/hedley/
>>> /usr/include/nlohmann/thirdparty/hedley/hedley_undef.hpp
>>> /usr/include/nlohmann/thirdparty/hedley/hedley.hpp
>>> /usr/include/nlohmann/adl_serializer.hpp
--- /usr/include/nlohmann/detail/
--- /usr/include/nlohmann/detail/iterators/
>>> /usr/include/nlohmann/detail/iterators/iteration_proxy.hpp
>>> /usr/include/nlohmann/detail/iterators/internal_iterator.hpp
>>> /usr/include/nlohmann/detail/iterators/iterator_traits.hpp
>>> /usr/include/nlohmann/detail/iterators/primitive_iterator.hpp
>>> /usr/include/nlohmann/detail/iterators/iter_impl.hpp
>>> /usr/include/nlohmann/detail/iterators/json_reverse_iterator.hpp
>>> /usr/include/nlohmann/detail/json_ref.hpp
--- /usr/include/nlohmann/detail/meta/
>>> /usr/include/nlohmann/detail/meta/is_sax.hpp
>>> /usr/include/nlohmann/detail/meta/type_traits.hpp
>>> /usr/include/nlohmann/detail/meta/detected.hpp
>>> /usr/include/nlohmann/detail/meta/void_t.hpp
>>> /usr/include/nlohmann/detail/meta/cpp_future.hpp
--- /usr/include/nlohmann/detail/output/
>>> /usr/include/nlohmann/detail/output/serializer.hpp
>>> /usr/include/nlohmann/detail/output/binary_writer.hpp
>>> /usr/include/nlohmann/detail/output/output_adapters.hpp
--- /usr/include/nlohmann/detail/conversions/
>>> /usr/include/nlohmann/detail/conversions/from_json.hpp
>>> /usr/include/nlohmann/detail/conversions/to_json.hpp
>>> /usr/include/nlohmann/detail/conversions/to_chars.hpp
>>> /usr/include/nlohmann/detail/macro_unscope.hpp
>>> /usr/include/nlohmann/detail/json_pointer.hpp
>>> /usr/include/nlohmann/detail/macro_scope.hpp
>>> /usr/include/nlohmann/detail/value_t.hpp
>>> /usr/include/nlohmann/detail/exceptions.hpp
--- /usr/include/nlohmann/detail/input/
>>> /usr/include/nlohmann/detail/input/parser.hpp
>>> /usr/include/nlohmann/detail/input/lexer.hpp
>>> /usr/include/nlohmann/detail/input/binary_reader.hpp
>>> /usr/include/nlohmann/detail/input/position_t.hpp
>>> /usr/include/nlohmann/detail/input/input_adapters.hpp
>>> /usr/include/nlohmann/detail/input/json_sax.hpp
>>> Safely unmerging already-installed instance...
>>> Original instance of package unmerged safely.
>>> dev-cpp/nlohmann_json-3.7.3 merged.
