[32;01m * [39;49;00mPackage:    dev-java/icedtea-bin-3.16.0
[32;01m * [39;49;00mRepository: gentoo
[32;01m * [39;49;00mMaintainer: gyakovlev@gentoo.org java@gentoo.org
[32;01m * [39;49;00mUSE:        abi_x86_64 alsa amd64 elibc_glibc kernel_linux source userland_GNU
[32;01m * [39;49;00mFEATURES:   ccache network-sandbox preserve-libs sandbox userpriv usersandbox
