 * Package:    dev-libs/libaio-0.3.112
 * Repository: gentoo
 * Maintainer: base-system@gentoo.org
 * USE:        abi_x86_64 amd64 elibc_glibc kernel_linux split-usr userland_GNU
 * FEATURES:   ccache network-sandbox preserve-libs sandbox userpriv usersandbox
 * /etc/portage/package.cflags/ltoworkarounds.conf -> dev-libs/libaio: *FLAGS-=-flto* # Issue #314, missing symbols in LTO build compared to non-LTO build, leads to problems with sys-fs/lvm2
 * FEATURES='news merge-sync xattr config-protect-if-modified binpkg-dostrip qa-unresolved-soname-deps binpkg-logs userfetch ccache multilib-strict nodoc usersandbox userpriv binpkg-docompress ipc-sandbox network-sandbox preserve-libs sandbox unmerge-orphans strict buildpkg sfperms pid-sandbox usersync compress-index strict-keepdir unknown-features-warn cgroup ebuild-locks distlocks parallel-fetch fixlafiles assume-digests unmerge-logs'
 * CFLAGS='-march=znver2 -O2 -pipe -g0 -falign-functions=32 -fno-stack-protector -fno-stack-clash-protection -fstack-check=no -fno-stack-check -Wl,-O1,--sort-common,--as-needed,-z,norelro,-z,now'
 * CXXFLAGS='-march=znver2 -O2 -pipe -g0 -falign-functions=32 -fno-stack-protector -fno-stack-clash-protection -fstack-check=no -fno-stack-check -Wl,-O1,--sort-common,--as-needed,-z,norelro,-z,now'
 * FFLAGS='-march=znver2 -O2 -pipe -g0 -falign-functions=32 -fno-stack-protector -fno-stack-clash-protection -fstack-check=no -fno-stack-check -Wl,-O1,--sort-common,--as-needed,-z,norelro,-z,now'
 * FCFLAGS='-march=znver2 -O2 -pipe -g0 -falign-functions=32 -fno-stack-protector -fno-stack-clash-protection -fstack-check=no -fno-stack-check -Wl,-O1,--sort-common,--as-needed,-z,norelro,-z,now'
 * F77FLAGS='-march=znver2 -O2 -pipe -g0 -falign-functions=32 -fno-stack-protector -fno-stack-clash-protection -fstack-check=no -fno-stack-check -Wl,-O1,--sort-common,--as-needed,-z,norelro,-z,now'
 * LDFLAGS='-Wl,-O1,--sort-common,--as-needed,-z,norelro,-z,now'
 * MAKEOPTS='-j12 -l12'
 * gcc (Gentoo 11.0.0_pre9999 p1, commit 184c21bf1cd04a108ed9bd04635e7d57ac39f616) 11.0.0 20200611 (experimental)
 * g++ (Gentoo 11.0.0_pre9999 p1, commit 184c21bf1cd04a108ed9bd04635e7d57ac39f616) 11.0.0 20200611 (experimental)
 * GNU ld (Gentoo 2.34 p4) 2.34.0
 * Linux rescue 5.4.36 #1 SMP Thu Apr 30 04:38:28 UTC 2020 x86_64 AMD Ryzen 5 3600 6-Core Processor AuthenticAMD GNU/Linux
dev-libs/libaio: 2 minutes, 36 seconds average for 29 merges
2020-05-16T20:45:28 >>> dev-libs/libaio: 8 seconds
2020-05-20T00:56:03 >>> dev-libs/libaio: 2 minutes, 44 seconds
2020-05-21T05:48:37 >>> dev-libs/libaio: 5 seconds
2020-05-22T01:54:02 >>> dev-libs/libaio: 6 minutes, 42 seconds
2020-05-22T02:40:36 >>> dev-libs/libaio: 2 minutes, 53 seconds
2020-05-22T03:05:19 >>> dev-libs/libaio: 7 minutes, 23 seconds
2020-05-22T12:24:51 >>> dev-libs/libaio: 7 minutes, 6 seconds
2020-05-23T03:26:43 >>> dev-libs/libaio: 6 minutes, 59 seconds
2020-05-24T22:35:07 >>> dev-libs/libaio: 15 seconds
2020-05-25T14:37:26 >>> dev-libs/libaio: 8 seconds
2020-05-25T18:15:40 >>> dev-libs/libaio: 15 seconds
2020-05-26T12:50:34 >>> dev-libs/libaio: 16 seconds
2020-05-26T13:46:43 >>> dev-libs/libaio: 9 seconds
2020-05-27T03:01:55 >>> dev-libs/libaio: 20 seconds
2020-05-28T02:48:58 >>> dev-libs/libaio: 7 seconds
2020-05-28T13:23:22 >>> dev-libs/libaio: 19 seconds
2020-05-28T14:12:00 >>> dev-libs/libaio: 11 seconds
2020-05-29T03:03:16 >>> dev-libs/libaio: 16 seconds
2020-05-29T03:16:04 >>> dev-libs/libaio: 7 seconds
2020-05-29T12:19:40 >>> dev-libs/libaio: 12 seconds
2020-05-30T12:28:47 >>> dev-libs/libaio: 14 seconds
2020-05-30T21:32:32 >>> dev-libs/libaio: 12 seconds
2020-06-01T01:43:06 >>> dev-libs/libaio: 6 minutes, 31 seconds
2020-06-04T11:46:29 >>> dev-libs/libaio: 18 minutes, 29 seconds
2020-06-06T10:38:26 >>> dev-libs/libaio: 1 minute, 30 seconds
2020-06-12T01:18:40 >>> dev-libs/libaio: 6 seconds
2020-06-13T03:01:39 >>> dev-libs/libaio: 2 minutes, 38 seconds
2020-06-13T03:15:30 >>> dev-libs/libaio: 2 minutes, 49 seconds
2020-06-13T19:54:05 >>> dev-libs/libaio: 6 minutes, 31 seconds
]0;emerge 04:30:08 17|887 libaio 03:59 (root@rescue)>>> Unpacking source...
>>> Unpacking libaio-0.3.112.tar.gz to /tmp/portage/dev-libs/libaio-0.3.112/work
>>> Source unpacked in /tmp/portage/dev-libs/libaio-0.3.112/work
>>> Preparing source in /tmp/portage/dev-libs/libaio-0.3.112/work/libaio-0.3.112 ...
 * Applying libaio-0.3.112-cppflags.patch ...
 [ ok ]
 * Applying libaio-0.3.111-optional-werror.patch ...
 [ ok ]
 * Will copy sources from /tmp/portage/dev-libs/libaio-0.3.112/work/libaio-0.3.112
 * abi_x86_64.amd64: copying to /tmp/portage/dev-libs/libaio-0.3.112/work/libaio-0.3.112-abi_x86_64.amd64
>>> Source prepared.
>>> Configuring source in /tmp/portage/dev-libs/libaio-0.3.112/work/libaio-0.3.112 ...
 * abi_x86_64.amd64: running multilib-minimal_abi_src_configure
>>> Source configured.
>>> Compiling source in /tmp/portage/dev-libs/libaio-0.3.112/work/libaio-0.3.112 ...
 * abi_x86_64.amd64: running multilib-minimal_abi_src_compile
make -j12 -l12 
make[1]: Entering directory '/tmp/portage/dev-libs/libaio-0.3.112/work/libaio-0.3.112-abi_x86_64.amd64/src'
x86_64-pc-linux-gnu-gcc -shared -march=znver2 -O2 -pipe -g0 -falign-functions=32 -fno-stack-protector -fno-stack-clash-protection -fstack-check=no -fno-stack-check -Wl,-O1,--sort-common,--as-needed,-z,norelro,-z,now -I. -fPIC  -c -o io_queue_init.os io_queue_init.c
x86_64-pc-linux-gnu-gcc -shared -march=znver2 -O2 -pipe -g0 -falign-functions=32 -fno-stack-protector -fno-stack-clash-protection -fstack-check=no -fno-stack-check -Wl,-O1,--sort-common,--as-needed,-z,norelro,-z,now -I. -fPIC  -c -o io_queue_release.os io_queue_release.c
x86_64-pc-linux-gnu-gcc -shared -march=znver2 -O2 -pipe -g0 -falign-functions=32 -fno-stack-protector -fno-stack-clash-protection -fstack-check=no -fno-stack-check -Wl,-O1,--sort-common,--as-needed,-z,norelro,-z,now -I. -fPIC  -c -o io_queue_wait.os io_queue_wait.c
x86_64-pc-linux-gnu-gcc -shared -march=znver2 -O2 -pipe -g0 -falign-functions=32 -fno-stack-protector -fno-stack-clash-protection -fstack-check=no -fno-stack-check -Wl,-O1,--sort-common,--as-needed,-z,norelro,-z,now -I. -fPIC  -c -o io_queue_run.os io_queue_run.c
x86_64-pc-linux-gnu-gcc -shared -march=znver2 -O2 -pipe -g0 -falign-functions=32 -fno-stack-protector -fno-stack-clash-protection -fstack-check=no -fno-stack-check -Wl,-O1,--sort-common,--as-needed,-z,norelro,-z,now -I. -fPIC  -c -o io_getevents.os io_getevents.c
x86_64-pc-linux-gnu-gcc -shared -march=znver2 -O2 -pipe -g0 -falign-functions=32 -fno-stack-protector -fno-stack-clash-protection -fstack-check=no -fno-stack-check -Wl,-O1,--sort-common,--as-needed,-z,norelro,-z,now -I. -fPIC  -c -o io_submit.os io_submit.c
x86_64-pc-linux-gnu-gcc -shared -march=znver2 -O2 -pipe -g0 -falign-functions=32 -fno-stack-protector -fno-stack-clash-protection -fstack-check=no -fno-stack-check -Wl,-O1,--sort-common,--as-needed,-z,norelro,-z,now -I. -fPIC  -c -o io_cancel.os io_cancel.c
x86_64-pc-linux-gnu-gcc -shared -march=znver2 -O2 -pipe -g0 -falign-functions=32 -fno-stack-protector -fno-stack-clash-protection -fstack-check=no -fno-stack-check -Wl,-O1,--sort-common,--as-needed,-z,norelro,-z,now -I. -fPIC  -c -o io_setup.os io_setup.c
x86_64-pc-linux-gnu-gcc -shared -march=znver2 -O2 -pipe -g0 -falign-functions=32 -fno-stack-protector -fno-stack-clash-protection -fstack-check=no -fno-stack-check -Wl,-O1,--sort-common,--as-needed,-z,norelro,-z,now -I. -fPIC  -c -o io_destroy.os io_destroy.c
x86_64-pc-linux-gnu-gcc -shared -march=znver2 -O2 -pipe -g0 -falign-functions=32 -fno-stack-protector -fno-stack-clash-protection -fstack-check=no -fno-stack-check -Wl,-O1,--sort-common,--as-needed,-z,norelro,-z,now -I. -fPIC  -c -o io_pgetevents.os io_pgetevents.c
x86_64-pc-linux-gnu-gcc -shared -march=znver2 -O2 -pipe -g0 -falign-functions=32 -fno-stack-protector -fno-stack-clash-protection -fstack-check=no -fno-stack-check -Wl,-O1,--sort-common,--as-needed,-z,norelro,-z,now -I. -fPIC  -c -o raw_syscall.os raw_syscall.c
x86_64-pc-linux-gnu-gcc -shared -march=znver2 -O2 -pipe -g0 -falign-functions=32 -fno-stack-protector -fno-stack-clash-protection -fstack-check=no -fno-stack-check -Wl,-O1,--sort-common,--as-needed,-z,norelro,-z,now -I. -fPIC  -c -o compat-0_1.os compat-0_1.c
x86_64-pc-linux-gnu-gcc -shared -march=znver2 -O2 -pipe -g0 -falign-functions=32 -fno-stack-protector -fno-stack-clash-protection -fstack-check=no -fno-stack-check -Wl,-O1,--sort-common,--as-needed,-z,norelro,-z,now -I. -fPIC  -Wl,--version-script=libaio.map -Wl,-soname=libaio.so.1 -o libaio.so.1.0.1 io_queue_init.os io_queue_release.os io_queue_wait.os io_queue_run.os io_getevents.os io_submit.os io_cancel.os io_setup.os io_destroy.os io_pgetevents.os raw_syscall.os compat-0_1.os -Wl,-O1,--sort-common,--as-needed,-z,norelro,-z,now
make[1]: Leaving directory '/tmp/portage/dev-libs/libaio-0.3.112/work/libaio-0.3.112-abi_x86_64.amd64/src'
>>> Source compiled.
 * Skipping make test/check due to ebuild restriction.
>>> Test phase [disabled because of RESTRICT=test]: dev-libs/libaio-0.3.112

>>> Install dev-libs/libaio-0.3.112 into /tmp/portage/dev-libs/libaio-0.3.112/image
 * abi_x86_64.amd64: running multilib-minimal_abi_src_install
make -j12 -l12 install DESTDIR=/tmp/portage/dev-libs/libaio-0.3.112/image 
make[1]: Entering directory '/tmp/portage/dev-libs/libaio-0.3.112/work/libaio-0.3.112-abi_x86_64.amd64/src'
install -D -m 644 libaio.h /tmp/portage/dev-libs/libaio-0.3.112/image/usr/include/libaio.h
install -D -m 755 libaio.so.1.0.1 /tmp/portage/dev-libs/libaio-0.3.112/image/usr/lib64/libaio.so.1.0.1
ln -sf libaio.so.1.0.1 /tmp/portage/dev-libs/libaio-0.3.112/image/usr/lib64/libaio.so.1
ln -sf libaio.so.1.0.1 /tmp/portage/dev-libs/libaio-0.3.112/image/usr/lib64/libaio.so
make[1]: Leaving directory '/tmp/portage/dev-libs/libaio-0.3.112/work/libaio-0.3.112-abi_x86_64.amd64/src'
>>> Completed installing dev-libs/libaio-0.3.112 into /tmp/portage/dev-libs/libaio-0.3.112/image

 * Final size of build directory: 1636 KiB (1.5 MiB)
 * Final size of installed tree:   140 KiB

Parallel BZIP2 v1.1.13 [Dec 18, 2015]
By: Jeff Gilchrist [http://compression.ca]
Major contributions: Yavor Nikolov [http://javornikolov.wordpress.com]
Uses libbzip2 by Julian Seward

         # CPUs: 7
   Load Average: 4.70
 BWT Block Size: 200 KB
File Block Size: 900 KB
 Maximum Memory: 1024 MB
-------------------------------------------
         File #: 1 of 1
     Input Name: compressme
    Output Name: compressme.bz2

     Input Size: 3895 bytes
Compressing data (no threads)...
Completed: 100%                 Output Size: 918 bytes
-------------------------------------------

     Wall Clock: 0.000749 seconds
Parallel BZIP2 v1.1.13 [Dec 18, 2015]
By: Jeff Gilchrist [http://compression.ca]
Major contributions: Yavor Nikolov [http://javornikolov.wordpress.com]
Uses libbzip2 by Julian Seward

         # CPUs: 7
   Load Average: 4.70
 BWT Block Size: 200 KB
File Block Size: 900 KB
 Maximum Memory: 1024 MB
-------------------------------------------
         File #: 1 of 1
     Input Name: /tmp/portage/dev-libs/libaio-0.3.112/image/usr/share/man/man3/io_queue_init.3
    Output Name: /tmp/portage/dev-libs/libaio-0.3.112/image/usr/share/man/man3/io_queue_init.3.bz2

     Input Size: 1300 bytes
Compressing data (no threads)...
Completed: 100%                 Output Size: 749 bytes
-------------------------------------------

     Wall Clock: 0.004204 seconds
Parallel BZIP2 v1.1.13 [Dec 18, 2015]
By: Jeff Gilchrist [http://compression.ca]
Major contributions: Yavor Nikolov [http://javornikolov.wordpress.com]
Uses libbzip2 by Julian Seward

         # CPUs: 7
   Load Average: 4.70
 BWT Block Size: 200 KB
File Block Size: 900 KB
 Maximum Memory: 1024 MB
-------------------------------------------
         File #: 1 of 1
     Input Name: /tmp/portage/dev-libs/libaio-0.3.112/image/usr/share/man/man3/io_queue_run.3
    Output Name: /tmp/portage/dev-libs/libaio-0.3.112/image/usr/share/man/man3/io_queue_run.3.bz2

     Input Size: 1020 bytes
Compressing data (no threads)...
Completed: 100%                 Output Size: 607 bytes
-------------------------------------------

     Wall Clock: 0.005025 seconds
Parallel BZIP2 v1.1.13 [Dec 18, 2015]
By: Jeff Gilchrist [http://compression.ca]
Major contributions: Yavor Nikolov [http://javornikolov.wordpress.com]
Uses libbzip2 by Julian Seward

         # CPUs: 7
   Load Average: 4.70
 BWT Block Size: 200 KB
File Block Size: 900 KB
 Maximum Memory: 1024 MB
-------------------------------------------
         File #: 1 of 1
     Input Name: /tmp/portage/dev-libs/libaio-0.3.112/image/usr/share/man/man3/io_fsync.3
    Output Name: /tmp/portage/dev-libs/libaio-0.3.112/image/usr/share/man/man3/io_fsync.3.bz2

     Input Size: 2385 bytes
Compressing data (no threads)...
Completed: 100%                 Output Size: 1194 bytes
-------------------------------------------
Parallel BZIP2 v1.1.13 [Dec 18, 2015]
By: Jeff Gilchrist [http://compression.ca]
Major contributions: Yavor Nikolov [http://javornikolov.wordpress.com]
Uses libbzip2 by Julian Seward

         # CPUs: 7
   Load Average: 4.70
 BWT Block Size: 200 KB
File Block Size: 900 KB
 Maximum Memory: 1024 MB
-------------------------------------------
         File #: 1 of 1
     Input Name: /tmp/portage/dev-libs/libaio-0.3.112/image/usr/share/man/man3/io_cancel.3
    Output Name: /tmp/portage/dev-libs/libaio-0.3.112/image/usr/share/man/man3/io_cancel.3.bz2

     Input Size: 1691 bytes
Compressing data (no threads)...
Completed: 100%                 Output Size: 946 bytes
-------------------------------------------

     Wall Clock: 0.002693 seconds

     Wall Clock: 0.002248 seconds
Parallel BZIP2 v1.1.13 [Dec 18, 2015]
By: Jeff Gilchrist [http://compression.ca]
Major contributions: Yavor Nikolov [http://javornikolov.wordpress.com]
Uses libbzip2 by Julian Seward

         # CPUs: 7
   Load Average: 4.70
 BWT Block Size: 200 KB
File Block Size: 900 KB
 Maximum Memory: 1024 MB
-------------------------------------------
         File #: 1 of 1
     Input Name: /tmp/portage/dev-libs/libaio-0.3.112/image/usr/share/man/man3/io_prep_pwrite.3
    Output Name: /tmp/portage/dev-libs/libaio-0.3.112/image/usr/share/man/man3/io_prep_pwrite.3.bz2

     Input Size: 1647 bytes
Compressing data (no threads)...
Completed: 100%                 Output Size: 870 bytes
-------------------------------------------

     Wall Clock: 0.005103 seconds
Parallel BZIP2 v1.1.13 [Dec 18, 2015]
By: Jeff Gilchrist [http://compression.ca]
Major contributions: Yavor Nikolov [http://javornikolov.wordpress.com]
Uses libbzip2 by Julian Seward

         # CPUs: 7
   Load Average: 4.70
 BWT Block Size: 200 KB
File Block Size: 900 KB
 Maximum Memory: 1024 MB
-------------------------------------------
         File #: 1 of 1
     Input Name: /tmp/portage/dev-libs/libaio-0.3.112/image/usr/share/man/man3/io_queue_release.3
    Output Name: /tmp/portage/dev-libs/libaio-0.3.112/image/usr/share/man/man3/io_queue_release.3.bz2

     Input Size: 1039 bytes
Compressing data (no threads)...
Completed: 100%                 Output Size: 592 bytes
Parallel BZIP2 v1.1.13 [Dec 18, 2015]
By: Jeff Gilchrist [http://compression.ca]
Major contributions: Yavor Nikolov [http://javornikolov.wordpress.com]
Uses libbzip2 by Julian Seward
-------------------------------------------

         # CPUs: 7
   Load Average: 4.70
 BWT Block Size: 200 KB
File Block Size: 900 KB
 Maximum Memory: 1024 MB
-------------------------------------------
         File #: 1 of 1
     Input Name: /tmp/portage/dev-libs/libaio-0.3.112/image/usr/share/man/man3/io_queue_wait.3
    Output Name: /tmp/portage/dev-libs/libaio-0.3.112/image/usr/share/man/man3/io_queue_wait.3.bz2

     Input Size: 1391 bytes
Compressing data (no threads)...
Completed: 100%                 Output Size: 777 bytes
-------------------------------------------
Parallel BZIP2 v1.1.13 [Dec 18, 2015]
By: Jeff Gilchrist [http://compression.ca]
Major contributions: Yavor Nikolov [http://javornikolov.wordpress.com]
Uses libbzip2 by Julian Seward

         # CPUs: 7
   Load Average: 4.70
 BWT Block Size: 200 KB
File Block Size: 900 KB
 Maximum Memory: 1024 MB
-------------------------------------------
         File #: 1 of 1
     Input Name: /tmp/portage/dev-libs/libaio-0.3.112/image/usr/share/man/man3/io_getevents.3
    Output Name: /tmp/portage/dev-libs/libaio-0.3.112/image/usr/share/man/man3/io_getevents.3.bz2

     Input Size: 3746 bytes
Compressing data (no threads)...
Completed: 100%                 Output Size: 1510 bytes
-------------------------------------------

     Wall Clock: 0.005058 seconds

     Wall Clock: 0.006464 seconds

     Wall Clock: 0.002207 seconds
Parallel BZIP2 v1.1.13 [Dec 18, 2015]
By: Jeff Gilchrist [http://compression.ca]
Major contributions: Yavor Nikolov [http://javornikolov.wordpress.com]
Uses libbzip2 by Julian Seward

         # CPUs: 7
   Load Average: 4.70
 BWT Block Size: 200 KB
File Block Size: 900 KB
 Maximum Memory: 1024 MB
-------------------------------------------
         File #: 1 of 1
     Input Name: /tmp/portage/dev-libs/libaio-0.3.112/image/usr/share/man/man3/io_prep_fsync.3
    Output Name: /tmp/portage/dev-libs/libaio-0.3.112/image/usr/share/man/man3/io_prep_fsync.3.bz2

     Input Size: 2473 bytes
Compressing data (no threads)...
Completed: 100%                 Output Size: 1170 bytes
-------------------------------------------

     Wall Clock: 0.002167 seconds
Parallel BZIP2 v1.1.13 [Dec 18, 2015]
By: Jeff Gilchrist [http://compression.ca]
Major contributions: Yavor Nikolov [http://javornikolov.wordpress.com]
Uses libbzip2 by Julian Seward

         # CPUs: 7
   Load Average: 4.70
 BWT Block Size: 200 KB
File Block Size: 900 KB
 Maximum Memory: 1024 MB
-------------------------------------------
         File #: 1 of 1
     Input Name: /tmp/portage/dev-libs/libaio-0.3.112/image/usr/share/man/man3/io_prep_pread.3
    Output Name: /tmp/portage/dev-libs/libaio-0.3.112/image/usr/share/man/man3/io_prep_pread.3.bz2

     Input Size: 1701 bytes
Compressing data (no threads)...
Parallel BZIP2 v1.1.13 [Dec 18, 2015]
By: Jeff Gilchrist [http://compression.ca]
Major contributions: Yavor Nikolov [http://javornikolov.wordpress.com]
Uses libbzip2 by Julian Seward

         # CPUs: 7
   Load Average: 4.70
 BWT Block Size: 200 KB
File Block Size: 900 KB
 Maximum Memory: 1024 MB
-------------------------------------------
         File #: 1 of 1
     Input Name: /tmp/portage/dev-libs/libaio-0.3.112/image/usr/share/man/man3/io_submit.3
    Output Name: /tmp/portage/dev-libs/libaio-0.3.112/image/usr/share/man/man3/io_submit.3.bz2

     Input Size: 3667 bytes
Compressing data (no threads)...
Completed: 100%                 Output Size: 876 bytes
-------------------------------------------
Completed: 100%                 Output Size: 1678 bytes
-------------------------------------------

     Wall Clock: 0.002002 seconds

     Wall Clock: 0.002046 seconds
Parallel BZIP2 v1.1.13 [Dec 18, 2015]
By: Jeff Gilchrist [http://compression.ca]
Major contributions: Yavor Nikolov [http://javornikolov.wordpress.com]
Uses libbzip2 by Julian Seward

         # CPUs: 7
   Load Average: 4.70
 BWT Block Size: 200 KB
File Block Size: 900 KB
 Maximum Memory: 1024 MB
-------------------------------------------
         File #: 1 of 1
     Input Name: /tmp/portage/dev-libs/libaio-0.3.112/image/usr/share/man/man3/io.3
    Output Name: /tmp/portage/dev-libs/libaio-0.3.112/image/usr/share/man/man3/io.3.bz2

     Input Size: 8881 bytes
Compressing data (no threads)...
Parallel BZIP2 v1.1.13 [Dec 18, 2015]
By: Jeff Gilchrist [http://compression.ca]
Major contributions: Yavor Nikolov [http://javornikolov.wordpress.com]
Uses libbzip2 by Julian Seward

         # CPUs: 7
   Load Average: 4.70
 BWT Block Size: 200 KB
File Block Size: 900 KB
 Maximum Memory: 1024 MB
-------------------------------------------
         File #: 1 of 1
     Input Name: /tmp/portage/dev-libs/libaio-0.3.112/image/usr/share/man/man3/io_set_callback.3
    Output Name: /tmp/portage/dev-libs/libaio-0.3.112/image/usr/share/man/man3/io_set_callback.3.bz2

     Input Size: 991 bytes
Compressing data (no threads)...
Completed: 100%                 Output Size: 577 bytes
-------------------------------------------
Completed: 100%                 Output Size: 3456 bytes
Parallel BZIP2 v1.1.13 [Dec 18, 2015]
By: Jeff Gilchrist [http://compression.ca]
Major contributions: Yavor Nikolov [http://javornikolov.wordpress.com]
-------------------------------------------
Uses libbzip2 by Julian Seward

         # CPUs: 7

     Wall Clock: 0.001040 seconds
   Load Average: 4.70

     Wall Clock: 0.001822 seconds
 BWT Block Size: 200 KB
File Block Size: 900 KB
 Maximum Memory: 1024 MB
-------------------------------------------
         File #: 1 of 1
     Input Name: /tmp/portage/dev-libs/libaio-0.3.112/image/usr/share/doc/libaio-0.3.112/ChangeLog
    Output Name: /tmp/portage/dev-libs/libaio-0.3.112/image/usr/share/doc/libaio-0.3.112/ChangeLog.bz2

     Input Size: 1732 bytes
Compressing data (no threads)...
Completed: 100%                 Output Size: 964 bytes
-------------------------------------------

     Wall Clock: 0.000747 seconds
strip: x86_64-pc-linux-gnu-strip --strip-unneeded -N __gentoo_check_ldflags__ -R .comment -R .GCC.command.line -R .note.gnu.gold-version
   /lib64/libaio.so.1.0.1
./
./usr/
./usr/include/
./usr/include/libaio.h
./usr/share/
./usr/share/man/
./usr/share/man/man3/
./usr/share/man/man3/io_set_callback.3
./usr/share/man/man3/io_getevents.3
./usr/share/man/man3/io_queue_init.3
./usr/share/man/man3/io_queue_release.3.bz2
./usr/share/man/man3/io_prep_fsync.3
./usr/share/man/man3/io_queue_run.3
./usr/share/man/man3/io_queue_release.3
./usr/share/man/man3/io_queue_wait.3.bz2
./usr/share/man/man3/io_cancel.3.bz2
./usr/share/man/man3/io_prep_pwrite.3
./usr/share/man/man3/io_prep_pread.3.bz2
./usr/share/man/man3/io_queue_run.3.bz2
./usr/share/man/man3/io_prep_pwrite.3.bz2
./usr/share/man/man3/io_queue_wait.3
./usr/share/man/man3/io_queue_init.3.bz2
./usr/share/man/man3/io.3
./usr/share/man/man3/io.3.bz2
./usr/share/man/man3/io_cancel.3
./usr/share/man/man3/io_submit.3
./usr/share/man/man3/io_set_callback.3.bz2
./usr/share/man/man3/io_prep_fsync.3.bz2
./usr/share/man/man3/io_fsync.3
./usr/share/man/man3/io_submit.3.bz2
./usr/share/man/man3/io_fsync.3.bz2
./usr/share/man/man3/io_prep_pread.3
./usr/share/man/man3/io_getevents.3.bz2
./usr/share/doc/
./usr/share/doc/libaio-0.3.112/
./usr/share/doc/libaio-0.3.112/ChangeLog
./usr/share/doc/libaio-0.3.112/ChangeLog.bz2
./usr/share/doc/libaio-0.3.112/TODO
./usr/lib64/
./usr/lib64/libaio.so
./lib64/
./lib64/libaio.so.1
./lib64/libaio.so.1.0.1
>>> Done.
 * checking 30 files for package collisions
>>> Merging dev-libs/libaio-0.3.112 to /
 * removing unneeded *.la files
--- /lib64/
>>> /lib64/libaio.so.1.0.1
>>> /lib64/libaio.so.1 -> libaio.so.1.0.1
--- /usr/
--- /usr/lib64/
>>> /usr/lib64/libaio.so
--- /usr/share/
--- /usr/share/man/
--- /usr/share/man/man3/
>>> /usr/share/man/man3/io_getevents.3.bz2
>>> /usr/share/man/man3/io_prep_pread.3
>>> /usr/share/man/man3/io_fsync.3.bz2
>>> /usr/share/man/man3/io_submit.3.bz2
>>> /usr/share/man/man3/io_fsync.3
>>> /usr/share/man/man3/io_prep_fsync.3.bz2
>>> /usr/share/man/man3/io_set_callback.3.bz2
>>> /usr/share/man/man3/io_submit.3
>>> /usr/share/man/man3/io_cancel.3
>>> /usr/share/man/man3/io.3.bz2
>>> /usr/share/man/man3/io.3
>>> /usr/share/man/man3/io_queue_init.3.bz2
>>> /usr/share/man/man3/io_queue_wait.3
>>> /usr/share/man/man3/io_prep_pwrite.3.bz2
>>> /usr/share/man/man3/io_queue_run.3.bz2
>>> /usr/share/man/man3/io_prep_pread.3.bz2
>>> /usr/share/man/man3/io_prep_pwrite.3
>>> /usr/share/man/man3/io_cancel.3.bz2
>>> /usr/share/man/man3/io_queue_wait.3.bz2
>>> /usr/share/man/man3/io_queue_release.3
>>> /usr/share/man/man3/io_queue_run.3
>>> /usr/share/man/man3/io_prep_fsync.3
>>> /usr/share/man/man3/io_queue_release.3.bz2
>>> /usr/share/man/man3/io_queue_init.3
>>> /usr/share/man/man3/io_getevents.3
>>> /usr/share/man/man3/io_set_callback.3
--- /usr/include/
>>> /usr/include/libaio.h
>>> Safely unmerging already-installed instance...
!!! File Not Found: '/etc/env.d/99lcdfilter'
>>> Original instance of package unmerged safely.
>>> dev-libs/libaio-0.3.112 merged.
!!! File Not Found: '/etc/env.d/99lcdfilter'
>>> Regenerating /etc/ld.so.cache...
