>>> Extracting info
 * Package:    dev-libs/libunistring-0.9.10
 * Repository: gentoo
 * USE:        abi_x86_64 elibc_glibc kernel_linux userland_GNU amd64
 * FEATURES:   network-sandbox preserve-libs sandbox userpriv usersandbox
 * FEATURES='assume-digests binpkg-docompress binpkg-dostrip binpkg-logs binpkg-multi-instance buildpkg compress-index config-protect-if-modified distlocks downgrade-backup fixlafiles ipc-sandbox merge-sync multilib-strict network-sandbox news nodoc parallel-fetch parallel-install pid-sandbox preserve-libs qa-unresolved-soname-deps sandbox sfperms strict unknown-features-warn unmerge-backup unmerge-logs unmerge-orphans userfetch userpriv usersandbox usersync xattr'
 * CFLAGS='-march=native -O3 -fgraphite-identity -floop-nest-optimize -fdevirtualize-at-ltrans -fipa-pta -fno-semantic-interposition -flto=12 -fno-plt -fno-math-errno -fno-trapping-math -fuse-linker-plugin -pipe -g0 -falign-functions=32 -Wl,-O1 -Wl,--as-needed -Wl,--hash-style=gnu,-z,norelro,--as-needed'
 * CXXFLAGS='-march=native -O3 -fgraphite-identity -floop-nest-optimize -fdevirtualize-at-ltrans -fipa-pta -fno-semantic-interposition -flto=12 -fno-plt -fno-math-errno -fno-trapping-math -fuse-linker-plugin -pipe -g0 -falign-functions=32 -Wl,-O1 -Wl,--as-needed -Wl,--hash-style=gnu,-z,norelro,--as-needed'
 * FFLAGS='-march=native -O3 -fgraphite-identity -floop-nest-optimize -fdevirtualize-at-ltrans -fipa-pta -fno-semantic-interposition -flto=12 -fno-plt -fno-math-errno -fno-trapping-math -fuse-linker-plugin -pipe -g0 -falign-functions=32 -Wl,-O1 -Wl,--as-needed -Wl,--hash-style=gnu,-z,norelro,--as-needed'
 * FCFLAGS='-march=native -O3 -fgraphite-identity -floop-nest-optimize -fdevirtualize-at-ltrans -fipa-pta -fno-semantic-interposition -flto=12 -fno-plt -fno-math-errno -fno-trapping-math -fuse-linker-plugin -pipe -g0 -falign-functions=32 -Wl,-O1 -Wl,--as-needed -Wl,--hash-style=gnu,-z,norelro,--as-needed'
 * F77FLAGS='-march=native -O3 -fgraphite-identity -floop-nest-optimize -fdevirtualize-at-ltrans -fipa-pta -fno-semantic-interposition -flto=12 -fno-plt -fno-math-errno -fno-trapping-math -fuse-linker-plugin -pipe -g0 -falign-functions=32 -Wl,-O1 -Wl,--as-needed -Wl,--hash-style=gnu,-z,norelro,--as-needed'
 * LDFLAGS='-Wl,-O1 -Wl,--as-needed -Wl,--hash-style=gnu,-z,norelro,--as-needed -march=native -O3 -fgraphite-identity -floop-nest-optimize -fdevirtualize-at-ltrans -fipa-pta -fno-semantic-interposition -flto=12 -fno-plt -fno-math-errno -fno-trapping-math -fuse-linker-plugin -pipe -g0 -falign-functions=32'
 * MAKEOPTS='-j12 -l12'
 * gcc () 11.0.0 20200526 (experimental)
 * g++ () 11.0.0 20200526 (experimental)
 * GNU ld (Gentoo 2.34 p4) 2.34.0
 * Linux ryzen.gnum.org 5.4.36 #1 SMP Thu Apr 30 04:38:28 UTC 2020 x86_64 AMD Ryzen 5 3600 6-Core Processor AuthenticAMD GNU/Linux
dev-libs/libunistring: 2 minutes, 8 seconds average for 18 merges
2020-05-20T01:03:21 >>> dev-libs/libunistring: 30 seconds
2020-05-21T06:01:56 >>> dev-libs/libunistring: 5 seconds
2020-05-22T02:04:37 >>> dev-libs/libunistring: 3 minutes, 30 seconds
2020-05-22T03:16:27 >>> dev-libs/libunistring: 2 minutes, 50 seconds
2020-05-22T12:35:46 >>> dev-libs/libunistring: 2 minutes, 43 seconds
2020-05-23T03:37:29 >>> dev-libs/libunistring: 2 minutes, 42 seconds
2020-05-24T22:43:47 >>> dev-libs/libunistring: 4 minutes, 31 seconds
2020-05-24T23:33:09 >>> dev-libs/libunistring: 5 minutes, 33 seconds
2020-05-25T03:07:37 >>> dev-libs/libunistring: 26 seconds
2020-05-25T14:41:45 >>> dev-libs/libunistring: 1 minute, 10 seconds
2020-05-25T18:26:12 >>> dev-libs/libunistring: 2 minutes, 47 seconds
2020-05-25T19:59:00 >>> dev-libs/libunistring: 2 minutes, 19 seconds
2020-05-26T12:57:15 >>> dev-libs/libunistring: 2 minutes, 42 seconds
2020-05-26T13:54:18 >>> dev-libs/libunistring: 28 seconds
2020-05-27T01:33:55 >>> dev-libs/libunistring: 37 seconds
2020-05-27T03:13:49 >>> dev-libs/libunistring: 2 minutes, 26 seconds
2020-05-28T13:34:01 >>> dev-libs/libunistring: 2 minutes, 33 seconds
2020-05-28T14:19:40 >>> dev-libs/libunistring: 39 seconds
]0;emerge 01:41:51 102|557 libunistring 01:53 (root@ryzen.gnum.org)>>> Extracting dev-libs/libunistring-0.9.10
 * checking 23 files for package collisions
[32;01m * [39;49;00mBuilding package for dev-libs/libunistring-0.9.10 ...                 [34;01m[ [39;49;00m[32;01mok[39;49;00m[34;01m ][39;49;00m
[32;01m * [39;49;00mPackages now in '/usr/portage/packages':
[32;01m * [39;49;00mdev-libs/libunistring-0.9.10: 757K

>>> Merging dev-libs/libunistring-0.9.10 to /
 * removing unneeded *.la files
--- /usr/
--- /usr/lib64/
>>> /usr/lib64/libunistring.so -> libunistring.so.2.1.0
>>> /usr/lib64/libunistring.so.2 -> libunistring.so.2.1.0
>>> /usr/lib64/libunistring.so.2.1.0
--- /usr/include/
>>> /usr/include/unistr.h
>>> /usr/include/unicase.h
>>> /usr/include/unilbrk.h
>>> /usr/include/uniname.h
--- /usr/include/unistring/
>>> /usr/include/unistring/version.h
>>> /usr/include/unistring/stdint.h
>>> /usr/include/unistring/stdbool.h
>>> /usr/include/unistring/woe32dll.h
>>> /usr/include/unistring/inline.h
>>> /usr/include/unistring/iconveh.h
>>> /usr/include/unistring/localcharset.h
>>> /usr/include/unistring/cdefs.h
>>> /usr/include/uniwbrk.h
>>> /usr/include/uninorm.h
>>> /usr/include/unistdio.h
>>> /usr/include/uniwidth.h
>>> /usr/include/unitypes.h
>>> /usr/include/unictype.h
>>> /usr/include/uniconv.h
>>> /usr/include/unigbrk.h
>>> Safely unmerging already-installed instance...
>>> Original instance of package unmerged safely.
>>> dev-libs/libunistring-0.9.10 merged.
>>> Regenerating /etc/ld.so.cache...
