No package files given... Grabbing a set.
<<<          obj /usr/share/doc/libverto-0.3.1/README.bz2
<<<          obj /usr/share/doc/libverto-0.3.1/NEWS
<<<          obj /usr/share/doc/libverto-0.3.1/INSTALL.bz2
<<<          obj /usr/share/doc/libverto-0.3.1/ChangeLog.bz2
<<<          obj /usr/share/doc/libverto-0.3.1/AUTHORS
<<<          obj /usr/lib64/pkgconfig/libverto.pc
<<<          obj /usr/lib64/pkgconfig/libverto-libev.pc
<<<          obj /usr/lib64/libverto.so.1.0.0
<<<          sym /usr/lib64/libverto.so.1
<<<          sym /usr/lib64/libverto.so
<<<          obj /usr/lib64/libverto-libev.so.1.0.0
<<<          sym /usr/lib64/libverto-libev.so.1
<<<          sym /usr/lib64/libverto-libev.so
<<<          obj /usr/include/verto.h
<<<          obj /usr/include/verto-module.h
<<<          obj /usr/include/verto-libev.h
<<<          dir /usr/share/doc/libverto-0.3.1
--- !empty   dir /usr/share/doc
--- !empty   dir /usr/share
--- !empty   dir /usr/lib64/pkgconfig
--- !empty   dir /usr/lib64
--- !empty   dir /usr/include
--- !empty   dir /usr
>>> Regenerating /etc/ld.so.cache...
