No package files given... Grabbing a set.
<<<          obj /usr/lib64/ruby/gems/2.6.0/specifications/http-cookie-1.0.3.gemspec
<<<          obj /usr/lib64/ruby/gems/2.6.0/gems/http-cookie-1.0.3/lib/http/cookie_jar/yaml_saver.rb
<<<          obj /usr/lib64/ruby/gems/2.6.0/gems/http-cookie-1.0.3/lib/http/cookie_jar/mozilla_store.rb
<<<          obj /usr/lib64/ruby/gems/2.6.0/gems/http-cookie-1.0.3/lib/http/cookie_jar/hash_store.rb
<<<          obj /usr/lib64/ruby/gems/2.6.0/gems/http-cookie-1.0.3/lib/http/cookie_jar/cookiestxt_saver.rb
<<<          obj /usr/lib64/ruby/gems/2.6.0/gems/http-cookie-1.0.3/lib/http/cookie_jar/abstract_store.rb
<<<          obj /usr/lib64/ruby/gems/2.6.0/gems/http-cookie-1.0.3/lib/http/cookie_jar/abstract_saver.rb
<<<          obj /usr/lib64/ruby/gems/2.6.0/gems/http-cookie-1.0.3/lib/http/cookie_jar.rb
<<<          obj /usr/lib64/ruby/gems/2.6.0/gems/http-cookie-1.0.3/lib/http/cookie/version.rb
<<<          obj /usr/lib64/ruby/gems/2.6.0/gems/http-cookie-1.0.3/lib/http/cookie/scanner.rb
<<<          obj /usr/lib64/ruby/gems/2.6.0/gems/http-cookie-1.0.3/lib/http/cookie/ruby_compat.rb
<<<          obj /usr/lib64/ruby/gems/2.6.0/gems/http-cookie-1.0.3/lib/http/cookie.rb
<<<          obj /usr/lib64/ruby/gems/2.6.0/gems/http-cookie-1.0.3/lib/http-cookie.rb
<<<          obj /usr/lib64/ruby/gems/2.5.0/specifications/http-cookie-1.0.3.gemspec
<<<          obj /usr/lib64/ruby/gems/2.5.0/gems/http-cookie-1.0.3/lib/http/cookie_jar/yaml_saver.rb
<<<          obj /usr/lib64/ruby/gems/2.5.0/gems/http-cookie-1.0.3/lib/http/cookie_jar/mozilla_store.rb
<<<          obj /usr/lib64/ruby/gems/2.5.0/gems/http-cookie-1.0.3/lib/http/cookie_jar/hash_store.rb
<<<          obj /usr/lib64/ruby/gems/2.5.0/gems/http-cookie-1.0.3/lib/http/cookie_jar/cookiestxt_saver.rb
<<<          obj /usr/lib64/ruby/gems/2.5.0/gems/http-cookie-1.0.3/lib/http/cookie_jar/abstract_store.rb
<<<          obj /usr/lib64/ruby/gems/2.5.0/gems/http-cookie-1.0.3/lib/http/cookie_jar/abstract_saver.rb
<<<          obj /usr/lib64/ruby/gems/2.5.0/gems/http-cookie-1.0.3/lib/http/cookie_jar.rb
<<<          obj /usr/lib64/ruby/gems/2.5.0/gems/http-cookie-1.0.3/lib/http/cookie/version.rb
<<<          obj /usr/lib64/ruby/gems/2.5.0/gems/http-cookie-1.0.3/lib/http/cookie/scanner.rb
<<<          obj /usr/lib64/ruby/gems/2.5.0/gems/http-cookie-1.0.3/lib/http/cookie/ruby_compat.rb
<<<          obj /usr/lib64/ruby/gems/2.5.0/gems/http-cookie-1.0.3/lib/http/cookie.rb
<<<          obj /usr/lib64/ruby/gems/2.5.0/gems/http-cookie-1.0.3/lib/http-cookie.rb
--- !empty   dir /usr/lib64/ruby/gems/2.6.0/specifications
<<<          dir /usr/lib64/ruby/gems/2.6.0/gems/http-cookie-1.0.3/lib/http/cookie_jar
<<<          dir /usr/lib64/ruby/gems/2.6.0/gems/http-cookie-1.0.3/lib/http/cookie
<<<          dir /usr/lib64/ruby/gems/2.6.0/gems/http-cookie-1.0.3/lib/http
<<<          dir /usr/lib64/ruby/gems/2.6.0/gems/http-cookie-1.0.3/lib
<<<          dir /usr/lib64/ruby/gems/2.6.0/gems/http-cookie-1.0.3
--- !empty   dir /usr/lib64/ruby/gems/2.6.0/gems
--- !empty   dir /usr/lib64/ruby/gems/2.6.0
--- !empty   dir /usr/lib64/ruby/gems/2.5.0/specifications
<<<          dir /usr/lib64/ruby/gems/2.5.0/gems/http-cookie-1.0.3/lib/http/cookie_jar
<<<          dir /usr/lib64/ruby/gems/2.5.0/gems/http-cookie-1.0.3/lib/http/cookie
<<<          dir /usr/lib64/ruby/gems/2.5.0/gems/http-cookie-1.0.3/lib/http
<<<          dir /usr/lib64/ruby/gems/2.5.0/gems/http-cookie-1.0.3/lib
<<<          dir /usr/lib64/ruby/gems/2.5.0/gems/http-cookie-1.0.3
--- !empty   dir /usr/lib64/ruby/gems/2.5.0/gems
--- !empty   dir /usr/lib64/ruby/gems/2.5.0
--- !empty   dir /usr/lib64/ruby/gems
--- !empty   dir /usr/lib64/ruby
--- !empty   dir /usr/lib64
--- !empty   dir /usr
