No package files given... Grabbing a set.
--- replaced obj /usr/share/man/man3/io_submit.3.bz2
--- replaced obj /usr/share/man/man3/io_set_callback.3.bz2
--- replaced obj /usr/share/man/man3/io_queue_wait.3.bz2
--- replaced obj /usr/share/man/man3/io_queue_run.3.bz2
--- replaced obj /usr/share/man/man3/io_queue_release.3.bz2
--- replaced obj /usr/share/man/man3/io_queue_init.3.bz2
--- replaced obj /usr/share/man/man3/io_prep_pwrite.3.bz2
--- replaced obj /usr/share/man/man3/io_prep_pread.3.bz2
--- replaced obj /usr/share/man/man3/io_prep_fsync.3.bz2
--- replaced obj /usr/share/man/man3/io_getevents.3.bz2
--- replaced obj /usr/share/man/man3/io_fsync.3.bz2
--- replaced obj /usr/share/man/man3/io_cancel.3.bz2
--- replaced obj /usr/share/man/man3/io.3.bz2
--- replaced dir /usr/share/man/man3
--- replaced dir /usr/share/man
--- replaced dir /usr/share
--- replaced obj /usr/lib64/libaio.so
--- replaced dir /usr/lib64
--- replaced obj /usr/include/libaio.h
--- replaced dir /usr/include
--- replaced dir /usr
--- replaced obj /lib64/libaio.so.1.0.1
--- replaced sym /lib64/libaio.so.1
--- replaced dir /lib64
>>> Regenerating /etc/ld.so.cache...
