 * Package:    dev-libs/mpc-1.1.0-r1
 * Repository: gentoo
 * Maintainer: toolchain@gentoo.org
 * USE:        abi_x86_64 amd64 elibc_glibc kernel_linux userland_GNU
 * FEATURES:   ccache network-sandbox preserve-libs userpriv
 * /etc/portage/package.cflags/ltoworkarounds.conf -> */*: *FLAGS+=-Wl,-O4 *FLAGS-=-Wl,-O1
 * FEATURES='assume-digests binpkg-docompress binpkg-dostrip binpkg-logs buildpkg ccache cgroup compress-index config-protect-if-modified distlocks ebuild-locks fixlafiles merge-sync multilib-strict network-sandbox news nodoc parallel-fetch preserve-libs qa-unresolved-soname-deps sfperms strict strict-keepdir unknown-features-warn unmerge-logs unmerge-orphans userfetch userpriv usersync xattr'
 * CFLAGS='-O2 -pipe -Wl,-O4 -Wl,-O4,--sort-common,--as-needed,-z,norelro,-z,now'
 * CXXFLAGS='-O2 -pipe -Wl,-O4 -Wl,-O4,--sort-common,--as-needed,-z,norelro,-z,now'
 * FFLAGS='-O2 -pipe -Wl,-O4 -Wl,-O4,--sort-common,--as-needed,-z,norelro,-z,now'
 * FCFLAGS='-O2 -pipe -Wl,-O4 -Wl,-O4,--sort-common,--as-needed,-z,norelro,-z,now'
 * F77FLAGS='-O2 -pipe -Wl,-O4 -Wl,-O4,--sort-common,--as-needed,-z,norelro,-z,now'
 * LDFLAGS='-Wl,-O4,--sort-common,--as-needed,-z,norelro,-z,now'
 * MAKEOPTS='-j12 -l12'
 * gcc (Gentoo 11.0.0_pre9999 p1, commit 184c21bf1cd04a108ed9bd04635e7d57ac39f616) 11.0.0 20200611 (experimental)
 * g++ (Gentoo 11.0.0_pre9999 p1, commit 184c21bf1cd04a108ed9bd04635e7d57ac39f616) 11.0.0 20200611 (experimental)
 * GNU ld (Gentoo 2.34 p4) 2.34.0
 * Linux rescue 5.4.36 #1 SMP Thu Apr 30 04:38:28 UTC 2020 x86_64 AMD Ryzen 5 3600 6-Core Processor AuthenticAMD GNU/Linux
dev-libs/mpc: 1 minute, 11 seconds average for 20 merges
2020-05-16T19:04:17 >>> dev-libs/mpc: 15 seconds
2020-05-20T01:04:28 >>> dev-libs/mpc: 22 seconds
2020-05-21T06:04:37 >>> dev-libs/mpc: 5 seconds
2020-05-23T03:42:43 >>> dev-libs/mpc: 1 minute, 41 seconds
2020-05-24T22:50:43 >>> dev-libs/mpc: 38 seconds
2020-05-24T23:33:05 >>> dev-libs/mpc: 5 minutes, 21 seconds
2020-05-25T03:08:37 >>> dev-libs/mpc: 34 seconds
2020-05-25T14:43:21 >>> dev-libs/mpc: 25 seconds
2020-05-25T18:32:06 >>> dev-libs/mpc: 23 seconds
2020-05-25T20:03:47 >>> dev-libs/mpc: 23 seconds
2020-05-26T13:55:19 >>> dev-libs/mpc: 14 seconds
2020-05-27T01:35:10 >>> dev-libs/mpc: 11 seconds
2020-05-27T03:18:19 >>> dev-libs/mpc: 23 seconds
2020-05-28T14:20:56 >>> dev-libs/mpc: 11 seconds
2020-05-29T01:43:20 >>> dev-libs/mpc: 15 seconds
2020-05-30T12:45:21 >>> dev-libs/mpc: 1 minute, 22 seconds
2020-05-30T21:40:44 >>> dev-libs/mpc: 14 seconds
2020-06-01T02:00:28 >>> dev-libs/mpc: 23 seconds
2020-06-04T12:22:18 >>> dev-libs/mpc: 10 minutes, 13 seconds
2020-06-12T01:27:55 >>> dev-libs/mpc: 19 seconds
]0;emerge 03:30:51 162|907 mpc 03:38 (root@rescue)kemerge 03:30:51 162|907 mpc 03:38 (root@rescue)\>>> Unpacking source...
>>> Unpacking mpc-1.1.0.tar.gz to /tmp/portage/dev-libs/mpc-1.1.0-r1/work
>>> Source unpacked in /tmp/portage/dev-libs/mpc-1.1.0-r1/work
>>> Preparing source in /tmp/portage/dev-libs/mpc-1.1.0-r1/work/mpc-1.1.0 ...
>>> Source prepared.
>>> Configuring source in /tmp/portage/dev-libs/mpc-1.1.0-r1/work/mpc-1.1.0 ...
 * abi_x86_64.amd64: running multilib-minimal_abi_src_configure
 * econf: updating mpc-1.1.0/config.guess with /usr/share/gnuconfig/config.guess
 * econf: updating mpc-1.1.0/config.sub with /usr/share/gnuconfig/config.sub
/tmp/portage/dev-libs/mpc-1.1.0-r1/work/mpc-1.1.0/configure --prefix=/usr --build=x86_64-pc-linux-gnu --host=x86_64-pc-linux-gnu --mandir=/usr/share/man --infodir=/usr/share/info --datadir=/usr/share --sysconfdir=/etc --localstatedir=/var/lib --disable-dependency-tracking --disable-silent-rules --docdir=/usr/share/doc/mpc-1.1.0-r1 --htmldir=/usr/share/doc/mpc-1.1.0-r1/html --libdir=/usr/lib64 --disable-static
checking for a BSD-compatible install... /tmp/portage/._portage_reinstall_.pd9z28yw/bin/ebuild-helpers/xattr/install -c
checking whether build environment is sane... yes
checking for a thread-safe mkdir -p... /bin/mkdir -p
checking for gawk... gawk
checking whether make sets $(MAKE)... yes
checking whether make supports nested variables... yes
checking whether to enable maintainer-specific portions of Makefiles... no
checking build system type... x86_64-pc-linux-gnu
checking host system type... x86_64-pc-linux-gnu
checking for grep that handles long lines and -e... /bin/grep
checking for egrep... /bin/grep -E
checking for a sed that does not truncate output... /bin/sed
checking for x86_64-pc-linux-gnu-gcc... x86_64-pc-linux-gnu-gcc
checking whether the C compiler works... yes
checking for C compiler default output file name... a.out
checking for suffix of executables... 
checking whether we are cross compiling... no
checking for suffix of object files... o
checking whether we are using the GNU C compiler... yes
checking whether x86_64-pc-linux-gnu-gcc accepts -g... yes
checking for x86_64-pc-linux-gnu-gcc option to accept ISO C89... none needed
checking whether x86_64-pc-linux-gnu-gcc understands -c and -o together... yes
checking for style of include used by make... GNU
checking dependency style of x86_64-pc-linux-gnu-gcc... none
checking for x86_64-pc-linux-gnu-ar... x86_64-pc-linux-gnu-ar
checking the archiver (x86_64-pc-linux-gnu-ar) interface... ar
checking how to print strings... printf
checking for a sed that does not truncate output... (cached) /bin/sed
checking for fgrep... /bin/grep -F
checking for ld used by x86_64-pc-linux-gnu-gcc... /usr/x86_64-pc-linux-gnu/bin/ld
checking if the linker (/usr/x86_64-pc-linux-gnu/bin/ld) is GNU ld... yes
checking for BSD- or MS-compatible name lister (nm)... /usr/bin/x86_64-pc-linux-gnu-nm -B
checking the name lister (/usr/bin/x86_64-pc-linux-gnu-nm -B) interface... BSD nm
checking whether ln -s works... yes
checking the maximum length of command line arguments... 1572864
checking how to convert x86_64-pc-linux-gnu file names to x86_64-pc-linux-gnu format... func_convert_file_noop
checking how to convert x86_64-pc-linux-gnu file names to toolchain format... func_convert_file_noop
checking for /usr/x86_64-pc-linux-gnu/bin/ld option to reload object files... -r
checking for x86_64-pc-linux-gnu-objdump... x86_64-pc-linux-gnu-objdump
checking how to recognize dependent libraries... pass_all
checking for x86_64-pc-linux-gnu-dlltool... x86_64-pc-linux-gnu-dlltool
checking how to associate runtime and link libraries... printf %s\n
checking for x86_64-pc-linux-gnu-ar... (cached) x86_64-pc-linux-gnu-ar
checking for archiver @FILE support... @
checking for x86_64-pc-linux-gnu-strip... x86_64-pc-linux-gnu-strip
checking for x86_64-pc-linux-gnu-ranlib... x86_64-pc-linux-gnu-ranlib
checking command to parse /usr/bin/x86_64-pc-linux-gnu-nm -B output from x86_64-pc-linux-gnu-gcc object... ok
checking for sysroot... no
checking for a working dd... /bin/dd
checking how to truncate binary pipes... /bin/dd bs=4096 count=1
checking for x86_64-pc-linux-gnu-mt... no
checking for mt... no
checking if : is a manifest tool... no
checking how to run the C preprocessor... x86_64-pc-linux-gnu-gcc -E
checking for ANSI C header files... yes
checking for sys/types.h... yes
checking for sys/stat.h... yes
checking for stdlib.h... yes
checking for string.h... yes
checking for memory.h... yes
checking for strings.h... yes
checking for inttypes.h... yes
checking for stdint.h... yes
checking for unistd.h... yes
checking for dlfcn.h... yes
checking for objdir... .libs
checking if x86_64-pc-linux-gnu-gcc supports -fno-rtti -fno-exceptions... no
checking for x86_64-pc-linux-gnu-gcc option to produce PIC... -fPIC -DPIC
checking if x86_64-pc-linux-gnu-gcc PIC flag -fPIC -DPIC works... yes
checking if x86_64-pc-linux-gnu-gcc static flag -static works... yes
checking if x86_64-pc-linux-gnu-gcc supports -c -o file.o... yes
checking if x86_64-pc-linux-gnu-gcc supports -c -o file.o... (cached) yes
checking whether the x86_64-pc-linux-gnu-gcc linker (/usr/x86_64-pc-linux-gnu/bin/ld -m elf_x86_64) supports shared libraries... yes
checking whether -lc should be explicitly linked in... no
checking dynamic linker characteristics... GNU/Linux ld.so
checking how to hardcode library paths into programs... immediate
checking whether stripping libraries is possible... yes
checking if libtool supports shared libraries... yes
checking whether to build shared libraries... yes
checking whether to build static libraries... no
checking for gmp.h... yes
checking for ANSI C header files... (cached) yes
checking locale.h usability... yes
checking locale.h presence... yes
checking for locale.h... yes
checking for inttypes.h... (cached) yes
checking for stdint.h... (cached) yes
checking limits.h usability... yes
checking limits.h presence... yes
checking for limits.h... yes
checking for unistd.h... (cached) yes
checking sys/time.h usability... yes
checking sys/time.h presence... yes
checking for sys/time.h... yes
checking sys/resource.h usability... yes
checking sys/resource.h presence... yes
checking for sys/resource.h... yes
checking whether time.h and sys/time.h may both be included... yes
checking complex.h usability... yes
checking complex.h presence... yes
checking for complex.h... yes
checking for library containing creal... -lm
checking whether creal, cimag and I can be used... yes
checking for an ANSI C-conforming const... yes
checking for size_t... yes
checking for gettimeofday... yes
checking for localeconv... yes
checking for setlocale... yes
checking for getrusage... yes
checking for dup... yes
checking for dup2... yes
checking for __gmpz_init in -lgmp... yes
checking for MPFR... yes
checking for mpfr_fmma... yes
checking for recent GMP... yes
checking for recent MPFR... yes
checking if gcc accepts -dumpversion option... yes
checking gcc version... 11.0.0
checking that generated files are newer than configure... done
configure: creating ./config.status
config.status: creating Makefile
config.status: creating src/Makefile
config.status: creating tests/Makefile
config.status: creating doc/Makefile
config.status: creating tools/Makefile
config.status: creating tools/bench/Makefile
config.status: creating config.h
config.status: executing depfiles commands
config.status: executing libtool commands
>>> Source configured.
>>> Compiling source in /tmp/portage/dev-libs/mpc-1.1.0-r1/work/mpc-1.1.0 ...
 * abi_x86_64.amd64: running multilib-minimal_abi_src_compile
make -j12 -l12 
make  all-recursive
make[1]: Entering directory '/tmp/portage/dev-libs/mpc-1.1.0-r1/work/mpc-1.1.0-abi_x86_64.amd64'
Making all in src
make[2]: Entering directory '/tmp/portage/dev-libs/mpc-1.1.0-r1/work/mpc-1.1.0-abi_x86_64.amd64/src'
/bin/sh ../libtool  --tag=CC   --mode=compile x86_64-pc-linux-gnu-gcc -DHAVE_CONFIG_H -I. -I/tmp/portage/dev-libs/mpc-1.1.0-r1/work/mpc-1.1.0/src -I..     -O2 -pipe -Wl,-O4 -Wl,-O4,--sort-common,--as-needed,-z,norelro,-z,now -c -o abs.lo /tmp/portage/dev-libs/mpc-1.1.0-r1/work/mpc-1.1.0/src/abs.c
/bin/sh ../libtool  --tag=CC   --mode=compile x86_64-pc-linux-gnu-gcc -DHAVE_CONFIG_H -I. -I/tmp/portage/dev-libs/mpc-1.1.0-r1/work/mpc-1.1.0/src -I..     -O2 -pipe -Wl,-O4 -Wl,-O4,--sort-common,--as-needed,-z,norelro,-z,now -c -o acos.lo /tmp/portage/dev-libs/mpc-1.1.0-r1/work/mpc-1.1.0/src/acos.c
/bin/sh ../libtool  --tag=CC   --mode=compile x86_64-pc-linux-gnu-gcc -DHAVE_CONFIG_H -I. -I/tmp/portage/dev-libs/mpc-1.1.0-r1/work/mpc-1.1.0/src -I..     -O2 -pipe -Wl,-O4 -Wl,-O4,--sort-common,--as-needed,-z,norelro,-z,now -c -o acosh.lo /tmp/portage/dev-libs/mpc-1.1.0-r1/work/mpc-1.1.0/src/acosh.c
/bin/sh ../libtool  --tag=CC   --mode=compile x86_64-pc-linux-gnu-gcc -DHAVE_CONFIG_H -I. -I/tmp/portage/dev-libs/mpc-1.1.0-r1/work/mpc-1.1.0/src -I..     -O2 -pipe -Wl,-O4 -Wl,-O4,--sort-common,--as-needed,-z,norelro,-z,now -c -o add.lo /tmp/portage/dev-libs/mpc-1.1.0-r1/work/mpc-1.1.0/src/add.c
/bin/sh ../libtool  --tag=CC   --mode=compile x86_64-pc-linux-gnu-gcc -DHAVE_CONFIG_H -I. -I/tmp/portage/dev-libs/mpc-1.1.0-r1/work/mpc-1.1.0/src -I..     -O2 -pipe -Wl,-O4 -Wl,-O4,--sort-common,--as-needed,-z,norelro,-z,now -c -o add_fr.lo /tmp/portage/dev-libs/mpc-1.1.0-r1/work/mpc-1.1.0/src/add_fr.c
/bin/sh ../libtool  --tag=CC   --mode=compile x86_64-pc-linux-gnu-gcc -DHAVE_CONFIG_H -I. -I/tmp/portage/dev-libs/mpc-1.1.0-r1/work/mpc-1.1.0/src -I..     -O2 -pipe -Wl,-O4 -Wl,-O4,--sort-common,--as-needed,-z,norelro,-z,now -c -o add_si.lo /tmp/portage/dev-libs/mpc-1.1.0-r1/work/mpc-1.1.0/src/add_si.c
/bin/sh ../libtool  --tag=CC   --mode=compile x86_64-pc-linux-gnu-gcc -DHAVE_CONFIG_H -I. -I/tmp/portage/dev-libs/mpc-1.1.0-r1/work/mpc-1.1.0/src -I..     -O2 -pipe -Wl,-O4 -Wl,-O4,--sort-common,--as-needed,-z,norelro,-z,now -c -o add_ui.lo /tmp/portage/dev-libs/mpc-1.1.0-r1/work/mpc-1.1.0/src/add_ui.c
/bin/sh ../libtool  --tag=CC   --mode=compile x86_64-pc-linux-gnu-gcc -DHAVE_CONFIG_H -I. -I/tmp/portage/dev-libs/mpc-1.1.0-r1/work/mpc-1.1.0/src -I..     -O2 -pipe -Wl,-O4 -Wl,-O4,--sort-common,--as-needed,-z,norelro,-z,now -c -o arg.lo /tmp/portage/dev-libs/mpc-1.1.0-r1/work/mpc-1.1.0/src/arg.c
/bin/sh ../libtool  --tag=CC   --mode=compile x86_64-pc-linux-gnu-gcc -DHAVE_CONFIG_H -I. -I/tmp/portage/dev-libs/mpc-1.1.0-r1/work/mpc-1.1.0/src -I..     -O2 -pipe -Wl,-O4 -Wl,-O4,--sort-common,--as-needed,-z,norelro,-z,now -c -o asin.lo /tmp/portage/dev-libs/mpc-1.1.0-r1/work/mpc-1.1.0/src/asin.c
/bin/sh ../libtool  --tag=CC   --mode=compile x86_64-pc-linux-gnu-gcc -DHAVE_CONFIG_H -I. -I/tmp/portage/dev-libs/mpc-1.1.0-r1/work/mpc-1.1.0/src -I..     -O2 -pipe -Wl,-O4 -Wl,-O4,--sort-common,--as-needed,-z,norelro,-z,now -c -o asinh.lo /tmp/portage/dev-libs/mpc-1.1.0-r1/work/mpc-1.1.0/src/asinh.c
/bin/sh ../libtool  --tag=CC   --mode=compile x86_64-pc-linux-gnu-gcc -DHAVE_CONFIG_H -I. -I/tmp/portage/dev-libs/mpc-1.1.0-r1/work/mpc-1.1.0/src -I..     -O2 -pipe -Wl,-O4 -Wl,-O4,--sort-common,--as-needed,-z,norelro,-z,now -c -o atan.lo /tmp/portage/dev-libs/mpc-1.1.0-r1/work/mpc-1.1.0/src/atan.c
/bin/sh ../libtool  --tag=CC   --mode=compile x86_64-pc-linux-gnu-gcc -DHAVE_CONFIG_H -I. -I/tmp/portage/dev-libs/mpc-1.1.0-r1/work/mpc-1.1.0/src -I..     -O2 -pipe -Wl,-O4 -Wl,-O4,--sort-common,--as-needed,-z,norelro,-z,now -c -o atanh.lo /tmp/portage/dev-libs/mpc-1.1.0-r1/work/mpc-1.1.0/src/atanh.c
libtool: compile:  x86_64-pc-linux-gnu-gcc -DHAVE_CONFIG_H -I. -I/tmp/portage/dev-libs/mpc-1.1.0-r1/work/mpc-1.1.0/src -I.. -O2 -pipe -Wl,-O4 -Wl,-O4,--sort-common,--as-needed,-z,norelro,-z,now -c /tmp/portage/dev-libs/mpc-1.1.0-r1/work/mpc-1.1.0/src/add_fr.c  -fPIC -DPIC -o .libs/add_fr.o
libtool: compile:  x86_64-pc-linux-gnu-gcc -DHAVE_CONFIG_H -I. -I/tmp/portage/dev-libs/mpc-1.1.0-r1/work/mpc-1.1.0/src -I.. -O2 -pipe -Wl,-O4 -Wl,-O4,--sort-common,--as-needed,-z,norelro,-z,now -c /tmp/portage/dev-libs/mpc-1.1.0-r1/work/mpc-1.1.0/src/abs.c  -fPIC -DPIC -o .libs/abs.o
libtool: compile:  x86_64-pc-linux-gnu-gcc -DHAVE_CONFIG_H -I. -I/tmp/portage/dev-libs/mpc-1.1.0-r1/work/mpc-1.1.0/src -I.. -O2 -pipe -Wl,-O4 -Wl,-O4,--sort-common,--as-needed,-z,norelro,-z,now -c /tmp/portage/dev-libs/mpc-1.1.0-r1/work/mpc-1.1.0/src/add_si.c  -fPIC -DPIC -o .libs/add_si.o
libtool: compile:  x86_64-pc-linux-gnu-gcc -DHAVE_CONFIG_H -I. -I/tmp/portage/dev-libs/mpc-1.1.0-r1/work/mpc-1.1.0/src -I.. -O2 -pipe -Wl,-O4 -Wl,-O4,--sort-common,--as-needed,-z,norelro,-z,now -c /tmp/portage/dev-libs/mpc-1.1.0-r1/work/mpc-1.1.0/src/add_ui.c  -fPIC -DPIC -o .libs/add_ui.o
libtool: compile:  x86_64-pc-linux-gnu-gcc -DHAVE_CONFIG_H -I. -I/tmp/portage/dev-libs/mpc-1.1.0-r1/work/mpc-1.1.0/src -I.. -O2 -pipe -Wl,-O4 -Wl,-O4,--sort-common,--as-needed,-z,norelro,-z,now -c /tmp/portage/dev-libs/mpc-1.1.0-r1/work/mpc-1.1.0/src/acos.c  -fPIC -DPIC -o .libs/acos.o
libtool: compile:  x86_64-pc-linux-gnu-gcc -DHAVE_CONFIG_H -I. -I/tmp/portage/dev-libs/mpc-1.1.0-r1/work/mpc-1.1.0/src -I.. -O2 -pipe -Wl,-O4 -Wl,-O4,--sort-common,--as-needed,-z,norelro,-z,now -c /tmp/portage/dev-libs/mpc-1.1.0-r1/work/mpc-1.1.0/src/add.c  -fPIC -DPIC -o .libs/add.o
libtool: compile:  x86_64-pc-linux-gnu-gcc -DHAVE_CONFIG_H -I. -I/tmp/portage/dev-libs/mpc-1.1.0-r1/work/mpc-1.1.0/src -I.. -O2 -pipe -Wl,-O4 -Wl,-O4,--sort-common,--as-needed,-z,norelro,-z,now -c /tmp/portage/dev-libs/mpc-1.1.0-r1/work/mpc-1.1.0/src/acosh.c  -fPIC -DPIC -o .libs/acosh.o
libtool: compile:  x86_64-pc-linux-gnu-gcc -DHAVE_CONFIG_H -I. -I/tmp/portage/dev-libs/mpc-1.1.0-r1/work/mpc-1.1.0/src -I.. -O2 -pipe -Wl,-O4 -Wl,-O4,--sort-common,--as-needed,-z,norelro,-z,now -c /tmp/portage/dev-libs/mpc-1.1.0-r1/work/mpc-1.1.0/src/atan.c  -fPIC -DPIC -o .libs/atan.o
libtool: compile:  x86_64-pc-linux-gnu-gcc -DHAVE_CONFIG_H -I. -I/tmp/portage/dev-libs/mpc-1.1.0-r1/work/mpc-1.1.0/src -I.. -O2 -pipe -Wl,-O4 -Wl,-O4,--sort-common,--as-needed,-z,norelro,-z,now -c /tmp/portage/dev-libs/mpc-1.1.0-r1/work/mpc-1.1.0/src/arg.c  -fPIC -DPIC -o .libs/arg.o
libtool: compile:  x86_64-pc-linux-gnu-gcc -DHAVE_CONFIG_H -I. -I/tmp/portage/dev-libs/mpc-1.1.0-r1/work/mpc-1.1.0/src -I.. -O2 -pipe -Wl,-O4 -Wl,-O4,--sort-common,--as-needed,-z,norelro,-z,now -c /tmp/portage/dev-libs/mpc-1.1.0-r1/work/mpc-1.1.0/src/asin.c  -fPIC -DPIC -o .libs/asin.o
libtool: compile:  x86_64-pc-linux-gnu-gcc -DHAVE_CONFIG_H -I. -I/tmp/portage/dev-libs/mpc-1.1.0-r1/work/mpc-1.1.0/src -I.. -O2 -pipe -Wl,-O4 -Wl,-O4,--sort-common,--as-needed,-z,norelro,-z,now -c /tmp/portage/dev-libs/mpc-1.1.0-r1/work/mpc-1.1.0/src/atanh.c  -fPIC -DPIC -o .libs/atanh.o
libtool: compile:  x86_64-pc-linux-gnu-gcc -DHAVE_CONFIG_H -I. -I/tmp/portage/dev-libs/mpc-1.1.0-r1/work/mpc-1.1.0/src -I.. -O2 -pipe -Wl,-O4 -Wl,-O4,--sort-common,--as-needed,-z,norelro,-z,now -c /tmp/portage/dev-libs/mpc-1.1.0-r1/work/mpc-1.1.0/src/asinh.c  -fPIC -DPIC -o .libs/asinh.o
/bin/sh ../libtool  --tag=CC   --mode=compile x86_64-pc-linux-gnu-gcc -DHAVE_CONFIG_H -I. -I/tmp/portage/dev-libs/mpc-1.1.0-r1/work/mpc-1.1.0/src -I..     -O2 -pipe -Wl,-O4 -Wl,-O4,--sort-common,--as-needed,-z,norelro,-z,now -c -o clear.lo /tmp/portage/dev-libs/mpc-1.1.0-r1/work/mpc-1.1.0/src/clear.c
/bin/sh ../libtool  --tag=CC   --mode=compile x86_64-pc-linux-gnu-gcc -DHAVE_CONFIG_H -I. -I/tmp/portage/dev-libs/mpc-1.1.0-r1/work/mpc-1.1.0/src -I..     -O2 -pipe -Wl,-O4 -Wl,-O4,--sort-common,--as-needed,-z,norelro,-z,now -c -o cmp.lo /tmp/portage/dev-libs/mpc-1.1.0-r1/work/mpc-1.1.0/src/cmp.c
/bin/sh ../libtool  --tag=CC   --mode=compile x86_64-pc-linux-gnu-gcc -DHAVE_CONFIG_H -I. -I/tmp/portage/dev-libs/mpc-1.1.0-r1/work/mpc-1.1.0/src -I..     -O2 -pipe -Wl,-O4 -Wl,-O4,--sort-common,--as-needed,-z,norelro,-z,now -c -o cmp_abs.lo /tmp/portage/dev-libs/mpc-1.1.0-r1/work/mpc-1.1.0/src/cmp_abs.c
/bin/sh ../libtool  --tag=CC   --mode=compile x86_64-pc-linux-gnu-gcc -DHAVE_CONFIG_H -I. -I/tmp/portage/dev-libs/mpc-1.1.0-r1/work/mpc-1.1.0/src -I..     -O2 -pipe -Wl,-O4 -Wl,-O4,--sort-common,--as-needed,-z,norelro,-z,now -c -o cmp_si_si.lo /tmp/portage/dev-libs/mpc-1.1.0-r1/work/mpc-1.1.0/src/cmp_si_si.c
/bin/sh ../libtool  --tag=CC   --mode=compile x86_64-pc-linux-gnu-gcc -DHAVE_CONFIG_H -I. -I/tmp/portage/dev-libs/mpc-1.1.0-r1/work/mpc-1.1.0/src -I..     -O2 -pipe -Wl,-O4 -Wl,-O4,--sort-common,--as-needed,-z,norelro,-z,now -c -o conj.lo /tmp/portage/dev-libs/mpc-1.1.0-r1/work/mpc-1.1.0/src/conj.c
/bin/sh ../libtool  --tag=CC   --mode=compile x86_64-pc-linux-gnu-gcc -DHAVE_CONFIG_H -I. -I/tmp/portage/dev-libs/mpc-1.1.0-r1/work/mpc-1.1.0/src -I..     -O2 -pipe -Wl,-O4 -Wl,-O4,--sort-common,--as-needed,-z,norelro,-z,now -c -o cos.lo /tmp/portage/dev-libs/mpc-1.1.0-r1/work/mpc-1.1.0/src/cos.c
/bin/sh ../libtool  --tag=CC   --mode=compile x86_64-pc-linux-gnu-gcc -DHAVE_CONFIG_H -I. -I/tmp/portage/dev-libs/mpc-1.1.0-r1/work/mpc-1.1.0/src -I..     -O2 -pipe -Wl,-O4 -Wl,-O4,--sort-common,--as-needed,-z,norelro,-z,now -c -o cosh.lo /tmp/portage/dev-libs/mpc-1.1.0-r1/work/mpc-1.1.0/src/cosh.c
/bin/sh ../libtool  --tag=CC   --mode=compile x86_64-pc-linux-gnu-gcc -DHAVE_CONFIG_H -I. -I/tmp/portage/dev-libs/mpc-1.1.0-r1/work/mpc-1.1.0/src -I..     -O2 -pipe -Wl,-O4 -Wl,-O4,--sort-common,--as-needed,-z,norelro,-z,now -c -o div_2si.lo /tmp/portage/dev-libs/mpc-1.1.0-r1/work/mpc-1.1.0/src/div_2si.c
/bin/sh ../libtool  --tag=CC   --mode=compile x86_64-pc-linux-gnu-gcc -DHAVE_CONFIG_H -I. -I/tmp/portage/dev-libs/mpc-1.1.0-r1/work/mpc-1.1.0/src -I..     -O2 -pipe -Wl,-O4 -Wl,-O4,--sort-common,--as-needed,-z,norelro,-z,now -c -o div_2ui.lo /tmp/portage/dev-libs/mpc-1.1.0-r1/work/mpc-1.1.0/src/div_2ui.c
libtool: compile:  x86_64-pc-linux-gnu-gcc -DHAVE_CONFIG_H -I. -I/tmp/portage/dev-libs/mpc-1.1.0-r1/work/mpc-1.1.0/src -I.. -O2 -pipe -Wl,-O4 -Wl,-O4,--sort-common,--as-needed,-z,norelro,-z,now -c /tmp/portage/dev-libs/mpc-1.1.0-r1/work/mpc-1.1.0/src/clear.c  -fPIC -DPIC -o .libs/clear.o
libtool: compile:  x86_64-pc-linux-gnu-gcc -DHAVE_CONFIG_H -I. -I/tmp/portage/dev-libs/mpc-1.1.0-r1/work/mpc-1.1.0/src -I.. -O2 -pipe -Wl,-O4 -Wl,-O4,--sort-common,--as-needed,-z,norelro,-z,now -c /tmp/portage/dev-libs/mpc-1.1.0-r1/work/mpc-1.1.0/src/cmp_abs.c  -fPIC -DPIC -o .libs/cmp_abs.o
libtool: compile:  x86_64-pc-linux-gnu-gcc -DHAVE_CONFIG_H -I. -I/tmp/portage/dev-libs/mpc-1.1.0-r1/work/mpc-1.1.0/src -I.. -O2 -pipe -Wl,-O4 -Wl,-O4,--sort-common,--as-needed,-z,norelro,-z,now -c /tmp/portage/dev-libs/mpc-1.1.0-r1/work/mpc-1.1.0/src/cmp_si_si.c  -fPIC -DPIC -o .libs/cmp_si_si.o
libtool: compile:  x86_64-pc-linux-gnu-gcc -DHAVE_CONFIG_H -I. -I/tmp/portage/dev-libs/mpc-1.1.0-r1/work/mpc-1.1.0/src -I.. -O2 -pipe -Wl,-O4 -Wl,-O4,--sort-common,--as-needed,-z,norelro,-z,now -c /tmp/portage/dev-libs/mpc-1.1.0-r1/work/mpc-1.1.0/src/cmp.c  -fPIC -DPIC -o .libs/cmp.o
/bin/sh ../libtool  --tag=CC   --mode=compile x86_64-pc-linux-gnu-gcc -DHAVE_CONFIG_H -I. -I/tmp/portage/dev-libs/mpc-1.1.0-r1/work/mpc-1.1.0/src -I..     -O2 -pipe -Wl,-O4 -Wl,-O4,--sort-common,--as-needed,-z,norelro,-z,now -c -o div.lo /tmp/portage/dev-libs/mpc-1.1.0-r1/work/mpc-1.1.0/src/div.c
libtool: compile:  x86_64-pc-linux-gnu-gcc -DHAVE_CONFIG_H -I. -I/tmp/portage/dev-libs/mpc-1.1.0-r1/work/mpc-1.1.0/src -I.. -O2 -pipe -Wl,-O4 -Wl,-O4,--sort-common,--as-needed,-z,norelro,-z,now -c /tmp/portage/dev-libs/mpc-1.1.0-r1/work/mpc-1.1.0/src/cos.c  -fPIC -DPIC -o .libs/cos.o
/bin/sh ../libtool  --tag=CC   --mode=compile x86_64-pc-linux-gnu-gcc -DHAVE_CONFIG_H -I. -I/tmp/portage/dev-libs/mpc-1.1.0-r1/work/mpc-1.1.0/src -I..     -O2 -pipe -Wl,-O4 -Wl,-O4,--sort-common,--as-needed,-z,norelro,-z,now -c -o div_fr.lo /tmp/portage/dev-libs/mpc-1.1.0-r1/work/mpc-1.1.0/src/div_fr.c
libtool: compile:  x86_64-pc-linux-gnu-gcc -DHAVE_CONFIG_H -I. -I/tmp/portage/dev-libs/mpc-1.1.0-r1/work/mpc-1.1.0/src -I.. -O2 -pipe -Wl,-O4 -Wl,-O4,--sort-common,--as-needed,-z,norelro,-z,now -c /tmp/portage/dev-libs/mpc-1.1.0-r1/work/mpc-1.1.0/src/cosh.c  -fPIC -DPIC -o .libs/cosh.o
libtool: compile:  x86_64-pc-linux-gnu-gcc -DHAVE_CONFIG_H -I. -I/tmp/portage/dev-libs/mpc-1.1.0-r1/work/mpc-1.1.0/src -I.. -O2 -pipe -Wl,-O4 -Wl,-O4,--sort-common,--as-needed,-z,norelro,-z,now -c /tmp/portage/dev-libs/mpc-1.1.0-r1/work/mpc-1.1.0/src/conj.c  -fPIC -DPIC -o .libs/conj.o
libtool: compile:  x86_64-pc-linux-gnu-gcc -DHAVE_CONFIG_H -I. -I/tmp/portage/dev-libs/mpc-1.1.0-r1/work/mpc-1.1.0/src -I.. -O2 -pipe -Wl,-O4 -Wl,-O4,--sort-common,--as-needed,-z,norelro,-z,now -c /tmp/portage/dev-libs/mpc-1.1.0-r1/work/mpc-1.1.0/src/div_2ui.c  -fPIC -DPIC -o .libs/div_2ui.o
/bin/sh ../libtool  --tag=CC   --mode=compile x86_64-pc-linux-gnu-gcc -DHAVE_CONFIG_H -I. -I/tmp/portage/dev-libs/mpc-1.1.0-r1/work/mpc-1.1.0/src -I..     -O2 -pipe -Wl,-O4 -Wl,-O4,--sort-common,--as-needed,-z,norelro,-z,now -c -o div_ui.lo /tmp/portage/dev-libs/mpc-1.1.0-r1/work/mpc-1.1.0/src/div_ui.c
libtool: compile:  x86_64-pc-linux-gnu-gcc -DHAVE_CONFIG_H -I. -I/tmp/portage/dev-libs/mpc-1.1.0-r1/work/mpc-1.1.0/src -I.. -O2 -pipe -Wl,-O4 -Wl,-O4,--sort-common,--as-needed,-z,norelro,-z,now -c /tmp/portage/dev-libs/mpc-1.1.0-r1/work/mpc-1.1.0/src/div_2si.c  -fPIC -DPIC -o .libs/div_2si.o
libtool: compile:  x86_64-pc-linux-gnu-gcc -DHAVE_CONFIG_H -I. -I/tmp/portage/dev-libs/mpc-1.1.0-r1/work/mpc-1.1.0/src -I.. -O2 -pipe -Wl,-O4 -Wl,-O4,--sort-common,--as-needed,-z,norelro,-z,now -c /tmp/portage/dev-libs/mpc-1.1.0-r1/work/mpc-1.1.0/src/div.c  -fPIC -DPIC -o .libs/div.o
/bin/sh ../libtool  --tag=CC   --mode=compile x86_64-pc-linux-gnu-gcc -DHAVE_CONFIG_H -I. -I/tmp/portage/dev-libs/mpc-1.1.0-r1/work/mpc-1.1.0/src -I..     -O2 -pipe -Wl,-O4 -Wl,-O4,--sort-common,--as-needed,-z,norelro,-z,now -c -o exp.lo /tmp/portage/dev-libs/mpc-1.1.0-r1/work/mpc-1.1.0/src/exp.c
/bin/sh ../libtool  --tag=CC   --mode=compile x86_64-pc-linux-gnu-gcc -DHAVE_CONFIG_H -I. -I/tmp/portage/dev-libs/mpc-1.1.0-r1/work/mpc-1.1.0/src -I..     -O2 -pipe -Wl,-O4 -Wl,-O4,--sort-common,--as-needed,-z,norelro,-z,now -c -o fma.lo /tmp/portage/dev-libs/mpc-1.1.0-r1/work/mpc-1.1.0/src/fma.c
/bin/sh ../libtool  --tag=CC   --mode=compile x86_64-pc-linux-gnu-gcc -DHAVE_CONFIG_H -I. -I/tmp/portage/dev-libs/mpc-1.1.0-r1/work/mpc-1.1.0/src -I..     -O2 -pipe -Wl,-O4 -Wl,-O4,--sort-common,--as-needed,-z,norelro,-z,now -c -o fr_div.lo /tmp/portage/dev-libs/mpc-1.1.0-r1/work/mpc-1.1.0/src/fr_div.c
/bin/sh ../libtool  --tag=CC   --mode=compile x86_64-pc-linux-gnu-gcc -DHAVE_CONFIG_H -I. -I/tmp/portage/dev-libs/mpc-1.1.0-r1/work/mpc-1.1.0/src -I..     -O2 -pipe -Wl,-O4 -Wl,-O4,--sort-common,--as-needed,-z,norelro,-z,now -c -o fr_sub.lo /tmp/portage/dev-libs/mpc-1.1.0-r1/work/mpc-1.1.0/src/fr_sub.c
/bin/sh ../libtool  --tag=CC   --mode=compile x86_64-pc-linux-gnu-gcc -DHAVE_CONFIG_H -I. -I/tmp/portage/dev-libs/mpc-1.1.0-r1/work/mpc-1.1.0/src -I..     -O2 -pipe -Wl,-O4 -Wl,-O4,--sort-common,--as-needed,-z,norelro,-z,now -c -o get_prec2.lo /tmp/portage/dev-libs/mpc-1.1.0-r1/work/mpc-1.1.0/src/get_prec2.c
libtool: compile:  x86_64-pc-linux-gnu-gcc -DHAVE_CONFIG_H -I. -I/tmp/portage/dev-libs/mpc-1.1.0-r1/work/mpc-1.1.0/src -I.. -O2 -pipe -Wl,-O4 -Wl,-O4,--sort-common,--as-needed,-z,norelro,-z,now -c /tmp/portage/dev-libs/mpc-1.1.0-r1/work/mpc-1.1.0/src/div_fr.c  -fPIC -DPIC -o .libs/div_fr.o
/bin/sh ../libtool  --tag=CC   --mode=compile x86_64-pc-linux-gnu-gcc -DHAVE_CONFIG_H -I. -I/tmp/portage/dev-libs/mpc-1.1.0-r1/work/mpc-1.1.0/src -I..     -O2 -pipe -Wl,-O4 -Wl,-O4,--sort-common,--as-needed,-z,norelro,-z,now -c -o get_prec.lo /tmp/portage/dev-libs/mpc-1.1.0-r1/work/mpc-1.1.0/src/get_prec.c
libtool: compile:  x86_64-pc-linux-gnu-gcc -DHAVE_CONFIG_H -I. -I/tmp/portage/dev-libs/mpc-1.1.0-r1/work/mpc-1.1.0/src -I.. -O2 -pipe -Wl,-O4 -Wl,-O4,--sort-common,--as-needed,-z,norelro,-z,now -c /tmp/portage/dev-libs/mpc-1.1.0-r1/work/mpc-1.1.0/src/div_ui.c  -fPIC -DPIC -o .libs/div_ui.o
/bin/sh ../libtool  --tag=CC   --mode=compile x86_64-pc-linux-gnu-gcc -DHAVE_CONFIG_H -I. -I/tmp/portage/dev-libs/mpc-1.1.0-r1/work/mpc-1.1.0/src -I..     -O2 -pipe -Wl,-O4 -Wl,-O4,--sort-common,--as-needed,-z,norelro,-z,now -c -o get_version.lo /tmp/portage/dev-libs/mpc-1.1.0-r1/work/mpc-1.1.0/src/get_version.c
libtool: compile:  x86_64-pc-linux-gnu-gcc -DHAVE_CONFIG_H -I. -I/tmp/portage/dev-libs/mpc-1.1.0-r1/work/mpc-1.1.0/src -I.. -O2 -pipe -Wl,-O4 -Wl,-O4,--sort-common,--as-needed,-z,norelro,-z,now -c /tmp/portage/dev-libs/mpc-1.1.0-r1/work/mpc-1.1.0/src/exp.c  -fPIC -DPIC -o .libs/exp.o
/bin/sh ../libtool  --tag=CC   --mode=compile x86_64-pc-linux-gnu-gcc -DHAVE_CONFIG_H -I. -I/tmp/portage/dev-libs/mpc-1.1.0-r1/work/mpc-1.1.0/src -I..     -O2 -pipe -Wl,-O4 -Wl,-O4,--sort-common,--as-needed,-z,norelro,-z,now -c -o get_x.lo /tmp/portage/dev-libs/mpc-1.1.0-r1/work/mpc-1.1.0/src/get_x.c
libtool: compile:  x86_64-pc-linux-gnu-gcc -DHAVE_CONFIG_H -I. -I/tmp/portage/dev-libs/mpc-1.1.0-r1/work/mpc-1.1.0/src -I.. -O2 -pipe -Wl,-O4 -Wl,-O4,--sort-common,--as-needed,-z,norelro,-z,now -c /tmp/portage/dev-libs/mpc-1.1.0-r1/work/mpc-1.1.0/src/fma.c  -fPIC -DPIC -o .libs/fma.o
/bin/sh ../libtool  --tag=CC   --mode=compile x86_64-pc-linux-gnu-gcc -DHAVE_CONFIG_H -I. -I/tmp/portage/dev-libs/mpc-1.1.0-r1/work/mpc-1.1.0/src -I..     -O2 -pipe -Wl,-O4 -Wl,-O4,--sort-common,--as-needed,-z,norelro,-z,now -c -o imag.lo /tmp/portage/dev-libs/mpc-1.1.0-r1/work/mpc-1.1.0/src/imag.c
libtool: compile:  x86_64-pc-linux-gnu-gcc -DHAVE_CONFIG_H -I. -I/tmp/portage/dev-libs/mpc-1.1.0-r1/work/mpc-1.1.0/src -I.. -O2 -pipe -Wl,-O4 -Wl,-O4,--sort-common,--as-needed,-z,norelro,-z,now -c /tmp/portage/dev-libs/mpc-1.1.0-r1/work/mpc-1.1.0/src/fr_div.c  -fPIC -DPIC -o .libs/fr_div.o
libtool: compile:  x86_64-pc-linux-gnu-gcc -DHAVE_CONFIG_H -I. -I/tmp/portage/dev-libs/mpc-1.1.0-r1/work/mpc-1.1.0/src -I.. -O2 -pipe -Wl,-O4 -Wl,-O4,--sort-common,--as-needed,-z,norelro,-z,now -c /tmp/portage/dev-libs/mpc-1.1.0-r1/work/mpc-1.1.0/src/fr_sub.c  -fPIC -DPIC -o .libs/fr_sub.o
libtool: compile:  x86_64-pc-linux-gnu-gcc -DHAVE_CONFIG_H -I. -I/tmp/portage/dev-libs/mpc-1.1.0-r1/work/mpc-1.1.0/src -I.. -O2 -pipe -Wl,-O4 -Wl,-O4,--sort-common,--as-needed,-z,norelro,-z,now -c /tmp/portage/dev-libs/mpc-1.1.0-r1/work/mpc-1.1.0/src/get_version.c  -fPIC -DPIC -o .libs/get_version.o
libtool: compile:  x86_64-pc-linux-gnu-gcc -DHAVE_CONFIG_H -I. -I/tmp/portage/dev-libs/mpc-1.1.0-r1/work/mpc-1.1.0/src -I.. -O2 -pipe -Wl,-O4 -Wl,-O4,--sort-common,--as-needed,-z,norelro,-z,now -c /tmp/portage/dev-libs/mpc-1.1.0-r1/work/mpc-1.1.0/src/get_prec2.c  -fPIC -DPIC -o .libs/get_prec2.o
libtool: compile:  x86_64-pc-linux-gnu-gcc -DHAVE_CONFIG_H -I. -I/tmp/portage/dev-libs/mpc-1.1.0-r1/work/mpc-1.1.0/src -I.. -O2 -pipe -Wl,-O4 -Wl,-O4,--sort-common,--as-needed,-z,norelro,-z,now -c /tmp/portage/dev-libs/mpc-1.1.0-r1/work/mpc-1.1.0/src/get_prec.c  -fPIC -DPIC -o .libs/get_prec.o
/bin/sh ../libtool  --tag=CC   --mode=compile x86_64-pc-linux-gnu-gcc -DHAVE_CONFIG_H -I. -I/tmp/portage/dev-libs/mpc-1.1.0-r1/work/mpc-1.1.0/src -I..     -O2 -pipe -Wl,-O4 -Wl,-O4,--sort-common,--as-needed,-z,norelro,-z,now -c -o init2.lo /tmp/portage/dev-libs/mpc-1.1.0-r1/work/mpc-1.1.0/src/init2.c
libtool: compile:  x86_64-pc-linux-gnu-gcc -DHAVE_CONFIG_H -I. -I/tmp/portage/dev-libs/mpc-1.1.0-r1/work/mpc-1.1.0/src -I.. -O2 -pipe -Wl,-O4 -Wl,-O4,--sort-common,--as-needed,-z,norelro,-z,now -c /tmp/portage/dev-libs/mpc-1.1.0-r1/work/mpc-1.1.0/src/imag.c  -fPIC -DPIC -o .libs/imag.o
libtool: compile:  x86_64-pc-linux-gnu-gcc -DHAVE_CONFIG_H -I. -I/tmp/portage/dev-libs/mpc-1.1.0-r1/work/mpc-1.1.0/src -I.. -O2 -pipe -Wl,-O4 -Wl,-O4,--sort-common,--as-needed,-z,norelro,-z,now -c /tmp/portage/dev-libs/mpc-1.1.0-r1/work/mpc-1.1.0/src/get_x.c  -fPIC -DPIC -o .libs/get_x.o
/bin/sh ../libtool  --tag=CC   --mode=compile x86_64-pc-linux-gnu-gcc -DHAVE_CONFIG_H -I. -I/tmp/portage/dev-libs/mpc-1.1.0-r1/work/mpc-1.1.0/src -I..     -O2 -pipe -Wl,-O4 -Wl,-O4,--sort-common,--as-needed,-z,norelro,-z,now -c -o init3.lo /tmp/portage/dev-libs/mpc-1.1.0-r1/work/mpc-1.1.0/src/init3.c
/bin/sh ../libtool  --tag=CC   --mode=compile x86_64-pc-linux-gnu-gcc -DHAVE_CONFIG_H -I. -I/tmp/portage/dev-libs/mpc-1.1.0-r1/work/mpc-1.1.0/src -I..     -O2 -pipe -Wl,-O4 -Wl,-O4,--sort-common,--as-needed,-z,norelro,-z,now -c -o inp_str.lo /tmp/portage/dev-libs/mpc-1.1.0-r1/work/mpc-1.1.0/src/inp_str.c
/bin/sh ../libtool  --tag=CC   --mode=compile x86_64-pc-linux-gnu-gcc -DHAVE_CONFIG_H -I. -I/tmp/portage/dev-libs/mpc-1.1.0-r1/work/mpc-1.1.0/src -I..     -O2 -pipe -Wl,-O4 -Wl,-O4,--sort-common,--as-needed,-z,norelro,-z,now -c -o log.lo /tmp/portage/dev-libs/mpc-1.1.0-r1/work/mpc-1.1.0/src/log.c
/bin/sh ../libtool  --tag=CC   --mode=compile x86_64-pc-linux-gnu-gcc -DHAVE_CONFIG_H -I. -I/tmp/portage/dev-libs/mpc-1.1.0-r1/work/mpc-1.1.0/src -I..     -O2 -pipe -Wl,-O4 -Wl,-O4,--sort-common,--as-needed,-z,norelro,-z,now -c -o log10.lo /tmp/portage/dev-libs/mpc-1.1.0-r1/work/mpc-1.1.0/src/log10.c
/bin/sh ../libtool  --tag=CC   --mode=compile x86_64-pc-linux-gnu-gcc -DHAVE_CONFIG_H -I. -I/tmp/portage/dev-libs/mpc-1.1.0-r1/work/mpc-1.1.0/src -I..     -O2 -pipe -Wl,-O4 -Wl,-O4,--sort-common,--as-needed,-z,norelro,-z,now -c -o mem.lo /tmp/portage/dev-libs/mpc-1.1.0-r1/work/mpc-1.1.0/src/mem.c
/bin/sh ../libtool  --tag=CC   --mode=compile x86_64-pc-linux-gnu-gcc -DHAVE_CONFIG_H -I. -I/tmp/portage/dev-libs/mpc-1.1.0-r1/work/mpc-1.1.0/src -I..     -O2 -pipe -Wl,-O4 -Wl,-O4,--sort-common,--as-needed,-z,norelro,-z,now -c -o mul_2si.lo /tmp/portage/dev-libs/mpc-1.1.0-r1/work/mpc-1.1.0/src/mul_2si.c
/bin/sh ../libtool  --tag=CC   --mode=compile x86_64-pc-linux-gnu-gcc -DHAVE_CONFIG_H -I. -I/tmp/portage/dev-libs/mpc-1.1.0-r1/work/mpc-1.1.0/src -I..     -O2 -pipe -Wl,-O4 -Wl,-O4,--sort-common,--as-needed,-z,norelro,-z,now -c -o mul_2ui.lo /tmp/portage/dev-libs/mpc-1.1.0-r1/work/mpc-1.1.0/src/mul_2ui.c
/bin/sh ../libtool  --tag=CC   --mode=compile x86_64-pc-linux-gnu-gcc -DHAVE_CONFIG_H -I. -I/tmp/portage/dev-libs/mpc-1.1.0-r1/work/mpc-1.1.0/src -I..     -O2 -pipe -Wl,-O4 -Wl,-O4,--sort-common,--as-needed,-z,norelro,-z,now -c -o mul.lo /tmp/portage/dev-libs/mpc-1.1.0-r1/work/mpc-1.1.0/src/mul.c
libtool: compile:  x86_64-pc-linux-gnu-gcc -DHAVE_CONFIG_H -I. -I/tmp/portage/dev-libs/mpc-1.1.0-r1/work/mpc-1.1.0/src -I.. -O2 -pipe -Wl,-O4 -Wl,-O4,--sort-common,--as-needed,-z,norelro,-z,now -c /tmp/portage/dev-libs/mpc-1.1.0-r1/work/mpc-1.1.0/src/init3.c  -fPIC -DPIC -o .libs/init3.o
libtool: compile:  x86_64-pc-linux-gnu-gcc -DHAVE_CONFIG_H -I. -I/tmp/portage/dev-libs/mpc-1.1.0-r1/work/mpc-1.1.0/src -I.. -O2 -pipe -Wl,-O4 -Wl,-O4,--sort-common,--as-needed,-z,norelro,-z,now -c /tmp/portage/dev-libs/mpc-1.1.0-r1/work/mpc-1.1.0/src/inp_str.c  -fPIC -DPIC -o .libs/inp_str.o
libtool: compile:  x86_64-pc-linux-gnu-gcc -DHAVE_CONFIG_H -I. -I/tmp/portage/dev-libs/mpc-1.1.0-r1/work/mpc-1.1.0/src -I.. -O2 -pipe -Wl,-O4 -Wl,-O4,--sort-common,--as-needed,-z,norelro,-z,now -c /tmp/portage/dev-libs/mpc-1.1.0-r1/work/mpc-1.1.0/src/init2.c  -fPIC -DPIC -o .libs/init2.o
/bin/sh ../libtool  --tag=CC   --mode=compile x86_64-pc-linux-gnu-gcc -DHAVE_CONFIG_H -I. -I/tmp/portage/dev-libs/mpc-1.1.0-r1/work/mpc-1.1.0/src -I..     -O2 -pipe -Wl,-O4 -Wl,-O4,--sort-common,--as-needed,-z,norelro,-z,now -c -o mul_fr.lo /tmp/portage/dev-libs/mpc-1.1.0-r1/work/mpc-1.1.0/src/mul_fr.c
libtool: compile:  x86_64-pc-linux-gnu-gcc -DHAVE_CONFIG_H -I. -I/tmp/portage/dev-libs/mpc-1.1.0-r1/work/mpc-1.1.0/src -I.. -O2 -pipe -Wl,-O4 -Wl,-O4,--sort-common,--as-needed,-z,norelro,-z,now -c /tmp/portage/dev-libs/mpc-1.1.0-r1/work/mpc-1.1.0/src/mem.c  -fPIC -DPIC -o .libs/mem.o
libtool: compile:  x86_64-pc-linux-gnu-gcc -DHAVE_CONFIG_H -I. -I/tmp/portage/dev-libs/mpc-1.1.0-r1/work/mpc-1.1.0/src -I.. -O2 -pipe -Wl,-O4 -Wl,-O4,--sort-common,--as-needed,-z,norelro,-z,now -c /tmp/portage/dev-libs/mpc-1.1.0-r1/work/mpc-1.1.0/src/log10.c  -fPIC -DPIC -o .libs/log10.o
libtool: compile:  x86_64-pc-linux-gnu-gcc -DHAVE_CONFIG_H -I. -I/tmp/portage/dev-libs/mpc-1.1.0-r1/work/mpc-1.1.0/src -I.. -O2 -pipe -Wl,-O4 -Wl,-O4,--sort-common,--as-needed,-z,norelro,-z,now -c /tmp/portage/dev-libs/mpc-1.1.0-r1/work/mpc-1.1.0/src/log.c  -fPIC -DPIC -o .libs/log.o
/bin/sh ../libtool  --tag=CC   --mode=compile x86_64-pc-linux-gnu-gcc -DHAVE_CONFIG_H -I. -I/tmp/portage/dev-libs/mpc-1.1.0-r1/work/mpc-1.1.0/src -I..     -O2 -pipe -Wl,-O4 -Wl,-O4,--sort-common,--as-needed,-z,norelro,-z,now -c -o mul_i.lo /tmp/portage/dev-libs/mpc-1.1.0-r1/work/mpc-1.1.0/src/mul_i.c
libtool: compile:  x86_64-pc-linux-gnu-gcc -DHAVE_CONFIG_H -I. -I/tmp/portage/dev-libs/mpc-1.1.0-r1/work/mpc-1.1.0/src -I.. -O2 -pipe -Wl,-O4 -Wl,-O4,--sort-common,--as-needed,-z,norelro,-z,now -c /tmp/portage/dev-libs/mpc-1.1.0-r1/work/mpc-1.1.0/src/mul_2ui.c  -fPIC -DPIC -o .libs/mul_2ui.o
libtool: compile:  x86_64-pc-linux-gnu-gcc -DHAVE_CONFIG_H -I. -I/tmp/portage/dev-libs/mpc-1.1.0-r1/work/mpc-1.1.0/src -I.. -O2 -pipe -Wl,-O4 -Wl,-O4,--sort-common,--as-needed,-z,norelro,-z,now -c /tmp/portage/dev-libs/mpc-1.1.0-r1/work/mpc-1.1.0/src/mul.c  -fPIC -DPIC -o .libs/mul.o
/bin/sh ../libtool  --tag=CC   --mode=compile x86_64-pc-linux-gnu-gcc -DHAVE_CONFIG_H -I. -I/tmp/portage/dev-libs/mpc-1.1.0-r1/work/mpc-1.1.0/src -I..     -O2 -pipe -Wl,-O4 -Wl,-O4,--sort-common,--as-needed,-z,norelro,-z,now -c -o mul_si.lo /tmp/portage/dev-libs/mpc-1.1.0-r1/work/mpc-1.1.0/src/mul_si.c
libtool: compile:  x86_64-pc-linux-gnu-gcc -DHAVE_CONFIG_H -I. -I/tmp/portage/dev-libs/mpc-1.1.0-r1/work/mpc-1.1.0/src -I.. -O2 -pipe -Wl,-O4 -Wl,-O4,--sort-common,--as-needed,-z,norelro,-z,now -c /tmp/portage/dev-libs/mpc-1.1.0-r1/work/mpc-1.1.0/src/mul_2si.c  -fPIC -DPIC -o .libs/mul_2si.o
libtool: compile:  x86_64-pc-linux-gnu-gcc -DHAVE_CONFIG_H -I. -I/tmp/portage/dev-libs/mpc-1.1.0-r1/work/mpc-1.1.0/src -I.. -O2 -pipe -Wl,-O4 -Wl,-O4,--sort-common,--as-needed,-z,norelro,-z,now -c /tmp/portage/dev-libs/mpc-1.1.0-r1/work/mpc-1.1.0/src/mul_fr.c  -fPIC -DPIC -o .libs/mul_fr.o
/bin/sh ../libtool  --tag=CC   --mode=compile x86_64-pc-linux-gnu-gcc -DHAVE_CONFIG_H -I. -I/tmp/portage/dev-libs/mpc-1.1.0-r1/work/mpc-1.1.0/src -I..     -O2 -pipe -Wl,-O4 -Wl,-O4,--sort-common,--as-needed,-z,norelro,-z,now -c -o mul_ui.lo /tmp/portage/dev-libs/mpc-1.1.0-r1/work/mpc-1.1.0/src/mul_ui.c
/bin/sh ../libtool  --tag=CC   --mode=compile x86_64-pc-linux-gnu-gcc -DHAVE_CONFIG_H -I. -I/tmp/portage/dev-libs/mpc-1.1.0-r1/work/mpc-1.1.0/src -I..     -O2 -pipe -Wl,-O4 -Wl,-O4,--sort-common,--as-needed,-z,norelro,-z,now -c -o neg.lo /tmp/portage/dev-libs/mpc-1.1.0-r1/work/mpc-1.1.0/src/neg.c
libtool: compile:  x86_64-pc-linux-gnu-gcc -DHAVE_CONFIG_H -I. -I/tmp/portage/dev-libs/mpc-1.1.0-r1/work/mpc-1.1.0/src -I.. -O2 -pipe -Wl,-O4 -Wl,-O4,--sort-common,--as-needed,-z,norelro,-z,now -c /tmp/portage/dev-libs/mpc-1.1.0-r1/work/mpc-1.1.0/src/mul_i.c  -fPIC -DPIC -o .libs/mul_i.o
libtool: compile:  x86_64-pc-linux-gnu-gcc -DHAVE_CONFIG_H -I. -I/tmp/portage/dev-libs/mpc-1.1.0-r1/work/mpc-1.1.0/src -I.. -O2 -pipe -Wl,-O4 -Wl,-O4,--sort-common,--as-needed,-z,norelro,-z,now -c /tmp/portage/dev-libs/mpc-1.1.0-r1/work/mpc-1.1.0/src/mul_si.c  -fPIC -DPIC -o .libs/mul_si.o
/bin/sh ../libtool  --tag=CC   --mode=compile x86_64-pc-linux-gnu-gcc -DHAVE_CONFIG_H -I. -I/tmp/portage/dev-libs/mpc-1.1.0-r1/work/mpc-1.1.0/src -I..     -O2 -pipe -Wl,-O4 -Wl,-O4,--sort-common,--as-needed,-z,norelro,-z,now -c -o norm.lo /tmp/portage/dev-libs/mpc-1.1.0-r1/work/mpc-1.1.0/src/norm.c
/bin/sh ../libtool  --tag=CC   --mode=compile x86_64-pc-linux-gnu-gcc -DHAVE_CONFIG_H -I. -I/tmp/portage/dev-libs/mpc-1.1.0-r1/work/mpc-1.1.0/src -I..     -O2 -pipe -Wl,-O4 -Wl,-O4,--sort-common,--as-needed,-z,norelro,-z,now -c -o out_str.lo /tmp/portage/dev-libs/mpc-1.1.0-r1/work/mpc-1.1.0/src/out_str.c
/bin/sh ../libtool  --tag=CC   --mode=compile x86_64-pc-linux-gnu-gcc -DHAVE_CONFIG_H -I. -I/tmp/portage/dev-libs/mpc-1.1.0-r1/work/mpc-1.1.0/src -I..     -O2 -pipe -Wl,-O4 -Wl,-O4,--sort-common,--as-needed,-z,norelro,-z,now -c -o pow.lo /tmp/portage/dev-libs/mpc-1.1.0-r1/work/mpc-1.1.0/src/pow.c
libtool: compile:  x86_64-pc-linux-gnu-gcc -DHAVE_CONFIG_H -I. -I/tmp/portage/dev-libs/mpc-1.1.0-r1/work/mpc-1.1.0/src -I.. -O2 -pipe -Wl,-O4 -Wl,-O4,--sort-common,--as-needed,-z,norelro,-z,now -c /tmp/portage/dev-libs/mpc-1.1.0-r1/work/mpc-1.1.0/src/mul_ui.c  -fPIC -DPIC -o .libs/mul_ui.o
/bin/sh ../libtool  --tag=CC   --mode=compile x86_64-pc-linux-gnu-gcc -DHAVE_CONFIG_H -I. -I/tmp/portage/dev-libs/mpc-1.1.0-r1/work/mpc-1.1.0/src -I..     -O2 -pipe -Wl,-O4 -Wl,-O4,--sort-common,--as-needed,-z,norelro,-z,now -c -o pow_fr.lo /tmp/portage/dev-libs/mpc-1.1.0-r1/work/mpc-1.1.0/src/pow_fr.c
libtool: compile:  x86_64-pc-linux-gnu-gcc -DHAVE_CONFIG_H -I. -I/tmp/portage/dev-libs/mpc-1.1.0-r1/work/mpc-1.1.0/src -I.. -O2 -pipe -Wl,-O4 -Wl,-O4,--sort-common,--as-needed,-z,norelro,-z,now -c /tmp/portage/dev-libs/mpc-1.1.0-r1/work/mpc-1.1.0/src/neg.c  -fPIC -DPIC -o .libs/neg.o
/bin/sh ../libtool  --tag=CC   --mode=compile x86_64-pc-linux-gnu-gcc -DHAVE_CONFIG_H -I. -I/tmp/portage/dev-libs/mpc-1.1.0-r1/work/mpc-1.1.0/src -I..     -O2 -pipe -Wl,-O4 -Wl,-O4,--sort-common,--as-needed,-z,norelro,-z,now -c -o pow_ld.lo /tmp/portage/dev-libs/mpc-1.1.0-r1/work/mpc-1.1.0/src/pow_ld.c
/bin/sh ../libtool  --tag=CC   --mode=compile x86_64-pc-linux-gnu-gcc -DHAVE_CONFIG_H -I. -I/tmp/portage/dev-libs/mpc-1.1.0-r1/work/mpc-1.1.0/src -I..     -O2 -pipe -Wl,-O4 -Wl,-O4,--sort-common,--as-needed,-z,norelro,-z,now -c -o pow_d.lo /tmp/portage/dev-libs/mpc-1.1.0-r1/work/mpc-1.1.0/src/pow_d.c
libtool: compile:  x86_64-pc-linux-gnu-gcc -DHAVE_CONFIG_H -I. -I/tmp/portage/dev-libs/mpc-1.1.0-r1/work/mpc-1.1.0/src -I.. -O2 -pipe -Wl,-O4 -Wl,-O4,--sort-common,--as-needed,-z,norelro,-z,now -c /tmp/portage/dev-libs/mpc-1.1.0-r1/work/mpc-1.1.0/src/norm.c  -fPIC -DPIC -o .libs/norm.o
libtool: compile:  x86_64-pc-linux-gnu-gcc -DHAVE_CONFIG_H -I. -I/tmp/portage/dev-libs/mpc-1.1.0-r1/work/mpc-1.1.0/src -I.. -O2 -pipe -Wl,-O4 -Wl,-O4,--sort-common,--as-needed,-z,norelro,-z,now -c /tmp/portage/dev-libs/mpc-1.1.0-r1/work/mpc-1.1.0/src/out_str.c  -fPIC -DPIC -o .libs/out_str.o
/bin/sh ../libtool  --tag=CC   --mode=compile x86_64-pc-linux-gnu-gcc -DHAVE_CONFIG_H -I. -I/tmp/portage/dev-libs/mpc-1.1.0-r1/work/mpc-1.1.0/src -I..     -O2 -pipe -Wl,-O4 -Wl,-O4,--sort-common,--as-needed,-z,norelro,-z,now -c -o pow_si.lo /tmp/portage/dev-libs/mpc-1.1.0-r1/work/mpc-1.1.0/src/pow_si.c
libtool: compile:  x86_64-pc-linux-gnu-gcc -DHAVE_CONFIG_H -I. -I/tmp/portage/dev-libs/mpc-1.1.0-r1/work/mpc-1.1.0/src -I.. -O2 -pipe -Wl,-O4 -Wl,-O4,--sort-common,--as-needed,-z,norelro,-z,now -c /tmp/portage/dev-libs/mpc-1.1.0-r1/work/mpc-1.1.0/src/pow.c  -fPIC -DPIC -o .libs/pow.o
/bin/sh ../libtool  --tag=CC   --mode=compile x86_64-pc-linux-gnu-gcc -DHAVE_CONFIG_H -I. -I/tmp/portage/dev-libs/mpc-1.1.0-r1/work/mpc-1.1.0/src -I..     -O2 -pipe -Wl,-O4 -Wl,-O4,--sort-common,--as-needed,-z,norelro,-z,now -c -o pow_ui.lo /tmp/portage/dev-libs/mpc-1.1.0-r1/work/mpc-1.1.0/src/pow_ui.c
libtool: compile:  x86_64-pc-linux-gnu-gcc -DHAVE_CONFIG_H -I. -I/tmp/portage/dev-libs/mpc-1.1.0-r1/work/mpc-1.1.0/src -I.. -O2 -pipe -Wl,-O4 -Wl,-O4,--sort-common,--as-needed,-z,norelro,-z,now -c /tmp/portage/dev-libs/mpc-1.1.0-r1/work/mpc-1.1.0/src/pow_fr.c  -fPIC -DPIC -o .libs/pow_fr.o
/bin/sh ../libtool  --tag=CC   --mode=compile x86_64-pc-linux-gnu-gcc -DHAVE_CONFIG_H -I. -I/tmp/portage/dev-libs/mpc-1.1.0-r1/work/mpc-1.1.0/src -I..     -O2 -pipe -Wl,-O4 -Wl,-O4,--sort-common,--as-needed,-z,norelro,-z,now -c -o pow_z.lo /tmp/portage/dev-libs/mpc-1.1.0-r1/work/mpc-1.1.0/src/pow_z.c
libtool: compile:  x86_64-pc-linux-gnu-gcc -DHAVE_CONFIG_H -I. -I/tmp/portage/dev-libs/mpc-1.1.0-r1/work/mpc-1.1.0/src -I.. -O2 -pipe -Wl,-O4 -Wl,-O4,--sort-common,--as-needed,-z,norelro,-z,now -c /tmp/portage/dev-libs/mpc-1.1.0-r1/work/mpc-1.1.0/src/pow_ld.c  -fPIC -DPIC -o .libs/pow_ld.o
libtool: compile:  x86_64-pc-linux-gnu-gcc -DHAVE_CONFIG_H -I. -I/tmp/portage/dev-libs/mpc-1.1.0-r1/work/mpc-1.1.0/src -I.. -O2 -pipe -Wl,-O4 -Wl,-O4,--sort-common,--as-needed,-z,norelro,-z,now -c /tmp/portage/dev-libs/mpc-1.1.0-r1/work/mpc-1.1.0/src/pow_d.c  -fPIC -DPIC -o .libs/pow_d.o
/bin/sh ../libtool  --tag=CC   --mode=compile x86_64-pc-linux-gnu-gcc -DHAVE_CONFIG_H -I. -I/tmp/portage/dev-libs/mpc-1.1.0-r1/work/mpc-1.1.0/src -I..     -O2 -pipe -Wl,-O4 -Wl,-O4,--sort-common,--as-needed,-z,norelro,-z,now -c -o proj.lo /tmp/portage/dev-libs/mpc-1.1.0-r1/work/mpc-1.1.0/src/proj.c
/bin/sh ../libtool  --tag=CC   --mode=compile x86_64-pc-linux-gnu-gcc -DHAVE_CONFIG_H -I. -I/tmp/portage/dev-libs/mpc-1.1.0-r1/work/mpc-1.1.0/src -I..     -O2 -pipe -Wl,-O4 -Wl,-O4,--sort-common,--as-needed,-z,norelro,-z,now -c -o real.lo /tmp/portage/dev-libs/mpc-1.1.0-r1/work/mpc-1.1.0/src/real.c
libtool: compile:  x86_64-pc-linux-gnu-gcc -DHAVE_CONFIG_H -I. -I/tmp/portage/dev-libs/mpc-1.1.0-r1/work/mpc-1.1.0/src -I.. -O2 -pipe -Wl,-O4 -Wl,-O4,--sort-common,--as-needed,-z,norelro,-z,now -c /tmp/portage/dev-libs/mpc-1.1.0-r1/work/mpc-1.1.0/src/pow_si.c  -fPIC -DPIC -o .libs/pow_si.o
libtool: compile:  x86_64-pc-linux-gnu-gcc -DHAVE_CONFIG_H -I. -I/tmp/portage/dev-libs/mpc-1.1.0-r1/work/mpc-1.1.0/src -I.. -O2 -pipe -Wl,-O4 -Wl,-O4,--sort-common,--as-needed,-z,norelro,-z,now -c /tmp/portage/dev-libs/mpc-1.1.0-r1/work/mpc-1.1.0/src/pow_ui.c  -fPIC -DPIC -o .libs/pow_ui.o
/bin/sh ../libtool  --tag=CC   --mode=compile x86_64-pc-linux-gnu-gcc -DHAVE_CONFIG_H -I. -I/tmp/portage/dev-libs/mpc-1.1.0-r1/work/mpc-1.1.0/src -I..     -O2 -pipe -Wl,-O4 -Wl,-O4,--sort-common,--as-needed,-z,norelro,-z,now -c -o rootofunity.lo /tmp/portage/dev-libs/mpc-1.1.0-r1/work/mpc-1.1.0/src/rootofunity.c
/bin/sh ../libtool  --tag=CC   --mode=compile x86_64-pc-linux-gnu-gcc -DHAVE_CONFIG_H -I. -I/tmp/portage/dev-libs/mpc-1.1.0-r1/work/mpc-1.1.0/src -I..     -O2 -pipe -Wl,-O4 -Wl,-O4,--sort-common,--as-needed,-z,norelro,-z,now -c -o urandom.lo /tmp/portage/dev-libs/mpc-1.1.0-r1/work/mpc-1.1.0/src/urandom.c
libtool: compile:  x86_64-pc-linux-gnu-gcc -DHAVE_CONFIG_H -I. -I/tmp/portage/dev-libs/mpc-1.1.0-r1/work/mpc-1.1.0/src -I.. -O2 -pipe -Wl,-O4 -Wl,-O4,--sort-common,--as-needed,-z,norelro,-z,now -c /tmp/portage/dev-libs/mpc-1.1.0-r1/work/mpc-1.1.0/src/pow_z.c  -fPIC -DPIC -o .libs/pow_z.o
libtool: compile:  x86_64-pc-linux-gnu-gcc -DHAVE_CONFIG_H -I. -I/tmp/portage/dev-libs/mpc-1.1.0-r1/work/mpc-1.1.0/src -I.. -O2 -pipe -Wl,-O4 -Wl,-O4,--sort-common,--as-needed,-z,norelro,-z,now -c /tmp/portage/dev-libs/mpc-1.1.0-r1/work/mpc-1.1.0/src/proj.c  -fPIC -DPIC -o .libs/proj.o
/bin/sh ../libtool  --tag=CC   --mode=compile x86_64-pc-linux-gnu-gcc -DHAVE_CONFIG_H -I. -I/tmp/portage/dev-libs/mpc-1.1.0-r1/work/mpc-1.1.0/src -I..     -O2 -pipe -Wl,-O4 -Wl,-O4,--sort-common,--as-needed,-z,norelro,-z,now -c -o set.lo /tmp/portage/dev-libs/mpc-1.1.0-r1/work/mpc-1.1.0/src/set.c
/bin/sh ../libtool  --tag=CC   --mode=compile x86_64-pc-linux-gnu-gcc -DHAVE_CONFIG_H -I. -I/tmp/portage/dev-libs/mpc-1.1.0-r1/work/mpc-1.1.0/src -I..     -O2 -pipe -Wl,-O4 -Wl,-O4,--sort-common,--as-needed,-z,norelro,-z,now -c -o set_prec.lo /tmp/portage/dev-libs/mpc-1.1.0-r1/work/mpc-1.1.0/src/set_prec.c
libtool: compile:  x86_64-pc-linux-gnu-gcc -DHAVE_CONFIG_H -I. -I/tmp/portage/dev-libs/mpc-1.1.0-r1/work/mpc-1.1.0/src -I.. -O2 -pipe -Wl,-O4 -Wl,-O4,--sort-common,--as-needed,-z,norelro,-z,now -c /tmp/portage/dev-libs/mpc-1.1.0-r1/work/mpc-1.1.0/src/real.c  -fPIC -DPIC -o .libs/real.o
/bin/sh ../libtool  --tag=CC   --mode=compile x86_64-pc-linux-gnu-gcc -DHAVE_CONFIG_H -I. -I/tmp/portage/dev-libs/mpc-1.1.0-r1/work/mpc-1.1.0/src -I..     -O2 -pipe -Wl,-O4 -Wl,-O4,--sort-common,--as-needed,-z,norelro,-z,now -c -o set_str.lo /tmp/portage/dev-libs/mpc-1.1.0-r1/work/mpc-1.1.0/src/set_str.c
/bin/sh ../libtool  --tag=CC   --mode=compile x86_64-pc-linux-gnu-gcc -DHAVE_CONFIG_H -I. -I/tmp/portage/dev-libs/mpc-1.1.0-r1/work/mpc-1.1.0/src -I..     -O2 -pipe -Wl,-O4 -Wl,-O4,--sort-common,--as-needed,-z,norelro,-z,now -c -o set_x.lo /tmp/portage/dev-libs/mpc-1.1.0-r1/work/mpc-1.1.0/src/set_x.c
libtool: compile:  x86_64-pc-linux-gnu-gcc -DHAVE_CONFIG_H -I. -I/tmp/portage/dev-libs/mpc-1.1.0-r1/work/mpc-1.1.0/src -I.. -O2 -pipe -Wl,-O4 -Wl,-O4,--sort-common,--as-needed,-z,norelro,-z,now -c /tmp/portage/dev-libs/mpc-1.1.0-r1/work/mpc-1.1.0/src/rootofunity.c  -fPIC -DPIC -o .libs/rootofunity.o
libtool: compile:  x86_64-pc-linux-gnu-gcc -DHAVE_CONFIG_H -I. -I/tmp/portage/dev-libs/mpc-1.1.0-r1/work/mpc-1.1.0/src -I.. -O2 -pipe -Wl,-O4 -Wl,-O4,--sort-common,--as-needed,-z,norelro,-z,now -c /tmp/portage/dev-libs/mpc-1.1.0-r1/work/mpc-1.1.0/src/urandom.c  -fPIC -DPIC -o .libs/urandom.o
/bin/sh ../libtool  --tag=CC   --mode=compile x86_64-pc-linux-gnu-gcc -DHAVE_CONFIG_H -I. -I/tmp/portage/dev-libs/mpc-1.1.0-r1/work/mpc-1.1.0/src -I..     -O2 -pipe -Wl,-O4 -Wl,-O4,--sort-common,--as-needed,-z,norelro,-z,now -c -o set_x_x.lo /tmp/portage/dev-libs/mpc-1.1.0-r1/work/mpc-1.1.0/src/set_x_x.c
/bin/sh ../libtool  --tag=CC   --mode=compile x86_64-pc-linux-gnu-gcc -DHAVE_CONFIG_H -I. -I/tmp/portage/dev-libs/mpc-1.1.0-r1/work/mpc-1.1.0/src -I..     -O2 -pipe -Wl,-O4 -Wl,-O4,--sort-common,--as-needed,-z,norelro,-z,now -c -o sin.lo /tmp/portage/dev-libs/mpc-1.1.0-r1/work/mpc-1.1.0/src/sin.c
libtool: compile:  x86_64-pc-linux-gnu-gcc -DHAVE_CONFIG_H -I. -I/tmp/portage/dev-libs/mpc-1.1.0-r1/work/mpc-1.1.0/src -I.. -O2 -pipe -Wl,-O4 -Wl,-O4,--sort-common,--as-needed,-z,norelro,-z,now -c /tmp/portage/dev-libs/mpc-1.1.0-r1/work/mpc-1.1.0/src/set.c  -fPIC -DPIC -o .libs/set.o
libtool: compile:  x86_64-pc-linux-gnu-gcc -DHAVE_CONFIG_H -I. -I/tmp/portage/dev-libs/mpc-1.1.0-r1/work/mpc-1.1.0/src -I.. -O2 -pipe -Wl,-O4 -Wl,-O4,--sort-common,--as-needed,-z,norelro,-z,now -c /tmp/portage/dev-libs/mpc-1.1.0-r1/work/mpc-1.1.0/src/set_prec.c  -fPIC -DPIC -o .libs/set_prec.o
libtool: compile:  x86_64-pc-linux-gnu-gcc -DHAVE_CONFIG_H -I. -I/tmp/portage/dev-libs/mpc-1.1.0-r1/work/mpc-1.1.0/src -I.. -O2 -pipe -Wl,-O4 -Wl,-O4,--sort-common,--as-needed,-z,norelro,-z,now -c /tmp/portage/dev-libs/mpc-1.1.0-r1/work/mpc-1.1.0/src/set_str.c  -fPIC -DPIC -o .libs/set_str.o
/bin/sh ../libtool  --tag=CC   --mode=compile x86_64-pc-linux-gnu-gcc -DHAVE_CONFIG_H -I. -I/tmp/portage/dev-libs/mpc-1.1.0-r1/work/mpc-1.1.0/src -I..     -O2 -pipe -Wl,-O4 -Wl,-O4,--sort-common,--as-needed,-z,norelro,-z,now -c -o sin_cos.lo /tmp/portage/dev-libs/mpc-1.1.0-r1/work/mpc-1.1.0/src/sin_cos.c
/bin/sh ../libtool  --tag=CC   --mode=compile x86_64-pc-linux-gnu-gcc -DHAVE_CONFIG_H -I. -I/tmp/portage/dev-libs/mpc-1.1.0-r1/work/mpc-1.1.0/src -I..     -O2 -pipe -Wl,-O4 -Wl,-O4,--sort-common,--as-needed,-z,norelro,-z,now -c -o sinh.lo /tmp/portage/dev-libs/mpc-1.1.0-r1/work/mpc-1.1.0/src/sinh.c
libtool: compile:  x86_64-pc-linux-gnu-gcc -DHAVE_CONFIG_H -I. -I/tmp/portage/dev-libs/mpc-1.1.0-r1/work/mpc-1.1.0/src -I.. -O2 -pipe -Wl,-O4 -Wl,-O4,--sort-common,--as-needed,-z,norelro,-z,now -c /tmp/portage/dev-libs/mpc-1.1.0-r1/work/mpc-1.1.0/src/set_x.c  -fPIC -DPIC -o .libs/set_x.o
/bin/sh ../libtool  --tag=CC   --mode=compile x86_64-pc-linux-gnu-gcc -DHAVE_CONFIG_H -I. -I/tmp/portage/dev-libs/mpc-1.1.0-r1/work/mpc-1.1.0/src -I..     -O2 -pipe -Wl,-O4 -Wl,-O4,--sort-common,--as-needed,-z,norelro,-z,now -c -o sqr.lo /tmp/portage/dev-libs/mpc-1.1.0-r1/work/mpc-1.1.0/src/sqr.c
libtool: compile:  x86_64-pc-linux-gnu-gcc -DHAVE_CONFIG_H -I. -I/tmp/portage/dev-libs/mpc-1.1.0-r1/work/mpc-1.1.0/src -I.. -O2 -pipe -Wl,-O4 -Wl,-O4,--sort-common,--as-needed,-z,norelro,-z,now -c /tmp/portage/dev-libs/mpc-1.1.0-r1/work/mpc-1.1.0/src/set_x_x.c  -fPIC -DPIC -o .libs/set_x_x.o
/bin/sh ../libtool  --tag=CC   --mode=compile x86_64-pc-linux-gnu-gcc -DHAVE_CONFIG_H -I. -I/tmp/portage/dev-libs/mpc-1.1.0-r1/work/mpc-1.1.0/src -I..     -O2 -pipe -Wl,-O4 -Wl,-O4,--sort-common,--as-needed,-z,norelro,-z,now -c -o sqrt.lo /tmp/portage/dev-libs/mpc-1.1.0-r1/work/mpc-1.1.0/src/sqrt.c
libtool: compile:  x86_64-pc-linux-gnu-gcc -DHAVE_CONFIG_H -I. -I/tmp/portage/dev-libs/mpc-1.1.0-r1/work/mpc-1.1.0/src -I.. -O2 -pipe -Wl,-O4 -Wl,-O4,--sort-common,--as-needed,-z,norelro,-z,now -c /tmp/portage/dev-libs/mpc-1.1.0-r1/work/mpc-1.1.0/src/sin_cos.c  -fPIC -DPIC -o .libs/sin_cos.o
libtool: compile:  x86_64-pc-linux-gnu-gcc -DHAVE_CONFIG_H -I. -I/tmp/portage/dev-libs/mpc-1.1.0-r1/work/mpc-1.1.0/src -I.. -O2 -pipe -Wl,-O4 -Wl,-O4,--sort-common,--as-needed,-z,norelro,-z,now -c /tmp/portage/dev-libs/mpc-1.1.0-r1/work/mpc-1.1.0/src/sinh.c  -fPIC -DPIC -o .libs/sinh.o
/bin/sh ../libtool  --tag=CC   --mode=compile x86_64-pc-linux-gnu-gcc -DHAVE_CONFIG_H -I. -I/tmp/portage/dev-libs/mpc-1.1.0-r1/work/mpc-1.1.0/src -I..     -O2 -pipe -Wl,-O4 -Wl,-O4,--sort-common,--as-needed,-z,norelro,-z,now -c -o strtoc.lo /tmp/portage/dev-libs/mpc-1.1.0-r1/work/mpc-1.1.0/src/strtoc.c
libtool: compile:  x86_64-pc-linux-gnu-gcc -DHAVE_CONFIG_H -I. -I/tmp/portage/dev-libs/mpc-1.1.0-r1/work/mpc-1.1.0/src -I.. -O2 -pipe -Wl,-O4 -Wl,-O4,--sort-common,--as-needed,-z,norelro,-z,now -c /tmp/portage/dev-libs/mpc-1.1.0-r1/work/mpc-1.1.0/src/sin.c  -fPIC -DPIC -o .libs/sin.o
/bin/sh ../libtool  --tag=CC   --mode=compile x86_64-pc-linux-gnu-gcc -DHAVE_CONFIG_H -I. -I/tmp/portage/dev-libs/mpc-1.1.0-r1/work/mpc-1.1.0/src -I..     -O2 -pipe -Wl,-O4 -Wl,-O4,--sort-common,--as-needed,-z,norelro,-z,now -c -o sub.lo /tmp/portage/dev-libs/mpc-1.1.0-r1/work/mpc-1.1.0/src/sub.c
libtool: compile:  x86_64-pc-linux-gnu-gcc -DHAVE_CONFIG_H -I. -I/tmp/portage/dev-libs/mpc-1.1.0-r1/work/mpc-1.1.0/src -I.. -O2 -pipe -Wl,-O4 -Wl,-O4,--sort-common,--as-needed,-z,norelro,-z,now -c /tmp/portage/dev-libs/mpc-1.1.0-r1/work/mpc-1.1.0/src/sqrt.c  -fPIC -DPIC -o .libs/sqrt.o
/bin/sh ../libtool  --tag=CC   --mode=compile x86_64-pc-linux-gnu-gcc -DHAVE_CONFIG_H -I. -I/tmp/portage/dev-libs/mpc-1.1.0-r1/work/mpc-1.1.0/src -I..     -O2 -pipe -Wl,-O4 -Wl,-O4,--sort-common,--as-needed,-z,norelro,-z,now -c -o sub_fr.lo /tmp/portage/dev-libs/mpc-1.1.0-r1/work/mpc-1.1.0/src/sub_fr.c
/bin/sh ../libtool  --tag=CC   --mode=compile x86_64-pc-linux-gnu-gcc -DHAVE_CONFIG_H -I. -I/tmp/portage/dev-libs/mpc-1.1.0-r1/work/mpc-1.1.0/src -I..     -O2 -pipe -Wl,-O4 -Wl,-O4,--sort-common,--as-needed,-z,norelro,-z,now -c -o sub_ui.lo /tmp/portage/dev-libs/mpc-1.1.0-r1/work/mpc-1.1.0/src/sub_ui.c
libtool: compile:  x86_64-pc-linux-gnu-gcc -DHAVE_CONFIG_H -I. -I/tmp/portage/dev-libs/mpc-1.1.0-r1/work/mpc-1.1.0/src -I.. -O2 -pipe -Wl,-O4 -Wl,-O4,--sort-common,--as-needed,-z,norelro,-z,now -c /tmp/portage/dev-libs/mpc-1.1.0-r1/work/mpc-1.1.0/src/sqr.c  -fPIC -DPIC -o .libs/sqr.o
/bin/sh ../libtool  --tag=CC   --mode=compile x86_64-pc-linux-gnu-gcc -DHAVE_CONFIG_H -I. -I/tmp/portage/dev-libs/mpc-1.1.0-r1/work/mpc-1.1.0/src -I..     -O2 -pipe -Wl,-O4 -Wl,-O4,--sort-common,--as-needed,-z,norelro,-z,now -c -o swap.lo /tmp/portage/dev-libs/mpc-1.1.0-r1/work/mpc-1.1.0/src/swap.c
/bin/sh ../libtool  --tag=CC   --mode=compile x86_64-pc-linux-gnu-gcc -DHAVE_CONFIG_H -I. -I/tmp/portage/dev-libs/mpc-1.1.0-r1/work/mpc-1.1.0/src -I..     -O2 -pipe -Wl,-O4 -Wl,-O4,--sort-common,--as-needed,-z,norelro,-z,now -c -o tan.lo /tmp/portage/dev-libs/mpc-1.1.0-r1/work/mpc-1.1.0/src/tan.c
libtool: compile:  x86_64-pc-linux-gnu-gcc -DHAVE_CONFIG_H -I. -I/tmp/portage/dev-libs/mpc-1.1.0-r1/work/mpc-1.1.0/src -I.. -O2 -pipe -Wl,-O4 -Wl,-O4,--sort-common,--as-needed,-z,norelro,-z,now -c /tmp/portage/dev-libs/mpc-1.1.0-r1/work/mpc-1.1.0/src/sub_ui.c  -fPIC -DPIC -o .libs/sub_ui.o
/bin/sh ../libtool  --tag=CC   --mode=compile x86_64-pc-linux-gnu-gcc -DHAVE_CONFIG_H -I. -I/tmp/portage/dev-libs/mpc-1.1.0-r1/work/mpc-1.1.0/src -I..     -O2 -pipe -Wl,-O4 -Wl,-O4,--sort-common,--as-needed,-z,norelro,-z,now -c -o tanh.lo /tmp/portage/dev-libs/mpc-1.1.0-r1/work/mpc-1.1.0/src/tanh.c
libtool: compile:  x86_64-pc-linux-gnu-gcc -DHAVE_CONFIG_H -I. -I/tmp/portage/dev-libs/mpc-1.1.0-r1/work/mpc-1.1.0/src -I.. -O2 -pipe -Wl,-O4 -Wl,-O4,--sort-common,--as-needed,-z,norelro,-z,now -c /tmp/portage/dev-libs/mpc-1.1.0-r1/work/mpc-1.1.0/src/sub.c  -fPIC -DPIC -o .libs/sub.o
libtool: compile:  x86_64-pc-linux-gnu-gcc -DHAVE_CONFIG_H -I. -I/tmp/portage/dev-libs/mpc-1.1.0-r1/work/mpc-1.1.0/src -I.. -O2 -pipe -Wl,-O4 -Wl,-O4,--sort-common,--as-needed,-z,norelro,-z,now -c /tmp/portage/dev-libs/mpc-1.1.0-r1/work/mpc-1.1.0/src/strtoc.c  -fPIC -DPIC -o .libs/strtoc.o
/bin/sh ../libtool  --tag=CC   --mode=compile x86_64-pc-linux-gnu-gcc -DHAVE_CONFIG_H -I. -I/tmp/portage/dev-libs/mpc-1.1.0-r1/work/mpc-1.1.0/src -I..     -O2 -pipe -Wl,-O4 -Wl,-O4,--sort-common,--as-needed,-z,norelro,-z,now -c -o uceil_log2.lo /tmp/portage/dev-libs/mpc-1.1.0-r1/work/mpc-1.1.0/src/uceil_log2.c
libtool: compile:  x86_64-pc-linux-gnu-gcc -DHAVE_CONFIG_H -I. -I/tmp/portage/dev-libs/mpc-1.1.0-r1/work/mpc-1.1.0/src -I.. -O2 -pipe -Wl,-O4 -Wl,-O4,--sort-common,--as-needed,-z,norelro,-z,now -c /tmp/portage/dev-libs/mpc-1.1.0-r1/work/mpc-1.1.0/src/sub_fr.c  -fPIC -DPIC -o .libs/sub_fr.o
/bin/sh ../libtool  --tag=CC   --mode=compile x86_64-pc-linux-gnu-gcc -DHAVE_CONFIG_H -I. -I/tmp/portage/dev-libs/mpc-1.1.0-r1/work/mpc-1.1.0/src -I..     -O2 -pipe -Wl,-O4 -Wl,-O4,--sort-common,--as-needed,-z,norelro,-z,now -c -o ui_div.lo /tmp/portage/dev-libs/mpc-1.1.0-r1/work/mpc-1.1.0/src/ui_div.c
libtool: compile:  x86_64-pc-linux-gnu-gcc -DHAVE_CONFIG_H -I. -I/tmp/portage/dev-libs/mpc-1.1.0-r1/work/mpc-1.1.0/src -I.. -O2 -pipe -Wl,-O4 -Wl,-O4,--sort-common,--as-needed,-z,norelro,-z,now -c /tmp/portage/dev-libs/mpc-1.1.0-r1/work/mpc-1.1.0/src/swap.c  -fPIC -DPIC -o .libs/swap.o
libtool: compile:  x86_64-pc-linux-gnu-gcc -DHAVE_CONFIG_H -I. -I/tmp/portage/dev-libs/mpc-1.1.0-r1/work/mpc-1.1.0/src -I.. -O2 -pipe -Wl,-O4 -Wl,-O4,--sort-common,--as-needed,-z,norelro,-z,now -c /tmp/portage/dev-libs/mpc-1.1.0-r1/work/mpc-1.1.0/src/tanh.c  -fPIC -DPIC -o .libs/tanh.o
libtool: compile:  x86_64-pc-linux-gnu-gcc -DHAVE_CONFIG_H -I. -I/tmp/portage/dev-libs/mpc-1.1.0-r1/work/mpc-1.1.0/src -I.. -O2 -pipe -Wl,-O4 -Wl,-O4,--sort-common,--as-needed,-z,norelro,-z,now -c /tmp/portage/dev-libs/mpc-1.1.0-r1/work/mpc-1.1.0/src/ui_div.c  -fPIC -DPIC -o .libs/ui_div.o
libtool: compile:  x86_64-pc-linux-gnu-gcc -DHAVE_CONFIG_H -I. -I/tmp/portage/dev-libs/mpc-1.1.0-r1/work/mpc-1.1.0/src -I.. -O2 -pipe -Wl,-O4 -Wl,-O4,--sort-common,--as-needed,-z,norelro,-z,now -c /tmp/portage/dev-libs/mpc-1.1.0-r1/work/mpc-1.1.0/src/tan.c  -fPIC -DPIC -o .libs/tan.o
libtool: compile:  x86_64-pc-linux-gnu-gcc -DHAVE_CONFIG_H -I. -I/tmp/portage/dev-libs/mpc-1.1.0-r1/work/mpc-1.1.0/src -I.. -O2 -pipe -Wl,-O4 -Wl,-O4,--sort-common,--as-needed,-z,norelro,-z,now -c /tmp/portage/dev-libs/mpc-1.1.0-r1/work/mpc-1.1.0/src/uceil_log2.c  -fPIC -DPIC -o .libs/uceil_log2.o
/bin/sh ../libtool  --tag=CC   --mode=compile x86_64-pc-linux-gnu-gcc -DHAVE_CONFIG_H -I. -I/tmp/portage/dev-libs/mpc-1.1.0-r1/work/mpc-1.1.0/src -I..     -O2 -pipe -Wl,-O4 -Wl,-O4,--sort-common,--as-needed,-z,norelro,-z,now -c -o ui_ui_sub.lo /tmp/portage/dev-libs/mpc-1.1.0-r1/work/mpc-1.1.0/src/ui_ui_sub.c
libtool: compile:  x86_64-pc-linux-gnu-gcc -DHAVE_CONFIG_H -I. -I/tmp/portage/dev-libs/mpc-1.1.0-r1/work/mpc-1.1.0/src -I.. -O2 -pipe -Wl,-O4 -Wl,-O4,--sort-common,--as-needed,-z,norelro,-z,now -c /tmp/portage/dev-libs/mpc-1.1.0-r1/work/mpc-1.1.0/src/ui_ui_sub.c  -fPIC -DPIC -o .libs/ui_ui_sub.o
/bin/sh ../libtool  --tag=CC   --mode=link x86_64-pc-linux-gnu-gcc  -O2 -pipe -Wl,-O4 -Wl,-O4,--sort-common,--as-needed,-z,norelro,-z,now  -version-info 4:0:1 -Wl,-O4,--sort-common,--as-needed,-z,norelro,-z,now -o libmpc.la -rpath /usr/lib64 abs.lo acos.lo acosh.lo add.lo add_fr.lo add_si.lo add_ui.lo arg.lo asin.lo asinh.lo atan.lo atanh.lo clear.lo cmp.lo cmp_abs.lo cmp_si_si.lo conj.lo cos.lo cosh.lo div_2si.lo div_2ui.lo div.lo div_fr.lo div_ui.lo exp.lo fma.lo fr_div.lo fr_sub.lo get_prec2.lo get_prec.lo get_version.lo get_x.lo imag.lo init2.lo init3.lo inp_str.lo log.lo log10.lo mem.lo mul_2si.lo mul_2ui.lo mul.lo mul_fr.lo mul_i.lo mul_si.lo mul_ui.lo neg.lo norm.lo out_str.lo pow.lo pow_fr.lo pow_ld.lo pow_d.lo pow_si.lo pow_ui.lo pow_z.lo proj.lo real.lo rootofunity.lo urandom.lo set.lo set_prec.lo set_str.lo set_x.lo set_x_x.lo sin.lo sin_cos.lo sinh.lo sqr.lo sqrt.lo strtoc.lo sub.lo sub_fr.lo sub_ui.lo swap.lo tan.lo tanh.lo uceil_log2.lo ui_div.lo ui_ui_sub.lo  -lmpfr -lmpfr -lgmp -lm 
libtool: link: x86_64-pc-linux-gnu-gcc -shared  -fPIC -DPIC  .libs/abs.o .libs/acos.o .libs/acosh.o .libs/add.o .libs/add_fr.o .libs/add_si.o .libs/add_ui.o .libs/arg.o .libs/asin.o .libs/asinh.o .libs/atan.o .libs/atanh.o .libs/clear.o .libs/cmp.o .libs/cmp_abs.o .libs/cmp_si_si.o .libs/conj.o .libs/cos.o .libs/cosh.o .libs/div_2si.o .libs/div_2ui.o .libs/div.o .libs/div_fr.o .libs/div_ui.o .libs/exp.o .libs/fma.o .libs/fr_div.o .libs/fr_sub.o .libs/get_prec2.o .libs/get_prec.o .libs/get_version.o .libs/get_x.o .libs/imag.o .libs/init2.o .libs/init3.o .libs/inp_str.o .libs/log.o .libs/log10.o .libs/mem.o .libs/mul_2si.o .libs/mul_2ui.o .libs/mul.o .libs/mul_fr.o .libs/mul_i.o .libs/mul_si.o .libs/mul_ui.o .libs/neg.o .libs/norm.o .libs/out_str.o .libs/pow.o .libs/pow_fr.o .libs/pow_ld.o .libs/pow_d.o .libs/pow_si.o .libs/pow_ui.o .libs/pow_z.o .libs/proj.o .libs/real.o .libs/rootofunity.o .libs/urandom.o .libs/set.o .libs/set_prec.o .libs/set_str.o .libs/set_x.o .libs/set_x_x.o .libs/sin.o .libs/sin_cos.o .libs/sinh.o .libs/sqr.o .libs/sqrt.o .libs/strtoc.o .libs/sub.o .libs/sub_fr.o .libs/sub_ui.o .libs/swap.o .libs/tan.o .libs/tanh.o .libs/uceil_log2.o .libs/ui_div.o .libs/ui_ui_sub.o   -lmpfr -lgmp -lm  -O2 -Wl,-O4 -Wl,-O4 -Wl,--sort-common -Wl,--as-needed -Wl,-z -Wl,norelro -Wl,-z -Wl,now -Wl,-O4 -Wl,--sort-common -Wl,--as-needed -Wl,-z -Wl,norelro -Wl,-z -Wl,now   -Wl,-soname -Wl,libmpc.so.3 -o .libs/libmpc.so.3.1.0
libtool: link: (cd ".libs" && rm -f "libmpc.so.3" && ln -s "libmpc.so.3.1.0" "libmpc.so.3")
libtool: link: (cd ".libs" && rm -f "libmpc.so" && ln -s "libmpc.so.3.1.0" "libmpc.so")
libtool: link: ( cd ".libs" && rm -f "libmpc.la" && ln -s "../libmpc.la" "libmpc.la" )
make[2]: Leaving directory '/tmp/portage/dev-libs/mpc-1.1.0-r1/work/mpc-1.1.0-abi_x86_64.amd64/src'
Making all in tests
make[2]: Entering directory '/tmp/portage/dev-libs/mpc-1.1.0-r1/work/mpc-1.1.0-abi_x86_64.amd64/tests'
make[2]: Nothing to be done for 'all'.
make[2]: Leaving directory '/tmp/portage/dev-libs/mpc-1.1.0-r1/work/mpc-1.1.0-abi_x86_64.amd64/tests'
Making all in doc
make[2]: Entering directory '/tmp/portage/dev-libs/mpc-1.1.0-r1/work/mpc-1.1.0-abi_x86_64.amd64/doc'
make[2]: Nothing to be done for 'all'.
make[2]: Leaving directory '/tmp/portage/dev-libs/mpc-1.1.0-r1/work/mpc-1.1.0-abi_x86_64.amd64/doc'
Making all in tools
make[2]: Entering directory '/tmp/portage/dev-libs/mpc-1.1.0-r1/work/mpc-1.1.0-abi_x86_64.amd64/tools'
Making all in bench
make[3]: Entering directory '/tmp/portage/dev-libs/mpc-1.1.0-r1/work/mpc-1.1.0-abi_x86_64.amd64/tools/bench'
make[3]: Nothing to be done for 'all'.
make[3]: Leaving directory '/tmp/portage/dev-libs/mpc-1.1.0-r1/work/mpc-1.1.0-abi_x86_64.amd64/tools/bench'
make[3]: Entering directory '/tmp/portage/dev-libs/mpc-1.1.0-r1/work/mpc-1.1.0-abi_x86_64.amd64/tools'
make[3]: Nothing to be done for 'all-am'.
make[3]: Leaving directory '/tmp/portage/dev-libs/mpc-1.1.0-r1/work/mpc-1.1.0-abi_x86_64.amd64/tools'
make[2]: Leaving directory '/tmp/portage/dev-libs/mpc-1.1.0-r1/work/mpc-1.1.0-abi_x86_64.amd64/tools'
make[2]: Entering directory '/tmp/portage/dev-libs/mpc-1.1.0-r1/work/mpc-1.1.0-abi_x86_64.amd64'
make[2]: Nothing to be done for 'all-am'.
make[2]: Leaving directory '/tmp/portage/dev-libs/mpc-1.1.0-r1/work/mpc-1.1.0-abi_x86_64.amd64'
make[1]: Leaving directory '/tmp/portage/dev-libs/mpc-1.1.0-r1/work/mpc-1.1.0-abi_x86_64.amd64'
>>> Source compiled.
>>> Test phase [not enabled]: dev-libs/mpc-1.1.0-r1

>>> Install dev-libs/mpc-1.1.0-r1 into /tmp/portage/dev-libs/mpc-1.1.0-r1/image/
 * abi_x86_64.amd64: running multilib-minimal_abi_src_install
make -j12 -l12 DESTDIR=/tmp/portage/dev-libs/mpc-1.1.0-r1/image/ install 
Making install in src
make[1]: Entering directory '/tmp/portage/dev-libs/mpc-1.1.0-r1/work/mpc-1.1.0-abi_x86_64.amd64/src'
make[2]: Entering directory '/tmp/portage/dev-libs/mpc-1.1.0-r1/work/mpc-1.1.0-abi_x86_64.amd64/src'
make[2]: Nothing to be done for 'install-data-am'.
 /bin/mkdir -p '/tmp/portage/dev-libs/mpc-1.1.0-r1/image//usr/lib64'
 /bin/sh ../libtool   --mode=install /tmp/portage/._portage_reinstall_.pd9z28yw/bin/ebuild-helpers/xattr/install -c   libmpc.la '/tmp/portage/dev-libs/mpc-1.1.0-r1/image//usr/lib64'
libtool: install: /tmp/portage/._portage_reinstall_.pd9z28yw/bin/ebuild-helpers/xattr/install -c .libs/libmpc.so.3.1.0 /tmp/portage/dev-libs/mpc-1.1.0-r1/image//usr/lib64/libmpc.so.3.1.0
libtool: install: (cd /tmp/portage/dev-libs/mpc-1.1.0-r1/image//usr/lib64 && { ln -s -f libmpc.so.3.1.0 libmpc.so.3 || { rm -f libmpc.so.3 && ln -s libmpc.so.3.1.0 libmpc.so.3; }; })
libtool: install: (cd /tmp/portage/dev-libs/mpc-1.1.0-r1/image//usr/lib64 && { ln -s -f libmpc.so.3.1.0 libmpc.so || { rm -f libmpc.so && ln -s libmpc.so.3.1.0 libmpc.so; }; })
libtool: install: /tmp/portage/._portage_reinstall_.pd9z28yw/bin/ebuild-helpers/xattr/install -c .libs/libmpc.lai /tmp/portage/dev-libs/mpc-1.1.0-r1/image//usr/lib64/libmpc.la
libtool: warning: remember to run 'libtool --finish /usr/lib64'
make[2]: Leaving directory '/tmp/portage/dev-libs/mpc-1.1.0-r1/work/mpc-1.1.0-abi_x86_64.amd64/src'
make[1]: Leaving directory '/tmp/portage/dev-libs/mpc-1.1.0-r1/work/mpc-1.1.0-abi_x86_64.amd64/src'
Making install in tests
make[1]: Entering directory '/tmp/portage/dev-libs/mpc-1.1.0-r1/work/mpc-1.1.0-abi_x86_64.amd64/tests'
make[2]: Entering directory '/tmp/portage/dev-libs/mpc-1.1.0-r1/work/mpc-1.1.0-abi_x86_64.amd64/tests'
make[2]: Nothing to be done for 'install-exec-am'.
make[2]: Nothing to be done for 'install-data-am'.
make[2]: Leaving directory '/tmp/portage/dev-libs/mpc-1.1.0-r1/work/mpc-1.1.0-abi_x86_64.amd64/tests'
make[1]: Leaving directory '/tmp/portage/dev-libs/mpc-1.1.0-r1/work/mpc-1.1.0-abi_x86_64.amd64/tests'
Making install in doc
make[1]: Entering directory '/tmp/portage/dev-libs/mpc-1.1.0-r1/work/mpc-1.1.0-abi_x86_64.amd64/doc'
make[2]: Entering directory '/tmp/portage/dev-libs/mpc-1.1.0-r1/work/mpc-1.1.0-abi_x86_64.amd64/doc'
make[2]: Nothing to be done for 'install-exec-am'.
 /bin/mkdir -p '/tmp/portage/dev-libs/mpc-1.1.0-r1/image//usr/share/info'
 /tmp/portage/._portage_reinstall_.pd9z28yw/bin/ebuild-helpers/xattr/install -c -m 644 /tmp/portage/dev-libs/mpc-1.1.0-r1/work/mpc-1.1.0/doc/mpc.info '/tmp/portage/dev-libs/mpc-1.1.0-r1/image//usr/share/info'
 install-info --info-dir='/tmp/portage/dev-libs/mpc-1.1.0-r1/image//usr/share/info' '/tmp/portage/dev-libs/mpc-1.1.0-r1/image//usr/share/info/mpc.info'
make[2]: Leaving directory '/tmp/portage/dev-libs/mpc-1.1.0-r1/work/mpc-1.1.0-abi_x86_64.amd64/doc'
make[1]: Leaving directory '/tmp/portage/dev-libs/mpc-1.1.0-r1/work/mpc-1.1.0-abi_x86_64.amd64/doc'
Making install in tools
make[1]: Entering directory '/tmp/portage/dev-libs/mpc-1.1.0-r1/work/mpc-1.1.0-abi_x86_64.amd64/tools'
Making install in bench
make[2]: Entering directory '/tmp/portage/dev-libs/mpc-1.1.0-r1/work/mpc-1.1.0-abi_x86_64.amd64/tools/bench'
make[3]: Entering directory '/tmp/portage/dev-libs/mpc-1.1.0-r1/work/mpc-1.1.0-abi_x86_64.amd64/tools/bench'
make[3]: Nothing to be done for 'install-exec-am'.
make[3]: Nothing to be done for 'install-data-am'.
make[3]: Leaving directory '/tmp/portage/dev-libs/mpc-1.1.0-r1/work/mpc-1.1.0-abi_x86_64.amd64/tools/bench'
make[2]: Leaving directory '/tmp/portage/dev-libs/mpc-1.1.0-r1/work/mpc-1.1.0-abi_x86_64.amd64/tools/bench'
make[2]: Entering directory '/tmp/portage/dev-libs/mpc-1.1.0-r1/work/mpc-1.1.0-abi_x86_64.amd64/tools'
make[3]: Entering directory '/tmp/portage/dev-libs/mpc-1.1.0-r1/work/mpc-1.1.0-abi_x86_64.amd64/tools'
make[3]: Nothing to be done for 'install-exec-am'.
make[3]: Nothing to be done for 'install-data-am'.
make[3]: Leaving directory '/tmp/portage/dev-libs/mpc-1.1.0-r1/work/mpc-1.1.0-abi_x86_64.amd64/tools'
make[2]: Leaving directory '/tmp/portage/dev-libs/mpc-1.1.0-r1/work/mpc-1.1.0-abi_x86_64.amd64/tools'
make[1]: Leaving directory '/tmp/portage/dev-libs/mpc-1.1.0-r1/work/mpc-1.1.0-abi_x86_64.amd64/tools'
make[1]: Entering directory '/tmp/portage/dev-libs/mpc-1.1.0-r1/work/mpc-1.1.0-abi_x86_64.amd64'
make[2]: Entering directory '/tmp/portage/dev-libs/mpc-1.1.0-r1/work/mpc-1.1.0-abi_x86_64.amd64'
make[2]: Nothing to be done for 'install-exec-am'.
 /bin/mkdir -p '/tmp/portage/dev-libs/mpc-1.1.0-r1/image//usr/include'
 /tmp/portage/._portage_reinstall_.pd9z28yw/bin/ebuild-helpers/xattr/install -c -m 644 /tmp/portage/dev-libs/mpc-1.1.0-r1/work/mpc-1.1.0/src/mpc.h '/tmp/portage/dev-libs/mpc-1.1.0-r1/image//usr/include'
make[2]: Leaving directory '/tmp/portage/dev-libs/mpc-1.1.0-r1/work/mpc-1.1.0-abi_x86_64.amd64'
make[1]: Leaving directory '/tmp/portage/dev-libs/mpc-1.1.0-r1/work/mpc-1.1.0-abi_x86_64.amd64'
>>> Completed installing dev-libs/mpc-1.1.0-r1 into /tmp/portage/dev-libs/mpc-1.1.0-r1/image/

 * Final size of build directory: 5508 KiB (5.3 MiB)
 * Final size of installed tree:   280 KiB

strip: x86_64-pc-linux-gnu-strip --strip-unneeded -N __gentoo_check_ldflags__ -R .comment -R .GCC.command.line -R .note.gnu.gold-version
   /usr/lib64/libmpc.so.3.1.0
./
./usr/
./usr/include/
./usr/include/mpc.h
./usr/share/
./usr/share/info/
./usr/share/info/mpc.info.bz2
./usr/share/doc/
./usr/share/doc/mpc-1.1.0-r1/
./usr/share/doc/mpc-1.1.0-r1/TODO.bz2
./usr/share/doc/mpc-1.1.0-r1/README.bz2
./usr/share/doc/mpc-1.1.0-r1/AUTHORS
./usr/share/doc/mpc-1.1.0-r1/NEWS.bz2
./usr/lib64/
./usr/lib64/libmpc.so
./usr/lib64/libmpc.so.3
./usr/lib64/libmpc.so.3.1.0
>>> Done.
 * checking 5 files for package collisions
>>> Merging dev-libs/mpc-1.1.0-r1 to /
 * removing unneeded *.la files
--- /usr/
--- /usr/lib64/
>>> /usr/lib64/libmpc.so.3.1.0
>>> /usr/lib64/libmpc.so.3 -> libmpc.so.3.1.0
>>> /usr/lib64/libmpc.so -> libmpc.so.3.1.0
--- /usr/share/
--- /usr/share/info/
>>> /usr/share/info/mpc.info.bz2
--- /usr/include/
>>> /usr/include/mpc.h
>>> Safely unmerging already-installed instance...
>>> Original instance of package unmerged safely.
>>> dev-libs/mpc-1.1.0-r1 merged.
>>> Regenerating /etc/ld.so.cache...
