No package files given... Grabbing a set.
--- replaced obj /usr/lib64/libdouble-conversion.so.3.1.5
--- replaced sym /usr/lib64/libdouble-conversion.so.3
--- replaced sym /usr/lib64/libdouble-conversion.so
--- replaced obj /usr/lib64/cmake/double-conversion/double-conversionTargets.cmake
--- replaced obj /usr/lib64/cmake/double-conversion/double-conversionTargets-gentoo.cmake
--- replaced obj /usr/lib64/cmake/double-conversion/double-conversionConfigVersion.cmake
--- replaced obj /usr/lib64/cmake/double-conversion/double-conversionConfig.cmake
--- replaced dir /usr/lib64/cmake/double-conversion
--- replaced dir /usr/lib64/cmake
--- replaced dir /usr/lib64
--- replaced obj /usr/include/double-conversion/utils.h
--- replaced obj /usr/include/double-conversion/strtod.h
--- replaced obj /usr/include/double-conversion/ieee.h
--- replaced obj /usr/include/double-conversion/fixed-dtoa.h
--- replaced obj /usr/include/double-conversion/fast-dtoa.h
--- replaced obj /usr/include/double-conversion/double-conversion.h
--- replaced obj /usr/include/double-conversion/diy-fp.h
--- replaced obj /usr/include/double-conversion/cached-powers.h
--- replaced obj /usr/include/double-conversion/bignum.h
--- replaced dir /usr/include/double-conversion
--- replaced dir /usr/include
--- replaced dir /usr
>>> Regenerating /etc/ld.so.cache...
