>>> Extracting info
 * Package:    dev-libs/elfutils-0.179
 * Repository: gentoo
 * USE:        bzip2 utils lzma elibc_glibc amd64 kernel_linux abi_x86_64 userland_GNU
 * FEATURES:   ccache network-sandbox preserve-libs sandbox userpriv usersandbox
 * /etc/portage/package.cflags/ltoworkarounds.conf -> dev-libs/elfutils: *FLAGS-=-flto*
 * /etc/portage/package.cflags/ltoworkarounds.conf -> dev-libs/elfutils: *FLAGS-=-flto*
 * /etc/portage/package.cflags/ltoworkarounds.conf -> dev-libs/elfutils: *FLAGS-="${GRAPHITE}"
 * FEATURES='merge-sync news network-sandbox unmerge-logs buildpkg usersync assume-digests distlocks parallel-install binpkg-logs userpriv binpkg-docompress multilib-strict preserve-libs strict unmerge-orphans downgrade-backup ipc-sandbox fixlafiles qa-unresolved-soname-deps unknown-features-warn pid-sandbox sandbox parallel-fetch binpkg-multi-instance nodoc config-protect-if-modified userfetch strict-keepdir collision-protect usersandbox compress-index protect-owned xattr binpkg-dostrip ccache sfperms unmerge-backup cgroup'
 * CFLAGS='-march=native -O3 -fdevirtualize-at-ltrans -fipa-pta -fno-semantic-interposition -fno-plt -fno-signed-zeros -fno-trapping-math -fassociative-math -freciprocal-math -fno-math-errno -ffinite-math-only -fno-rounding-math -fno-signaling-nans -fcx-limited-range -fexcess-precision=fast -fno-signed-zeros -fno-trapping-math -fassociative-math -freciprocal-math -fno-math-errno -ffinite-math-only -fno-rounding-math -fno-signaling-nans -fcx-limited-range -fexcess-precision=fast -fuse-linker-plugin -pipe -g0 -Wl,-O1 -Wl,--as-needed -Wl,--hash-style=gnu,-z,norelro,--as-needed'
 * CXXFLAGS='-march=native -O3 -fdevirtualize-at-ltrans -fipa-pta -fno-semantic-interposition -fno-plt -fno-signed-zeros -fno-trapping-math -fassociative-math -freciprocal-math -fno-math-errno -ffinite-math-only -fno-rounding-math -fno-signaling-nans -fcx-limited-range -fexcess-precision=fast -fno-signed-zeros -fno-trapping-math -fassociative-math -freciprocal-math -fno-math-errno -ffinite-math-only -fno-rounding-math -fno-signaling-nans -fcx-limited-range -fexcess-precision=fast -fuse-linker-plugin -pipe -g0 -Wl,-O1 -Wl,--as-needed -Wl,--hash-style=gnu,-z,norelro,--as-needed'
 * FFLAGS='-march=native -O3 -fdevirtualize-at-ltrans -fipa-pta -fno-semantic-interposition -fno-plt -fno-signed-zeros -fno-trapping-math -fassociative-math -freciprocal-math -fno-math-errno -ffinite-math-only -fno-rounding-math -fno-signaling-nans -fcx-limited-range -fexcess-precision=fast -fno-signed-zeros -fno-trapping-math -fassociative-math -freciprocal-math -fno-math-errno -ffinite-math-only -fno-rounding-math -fno-signaling-nans -fcx-limited-range -fexcess-precision=fast -fuse-linker-plugin -pipe -g0 -Wl,-O1 -Wl,--as-needed -Wl,--hash-style=gnu,-z,norelro,--as-needed'
 * FCFLAGS='-march=native -O3 -fdevirtualize-at-ltrans -fipa-pta -fno-semantic-interposition -fno-plt -fno-signed-zeros -fno-trapping-math -fassociative-math -freciprocal-math -fno-math-errno -ffinite-math-only -fno-rounding-math -fno-signaling-nans -fcx-limited-range -fexcess-precision=fast -fno-signed-zeros -fno-trapping-math -fassociative-math -freciprocal-math -fno-math-errno -ffinite-math-only -fno-rounding-math -fno-signaling-nans -fcx-limited-range -fexcess-precision=fast -fuse-linker-plugin -pipe -g0 -Wl,-O1 -Wl,--as-needed -Wl,--hash-style=gnu,-z,norelro,--as-needed'
 * F77FLAGS='-march=native -O3 -fdevirtualize-at-ltrans -fipa-pta -fno-semantic-interposition -fno-plt -fno-signed-zeros -fno-trapping-math -fassociative-math -freciprocal-math -fno-math-errno -ffinite-math-only -fno-rounding-math -fno-signaling-nans -fcx-limited-range -fexcess-precision=fast -fno-signed-zeros -fno-trapping-math -fassociative-math -freciprocal-math -fno-math-errno -ffinite-math-only -fno-rounding-math -fno-signaling-nans -fcx-limited-range -fexcess-precision=fast -fuse-linker-plugin -pipe -g0 -Wl,-O1 -Wl,--as-needed -Wl,--hash-style=gnu,-z,norelro,--as-needed'
 * LDFLAGS='-Wl,-O1 -Wl,--as-needed -Wl,--hash-style=gnu,-z,norelro,--as-needed'
 * MAKEOPTS='-j12 -l12'
 * gcc (Gentoo 11.0.0_pre9999 p1, commit 584d52b088f9fcf78704b504c3f1f07e17c1cded) 11.0.0 20200523 (experimental)
 * g++ (Gentoo 11.0.0_pre9999 p1, commit 584d52b088f9fcf78704b504c3f1f07e17c1cded) 11.0.0 20200523 (experimental)
 * GNU ld (Gentoo 2.34 p4) 2.34.0
 * Linux ryzen.gnum.org 5.4.36 #1 SMP Thu Apr 30 04:38:28 UTC 2020 x86_64 AMD Ryzen 5 3600 6-Core Processor AuthenticAMD GNU/Linux
dev-libs/elfutils: 13 seconds average for 5 merges
2020-05-15T12:05:38 >>> dev-libs/elfutils: 24 seconds
2020-05-19T23:38:18 >>> dev-libs/elfutils: 5 seconds
2020-05-20T01:04:50 >>> dev-libs/elfutils: 6 seconds
2020-05-21T06:02:45 >>> dev-libs/elfutils: 5 seconds
2020-05-23T15:17:26 >>> dev-libs/elfutils: 28 seconds
]0;emerge 01:02:33 1|1 elfutils 00:13 (root@ryzen.gnum.org)kemerge 01:02:33 1|1 elfutils 00:13 (root@ryzen.gnum.org)\>>> Extracting dev-libs/elfutils-0.179
 * checking 45 files for package collisions
>>> Merging dev-libs/elfutils-0.179 to /
 * removing unneeded *.la files
--- /usr/
--- /usr/lib64/
>>> /usr/lib64/libdw.so -> libdw.so.1
>>> /usr/lib64/libasm.so -> libasm.so.1
--- /usr/lib64/pkgconfig/
>>> /usr/lib64/pkgconfig/libelf.pc
>>> /usr/lib64/pkgconfig/libdw.pc
>>> /usr/lib64/libelf-0.179.so
>>> /usr/lib64/libdw-0.179.so
>>> /usr/lib64/libasm-0.179.so
>>> /usr/lib64/libelf.so.1 -> libelf-0.179.so
>>> /usr/lib64/libelf.so -> libelf.so.1
>>> /usr/lib64/libdw.so.1 -> libdw-0.179.so
>>> /usr/lib64/libasm.so.1 -> libasm-0.179.so
--- /usr/share/
--- /usr/share/man/
--- /usr/share/man/man3/
>>> /usr/share/man/man3/elf_getdata.3.bz2
>>> /usr/share/man/man3/elf_update.3.bz2
>>> /usr/share/man/man3/elf_clone.3.bz2
>>> /usr/share/man/man3/elf_begin.3.bz2
--- /usr/share/man/man1/
>>> /usr/share/man/man1/eu-readelf.1.bz2
>>> /usr/share/man/man1/eu-elfclassify.1.bz2
--- /usr/include/
--- /usr/include/elfutils/
>>> /usr/include/elfutils/libdwfl.h
>>> /usr/include/elfutils/version.h
>>> /usr/include/elfutils/libasm.h
>>> /usr/include/elfutils/libdwelf.h
>>> /usr/include/elfutils/libdw.h
>>> /usr/include/elfutils/known-dwarf.h
>>> /usr/include/elfutils/elf-knowledge.h
>>> /usr/include/nlist.h
>>> /usr/include/dwarf.h
>>> /usr/include/gelf.h
>>> /usr/include/libelf.h
--- /usr/bin/
>>> /usr/bin/eu-elfclassify
>>> /usr/bin/eu-nm
>>> /usr/bin/eu-unstrip
>>> /usr/bin/eu-size
>>> /usr/bin/eu-ranlib
>>> /usr/bin/eu-stack
>>> /usr/bin/eu-objdump
>>> /usr/bin/eu-elflint
>>> /usr/bin/eu-make-debug-archive
>>> /usr/bin/eu-ar
>>> /usr/bin/eu-strip
>>> /usr/bin/eu-findtextrel
>>> /usr/bin/eu-strings
>>> /usr/bin/eu-elfcompress
>>> /usr/bin/eu-readelf
>>> /usr/bin/eu-elfcmp
>>> /usr/bin/eu-addr2line
>>> Safely unmerging already-installed instance...
>>> Original instance of package unmerged safely.
>>> dev-libs/elfutils-0.179 merged.
>>> Regenerating /etc/ld.so.cache...
