No package files given... Grabbing a set.
--- replaced obj /usr/lib64/perl5/vendor_perl/5.30.2/Time/Zone.pm
--- replaced dir /usr/lib64/perl5/vendor_perl/5.30.2/Time
--- replaced obj /usr/lib64/perl5/vendor_perl/5.30.2/Date/Parse.pm
--- replaced obj /usr/lib64/perl5/vendor_perl/5.30.2/Date/Language/Turkish.pm
--- replaced obj /usr/lib64/perl5/vendor_perl/5.30.2/Date/Language/TigrinyaEthiopian.pm
--- replaced obj /usr/lib64/perl5/vendor_perl/5.30.2/Date/Language/TigrinyaEritrean.pm
--- replaced obj /usr/lib64/perl5/vendor_perl/5.30.2/Date/Language/Tigrinya.pm
--- replaced obj /usr/lib64/perl5/vendor_perl/5.30.2/Date/Language/Swedish.pm
--- replaced obj /usr/lib64/perl5/vendor_perl/5.30.2/Date/Language/Spanish.pm
--- replaced obj /usr/lib64/perl5/vendor_perl/5.30.2/Date/Language/Somali.pm
--- replaced obj /usr/lib64/perl5/vendor_perl/5.30.2/Date/Language/Sidama.pm
--- replaced obj /usr/lib64/perl5/vendor_perl/5.30.2/Date/Language/Russian_koi8r.pm
--- replaced obj /usr/lib64/perl5/vendor_perl/5.30.2/Date/Language/Russian_cp1251.pm
--- replaced obj /usr/lib64/perl5/vendor_perl/5.30.2/Date/Language/Russian.pm
--- replaced obj /usr/lib64/perl5/vendor_perl/5.30.2/Date/Language/Romanian.pm
--- replaced obj /usr/lib64/perl5/vendor_perl/5.30.2/Date/Language/Oromo.pm
--- replaced obj /usr/lib64/perl5/vendor_perl/5.30.2/Date/Language/Norwegian.pm
--- replaced obj /usr/lib64/perl5/vendor_perl/5.30.2/Date/Language/Italian.pm
--- replaced obj /usr/lib64/perl5/vendor_perl/5.30.2/Date/Language/Icelandic.pm
--- replaced obj /usr/lib64/perl5/vendor_perl/5.30.2/Date/Language/Hungarian.pm
--- replaced obj /usr/lib64/perl5/vendor_perl/5.30.2/Date/Language/Greek.pm
--- replaced obj /usr/lib64/perl5/vendor_perl/5.30.2/Date/Language/German.pm
--- replaced obj /usr/lib64/perl5/vendor_perl/5.30.2/Date/Language/Gedeo.pm
--- replaced obj /usr/lib64/perl5/vendor_perl/5.30.2/Date/Language/French.pm
--- replaced obj /usr/lib64/perl5/vendor_perl/5.30.2/Date/Language/Finnish.pm
--- replaced obj /usr/lib64/perl5/vendor_perl/5.30.2/Date/Language/English.pm
--- replaced obj /usr/lib64/perl5/vendor_perl/5.30.2/Date/Language/Dutch.pm
--- replaced obj /usr/lib64/perl5/vendor_perl/5.30.2/Date/Language/Danish.pm
--- replaced obj /usr/lib64/perl5/vendor_perl/5.30.2/Date/Language/Czech.pm
--- replaced obj /usr/lib64/perl5/vendor_perl/5.30.2/Date/Language/Chinese_GB.pm
--- replaced obj /usr/lib64/perl5/vendor_perl/5.30.2/Date/Language/Chinese.pm
--- replaced obj /usr/lib64/perl5/vendor_perl/5.30.2/Date/Language/Bulgarian.pm
--- replaced obj /usr/lib64/perl5/vendor_perl/5.30.2/Date/Language/Brazilian.pm
--- replaced obj /usr/lib64/perl5/vendor_perl/5.30.2/Date/Language/Austrian.pm
--- replaced obj /usr/lib64/perl5/vendor_perl/5.30.2/Date/Language/Amharic.pm
--- replaced obj /usr/lib64/perl5/vendor_perl/5.30.2/Date/Language/Afar.pm
--- replaced obj /usr/lib64/perl5/vendor_perl/5.30.2/Date/Language.pm
--- replaced dir /usr/lib64/perl5/vendor_perl/5.30.2/Date/Language
--- replaced obj /usr/lib64/perl5/vendor_perl/5.30.2/Date/Format.pm
--- replaced dir /usr/lib64/perl5/vendor_perl/5.30.2/Date
--- replaced dir /usr/lib64/perl5/vendor_perl/5.30.2
--- replaced dir /usr/lib64/perl5/vendor_perl
--- replaced dir /usr/lib64/perl5
--- replaced dir /usr/lib64
--- replaced dir /usr
>>> Regenerating /etc/ld.so.cache...
