No package files given... Grabbing a set.
<<<          obj /usr/lib64/ruby/gems/2.7.0/specifications/kpeg-1.1.0.gemspec
<<<          obj /usr/lib64/ruby/gems/2.7.0/gems/kpeg-1.1.0/lib/kpeg/string_escape.rb
<<<          obj /usr/lib64/ruby/gems/2.7.0/gems/kpeg-1.1.0/lib/kpeg/string_escape.kpeg
<<<          obj /usr/lib64/ruby/gems/2.7.0/gems/kpeg-1.1.0/lib/kpeg/position.rb
<<<          obj /usr/lib64/ruby/gems/2.7.0/gems/kpeg-1.1.0/lib/kpeg/parser.rb
<<<          obj /usr/lib64/ruby/gems/2.7.0/gems/kpeg-1.1.0/lib/kpeg/match.rb
<<<          obj /usr/lib64/ruby/gems/2.7.0/gems/kpeg-1.1.0/lib/kpeg/grammar_renderer.rb
<<<          obj /usr/lib64/ruby/gems/2.7.0/gems/kpeg-1.1.0/lib/kpeg/grammar.rb
<<<          obj /usr/lib64/ruby/gems/2.7.0/gems/kpeg-1.1.0/lib/kpeg/format_parser.rb
<<<          obj /usr/lib64/ruby/gems/2.7.0/gems/kpeg-1.1.0/lib/kpeg/format_parser.kpeg
<<<          obj /usr/lib64/ruby/gems/2.7.0/gems/kpeg-1.1.0/lib/kpeg/compiled_parser.rb
<<<          obj /usr/lib64/ruby/gems/2.7.0/gems/kpeg-1.1.0/lib/kpeg/code_generator.rb
<<<          obj /usr/lib64/ruby/gems/2.7.0/gems/kpeg-1.1.0/lib/kpeg.rb
<<<          obj /usr/lib64/ruby/gems/2.7.0/gems/kpeg-1.1.0/lib/hoe/kpeg.rb
<<<          obj /usr/lib64/ruby/gems/2.7.0/gems/kpeg-1.1.0/bin/kpeg
<<<          obj /usr/lib64/ruby/gems/2.6.0/specifications/kpeg-1.1.0.gemspec
<<<          obj /usr/lib64/ruby/gems/2.6.0/gems/kpeg-1.1.0/lib/kpeg/string_escape.rb
<<<          obj /usr/lib64/ruby/gems/2.6.0/gems/kpeg-1.1.0/lib/kpeg/string_escape.kpeg
<<<          obj /usr/lib64/ruby/gems/2.6.0/gems/kpeg-1.1.0/lib/kpeg/position.rb
<<<          obj /usr/lib64/ruby/gems/2.6.0/gems/kpeg-1.1.0/lib/kpeg/parser.rb
<<<          obj /usr/lib64/ruby/gems/2.6.0/gems/kpeg-1.1.0/lib/kpeg/match.rb
<<<          obj /usr/lib64/ruby/gems/2.6.0/gems/kpeg-1.1.0/lib/kpeg/grammar_renderer.rb
<<<          obj /usr/lib64/ruby/gems/2.6.0/gems/kpeg-1.1.0/lib/kpeg/grammar.rb
<<<          obj /usr/lib64/ruby/gems/2.6.0/gems/kpeg-1.1.0/lib/kpeg/format_parser.rb
<<<          obj /usr/lib64/ruby/gems/2.6.0/gems/kpeg-1.1.0/lib/kpeg/format_parser.kpeg
<<<          obj /usr/lib64/ruby/gems/2.6.0/gems/kpeg-1.1.0/lib/kpeg/compiled_parser.rb
<<<          obj /usr/lib64/ruby/gems/2.6.0/gems/kpeg-1.1.0/lib/kpeg/code_generator.rb
<<<          obj /usr/lib64/ruby/gems/2.6.0/gems/kpeg-1.1.0/lib/kpeg.rb
<<<          obj /usr/lib64/ruby/gems/2.6.0/gems/kpeg-1.1.0/lib/hoe/kpeg.rb
<<<          obj /usr/lib64/ruby/gems/2.6.0/gems/kpeg-1.1.0/bin/kpeg
<<<          obj /usr/lib64/ruby/gems/2.5.0/specifications/kpeg-1.1.0.gemspec
<<<          obj /usr/lib64/ruby/gems/2.5.0/gems/kpeg-1.1.0/lib/kpeg/string_escape.rb
<<<          obj /usr/lib64/ruby/gems/2.5.0/gems/kpeg-1.1.0/lib/kpeg/string_escape.kpeg
<<<          obj /usr/lib64/ruby/gems/2.5.0/gems/kpeg-1.1.0/lib/kpeg/position.rb
<<<          obj /usr/lib64/ruby/gems/2.5.0/gems/kpeg-1.1.0/lib/kpeg/parser.rb
<<<          obj /usr/lib64/ruby/gems/2.5.0/gems/kpeg-1.1.0/lib/kpeg/match.rb
<<<          obj /usr/lib64/ruby/gems/2.5.0/gems/kpeg-1.1.0/lib/kpeg/grammar_renderer.rb
<<<          obj /usr/lib64/ruby/gems/2.5.0/gems/kpeg-1.1.0/lib/kpeg/grammar.rb
<<<          obj /usr/lib64/ruby/gems/2.5.0/gems/kpeg-1.1.0/lib/kpeg/format_parser.rb
<<<          obj /usr/lib64/ruby/gems/2.5.0/gems/kpeg-1.1.0/lib/kpeg/format_parser.kpeg
<<<          obj /usr/lib64/ruby/gems/2.5.0/gems/kpeg-1.1.0/lib/kpeg/compiled_parser.rb
<<<          obj /usr/lib64/ruby/gems/2.5.0/gems/kpeg-1.1.0/lib/kpeg/code_generator.rb
<<<          obj /usr/lib64/ruby/gems/2.5.0/gems/kpeg-1.1.0/lib/kpeg.rb
<<<          obj /usr/lib64/ruby/gems/2.5.0/gems/kpeg-1.1.0/lib/hoe/kpeg.rb
<<<          obj /usr/lib64/ruby/gems/2.5.0/gems/kpeg-1.1.0/bin/kpeg
<<<          obj /usr/bin/kpeg
--- !empty   dir /usr/lib64/ruby/gems/2.7.0/specifications
<<<          dir /usr/lib64/ruby/gems/2.7.0/gems/kpeg-1.1.0/lib/kpeg
<<<          dir /usr/lib64/ruby/gems/2.7.0/gems/kpeg-1.1.0/lib/hoe
<<<          dir /usr/lib64/ruby/gems/2.7.0/gems/kpeg-1.1.0/lib
<<<          dir /usr/lib64/ruby/gems/2.7.0/gems/kpeg-1.1.0/bin
<<<          dir /usr/lib64/ruby/gems/2.7.0/gems/kpeg-1.1.0
--- !empty   dir /usr/lib64/ruby/gems/2.7.0/gems
--- !empty   dir /usr/lib64/ruby/gems/2.7.0
--- !empty   dir /usr/lib64/ruby/gems/2.6.0/specifications
<<<          dir /usr/lib64/ruby/gems/2.6.0/gems/kpeg-1.1.0/lib/kpeg
<<<          dir /usr/lib64/ruby/gems/2.6.0/gems/kpeg-1.1.0/lib/hoe
<<<          dir /usr/lib64/ruby/gems/2.6.0/gems/kpeg-1.1.0/lib
<<<          dir /usr/lib64/ruby/gems/2.6.0/gems/kpeg-1.1.0/bin
<<<          dir /usr/lib64/ruby/gems/2.6.0/gems/kpeg-1.1.0
--- !empty   dir /usr/lib64/ruby/gems/2.6.0/gems
--- !empty   dir /usr/lib64/ruby/gems/2.6.0
--- !empty   dir /usr/lib64/ruby/gems/2.5.0/specifications
<<<          dir /usr/lib64/ruby/gems/2.5.0/gems/kpeg-1.1.0/lib/kpeg
<<<          dir /usr/lib64/ruby/gems/2.5.0/gems/kpeg-1.1.0/lib/hoe
<<<          dir /usr/lib64/ruby/gems/2.5.0/gems/kpeg-1.1.0/lib
<<<          dir /usr/lib64/ruby/gems/2.5.0/gems/kpeg-1.1.0/bin
<<<          dir /usr/lib64/ruby/gems/2.5.0/gems/kpeg-1.1.0
--- !empty   dir /usr/lib64/ruby/gems/2.5.0/gems
--- !empty   dir /usr/lib64/ruby/gems/2.5.0
--- !empty   dir /usr/lib64/ruby/gems
--- !empty   dir /usr/lib64/ruby
--- !empty   dir /usr/lib64
--- !empty   dir /usr/bin
--- !empty   dir /usr
