 * Package:    dev-qt/qdbus-5.15.0
 * Repository: gentoo
 * Maintainer: qt@gentoo.org
 * Upstream:   https://bugreports.qt.io/
 * USE:        abi_x86_64 amd64 elibc_glibc kernel_linux userland_GNU
 * FEATURES:   ccache network-sandbox preserve-libs userpriv
 * /etc/portage/package.cflags/ltoworkarounds.conf -> */*: *FLAGS+=-Wl,-O4 *FLAGS-=-Wl,-O1
 * FEATURES='compress-index network-sandbox strict buildpkg binpkg-logs sfperms cgroup news ebuild-locks qa-unresolved-soname-deps strict-keepdir ccache binpkg-dostrip fixlafiles distlocks unmerge-logs binpkg-docompress config-protect-if-modified usersync userfetch parallel-fetch unmerge-orphans assume-digests xattr unknown-features-warn nodoc preserve-libs multilib-strict userpriv merge-sync'
 * CFLAGS='-march=znver2 -Ofast -pipe -g0 -fgraphite-identity -floop-interchange -floop-nest-optimize -floop-parallelize-all -ftree-parallelize-loops=12 -ftree-vectorize -fdevirtualize-at-ltrans -fipa-pta -fno-semantic-interposition -flto=12 -fno-plt -falign-functions=32 -fno-stack-protector -fno-stack-clash-protection -fstack-check=no -fno-stack-check -fuse-linker-plugin -Wl,-O4 -Wl,-O4,--sort-common,--as-needed,-z,norelro,-z,now'
 * CXXFLAGS='-march=znver2 -Ofast -pipe -g0 -fgraphite-identity -floop-interchange -floop-nest-optimize -floop-parallelize-all -ftree-parallelize-loops=12 -ftree-vectorize -fdevirtualize-at-ltrans -fipa-pta -fno-semantic-interposition -flto=12 -fno-plt -falign-functions=32 -fno-stack-protector -fno-stack-clash-protection -fstack-check=no -fno-stack-check -fuse-linker-plugin -Wl,-O4 -Wl,-O4,--sort-common,--as-needed,-z,norelro,-z,now'
 * FFLAGS='-march=znver2 -Ofast -pipe -g0 -fgraphite-identity -floop-interchange -floop-nest-optimize -floop-parallelize-all -ftree-parallelize-loops=12 -ftree-vectorize -fdevirtualize-at-ltrans -fipa-pta -fno-semantic-interposition -flto=12 -fno-plt -falign-functions=32 -fno-stack-protector -fno-stack-clash-protection -fstack-check=no -fno-stack-check -fuse-linker-plugin -Wl,-O4 -Wl,-O4,--sort-common,--as-needed,-z,norelro,-z,now'
 * FCFLAGS='-march=znver2 -Ofast -pipe -g0 -fgraphite-identity -floop-interchange -floop-nest-optimize -floop-parallelize-all -ftree-parallelize-loops=12 -ftree-vectorize -fdevirtualize-at-ltrans -fipa-pta -fno-semantic-interposition -flto=12 -fno-plt -falign-functions=32 -fno-stack-protector -fno-stack-clash-protection -fstack-check=no -fno-stack-check -fuse-linker-plugin -Wl,-O4 -Wl,-O4,--sort-common,--as-needed,-z,norelro,-z,now'
 * F77FLAGS='-march=znver2 -Ofast -pipe -g0 -fgraphite-identity -floop-interchange -floop-nest-optimize -floop-parallelize-all -ftree-parallelize-loops=12 -ftree-vectorize -fdevirtualize-at-ltrans -fipa-pta -fno-semantic-interposition -flto=12 -fno-plt -falign-functions=32 -fno-stack-protector -fno-stack-clash-protection -fstack-check=no -fno-stack-check -fuse-linker-plugin -Wl,-O4 -Wl,-O4,--sort-common,--as-needed,-z,norelro,-z,now'
 * LDFLAGS='-Wl,-O4,--sort-common,--as-needed,-z,norelro,-z,now -march=znver2 -Ofast -pipe -g0 -fgraphite-identity -floop-interchange -floop-nest-optimize -floop-parallelize-all -ftree-parallelize-loops=12 -ftree-vectorize -fdevirtualize-at-ltrans -fipa-pta -fno-semantic-interposition -flto=12 -fno-plt -falign-functions=32 -fno-stack-protector -fno-stack-clash-protection -fstack-check=no -fno-stack-check -fuse-linker-plugin -Wl,-O4'
 * MAKEOPTS='-j12 -l12'
 * gcc (Gentoo 11.0.0_pre9999 p1, commit 184c21bf1cd04a108ed9bd04635e7d57ac39f616) 11.0.0 20200611 (experimental)
 * g++ (Gentoo 11.0.0_pre9999 p1, commit 184c21bf1cd04a108ed9bd04635e7d57ac39f616) 11.0.0 20200611 (experimental)
 * GNU ld (Gentoo 2.34 p4) 2.34.0
 * Linux rescue 5.4.36 #1 SMP Thu Apr 30 04:38:28 UTC 2020 x86_64 AMD Ryzen 5 3600 6-Core Processor AuthenticAMD GNU/Linux
dev-qt/qdbus: 19 seconds average for 2 merges
2020-05-20T01:53:59 >>> dev-qt/qdbus: 4 seconds
2020-05-27T13:19:54 >>> dev-qt/qdbus: 34 seconds
]0;emerge 03:31:58 35|262 qdbus 00:19 (root@rescue)>>> Unpacking source...
>>> Unpacking qttools-everywhere-src-5.15.0.tar.xz to /tmp/portage/dev-qt/qdbus-5.15.0/work
>>> Source unpacked in /tmp/portage/dev-qt/qdbus-5.15.0/work
>>> Preparing source in /tmp/portage/dev-qt/qdbus-5.15.0/work/qttools-everywhere-src-5.15.0 ...
>>> Source prepared.
>>> Configuring source in /tmp/portage/dev-qt/qdbus-5.15.0/work/qttools-everywhere-src-5.15.0 ...
 * Running qt5_qmake in src/qdbus/qdbus
Info: creating stash file /tmp/portage/dev-qt/qdbus-5.15.0/work/qttools-everywhere-src-5.15.0_build/.qmake.stash
>>> Source configured.
>>> Compiling source in /tmp/portage/dev-qt/qdbus-5.15.0/work/qttools-everywhere-src-5.15.0 ...
 * Running emake in src/qdbus/qdbus
make -j12 -l12 
x86_64-pc-linux-gnu-g++ -c -march=znver2 -Ofast -pipe -g0 -fgraphite-identity -floop-interchange -floop-nest-optimize -floop-parallelize-all -ftree-parallelize-loops=12 -ftree-vectorize -fdevirtualize-at-ltrans -fipa-pta -fno-semantic-interposition -flto=12 -fno-plt -falign-functions=32 -fno-stack-protector -fno-stack-clash-protection -fstack-check=no -fno-stack-check -fuse-linker-plugin -Wl,-O4 -Wl,-O4,--sort-common,--as-needed,-z,norelro,-z,now -std=c++1z -fno-exceptions -Wall -Wextra -Wvla -Wdate-time -Wshift-overflow=2 -Wduplicated-cond -Wno-stringop-overflow -Wno-format-overflow -D_REENTRANT -fPIC -DQT_NO_LINKED_LIST -DQT_NO_JAVA_STYLE_ITERATORS -DQT_NO_LINKED_LIST -DQT_NO_NARROWING_CONVERSIONS_IN_CONNECT -DQT_NO_EXCEPTIONS -D_LARGEFILE64_SOURCE -D_LARGEFILE_SOURCE -DQT_NO_DEBUG -DQT_DBUS_LIB -DQT_XML_LIB -DQT_CORE_LIB -I/tmp/portage/dev-qt/qdbus-5.15.0/work/qttools-everywhere-src-5.15.0/src/qdbus/qdbus -I. -isystem /usr/include/qt5/QtDBus/5.15.0 -isystem /usr/include/qt5/QtDBus/5.15.0/QtDBus -isystem /usr/include/qt5/QtCore/5.15.0 -isystem /usr/include/qt5/QtCore/5.15.0/QtCore -isystem /usr/include/qt5 -isystem /usr/include/qt5/QtDBus -isystem /usr/include/qt5/QtXml -isystem /usr/include/qt5/QtCore -I.moc -I/usr/lib64/qt5/mkspecs/linux-g++ -o .obj/qdbus.o /tmp/portage/dev-qt/qdbus-5.15.0/work/qttools-everywhere-src-5.15.0/src/qdbus/qdbus/qdbus.cpp
x86_64-pc-linux-gnu-g++ -Wl,-O4,--sort-common,--as-needed,-z,norelro,-z,now -march=znver2 -Ofast -pipe -g0 -fgraphite-identity -floop-interchange -floop-nest-optimize -floop-parallelize-all -ftree-parallelize-loops=12 -ftree-vectorize -fdevirtualize-at-ltrans -fipa-pta -fno-semantic-interposition -flto=12 -fno-plt -falign-functions=32 -fno-stack-protector -fno-stack-clash-protection -fstack-check=no -fno-stack-check -fuse-linker-plugin -Wl,-O4 -Wl,--enable-new-dtags -o ../../../bin/qdbus .obj/qdbus.o   /usr/lib64/libQt5DBus.so /usr/lib64/libQt5Xml.so /usr/lib64/libQt5Core.so -lpthread   
>>> Source compiled.
 * Skipping make test/check due to ebuild restriction.
>>> Test phase [disabled because of RESTRICT=test]: dev-qt/qdbus-5.15.0

>>> Install dev-qt/qdbus-5.15.0 into /tmp/portage/dev-qt/qdbus-5.15.0/image
 * Running emake INSTALL_ROOT=/tmp/portage/dev-qt/qdbus-5.15.0/image install in src/qdbus/qdbus
make -j12 -l12 INSTALL_ROOT=/tmp/portage/dev-qt/qdbus-5.15.0/image install 
/usr/lib64/qt5/bin/qmake -install qinstall -exe ../../../bin/qdbus /tmp/portage/dev-qt/qdbus-5.15.0/image/usr/lib64/qt5/bin/qdbus
>>> Completed installing dev-qt/qdbus-5.15.0 into /tmp/portage/dev-qt/qdbus-5.15.0/image

 * Final size of build directory: 57404 KiB (56.0 MiB)
 * Final size of installed tree:    112 KiB

strip: x86_64-pc-linux-gnu-strip --strip-unneeded -N __gentoo_check_ldflags__ -R .comment -R .GCC.command.line -R .note.gnu.gold-version
   /usr/lib64/qt5/bin/qdbus
./
./usr/
./usr/lib64/
./usr/lib64/qt5/
./usr/lib64/qt5/bin/
./usr/lib64/qt5/bin/qdbus
>>> Done.
 * checking 1 files for package collisions
>>> Merging dev-qt/qdbus-5.15.0 to /
 * removing unneeded *.la files
--- /usr/
--- /usr/lib64/
--- /usr/lib64/qt5/
--- /usr/lib64/qt5/bin/
>>> /usr/lib64/qt5/bin/qdbus
 * Regenerating gentoo-qconfig.h
 * Updating QT_CONFIG in qconfig.pri
 * Updating QT.global_private in qmodule.pri
>>> dev-qt/qdbus-5.15.0 merged.
>>> Regenerating /etc/ld.so.cache...
