No package files given... Grabbing a set.
--- replaced obj /usr/share/man/man1/guile.1.bz2
--- replaced dir /usr/share/man/man1
--- replaced dir /usr/share/man
--- replaced obj /usr/share/info/r5rs.info.bz2
--- replaced obj /usr/share/info/guile.info.bz2
--- replaced obj /usr/share/info/guile.info-9.bz2
--- replaced obj /usr/share/info/guile.info-8.bz2
--- replaced obj /usr/share/info/guile.info-7.bz2
--- replaced obj /usr/share/info/guile.info-6.bz2
--- replaced obj /usr/share/info/guile.info-5.bz2
--- replaced obj /usr/share/info/guile.info-4.bz2
--- replaced obj /usr/share/info/guile.info-3.bz2
--- replaced obj /usr/share/info/guile.info-2.bz2
--- replaced obj /usr/share/info/guile.info-10.bz2
--- replaced obj /usr/share/info/guile.info-1.bz2
--- replaced dir /usr/share/info
--- replaced obj /usr/share/guile/site/.keep_dev-scheme_guile-12
--- replaced dir /usr/share/guile/site
--- replaced obj /usr/share/guile/2.2/web/uri.scm
--- replaced obj /usr/share/guile/2.2/web/server/http.scm
--- replaced obj /usr/share/guile/2.2/web/server.scm
--- replaced dir /usr/share/guile/2.2/web/server
--- replaced obj /usr/share/guile/2.2/web/response.scm
--- replaced obj /usr/share/guile/2.2/web/request.scm
--- replaced obj /usr/share/guile/2.2/web/http.scm
--- replaced obj /usr/share/guile/2.2/web/client.scm
--- replaced dir /usr/share/guile/2.2/web
--- replaced obj /usr/share/guile/2.2/texinfo/string-utils.scm
--- replaced obj /usr/share/guile/2.2/texinfo/serialize.scm
--- replaced obj /usr/share/guile/2.2/texinfo/reflection.scm
--- replaced obj /usr/share/guile/2.2/texinfo/plain-text.scm
--- replaced obj /usr/share/guile/2.2/texinfo/indexing.scm
--- replaced obj /usr/share/guile/2.2/texinfo/html.scm
--- replaced obj /usr/share/guile/2.2/texinfo/docbook.scm
--- replaced obj /usr/share/guile/2.2/texinfo.scm
--- replaced dir /usr/share/guile/2.2/texinfo
--- replaced obj /usr/share/guile/2.2/system/xref.scm
--- replaced obj /usr/share/guile/2.2/system/vm/vm.scm
--- replaced obj /usr/share/guile/2.2/system/vm/traps.scm
--- replaced obj /usr/share/guile/2.2/system/vm/trap-state.scm
--- replaced obj /usr/share/guile/2.2/system/vm/trace.scm
--- replaced obj /usr/share/guile/2.2/system/vm/program.scm
--- replaced obj /usr/share/guile/2.2/system/vm/loader.scm
--- replaced obj /usr/share/guile/2.2/system/vm/linker.scm
--- replaced obj /usr/share/guile/2.2/system/vm/inspect.scm
--- replaced obj /usr/share/guile/2.2/system/vm/frame.scm
--- replaced obj /usr/share/guile/2.2/system/vm/elf.scm
--- replaced obj /usr/share/guile/2.2/system/vm/dwarf.scm
--- replaced obj /usr/share/guile/2.2/system/vm/disassembler.scm
--- replaced obj /usr/share/guile/2.2/system/vm/debug.scm
--- replaced obj /usr/share/guile/2.2/system/vm/coverage.scm
--- replaced obj /usr/share/guile/2.2/system/vm/assembler.scm
--- replaced dir /usr/share/guile/2.2/system/vm
--- replaced obj /usr/share/guile/2.2/system/syntax.scm
--- replaced obj /usr/share/guile/2.2/system/repl/server.scm
--- replaced obj /usr/share/guile/2.2/system/repl/repl.scm
--- replaced obj /usr/share/guile/2.2/system/repl/error-handling.scm
--- replaced obj /usr/share/guile/2.2/system/repl/describe.scm
--- replaced obj /usr/share/guile/2.2/system/repl/debug.scm
--- replaced obj /usr/share/guile/2.2/system/repl/coop-server.scm
--- replaced obj /usr/share/guile/2.2/system/repl/common.scm
--- replaced obj /usr/share/guile/2.2/system/repl/command.scm
--- replaced dir /usr/share/guile/2.2/system/repl
--- replaced obj /usr/share/guile/2.2/system/foreign.scm
--- replaced obj /usr/share/guile/2.2/system/foreign-object.scm
--- replaced obj /usr/share/guile/2.2/system/base/types.scm
--- replaced obj /usr/share/guile/2.2/system/base/target.scm
--- replaced obj /usr/share/guile/2.2/system/base/syntax.scm
--- replaced obj /usr/share/guile/2.2/system/base/pmatch.scm
--- replaced obj /usr/share/guile/2.2/system/base/message.scm
--- replaced obj /usr/share/guile/2.2/system/base/language.scm
--- replaced obj /usr/share/guile/2.2/system/base/lalr.upstream.scm
--- replaced obj /usr/share/guile/2.2/system/base/lalr.scm
--- replaced obj /usr/share/guile/2.2/system/base/compile.scm
--- replaced obj /usr/share/guile/2.2/system/base/ck.scm
--- replaced dir /usr/share/guile/2.2/system/base
--- replaced dir /usr/share/guile/2.2/system
--- replaced obj /usr/share/guile/2.2/sxml/xpath.scm
--- replaced obj /usr/share/guile/2.2/sxml/upstream/input-parse.scm
--- replaced obj /usr/share/guile/2.2/sxml/upstream/assert.scm
--- replaced obj /usr/share/guile/2.2/sxml/upstream/SXPath-old.scm
--- replaced obj /usr/share/guile/2.2/sxml/upstream/SXML-tree-trans.scm
--- replaced obj /usr/share/guile/2.2/sxml/upstream/SSAX.scm
--- replaced dir /usr/share/guile/2.2/sxml/upstream
--- replaced obj /usr/share/guile/2.2/sxml/transform.scm
--- replaced obj /usr/share/guile/2.2/sxml/sxml-match.ss
--- replaced obj /usr/share/guile/2.2/sxml/ssax/input-parse.scm
--- replaced obj /usr/share/guile/2.2/sxml/ssax.scm
--- replaced dir /usr/share/guile/2.2/sxml/ssax
--- replaced obj /usr/share/guile/2.2/sxml/simple.scm
--- replaced obj /usr/share/guile/2.2/sxml/match.scm
--- replaced obj /usr/share/guile/2.2/sxml/fold.scm
--- replaced obj /usr/share/guile/2.2/sxml/apply-templates.scm
--- replaced dir /usr/share/guile/2.2/sxml
--- replaced obj /usr/share/guile/2.2/statprof.scm
--- replaced obj /usr/share/guile/2.2/srfi/srfi-98.scm
--- replaced obj /usr/share/guile/2.2/srfi/srfi-9/gnu.scm
--- replaced obj /usr/share/guile/2.2/srfi/srfi-9.scm
--- replaced dir /usr/share/guile/2.2/srfi/srfi-9
--- replaced obj /usr/share/guile/2.2/srfi/srfi-88.scm
--- replaced obj /usr/share/guile/2.2/srfi/srfi-8.scm
--- replaced obj /usr/share/guile/2.2/srfi/srfi-71.scm
--- replaced obj /usr/share/guile/2.2/srfi/srfi-69.scm
--- replaced obj /usr/share/guile/2.2/srfi/srfi-67/compare.scm
--- replaced obj /usr/share/guile/2.2/srfi/srfi-67.scm
--- replaced dir /usr/share/guile/2.2/srfi/srfi-67
--- replaced obj /usr/share/guile/2.2/srfi/srfi-64/testing.scm
--- replaced obj /usr/share/guile/2.2/srfi/srfi-64.scm
--- replaced dir /usr/share/guile/2.2/srfi/srfi-64
--- replaced obj /usr/share/guile/2.2/srfi/srfi-60.scm
--- replaced obj /usr/share/guile/2.2/srfi/srfi-6.scm
--- replaced obj /usr/share/guile/2.2/srfi/srfi-45.scm
--- replaced obj /usr/share/guile/2.2/srfi/srfi-43.scm
--- replaced obj /usr/share/guile/2.2/srfi/srfi-42/ec.scm
--- replaced obj /usr/share/guile/2.2/srfi/srfi-42.scm
--- replaced dir /usr/share/guile/2.2/srfi/srfi-42
--- replaced obj /usr/share/guile/2.2/srfi/srfi-41.scm
--- replaced obj /usr/share/guile/2.2/srfi/srfi-4/gnu.scm
--- replaced obj /usr/share/guile/2.2/srfi/srfi-4.scm
--- replaced dir /usr/share/guile/2.2/srfi/srfi-4
--- replaced obj /usr/share/guile/2.2/srfi/srfi-39.scm
--- replaced obj /usr/share/guile/2.2/srfi/srfi-38.scm
--- replaced obj /usr/share/guile/2.2/srfi/srfi-37.scm
--- replaced obj /usr/share/guile/2.2/srfi/srfi-35.scm
--- replaced obj /usr/share/guile/2.2/srfi/srfi-34.scm
--- replaced obj /usr/share/guile/2.2/srfi/srfi-31.scm
--- replaced obj /usr/share/guile/2.2/srfi/srfi-28.scm
--- replaced obj /usr/share/guile/2.2/srfi/srfi-27.scm
--- replaced obj /usr/share/guile/2.2/srfi/srfi-26.scm
--- replaced obj /usr/share/guile/2.2/srfi/srfi-2.scm
--- replaced obj /usr/share/guile/2.2/srfi/srfi-19.scm
--- replaced obj /usr/share/guile/2.2/srfi/srfi-18.scm
--- replaced obj /usr/share/guile/2.2/srfi/srfi-17.scm
--- replaced obj /usr/share/guile/2.2/srfi/srfi-16.scm
--- replaced obj /usr/share/guile/2.2/srfi/srfi-14.scm
--- replaced obj /usr/share/guile/2.2/srfi/srfi-13.scm
--- replaced obj /usr/share/guile/2.2/srfi/srfi-111.scm
--- replaced obj /usr/share/guile/2.2/srfi/srfi-11.scm
--- replaced obj /usr/share/guile/2.2/srfi/srfi-10.scm
--- replaced obj /usr/share/guile/2.2/srfi/srfi-1.scm
--- replaced dir /usr/share/guile/2.2/srfi
--- replaced obj /usr/share/guile/2.2/scripts/use2dot.scm
--- replaced obj /usr/share/guile/2.2/scripts/summarize-guile-TODO.scm
--- replaced obj /usr/share/guile/2.2/scripts/snarf-guile-m4-docs.scm
--- replaced obj /usr/share/guile/2.2/scripts/snarf-check-and-output-texi.scm
--- replaced obj /usr/share/guile/2.2/scripts/scan-api.scm
--- replaced obj /usr/share/guile/2.2/scripts/read-text-outline.scm
--- replaced obj /usr/share/guile/2.2/scripts/read-scheme-source.scm
--- replaced obj /usr/share/guile/2.2/scripts/read-rfc822.scm
--- replaced obj /usr/share/guile/2.2/scripts/punify.scm
--- replaced obj /usr/share/guile/2.2/scripts/list.scm
--- replaced obj /usr/share/guile/2.2/scripts/lint.scm
--- replaced obj /usr/share/guile/2.2/scripts/help.scm
--- replaced obj /usr/share/guile/2.2/scripts/generate-autoload.scm
--- replaced obj /usr/share/guile/2.2/scripts/frisk.scm
--- replaced obj /usr/share/guile/2.2/scripts/doc-snarf.scm
--- replaced obj /usr/share/guile/2.2/scripts/display-commentary.scm
--- replaced obj /usr/share/guile/2.2/scripts/disassemble.scm
--- replaced obj /usr/share/guile/2.2/scripts/compile.scm
--- replaced obj /usr/share/guile/2.2/scripts/autofrisk.scm
--- replaced obj /usr/share/guile/2.2/scripts/api-diff.scm
--- replaced dir /usr/share/guile/2.2/scripts
--- replaced obj /usr/share/guile/2.2/rnrs/unicode.scm
--- replaced obj /usr/share/guile/2.2/rnrs/syntax-case.scm
--- replaced obj /usr/share/guile/2.2/rnrs/sorting.scm
--- replaced obj /usr/share/guile/2.2/rnrs/records/syntactic.scm
--- replaced obj /usr/share/guile/2.2/rnrs/records/procedural.scm
--- replaced obj /usr/share/guile/2.2/rnrs/records/inspection.scm
--- replaced dir /usr/share/guile/2.2/rnrs/records
--- replaced obj /usr/share/guile/2.2/rnrs/r5rs.scm
--- replaced obj /usr/share/guile/2.2/rnrs/programs.scm
--- replaced obj /usr/share/guile/2.2/rnrs/mutable-strings.scm
--- replaced obj /usr/share/guile/2.2/rnrs/mutable-pairs.scm
--- replaced obj /usr/share/guile/2.2/rnrs/lists.scm
--- replaced obj /usr/share/guile/2.2/rnrs/io/simple.scm
--- replaced obj /usr/share/guile/2.2/rnrs/io/ports.scm
--- replaced dir /usr/share/guile/2.2/rnrs/io
--- replaced obj /usr/share/guile/2.2/rnrs/hashtables.scm
--- replaced obj /usr/share/guile/2.2/rnrs/files.scm
--- replaced obj /usr/share/guile/2.2/rnrs/exceptions.scm
--- replaced obj /usr/share/guile/2.2/rnrs/eval.scm
--- replaced obj /usr/share/guile/2.2/rnrs/enums.scm
--- replaced obj /usr/share/guile/2.2/rnrs/control.scm
--- replaced obj /usr/share/guile/2.2/rnrs/conditions.scm
--- replaced obj /usr/share/guile/2.2/rnrs/bytevectors.scm
--- replaced obj /usr/share/guile/2.2/rnrs/base.scm
--- replaced obj /usr/share/guile/2.2/rnrs/arithmetic/flonums.scm
--- replaced obj /usr/share/guile/2.2/rnrs/arithmetic/fixnums.scm
--- replaced obj /usr/share/guile/2.2/rnrs/arithmetic/bitwise.scm
--- replaced dir /usr/share/guile/2.2/rnrs/arithmetic
--- replaced obj /usr/share/guile/2.2/rnrs.scm
--- replaced dir /usr/share/guile/2.2/rnrs
--- replaced obj /usr/share/guile/2.2/oop/goops/stklos.scm
--- replaced obj /usr/share/guile/2.2/oop/goops/simple.scm
--- replaced obj /usr/share/guile/2.2/oop/goops/save.scm
--- replaced obj /usr/share/guile/2.2/oop/goops/internal.scm
--- replaced obj /usr/share/guile/2.2/oop/goops/describe.scm
--- replaced obj /usr/share/guile/2.2/oop/goops/composite-slot.scm
--- replaced obj /usr/share/guile/2.2/oop/goops/active-slot.scm
--- replaced obj /usr/share/guile/2.2/oop/goops/accessors.scm
--- replaced obj /usr/share/guile/2.2/oop/goops.scm
--- replaced dir /usr/share/guile/2.2/oop/goops
--- replaced dir /usr/share/guile/2.2/oop
--- replaced obj /usr/share/guile/2.2/language/value/spec.scm
--- replaced dir /usr/share/guile/2.2/language/value
--- replaced obj /usr/share/guile/2.2/language/tree-il/spec.scm
--- replaced obj /usr/share/guile/2.2/language/tree-il/primitives.scm
--- replaced obj /usr/share/guile/2.2/language/tree-il/peval.scm
--- replaced obj /usr/share/guile/2.2/language/tree-il/optimize.scm
--- replaced obj /usr/share/guile/2.2/language/tree-il/fix-letrec.scm
--- replaced obj /usr/share/guile/2.2/language/tree-il/effects.scm
--- replaced obj /usr/share/guile/2.2/language/tree-il/debug.scm
--- replaced obj /usr/share/guile/2.2/language/tree-il/compile-cps.scm
--- replaced obj /usr/share/guile/2.2/language/tree-il/canonicalize.scm
--- replaced obj /usr/share/guile/2.2/language/tree-il/analyze.scm
--- replaced obj /usr/share/guile/2.2/language/tree-il.scm
--- replaced dir /usr/share/guile/2.2/language/tree-il
--- replaced obj /usr/share/guile/2.2/language/scheme/spec.scm
--- replaced obj /usr/share/guile/2.2/language/scheme/decompile-tree-il.scm
--- replaced obj /usr/share/guile/2.2/language/scheme/compile-tree-il.scm
--- replaced dir /usr/share/guile/2.2/language/scheme
--- replaced obj /usr/share/guile/2.2/language/elisp/spec.scm
--- replaced obj /usr/share/guile/2.2/language/elisp/runtime/value-slot.scm
--- replaced obj /usr/share/guile/2.2/language/elisp/runtime/function-slot.scm
--- replaced obj /usr/share/guile/2.2/language/elisp/runtime.scm
--- replaced dir /usr/share/guile/2.2/language/elisp/runtime
--- replaced obj /usr/share/guile/2.2/language/elisp/parser.scm
--- replaced obj /usr/share/guile/2.2/language/elisp/lexer.scm
--- replaced obj /usr/share/guile/2.2/language/elisp/falias.scm
--- replaced obj /usr/share/guile/2.2/language/elisp/compile-tree-il.scm
--- replaced obj /usr/share/guile/2.2/language/elisp/boot.el
--- replaced obj /usr/share/guile/2.2/language/elisp/bindings.scm
--- replaced dir /usr/share/guile/2.2/language/elisp
--- replaced obj /usr/share/guile/2.2/language/ecmascript/tokenize.scm
--- replaced obj /usr/share/guile/2.2/language/ecmascript/spec.scm
--- replaced obj /usr/share/guile/2.2/language/ecmascript/parse.scm
--- replaced obj /usr/share/guile/2.2/language/ecmascript/impl.scm
--- replaced obj /usr/share/guile/2.2/language/ecmascript/function.scm
--- replaced obj /usr/share/guile/2.2/language/ecmascript/compile-tree-il.scm
--- replaced obj /usr/share/guile/2.2/language/ecmascript/base.scm
--- replaced obj /usr/share/guile/2.2/language/ecmascript/array.scm
--- replaced dir /usr/share/guile/2.2/language/ecmascript
--- replaced obj /usr/share/guile/2.2/language/cps/with-cps.scm
--- replaced obj /usr/share/guile/2.2/language/cps/verify.scm
--- replaced obj /usr/share/guile/2.2/language/cps/utils.scm
--- replaced obj /usr/share/guile/2.2/language/cps/types.scm
--- replaced obj /usr/share/guile/2.2/language/cps/type-fold.scm
--- replaced obj /usr/share/guile/2.2/language/cps/type-checks.scm
--- replaced obj /usr/share/guile/2.2/language/cps/split-rec.scm
--- replaced obj /usr/share/guile/2.2/language/cps/specialize-primcalls.scm
--- replaced obj /usr/share/guile/2.2/language/cps/specialize-numbers.scm
--- replaced obj /usr/share/guile/2.2/language/cps/spec.scm
--- replaced obj /usr/share/guile/2.2/language/cps/slot-allocation.scm
--- replaced obj /usr/share/guile/2.2/language/cps/simplify.scm
--- replaced obj /usr/share/guile/2.2/language/cps/self-references.scm
--- replaced obj /usr/share/guile/2.2/language/cps/rotate-loops.scm
--- replaced obj /usr/share/guile/2.2/language/cps/renumber.scm
--- replaced obj /usr/share/guile/2.2/language/cps/reify-primitives.scm
--- replaced obj /usr/share/guile/2.2/language/cps/prune-top-level-scopes.scm
--- replaced obj /usr/share/guile/2.2/language/cps/prune-bailouts.scm
--- replaced obj /usr/share/guile/2.2/language/cps/primitives.scm
--- replaced obj /usr/share/guile/2.2/language/cps/peel-loops.scm
--- replaced obj /usr/share/guile/2.2/language/cps/optimize.scm
--- replaced obj /usr/share/guile/2.2/language/cps/licm.scm
--- replaced obj /usr/share/guile/2.2/language/cps/intset.scm
--- replaced obj /usr/share/guile/2.2/language/cps/intmap.scm
--- replaced obj /usr/share/guile/2.2/language/cps/handle-interrupts.scm
--- replaced obj /usr/share/guile/2.2/language/cps/elide-values.scm
--- replaced obj /usr/share/guile/2.2/language/cps/effects-analysis.scm
--- replaced obj /usr/share/guile/2.2/language/cps/dce.scm
--- replaced obj /usr/share/guile/2.2/language/cps/cse.scm
--- replaced obj /usr/share/guile/2.2/language/cps/contification.scm
--- replaced obj /usr/share/guile/2.2/language/cps/constructors.scm
--- replaced obj /usr/share/guile/2.2/language/cps/compile-bytecode.scm
--- replaced obj /usr/share/guile/2.2/language/cps/closure-conversion.scm
--- replaced obj /usr/share/guile/2.2/language/cps.scm
--- replaced dir /usr/share/guile/2.2/language/cps
--- replaced obj /usr/share/guile/2.2/language/bytecode/spec.scm
--- replaced obj /usr/share/guile/2.2/language/bytecode.scm
--- replaced dir /usr/share/guile/2.2/language/bytecode
--- replaced obj /usr/share/guile/2.2/language/brainfuck/spec.scm
--- replaced obj /usr/share/guile/2.2/language/brainfuck/parse.scm
--- replaced obj /usr/share/guile/2.2/language/brainfuck/compile-tree-il.scm
--- replaced obj /usr/share/guile/2.2/language/brainfuck/compile-scheme.scm
--- replaced dir /usr/share/guile/2.2/language/brainfuck
--- replaced dir /usr/share/guile/2.2/language
--- replaced obj /usr/share/guile/2.2/ice-9/weak-vector.scm
--- replaced obj /usr/share/guile/2.2/ice-9/vlist.scm
--- replaced obj /usr/share/guile/2.2/ice-9/unicode.scm
--- replaced obj /usr/share/guile/2.2/ice-9/top-repl.scm
--- replaced obj /usr/share/guile/2.2/ice-9/time.scm
--- replaced obj /usr/share/guile/2.2/ice-9/threads.scm
--- replaced obj /usr/share/guile/2.2/ice-9/textual-ports.scm
--- replaced obj /usr/share/guile/2.2/ice-9/syncase.scm
--- replaced obj /usr/share/guile/2.2/ice-9/suspendable-ports.scm
--- replaced obj /usr/share/guile/2.2/ice-9/string-fun.scm
--- replaced obj /usr/share/guile/2.2/ice-9/streams.scm
--- replaced obj /usr/share/guile/2.2/ice-9/stack-catch.scm
--- replaced obj /usr/share/guile/2.2/ice-9/slib.scm
--- replaced obj /usr/share/guile/2.2/ice-9/session.scm
--- replaced obj /usr/share/guile/2.2/ice-9/serialize.scm
--- replaced obj /usr/share/guile/2.2/ice-9/scm-style-repl.scm
--- replaced obj /usr/share/guile/2.2/ice-9/save-stack.scm
--- replaced obj /usr/share/guile/2.2/ice-9/sandbox.scm
--- replaced obj /usr/share/guile/2.2/ice-9/safe.scm
--- replaced obj /usr/share/guile/2.2/ice-9/safe-r5rs.scm
--- replaced obj /usr/share/guile/2.2/ice-9/rw.scm
--- replaced obj /usr/share/guile/2.2/ice-9/runq.scm
--- replaced obj /usr/share/guile/2.2/ice-9/regex.scm
--- replaced obj /usr/share/guile/2.2/ice-9/receive.scm
--- replaced obj /usr/share/guile/2.2/ice-9/readline.scm
--- replaced obj /usr/share/guile/2.2/ice-9/rdelim.scm
--- replaced obj /usr/share/guile/2.2/ice-9/r6rs-libraries.scm
--- replaced obj /usr/share/guile/2.2/ice-9/r5rs.scm
--- replaced obj /usr/share/guile/2.2/ice-9/quasisyntax.scm
--- replaced obj /usr/share/guile/2.2/ice-9/q.scm
--- replaced obj /usr/share/guile/2.2/ice-9/psyntax.scm
--- replaced obj /usr/share/guile/2.2/ice-9/psyntax-pp.scm
--- replaced obj /usr/share/guile/2.2/ice-9/pretty-print.scm
--- replaced obj /usr/share/guile/2.2/ice-9/posix.scm
--- replaced obj /usr/share/guile/2.2/ice-9/ports.scm
--- replaced obj /usr/share/guile/2.2/ice-9/popen.scm
--- replaced obj /usr/share/guile/2.2/ice-9/poll.scm
--- replaced obj /usr/share/guile/2.2/ice-9/poe.scm
--- replaced obj /usr/share/guile/2.2/ice-9/peg/using-parsers.scm
--- replaced obj /usr/share/guile/2.2/ice-9/peg/string-peg.scm
--- replaced obj /usr/share/guile/2.2/ice-9/peg/simplify-tree.scm
--- replaced obj /usr/share/guile/2.2/ice-9/peg/codegen.scm
--- replaced obj /usr/share/guile/2.2/ice-9/peg/cache.scm
--- replaced obj /usr/share/guile/2.2/ice-9/peg.scm
--- replaced dir /usr/share/guile/2.2/ice-9/peg
--- replaced obj /usr/share/guile/2.2/ice-9/optargs.scm
--- replaced obj /usr/share/guile/2.2/ice-9/occam-channel.scm
--- replaced obj /usr/share/guile/2.2/ice-9/null.scm
--- replaced obj /usr/share/guile/2.2/ice-9/networking.scm
--- replaced obj /usr/share/guile/2.2/ice-9/match.upstream.scm
--- replaced obj /usr/share/guile/2.2/ice-9/match.scm
--- replaced obj /usr/share/guile/2.2/ice-9/mapping.scm
--- replaced obj /usr/share/guile/2.2/ice-9/ls.scm
--- replaced obj /usr/share/guile/2.2/ice-9/local-eval.scm
--- replaced obj /usr/share/guile/2.2/ice-9/list.scm
--- replaced obj /usr/share/guile/2.2/ice-9/lineio.scm
--- replaced obj /usr/share/guile/2.2/ice-9/iconv.scm
--- replaced obj /usr/share/guile/2.2/ice-9/i18n.scm
--- replaced obj /usr/share/guile/2.2/ice-9/history.scm
--- replaced obj /usr/share/guile/2.2/ice-9/hcons.scm
--- replaced obj /usr/share/guile/2.2/ice-9/hash-table.scm
--- replaced obj /usr/share/guile/2.2/ice-9/getopt-long.scm
--- replaced obj /usr/share/guile/2.2/ice-9/gap-buffer.scm
--- replaced obj /usr/share/guile/2.2/ice-9/futures.scm
--- replaced obj /usr/share/guile/2.2/ice-9/ftw.scm
--- replaced obj /usr/share/guile/2.2/ice-9/format.scm
--- replaced obj /usr/share/guile/2.2/ice-9/fdes-finalizers.scm
--- replaced obj /usr/share/guile/2.2/ice-9/expect.scm
--- replaced obj /usr/share/guile/2.2/ice-9/eval.scm
--- replaced obj /usr/share/guile/2.2/ice-9/eval-string.scm
--- replaced obj /usr/share/guile/2.2/ice-9/documentation.scm
--- replaced obj /usr/share/guile/2.2/ice-9/deprecated.scm
--- replaced obj /usr/share/guile/2.2/ice-9/debug.scm
--- replaced obj /usr/share/guile/2.2/ice-9/curried-definitions.scm
--- replaced obj /usr/share/guile/2.2/ice-9/control.scm
--- replaced obj /usr/share/guile/2.2/ice-9/common-list.scm
--- replaced obj /usr/share/guile/2.2/ice-9/command-line.scm
--- replaced obj /usr/share/guile/2.2/ice-9/channel.scm
--- replaced obj /usr/share/guile/2.2/ice-9/calling.scm
--- replaced obj /usr/share/guile/2.2/ice-9/buffered-input.scm
--- replaced obj /usr/share/guile/2.2/ice-9/boot-9.scm
--- replaced obj /usr/share/guile/2.2/ice-9/binary-ports.scm
--- replaced obj /usr/share/guile/2.2/ice-9/atomic.scm
--- replaced obj /usr/share/guile/2.2/ice-9/arrays.scm
--- replaced obj /usr/share/guile/2.2/ice-9/and-let-star.scm
--- replaced dir /usr/share/guile/2.2/ice-9
--- replaced obj /usr/share/guile/2.2/guile-procedures.txt
--- replaced dir /usr/share/guile/2.2
--- replaced dir /usr/share/guile
--- replaced obj /usr/share/gdb/auto-load/lib64/libguile-2.2.so.1.4.1-gdb.scm
--- replaced dir /usr/share/gdb/auto-load/lib64
--- replaced dir /usr/share/gdb/auto-load
--- replaced dir /usr/share/gdb
--- replaced obj /usr/share/aclocal/guile.m4
--- replaced dir /usr/share/aclocal
--- replaced dir /usr/share
--- replaced obj /usr/lib64/pkgconfig/guile-2.2.pc
--- replaced dir /usr/lib64/pkgconfig
--- replaced obj /usr/lib64/libguile-2.2.so.1.4.1
--- replaced sym /usr/lib64/libguile-2.2.so.1
--- replaced sym /usr/lib64/libguile-2.2.so
--- replaced obj /usr/lib64/guile/2.2/extensions/guile-readline.so.0.0.0
--- replaced sym /usr/lib64/guile/2.2/extensions/guile-readline.so.0
--- replaced sym /usr/lib64/guile/2.2/extensions/guile-readline.so
--- replaced dir /usr/lib64/guile/2.2/extensions
--- replaced obj /usr/lib64/guile/2.2/ccache/web/uri.go
--- replaced obj /usr/lib64/guile/2.2/ccache/web/server/http.go
--- replaced obj /usr/lib64/guile/2.2/ccache/web/server.go
--- replaced dir /usr/lib64/guile/2.2/ccache/web/server
--- replaced obj /usr/lib64/guile/2.2/ccache/web/response.go
--- replaced obj /usr/lib64/guile/2.2/ccache/web/request.go
--- replaced obj /usr/lib64/guile/2.2/ccache/web/http.go
--- replaced obj /usr/lib64/guile/2.2/ccache/web/client.go
--- replaced dir /usr/lib64/guile/2.2/ccache/web
--- replaced obj /usr/lib64/guile/2.2/ccache/texinfo/string-utils.go
--- replaced obj /usr/lib64/guile/2.2/ccache/texinfo/serialize.go
--- replaced obj /usr/lib64/guile/2.2/ccache/texinfo/reflection.go
--- replaced obj /usr/lib64/guile/2.2/ccache/texinfo/plain-text.go
--- replaced obj /usr/lib64/guile/2.2/ccache/texinfo/indexing.go
--- replaced obj /usr/lib64/guile/2.2/ccache/texinfo/html.go
--- replaced obj /usr/lib64/guile/2.2/ccache/texinfo/docbook.go
--- replaced obj /usr/lib64/guile/2.2/ccache/texinfo.go
--- replaced dir /usr/lib64/guile/2.2/ccache/texinfo
--- replaced obj /usr/lib64/guile/2.2/ccache/system/xref.go
--- replaced obj /usr/lib64/guile/2.2/ccache/system/vm/vm.go
--- replaced obj /usr/lib64/guile/2.2/ccache/system/vm/traps.go
--- replaced obj /usr/lib64/guile/2.2/ccache/system/vm/trap-state.go
--- replaced obj /usr/lib64/guile/2.2/ccache/system/vm/trace.go
--- replaced obj /usr/lib64/guile/2.2/ccache/system/vm/program.go
--- replaced obj /usr/lib64/guile/2.2/ccache/system/vm/loader.go
--- replaced obj /usr/lib64/guile/2.2/ccache/system/vm/linker.go
--- replaced obj /usr/lib64/guile/2.2/ccache/system/vm/inspect.go
--- replaced obj /usr/lib64/guile/2.2/ccache/system/vm/frame.go
--- replaced obj /usr/lib64/guile/2.2/ccache/system/vm/elf.go
--- replaced obj /usr/lib64/guile/2.2/ccache/system/vm/dwarf.go
--- replaced obj /usr/lib64/guile/2.2/ccache/system/vm/disassembler.go
--- replaced obj /usr/lib64/guile/2.2/ccache/system/vm/debug.go
--- replaced obj /usr/lib64/guile/2.2/ccache/system/vm/coverage.go
--- replaced obj /usr/lib64/guile/2.2/ccache/system/vm/assembler.go
--- replaced dir /usr/lib64/guile/2.2/ccache/system/vm
--- replaced obj /usr/lib64/guile/2.2/ccache/system/syntax.go
--- replaced obj /usr/lib64/guile/2.2/ccache/system/repl/server.go
--- replaced obj /usr/lib64/guile/2.2/ccache/system/repl/repl.go
--- replaced obj /usr/lib64/guile/2.2/ccache/system/repl/error-handling.go
--- replaced obj /usr/lib64/guile/2.2/ccache/system/repl/debug.go
--- replaced obj /usr/lib64/guile/2.2/ccache/system/repl/coop-server.go
--- replaced obj /usr/lib64/guile/2.2/ccache/system/repl/common.go
--- replaced obj /usr/lib64/guile/2.2/ccache/system/repl/command.go
--- replaced dir /usr/lib64/guile/2.2/ccache/system/repl
--- replaced obj /usr/lib64/guile/2.2/ccache/system/foreign.go
--- replaced obj /usr/lib64/guile/2.2/ccache/system/foreign-object.go
--- replaced obj /usr/lib64/guile/2.2/ccache/system/base/types.go
--- replaced obj /usr/lib64/guile/2.2/ccache/system/base/target.go
--- replaced obj /usr/lib64/guile/2.2/ccache/system/base/syntax.go
--- replaced obj /usr/lib64/guile/2.2/ccache/system/base/pmatch.go
--- replaced obj /usr/lib64/guile/2.2/ccache/system/base/message.go
--- replaced obj /usr/lib64/guile/2.2/ccache/system/base/language.go
--- replaced obj /usr/lib64/guile/2.2/ccache/system/base/lalr.go
--- replaced obj /usr/lib64/guile/2.2/ccache/system/base/compile.go
--- replaced obj /usr/lib64/guile/2.2/ccache/system/base/ck.go
--- replaced dir /usr/lib64/guile/2.2/ccache/system/base
--- replaced dir /usr/lib64/guile/2.2/ccache/system
--- replaced obj /usr/lib64/guile/2.2/ccache/sxml/xpath.go
--- replaced obj /usr/lib64/guile/2.2/ccache/sxml/transform.go
--- replaced obj /usr/lib64/guile/2.2/ccache/sxml/ssax/input-parse.go
--- replaced obj /usr/lib64/guile/2.2/ccache/sxml/ssax.go
--- replaced dir /usr/lib64/guile/2.2/ccache/sxml/ssax
--- replaced obj /usr/lib64/guile/2.2/ccache/sxml/simple.go
--- replaced obj /usr/lib64/guile/2.2/ccache/sxml/match.go
--- replaced obj /usr/lib64/guile/2.2/ccache/sxml/fold.go
--- replaced obj /usr/lib64/guile/2.2/ccache/sxml/apply-templates.go
--- replaced dir /usr/lib64/guile/2.2/ccache/sxml
--- replaced obj /usr/lib64/guile/2.2/ccache/statprof.go
--- replaced obj /usr/lib64/guile/2.2/ccache/srfi/srfi-98.go
--- replaced obj /usr/lib64/guile/2.2/ccache/srfi/srfi-9/gnu.go
--- replaced obj /usr/lib64/guile/2.2/ccache/srfi/srfi-9.go
--- replaced dir /usr/lib64/guile/2.2/ccache/srfi/srfi-9
--- replaced obj /usr/lib64/guile/2.2/ccache/srfi/srfi-88.go
--- replaced obj /usr/lib64/guile/2.2/ccache/srfi/srfi-8.go
--- replaced obj /usr/lib64/guile/2.2/ccache/srfi/srfi-71.go
--- replaced obj /usr/lib64/guile/2.2/ccache/srfi/srfi-69.go
--- replaced obj /usr/lib64/guile/2.2/ccache/srfi/srfi-67.go
--- replaced obj /usr/lib64/guile/2.2/ccache/srfi/srfi-64.go
--- replaced obj /usr/lib64/guile/2.2/ccache/srfi/srfi-60.go
--- replaced obj /usr/lib64/guile/2.2/ccache/srfi/srfi-6.go
--- replaced obj /usr/lib64/guile/2.2/ccache/srfi/srfi-45.go
--- replaced obj /usr/lib64/guile/2.2/ccache/srfi/srfi-43.go
--- replaced obj /usr/lib64/guile/2.2/ccache/srfi/srfi-42.go
--- replaced obj /usr/lib64/guile/2.2/ccache/srfi/srfi-41.go
--- replaced obj /usr/lib64/guile/2.2/ccache/srfi/srfi-4/gnu.go
--- replaced obj /usr/lib64/guile/2.2/ccache/srfi/srfi-4.go
--- replaced dir /usr/lib64/guile/2.2/ccache/srfi/srfi-4
--- replaced obj /usr/lib64/guile/2.2/ccache/srfi/srfi-39.go
--- replaced obj /usr/lib64/guile/2.2/ccache/srfi/srfi-38.go
--- replaced obj /usr/lib64/guile/2.2/ccache/srfi/srfi-37.go
--- replaced obj /usr/lib64/guile/2.2/ccache/srfi/srfi-35.go
--- replaced obj /usr/lib64/guile/2.2/ccache/srfi/srfi-34.go
--- replaced obj /usr/lib64/guile/2.2/ccache/srfi/srfi-31.go
--- replaced obj /usr/lib64/guile/2.2/ccache/srfi/srfi-28.go
--- replaced obj /usr/lib64/guile/2.2/ccache/srfi/srfi-27.go
--- replaced obj /usr/lib64/guile/2.2/ccache/srfi/srfi-26.go
--- replaced obj /usr/lib64/guile/2.2/ccache/srfi/srfi-2.go
--- replaced obj /usr/lib64/guile/2.2/ccache/srfi/srfi-19.go
--- replaced obj /usr/lib64/guile/2.2/ccache/srfi/srfi-18.go
--- replaced obj /usr/lib64/guile/2.2/ccache/srfi/srfi-17.go
--- replaced obj /usr/lib64/guile/2.2/ccache/srfi/srfi-16.go
--- replaced obj /usr/lib64/guile/2.2/ccache/srfi/srfi-14.go
--- replaced obj /usr/lib64/guile/2.2/ccache/srfi/srfi-13.go
--- replaced obj /usr/lib64/guile/2.2/ccache/srfi/srfi-111.go
--- replaced obj /usr/lib64/guile/2.2/ccache/srfi/srfi-11.go
--- replaced obj /usr/lib64/guile/2.2/ccache/srfi/srfi-10.go
--- replaced obj /usr/lib64/guile/2.2/ccache/srfi/srfi-1.go
--- replaced dir /usr/lib64/guile/2.2/ccache/srfi
--- replaced obj /usr/lib64/guile/2.2/ccache/scripts/use2dot.go
--- replaced obj /usr/lib64/guile/2.2/ccache/scripts/summarize-guile-TODO.go
--- replaced obj /usr/lib64/guile/2.2/ccache/scripts/snarf-guile-m4-docs.go
--- replaced obj /usr/lib64/guile/2.2/ccache/scripts/snarf-check-and-output-texi.go
--- replaced obj /usr/lib64/guile/2.2/ccache/scripts/scan-api.go
--- replaced obj /usr/lib64/guile/2.2/ccache/scripts/read-text-outline.go
--- replaced obj /usr/lib64/guile/2.2/ccache/scripts/read-scheme-source.go
--- replaced obj /usr/lib64/guile/2.2/ccache/scripts/read-rfc822.go
--- replaced obj /usr/lib64/guile/2.2/ccache/scripts/punify.go
--- replaced obj /usr/lib64/guile/2.2/ccache/scripts/list.go
--- replaced obj /usr/lib64/guile/2.2/ccache/scripts/lint.go
--- replaced obj /usr/lib64/guile/2.2/ccache/scripts/help.go
--- replaced obj /usr/lib64/guile/2.2/ccache/scripts/generate-autoload.go
--- replaced obj /usr/lib64/guile/2.2/ccache/scripts/frisk.go
--- replaced obj /usr/lib64/guile/2.2/ccache/scripts/doc-snarf.go
--- replaced obj /usr/lib64/guile/2.2/ccache/scripts/display-commentary.go
--- replaced obj /usr/lib64/guile/2.2/ccache/scripts/disassemble.go
--- replaced obj /usr/lib64/guile/2.2/ccache/scripts/compile.go
--- replaced obj /usr/lib64/guile/2.2/ccache/scripts/autofrisk.go
--- replaced obj /usr/lib64/guile/2.2/ccache/scripts/api-diff.go
--- replaced dir /usr/lib64/guile/2.2/ccache/scripts
--- replaced obj /usr/lib64/guile/2.2/ccache/rnrs/unicode.go
--- replaced obj /usr/lib64/guile/2.2/ccache/rnrs/syntax-case.go
--- replaced obj /usr/lib64/guile/2.2/ccache/rnrs/sorting.go
--- replaced obj /usr/lib64/guile/2.2/ccache/rnrs/records/syntactic.go
--- replaced obj /usr/lib64/guile/2.2/ccache/rnrs/records/procedural.go
--- replaced obj /usr/lib64/guile/2.2/ccache/rnrs/records/inspection.go
--- replaced dir /usr/lib64/guile/2.2/ccache/rnrs/records
--- replaced obj /usr/lib64/guile/2.2/ccache/rnrs/r5rs.go
--- replaced obj /usr/lib64/guile/2.2/ccache/rnrs/programs.go
--- replaced obj /usr/lib64/guile/2.2/ccache/rnrs/mutable-strings.go
--- replaced obj /usr/lib64/guile/2.2/ccache/rnrs/mutable-pairs.go
--- replaced obj /usr/lib64/guile/2.2/ccache/rnrs/lists.go
--- replaced obj /usr/lib64/guile/2.2/ccache/rnrs/io/simple.go
--- replaced obj /usr/lib64/guile/2.2/ccache/rnrs/io/ports.go
--- replaced dir /usr/lib64/guile/2.2/ccache/rnrs/io
--- replaced obj /usr/lib64/guile/2.2/ccache/rnrs/hashtables.go
--- replaced obj /usr/lib64/guile/2.2/ccache/rnrs/files.go
--- replaced obj /usr/lib64/guile/2.2/ccache/rnrs/exceptions.go
--- replaced obj /usr/lib64/guile/2.2/ccache/rnrs/eval.go
--- replaced obj /usr/lib64/guile/2.2/ccache/rnrs/enums.go
--- replaced obj /usr/lib64/guile/2.2/ccache/rnrs/control.go
--- replaced obj /usr/lib64/guile/2.2/ccache/rnrs/conditions.go
--- replaced obj /usr/lib64/guile/2.2/ccache/rnrs/bytevectors.go
--- replaced obj /usr/lib64/guile/2.2/ccache/rnrs/base.go
--- replaced obj /usr/lib64/guile/2.2/ccache/rnrs/arithmetic/flonums.go
--- replaced obj /usr/lib64/guile/2.2/ccache/rnrs/arithmetic/fixnums.go
--- replaced obj /usr/lib64/guile/2.2/ccache/rnrs/arithmetic/bitwise.go
--- replaced dir /usr/lib64/guile/2.2/ccache/rnrs/arithmetic
--- replaced obj /usr/lib64/guile/2.2/ccache/rnrs.go
--- replaced dir /usr/lib64/guile/2.2/ccache/rnrs
--- replaced obj /usr/lib64/guile/2.2/ccache/oop/goops/stklos.go
--- replaced obj /usr/lib64/guile/2.2/ccache/oop/goops/simple.go
--- replaced obj /usr/lib64/guile/2.2/ccache/oop/goops/save.go
--- replaced obj /usr/lib64/guile/2.2/ccache/oop/goops/internal.go
--- replaced obj /usr/lib64/guile/2.2/ccache/oop/goops/describe.go
--- replaced obj /usr/lib64/guile/2.2/ccache/oop/goops/composite-slot.go
--- replaced obj /usr/lib64/guile/2.2/ccache/oop/goops/active-slot.go
--- replaced obj /usr/lib64/guile/2.2/ccache/oop/goops/accessors.go
--- replaced obj /usr/lib64/guile/2.2/ccache/oop/goops.go
--- replaced dir /usr/lib64/guile/2.2/ccache/oop/goops
--- replaced dir /usr/lib64/guile/2.2/ccache/oop
--- replaced obj /usr/lib64/guile/2.2/ccache/language/value/spec.go
--- replaced dir /usr/lib64/guile/2.2/ccache/language/value
--- replaced obj /usr/lib64/guile/2.2/ccache/language/tree-il/spec.go
--- replaced obj /usr/lib64/guile/2.2/ccache/language/tree-il/primitives.go
--- replaced obj /usr/lib64/guile/2.2/ccache/language/tree-il/peval.go
--- replaced obj /usr/lib64/guile/2.2/ccache/language/tree-il/optimize.go
--- replaced obj /usr/lib64/guile/2.2/ccache/language/tree-il/fix-letrec.go
--- replaced obj /usr/lib64/guile/2.2/ccache/language/tree-il/effects.go
--- replaced obj /usr/lib64/guile/2.2/ccache/language/tree-il/debug.go
--- replaced obj /usr/lib64/guile/2.2/ccache/language/tree-il/compile-cps.go
--- replaced obj /usr/lib64/guile/2.2/ccache/language/tree-il/canonicalize.go
--- replaced obj /usr/lib64/guile/2.2/ccache/language/tree-il/analyze.go
--- replaced obj /usr/lib64/guile/2.2/ccache/language/tree-il.go
--- replaced dir /usr/lib64/guile/2.2/ccache/language/tree-il
--- replaced obj /usr/lib64/guile/2.2/ccache/language/scheme/spec.go
--- replaced obj /usr/lib64/guile/2.2/ccache/language/scheme/decompile-tree-il.go
--- replaced obj /usr/lib64/guile/2.2/ccache/language/scheme/compile-tree-il.go
--- replaced dir /usr/lib64/guile/2.2/ccache/language/scheme
--- replaced obj /usr/lib64/guile/2.2/ccache/language/elisp/spec.go
--- replaced obj /usr/lib64/guile/2.2/ccache/language/elisp/runtime/value-slot.go
--- replaced obj /usr/lib64/guile/2.2/ccache/language/elisp/runtime/function-slot.go
--- replaced obj /usr/lib64/guile/2.2/ccache/language/elisp/runtime.go
--- replaced dir /usr/lib64/guile/2.2/ccache/language/elisp/runtime
--- replaced obj /usr/lib64/guile/2.2/ccache/language/elisp/parser.go
--- replaced obj /usr/lib64/guile/2.2/ccache/language/elisp/lexer.go
--- replaced obj /usr/lib64/guile/2.2/ccache/language/elisp/falias.go
--- replaced obj /usr/lib64/guile/2.2/ccache/language/elisp/compile-tree-il.go
--- replaced obj /usr/lib64/guile/2.2/ccache/language/elisp/boot.go
--- replaced obj /usr/lib64/guile/2.2/ccache/language/elisp/bindings.go
--- replaced dir /usr/lib64/guile/2.2/ccache/language/elisp
--- replaced obj /usr/lib64/guile/2.2/ccache/language/ecmascript/tokenize.go
--- replaced obj /usr/lib64/guile/2.2/ccache/language/ecmascript/spec.go
--- replaced obj /usr/lib64/guile/2.2/ccache/language/ecmascript/parse.go
--- replaced obj /usr/lib64/guile/2.2/ccache/language/ecmascript/impl.go
--- replaced obj /usr/lib64/guile/2.2/ccache/language/ecmascript/function.go
--- replaced obj /usr/lib64/guile/2.2/ccache/language/ecmascript/compile-tree-il.go
--- replaced obj /usr/lib64/guile/2.2/ccache/language/ecmascript/base.go
--- replaced obj /usr/lib64/guile/2.2/ccache/language/ecmascript/array.go
--- replaced dir /usr/lib64/guile/2.2/ccache/language/ecmascript
--- replaced obj /usr/lib64/guile/2.2/ccache/language/cps/with-cps.go
--- replaced obj /usr/lib64/guile/2.2/ccache/language/cps/verify.go
--- replaced obj /usr/lib64/guile/2.2/ccache/language/cps/utils.go
--- replaced obj /usr/lib64/guile/2.2/ccache/language/cps/types.go
--- replaced obj /usr/lib64/guile/2.2/ccache/language/cps/type-fold.go
--- replaced obj /usr/lib64/guile/2.2/ccache/language/cps/type-checks.go
--- replaced obj /usr/lib64/guile/2.2/ccache/language/cps/split-rec.go
--- replaced obj /usr/lib64/guile/2.2/ccache/language/cps/specialize-primcalls.go
--- replaced obj /usr/lib64/guile/2.2/ccache/language/cps/specialize-numbers.go
--- replaced obj /usr/lib64/guile/2.2/ccache/language/cps/spec.go
--- replaced obj /usr/lib64/guile/2.2/ccache/language/cps/slot-allocation.go
--- replaced obj /usr/lib64/guile/2.2/ccache/language/cps/simplify.go
--- replaced obj /usr/lib64/guile/2.2/ccache/language/cps/self-references.go
--- replaced obj /usr/lib64/guile/2.2/ccache/language/cps/rotate-loops.go
--- replaced obj /usr/lib64/guile/2.2/ccache/language/cps/renumber.go
--- replaced obj /usr/lib64/guile/2.2/ccache/language/cps/reify-primitives.go
--- replaced obj /usr/lib64/guile/2.2/ccache/language/cps/prune-top-level-scopes.go
--- replaced obj /usr/lib64/guile/2.2/ccache/language/cps/prune-bailouts.go
--- replaced obj /usr/lib64/guile/2.2/ccache/language/cps/primitives.go
--- replaced obj /usr/lib64/guile/2.2/ccache/language/cps/peel-loops.go
--- replaced obj /usr/lib64/guile/2.2/ccache/language/cps/optimize.go
--- replaced obj /usr/lib64/guile/2.2/ccache/language/cps/licm.go
--- replaced obj /usr/lib64/guile/2.2/ccache/language/cps/intset.go
--- replaced obj /usr/lib64/guile/2.2/ccache/language/cps/intmap.go
--- replaced obj /usr/lib64/guile/2.2/ccache/language/cps/handle-interrupts.go
--- replaced obj /usr/lib64/guile/2.2/ccache/language/cps/elide-values.go
--- replaced obj /usr/lib64/guile/2.2/ccache/language/cps/effects-analysis.go
--- replaced obj /usr/lib64/guile/2.2/ccache/language/cps/dce.go
--- replaced obj /usr/lib64/guile/2.2/ccache/language/cps/cse.go
--- replaced obj /usr/lib64/guile/2.2/ccache/language/cps/contification.go
--- replaced obj /usr/lib64/guile/2.2/ccache/language/cps/constructors.go
--- replaced obj /usr/lib64/guile/2.2/ccache/language/cps/compile-bytecode.go
--- replaced obj /usr/lib64/guile/2.2/ccache/language/cps/closure-conversion.go
--- replaced obj /usr/lib64/guile/2.2/ccache/language/cps.go
--- replaced dir /usr/lib64/guile/2.2/ccache/language/cps
--- replaced obj /usr/lib64/guile/2.2/ccache/language/bytecode/spec.go
--- replaced obj /usr/lib64/guile/2.2/ccache/language/bytecode.go
--- replaced dir /usr/lib64/guile/2.2/ccache/language/bytecode
--- replaced obj /usr/lib64/guile/2.2/ccache/language/brainfuck/spec.go
--- replaced obj /usr/lib64/guile/2.2/ccache/language/brainfuck/parse.go
--- replaced obj /usr/lib64/guile/2.2/ccache/language/brainfuck/compile-tree-il.go
--- replaced obj /usr/lib64/guile/2.2/ccache/language/brainfuck/compile-scheme.go
--- replaced dir /usr/lib64/guile/2.2/ccache/language/brainfuck
--- replaced dir /usr/lib64/guile/2.2/ccache/language
--- replaced obj /usr/lib64/guile/2.2/ccache/ice-9/weak-vector.go
--- replaced obj /usr/lib64/guile/2.2/ccache/ice-9/vlist.go
--- replaced obj /usr/lib64/guile/2.2/ccache/ice-9/unicode.go
--- replaced obj /usr/lib64/guile/2.2/ccache/ice-9/top-repl.go
--- replaced obj /usr/lib64/guile/2.2/ccache/ice-9/time.go
--- replaced obj /usr/lib64/guile/2.2/ccache/ice-9/threads.go
--- replaced obj /usr/lib64/guile/2.2/ccache/ice-9/textual-ports.go
--- replaced obj /usr/lib64/guile/2.2/ccache/ice-9/syncase.go
--- replaced obj /usr/lib64/guile/2.2/ccache/ice-9/suspendable-ports.go
--- replaced obj /usr/lib64/guile/2.2/ccache/ice-9/string-fun.go
--- replaced obj /usr/lib64/guile/2.2/ccache/ice-9/streams.go
--- replaced obj /usr/lib64/guile/2.2/ccache/ice-9/stack-catch.go
--- replaced obj /usr/lib64/guile/2.2/ccache/ice-9/slib.go
--- replaced obj /usr/lib64/guile/2.2/ccache/ice-9/session.go
--- replaced obj /usr/lib64/guile/2.2/ccache/ice-9/serialize.go
--- replaced obj /usr/lib64/guile/2.2/ccache/ice-9/scm-style-repl.go
--- replaced obj /usr/lib64/guile/2.2/ccache/ice-9/save-stack.go
--- replaced obj /usr/lib64/guile/2.2/ccache/ice-9/sandbox.go
--- replaced obj /usr/lib64/guile/2.2/ccache/ice-9/safe.go
--- replaced obj /usr/lib64/guile/2.2/ccache/ice-9/safe-r5rs.go
--- replaced obj /usr/lib64/guile/2.2/ccache/ice-9/rw.go
--- replaced obj /usr/lib64/guile/2.2/ccache/ice-9/runq.go
--- replaced obj /usr/lib64/guile/2.2/ccache/ice-9/regex.go
--- replaced obj /usr/lib64/guile/2.2/ccache/ice-9/receive.go
--- replaced obj /usr/lib64/guile/2.2/ccache/ice-9/readline.go
--- replaced obj /usr/lib64/guile/2.2/ccache/ice-9/rdelim.go
--- replaced obj /usr/lib64/guile/2.2/ccache/ice-9/r5rs.go
--- replaced obj /usr/lib64/guile/2.2/ccache/ice-9/q.go
--- replaced obj /usr/lib64/guile/2.2/ccache/ice-9/psyntax-pp.go
--- replaced obj /usr/lib64/guile/2.2/ccache/ice-9/pretty-print.go
--- replaced obj /usr/lib64/guile/2.2/ccache/ice-9/posix.go
--- replaced obj /usr/lib64/guile/2.2/ccache/ice-9/ports.go
--- replaced obj /usr/lib64/guile/2.2/ccache/ice-9/popen.go
--- replaced obj /usr/lib64/guile/2.2/ccache/ice-9/poll.go
--- replaced obj /usr/lib64/guile/2.2/ccache/ice-9/poe.go
--- replaced obj /usr/lib64/guile/2.2/ccache/ice-9/peg/using-parsers.go
--- replaced obj /usr/lib64/guile/2.2/ccache/ice-9/peg/string-peg.go
--- replaced obj /usr/lib64/guile/2.2/ccache/ice-9/peg/simplify-tree.go
--- replaced obj /usr/lib64/guile/2.2/ccache/ice-9/peg/codegen.go
--- replaced obj /usr/lib64/guile/2.2/ccache/ice-9/peg/cache.go
--- replaced obj /usr/lib64/guile/2.2/ccache/ice-9/peg.go
--- replaced dir /usr/lib64/guile/2.2/ccache/ice-9/peg
--- replaced obj /usr/lib64/guile/2.2/ccache/ice-9/optargs.go
--- replaced obj /usr/lib64/guile/2.2/ccache/ice-9/occam-channel.go
--- replaced obj /usr/lib64/guile/2.2/ccache/ice-9/null.go
--- replaced obj /usr/lib64/guile/2.2/ccache/ice-9/networking.go
--- replaced obj /usr/lib64/guile/2.2/ccache/ice-9/match.go
--- replaced obj /usr/lib64/guile/2.2/ccache/ice-9/mapping.go
--- replaced obj /usr/lib64/guile/2.2/ccache/ice-9/ls.go
--- replaced obj /usr/lib64/guile/2.2/ccache/ice-9/local-eval.go
--- replaced obj /usr/lib64/guile/2.2/ccache/ice-9/list.go
--- replaced obj /usr/lib64/guile/2.2/ccache/ice-9/lineio.go
--- replaced obj /usr/lib64/guile/2.2/ccache/ice-9/iconv.go
--- replaced obj /usr/lib64/guile/2.2/ccache/ice-9/i18n.go
--- replaced obj /usr/lib64/guile/2.2/ccache/ice-9/history.go
--- replaced obj /usr/lib64/guile/2.2/ccache/ice-9/hcons.go
--- replaced obj /usr/lib64/guile/2.2/ccache/ice-9/hash-table.go
--- replaced obj /usr/lib64/guile/2.2/ccache/ice-9/getopt-long.go
--- replaced obj /usr/lib64/guile/2.2/ccache/ice-9/gap-buffer.go
--- replaced obj /usr/lib64/guile/2.2/ccache/ice-9/futures.go
--- replaced obj /usr/lib64/guile/2.2/ccache/ice-9/ftw.go
--- replaced obj /usr/lib64/guile/2.2/ccache/ice-9/format.go
--- replaced obj /usr/lib64/guile/2.2/ccache/ice-9/fdes-finalizers.go
--- replaced obj /usr/lib64/guile/2.2/ccache/ice-9/expect.go
--- replaced obj /usr/lib64/guile/2.2/ccache/ice-9/eval.go
--- replaced obj /usr/lib64/guile/2.2/ccache/ice-9/eval-string.go
--- replaced obj /usr/lib64/guile/2.2/ccache/ice-9/documentation.go
--- replaced obj /usr/lib64/guile/2.2/ccache/ice-9/deprecated.go
--- replaced obj /usr/lib64/guile/2.2/ccache/ice-9/debug.go
--- replaced obj /usr/lib64/guile/2.2/ccache/ice-9/curried-definitions.go
--- replaced obj /usr/lib64/guile/2.2/ccache/ice-9/control.go
--- replaced obj /usr/lib64/guile/2.2/ccache/ice-9/common-list.go
--- replaced obj /usr/lib64/guile/2.2/ccache/ice-9/command-line.go
--- replaced obj /usr/lib64/guile/2.2/ccache/ice-9/channel.go
--- replaced obj /usr/lib64/guile/2.2/ccache/ice-9/calling.go
--- replaced obj /usr/lib64/guile/2.2/ccache/ice-9/buffered-input.go
--- replaced obj /usr/lib64/guile/2.2/ccache/ice-9/boot-9.go
--- replaced obj /usr/lib64/guile/2.2/ccache/ice-9/binary-ports.go
--- replaced obj /usr/lib64/guile/2.2/ccache/ice-9/atomic.go
--- replaced obj /usr/lib64/guile/2.2/ccache/ice-9/arrays.go
--- replaced obj /usr/lib64/guile/2.2/ccache/ice-9/and-let-star.go
--- replaced dir /usr/lib64/guile/2.2/ccache/ice-9
--- replaced dir /usr/lib64/guile/2.2/ccache
--- replaced dir /usr/lib64/guile/2.2
--- replaced dir /usr/lib64/guile
--- replaced dir /usr/lib64
--- replaced obj /usr/include/guile/2.2/readline.h
--- replaced obj /usr/include/guile/2.2/libguile/weak-vector.h
--- replaced obj /usr/include/guile/2.2/libguile/weak-table.h
--- replaced obj /usr/include/guile/2.2/libguile/weak-set.h
--- replaced obj /usr/include/guile/2.2/libguile/vports.h
--- replaced obj /usr/include/guile/2.2/libguile/vm.h
--- replaced obj /usr/include/guile/2.2/libguile/vm-expand.h
--- replaced obj /usr/include/guile/2.2/libguile/vm-builtins.h
--- replaced obj /usr/include/guile/2.2/libguile/version.h
--- replaced obj /usr/include/guile/2.2/libguile/vectors.h
--- replaced obj /usr/include/guile/2.2/libguile/variable.h
--- replaced obj /usr/include/guile/2.2/libguile/values.h
--- replaced obj /usr/include/guile/2.2/libguile/validate.h
--- replaced obj /usr/include/guile/2.2/libguile/uniform.h
--- replaced obj /usr/include/guile/2.2/libguile/unicode.h
--- replaced obj /usr/include/guile/2.2/libguile/trees.h
--- replaced obj /usr/include/guile/2.2/libguile/throw.h
--- replaced obj /usr/include/guile/2.2/libguile/threads.h
--- replaced obj /usr/include/guile/2.2/libguile/tags.h
--- replaced obj /usr/include/guile/2.2/libguile/symbols.h
--- replaced obj /usr/include/guile/2.2/libguile/struct.h
--- replaced obj /usr/include/guile/2.2/libguile/strports.h
--- replaced obj /usr/include/guile/2.2/libguile/strorder.h
--- replaced obj /usr/include/guile/2.2/libguile/strings.h
--- replaced obj /usr/include/guile/2.2/libguile/stime.h
--- replaced obj /usr/include/guile/2.2/libguile/stacks.h
--- replaced obj /usr/include/guile/2.2/libguile/stackchk.h
--- replaced obj /usr/include/guile/2.2/libguile/srfi-60.h
--- replaced obj /usr/include/guile/2.2/libguile/srfi-4.h
--- replaced obj /usr/include/guile/2.2/libguile/srfi-14.h
--- replaced obj /usr/include/guile/2.2/libguile/srfi-13.h
--- replaced obj /usr/include/guile/2.2/libguile/srfi-1.h
--- replaced obj /usr/include/guile/2.2/libguile/srcprop.h
--- replaced obj /usr/include/guile/2.2/libguile/sort.h
--- replaced obj /usr/include/guile/2.2/libguile/socket.h
--- replaced obj /usr/include/guile/2.2/libguile/snarf.h
--- replaced obj /usr/include/guile/2.2/libguile/smob.h
--- replaced obj /usr/include/guile/2.2/libguile/simpos.h
--- replaced obj /usr/include/guile/2.2/libguile/script.h
--- replaced obj /usr/include/guile/2.2/libguile/scmsigs.h
--- replaced obj /usr/include/guile/2.2/libguile/scmconfig.h
--- replaced obj /usr/include/guile/2.2/libguile/rw.h
--- replaced obj /usr/include/guile/2.2/libguile/regex-posix.h
--- replaced obj /usr/include/guile/2.2/libguile/read.h
--- replaced obj /usr/include/guile/2.2/libguile/rdelim.h
--- replaced obj /usr/include/guile/2.2/libguile/random.h
--- replaced obj /usr/include/guile/2.2/libguile/r6rs-ports.h
--- replaced obj /usr/include/guile/2.2/libguile/pthread-threads.h
--- replaced obj /usr/include/guile/2.2/libguile/promises.h
--- replaced obj /usr/include/guile/2.2/libguile/programs.h
--- replaced obj /usr/include/guile/2.2/libguile/procs.h
--- replaced obj /usr/include/guile/2.2/libguile/procprop.h
--- replaced obj /usr/include/guile/2.2/libguile/print.h
--- replaced obj /usr/include/guile/2.2/libguile/posix.h
--- replaced obj /usr/include/guile/2.2/libguile/ports.h
--- replaced obj /usr/include/guile/2.2/libguile/poll.h
--- replaced obj /usr/include/guile/2.2/libguile/pairs.h
--- replaced obj /usr/include/guile/2.2/libguile/options.h
--- replaced obj /usr/include/guile/2.2/libguile/objprop.h
--- replaced obj /usr/include/guile/2.2/libguile/numbers.h
--- replaced obj /usr/include/guile/2.2/libguile/null-threads.h
--- replaced obj /usr/include/guile/2.2/libguile/net_db.h
--- replaced obj /usr/include/guile/2.2/libguile/modules.h
--- replaced obj /usr/include/guile/2.2/libguile/memoize.h
--- replaced obj /usr/include/guile/2.2/libguile/mallocs.h
--- replaced obj /usr/include/guile/2.2/libguile/macros.h
--- replaced obj /usr/include/guile/2.2/libguile/loader.h
--- replaced obj /usr/include/guile/2.2/libguile/load.h
--- replaced obj /usr/include/guile/2.2/libguile/list.h
--- replaced obj /usr/include/guile/2.2/libguile/keywords.h
--- replaced obj /usr/include/guile/2.2/libguile/iselect.h
--- replaced obj /usr/include/guile/2.2/libguile/ioext.h
--- replaced obj /usr/include/guile/2.2/libguile/instructions.h
--- replaced obj /usr/include/guile/2.2/libguile/inline.h
--- replaced obj /usr/include/guile/2.2/libguile/init.h
--- replaced obj /usr/include/guile/2.2/libguile/i18n.h
--- replaced obj /usr/include/guile/2.2/libguile/hooks.h
--- replaced obj /usr/include/guile/2.2/libguile/hashtab.h
--- replaced obj /usr/include/guile/2.2/libguile/hash.h
--- replaced obj /usr/include/guile/2.2/libguile/guardians.h
--- replaced obj /usr/include/guile/2.2/libguile/gsubr.h
--- replaced obj /usr/include/guile/2.2/libguile/goops.h
--- replaced obj /usr/include/guile/2.2/libguile/gettext.h
--- replaced obj /usr/include/guile/2.2/libguile/generalized-vectors.h
--- replaced obj /usr/include/guile/2.2/libguile/generalized-arrays.h
--- replaced obj /usr/include/guile/2.2/libguile/gc.h
--- replaced obj /usr/include/guile/2.2/libguile/gc-inline.h
--- replaced obj /usr/include/guile/2.2/libguile/frames.h
--- replaced obj /usr/include/guile/2.2/libguile/fports.h
--- replaced obj /usr/include/guile/2.2/libguile/foreign.h
--- replaced obj /usr/include/guile/2.2/libguile/foreign-object.h
--- replaced obj /usr/include/guile/2.2/libguile/fluids.h
--- replaced obj /usr/include/guile/2.2/libguile/finalizers.h
--- replaced obj /usr/include/guile/2.2/libguile/filesys.h
--- replaced obj /usr/include/guile/2.2/libguile/feature.h
--- replaced obj /usr/include/guile/2.2/libguile/fdes-finalizers.h
--- replaced obj /usr/include/guile/2.2/libguile/extensions.h
--- replaced obj /usr/include/guile/2.2/libguile/expand.h
--- replaced obj /usr/include/guile/2.2/libguile/evalext.h
--- replaced obj /usr/include/guile/2.2/libguile/eval.h
--- replaced obj /usr/include/guile/2.2/libguile/error.h
--- replaced obj /usr/include/guile/2.2/libguile/eq.h
--- replaced obj /usr/include/guile/2.2/libguile/dynwind.h
--- replaced obj /usr/include/guile/2.2/libguile/dynstack.h
--- replaced obj /usr/include/guile/2.2/libguile/dynl.h
--- replaced obj /usr/include/guile/2.2/libguile/deprecation.h
--- replaced obj /usr/include/guile/2.2/libguile/deprecated.h
--- replaced obj /usr/include/guile/2.2/libguile/debug.h
--- replaced obj /usr/include/guile/2.2/libguile/debug-malloc.h
--- replaced obj /usr/include/guile/2.2/libguile/control.h
--- replaced obj /usr/include/guile/2.2/libguile/continuations.h
--- replaced obj /usr/include/guile/2.2/libguile/chars.h
--- replaced obj /usr/include/guile/2.2/libguile/bytevectors.h
--- replaced obj /usr/include/guile/2.2/libguile/boolean.h
--- replaced obj /usr/include/guile/2.2/libguile/bitvectors.h
--- replaced obj /usr/include/guile/2.2/libguile/bdw-gc.h
--- replaced obj /usr/include/guile/2.2/libguile/backtrace.h
--- replaced obj /usr/include/guile/2.2/libguile/atomic.h
--- replaced obj /usr/include/guile/2.2/libguile/async.h
--- replaced obj /usr/include/guile/2.2/libguile/arrays.h
--- replaced obj /usr/include/guile/2.2/libguile/array-map.h
--- replaced obj /usr/include/guile/2.2/libguile/array-handle.h
--- replaced obj /usr/include/guile/2.2/libguile/alist.h
--- replaced obj /usr/include/guile/2.2/libguile/__scm.h
--- replaced obj /usr/include/guile/2.2/libguile.h
--- replaced dir /usr/include/guile/2.2/libguile
--- replaced dir /usr/include/guile/2.2
--- replaced dir /usr/include/guile
--- replaced dir /usr/include
--- replaced sym /usr/bin/guile-tools
--- replaced obj /usr/bin/guile-snarf
--- replaced obj /usr/bin/guile-config
--- replaced obj /usr/bin/guile
--- replaced obj /usr/bin/guild
--- replaced dir /usr/bin
--- replaced dir /usr
>>> Regenerating /etc/ld.so.cache...
