No package files given... Grabbing a set.
<<<          obj /usr/lib/python3.8/site-packages/testtools/utils.py
<<<          obj /usr/lib/python3.8/site-packages/testtools/twistedsupport/_spinner.py
<<<          obj /usr/lib/python3.8/site-packages/testtools/twistedsupport/_runtest.py
<<<          obj /usr/lib/python3.8/site-packages/testtools/twistedsupport/_matchers.py
<<<          obj /usr/lib/python3.8/site-packages/testtools/twistedsupport/_deferreddebug.py
<<<          obj /usr/lib/python3.8/site-packages/testtools/twistedsupport/_deferred.py
<<<          obj /usr/lib/python3.8/site-packages/testtools/twistedsupport/__pycache__/_spinner.cpython-38.pyc
<<<          obj /usr/lib/python3.8/site-packages/testtools/twistedsupport/__pycache__/_spinner.cpython-38.opt-2.pyc
<<<          obj /usr/lib/python3.8/site-packages/testtools/twistedsupport/__pycache__/_spinner.cpython-38.opt-1.pyc
<<<          obj /usr/lib/python3.8/site-packages/testtools/twistedsupport/__pycache__/_runtest.cpython-38.pyc
<<<          obj /usr/lib/python3.8/site-packages/testtools/twistedsupport/__pycache__/_runtest.cpython-38.opt-2.pyc
<<<          obj /usr/lib/python3.8/site-packages/testtools/twistedsupport/__pycache__/_runtest.cpython-38.opt-1.pyc
<<<          obj /usr/lib/python3.8/site-packages/testtools/twistedsupport/__pycache__/_matchers.cpython-38.pyc
<<<          obj /usr/lib/python3.8/site-packages/testtools/twistedsupport/__pycache__/_matchers.cpython-38.opt-2.pyc
<<<          obj /usr/lib/python3.8/site-packages/testtools/twistedsupport/__pycache__/_matchers.cpython-38.opt-1.pyc
<<<          obj /usr/lib/python3.8/site-packages/testtools/twistedsupport/__pycache__/_deferreddebug.cpython-38.pyc
<<<          obj /usr/lib/python3.8/site-packages/testtools/twistedsupport/__pycache__/_deferreddebug.cpython-38.opt-2.pyc
<<<          obj /usr/lib/python3.8/site-packages/testtools/twistedsupport/__pycache__/_deferreddebug.cpython-38.opt-1.pyc
<<<          obj /usr/lib/python3.8/site-packages/testtools/twistedsupport/__pycache__/_deferred.cpython-38.pyc
<<<          obj /usr/lib/python3.8/site-packages/testtools/twistedsupport/__pycache__/_deferred.cpython-38.opt-2.pyc
<<<          obj /usr/lib/python3.8/site-packages/testtools/twistedsupport/__pycache__/_deferred.cpython-38.opt-1.pyc
<<<          obj /usr/lib/python3.8/site-packages/testtools/twistedsupport/__pycache__/__init__.cpython-38.pyc
<<<          obj /usr/lib/python3.8/site-packages/testtools/twistedsupport/__pycache__/__init__.cpython-38.opt-2.pyc
<<<          obj /usr/lib/python3.8/site-packages/testtools/twistedsupport/__pycache__/__init__.cpython-38.opt-1.pyc
<<<          obj /usr/lib/python3.8/site-packages/testtools/twistedsupport/__init__.py
<<<          obj /usr/lib/python3.8/site-packages/testtools/testsuite.py
<<<          obj /usr/lib/python3.8/site-packages/testtools/tests/twistedsupport/test_spinner.py
<<<          obj /usr/lib/python3.8/site-packages/testtools/tests/twistedsupport/test_runtest.py
<<<          obj /usr/lib/python3.8/site-packages/testtools/tests/twistedsupport/test_matchers.py
<<<          obj /usr/lib/python3.8/site-packages/testtools/tests/twistedsupport/test_deferred.py
<<<          obj /usr/lib/python3.8/site-packages/testtools/tests/twistedsupport/_helpers.py
<<<          obj /usr/lib/python3.8/site-packages/testtools/tests/twistedsupport/__pycache__/test_spinner.cpython-38.pyc
<<<          obj /usr/lib/python3.8/site-packages/testtools/tests/twistedsupport/__pycache__/test_spinner.cpython-38.opt-2.pyc
<<<          obj /usr/lib/python3.8/site-packages/testtools/tests/twistedsupport/__pycache__/test_spinner.cpython-38.opt-1.pyc
<<<          obj /usr/lib/python3.8/site-packages/testtools/tests/twistedsupport/__pycache__/test_runtest.cpython-38.pyc
<<<          obj /usr/lib/python3.8/site-packages/testtools/tests/twistedsupport/__pycache__/test_runtest.cpython-38.opt-2.pyc
<<<          obj /usr/lib/python3.8/site-packages/testtools/tests/twistedsupport/__pycache__/test_runtest.cpython-38.opt-1.pyc
<<<          obj /usr/lib/python3.8/site-packages/testtools/tests/twistedsupport/__pycache__/test_matchers.cpython-38.pyc
<<<          obj /usr/lib/python3.8/site-packages/testtools/tests/twistedsupport/__pycache__/test_matchers.cpython-38.opt-2.pyc
<<<          obj /usr/lib/python3.8/site-packages/testtools/tests/twistedsupport/__pycache__/test_matchers.cpython-38.opt-1.pyc
<<<          obj /usr/lib/python3.8/site-packages/testtools/tests/twistedsupport/__pycache__/test_deferred.cpython-38.pyc
<<<          obj /usr/lib/python3.8/site-packages/testtools/tests/twistedsupport/__pycache__/test_deferred.cpython-38.opt-2.pyc
<<<          obj /usr/lib/python3.8/site-packages/testtools/tests/twistedsupport/__pycache__/test_deferred.cpython-38.opt-1.pyc
<<<          obj /usr/lib/python3.8/site-packages/testtools/tests/twistedsupport/__pycache__/_helpers.cpython-38.pyc
<<<          obj /usr/lib/python3.8/site-packages/testtools/tests/twistedsupport/__pycache__/_helpers.cpython-38.opt-2.pyc
<<<          obj /usr/lib/python3.8/site-packages/testtools/tests/twistedsupport/__pycache__/_helpers.cpython-38.opt-1.pyc
<<<          obj /usr/lib/python3.8/site-packages/testtools/tests/twistedsupport/__pycache__/__init__.cpython-38.pyc
<<<          obj /usr/lib/python3.8/site-packages/testtools/tests/twistedsupport/__pycache__/__init__.cpython-38.opt-2.pyc
<<<          obj /usr/lib/python3.8/site-packages/testtools/tests/twistedsupport/__pycache__/__init__.cpython-38.opt-1.pyc
<<<          obj /usr/lib/python3.8/site-packages/testtools/tests/twistedsupport/__init__.py
<<<          obj /usr/lib/python3.8/site-packages/testtools/tests/test_with_with.py
<<<          obj /usr/lib/python3.8/site-packages/testtools/tests/test_testsuite.py
<<<          obj /usr/lib/python3.8/site-packages/testtools/tests/test_testresult.py
<<<          obj /usr/lib/python3.8/site-packages/testtools/tests/test_testcase.py
<<<          obj /usr/lib/python3.8/site-packages/testtools/tests/test_tags.py
<<<          obj /usr/lib/python3.8/site-packages/testtools/tests/test_runtest.py
<<<          obj /usr/lib/python3.8/site-packages/testtools/tests/test_run.py
<<<          obj /usr/lib/python3.8/site-packages/testtools/tests/test_monkey.py
<<<          obj /usr/lib/python3.8/site-packages/testtools/tests/test_helpers.py
<<<          obj /usr/lib/python3.8/site-packages/testtools/tests/test_fixturesupport.py
<<<          obj /usr/lib/python3.8/site-packages/testtools/tests/test_distutilscmd.py
<<<          obj /usr/lib/python3.8/site-packages/testtools/tests/test_content_type.py
<<<          obj /usr/lib/python3.8/site-packages/testtools/tests/test_content.py
<<<          obj /usr/lib/python3.8/site-packages/testtools/tests/test_compat.py
<<<          obj /usr/lib/python3.8/site-packages/testtools/tests/test_assert_that.py
<<<          obj /usr/lib/python3.8/site-packages/testtools/tests/samplecases.py
<<<          obj /usr/lib/python3.8/site-packages/testtools/tests/matchers/test_warnings.py
<<<          obj /usr/lib/python3.8/site-packages/testtools/tests/matchers/test_impl.py
<<<          obj /usr/lib/python3.8/site-packages/testtools/tests/matchers/test_higherorder.py
<<<          obj /usr/lib/python3.8/site-packages/testtools/tests/matchers/test_filesystem.py
<<<          obj /usr/lib/python3.8/site-packages/testtools/tests/matchers/test_exception.py
<<<          obj /usr/lib/python3.8/site-packages/testtools/tests/matchers/test_doctest.py
<<<          obj /usr/lib/python3.8/site-packages/testtools/tests/matchers/test_dict.py
<<<          obj /usr/lib/python3.8/site-packages/testtools/tests/matchers/test_datastructures.py
<<<          obj /usr/lib/python3.8/site-packages/testtools/tests/matchers/test_const.py
<<<          obj /usr/lib/python3.8/site-packages/testtools/tests/matchers/test_basic.py
<<<          obj /usr/lib/python3.8/site-packages/testtools/tests/matchers/helpers.py
<<<          obj /usr/lib/python3.8/site-packages/testtools/tests/matchers/__pycache__/test_warnings.cpython-38.pyc
<<<          obj /usr/lib/python3.8/site-packages/testtools/tests/matchers/__pycache__/test_warnings.cpython-38.opt-2.pyc
<<<          obj /usr/lib/python3.8/site-packages/testtools/tests/matchers/__pycache__/test_warnings.cpython-38.opt-1.pyc
<<<          obj /usr/lib/python3.8/site-packages/testtools/tests/matchers/__pycache__/test_impl.cpython-38.pyc
<<<          obj /usr/lib/python3.8/site-packages/testtools/tests/matchers/__pycache__/test_impl.cpython-38.opt-2.pyc
<<<          obj /usr/lib/python3.8/site-packages/testtools/tests/matchers/__pycache__/test_impl.cpython-38.opt-1.pyc
<<<          obj /usr/lib/python3.8/site-packages/testtools/tests/matchers/__pycache__/test_higherorder.cpython-38.pyc
<<<          obj /usr/lib/python3.8/site-packages/testtools/tests/matchers/__pycache__/test_higherorder.cpython-38.opt-2.pyc
<<<          obj /usr/lib/python3.8/site-packages/testtools/tests/matchers/__pycache__/test_higherorder.cpython-38.opt-1.pyc
<<<          obj /usr/lib/python3.8/site-packages/testtools/tests/matchers/__pycache__/test_filesystem.cpython-38.pyc
<<<          obj /usr/lib/python3.8/site-packages/testtools/tests/matchers/__pycache__/test_filesystem.cpython-38.opt-2.pyc
<<<          obj /usr/lib/python3.8/site-packages/testtools/tests/matchers/__pycache__/test_filesystem.cpython-38.opt-1.pyc
<<<          obj /usr/lib/python3.8/site-packages/testtools/tests/matchers/__pycache__/test_exception.cpython-38.pyc
<<<          obj /usr/lib/python3.8/site-packages/testtools/tests/matchers/__pycache__/test_exception.cpython-38.opt-2.pyc
<<<          obj /usr/lib/python3.8/site-packages/testtools/tests/matchers/__pycache__/test_exception.cpython-38.opt-1.pyc
<<<          obj /usr/lib/python3.8/site-packages/testtools/tests/matchers/__pycache__/test_doctest.cpython-38.pyc
<<<          obj /usr/lib/python3.8/site-packages/testtools/tests/matchers/__pycache__/test_doctest.cpython-38.opt-2.pyc
<<<          obj /usr/lib/python3.8/site-packages/testtools/tests/matchers/__pycache__/test_doctest.cpython-38.opt-1.pyc
<<<          obj /usr/lib/python3.8/site-packages/testtools/tests/matchers/__pycache__/test_dict.cpython-38.pyc
<<<          obj /usr/lib/python3.8/site-packages/testtools/tests/matchers/__pycache__/test_dict.cpython-38.opt-2.pyc
<<<          obj /usr/lib/python3.8/site-packages/testtools/tests/matchers/__pycache__/test_dict.cpython-38.opt-1.pyc
<<<          obj /usr/lib/python3.8/site-packages/testtools/tests/matchers/__pycache__/test_datastructures.cpython-38.pyc
<<<          obj /usr/lib/python3.8/site-packages/testtools/tests/matchers/__pycache__/test_datastructures.cpython-38.opt-2.pyc
<<<          obj /usr/lib/python3.8/site-packages/testtools/tests/matchers/__pycache__/test_datastructures.cpython-38.opt-1.pyc
<<<          obj /usr/lib/python3.8/site-packages/testtools/tests/matchers/__pycache__/test_const.cpython-38.pyc
<<<          obj /usr/lib/python3.8/site-packages/testtools/tests/matchers/__pycache__/test_const.cpython-38.opt-2.pyc
<<<          obj /usr/lib/python3.8/site-packages/testtools/tests/matchers/__pycache__/test_const.cpython-38.opt-1.pyc
<<<          obj /usr/lib/python3.8/site-packages/testtools/tests/matchers/__pycache__/test_basic.cpython-38.pyc
<<<          obj /usr/lib/python3.8/site-packages/testtools/tests/matchers/__pycache__/test_basic.cpython-38.opt-2.pyc
<<<          obj /usr/lib/python3.8/site-packages/testtools/tests/matchers/__pycache__/test_basic.cpython-38.opt-1.pyc
<<<          obj /usr/lib/python3.8/site-packages/testtools/tests/matchers/__pycache__/helpers.cpython-38.pyc
<<<          obj /usr/lib/python3.8/site-packages/testtools/tests/matchers/__pycache__/helpers.cpython-38.opt-2.pyc
<<<          obj /usr/lib/python3.8/site-packages/testtools/tests/matchers/__pycache__/helpers.cpython-38.opt-1.pyc
<<<          obj /usr/lib/python3.8/site-packages/testtools/tests/matchers/__pycache__/__init__.cpython-38.pyc
<<<          obj /usr/lib/python3.8/site-packages/testtools/tests/matchers/__pycache__/__init__.cpython-38.opt-2.pyc
<<<          obj /usr/lib/python3.8/site-packages/testtools/tests/matchers/__pycache__/__init__.cpython-38.opt-1.pyc
<<<          obj /usr/lib/python3.8/site-packages/testtools/tests/matchers/__init__.py
<<<          obj /usr/lib/python3.8/site-packages/testtools/tests/helpers.py
<<<          obj /usr/lib/python3.8/site-packages/testtools/tests/__pycache__/test_with_with.cpython-38.pyc
<<<          obj /usr/lib/python3.8/site-packages/testtools/tests/__pycache__/test_with_with.cpython-38.opt-2.pyc
<<<          obj /usr/lib/python3.8/site-packages/testtools/tests/__pycache__/test_with_with.cpython-38.opt-1.pyc
<<<          obj /usr/lib/python3.8/site-packages/testtools/tests/__pycache__/test_testsuite.cpython-38.pyc
<<<          obj /usr/lib/python3.8/site-packages/testtools/tests/__pycache__/test_testsuite.cpython-38.opt-2.pyc
<<<          obj /usr/lib/python3.8/site-packages/testtools/tests/__pycache__/test_testsuite.cpython-38.opt-1.pyc
<<<          obj /usr/lib/python3.8/site-packages/testtools/tests/__pycache__/test_testresult.cpython-38.pyc
<<<          obj /usr/lib/python3.8/site-packages/testtools/tests/__pycache__/test_testresult.cpython-38.opt-2.pyc
<<<          obj /usr/lib/python3.8/site-packages/testtools/tests/__pycache__/test_testresult.cpython-38.opt-1.pyc
<<<          obj /usr/lib/python3.8/site-packages/testtools/tests/__pycache__/test_testcase.cpython-38.pyc
<<<          obj /usr/lib/python3.8/site-packages/testtools/tests/__pycache__/test_testcase.cpython-38.opt-2.pyc
<<<          obj /usr/lib/python3.8/site-packages/testtools/tests/__pycache__/test_testcase.cpython-38.opt-1.pyc
<<<          obj /usr/lib/python3.8/site-packages/testtools/tests/__pycache__/test_tags.cpython-38.pyc
<<<          obj /usr/lib/python3.8/site-packages/testtools/tests/__pycache__/test_tags.cpython-38.opt-2.pyc
<<<          obj /usr/lib/python3.8/site-packages/testtools/tests/__pycache__/test_tags.cpython-38.opt-1.pyc
<<<          obj /usr/lib/python3.8/site-packages/testtools/tests/__pycache__/test_runtest.cpython-38.pyc
<<<          obj /usr/lib/python3.8/site-packages/testtools/tests/__pycache__/test_runtest.cpython-38.opt-2.pyc
<<<          obj /usr/lib/python3.8/site-packages/testtools/tests/__pycache__/test_runtest.cpython-38.opt-1.pyc
<<<          obj /usr/lib/python3.8/site-packages/testtools/tests/__pycache__/test_run.cpython-38.pyc
<<<          obj /usr/lib/python3.8/site-packages/testtools/tests/__pycache__/test_run.cpython-38.opt-2.pyc
<<<          obj /usr/lib/python3.8/site-packages/testtools/tests/__pycache__/test_run.cpython-38.opt-1.pyc
<<<          obj /usr/lib/python3.8/site-packages/testtools/tests/__pycache__/test_monkey.cpython-38.pyc
<<<          obj /usr/lib/python3.8/site-packages/testtools/tests/__pycache__/test_monkey.cpython-38.opt-2.pyc
<<<          obj /usr/lib/python3.8/site-packages/testtools/tests/__pycache__/test_monkey.cpython-38.opt-1.pyc
<<<          obj /usr/lib/python3.8/site-packages/testtools/tests/__pycache__/test_helpers.cpython-38.pyc
<<<          obj /usr/lib/python3.8/site-packages/testtools/tests/__pycache__/test_helpers.cpython-38.opt-2.pyc
<<<          obj /usr/lib/python3.8/site-packages/testtools/tests/__pycache__/test_helpers.cpython-38.opt-1.pyc
<<<          obj /usr/lib/python3.8/site-packages/testtools/tests/__pycache__/test_fixturesupport.cpython-38.pyc
<<<          obj /usr/lib/python3.8/site-packages/testtools/tests/__pycache__/test_fixturesupport.cpython-38.opt-2.pyc
<<<          obj /usr/lib/python3.8/site-packages/testtools/tests/__pycache__/test_fixturesupport.cpython-38.opt-1.pyc
<<<          obj /usr/lib/python3.8/site-packages/testtools/tests/__pycache__/test_distutilscmd.cpython-38.pyc
<<<          obj /usr/lib/python3.8/site-packages/testtools/tests/__pycache__/test_distutilscmd.cpython-38.opt-2.pyc
<<<          obj /usr/lib/python3.8/site-packages/testtools/tests/__pycache__/test_distutilscmd.cpython-38.opt-1.pyc
<<<          obj /usr/lib/python3.8/site-packages/testtools/tests/__pycache__/test_content_type.cpython-38.pyc
<<<          obj /usr/lib/python3.8/site-packages/testtools/tests/__pycache__/test_content_type.cpython-38.opt-2.pyc
<<<          obj /usr/lib/python3.8/site-packages/testtools/tests/__pycache__/test_content_type.cpython-38.opt-1.pyc
<<<          obj /usr/lib/python3.8/site-packages/testtools/tests/__pycache__/test_content.cpython-38.pyc
<<<          obj /usr/lib/python3.8/site-packages/testtools/tests/__pycache__/test_content.cpython-38.opt-2.pyc
<<<          obj /usr/lib/python3.8/site-packages/testtools/tests/__pycache__/test_content.cpython-38.opt-1.pyc
<<<          obj /usr/lib/python3.8/site-packages/testtools/tests/__pycache__/test_compat.cpython-38.pyc
<<<          obj /usr/lib/python3.8/site-packages/testtools/tests/__pycache__/test_compat.cpython-38.opt-2.pyc
<<<          obj /usr/lib/python3.8/site-packages/testtools/tests/__pycache__/test_compat.cpython-38.opt-1.pyc
<<<          obj /usr/lib/python3.8/site-packages/testtools/tests/__pycache__/test_assert_that.cpython-38.pyc
<<<          obj /usr/lib/python3.8/site-packages/testtools/tests/__pycache__/test_assert_that.cpython-38.opt-2.pyc
<<<          obj /usr/lib/python3.8/site-packages/testtools/tests/__pycache__/test_assert_that.cpython-38.opt-1.pyc
<<<          obj /usr/lib/python3.8/site-packages/testtools/tests/__pycache__/samplecases.cpython-38.pyc
<<<          obj /usr/lib/python3.8/site-packages/testtools/tests/__pycache__/samplecases.cpython-38.opt-2.pyc
<<<          obj /usr/lib/python3.8/site-packages/testtools/tests/__pycache__/samplecases.cpython-38.opt-1.pyc
<<<          obj /usr/lib/python3.8/site-packages/testtools/tests/__pycache__/helpers.cpython-38.pyc
<<<          obj /usr/lib/python3.8/site-packages/testtools/tests/__pycache__/helpers.cpython-38.opt-2.pyc
<<<          obj /usr/lib/python3.8/site-packages/testtools/tests/__pycache__/helpers.cpython-38.opt-1.pyc
<<<          obj /usr/lib/python3.8/site-packages/testtools/tests/__pycache__/__init__.cpython-38.pyc
<<<          obj /usr/lib/python3.8/site-packages/testtools/tests/__pycache__/__init__.cpython-38.opt-2.pyc
<<<          obj /usr/lib/python3.8/site-packages/testtools/tests/__pycache__/__init__.cpython-38.opt-1.pyc
<<<          obj /usr/lib/python3.8/site-packages/testtools/tests/__init__.py
<<<          obj /usr/lib/python3.8/site-packages/testtools/testresult/real.py
<<<          obj /usr/lib/python3.8/site-packages/testtools/testresult/doubles.py
<<<          obj /usr/lib/python3.8/site-packages/testtools/testresult/__pycache__/real.cpython-38.pyc
<<<          obj /usr/lib/python3.8/site-packages/testtools/testresult/__pycache__/real.cpython-38.opt-2.pyc
<<<          obj /usr/lib/python3.8/site-packages/testtools/testresult/__pycache__/real.cpython-38.opt-1.pyc
<<<          obj /usr/lib/python3.8/site-packages/testtools/testresult/__pycache__/doubles.cpython-38.pyc
<<<          obj /usr/lib/python3.8/site-packages/testtools/testresult/__pycache__/doubles.cpython-38.opt-2.pyc
<<<          obj /usr/lib/python3.8/site-packages/testtools/testresult/__pycache__/doubles.cpython-38.opt-1.pyc
<<<          obj /usr/lib/python3.8/site-packages/testtools/testresult/__pycache__/__init__.cpython-38.pyc
<<<          obj /usr/lib/python3.8/site-packages/testtools/testresult/__pycache__/__init__.cpython-38.opt-2.pyc
<<<          obj /usr/lib/python3.8/site-packages/testtools/testresult/__pycache__/__init__.cpython-38.opt-1.pyc
<<<          obj /usr/lib/python3.8/site-packages/testtools/testresult/__init__.py
<<<          obj /usr/lib/python3.8/site-packages/testtools/testcase.py
<<<          obj /usr/lib/python3.8/site-packages/testtools/tags.py
<<<          obj /usr/lib/python3.8/site-packages/testtools/runtest.py
<<<          obj /usr/lib/python3.8/site-packages/testtools/run.py
<<<          obj /usr/lib/python3.8/site-packages/testtools/monkey.py
<<<          obj /usr/lib/python3.8/site-packages/testtools/matchers/_warnings.py
<<<          obj /usr/lib/python3.8/site-packages/testtools/matchers/_impl.py
<<<          obj /usr/lib/python3.8/site-packages/testtools/matchers/_higherorder.py
<<<          obj /usr/lib/python3.8/site-packages/testtools/matchers/_filesystem.py
<<<          obj /usr/lib/python3.8/site-packages/testtools/matchers/_exception.py
<<<          obj /usr/lib/python3.8/site-packages/testtools/matchers/_doctest.py
<<<          obj /usr/lib/python3.8/site-packages/testtools/matchers/_dict.py
<<<          obj /usr/lib/python3.8/site-packages/testtools/matchers/_datastructures.py
<<<          obj /usr/lib/python3.8/site-packages/testtools/matchers/_const.py
<<<          obj /usr/lib/python3.8/site-packages/testtools/matchers/_basic.py
<<<          obj /usr/lib/python3.8/site-packages/testtools/matchers/__pycache__/_warnings.cpython-38.pyc
<<<          obj /usr/lib/python3.8/site-packages/testtools/matchers/__pycache__/_warnings.cpython-38.opt-2.pyc
<<<          obj /usr/lib/python3.8/site-packages/testtools/matchers/__pycache__/_warnings.cpython-38.opt-1.pyc
<<<          obj /usr/lib/python3.8/site-packages/testtools/matchers/__pycache__/_impl.cpython-38.pyc
<<<          obj /usr/lib/python3.8/site-packages/testtools/matchers/__pycache__/_impl.cpython-38.opt-2.pyc
<<<          obj /usr/lib/python3.8/site-packages/testtools/matchers/__pycache__/_impl.cpython-38.opt-1.pyc
<<<          obj /usr/lib/python3.8/site-packages/testtools/matchers/__pycache__/_higherorder.cpython-38.pyc
<<<          obj /usr/lib/python3.8/site-packages/testtools/matchers/__pycache__/_higherorder.cpython-38.opt-2.pyc
<<<          obj /usr/lib/python3.8/site-packages/testtools/matchers/__pycache__/_higherorder.cpython-38.opt-1.pyc
<<<          obj /usr/lib/python3.8/site-packages/testtools/matchers/__pycache__/_filesystem.cpython-38.pyc
<<<          obj /usr/lib/python3.8/site-packages/testtools/matchers/__pycache__/_filesystem.cpython-38.opt-2.pyc
<<<          obj /usr/lib/python3.8/site-packages/testtools/matchers/__pycache__/_filesystem.cpython-38.opt-1.pyc
<<<          obj /usr/lib/python3.8/site-packages/testtools/matchers/__pycache__/_exception.cpython-38.pyc
<<<          obj /usr/lib/python3.8/site-packages/testtools/matchers/__pycache__/_exception.cpython-38.opt-2.pyc
<<<          obj /usr/lib/python3.8/site-packages/testtools/matchers/__pycache__/_exception.cpython-38.opt-1.pyc
<<<          obj /usr/lib/python3.8/site-packages/testtools/matchers/__pycache__/_doctest.cpython-38.pyc
<<<          obj /usr/lib/python3.8/site-packages/testtools/matchers/__pycache__/_doctest.cpython-38.opt-2.pyc
<<<          obj /usr/lib/python3.8/site-packages/testtools/matchers/__pycache__/_doctest.cpython-38.opt-1.pyc
<<<          obj /usr/lib/python3.8/site-packages/testtools/matchers/__pycache__/_dict.cpython-38.pyc
<<<          obj /usr/lib/python3.8/site-packages/testtools/matchers/__pycache__/_dict.cpython-38.opt-2.pyc
<<<          obj /usr/lib/python3.8/site-packages/testtools/matchers/__pycache__/_dict.cpython-38.opt-1.pyc
<<<          obj /usr/lib/python3.8/site-packages/testtools/matchers/__pycache__/_datastructures.cpython-38.pyc
<<<          obj /usr/lib/python3.8/site-packages/testtools/matchers/__pycache__/_datastructures.cpython-38.opt-2.pyc
<<<          obj /usr/lib/python3.8/site-packages/testtools/matchers/__pycache__/_datastructures.cpython-38.opt-1.pyc
<<<          obj /usr/lib/python3.8/site-packages/testtools/matchers/__pycache__/_const.cpython-38.pyc
<<<          obj /usr/lib/python3.8/site-packages/testtools/matchers/__pycache__/_const.cpython-38.opt-2.pyc
<<<          obj /usr/lib/python3.8/site-packages/testtools/matchers/__pycache__/_const.cpython-38.opt-1.pyc
<<<          obj /usr/lib/python3.8/site-packages/testtools/matchers/__pycache__/_basic.cpython-38.pyc
<<<          obj /usr/lib/python3.8/site-packages/testtools/matchers/__pycache__/_basic.cpython-38.opt-2.pyc
<<<          obj /usr/lib/python3.8/site-packages/testtools/matchers/__pycache__/_basic.cpython-38.opt-1.pyc
<<<          obj /usr/lib/python3.8/site-packages/testtools/matchers/__pycache__/__init__.cpython-38.pyc
<<<          obj /usr/lib/python3.8/site-packages/testtools/matchers/__pycache__/__init__.cpython-38.opt-2.pyc
<<<          obj /usr/lib/python3.8/site-packages/testtools/matchers/__pycache__/__init__.cpython-38.opt-1.pyc
<<<          obj /usr/lib/python3.8/site-packages/testtools/matchers/__init__.py
<<<          obj /usr/lib/python3.8/site-packages/testtools/helpers.py
<<<          obj /usr/lib/python3.8/site-packages/testtools/distutilscmd.py
<<<          obj /usr/lib/python3.8/site-packages/testtools/deferredruntest.py
<<<          obj /usr/lib/python3.8/site-packages/testtools/content_type.py
<<<          obj /usr/lib/python3.8/site-packages/testtools/content.py
<<<          obj /usr/lib/python3.8/site-packages/testtools/compat.py
<<<          obj /usr/lib/python3.8/site-packages/testtools/assertions.py
<<<          obj /usr/lib/python3.8/site-packages/testtools/_compat3x.py
<<<          obj /usr/lib/python3.8/site-packages/testtools/_compat2x.py
<<<          obj /usr/lib/python3.8/site-packages/testtools/__pycache__/utils.cpython-38.pyc
<<<          obj /usr/lib/python3.8/site-packages/testtools/__pycache__/utils.cpython-38.opt-2.pyc
<<<          obj /usr/lib/python3.8/site-packages/testtools/__pycache__/utils.cpython-38.opt-1.pyc
<<<          obj /usr/lib/python3.8/site-packages/testtools/__pycache__/testsuite.cpython-38.pyc
<<<          obj /usr/lib/python3.8/site-packages/testtools/__pycache__/testsuite.cpython-38.opt-2.pyc
<<<          obj /usr/lib/python3.8/site-packages/testtools/__pycache__/testsuite.cpython-38.opt-1.pyc
<<<          obj /usr/lib/python3.8/site-packages/testtools/__pycache__/testcase.cpython-38.pyc
<<<          obj /usr/lib/python3.8/site-packages/testtools/__pycache__/testcase.cpython-38.opt-2.pyc
<<<          obj /usr/lib/python3.8/site-packages/testtools/__pycache__/testcase.cpython-38.opt-1.pyc
<<<          obj /usr/lib/python3.8/site-packages/testtools/__pycache__/tags.cpython-38.pyc
<<<          obj /usr/lib/python3.8/site-packages/testtools/__pycache__/tags.cpython-38.opt-2.pyc
<<<          obj /usr/lib/python3.8/site-packages/testtools/__pycache__/tags.cpython-38.opt-1.pyc
<<<          obj /usr/lib/python3.8/site-packages/testtools/__pycache__/runtest.cpython-38.pyc
<<<          obj /usr/lib/python3.8/site-packages/testtools/__pycache__/runtest.cpython-38.opt-2.pyc
<<<          obj /usr/lib/python3.8/site-packages/testtools/__pycache__/runtest.cpython-38.opt-1.pyc
<<<          obj /usr/lib/python3.8/site-packages/testtools/__pycache__/run.cpython-38.pyc
<<<          obj /usr/lib/python3.8/site-packages/testtools/__pycache__/run.cpython-38.opt-2.pyc
<<<          obj /usr/lib/python3.8/site-packages/testtools/__pycache__/run.cpython-38.opt-1.pyc
<<<          obj /usr/lib/python3.8/site-packages/testtools/__pycache__/monkey.cpython-38.pyc
<<<          obj /usr/lib/python3.8/site-packages/testtools/__pycache__/monkey.cpython-38.opt-2.pyc
<<<          obj /usr/lib/python3.8/site-packages/testtools/__pycache__/monkey.cpython-38.opt-1.pyc
<<<          obj /usr/lib/python3.8/site-packages/testtools/__pycache__/helpers.cpython-38.pyc
<<<          obj /usr/lib/python3.8/site-packages/testtools/__pycache__/helpers.cpython-38.opt-2.pyc
<<<          obj /usr/lib/python3.8/site-packages/testtools/__pycache__/helpers.cpython-38.opt-1.pyc
<<<          obj /usr/lib/python3.8/site-packages/testtools/__pycache__/distutilscmd.cpython-38.pyc
<<<          obj /usr/lib/python3.8/site-packages/testtools/__pycache__/distutilscmd.cpython-38.opt-2.pyc
<<<          obj /usr/lib/python3.8/site-packages/testtools/__pycache__/distutilscmd.cpython-38.opt-1.pyc
<<<          obj /usr/lib/python3.8/site-packages/testtools/__pycache__/deferredruntest.cpython-38.pyc
<<<          obj /usr/lib/python3.8/site-packages/testtools/__pycache__/deferredruntest.cpython-38.opt-2.pyc
<<<          obj /usr/lib/python3.8/site-packages/testtools/__pycache__/deferredruntest.cpython-38.opt-1.pyc
<<<          obj /usr/lib/python3.8/site-packages/testtools/__pycache__/content_type.cpython-38.pyc
<<<          obj /usr/lib/python3.8/site-packages/testtools/__pycache__/content_type.cpython-38.opt-2.pyc
<<<          obj /usr/lib/python3.8/site-packages/testtools/__pycache__/content_type.cpython-38.opt-1.pyc
<<<          obj /usr/lib/python3.8/site-packages/testtools/__pycache__/content.cpython-38.pyc
<<<          obj /usr/lib/python3.8/site-packages/testtools/__pycache__/content.cpython-38.opt-2.pyc
<<<          obj /usr/lib/python3.8/site-packages/testtools/__pycache__/content.cpython-38.opt-1.pyc
<<<          obj /usr/lib/python3.8/site-packages/testtools/__pycache__/compat.cpython-38.pyc
<<<          obj /usr/lib/python3.8/site-packages/testtools/__pycache__/compat.cpython-38.opt-2.pyc
<<<          obj /usr/lib/python3.8/site-packages/testtools/__pycache__/compat.cpython-38.opt-1.pyc
<<<          obj /usr/lib/python3.8/site-packages/testtools/__pycache__/assertions.cpython-38.pyc
<<<          obj /usr/lib/python3.8/site-packages/testtools/__pycache__/assertions.cpython-38.opt-2.pyc
<<<          obj /usr/lib/python3.8/site-packages/testtools/__pycache__/assertions.cpython-38.opt-1.pyc
<<<          obj /usr/lib/python3.8/site-packages/testtools/__pycache__/_compat3x.cpython-38.pyc
<<<          obj /usr/lib/python3.8/site-packages/testtools/__pycache__/_compat3x.cpython-38.opt-2.pyc
<<<          obj /usr/lib/python3.8/site-packages/testtools/__pycache__/_compat3x.cpython-38.opt-1.pyc
<<<          obj /usr/lib/python3.8/site-packages/testtools/__pycache__/__init__.cpython-38.pyc
<<<          obj /usr/lib/python3.8/site-packages/testtools/__pycache__/__init__.cpython-38.opt-2.pyc
<<<          obj /usr/lib/python3.8/site-packages/testtools/__pycache__/__init__.cpython-38.opt-1.pyc
<<<          obj /usr/lib/python3.8/site-packages/testtools/__init__.py
<<<          obj /usr/lib/python3.8/site-packages/testtools-2.3.0-py3.8.egg-info/top_level.txt
<<<          obj /usr/lib/python3.8/site-packages/testtools-2.3.0-py3.8.egg-info/requires.txt
<<<          obj /usr/lib/python3.8/site-packages/testtools-2.3.0-py3.8.egg-info/pbr.json
<<<          obj /usr/lib/python3.8/site-packages/testtools-2.3.0-py3.8.egg-info/not-zip-safe
<<<          obj /usr/lib/python3.8/site-packages/testtools-2.3.0-py3.8.egg-info/dependency_links.txt
<<<          obj /usr/lib/python3.8/site-packages/testtools-2.3.0-py3.8.egg-info/SOURCES.txt
<<<          obj /usr/lib/python3.8/site-packages/testtools-2.3.0-py3.8.egg-info/PKG-INFO
<<<          dir /usr/lib/python3.8/site-packages/testtools/twistedsupport/__pycache__
<<<          dir /usr/lib/python3.8/site-packages/testtools/twistedsupport
<<<          dir /usr/lib/python3.8/site-packages/testtools/tests/twistedsupport/__pycache__
<<<          dir /usr/lib/python3.8/site-packages/testtools/tests/twistedsupport
<<<          dir /usr/lib/python3.8/site-packages/testtools/tests/matchers/__pycache__
<<<          dir /usr/lib/python3.8/site-packages/testtools/tests/matchers
<<<          dir /usr/lib/python3.8/site-packages/testtools/tests/__pycache__
<<<          dir /usr/lib/python3.8/site-packages/testtools/tests
<<<          dir /usr/lib/python3.8/site-packages/testtools/testresult/__pycache__
<<<          dir /usr/lib/python3.8/site-packages/testtools/testresult
<<<          dir /usr/lib/python3.8/site-packages/testtools/matchers/__pycache__
<<<          dir /usr/lib/python3.8/site-packages/testtools/matchers
<<<          dir /usr/lib/python3.8/site-packages/testtools/__pycache__
<<<          dir /usr/lib/python3.8/site-packages/testtools-2.3.0-py3.8.egg-info
<<<          dir /usr/lib/python3.8/site-packages/testtools
--- !empty   dir /usr/lib/python3.8/site-packages
--- !empty   dir /usr/lib/python3.8
--- !empty   dir /usr/lib
--- !empty   dir /usr
