[32;01m * [39;49;00mPackage:    dev-lang/R-4.0.0
[32;01m * [39;49;00mRepository: gentoo
[32;01m * [39;49;00mMaintainer: sci-mathematics@gentoo.org
[32;01m * [39;49;00mUSE:        X abi_x86_64 amd64 cairo elibc_glibc icu java jpeg kernel_linux openmp perl png profile readline test tiff tk userland_GNU
[32;01m * [39;49;00mFEATURES:   ccache network-sandbox preserve-libs sandbox userpriv usersandbox
