[32;01m * [39;49;00mPackage:    dev-python/pypy3-exe-7.3.1
[32;01m * [39;49;00mRepository: gentoo
[32;01m * [39;49;00mMaintainer: python@gentoo.org
[32;01m * [39;49;00mUSE:        abi_x86_64 amd64 bzip2 elibc_glibc jit kernel_linux ncurses userland_GNU
[32;01m * [39;49;00mFEATURES:   ccache network-sandbox preserve-libs userpriv
 [32;01m*[0m Checking for at least 6 GiB RAM ...
[A[229C [34;01m[ [32;01mok[34;01m ][0m
