 * Package:    dev-python/webencodings-0.5.1-r1
 * Repository: gentoo
 * Maintainer: python@gentoo.org
 * Upstream:   simon.sapin@exyr.org
 * USE:        abi_x86_64 amd64 elibc_glibc kernel_linux python_targets_python3_7 python_targets_python3_8 userland_GNU
 * FEATURES:   network-sandbox preserve-libs sandbox userpriv usersandbox
 * FEATURES='config-protect-if-modified nodoc unknown-features-warn buildpkg binpkg-dostrip preserve-libs userfetch assume-digests binpkg-logs news unmerge-logs sfperms multilib-strict strict merge-sync compress-index fixlafiles network-sandbox sandbox pid-sandbox usersandbox usersync cgroup ipc-sandbox qa-unresolved-soname-deps unmerge-orphans parallel-fetch strict-keepdir binpkg-docompress xattr ebuild-locks userpriv distlocks'
 * CFLAGS='-march=znver2 -O2 -pipe -fno-stack-protector -fno-stack-clash-protection -fstack-check=no -fno-stack-check -Wl,-O1 -Wl,--as-needed'
 * CXXFLAGS='-march=znver2 -O2 -pipe -fno-stack-protector -fno-stack-clash-protection -fstack-check=no -fno-stack-check -Wl,-O1 -Wl,--as-needed'
 * FFLAGS='-march=znver2 -O2 -pipe -fno-stack-protector -fno-stack-clash-protection -fstack-check=no -fno-stack-check -Wl,-O1 -Wl,--as-needed'
 * FCFLAGS='-march=znver2 -O2 -pipe -fno-stack-protector -fno-stack-clash-protection -fstack-check=no -fno-stack-check -Wl,-O1 -Wl,--as-needed'
 * F77FLAGS='-march=znver2 -O2 -pipe -fno-stack-protector -fno-stack-clash-protection -fstack-check=no -fno-stack-check -Wl,-O1 -Wl,--as-needed'
 * LDFLAGS='-Wl,-O1 -Wl,--as-needed'
 * MAKEOPTS='-j12 -l12'
 * gcc (Gentoo 10.1.0-r1 p2) 10.1.0
 * g++ (Gentoo 10.1.0-r1 p2) 10.1.0
 * GNU gold (Gentoo 2.34 p4 2.34.0) 1.16
 * Linux rescue 5.4.36 #1 SMP Thu Apr 30 04:38:28 UTC 2020 x86_64 AMD Ryzen 5 3600 6-Core Processor AuthenticAMD GNU/Linux
dev-python/webencodings: 18 seconds average for 4 merges
2020-05-20T08:16:31 >>> dev-python/webencodings: 4 seconds
2020-06-05T04:11:33 >>> dev-python/webencodings: 21 seconds
2020-06-12T12:18:47 >>> dev-python/webencodings: 14 seconds
2020-06-13T20:56:20 >>> dev-python/webencodings: 33 seconds
]0;emerge 17:24:17 675|895 webencodings 00:23 (root@rescue)>>> Unpacking source...
>>> Unpacking webencodings-0.5.1.tar.gz to /tmp/portage/dev-python/webencodings-0.5.1-r1/work
>>> Source unpacked in /tmp/portage/dev-python/webencodings-0.5.1-r1/work
>>> Preparing source in /tmp/portage/dev-python/webencodings-0.5.1-r1/work/webencodings-0.5.1 ...
>>> Source prepared.
>>> Configuring source in /tmp/portage/dev-python/webencodings-0.5.1-r1/work/webencodings-0.5.1 ...
>>> Source configured.
>>> Compiling source in /tmp/portage/dev-python/webencodings-0.5.1-r1/work/webencodings-0.5.1 ...
 * python3_7: running distutils-r1_run_phase distutils-r1_python_compile
python3.7 setup.py build -j 12
running build
running build_py
creating /tmp/portage/dev-python/webencodings-0.5.1-r1/work/webencodings-0.5.1-python3_7/lib/webencodings
copying webencodings/x_user_defined.py -> /tmp/portage/dev-python/webencodings-0.5.1-r1/work/webencodings-0.5.1-python3_7/lib/webencodings
copying webencodings/__init__.py -> /tmp/portage/dev-python/webencodings-0.5.1-r1/work/webencodings-0.5.1-python3_7/lib/webencodings
copying webencodings/tests.py -> /tmp/portage/dev-python/webencodings-0.5.1-r1/work/webencodings-0.5.1-python3_7/lib/webencodings
copying webencodings/mklabels.py -> /tmp/portage/dev-python/webencodings-0.5.1-r1/work/webencodings-0.5.1-python3_7/lib/webencodings
copying webencodings/labels.py -> /tmp/portage/dev-python/webencodings-0.5.1-r1/work/webencodings-0.5.1-python3_7/lib/webencodings
warning: build_py: byte-compiling is disabled, skipping.

 * python3_8: running distutils-r1_run_phase distutils-r1_python_compile
python3.8 setup.py build -j 12
running build
running build_py
creating /tmp/portage/dev-python/webencodings-0.5.1-r1/work/webencodings-0.5.1-python3_8/lib/webencodings
copying webencodings/x_user_defined.py -> /tmp/portage/dev-python/webencodings-0.5.1-r1/work/webencodings-0.5.1-python3_8/lib/webencodings
copying webencodings/__init__.py -> /tmp/portage/dev-python/webencodings-0.5.1-r1/work/webencodings-0.5.1-python3_8/lib/webencodings
copying webencodings/tests.py -> /tmp/portage/dev-python/webencodings-0.5.1-r1/work/webencodings-0.5.1-python3_8/lib/webencodings
copying webencodings/mklabels.py -> /tmp/portage/dev-python/webencodings-0.5.1-r1/work/webencodings-0.5.1-python3_8/lib/webencodings
copying webencodings/labels.py -> /tmp/portage/dev-python/webencodings-0.5.1-r1/work/webencodings-0.5.1-python3_8/lib/webencodings
warning: build_py: byte-compiling is disabled, skipping.

>>> Source compiled.
 * Skipping make test/check due to ebuild restriction.
>>> Test phase [disabled because of RESTRICT=test]: dev-python/webencodings-0.5.1-r1

>>> Install dev-python/webencodings-0.5.1-r1 into /tmp/portage/dev-python/webencodings-0.5.1-r1/image
 * python3_7: running distutils-r1_run_phase distutils-r1_python_install
python3.7 setup.py install --skip-build --root=/tmp/portage/dev-python/webencodings-0.5.1-r1/image/_python3.7
running install
running install_lib
creating /tmp/portage/dev-python/webencodings-0.5.1-r1/image/_python3.7
creating /tmp/portage/dev-python/webencodings-0.5.1-r1/image/_python3.7/usr
creating /tmp/portage/dev-python/webencodings-0.5.1-r1/image/_python3.7/usr/lib
creating /tmp/portage/dev-python/webencodings-0.5.1-r1/image/_python3.7/usr/lib/python3.7
creating /tmp/portage/dev-python/webencodings-0.5.1-r1/image/_python3.7/usr/lib/python3.7/site-packages
creating /tmp/portage/dev-python/webencodings-0.5.1-r1/image/_python3.7/usr/lib/python3.7/site-packages/webencodings
copying /tmp/portage/dev-python/webencodings-0.5.1-r1/work/webencodings-0.5.1-python3_7/lib/webencodings/x_user_defined.py -> /tmp/portage/dev-python/webencodings-0.5.1-r1/image/_python3.7/usr/lib/python3.7/site-packages/webencodings
copying /tmp/portage/dev-python/webencodings-0.5.1-r1/work/webencodings-0.5.1-python3_7/lib/webencodings/__init__.py -> /tmp/portage/dev-python/webencodings-0.5.1-r1/image/_python3.7/usr/lib/python3.7/site-packages/webencodings
copying /tmp/portage/dev-python/webencodings-0.5.1-r1/work/webencodings-0.5.1-python3_7/lib/webencodings/tests.py -> /tmp/portage/dev-python/webencodings-0.5.1-r1/image/_python3.7/usr/lib/python3.7/site-packages/webencodings
copying /tmp/portage/dev-python/webencodings-0.5.1-r1/work/webencodings-0.5.1-python3_7/lib/webencodings/mklabels.py -> /tmp/portage/dev-python/webencodings-0.5.1-r1/image/_python3.7/usr/lib/python3.7/site-packages/webencodings
copying /tmp/portage/dev-python/webencodings-0.5.1-r1/work/webencodings-0.5.1-python3_7/lib/webencodings/labels.py -> /tmp/portage/dev-python/webencodings-0.5.1-r1/image/_python3.7/usr/lib/python3.7/site-packages/webencodings
byte-compiling /tmp/portage/dev-python/webencodings-0.5.1-r1/image/_python3.7/usr/lib/python3.7/site-packages/webencodings/x_user_defined.py to x_user_defined.cpython-37.pyc
byte-compiling /tmp/portage/dev-python/webencodings-0.5.1-r1/image/_python3.7/usr/lib/python3.7/site-packages/webencodings/__init__.py to __init__.cpython-37.pyc
byte-compiling /tmp/portage/dev-python/webencodings-0.5.1-r1/image/_python3.7/usr/lib/python3.7/site-packages/webencodings/tests.py to tests.cpython-37.pyc
byte-compiling /tmp/portage/dev-python/webencodings-0.5.1-r1/image/_python3.7/usr/lib/python3.7/site-packages/webencodings/mklabels.py to mklabels.cpython-37.pyc
byte-compiling /tmp/portage/dev-python/webencodings-0.5.1-r1/image/_python3.7/usr/lib/python3.7/site-packages/webencodings/labels.py to labels.cpython-37.pyc
writing byte-compilation script '/tmp/portage/dev-python/webencodings-0.5.1-r1/temp/tmpseuthc3p.py'
/usr/bin/python3.7 /tmp/portage/dev-python/webencodings-0.5.1-r1/temp/tmpseuthc3p.py
removing /tmp/portage/dev-python/webencodings-0.5.1-r1/temp/tmpseuthc3p.py
writing byte-compilation script '/tmp/portage/dev-python/webencodings-0.5.1-r1/temp/tmph1k7za__.py'
/usr/bin/python3.7 /tmp/portage/dev-python/webencodings-0.5.1-r1/temp/tmph1k7za__.py
removing /tmp/portage/dev-python/webencodings-0.5.1-r1/temp/tmph1k7za__.py
running install_egg_info
running egg_info
writing webencodings.egg-info/PKG-INFO
writing dependency_links to webencodings.egg-info/dependency_links.txt
writing top-level names to webencodings.egg-info/top_level.txt
reading manifest file 'webencodings.egg-info/SOURCES.txt'
writing manifest file 'webencodings.egg-info/SOURCES.txt'
Copying webencodings.egg-info to /tmp/portage/dev-python/webencodings-0.5.1-r1/image/_python3.7/usr/lib/python3.7/site-packages/webencodings-0.5.1-py3.7.egg-info
running install_scripts
 * python3_8: running distutils-r1_run_phase distutils-r1_python_install
python3.8 setup.py install --skip-build --root=/tmp/portage/dev-python/webencodings-0.5.1-r1/image/_python3.8
running install
running install_lib
creating /tmp/portage/dev-python/webencodings-0.5.1-r1/image/_python3.8
creating /tmp/portage/dev-python/webencodings-0.5.1-r1/image/_python3.8/usr
creating /tmp/portage/dev-python/webencodings-0.5.1-r1/image/_python3.8/usr/lib
creating /tmp/portage/dev-python/webencodings-0.5.1-r1/image/_python3.8/usr/lib/python3.8
creating /tmp/portage/dev-python/webencodings-0.5.1-r1/image/_python3.8/usr/lib/python3.8/site-packages
creating /tmp/portage/dev-python/webencodings-0.5.1-r1/image/_python3.8/usr/lib/python3.8/site-packages/webencodings
copying /tmp/portage/dev-python/webencodings-0.5.1-r1/work/webencodings-0.5.1-python3_8/lib/webencodings/x_user_defined.py -> /tmp/portage/dev-python/webencodings-0.5.1-r1/image/_python3.8/usr/lib/python3.8/site-packages/webencodings
copying /tmp/portage/dev-python/webencodings-0.5.1-r1/work/webencodings-0.5.1-python3_8/lib/webencodings/__init__.py -> /tmp/portage/dev-python/webencodings-0.5.1-r1/image/_python3.8/usr/lib/python3.8/site-packages/webencodings
copying /tmp/portage/dev-python/webencodings-0.5.1-r1/work/webencodings-0.5.1-python3_8/lib/webencodings/tests.py -> /tmp/portage/dev-python/webencodings-0.5.1-r1/image/_python3.8/usr/lib/python3.8/site-packages/webencodings
copying /tmp/portage/dev-python/webencodings-0.5.1-r1/work/webencodings-0.5.1-python3_8/lib/webencodings/mklabels.py -> /tmp/portage/dev-python/webencodings-0.5.1-r1/image/_python3.8/usr/lib/python3.8/site-packages/webencodings
copying /tmp/portage/dev-python/webencodings-0.5.1-r1/work/webencodings-0.5.1-python3_8/lib/webencodings/labels.py -> /tmp/portage/dev-python/webencodings-0.5.1-r1/image/_python3.8/usr/lib/python3.8/site-packages/webencodings
byte-compiling /tmp/portage/dev-python/webencodings-0.5.1-r1/image/_python3.8/usr/lib/python3.8/site-packages/webencodings/x_user_defined.py to x_user_defined.cpython-38.pyc
byte-compiling /tmp/portage/dev-python/webencodings-0.5.1-r1/image/_python3.8/usr/lib/python3.8/site-packages/webencodings/__init__.py to __init__.cpython-38.pyc
byte-compiling /tmp/portage/dev-python/webencodings-0.5.1-r1/image/_python3.8/usr/lib/python3.8/site-packages/webencodings/tests.py to tests.cpython-38.pyc
byte-compiling /tmp/portage/dev-python/webencodings-0.5.1-r1/image/_python3.8/usr/lib/python3.8/site-packages/webencodings/mklabels.py to mklabels.cpython-38.pyc
byte-compiling /tmp/portage/dev-python/webencodings-0.5.1-r1/image/_python3.8/usr/lib/python3.8/site-packages/webencodings/labels.py to labels.cpython-38.pyc
writing byte-compilation script '/tmp/portage/dev-python/webencodings-0.5.1-r1/temp/tmpu3lol0zi.py'
/usr/bin/python3.8 /tmp/portage/dev-python/webencodings-0.5.1-r1/temp/tmpu3lol0zi.py
removing /tmp/portage/dev-python/webencodings-0.5.1-r1/temp/tmpu3lol0zi.py
writing byte-compilation script '/tmp/portage/dev-python/webencodings-0.5.1-r1/temp/tmpjjzdr2_q.py'
/usr/bin/python3.8 /tmp/portage/dev-python/webencodings-0.5.1-r1/temp/tmpjjzdr2_q.py
removing /tmp/portage/dev-python/webencodings-0.5.1-r1/temp/tmpjjzdr2_q.py
running install_egg_info
running egg_info
writing webencodings.egg-info/PKG-INFO
writing dependency_links to webencodings.egg-info/dependency_links.txt
writing top-level names to webencodings.egg-info/top_level.txt
reading manifest file 'webencodings.egg-info/SOURCES.txt'
writing manifest file 'webencodings.egg-info/SOURCES.txt'
Copying webencodings.egg-info to /tmp/portage/dev-python/webencodings-0.5.1-r1/image/_python3.8/usr/lib/python3.8/site-packages/webencodings-0.5.1-py3.8.egg-info
running install_scripts
 * Using python3.8 in global scope
 * python3_8: running distutils-r1_run_phase distutils-r1_python_install_all
>>> Completed installing dev-python/webencodings-0.5.1-r1 into /tmp/portage/dev-python/webencodings-0.5.1-r1/image

 * Final size of build directory: 244 KiB
 * Final size of installed tree:  380 KiB

 * Verifying compiled files in /usr/lib/python3.7/site-packages
 * Verifying compiled files in /usr/lib/python3.8/site-packages
Parallel BZIP2 v1.1.13 [Dec 18, 2015]
By: Jeff Gilchrist [http://compression.ca]
Major contributions: Yavor Nikolov [http://javornikolov.wordpress.com]
Uses libbzip2 by Julian Seward

         # CPUs: 4
   Load Average: 7.53
 BWT Block Size: 200 KB
File Block Size: 900 KB
 Maximum Memory: 1024 MB
-------------------------------------------
         File #: 1 of 1
     Input Name: compressme
    Output Name: compressme.bz2

     Input Size: 3895 bytes
Compressing data (no threads)...
Completed: 100%                 Output Size: 918 bytes
-------------------------------------------

     Wall Clock: 0.000613 seconds
Parallel BZIP2 v1.1.13 [Dec 18, 2015]
By: Jeff Gilchrist [http://compression.ca]
Major contributions: Yavor Nikolov [http://javornikolov.wordpress.com]
Uses libbzip2 by Julian Seward

         # CPUs: 4
   Load Average: 7.53
 BWT Block Size: 200 KB
File Block Size: 900 KB
 Maximum Memory: 1024 MB
-------------------------------------------
         File #: 1 of 1
     Input Name: /tmp/portage/dev-python/webencodings-0.5.1-r1/image/usr/share/doc/webencodings-0.5.1-r1/README.rst
    Output Name: /tmp/portage/dev-python/webencodings-0.5.1-r1/image/usr/share/doc/webencodings-0.5.1-r1/README.rst.bz2

     Input Size: 1037 bytes
Compressing data (no threads)...
Completed: 100%                 Output Size: 656 bytes
-------------------------------------------

     Wall Clock: 0.000867 seconds
./
./usr/
./usr/lib/
./usr/lib/python3.8/
./usr/lib/python3.8/site-packages/
./usr/lib/python3.8/site-packages/webencodings-0.5.1-py3.8.egg-info/
./usr/lib/python3.8/site-packages/webencodings-0.5.1-py3.8.egg-info/top_level.txt
./usr/lib/python3.8/site-packages/webencodings-0.5.1-py3.8.egg-info/SOURCES.txt
./usr/lib/python3.8/site-packages/webencodings-0.5.1-py3.8.egg-info/dependency_links.txt
./usr/lib/python3.8/site-packages/webencodings-0.5.1-py3.8.egg-info/PKG-INFO
./usr/lib/python3.8/site-packages/webencodings/
./usr/lib/python3.8/site-packages/webencodings/x_user_defined.py
./usr/lib/python3.8/site-packages/webencodings/__init__.py
./usr/lib/python3.8/site-packages/webencodings/tests.py
./usr/lib/python3.8/site-packages/webencodings/mklabels.py
./usr/lib/python3.8/site-packages/webencodings/__pycache__/
./usr/lib/python3.8/site-packages/webencodings/__pycache__/labels.cpython-38.pyc
./usr/lib/python3.8/site-packages/webencodings/__pycache__/mklabels.cpython-38.pyc
./usr/lib/python3.8/site-packages/webencodings/__pycache__/mklabels.cpython-38.opt-2.pyc
./usr/lib/python3.8/site-packages/webencodings/__pycache__/x_user_defined.cpython-38.opt-2.pyc
./usr/lib/python3.8/site-packages/webencodings/__pycache__/tests.cpython-38.pyc
./usr/lib/python3.8/site-packages/webencodings/__pycache__/__init__.cpython-38.opt-1.pyc
./usr/lib/python3.8/site-packages/webencodings/__pycache__/__init__.cpython-38.pyc
./usr/lib/python3.8/site-packages/webencodings/__pycache__/x_user_defined.cpython-38.pyc
./usr/lib/python3.8/site-packages/webencodings/__pycache__/__init__.cpython-38.opt-2.pyc
./usr/lib/python3.8/site-packages/webencodings/__pycache__/labels.cpython-38.opt-2.pyc
./usr/lib/python3.8/site-packages/webencodings/__pycache__/tests.cpython-38.opt-1.pyc
./usr/lib/python3.8/site-packages/webencodings/__pycache__/x_user_defined.cpython-38.opt-1.pyc
./usr/lib/python3.8/site-packages/webencodings/__pycache__/labels.cpython-38.opt-1.pyc
./usr/lib/python3.8/site-packages/webencodings/__pycache__/mklabels.cpython-38.opt-1.pyc
./usr/lib/python3.8/site-packages/webencodings/__pycache__/tests.cpython-38.opt-2.pyc
./usr/lib/python3.8/site-packages/webencodings/labels.py
./usr/lib/python3.7/
./usr/lib/python3.7/site-packages/
./usr/lib/python3.7/site-packages/webencodings-0.5.1-py3.7.egg-info/
./usr/lib/python3.7/site-packages/webencodings-0.5.1-py3.7.egg-info/top_level.txt
./usr/lib/python3.7/site-packages/webencodings-0.5.1-py3.7.egg-info/SOURCES.txt
./usr/lib/python3.7/site-packages/webencodings-0.5.1-py3.7.egg-info/dependency_links.txt
./usr/lib/python3.7/site-packages/webencodings-0.5.1-py3.7.egg-info/PKG-INFO
./usr/lib/python3.7/site-packages/webencodings/
./usr/lib/python3.7/site-packages/webencodings/x_user_defined.py
./usr/lib/python3.7/site-packages/webencodings/__init__.py
./usr/lib/python3.7/site-packages/webencodings/tests.py
./usr/lib/python3.7/site-packages/webencodings/mklabels.py
./usr/lib/python3.7/site-packages/webencodings/__pycache__/
./usr/lib/python3.7/site-packages/webencodings/__pycache__/x_user_defined.cpython-37.opt-2.pyc
./usr/lib/python3.7/site-packages/webencodings/__pycache__/tests.cpython-37.opt-2.pyc
./usr/lib/python3.7/site-packages/webencodings/__pycache__/labels.cpython-37.pyc
./usr/lib/python3.7/site-packages/webencodings/__pycache__/mklabels.cpython-37.opt-1.pyc
./usr/lib/python3.7/site-packages/webencodings/__pycache__/tests.cpython-37.pyc
./usr/lib/python3.7/site-packages/webencodings/__pycache__/mklabels.cpython-37.pyc
./usr/lib/python3.7/site-packages/webencodings/__pycache__/x_user_defined.cpython-37.opt-1.pyc
./usr/lib/python3.7/site-packages/webencodings/__pycache__/__init__.cpython-37.opt-1.pyc
./usr/lib/python3.7/site-packages/webencodings/__pycache__/__init__.cpython-37.opt-2.pyc
./usr/lib/python3.7/site-packages/webencodings/__pycache__/__init__.cpython-37.pyc
./usr/lib/python3.7/site-packages/webencodings/__pycache__/mklabels.cpython-37.opt-2.pyc
./usr/lib/python3.7/site-packages/webencodings/__pycache__/labels.cpython-37.opt-2.pyc
./usr/lib/python3.7/site-packages/webencodings/__pycache__/tests.cpython-37.opt-1.pyc
./usr/lib/python3.7/site-packages/webencodings/__pycache__/labels.cpython-37.opt-1.pyc
./usr/lib/python3.7/site-packages/webencodings/__pycache__/x_user_defined.cpython-37.pyc
./usr/lib/python3.7/site-packages/webencodings/labels.py
./usr/share/
./usr/share/doc/
./usr/share/doc/webencodings-0.5.1-r1/
./usr/share/doc/webencodings-0.5.1-r1/README.rst.bz2
./usr/share/doc/webencodings-0.5.1-r1/README.rst
>>> Done.
 * checking 48 files for package collisions
>>> Merging dev-python/webencodings-0.5.1-r1 to /
 * removing unneeded *.la files
--- /usr/
--- /usr/lib/
--- /usr/lib/python3.7/
--- /usr/lib/python3.7/site-packages/
--- /usr/lib/python3.7/site-packages/webencodings/
>>> /usr/lib/python3.7/site-packages/webencodings/labels.py
--- /usr/lib/python3.7/site-packages/webencodings/__pycache__/
>>> /usr/lib/python3.7/site-packages/webencodings/__pycache__/x_user_defined.cpython-37.pyc
>>> /usr/lib/python3.7/site-packages/webencodings/__pycache__/labels.cpython-37.opt-1.pyc
>>> /usr/lib/python3.7/site-packages/webencodings/__pycache__/tests.cpython-37.opt-1.pyc
>>> /usr/lib/python3.7/site-packages/webencodings/__pycache__/labels.cpython-37.opt-2.pyc
>>> /usr/lib/python3.7/site-packages/webencodings/__pycache__/mklabels.cpython-37.opt-2.pyc
>>> /usr/lib/python3.7/site-packages/webencodings/__pycache__/__init__.cpython-37.pyc
>>> /usr/lib/python3.7/site-packages/webencodings/__pycache__/__init__.cpython-37.opt-2.pyc
>>> /usr/lib/python3.7/site-packages/webencodings/__pycache__/__init__.cpython-37.opt-1.pyc
>>> /usr/lib/python3.7/site-packages/webencodings/__pycache__/x_user_defined.cpython-37.opt-1.pyc
>>> /usr/lib/python3.7/site-packages/webencodings/__pycache__/mklabels.cpython-37.pyc
>>> /usr/lib/python3.7/site-packages/webencodings/__pycache__/tests.cpython-37.pyc
>>> /usr/lib/python3.7/site-packages/webencodings/__pycache__/mklabels.cpython-37.opt-1.pyc
>>> /usr/lib/python3.7/site-packages/webencodings/__pycache__/labels.cpython-37.pyc
>>> /usr/lib/python3.7/site-packages/webencodings/__pycache__/tests.cpython-37.opt-2.pyc
>>> /usr/lib/python3.7/site-packages/webencodings/__pycache__/x_user_defined.cpython-37.opt-2.pyc
>>> /usr/lib/python3.7/site-packages/webencodings/mklabels.py
>>> /usr/lib/python3.7/site-packages/webencodings/tests.py
>>> /usr/lib/python3.7/site-packages/webencodings/__init__.py
>>> /usr/lib/python3.7/site-packages/webencodings/x_user_defined.py
--- /usr/lib/python3.7/site-packages/webencodings-0.5.1-py3.7.egg-info/
>>> /usr/lib/python3.7/site-packages/webencodings-0.5.1-py3.7.egg-info/PKG-INFO
>>> /usr/lib/python3.7/site-packages/webencodings-0.5.1-py3.7.egg-info/dependency_links.txt
>>> /usr/lib/python3.7/site-packages/webencodings-0.5.1-py3.7.egg-info/SOURCES.txt
>>> /usr/lib/python3.7/site-packages/webencodings-0.5.1-py3.7.egg-info/top_level.txt
--- /usr/lib/python3.8/
--- /usr/lib/python3.8/site-packages/
--- /usr/lib/python3.8/site-packages/webencodings/
>>> /usr/lib/python3.8/site-packages/webencodings/labels.py
--- /usr/lib/python3.8/site-packages/webencodings/__pycache__/
>>> /usr/lib/python3.8/site-packages/webencodings/__pycache__/tests.cpython-38.opt-2.pyc
>>> /usr/lib/python3.8/site-packages/webencodings/__pycache__/mklabels.cpython-38.opt-1.pyc
>>> /usr/lib/python3.8/site-packages/webencodings/__pycache__/labels.cpython-38.opt-1.pyc
>>> /usr/lib/python3.8/site-packages/webencodings/__pycache__/x_user_defined.cpython-38.opt-1.pyc
>>> /usr/lib/python3.8/site-packages/webencodings/__pycache__/tests.cpython-38.opt-1.pyc
>>> /usr/lib/python3.8/site-packages/webencodings/__pycache__/labels.cpython-38.opt-2.pyc
>>> /usr/lib/python3.8/site-packages/webencodings/__pycache__/__init__.cpython-38.opt-2.pyc
>>> /usr/lib/python3.8/site-packages/webencodings/__pycache__/x_user_defined.cpython-38.pyc
>>> /usr/lib/python3.8/site-packages/webencodings/__pycache__/__init__.cpython-38.pyc
>>> /usr/lib/python3.8/site-packages/webencodings/__pycache__/__init__.cpython-38.opt-1.pyc
>>> /usr/lib/python3.8/site-packages/webencodings/__pycache__/tests.cpython-38.pyc
>>> /usr/lib/python3.8/site-packages/webencodings/__pycache__/x_user_defined.cpython-38.opt-2.pyc
>>> /usr/lib/python3.8/site-packages/webencodings/__pycache__/mklabels.cpython-38.opt-2.pyc
>>> /usr/lib/python3.8/site-packages/webencodings/__pycache__/mklabels.cpython-38.pyc
>>> /usr/lib/python3.8/site-packages/webencodings/__pycache__/labels.cpython-38.pyc
>>> /usr/lib/python3.8/site-packages/webencodings/mklabels.py
>>> /usr/lib/python3.8/site-packages/webencodings/tests.py
>>> /usr/lib/python3.8/site-packages/webencodings/__init__.py
>>> /usr/lib/python3.8/site-packages/webencodings/x_user_defined.py
--- /usr/lib/python3.8/site-packages/webencodings-0.5.1-py3.8.egg-info/
>>> /usr/lib/python3.8/site-packages/webencodings-0.5.1-py3.8.egg-info/PKG-INFO
>>> /usr/lib/python3.8/site-packages/webencodings-0.5.1-py3.8.egg-info/dependency_links.txt
>>> /usr/lib/python3.8/site-packages/webencodings-0.5.1-py3.8.egg-info/SOURCES.txt
>>> /usr/lib/python3.8/site-packages/webencodings-0.5.1-py3.8.egg-info/top_level.txt
>>> Safely unmerging already-installed instance...
!!! File Not Found: '/etc/env.d/99lcdfilter'
>>> Original instance of package unmerged safely.
>>> dev-python/webencodings-0.5.1-r1 merged.
!!! File Not Found: '/etc/env.d/99lcdfilter'
