No package files given... Grabbing a set.
--- replaced obj /usr/lib64/python2.7/site-packages/pycparser/yacctab.pyo
--- replaced obj /usr/lib64/python2.7/site-packages/pycparser/yacctab.pyc
--- replaced obj /usr/lib64/python2.7/site-packages/pycparser/yacctab.py
--- replaced obj /usr/lib64/python2.7/site-packages/pycparser/plyparser.pyo
--- replaced obj /usr/lib64/python2.7/site-packages/pycparser/plyparser.pyc
--- replaced obj /usr/lib64/python2.7/site-packages/pycparser/plyparser.py
--- replaced obj /usr/lib64/python2.7/site-packages/pycparser/ply/ygen.pyo
--- replaced obj /usr/lib64/python2.7/site-packages/pycparser/ply/ygen.pyc
--- replaced obj /usr/lib64/python2.7/site-packages/pycparser/ply/ygen.py
--- replaced obj /usr/lib64/python2.7/site-packages/pycparser/ply/yacc.pyo
--- replaced obj /usr/lib64/python2.7/site-packages/pycparser/ply/yacc.pyc
--- replaced obj /usr/lib64/python2.7/site-packages/pycparser/ply/yacc.py
--- replaced obj /usr/lib64/python2.7/site-packages/pycparser/ply/lex.pyo
--- replaced obj /usr/lib64/python2.7/site-packages/pycparser/ply/lex.pyc
--- replaced obj /usr/lib64/python2.7/site-packages/pycparser/ply/lex.py
--- replaced obj /usr/lib64/python2.7/site-packages/pycparser/ply/ctokens.pyo
--- replaced obj /usr/lib64/python2.7/site-packages/pycparser/ply/ctokens.pyc
--- replaced obj /usr/lib64/python2.7/site-packages/pycparser/ply/ctokens.py
--- replaced obj /usr/lib64/python2.7/site-packages/pycparser/ply/cpp.pyo
--- replaced obj /usr/lib64/python2.7/site-packages/pycparser/ply/cpp.pyc
--- replaced obj /usr/lib64/python2.7/site-packages/pycparser/ply/cpp.py
--- replaced obj /usr/lib64/python2.7/site-packages/pycparser/ply/__init__.pyo
--- replaced obj /usr/lib64/python2.7/site-packages/pycparser/ply/__init__.pyc
--- replaced obj /usr/lib64/python2.7/site-packages/pycparser/ply/__init__.py
--- replaced dir /usr/lib64/python2.7/site-packages/pycparser/ply
--- replaced obj /usr/lib64/python2.7/site-packages/pycparser/lextab.pyo
--- replaced obj /usr/lib64/python2.7/site-packages/pycparser/lextab.pyc
--- replaced obj /usr/lib64/python2.7/site-packages/pycparser/lextab.py
--- replaced obj /usr/lib64/python2.7/site-packages/pycparser/c_parser.pyo
--- replaced obj /usr/lib64/python2.7/site-packages/pycparser/c_parser.pyc
--- replaced obj /usr/lib64/python2.7/site-packages/pycparser/c_parser.py
--- replaced obj /usr/lib64/python2.7/site-packages/pycparser/c_lexer.pyo
--- replaced obj /usr/lib64/python2.7/site-packages/pycparser/c_lexer.pyc
--- replaced obj /usr/lib64/python2.7/site-packages/pycparser/c_lexer.py
--- replaced obj /usr/lib64/python2.7/site-packages/pycparser/c_generator.pyo
--- replaced obj /usr/lib64/python2.7/site-packages/pycparser/c_generator.pyc
--- replaced obj /usr/lib64/python2.7/site-packages/pycparser/c_generator.py
--- replaced obj /usr/lib64/python2.7/site-packages/pycparser/c_ast.pyo
--- replaced obj /usr/lib64/python2.7/site-packages/pycparser/c_ast.pyc
--- replaced obj /usr/lib64/python2.7/site-packages/pycparser/c_ast.py
--- replaced obj /usr/lib64/python2.7/site-packages/pycparser/ast_transforms.pyo
--- replaced obj /usr/lib64/python2.7/site-packages/pycparser/ast_transforms.pyc
--- replaced obj /usr/lib64/python2.7/site-packages/pycparser/ast_transforms.py
--- replaced obj /usr/lib64/python2.7/site-packages/pycparser/_c_ast.cfg
--- replaced obj /usr/lib64/python2.7/site-packages/pycparser/_build_tables.pyo
--- replaced obj /usr/lib64/python2.7/site-packages/pycparser/_build_tables.pyc
--- replaced obj /usr/lib64/python2.7/site-packages/pycparser/_build_tables.py
--- replaced obj /usr/lib64/python2.7/site-packages/pycparser/_ast_gen.pyo
--- replaced obj /usr/lib64/python2.7/site-packages/pycparser/_ast_gen.pyc
--- replaced obj /usr/lib64/python2.7/site-packages/pycparser/_ast_gen.py
--- replaced obj /usr/lib64/python2.7/site-packages/pycparser/__init__.pyo
--- replaced obj /usr/lib64/python2.7/site-packages/pycparser/__init__.pyc
--- replaced obj /usr/lib64/python2.7/site-packages/pycparser/__init__.py
--- replaced obj /usr/lib64/python2.7/site-packages/pycparser-2.20-py2.7.egg-info/top_level.txt
--- replaced obj /usr/lib64/python2.7/site-packages/pycparser-2.20-py2.7.egg-info/dependency_links.txt
--- replaced obj /usr/lib64/python2.7/site-packages/pycparser-2.20-py2.7.egg-info/SOURCES.txt
--- replaced obj /usr/lib64/python2.7/site-packages/pycparser-2.20-py2.7.egg-info/PKG-INFO
--- replaced dir /usr/lib64/python2.7/site-packages/pycparser-2.20-py2.7.egg-info
--- replaced dir /usr/lib64/python2.7/site-packages/pycparser
--- replaced dir /usr/lib64/python2.7/site-packages
--- replaced dir /usr/lib64/python2.7
--- replaced dir /usr/lib64
--- replaced obj /usr/lib/python3.9/site-packages/pycparser/yacctab.py
--- replaced obj /usr/lib/python3.9/site-packages/pycparser/plyparser.py
--- replaced obj /usr/lib/python3.9/site-packages/pycparser/ply/ygen.py
--- replaced obj /usr/lib/python3.9/site-packages/pycparser/ply/yacc.py
--- replaced obj /usr/lib/python3.9/site-packages/pycparser/ply/lex.py
--- replaced obj /usr/lib/python3.9/site-packages/pycparser/ply/ctokens.py
--- replaced obj /usr/lib/python3.9/site-packages/pycparser/ply/cpp.py
--- replaced obj /usr/lib/python3.9/site-packages/pycparser/ply/__pycache__/ygen.cpython-39.pyc
--- replaced obj /usr/lib/python3.9/site-packages/pycparser/ply/__pycache__/ygen.cpython-39.opt-2.pyc
--- replaced obj /usr/lib/python3.9/site-packages/pycparser/ply/__pycache__/ygen.cpython-39.opt-1.pyc
--- replaced obj /usr/lib/python3.9/site-packages/pycparser/ply/__pycache__/yacc.cpython-39.pyc
--- replaced obj /usr/lib/python3.9/site-packages/pycparser/ply/__pycache__/yacc.cpython-39.opt-2.pyc
--- replaced obj /usr/lib/python3.9/site-packages/pycparser/ply/__pycache__/yacc.cpython-39.opt-1.pyc
--- replaced obj /usr/lib/python3.9/site-packages/pycparser/ply/__pycache__/lex.cpython-39.pyc
--- replaced obj /usr/lib/python3.9/site-packages/pycparser/ply/__pycache__/lex.cpython-39.opt-2.pyc
--- replaced obj /usr/lib/python3.9/site-packages/pycparser/ply/__pycache__/lex.cpython-39.opt-1.pyc
--- replaced obj /usr/lib/python3.9/site-packages/pycparser/ply/__pycache__/ctokens.cpython-39.pyc
--- replaced obj /usr/lib/python3.9/site-packages/pycparser/ply/__pycache__/ctokens.cpython-39.opt-2.pyc
--- replaced obj /usr/lib/python3.9/site-packages/pycparser/ply/__pycache__/ctokens.cpython-39.opt-1.pyc
--- replaced obj /usr/lib/python3.9/site-packages/pycparser/ply/__pycache__/cpp.cpython-39.pyc
--- replaced obj /usr/lib/python3.9/site-packages/pycparser/ply/__pycache__/cpp.cpython-39.opt-2.pyc
--- replaced obj /usr/lib/python3.9/site-packages/pycparser/ply/__pycache__/cpp.cpython-39.opt-1.pyc
--- replaced obj /usr/lib/python3.9/site-packages/pycparser/ply/__pycache__/__init__.cpython-39.pyc
--- replaced obj /usr/lib/python3.9/site-packages/pycparser/ply/__pycache__/__init__.cpython-39.opt-2.pyc
--- replaced obj /usr/lib/python3.9/site-packages/pycparser/ply/__pycache__/__init__.cpython-39.opt-1.pyc
--- replaced dir /usr/lib/python3.9/site-packages/pycparser/ply/__pycache__
--- replaced obj /usr/lib/python3.9/site-packages/pycparser/ply/__init__.py
--- replaced dir /usr/lib/python3.9/site-packages/pycparser/ply
--- replaced obj /usr/lib/python3.9/site-packages/pycparser/lextab.py
--- replaced obj /usr/lib/python3.9/site-packages/pycparser/c_parser.py
--- replaced obj /usr/lib/python3.9/site-packages/pycparser/c_lexer.py
--- replaced obj /usr/lib/python3.9/site-packages/pycparser/c_generator.py
--- replaced obj /usr/lib/python3.9/site-packages/pycparser/c_ast.py
--- replaced obj /usr/lib/python3.9/site-packages/pycparser/ast_transforms.py
--- replaced obj /usr/lib/python3.9/site-packages/pycparser/_c_ast.cfg
--- replaced obj /usr/lib/python3.9/site-packages/pycparser/_build_tables.py
--- replaced obj /usr/lib/python3.9/site-packages/pycparser/_ast_gen.py
--- replaced obj /usr/lib/python3.9/site-packages/pycparser/__pycache__/yacctab.cpython-39.pyc
--- replaced obj /usr/lib/python3.9/site-packages/pycparser/__pycache__/yacctab.cpython-39.opt-2.pyc
--- replaced obj /usr/lib/python3.9/site-packages/pycparser/__pycache__/yacctab.cpython-39.opt-1.pyc
--- replaced obj /usr/lib/python3.9/site-packages/pycparser/__pycache__/plyparser.cpython-39.pyc
--- replaced obj /usr/lib/python3.9/site-packages/pycparser/__pycache__/plyparser.cpython-39.opt-2.pyc
--- replaced obj /usr/lib/python3.9/site-packages/pycparser/__pycache__/plyparser.cpython-39.opt-1.pyc
--- replaced obj /usr/lib/python3.9/site-packages/pycparser/__pycache__/lextab.cpython-39.pyc
--- replaced obj /usr/lib/python3.9/site-packages/pycparser/__pycache__/lextab.cpython-39.opt-2.pyc
--- replaced obj /usr/lib/python3.9/site-packages/pycparser/__pycache__/lextab.cpython-39.opt-1.pyc
--- replaced obj /usr/lib/python3.9/site-packages/pycparser/__pycache__/c_parser.cpython-39.pyc
--- replaced obj /usr/lib/python3.9/site-packages/pycparser/__pycache__/c_parser.cpython-39.opt-2.pyc
--- replaced obj /usr/lib/python3.9/site-packages/pycparser/__pycache__/c_parser.cpython-39.opt-1.pyc
--- replaced obj /usr/lib/python3.9/site-packages/pycparser/__pycache__/c_lexer.cpython-39.pyc
--- replaced obj /usr/lib/python3.9/site-packages/pycparser/__pycache__/c_lexer.cpython-39.opt-2.pyc
--- replaced obj /usr/lib/python3.9/site-packages/pycparser/__pycache__/c_lexer.cpython-39.opt-1.pyc
--- replaced obj /usr/lib/python3.9/site-packages/pycparser/__pycache__/c_generator.cpython-39.pyc
--- replaced obj /usr/lib/python3.9/site-packages/pycparser/__pycache__/c_generator.cpython-39.opt-2.pyc
--- replaced obj /usr/lib/python3.9/site-packages/pycparser/__pycache__/c_generator.cpython-39.opt-1.pyc
--- replaced obj /usr/lib/python3.9/site-packages/pycparser/__pycache__/c_ast.cpython-39.pyc
--- replaced obj /usr/lib/python3.9/site-packages/pycparser/__pycache__/c_ast.cpython-39.opt-2.pyc
--- replaced obj /usr/lib/python3.9/site-packages/pycparser/__pycache__/c_ast.cpython-39.opt-1.pyc
--- replaced obj /usr/lib/python3.9/site-packages/pycparser/__pycache__/ast_transforms.cpython-39.pyc
--- replaced obj /usr/lib/python3.9/site-packages/pycparser/__pycache__/ast_transforms.cpython-39.opt-2.pyc
--- replaced obj /usr/lib/python3.9/site-packages/pycparser/__pycache__/ast_transforms.cpython-39.opt-1.pyc
--- replaced obj /usr/lib/python3.9/site-packages/pycparser/__pycache__/_build_tables.cpython-39.pyc
--- replaced obj /usr/lib/python3.9/site-packages/pycparser/__pycache__/_build_tables.cpython-39.opt-2.pyc
--- replaced obj /usr/lib/python3.9/site-packages/pycparser/__pycache__/_build_tables.cpython-39.opt-1.pyc
--- replaced obj /usr/lib/python3.9/site-packages/pycparser/__pycache__/_ast_gen.cpython-39.pyc
--- replaced obj /usr/lib/python3.9/site-packages/pycparser/__pycache__/_ast_gen.cpython-39.opt-2.pyc
--- replaced obj /usr/lib/python3.9/site-packages/pycparser/__pycache__/_ast_gen.cpython-39.opt-1.pyc
--- replaced obj /usr/lib/python3.9/site-packages/pycparser/__pycache__/__init__.cpython-39.pyc
--- replaced obj /usr/lib/python3.9/site-packages/pycparser/__pycache__/__init__.cpython-39.opt-2.pyc
--- replaced obj /usr/lib/python3.9/site-packages/pycparser/__pycache__/__init__.cpython-39.opt-1.pyc
--- replaced dir /usr/lib/python3.9/site-packages/pycparser/__pycache__
--- replaced obj /usr/lib/python3.9/site-packages/pycparser/__init__.py
--- replaced obj /usr/lib/python3.9/site-packages/pycparser-2.20-py3.9.egg-info/top_level.txt
--- replaced obj /usr/lib/python3.9/site-packages/pycparser-2.20-py3.9.egg-info/dependency_links.txt
--- replaced obj /usr/lib/python3.9/site-packages/pycparser-2.20-py3.9.egg-info/SOURCES.txt
--- replaced obj /usr/lib/python3.9/site-packages/pycparser-2.20-py3.9.egg-info/PKG-INFO
--- replaced dir /usr/lib/python3.9/site-packages/pycparser-2.20-py3.9.egg-info
--- replaced dir /usr/lib/python3.9/site-packages/pycparser
--- replaced dir /usr/lib/python3.9/site-packages
--- replaced dir /usr/lib/python3.9
--- replaced obj /usr/lib/python3.8/site-packages/pycparser/yacctab.py
--- replaced obj /usr/lib/python3.8/site-packages/pycparser/plyparser.py
--- replaced obj /usr/lib/python3.8/site-packages/pycparser/ply/ygen.py
--- replaced obj /usr/lib/python3.8/site-packages/pycparser/ply/yacc.py
--- replaced obj /usr/lib/python3.8/site-packages/pycparser/ply/lex.py
--- replaced obj /usr/lib/python3.8/site-packages/pycparser/ply/ctokens.py
--- replaced obj /usr/lib/python3.8/site-packages/pycparser/ply/cpp.py
--- replaced obj /usr/lib/python3.8/site-packages/pycparser/ply/__pycache__/ygen.cpython-38.pyc
--- replaced obj /usr/lib/python3.8/site-packages/pycparser/ply/__pycache__/ygen.cpython-38.opt-2.pyc
--- replaced obj /usr/lib/python3.8/site-packages/pycparser/ply/__pycache__/ygen.cpython-38.opt-1.pyc
--- replaced obj /usr/lib/python3.8/site-packages/pycparser/ply/__pycache__/yacc.cpython-38.pyc
--- replaced obj /usr/lib/python3.8/site-packages/pycparser/ply/__pycache__/yacc.cpython-38.opt-2.pyc
--- replaced obj /usr/lib/python3.8/site-packages/pycparser/ply/__pycache__/yacc.cpython-38.opt-1.pyc
--- replaced obj /usr/lib/python3.8/site-packages/pycparser/ply/__pycache__/lex.cpython-38.pyc
--- replaced obj /usr/lib/python3.8/site-packages/pycparser/ply/__pycache__/lex.cpython-38.opt-2.pyc
--- replaced obj /usr/lib/python3.8/site-packages/pycparser/ply/__pycache__/lex.cpython-38.opt-1.pyc
--- replaced obj /usr/lib/python3.8/site-packages/pycparser/ply/__pycache__/ctokens.cpython-38.pyc
--- replaced obj /usr/lib/python3.8/site-packages/pycparser/ply/__pycache__/ctokens.cpython-38.opt-2.pyc
--- replaced obj /usr/lib/python3.8/site-packages/pycparser/ply/__pycache__/ctokens.cpython-38.opt-1.pyc
--- replaced obj /usr/lib/python3.8/site-packages/pycparser/ply/__pycache__/cpp.cpython-38.pyc
--- replaced obj /usr/lib/python3.8/site-packages/pycparser/ply/__pycache__/cpp.cpython-38.opt-2.pyc
--- replaced obj /usr/lib/python3.8/site-packages/pycparser/ply/__pycache__/cpp.cpython-38.opt-1.pyc
--- replaced obj /usr/lib/python3.8/site-packages/pycparser/ply/__pycache__/__init__.cpython-38.pyc
--- replaced obj /usr/lib/python3.8/site-packages/pycparser/ply/__pycache__/__init__.cpython-38.opt-2.pyc
--- replaced obj /usr/lib/python3.8/site-packages/pycparser/ply/__pycache__/__init__.cpython-38.opt-1.pyc
--- replaced dir /usr/lib/python3.8/site-packages/pycparser/ply/__pycache__
--- replaced obj /usr/lib/python3.8/site-packages/pycparser/ply/__init__.py
--- replaced dir /usr/lib/python3.8/site-packages/pycparser/ply
--- replaced obj /usr/lib/python3.8/site-packages/pycparser/lextab.py
--- replaced obj /usr/lib/python3.8/site-packages/pycparser/c_parser.py
--- replaced obj /usr/lib/python3.8/site-packages/pycparser/c_lexer.py
--- replaced obj /usr/lib/python3.8/site-packages/pycparser/c_generator.py
--- replaced obj /usr/lib/python3.8/site-packages/pycparser/c_ast.py
--- replaced obj /usr/lib/python3.8/site-packages/pycparser/ast_transforms.py
--- replaced obj /usr/lib/python3.8/site-packages/pycparser/_c_ast.cfg
--- replaced obj /usr/lib/python3.8/site-packages/pycparser/_build_tables.py
--- replaced obj /usr/lib/python3.8/site-packages/pycparser/_ast_gen.py
--- replaced obj /usr/lib/python3.8/site-packages/pycparser/__pycache__/yacctab.cpython-38.pyc
--- replaced obj /usr/lib/python3.8/site-packages/pycparser/__pycache__/yacctab.cpython-38.opt-2.pyc
--- replaced obj /usr/lib/python3.8/site-packages/pycparser/__pycache__/yacctab.cpython-38.opt-1.pyc
--- replaced obj /usr/lib/python3.8/site-packages/pycparser/__pycache__/plyparser.cpython-38.pyc
--- replaced obj /usr/lib/python3.8/site-packages/pycparser/__pycache__/plyparser.cpython-38.opt-2.pyc
--- replaced obj /usr/lib/python3.8/site-packages/pycparser/__pycache__/plyparser.cpython-38.opt-1.pyc
--- replaced obj /usr/lib/python3.8/site-packages/pycparser/__pycache__/lextab.cpython-38.pyc
--- replaced obj /usr/lib/python3.8/site-packages/pycparser/__pycache__/lextab.cpython-38.opt-2.pyc
--- replaced obj /usr/lib/python3.8/site-packages/pycparser/__pycache__/lextab.cpython-38.opt-1.pyc
--- replaced obj /usr/lib/python3.8/site-packages/pycparser/__pycache__/c_parser.cpython-38.pyc
--- replaced obj /usr/lib/python3.8/site-packages/pycparser/__pycache__/c_parser.cpython-38.opt-2.pyc
--- replaced obj /usr/lib/python3.8/site-packages/pycparser/__pycache__/c_parser.cpython-38.opt-1.pyc
--- replaced obj /usr/lib/python3.8/site-packages/pycparser/__pycache__/c_lexer.cpython-38.pyc
--- replaced obj /usr/lib/python3.8/site-packages/pycparser/__pycache__/c_lexer.cpython-38.opt-2.pyc
--- replaced obj /usr/lib/python3.8/site-packages/pycparser/__pycache__/c_lexer.cpython-38.opt-1.pyc
--- replaced obj /usr/lib/python3.8/site-packages/pycparser/__pycache__/c_generator.cpython-38.pyc
--- replaced obj /usr/lib/python3.8/site-packages/pycparser/__pycache__/c_generator.cpython-38.opt-2.pyc
--- replaced obj /usr/lib/python3.8/site-packages/pycparser/__pycache__/c_generator.cpython-38.opt-1.pyc
--- replaced obj /usr/lib/python3.8/site-packages/pycparser/__pycache__/c_ast.cpython-38.pyc
--- replaced obj /usr/lib/python3.8/site-packages/pycparser/__pycache__/c_ast.cpython-38.opt-2.pyc
--- replaced obj /usr/lib/python3.8/site-packages/pycparser/__pycache__/c_ast.cpython-38.opt-1.pyc
--- replaced obj /usr/lib/python3.8/site-packages/pycparser/__pycache__/ast_transforms.cpython-38.pyc
--- replaced obj /usr/lib/python3.8/site-packages/pycparser/__pycache__/ast_transforms.cpython-38.opt-2.pyc
--- replaced obj /usr/lib/python3.8/site-packages/pycparser/__pycache__/ast_transforms.cpython-38.opt-1.pyc
--- replaced obj /usr/lib/python3.8/site-packages/pycparser/__pycache__/_build_tables.cpython-38.pyc
--- replaced obj /usr/lib/python3.8/site-packages/pycparser/__pycache__/_build_tables.cpython-38.opt-2.pyc
--- replaced obj /usr/lib/python3.8/site-packages/pycparser/__pycache__/_build_tables.cpython-38.opt-1.pyc
--- replaced obj /usr/lib/python3.8/site-packages/pycparser/__pycache__/_ast_gen.cpython-38.pyc
--- replaced obj /usr/lib/python3.8/site-packages/pycparser/__pycache__/_ast_gen.cpython-38.opt-2.pyc
--- replaced obj /usr/lib/python3.8/site-packages/pycparser/__pycache__/_ast_gen.cpython-38.opt-1.pyc
--- replaced obj /usr/lib/python3.8/site-packages/pycparser/__pycache__/__init__.cpython-38.pyc
--- replaced obj /usr/lib/python3.8/site-packages/pycparser/__pycache__/__init__.cpython-38.opt-2.pyc
--- replaced obj /usr/lib/python3.8/site-packages/pycparser/__pycache__/__init__.cpython-38.opt-1.pyc
--- replaced dir /usr/lib/python3.8/site-packages/pycparser/__pycache__
--- replaced obj /usr/lib/python3.8/site-packages/pycparser/__init__.py
--- replaced obj /usr/lib/python3.8/site-packages/pycparser-2.20-py3.8.egg-info/top_level.txt
--- replaced obj /usr/lib/python3.8/site-packages/pycparser-2.20-py3.8.egg-info/dependency_links.txt
--- replaced obj /usr/lib/python3.8/site-packages/pycparser-2.20-py3.8.egg-info/SOURCES.txt
--- replaced obj /usr/lib/python3.8/site-packages/pycparser-2.20-py3.8.egg-info/PKG-INFO
--- replaced dir /usr/lib/python3.8/site-packages/pycparser-2.20-py3.8.egg-info
--- replaced dir /usr/lib/python3.8/site-packages/pycparser
--- replaced dir /usr/lib/python3.8/site-packages
--- replaced dir /usr/lib/python3.8
--- replaced obj /usr/lib/python3.7/site-packages/pycparser/yacctab.py
--- replaced obj /usr/lib/python3.7/site-packages/pycparser/plyparser.py
--- replaced obj /usr/lib/python3.7/site-packages/pycparser/ply/ygen.py
--- replaced obj /usr/lib/python3.7/site-packages/pycparser/ply/yacc.py
--- replaced obj /usr/lib/python3.7/site-packages/pycparser/ply/lex.py
--- replaced obj /usr/lib/python3.7/site-packages/pycparser/ply/ctokens.py
--- replaced obj /usr/lib/python3.7/site-packages/pycparser/ply/cpp.py
--- replaced obj /usr/lib/python3.7/site-packages/pycparser/ply/__pycache__/ygen.cpython-37.pyc
--- replaced obj /usr/lib/python3.7/site-packages/pycparser/ply/__pycache__/ygen.cpython-37.opt-2.pyc
--- replaced obj /usr/lib/python3.7/site-packages/pycparser/ply/__pycache__/ygen.cpython-37.opt-1.pyc
--- replaced obj /usr/lib/python3.7/site-packages/pycparser/ply/__pycache__/yacc.cpython-37.pyc
--- replaced obj /usr/lib/python3.7/site-packages/pycparser/ply/__pycache__/yacc.cpython-37.opt-2.pyc
--- replaced obj /usr/lib/python3.7/site-packages/pycparser/ply/__pycache__/yacc.cpython-37.opt-1.pyc
--- replaced obj /usr/lib/python3.7/site-packages/pycparser/ply/__pycache__/lex.cpython-37.pyc
--- replaced obj /usr/lib/python3.7/site-packages/pycparser/ply/__pycache__/lex.cpython-37.opt-2.pyc
--- replaced obj /usr/lib/python3.7/site-packages/pycparser/ply/__pycache__/lex.cpython-37.opt-1.pyc
--- replaced obj /usr/lib/python3.7/site-packages/pycparser/ply/__pycache__/ctokens.cpython-37.pyc
--- replaced obj /usr/lib/python3.7/site-packages/pycparser/ply/__pycache__/ctokens.cpython-37.opt-2.pyc
--- replaced obj /usr/lib/python3.7/site-packages/pycparser/ply/__pycache__/ctokens.cpython-37.opt-1.pyc
--- replaced obj /usr/lib/python3.7/site-packages/pycparser/ply/__pycache__/cpp.cpython-37.pyc
--- replaced obj /usr/lib/python3.7/site-packages/pycparser/ply/__pycache__/cpp.cpython-37.opt-2.pyc
--- replaced obj /usr/lib/python3.7/site-packages/pycparser/ply/__pycache__/cpp.cpython-37.opt-1.pyc
--- replaced obj /usr/lib/python3.7/site-packages/pycparser/ply/__pycache__/__init__.cpython-37.pyc
--- replaced obj /usr/lib/python3.7/site-packages/pycparser/ply/__pycache__/__init__.cpython-37.opt-2.pyc
--- replaced obj /usr/lib/python3.7/site-packages/pycparser/ply/__pycache__/__init__.cpython-37.opt-1.pyc
--- replaced dir /usr/lib/python3.7/site-packages/pycparser/ply/__pycache__
--- replaced obj /usr/lib/python3.7/site-packages/pycparser/ply/__init__.py
--- replaced dir /usr/lib/python3.7/site-packages/pycparser/ply
--- replaced obj /usr/lib/python3.7/site-packages/pycparser/lextab.py
--- replaced obj /usr/lib/python3.7/site-packages/pycparser/c_parser.py
--- replaced obj /usr/lib/python3.7/site-packages/pycparser/c_lexer.py
--- replaced obj /usr/lib/python3.7/site-packages/pycparser/c_generator.py
--- replaced obj /usr/lib/python3.7/site-packages/pycparser/c_ast.py
--- replaced obj /usr/lib/python3.7/site-packages/pycparser/ast_transforms.py
--- replaced obj /usr/lib/python3.7/site-packages/pycparser/_c_ast.cfg
--- replaced obj /usr/lib/python3.7/site-packages/pycparser/_build_tables.py
--- replaced obj /usr/lib/python3.7/site-packages/pycparser/_ast_gen.py
--- replaced obj /usr/lib/python3.7/site-packages/pycparser/__pycache__/yacctab.cpython-37.pyc
--- replaced obj /usr/lib/python3.7/site-packages/pycparser/__pycache__/yacctab.cpython-37.opt-2.pyc
--- replaced obj /usr/lib/python3.7/site-packages/pycparser/__pycache__/yacctab.cpython-37.opt-1.pyc
--- replaced obj /usr/lib/python3.7/site-packages/pycparser/__pycache__/plyparser.cpython-37.pyc
--- replaced obj /usr/lib/python3.7/site-packages/pycparser/__pycache__/plyparser.cpython-37.opt-2.pyc
--- replaced obj /usr/lib/python3.7/site-packages/pycparser/__pycache__/plyparser.cpython-37.opt-1.pyc
--- replaced obj /usr/lib/python3.7/site-packages/pycparser/__pycache__/lextab.cpython-37.pyc
--- replaced obj /usr/lib/python3.7/site-packages/pycparser/__pycache__/lextab.cpython-37.opt-2.pyc
--- replaced obj /usr/lib/python3.7/site-packages/pycparser/__pycache__/lextab.cpython-37.opt-1.pyc
--- replaced obj /usr/lib/python3.7/site-packages/pycparser/__pycache__/c_parser.cpython-37.pyc
--- replaced obj /usr/lib/python3.7/site-packages/pycparser/__pycache__/c_parser.cpython-37.opt-2.pyc
--- replaced obj /usr/lib/python3.7/site-packages/pycparser/__pycache__/c_parser.cpython-37.opt-1.pyc
--- replaced obj /usr/lib/python3.7/site-packages/pycparser/__pycache__/c_lexer.cpython-37.pyc
--- replaced obj /usr/lib/python3.7/site-packages/pycparser/__pycache__/c_lexer.cpython-37.opt-2.pyc
--- replaced obj /usr/lib/python3.7/site-packages/pycparser/__pycache__/c_lexer.cpython-37.opt-1.pyc
--- replaced obj /usr/lib/python3.7/site-packages/pycparser/__pycache__/c_generator.cpython-37.pyc
--- replaced obj /usr/lib/python3.7/site-packages/pycparser/__pycache__/c_generator.cpython-37.opt-2.pyc
--- replaced obj /usr/lib/python3.7/site-packages/pycparser/__pycache__/c_generator.cpython-37.opt-1.pyc
--- replaced obj /usr/lib/python3.7/site-packages/pycparser/__pycache__/c_ast.cpython-37.pyc
--- replaced obj /usr/lib/python3.7/site-packages/pycparser/__pycache__/c_ast.cpython-37.opt-2.pyc
--- replaced obj /usr/lib/python3.7/site-packages/pycparser/__pycache__/c_ast.cpython-37.opt-1.pyc
--- replaced obj /usr/lib/python3.7/site-packages/pycparser/__pycache__/ast_transforms.cpython-37.pyc
--- replaced obj /usr/lib/python3.7/site-packages/pycparser/__pycache__/ast_transforms.cpython-37.opt-2.pyc
--- replaced obj /usr/lib/python3.7/site-packages/pycparser/__pycache__/ast_transforms.cpython-37.opt-1.pyc
--- replaced obj /usr/lib/python3.7/site-packages/pycparser/__pycache__/_build_tables.cpython-37.pyc
--- replaced obj /usr/lib/python3.7/site-packages/pycparser/__pycache__/_build_tables.cpython-37.opt-2.pyc
--- replaced obj /usr/lib/python3.7/site-packages/pycparser/__pycache__/_build_tables.cpython-37.opt-1.pyc
--- replaced obj /usr/lib/python3.7/site-packages/pycparser/__pycache__/_ast_gen.cpython-37.pyc
--- replaced obj /usr/lib/python3.7/site-packages/pycparser/__pycache__/_ast_gen.cpython-37.opt-2.pyc
--- replaced obj /usr/lib/python3.7/site-packages/pycparser/__pycache__/_ast_gen.cpython-37.opt-1.pyc
--- replaced obj /usr/lib/python3.7/site-packages/pycparser/__pycache__/__init__.cpython-37.pyc
--- replaced obj /usr/lib/python3.7/site-packages/pycparser/__pycache__/__init__.cpython-37.opt-2.pyc
--- replaced obj /usr/lib/python3.7/site-packages/pycparser/__pycache__/__init__.cpython-37.opt-1.pyc
--- replaced dir /usr/lib/python3.7/site-packages/pycparser/__pycache__
--- replaced obj /usr/lib/python3.7/site-packages/pycparser/__init__.py
--- replaced obj /usr/lib/python3.7/site-packages/pycparser-2.20-py3.7.egg-info/top_level.txt
--- replaced obj /usr/lib/python3.7/site-packages/pycparser-2.20-py3.7.egg-info/dependency_links.txt
--- replaced obj /usr/lib/python3.7/site-packages/pycparser-2.20-py3.7.egg-info/SOURCES.txt
--- replaced obj /usr/lib/python3.7/site-packages/pycparser-2.20-py3.7.egg-info/PKG-INFO
--- replaced dir /usr/lib/python3.7/site-packages/pycparser-2.20-py3.7.egg-info
--- replaced dir /usr/lib/python3.7/site-packages/pycparser
--- replaced dir /usr/lib/python3.7/site-packages
--- replaced dir /usr/lib/python3.7
--- replaced obj /usr/lib/pypy3.6/site-packages/pycparser/yacctab.py
--- replaced obj /usr/lib/pypy3.6/site-packages/pycparser/plyparser.py
--- replaced obj /usr/lib/pypy3.6/site-packages/pycparser/ply/ygen.py
--- replaced obj /usr/lib/pypy3.6/site-packages/pycparser/ply/yacc.py
--- replaced obj /usr/lib/pypy3.6/site-packages/pycparser/ply/lex.py
--- replaced obj /usr/lib/pypy3.6/site-packages/pycparser/ply/ctokens.py
--- replaced obj /usr/lib/pypy3.6/site-packages/pycparser/ply/cpp.py
--- replaced obj /usr/lib/pypy3.6/site-packages/pycparser/ply/__pycache__/ygen.pypy36.pyc
--- replaced obj /usr/lib/pypy3.6/site-packages/pycparser/ply/__pycache__/ygen.pypy36.opt-2.pyc
--- replaced obj /usr/lib/pypy3.6/site-packages/pycparser/ply/__pycache__/ygen.pypy36.opt-1.pyc
--- replaced obj /usr/lib/pypy3.6/site-packages/pycparser/ply/__pycache__/yacc.pypy36.pyc
--- replaced obj /usr/lib/pypy3.6/site-packages/pycparser/ply/__pycache__/yacc.pypy36.opt-2.pyc
--- replaced obj /usr/lib/pypy3.6/site-packages/pycparser/ply/__pycache__/yacc.pypy36.opt-1.pyc
--- replaced obj /usr/lib/pypy3.6/site-packages/pycparser/ply/__pycache__/lex.pypy36.pyc
--- replaced obj /usr/lib/pypy3.6/site-packages/pycparser/ply/__pycache__/lex.pypy36.opt-2.pyc
--- replaced obj /usr/lib/pypy3.6/site-packages/pycparser/ply/__pycache__/lex.pypy36.opt-1.pyc
--- replaced obj /usr/lib/pypy3.6/site-packages/pycparser/ply/__pycache__/ctokens.pypy36.pyc
--- replaced obj /usr/lib/pypy3.6/site-packages/pycparser/ply/__pycache__/ctokens.pypy36.opt-2.pyc
--- replaced obj /usr/lib/pypy3.6/site-packages/pycparser/ply/__pycache__/ctokens.pypy36.opt-1.pyc
--- replaced obj /usr/lib/pypy3.6/site-packages/pycparser/ply/__pycache__/cpp.pypy36.pyc
--- replaced obj /usr/lib/pypy3.6/site-packages/pycparser/ply/__pycache__/cpp.pypy36.opt-2.pyc
--- replaced obj /usr/lib/pypy3.6/site-packages/pycparser/ply/__pycache__/cpp.pypy36.opt-1.pyc
--- replaced obj /usr/lib/pypy3.6/site-packages/pycparser/ply/__pycache__/__init__.pypy36.pyc
--- replaced obj /usr/lib/pypy3.6/site-packages/pycparser/ply/__pycache__/__init__.pypy36.opt-2.pyc
--- replaced obj /usr/lib/pypy3.6/site-packages/pycparser/ply/__pycache__/__init__.pypy36.opt-1.pyc
--- replaced dir /usr/lib/pypy3.6/site-packages/pycparser/ply/__pycache__
--- replaced obj /usr/lib/pypy3.6/site-packages/pycparser/ply/__init__.py
--- replaced dir /usr/lib/pypy3.6/site-packages/pycparser/ply
--- replaced obj /usr/lib/pypy3.6/site-packages/pycparser/lextab.py
--- replaced obj /usr/lib/pypy3.6/site-packages/pycparser/c_parser.py
--- replaced obj /usr/lib/pypy3.6/site-packages/pycparser/c_lexer.py
--- replaced obj /usr/lib/pypy3.6/site-packages/pycparser/c_generator.py
--- replaced obj /usr/lib/pypy3.6/site-packages/pycparser/c_ast.py
--- replaced obj /usr/lib/pypy3.6/site-packages/pycparser/ast_transforms.py
--- replaced obj /usr/lib/pypy3.6/site-packages/pycparser/_c_ast.cfg
--- replaced obj /usr/lib/pypy3.6/site-packages/pycparser/_build_tables.py
--- replaced obj /usr/lib/pypy3.6/site-packages/pycparser/_ast_gen.py
--- replaced obj /usr/lib/pypy3.6/site-packages/pycparser/__pycache__/yacctab.pypy36.pyc
--- replaced obj /usr/lib/pypy3.6/site-packages/pycparser/__pycache__/yacctab.pypy36.opt-2.pyc
--- replaced obj /usr/lib/pypy3.6/site-packages/pycparser/__pycache__/yacctab.pypy36.opt-1.pyc
--- replaced obj /usr/lib/pypy3.6/site-packages/pycparser/__pycache__/plyparser.pypy36.pyc
--- replaced obj /usr/lib/pypy3.6/site-packages/pycparser/__pycache__/plyparser.pypy36.opt-2.pyc
--- replaced obj /usr/lib/pypy3.6/site-packages/pycparser/__pycache__/plyparser.pypy36.opt-1.pyc
--- replaced obj /usr/lib/pypy3.6/site-packages/pycparser/__pycache__/lextab.pypy36.pyc
--- replaced obj /usr/lib/pypy3.6/site-packages/pycparser/__pycache__/lextab.pypy36.opt-2.pyc
--- replaced obj /usr/lib/pypy3.6/site-packages/pycparser/__pycache__/lextab.pypy36.opt-1.pyc
--- replaced obj /usr/lib/pypy3.6/site-packages/pycparser/__pycache__/c_parser.pypy36.pyc
--- replaced obj /usr/lib/pypy3.6/site-packages/pycparser/__pycache__/c_parser.pypy36.opt-2.pyc
--- replaced obj /usr/lib/pypy3.6/site-packages/pycparser/__pycache__/c_parser.pypy36.opt-1.pyc
--- replaced obj /usr/lib/pypy3.6/site-packages/pycparser/__pycache__/c_lexer.pypy36.pyc
--- replaced obj /usr/lib/pypy3.6/site-packages/pycparser/__pycache__/c_lexer.pypy36.opt-2.pyc
--- replaced obj /usr/lib/pypy3.6/site-packages/pycparser/__pycache__/c_lexer.pypy36.opt-1.pyc
--- replaced obj /usr/lib/pypy3.6/site-packages/pycparser/__pycache__/c_generator.pypy36.pyc
--- replaced obj /usr/lib/pypy3.6/site-packages/pycparser/__pycache__/c_generator.pypy36.opt-2.pyc
--- replaced obj /usr/lib/pypy3.6/site-packages/pycparser/__pycache__/c_generator.pypy36.opt-1.pyc
--- replaced obj /usr/lib/pypy3.6/site-packages/pycparser/__pycache__/c_ast.pypy36.pyc
--- replaced obj /usr/lib/pypy3.6/site-packages/pycparser/__pycache__/c_ast.pypy36.opt-2.pyc
--- replaced obj /usr/lib/pypy3.6/site-packages/pycparser/__pycache__/c_ast.pypy36.opt-1.pyc
--- replaced obj /usr/lib/pypy3.6/site-packages/pycparser/__pycache__/ast_transforms.pypy36.pyc
--- replaced obj /usr/lib/pypy3.6/site-packages/pycparser/__pycache__/ast_transforms.pypy36.opt-2.pyc
--- replaced obj /usr/lib/pypy3.6/site-packages/pycparser/__pycache__/ast_transforms.pypy36.opt-1.pyc
--- replaced obj /usr/lib/pypy3.6/site-packages/pycparser/__pycache__/_build_tables.pypy36.pyc
--- replaced obj /usr/lib/pypy3.6/site-packages/pycparser/__pycache__/_build_tables.pypy36.opt-2.pyc
--- replaced obj /usr/lib/pypy3.6/site-packages/pycparser/__pycache__/_build_tables.pypy36.opt-1.pyc
--- replaced obj /usr/lib/pypy3.6/site-packages/pycparser/__pycache__/_ast_gen.pypy36.pyc
--- replaced obj /usr/lib/pypy3.6/site-packages/pycparser/__pycache__/_ast_gen.pypy36.opt-2.pyc
--- replaced obj /usr/lib/pypy3.6/site-packages/pycparser/__pycache__/_ast_gen.pypy36.opt-1.pyc
--- replaced obj /usr/lib/pypy3.6/site-packages/pycparser/__pycache__/__init__.pypy36.pyc
--- replaced obj /usr/lib/pypy3.6/site-packages/pycparser/__pycache__/__init__.pypy36.opt-2.pyc
--- replaced obj /usr/lib/pypy3.6/site-packages/pycparser/__pycache__/__init__.pypy36.opt-1.pyc
--- replaced dir /usr/lib/pypy3.6/site-packages/pycparser/__pycache__
--- replaced obj /usr/lib/pypy3.6/site-packages/pycparser/__init__.py
--- replaced obj /usr/lib/pypy3.6/site-packages/pycparser-2.20-py3.6.egg-info/top_level.txt
--- replaced obj /usr/lib/pypy3.6/site-packages/pycparser-2.20-py3.6.egg-info/dependency_links.txt
--- replaced obj /usr/lib/pypy3.6/site-packages/pycparser-2.20-py3.6.egg-info/SOURCES.txt
--- replaced obj /usr/lib/pypy3.6/site-packages/pycparser-2.20-py3.6.egg-info/PKG-INFO
--- replaced dir /usr/lib/pypy3.6/site-packages/pycparser-2.20-py3.6.egg-info
--- replaced dir /usr/lib/pypy3.6/site-packages/pycparser
--- replaced dir /usr/lib/pypy3.6/site-packages
--- replaced dir /usr/lib/pypy3.6
--- replaced dir /usr/lib
--- replaced dir /usr
>>> Regenerating /etc/ld.so.cache...
