[32;01m * [39;49;00mPackage:    dev-lang/spidermonkey-60.5.2_p0-r4
[32;01m * [39;49;00mRepository: gentoo
[32;01m * [39;49;00mMaintainer: mozilla@gentoo.org
[32;01m * [39;49;00mUSE:        abi_x86_64 amd64 custom-cflags elibc_glibc kernel_linux system-icu userland_GNU
[32;01m * [39;49;00mFEATURES:   ccache network-sandbox preserve-libs sandbox userpriv usersandbox
 [32;01m*[0m Checking for at least 2 GiB disk space at "/tmp/portage/dev-lang/spidermonkey-60.5.2_p0-r4/temp" ...
[A[263C [34;01m[ [32;01mok[34;01m ][0m
