 * Package:    dev-util/boost-build-1.73.0
 * Repository: gentoo
 * Maintainer: soap@gentoo.org
 * USE:        abi_x86_64 amd64 elibc_glibc examples kernel_linux userland_GNU
 * FEATURES:   ccache network-sandbox preserve-libs sandbox userpriv usersandbox
 * /etc/portage/package.cflags/ltoworkarounds.conf -> */*: *FLAGS+=-Wl,-O4 *FLAGS-=-Wl,-O1
 * FEATURES='assume-digests binpkg-docompress binpkg-dostrip binpkg-logs binpkg-multi-instance buildpkg ccache cgroup compress-index config-protect-if-modified distlocks fixlafiles ipc-sandbox merge-sync multilib-strict network-sandbox news nodoc parallel-fetch parallel-install pid-sandbox preserve-libs qa-unresolved-soname-deps sandbox sfperms strict strict-keepdir unknown-features-warn unmerge-logs unmerge-orphans userfetch userpriv usersandbox usersync xattr'
 * CFLAGS='-march=znver2 -pipe -g0 -O3 -fgraphite-identity -floop-nest-optimize -fdevirtualize-at-ltrans -fipa-pta -fno-semantic-interposition -flto=12 -fno-plt -fno-signed-zeros -fno-trapping-math -fassociative-math -freciprocal-math -fno-math-errno -ffinite-math-only -fno-rounding-math -fno-signaling-nans -fcx-limited-range -fexcess-precision=fast -falign-functions=32 -fno-stack-protector -fno-stack-clash-protection -fstack-check=no -fno-stack-check -fuse-linker-plugin -Wl,-O4 -Wl,--as-needed -Wl,-lpthread -Wl,-lgomp -Wl,-z,norelro -Wl,-z,now -Wl,--sort-common -s'
 * CXXFLAGS='-march=znver2 -pipe -g0 -O3 -fgraphite-identity -floop-nest-optimize -fdevirtualize-at-ltrans -fipa-pta -fno-semantic-interposition -flto=12 -fno-plt -fno-signed-zeros -fno-trapping-math -fassociative-math -freciprocal-math -fno-math-errno -ffinite-math-only -fno-rounding-math -fno-signaling-nans -fcx-limited-range -fexcess-precision=fast -falign-functions=32 -fno-stack-protector -fno-stack-clash-protection -fstack-check=no -fno-stack-check -fuse-linker-plugin -Wl,-O4 -Wl,--as-needed -Wl,-lpthread -Wl,-lgomp -Wl,-z,norelro -Wl,-z,now -Wl,--sort-common -s'
 * FFLAGS='-march=znver2 -pipe -g0 -O3 -fgraphite-identity -floop-nest-optimize -fdevirtualize-at-ltrans -fipa-pta -fno-semantic-interposition -flto=12 -fno-plt -fno-signed-zeros -fno-trapping-math -fassociative-math -freciprocal-math -fno-math-errno -ffinite-math-only -fno-rounding-math -fno-signaling-nans -fcx-limited-range -fexcess-precision=fast -falign-functions=32 -fno-stack-protector -fno-stack-clash-protection -fstack-check=no -fno-stack-check -fuse-linker-plugin -Wl,-O4 -Wl,--as-needed -Wl,-lpthread -Wl,-lgomp -Wl,-z,norelro -Wl,-z,now -Wl,--sort-common -s'
 * FCFLAGS='-march=znver2 -pipe -g0 -O3 -fgraphite-identity -floop-nest-optimize -fdevirtualize-at-ltrans -fipa-pta -fno-semantic-interposition -flto=12 -fno-plt -fno-signed-zeros -fno-trapping-math -fassociative-math -freciprocal-math -fno-math-errno -ffinite-math-only -fno-rounding-math -fno-signaling-nans -fcx-limited-range -fexcess-precision=fast -falign-functions=32 -fno-stack-protector -fno-stack-clash-protection -fstack-check=no -fno-stack-check -fuse-linker-plugin -Wl,-O4 -Wl,--as-needed -Wl,-lpthread -Wl,-lgomp -Wl,-z,norelro -Wl,-z,now -Wl,--sort-common -s'
 * F77FLAGS='-march=znver2 -pipe -g0 -O3 -fgraphite-identity -floop-nest-optimize -fdevirtualize-at-ltrans -fipa-pta -fno-semantic-interposition -flto=12 -fno-plt -fno-signed-zeros -fno-trapping-math -fassociative-math -freciprocal-math -fno-math-errno -ffinite-math-only -fno-rounding-math -fno-signaling-nans -fcx-limited-range -fexcess-precision=fast -falign-functions=32 -fno-stack-protector -fno-stack-clash-protection -fstack-check=no -fno-stack-check -fuse-linker-plugin -Wl,-O4 -Wl,--as-needed -Wl,-lpthread -Wl,-lgomp -Wl,-z,norelro -Wl,-z,now -Wl,--sort-common -s'
 * LDFLAGS='-march=znver2 -pipe -g0 -O3 -fgraphite-identity -floop-nest-optimize -fdevirtualize-at-ltrans -fipa-pta -fno-semantic-interposition -flto=12 -fno-plt -fno-signed-zeros -fno-trapping-math -fassociative-math -freciprocal-math -fno-math-errno -ffinite-math-only -fno-rounding-math -fno-signaling-nans -fcx-limited-range -fexcess-precision=fast -falign-functions=32 -fno-stack-protector -fno-stack-clash-protection -fstack-check=no -fno-stack-check -fuse-linker-plugin -Wl,-O4 -Wl,--as-needed -Wl,-lpthread -Wl,-lgomp -Wl,-z,norelro -Wl,-z,now -Wl,--sort-common -s'
 * MAKEOPTS='-j12 -l12'
 * gcc () 11.0.0 20200601 (experimental)
 * g++ () 11.0.0 20200601 (experimental)
 * GNU ld (Gentoo 2.34 p4) 2.34.0
 * Linux ryzen.gnum.org 5.4.36 #1 SMP Thu Apr 30 04:38:28 UTC 2020 x86_64 AMD Ryzen 5 3600 6-Core Processor AuthenticAMD GNU/Linux
dev-util/boost-build: 30 seconds average for 18 merges
2020-05-16T20:46:00 >>> dev-util/boost-build: 24 seconds
2020-05-20T00:56:34 >>> dev-util/boost-build: 13 seconds
2020-05-21T05:54:14 >>> dev-util/boost-build: 5 seconds
2020-05-22T01:56:38 >>> dev-util/boost-build: 44 seconds
2020-05-22T03:08:09 >>> dev-util/boost-build: 42 seconds
2020-05-22T12:27:30 >>> dev-util/boost-build: 43 seconds
2020-05-23T03:29:36 >>> dev-util/boost-build: 41 seconds
2020-05-25T18:16:25 >>> dev-util/boost-build: 37 seconds
2020-05-26T12:51:08 >>> dev-util/boost-build: 40 seconds
2020-05-26T13:46:56 >>> dev-util/boost-build: 14 seconds
2020-05-27T03:02:34 >>> dev-util/boost-build: 43 seconds
2020-05-28T02:49:01 >>> dev-util/boost-build: 11 seconds
2020-05-28T13:24:07 >>> dev-util/boost-build: 42 seconds
2020-05-28T14:12:11 >>> dev-util/boost-build: 15 seconds
2020-05-29T01:32:20 >>> dev-util/boost-build: 19 seconds
2020-05-30T12:30:28 >>> dev-util/boost-build: 1 minute, 1 second
2020-05-30T21:32:50 >>> dev-util/boost-build: 16 seconds
2020-06-01T01:45:58 >>> dev-util/boost-build: 35 seconds
]0;emerge 12:01:24 94|1515 boost-build 00:37 (root@ryzen.gnum.org)kemerge 12:01:24 94|1515 boost-build 00:37 (root@ryzen.gnum.org)\>>> Unpacking source...
>>> Source unpacked in /tmp/portage/dev-util/boost-build-1.73.0/work
>>> Preparing source in /tmp/portage/dev-util/boost-build-1.73.0/work/boost_1_73_0/tools/build/src ...
 * Applying boost-build-1.71.0-disable_python_rpath.patch ...
 [ ok ]
 * Applying boost-build-1.71.0-darwin-gentoo-toolchain.patch ...
 [ ok ]
 * Applying boost-build-1.73.0-add-none-feature-options.patch ...
 [ ok ]
 * Applying boost-build-1.71.0-respect-c_ld-flags.patch ...
 [ ok ]
 * Applying boost-build-1.73.0-no-implicit-march-flags.patch ...
 [ ok ]
 * Applying boost-build-1.71.0-fix-test.patch ...
 [ ok ]
>>> Source prepared.
>>> Configuring source in /tmp/portage/dev-util/boost-build-1.73.0/work/boost_1_73_0/tools/build/src ...
>>> Source configured.
>>> Compiling source in /tmp/portage/dev-util/boost-build-1.73.0/work/boost_1_73_0/tools/build/src ...

###
###
### Using 'cxx' toolset.
###
###

> x86_64-pc-linux-gnu-g++ --version
x86_64-pc-linux-gnu-g++ () 11.0.0 20200601 (experimental)
Copyright (C) 2020 Free Software Foundation, Inc.
This is free software; see the source for copying conditions.  There is NO
warranty; not even for MERCHANTABILITY or FITNESS FOR A PARTICULAR PURPOSE.


###
###

> x86_64-pc-linux-gnu-g++ -march=znver2 -pipe -g0 -O3 -fgraphite-identity -floop-nest-optimize -fdevirtualize-at-ltrans -fipa-pta -fno-semantic-interposition -flto=12 -fno-plt -fno-signed-zeros -fno-trapping-math -fassociative-math -freciprocal-math -fno-math-errno -ffinite-math-only -fno-rounding-math -fno-signaling-nans -fcx-limited-range -fexcess-precision=fast -falign-functions=32 -fno-stack-protector -fno-stack-clash-protection -fstack-check=no -fno-stack-check -fuse-linker-plugin -Wl,-O4 -Wl,--as-needed -Wl,-lpthread -Wl,-lgomp -Wl,-z,norelro -Wl,-z,now -Wl,--sort-common -s -march=znver2 -pipe -g0 -O3 -fgraphite-identity -floop-nest-optimize -fdevirtualize-at-ltrans -fipa-pta -fno-semantic-interposition -flto=12 -fno-plt -fno-signed-zeros -fno-trapping-math -fassociative-math -freciprocal-math -fno-math-errno -ffinite-math-only -fno-rounding-math -fno-signaling-nans -fcx-limited-range -fexcess-precision=fast -falign-functions=32 -fno-stack-protector -fno-stack-clash-protection -fstack-check=no -fno-stack-check -fuse-linker-plugin -Wl,-O4 -Wl,--as-needed -Wl,-lpthread -Wl,-lgomp -Wl,-z,norelro -Wl,-z,now -Wl,--sort-common -s -DNDEBUG builtins.cpp class.cpp command.cpp compile.cpp constants.cpp cwd.cpp debug.cpp debugger.cpp execcmd.cpp filesys.cpp frames.cpp function.cpp glob.cpp hash.cpp hcache.cpp hdrmacro.cpp headers.cpp jam.cpp jambase.cpp jamgram.cpp lists.cpp make.cpp make1.cpp md5.cpp mem.cpp modules.cpp native.cpp object.cpp option.cpp output.cpp parse.cpp pathsys.cpp regexp.cpp rules.cpp scan.cpp search.cpp jam_strings.cpp subst.cpp sysinfo.cpp timestamp.cpp variable.cpp w32_getreg.cpp modules/order.cpp modules/path.cpp modules/property-set.cpp modules/regex.cpp modules/sequence.cpp modules/set.cpp execunix.cpp fileunix.cpp pathunix.cpp -o b2
function.cpp:220:8: warning: type ‘struct _stack’ violates the C++ One Definition Rule [-Wodr]
  220 | struct _stack
      |        ^
make1.cpp:104:16: note: a different type is defined in another translation unit
  104 | typedef struct _stack
      |                ^
function.cpp:222:12: note: the first difference of corresponding definitions is field ‘data’
  222 |     void * data;
      |            ^
make1.cpp:106:13: note: a field with different name is defined in another translation unit
  106 |     state * stack;
      |             ^
> cp b2 bjam
>>> Source compiled.
 * Skipping make test/check due to ebuild restriction.
>>> Test phase [disabled because of RESTRICT=test]: dev-util/boost-build-1.73.0

>>> Install dev-util/boost-build-1.73.0 into /tmp/portage/dev-util/boost-build-1.73.0/image
>>> Completed installing dev-util/boost-build-1.73.0 into /tmp/portage/dev-util/boost-build-1.73.0/image

 * Final size of build directory: 8784 KiB (8.5 MiB)
 * Final size of installed tree:  3380 KiB (3.3 MiB)



 * QA Notice: Pre-stripped files found:
 * /usr/bin/b2
 * /usr/bin/bjam
./
./usr/
./usr/bin/
./usr/bin/b2
./usr/bin/bjam
./usr/share/
./usr/share/boost-build/
./usr/share/boost-build/kernel/
./usr/share/boost-build/kernel/bootstrap.jam
./usr/share/boost-build/kernel/class.jam
./usr/share/boost-build/kernel/errors.jam
./usr/share/boost-build/kernel/modules.jam
./usr/share/boost-build/kernel/boost-build.jam
./usr/share/boost-build/build/
./usr/share/boost-build/build/toolset.jam
./usr/share/boost-build/build/scanner.jam
./usr/share/boost-build/build/readme.txt
./usr/share/boost-build/build/config-cache.jam
./usr/share/boost-build/build/alias.jam
./usr/share/boost-build/build/virtual-target.jam
./usr/share/boost-build/build/ac.jam
./usr/share/boost-build/build/generators.jam
./usr/share/boost-build/build/feature.jam
./usr/share/boost-build/build/property.jam
./usr/share/boost-build/build/property-set.jam
./usr/share/boost-build/build/project.jam
./usr/share/boost-build/build/build-request.jam
./usr/share/boost-build/build/type.jam
./usr/share/boost-build/build/targets.jam
./usr/share/boost-build/build/configure.jam
./usr/share/boost-build/build/version.jam
./usr/share/boost-build/bootstrap.jam
./usr/share/boost-build/site-config.jam
./usr/share/boost-build/user-config.jam
./usr/share/boost-build/options/
./usr/share/boost-build/options/help.jam
./usr/share/boost-build/tools/
./usr/share/boost-build/tools/msvc.jam
./usr/share/boost-build/tools/doxygen.jam
./usr/share/boost-build/tools/python-config.jam
./usr/share/boost-build/tools/libjpeg.jam
./usr/share/boost-build/tools/intel-darwin.jam
./usr/share/boost-build/tools/hp_cxx.jam
./usr/share/boost-build/tools/clang-linux.jam
./usr/share/boost-build/tools/clang-vxworks.jam
./usr/share/boost-build/tools/xsltproc.jam
./usr/share/boost-build/tools/cray.jam
./usr/share/boost-build/tools/cygwin.jam
./usr/share/boost-build/tools/quickbook-config.jam
./usr/share/boost-build/tools/builtin.jam
./usr/share/boost-build/tools/intel-vxworks.jam
./usr/share/boost-build/tools/testing.jam
./usr/share/boost-build/tools/doxygen/
./usr/share/boost-build/tools/doxygen/windows-paths-check.doxyfile
./usr/share/boost-build/tools/doxygen/windows-paths-check.hpp
./usr/share/boost-build/tools/sass.jam
./usr/share/boost-build/tools/vmsdecc.jam
./usr/share/boost-build/tools/generators/
./usr/share/boost-build/tools/generators/archive-generator.jam
./usr/share/boost-build/tools/generators/prebuilt-lib-generator.jam
./usr/share/boost-build/tools/generators/linking-generator.jam
./usr/share/boost-build/tools/generators/lib-generator.jam
./usr/share/boost-build/tools/generators/__init_generators__.jam
./usr/share/boost-build/tools/generators/dummy-generator.jam
./usr/share/boost-build/tools/generators/searched-lib-generator.jam
./usr/share/boost-build/tools/generators/c-compiling-generator.jam
./usr/share/boost-build/tools/clang.jam
./usr/share/boost-build/tools/cw-config.jam
./usr/share/boost-build/tools/xsltproc/
./usr/share/boost-build/tools/xsltproc/test.xml
./usr/share/boost-build/tools/xsltproc/included.xsl
./usr/share/boost-build/tools/xsltproc/test.xsl
./usr/share/boost-build/tools/dmc.jam
./usr/share/boost-build/tools/mc.jam
./usr/share/boost-build/tools/fop.jam
./usr/share/boost-build/tools/convert.jam
./usr/share/boost-build/tools/libtiff.jam
./usr/share/boost-build/tools/stlport.jam
./usr/share/boost-build/tools/mpi.jam
./usr/share/boost-build/tools/mipspro.jam
./usr/share/boost-build/tools/hpfortran.jam
./usr/share/boost-build/tools/qt4.jam
./usr/share/boost-build/tools/pkg-config.jam
./usr/share/boost-build/tools/intel-linux.jam
./usr/share/boost-build/tools/notfile.jam
./usr/share/boost-build/tools/whale.jam
./usr/share/boost-build/tools/qt5.jam
./usr/share/boost-build/tools/features/
./usr/share/boost-build/tools/features/include-feature.jam
./usr/share/boost-build/tools/features/cxxflags-feature.jam
./usr/share/boost-build/tools/features/instruction-set-feature.jam
./usr/share/boost-build/tools/features/os-feature.jam
./usr/share/boost-build/tools/features/cxxabi-feature.jam
./usr/share/boost-build/tools/features/fflags-feature.jam
./usr/share/boost-build/tools/features/runtime-feature.jam
./usr/share/boost-build/tools/features/threading-feature.jam
./usr/share/boost-build/tools/features/cflags-feature.jam
./usr/share/boost-build/tools/features/threadapi-feature.jam
./usr/share/boost-build/tools/features/archiveflags-feature.jam
./usr/share/boost-build/tools/features/internal-feature.jam
./usr/share/boost-build/tools/features/local-visibility-feature.jam
./usr/share/boost-build/tools/features/name-feature.jam
./usr/share/boost-build/tools/features/file-feature.jam
./usr/share/boost-build/tools/features/cxx-template-depth-feature.jam
./usr/share/boost-build/tools/features/dll-feature.jam
./usr/share/boost-build/tools/features/build-feature.jam
./usr/share/boost-build/tools/features/tag-feature.jam
./usr/share/boost-build/tools/features/stdlib-feature.jam
./usr/share/boost-build/tools/features/lto-feature.jam
./usr/share/boost-build/tools/features/architecture-feature.jam
./usr/share/boost-build/tools/features/rtti-feature.jam
./usr/share/boost-build/tools/features/user-interface-feature.jam
./usr/share/boost-build/tools/features/sanitizers-feature.jam
./usr/share/boost-build/tools/features/toolset-feature.jam
./usr/share/boost-build/tools/features/dependency-feature.jam
./usr/share/boost-build/tools/features/address-model-feature.jam
./usr/share/boost-build/tools/features/allow-feature.jam
./usr/share/boost-build/tools/features/flags-feature.jam
./usr/share/boost-build/tools/features/location-feature.jam
./usr/share/boost-build/tools/features/cxxstd-feature.jam
./usr/share/boost-build/tools/features/__init_features__.jam
./usr/share/boost-build/tools/features/variant-feature.jam
./usr/share/boost-build/tools/features/coverage-feature.jam
./usr/share/boost-build/tools/features/library-feature.jam
./usr/share/boost-build/tools/features/search-feature.jam
./usr/share/boost-build/tools/features/exception-feature.jam
./usr/share/boost-build/tools/features/warnings-feature.jam
./usr/share/boost-build/tools/features/link-feature.jam
./usr/share/boost-build/tools/features/debug-feature.jam
./usr/share/boost-build/tools/features/visibility-feature.jam
./usr/share/boost-build/tools/features/source-feature.jam
./usr/share/boost-build/tools/features/find-lib-feature.jam
./usr/share/boost-build/tools/features/strip-feature.jam
./usr/share/boost-build/tools/features/linkflags-feature.jam
./usr/share/boost-build/tools/features/define-feature.jam
./usr/share/boost-build/tools/features/relevant-feature.jam
./usr/share/boost-build/tools/features/location-prefix-feature.jam
./usr/share/boost-build/tools/features/conditional-feature.jam
./usr/share/boost-build/tools/features/objcflags-feature.jam
./usr/share/boost-build/tools/features/version-feature.jam
./usr/share/boost-build/tools/features/asmflags-feature.jam
./usr/share/boost-build/tools/features/optimization-feature.jam
./usr/share/boost-build/tools/python.jam
./usr/share/boost-build/tools/common.jam
./usr/share/boost-build/tools/zstd.jam
./usr/share/boost-build/tools/generate.jam
./usr/share/boost-build/tools/cast.jam
./usr/share/boost-build/tools/bison.jam
./usr/share/boost-build/tools/bzip2.jam
./usr/share/boost-build/tools/quickbook.jam
./usr/share/boost-build/tools/qt.jam
./usr/share/boost-build/tools/cw.jam
./usr/share/boost-build/tools/package.jam
./usr/share/boost-build/tools/rc.jam
./usr/share/boost-build/tools/como-linux.jam
./usr/share/boost-build/tools/emscripten.jam
./usr/share/boost-build/tools/boostbook.jam
./usr/share/boost-build/tools/como-win.jam
./usr/share/boost-build/tools/saxonhe.jam
./usr/share/boost-build/tools/gettext.jam
./usr/share/boost-build/tools/docutils.jam
./usr/share/boost-build/tools/unix.jam
./usr/share/boost-build/tools/msvc-config.jam
./usr/share/boost-build/tools/link.jam
./usr/share/boost-build/tools/como.jam
./usr/share/boost-build/tools/vacpp.jam
./usr/share/boost-build/tools/pch.jam
./usr/share/boost-build/tools/boostbook-config.jam
./usr/share/boost-build/tools/flags.jam
./usr/share/boost-build/tools/auto-index.jam
./usr/share/boost-build/tools/lex.jam
./usr/share/boost-build/tools/doxygen-config.jam
./usr/share/boost-build/tools/make.jam
./usr/share/boost-build/tools/clang-win.jam
./usr/share/boost-build/tools/asciidoctor.jam
./usr/share/boost-build/tools/xlcpp.jam
./usr/share/boost-build/tools/openssl.jam
./usr/share/boost-build/tools/xsltproc-config.jam
./usr/share/boost-build/tools/zlib.jam
./usr/share/boost-build/tools/message.jam
./usr/share/boost-build/tools/darwin.jam
./usr/share/boost-build/tools/stage.jam
./usr/share/boost-build/tools/ifort.jam
./usr/share/boost-build/tools/sun.jam
./usr/share/boost-build/tools/qcc.jam
./usr/share/boost-build/tools/borland.jam
./usr/share/boost-build/tools/midl.jam
./usr/share/boost-build/tools/acc.jam
./usr/share/boost-build/tools/fortran.jam
./usr/share/boost-build/tools/intel.jam
./usr/share/boost-build/tools/intel-win.jam
./usr/share/boost-build/tools/symlink.jam
./usr/share/boost-build/tools/qt3.jam
./usr/share/boost-build/tools/pgi.jam
./usr/share/boost-build/tools/pathscale.jam
./usr/share/boost-build/tools/libpng.jam
./usr/share/boost-build/tools/gfortran.jam
./usr/share/boost-build/tools/lzma.jam
./usr/share/boost-build/tools/types/
./usr/share/boost-build/tools/types/objc.jam
./usr/share/boost-build/tools/types/obj.jam
./usr/share/boost-build/tools/types/cpp.jam
./usr/share/boost-build/tools/types/asm.jam
./usr/share/boost-build/tools/types/html.jam
./usr/share/boost-build/tools/types/man.jam
./usr/share/boost-build/tools/types/docbook.jam
./usr/share/boost-build/tools/types/sass-type.jam
./usr/share/boost-build/tools/types/pdf.jam
./usr/share/boost-build/tools/types/adoc.jam
./usr/share/boost-build/tools/types/exe.jam
./usr/share/boost-build/tools/types/lib.jam
./usr/share/boost-build/tools/types/rsp.jam
./usr/share/boost-build/tools/types/qt.jam
./usr/share/boost-build/tools/types/preprocessed.jam
./usr/share/boost-build/tools/types/register.jam
./usr/share/boost-build/tools/types/xml.jam
./usr/share/boost-build/tools/types/css.jam
./usr/share/boost-build/tools/types/markdown.jam
./usr/share/boost-build/tools/clang-darwin.jam
./usr/share/boost-build/tools/testing-aux.jam
./usr/share/boost-build/tools/diab.jam
./usr/share/boost-build/tools/xlf.jam
./usr/share/boost-build/tools/gcc.jam
./usr/share/boost-build/boost-build.jam
./usr/share/boost-build/build-system.jam
./usr/share/boost-build/util/
./usr/share/boost-build/util/path.jam
./usr/share/boost-build/util/sequence.jam
./usr/share/boost-build/util/os.jam
./usr/share/boost-build/util/utility.jam
./usr/share/boost-build/util/set.jam
./usr/share/boost-build/util/assert.jam
./usr/share/boost-build/util/string.jam
./usr/share/boost-build/util/option.jam
./usr/share/boost-build/util/numbers.jam
./usr/share/boost-build/util/order.jam
./usr/share/boost-build/util/regex.jam
./usr/share/boost-build/util/indirect.jam
./usr/share/boost-build/util/doc.jam
./usr/share/boost-build/util/param.jam
./usr/share/boost-build/util/print.jam
./usr/share/boost-build/util/container.jam
./usr/share/doc/
./usr/share/doc/boost-build-1.73.0/
./usr/share/doc/boost-build-1.73.0/examples/
./usr/share/doc/boost-build-1.73.0/examples/sass/
./usr/share/doc/boost-build-1.73.0/examples/sass/importing.scss
./usr/share/doc/boost-build-1.73.0/examples/sass/include/
./usr/share/doc/boost-build-1.73.0/examples/sass/include/foobar.scss
./usr/share/doc/boost-build-1.73.0/examples/sass/singleton.scss
./usr/share/doc/boost-build-1.73.0/examples/sass/singleton.sass
./usr/share/doc/boost-build-1.73.0/examples/sass/jamroot.jam
./usr/share/doc/boost-build-1.73.0/examples/variant/
./usr/share/doc/boost-build-1.73.0/examples/variant/jamfile.jam
./usr/share/doc/boost-build-1.73.0/examples/variant/readme.qbk
./usr/share/doc/boost-build-1.73.0/examples/variant/libs/
./usr/share/doc/boost-build-1.73.0/examples/variant/libs/jamfile.jam
./usr/share/doc/boost-build-1.73.0/examples/variant/libs/l.cpp
./usr/share/doc/boost-build-1.73.0/examples/variant/a.cpp
./usr/share/doc/boost-build-1.73.0/examples/variant/jamroot.jam
./usr/share/doc/boost-build-1.73.0/examples/sanitizers/
./usr/share/doc/boost-build-1.73.0/examples/sanitizers/readme.adoc
./usr/share/doc/boost-build-1.73.0/examples/sanitizers/jamroot.jam
./usr/share/doc/boost-build-1.73.0/examples/sanitizers/main.cpp
./usr/share/doc/boost-build-1.73.0/examples/generator/
./usr/share/doc/boost-build-1.73.0/examples/generator/soap.jam
./usr/share/doc/boost-build-1.73.0/examples/generator/README.txt
./usr/share/doc/boost-build-1.73.0/examples/generator/jamroot.jam
./usr/share/doc/boost-build-1.73.0/examples/generator/foo.gci
./usr/share/doc/boost-build-1.73.0/examples/pch-multi/
./usr/share/doc/boost-build-1.73.0/examples/pch-multi/include/
./usr/share/doc/boost-build-1.73.0/examples/pch-multi/include/pch.hpp
./usr/share/doc/boost-build-1.73.0/examples/pch-multi/include/std.hpp
./usr/share/doc/boost-build-1.73.0/examples/pch-multi/include/extra/
./usr/share/doc/boost-build-1.73.0/examples/pch-multi/include/extra/meta.hpp
./usr/share/doc/boost-build-1.73.0/examples/pch-multi/source/
./usr/share/doc/boost-build-1.73.0/examples/pch-multi/source/hello_world.cpp
./usr/share/doc/boost-build-1.73.0/examples/pch-multi/jamroot.jam
./usr/share/doc/boost-build-1.73.0/examples/site-config.jam
./usr/share/doc/boost-build-1.73.0/examples/try_compile/
./usr/share/doc/boost-build-1.73.0/examples/try_compile/foo.cpp
./usr/share/doc/boost-build-1.73.0/examples/try_compile/Jamroot.jam
./usr/share/doc/boost-build-1.73.0/examples/try_compile/main.cpp
./usr/share/doc/boost-build-1.73.0/examples/user-config.jam
./usr/share/doc/boost-build-1.73.0/examples/hello/
./usr/share/doc/boost-build-1.73.0/examples/hello/readme.adoc
./usr/share/doc/boost-build-1.73.0/examples/hello/hello.cpp
./usr/share/doc/boost-build-1.73.0/examples/hello/jamroot.jam
./usr/share/doc/boost-build-1.73.0/examples/asciidoctor/
./usr/share/doc/boost-build-1.73.0/examples/asciidoctor/example_manpage.adoc
./usr/share/doc/boost-build-1.73.0/examples/asciidoctor/example.adoc
./usr/share/doc/boost-build-1.73.0/examples/asciidoctor/jamroot.jam
./usr/share/doc/boost-build-1.73.0/examples/gettext/
./usr/share/doc/boost-build-1.73.0/examples/gettext/readme.txt
./usr/share/doc/boost-build-1.73.0/examples/gettext/jamfile.jam
./usr/share/doc/boost-build-1.73.0/examples/gettext/russian.po
./usr/share/doc/boost-build-1.73.0/examples/gettext/jamroot.jam
./usr/share/doc/boost-build-1.73.0/examples/gettext/main.cpp
./usr/share/doc/boost-build-1.73.0/examples/generate/
./usr/share/doc/boost-build-1.73.0/examples/generate/gen.py
./usr/share/doc/boost-build-1.73.0/examples/generate/README.txt
./usr/share/doc/boost-build-1.73.0/examples/generate/a.cpp
./usr/share/doc/boost-build-1.73.0/examples/generate/gen.jam
./usr/share/doc/boost-build-1.73.0/examples/generate/jamroot.jam
./usr/share/doc/boost-build-1.73.0/examples/libraries/
./usr/share/doc/boost-build-1.73.0/examples/libraries/app/
./usr/share/doc/boost-build-1.73.0/examples/libraries/app/jamfile.jam
./usr/share/doc/boost-build-1.73.0/examples/libraries/app/app.cpp
./usr/share/doc/boost-build-1.73.0/examples/libraries/jamroot.jam
./usr/share/doc/boost-build-1.73.0/examples/libraries/util/
./usr/share/doc/boost-build-1.73.0/examples/libraries/util/foo/
./usr/share/doc/boost-build-1.73.0/examples/libraries/util/foo/jamfile.jam
./usr/share/doc/boost-build-1.73.0/examples/libraries/util/foo/include/
./usr/share/doc/boost-build-1.73.0/examples/libraries/util/foo/include/lib1.h
./usr/share/doc/boost-build-1.73.0/examples/libraries/util/foo/bar.cpp
./usr/share/doc/boost-build-1.73.0/examples/make/
./usr/share/doc/boost-build-1.73.0/examples/make/readme.txt
./usr/share/doc/boost-build-1.73.0/examples/make/main_cpp.pro
./usr/share/doc/boost-build-1.73.0/examples/make/foo.py
./usr/share/doc/boost-build-1.73.0/examples/make/jamroot.jam
./usr/share/doc/boost-build-1.73.0/examples/customization/
./usr/share/doc/boost-build-1.73.0/examples/customization/readme.txt
./usr/share/doc/boost-build-1.73.0/examples/customization/usage.verbatim
./usr/share/doc/boost-build-1.73.0/examples/customization/verbatim.py
./usr/share/doc/boost-build-1.73.0/examples/customization/t2.verbatim
./usr/share/doc/boost-build-1.73.0/examples/customization/verbatim.jam
./usr/share/doc/boost-build-1.73.0/examples/customization/t1.verbatim
./usr/share/doc/boost-build-1.73.0/examples/customization/jamroot.jam
./usr/share/doc/boost-build-1.73.0/examples/customization/inline_file.py
./usr/share/doc/boost-build-1.73.0/examples/customization/class.verbatim
./usr/share/doc/boost-build-1.73.0/examples/customization/codegen.cpp
./usr/share/doc/boost-build-1.73.0/examples/qt/
./usr/share/doc/boost-build-1.73.0/examples/qt/README.txt
./usr/share/doc/boost-build-1.73.0/examples/qt/qt4/
./usr/share/doc/boost-build-1.73.0/examples/qt/qt4/moccable-cpp/
./usr/share/doc/boost-build-1.73.0/examples/qt/qt4/moccable-cpp/jamroot.jam
./usr/share/doc/boost-build-1.73.0/examples/qt/qt4/moccable-cpp/main.cpp
./usr/share/doc/boost-build-1.73.0/examples/qt/qt4/uic/
./usr/share/doc/boost-build-1.73.0/examples/qt/qt4/uic/hello_world_widget.ui
./usr/share/doc/boost-build-1.73.0/examples/qt/qt4/uic/jamroot.jam
./usr/share/doc/boost-build-1.73.0/examples/qt/qt4/uic/main.cpp
./usr/share/doc/boost-build-1.73.0/examples/qt/qt4/hello/
./usr/share/doc/boost-build-1.73.0/examples/qt/qt4/hello/arrow.cpp
./usr/share/doc/boost-build-1.73.0/examples/qt/qt4/hello/jamroot.jam
./usr/share/doc/boost-build-1.73.0/examples/qt/qt4/hello/main.cpp
./usr/share/doc/boost-build-1.73.0/examples/qt/qt4/hello/arrow.h
./usr/share/doc/boost-build-1.73.0/examples/qt/qt3/
./usr/share/doc/boost-build-1.73.0/examples/qt/qt3/moccable-cpp/
./usr/share/doc/boost-build-1.73.0/examples/qt/qt3/moccable-cpp/jamroot.jam
./usr/share/doc/boost-build-1.73.0/examples/qt/qt3/moccable-cpp/main.cpp
./usr/share/doc/boost-build-1.73.0/examples/qt/qt3/uic/
./usr/share/doc/boost-build-1.73.0/examples/qt/qt3/uic/hello_world_widget.ui
./usr/share/doc/boost-build-1.73.0/examples/qt/qt3/uic/jamroot.jam
./usr/share/doc/boost-build-1.73.0/examples/qt/qt3/uic/main.cpp
./usr/share/doc/boost-build-1.73.0/examples/qt/qt3/hello/
./usr/share/doc/boost-build-1.73.0/examples/qt/qt3/hello/canvas.h
./usr/share/doc/boost-build-1.73.0/examples/qt/qt3/hello/canvas.cpp
./usr/share/doc/boost-build-1.73.0/examples/qt/qt3/hello/jamroot.jam
./usr/share/doc/boost-build-1.73.0/examples/qt/qt3/hello/main.cpp
./usr/share/doc/boost-build-1.73.0/examples/pkg-config/
./usr/share/doc/boost-build-1.73.0/examples/pkg-config/test3.cpp
./usr/share/doc/boost-build-1.73.0/examples/pkg-config/packages/
./usr/share/doc/boost-build-1.73.0/examples/pkg-config/packages/debugged.pc
./usr/share/doc/boost-build-1.73.0/examples/pkg-config/packages/with-var.pc
./usr/share/doc/boost-build-1.73.0/examples/pkg-config/packages/foobar.pc
./usr/share/doc/boost-build-1.73.0/examples/pkg-config/packages/versioned.pc
./usr/share/doc/boost-build-1.73.0/examples/pkg-config/packages/mangled.pc
./usr/share/doc/boost-build-1.73.0/examples/pkg-config/packages/mangled-mt.pc
./usr/share/doc/boost-build-1.73.0/examples/pkg-config/test5.cpp
./usr/share/doc/boost-build-1.73.0/examples/pkg-config/debug-packages/
./usr/share/doc/boost-build-1.73.0/examples/pkg-config/debug-packages/debugged.pc
./usr/share/doc/boost-build-1.73.0/examples/pkg-config/test2.cpp
./usr/share/doc/boost-build-1.73.0/examples/pkg-config/test1.cpp
./usr/share/doc/boost-build-1.73.0/examples/pkg-config/jamroot.jam
./usr/share/doc/boost-build-1.73.0/examples/pkg-config/test4.cpp
./usr/share/doc/boost-build-1.73.0/examples/complex-testing/
./usr/share/doc/boost-build-1.73.0/examples/complex-testing/fail.cpp
./usr/share/doc/boost-build-1.73.0/examples/complex-testing/success.cpp
./usr/share/doc/boost-build-1.73.0/examples/complex-testing/compile-fail.cpp
./usr/share/doc/boost-build-1.73.0/examples/complex-testing/post.cpp
./usr/share/doc/boost-build-1.73.0/examples/complex-testing/jamroot.jam
./usr/share/doc/boost-build-1.73.0/examples/boost-build.jam
./usr/share/doc/boost-build-1.73.0/examples/built_tool/
./usr/share/doc/boost-build-1.73.0/examples/built_tool/readme.txt
./usr/share/doc/boost-build-1.73.0/examples/built_tool/tblgen/
./usr/share/doc/boost-build-1.73.0/examples/built_tool/tblgen/Jamfile.jam
./usr/share/doc/boost-build-1.73.0/examples/built_tool/tblgen/tblgen.cpp
./usr/share/doc/boost-build-1.73.0/examples/built_tool/core/
./usr/share/doc/boost-build-1.73.0/examples/built_tool/core/Jamfile.jam
./usr/share/doc/boost-build-1.73.0/examples/built_tool/core/core.cpp
./usr/share/doc/boost-build-1.73.0/examples/built_tool/core/a.td
./usr/share/doc/boost-build-1.73.0/examples/built_tool/Jamroot.jam
./usr/share/doc/boost-build-1.73.0/examples/pch/
./usr/share/doc/boost-build-1.73.0/examples/pch/include/
./usr/share/doc/boost-build-1.73.0/examples/pch/include/pch.hpp
./usr/share/doc/boost-build-1.73.0/examples/pch/source/
./usr/share/doc/boost-build-1.73.0/examples/pch/source/hello_world.cpp
./usr/share/doc/boost-build-1.73.0/examples/pch/jamroot.jam
./usr/share/doc/boost-build-1.73.0/examples/time/
./usr/share/doc/boost-build-1.73.0/examples/time/hello.cpp
./usr/share/doc/boost-build-1.73.0/examples/time/readme.qbk
./usr/share/doc/boost-build-1.73.0/examples/time/jamroot.jam
./usr/share/doc/boost-build-1.73.0/examples/testing/
./usr/share/doc/boost-build-1.73.0/examples/testing/fail.cpp
./usr/share/doc/boost-build-1.73.0/examples/testing/success.cpp
./usr/share/doc/boost-build-1.73.0/examples/testing/compile-fail.cpp
./usr/share/doc/boost-build-1.73.0/examples/testing/jamroot.jam
./usr/share/doc/boost-build-1.73.0/examples/python_modules/
./usr/share/doc/boost-build-1.73.0/examples/python_modules/python_helpers.py
./usr/share/doc/boost-build-1.73.0/examples/python_modules/readme.txt
./usr/share/doc/boost-build-1.73.0/examples/python_modules/python_helpers.jam
./usr/share/doc/boost-build-1.73.0/examples/python_modules/jamroot.jam
./usr/share/doc/boost-build-1.73.0/build_dir_option.txt.bz2
./usr/share/doc/boost-build-1.73.0/release_procedure.txt.bz2
./usr/share/doc/boost-build-1.73.0/changes.txt.bz2
./usr/share/doc/boost-build-1.73.0/relative_source_paths.txt.bz2
>>> Done.
 * checking 227 files for package collisions
>>> Merging dev-util/boost-build-1.73.0 to /
 * removing unneeded *.la files
--- /usr/
--- /usr/share/
--- /usr/share/boost-build/
--- /usr/share/boost-build/util/
>>> /usr/share/boost-build/util/container.jam
>>> /usr/share/boost-build/util/print.jam
>>> /usr/share/boost-build/util/param.jam
>>> /usr/share/boost-build/util/doc.jam
>>> /usr/share/boost-build/util/indirect.jam
>>> /usr/share/boost-build/util/regex.jam
>>> /usr/share/boost-build/util/order.jam
>>> /usr/share/boost-build/util/numbers.jam
>>> /usr/share/boost-build/util/option.jam
>>> /usr/share/boost-build/util/string.jam
>>> /usr/share/boost-build/util/assert.jam
>>> /usr/share/boost-build/util/set.jam
>>> /usr/share/boost-build/util/utility.jam
>>> /usr/share/boost-build/util/os.jam
>>> /usr/share/boost-build/util/sequence.jam
>>> /usr/share/boost-build/util/path.jam
>>> /usr/share/boost-build/build-system.jam
>>> /usr/share/boost-build/boost-build.jam
--- /usr/share/boost-build/tools/
>>> /usr/share/boost-build/tools/gcc.jam
>>> /usr/share/boost-build/tools/xlf.jam
>>> /usr/share/boost-build/tools/diab.jam
>>> /usr/share/boost-build/tools/testing-aux.jam
>>> /usr/share/boost-build/tools/clang-darwin.jam
--- /usr/share/boost-build/tools/types/
>>> /usr/share/boost-build/tools/types/markdown.jam
>>> /usr/share/boost-build/tools/types/css.jam
>>> /usr/share/boost-build/tools/types/xml.jam
>>> /usr/share/boost-build/tools/types/register.jam
>>> /usr/share/boost-build/tools/types/preprocessed.jam
>>> /usr/share/boost-build/tools/types/qt.jam
>>> /usr/share/boost-build/tools/types/rsp.jam
>>> /usr/share/boost-build/tools/types/lib.jam
>>> /usr/share/boost-build/tools/types/exe.jam
>>> /usr/share/boost-build/tools/types/adoc.jam
>>> /usr/share/boost-build/tools/types/pdf.jam
>>> /usr/share/boost-build/tools/types/sass-type.jam
>>> /usr/share/boost-build/tools/types/docbook.jam
>>> /usr/share/boost-build/tools/types/man.jam
>>> /usr/share/boost-build/tools/types/html.jam
>>> /usr/share/boost-build/tools/types/asm.jam
>>> /usr/share/boost-build/tools/types/cpp.jam
>>> /usr/share/boost-build/tools/types/obj.jam
>>> /usr/share/boost-build/tools/types/objc.jam
>>> /usr/share/boost-build/tools/lzma.jam
>>> /usr/share/boost-build/tools/gfortran.jam
>>> /usr/share/boost-build/tools/libpng.jam
>>> /usr/share/boost-build/tools/pathscale.jam
>>> /usr/share/boost-build/tools/pgi.jam
>>> /usr/share/boost-build/tools/qt3.jam
>>> /usr/share/boost-build/tools/symlink.jam
>>> /usr/share/boost-build/tools/intel-win.jam
>>> /usr/share/boost-build/tools/intel.jam
>>> /usr/share/boost-build/tools/fortran.jam
>>> /usr/share/boost-build/tools/acc.jam
>>> /usr/share/boost-build/tools/midl.jam
>>> /usr/share/boost-build/tools/borland.jam
>>> /usr/share/boost-build/tools/qcc.jam
>>> /usr/share/boost-build/tools/sun.jam
>>> /usr/share/boost-build/tools/ifort.jam
>>> /usr/share/boost-build/tools/stage.jam
>>> /usr/share/boost-build/tools/darwin.jam
>>> /usr/share/boost-build/tools/message.jam
>>> /usr/share/boost-build/tools/zlib.jam
>>> /usr/share/boost-build/tools/xsltproc-config.jam
>>> /usr/share/boost-build/tools/openssl.jam
>>> /usr/share/boost-build/tools/xlcpp.jam
>>> /usr/share/boost-build/tools/asciidoctor.jam
>>> /usr/share/boost-build/tools/clang-win.jam
>>> /usr/share/boost-build/tools/make.jam
>>> /usr/share/boost-build/tools/doxygen-config.jam
>>> /usr/share/boost-build/tools/lex.jam
>>> /usr/share/boost-build/tools/auto-index.jam
>>> /usr/share/boost-build/tools/flags.jam
>>> /usr/share/boost-build/tools/boostbook-config.jam
>>> /usr/share/boost-build/tools/pch.jam
>>> /usr/share/boost-build/tools/vacpp.jam
>>> /usr/share/boost-build/tools/como.jam
>>> /usr/share/boost-build/tools/link.jam
>>> /usr/share/boost-build/tools/msvc-config.jam
>>> /usr/share/boost-build/tools/unix.jam
>>> /usr/share/boost-build/tools/docutils.jam
>>> /usr/share/boost-build/tools/gettext.jam
>>> /usr/share/boost-build/tools/saxonhe.jam
>>> /usr/share/boost-build/tools/como-win.jam
>>> /usr/share/boost-build/tools/boostbook.jam
>>> /usr/share/boost-build/tools/emscripten.jam
>>> /usr/share/boost-build/tools/como-linux.jam
>>> /usr/share/boost-build/tools/rc.jam
>>> /usr/share/boost-build/tools/package.jam
>>> /usr/share/boost-build/tools/cw.jam
>>> /usr/share/boost-build/tools/qt.jam
>>> /usr/share/boost-build/tools/quickbook.jam
>>> /usr/share/boost-build/tools/bzip2.jam
>>> /usr/share/boost-build/tools/bison.jam
>>> /usr/share/boost-build/tools/cast.jam
>>> /usr/share/boost-build/tools/generate.jam
>>> /usr/share/boost-build/tools/zstd.jam
>>> /usr/share/boost-build/tools/common.jam
>>> /usr/share/boost-build/tools/python.jam
--- /usr/share/boost-build/tools/features/
>>> /usr/share/boost-build/tools/features/optimization-feature.jam
>>> /usr/share/boost-build/tools/features/asmflags-feature.jam
>>> /usr/share/boost-build/tools/features/version-feature.jam
>>> /usr/share/boost-build/tools/features/objcflags-feature.jam
>>> /usr/share/boost-build/tools/features/conditional-feature.jam
>>> /usr/share/boost-build/tools/features/location-prefix-feature.jam
>>> /usr/share/boost-build/tools/features/relevant-feature.jam
>>> /usr/share/boost-build/tools/features/define-feature.jam
>>> /usr/share/boost-build/tools/features/linkflags-feature.jam
>>> /usr/share/boost-build/tools/features/strip-feature.jam
>>> /usr/share/boost-build/tools/features/find-lib-feature.jam
>>> /usr/share/boost-build/tools/features/source-feature.jam
>>> /usr/share/boost-build/tools/features/visibility-feature.jam
>>> /usr/share/boost-build/tools/features/debug-feature.jam
>>> /usr/share/boost-build/tools/features/link-feature.jam
>>> /usr/share/boost-build/tools/features/warnings-feature.jam
>>> /usr/share/boost-build/tools/features/exception-feature.jam
>>> /usr/share/boost-build/tools/features/search-feature.jam
>>> /usr/share/boost-build/tools/features/library-feature.jam
>>> /usr/share/boost-build/tools/features/coverage-feature.jam
>>> /usr/share/boost-build/tools/features/variant-feature.jam
>>> /usr/share/boost-build/tools/features/__init_features__.jam
>>> /usr/share/boost-build/tools/features/cxxstd-feature.jam
>>> /usr/share/boost-build/tools/features/location-feature.jam
>>> /usr/share/boost-build/tools/features/flags-feature.jam
>>> /usr/share/boost-build/tools/features/allow-feature.jam
>>> /usr/share/boost-build/tools/features/address-model-feature.jam
>>> /usr/share/boost-build/tools/features/dependency-feature.jam
>>> /usr/share/boost-build/tools/features/toolset-feature.jam
>>> /usr/share/boost-build/tools/features/sanitizers-feature.jam
>>> /usr/share/boost-build/tools/features/user-interface-feature.jam
>>> /usr/share/boost-build/tools/features/rtti-feature.jam
>>> /usr/share/boost-build/tools/features/architecture-feature.jam
>>> /usr/share/boost-build/tools/features/lto-feature.jam
>>> /usr/share/boost-build/tools/features/stdlib-feature.jam
>>> /usr/share/boost-build/tools/features/tag-feature.jam
>>> /usr/share/boost-build/tools/features/build-feature.jam
>>> /usr/share/boost-build/tools/features/dll-feature.jam
>>> /usr/share/boost-build/tools/features/cxx-template-depth-feature.jam
>>> /usr/share/boost-build/tools/features/file-feature.jam
>>> /usr/share/boost-build/tools/features/name-feature.jam
>>> /usr/share/boost-build/tools/features/local-visibility-feature.jam
>>> /usr/share/boost-build/tools/features/internal-feature.jam
>>> /usr/share/boost-build/tools/features/archiveflags-feature.jam
>>> /usr/share/boost-build/tools/features/threadapi-feature.jam
>>> /usr/share/boost-build/tools/features/cflags-feature.jam
>>> /usr/share/boost-build/tools/features/threading-feature.jam
>>> /usr/share/boost-build/tools/features/runtime-feature.jam
>>> /usr/share/boost-build/tools/features/fflags-feature.jam
>>> /usr/share/boost-build/tools/features/cxxabi-feature.jam
>>> /usr/share/boost-build/tools/features/os-feature.jam
>>> /usr/share/boost-build/tools/features/instruction-set-feature.jam
>>> /usr/share/boost-build/tools/features/cxxflags-feature.jam
>>> /usr/share/boost-build/tools/features/include-feature.jam
>>> /usr/share/boost-build/tools/qt5.jam
>>> /usr/share/boost-build/tools/whale.jam
>>> /usr/share/boost-build/tools/notfile.jam
>>> /usr/share/boost-build/tools/intel-linux.jam
>>> /usr/share/boost-build/tools/pkg-config.jam
>>> /usr/share/boost-build/tools/qt4.jam
>>> /usr/share/boost-build/tools/hpfortran.jam
>>> /usr/share/boost-build/tools/mipspro.jam
>>> /usr/share/boost-build/tools/mpi.jam
>>> /usr/share/boost-build/tools/stlport.jam
>>> /usr/share/boost-build/tools/libtiff.jam
>>> /usr/share/boost-build/tools/convert.jam
>>> /usr/share/boost-build/tools/fop.jam
>>> /usr/share/boost-build/tools/mc.jam
>>> /usr/share/boost-build/tools/dmc.jam
--- /usr/share/boost-build/tools/xsltproc/
>>> /usr/share/boost-build/tools/xsltproc/test.xsl
>>> /usr/share/boost-build/tools/xsltproc/included.xsl
>>> /usr/share/boost-build/tools/xsltproc/test.xml
>>> /usr/share/boost-build/tools/cw-config.jam
>>> /usr/share/boost-build/tools/clang.jam
--- /usr/share/boost-build/tools/generators/
>>> /usr/share/boost-build/tools/generators/c-compiling-generator.jam
>>> /usr/share/boost-build/tools/generators/searched-lib-generator.jam
>>> /usr/share/boost-build/tools/generators/dummy-generator.jam
>>> /usr/share/boost-build/tools/generators/__init_generators__.jam
>>> /usr/share/boost-build/tools/generators/lib-generator.jam
>>> /usr/share/boost-build/tools/generators/linking-generator.jam
>>> /usr/share/boost-build/tools/generators/prebuilt-lib-generator.jam
>>> /usr/share/boost-build/tools/generators/archive-generator.jam
>>> /usr/share/boost-build/tools/vmsdecc.jam
>>> /usr/share/boost-build/tools/sass.jam
--- /usr/share/boost-build/tools/doxygen/
>>> /usr/share/boost-build/tools/doxygen/windows-paths-check.hpp
>>> /usr/share/boost-build/tools/doxygen/windows-paths-check.doxyfile
>>> /usr/share/boost-build/tools/testing.jam
>>> /usr/share/boost-build/tools/intel-vxworks.jam
>>> /usr/share/boost-build/tools/builtin.jam
>>> /usr/share/boost-build/tools/quickbook-config.jam
>>> /usr/share/boost-build/tools/cygwin.jam
>>> /usr/share/boost-build/tools/cray.jam
>>> /usr/share/boost-build/tools/xsltproc.jam
>>> /usr/share/boost-build/tools/clang-vxworks.jam
>>> /usr/share/boost-build/tools/clang-linux.jam
>>> /usr/share/boost-build/tools/hp_cxx.jam
>>> /usr/share/boost-build/tools/intel-darwin.jam
>>> /usr/share/boost-build/tools/libjpeg.jam
>>> /usr/share/boost-build/tools/python-config.jam
>>> /usr/share/boost-build/tools/doxygen.jam
>>> /usr/share/boost-build/tools/msvc.jam
--- /usr/share/boost-build/options/
>>> /usr/share/boost-build/options/help.jam
>>> /usr/share/boost-build/user-config.jam
>>> /usr/share/boost-build/site-config.jam
>>> /usr/share/boost-build/bootstrap.jam
--- /usr/share/boost-build/build/
>>> /usr/share/boost-build/build/version.jam
>>> /usr/share/boost-build/build/configure.jam
>>> /usr/share/boost-build/build/targets.jam
>>> /usr/share/boost-build/build/type.jam
>>> /usr/share/boost-build/build/build-request.jam
>>> /usr/share/boost-build/build/project.jam
>>> /usr/share/boost-build/build/property-set.jam
>>> /usr/share/boost-build/build/property.jam
>>> /usr/share/boost-build/build/feature.jam
>>> /usr/share/boost-build/build/generators.jam
>>> /usr/share/boost-build/build/ac.jam
>>> /usr/share/boost-build/build/virtual-target.jam
>>> /usr/share/boost-build/build/alias.jam
>>> /usr/share/boost-build/build/config-cache.jam
>>> /usr/share/boost-build/build/readme.txt
>>> /usr/share/boost-build/build/scanner.jam
>>> /usr/share/boost-build/build/toolset.jam
--- /usr/share/boost-build/kernel/
>>> /usr/share/boost-build/kernel/boost-build.jam
>>> /usr/share/boost-build/kernel/modules.jam
>>> /usr/share/boost-build/kernel/errors.jam
>>> /usr/share/boost-build/kernel/class.jam
>>> /usr/share/boost-build/kernel/bootstrap.jam
--- /usr/bin/
>>> /usr/bin/bjam
>>> /usr/bin/b2
>>> Safely unmerging already-installed instance...
>>> Original instance of package unmerged safely.
>>> dev-util/boost-build-1.73.0 merged.
