>>> Extracting info
 * Package:    dev-libs/gmp-6.2.0-r1
 * Repository: gentoo
 * USE:        abi_x86_64 userland_GNU cxx asm amd64 kernel_linux elibc_glibc
 * FEATURES:   network-sandbox preserve-libs sandbox userpriv usersandbox
 * FEATURES='assume-digests binpkg-docompress binpkg-dostrip binpkg-logs binpkg-multi-instance buildpkg cgroup compress-index config-protect-if-modified distlocks downgrade-backup fixlafiles ipc-sandbox merge-sync multilib-strict network-sandbox news nodoc parallel-fetch parallel-install pid-sandbox preserve-libs qa-unresolved-soname-deps sandbox sfperms strict strict-keepdir unknown-features-warn unmerge-backup unmerge-logs unmerge-orphans userfetch userpriv usersandbox usersync xattr'
 * CFLAGS='-march=native -O3 -fgraphite-identity -floop-nest-optimize -fdevirtualize-at-ltrans -fipa-pta -fno-semantic-interposition -flto=12 -fno-plt -fno-math-errno -fno-trapping-math -fuse-linker-plugin -pipe -g0 -falign-functions=32 -Wl,-O1 -Wl,--as-needed -Wl,--hash-style=gnu,-z,norelro,--as-needed'
 * CXXFLAGS='-march=native -O3 -fgraphite-identity -floop-nest-optimize -fdevirtualize-at-ltrans -fipa-pta -fno-semantic-interposition -flto=12 -fno-plt -fno-math-errno -fno-trapping-math -fuse-linker-plugin -pipe -g0 -falign-functions=32 -Wl,-O1 -Wl,--as-needed -Wl,--hash-style=gnu,-z,norelro,--as-needed'
 * FFLAGS='-march=native -O3 -fgraphite-identity -floop-nest-optimize -fdevirtualize-at-ltrans -fipa-pta -fno-semantic-interposition -flto=12 -fno-plt -fno-math-errno -fno-trapping-math -fuse-linker-plugin -pipe -g0 -falign-functions=32 -Wl,-O1 -Wl,--as-needed -Wl,--hash-style=gnu,-z,norelro,--as-needed'
 * FCFLAGS='-march=native -O3 -fgraphite-identity -floop-nest-optimize -fdevirtualize-at-ltrans -fipa-pta -fno-semantic-interposition -flto=12 -fno-plt -fno-math-errno -fno-trapping-math -fuse-linker-plugin -pipe -g0 -falign-functions=32 -Wl,-O1 -Wl,--as-needed -Wl,--hash-style=gnu,-z,norelro,--as-needed'
 * F77FLAGS='-march=native -O3 -fgraphite-identity -floop-nest-optimize -fdevirtualize-at-ltrans -fipa-pta -fno-semantic-interposition -flto=12 -fno-plt -fno-math-errno -fno-trapping-math -fuse-linker-plugin -pipe -g0 -falign-functions=32 -Wl,-O1 -Wl,--as-needed -Wl,--hash-style=gnu,-z,norelro,--as-needed'
 * LDFLAGS='-Wl,-O1 -Wl,--as-needed -Wl,--hash-style=gnu,-z,norelro,--as-needed -march=native -O3 -fgraphite-identity -floop-nest-optimize -fdevirtualize-at-ltrans -fipa-pta -fno-semantic-interposition -flto=12 -fno-plt -fno-math-errno -fno-trapping-math -fuse-linker-plugin -pipe -g0 -falign-functions=32'
 * MAKEOPTS='-j12 -l12'
 * x86_64-pc-linux-gnu-gcc () 11.0.0 20200526 (experimental)
 * g++ () 11.0.0 20200526 (experimental)
 * GNU ld (Gentoo 2.34 p4) 2.34.0
 * Linux ryzen.gnum.org 5.4.36 #1 SMP Thu Apr 30 04:38:28 UTC 2020 x86_64 AMD Ryzen 5 3600 6-Core Processor AuthenticAMD GNU/Linux
dev-libs/gmp: 1 minute, 43 seconds average for 15 merges
2020-05-16T19:00:16 >>> dev-libs/gmp: 49 seconds
2020-05-16T21:28:05 >>> dev-libs/gmp: 54 seconds
2020-05-20T01:03:20 >>> dev-libs/gmp: 21 seconds
2020-05-21T06:01:40 >>> dev-libs/gmp: 6 seconds
2020-05-22T03:16:29 >>> dev-libs/gmp: 2 minutes, 44 seconds
2020-05-22T12:35:48 >>> dev-libs/gmp: 2 minutes, 36 seconds
2020-05-23T03:37:27 >>> dev-libs/gmp: 2 minutes, 40 seconds
2020-05-24T22:43:27 >>> dev-libs/gmp: 4 minutes, 42 seconds
2020-05-24T23:33:07 >>> dev-libs/gmp: 5 minutes, 31 seconds
2020-05-25T03:07:35 >>> dev-libs/gmp: 16 seconds
2020-05-25T14:41:44 >>> dev-libs/gmp: 1 minute
2020-05-25T18:29:01 >>> dev-libs/gmp: 1 minute, 46 seconds
2020-05-25T20:01:21 >>> dev-libs/gmp: 1 minute, 1 second
2020-05-26T12:59:58 >>> dev-libs/gmp: 1 minute, 4 seconds
2020-05-26T13:54:16 >>> dev-libs/gmp: 18 seconds
]0;emerge 01:33:54 100|647 gmp 00:48 (root@ryzen.gnum.org)kemerge 01:33:54 100|647 gmp 00:48 (root@ryzen.gnum.org)\>>> Extracting dev-libs/gmp-6.2.0-r1
 * checking 14 files for package collisions
[32;01m * [39;49;00mBuilding package for dev-libs/gmp-6.2.0-r1 ...                        [34;01m[ [39;49;00m[32;01mok[39;49;00m[34;01m ][39;49;00m
[32;01m * [39;49;00mPackages now in '/usr/portage/packages':
[32;01m * [39;49;00mdev-libs/gmp-6.2.0-r1: 456K

>>> Merging dev-libs/gmp-6.2.0-r1 to /
 * removing unneeded *.la files
--- /usr/
--- /usr/lib64/
--- /usr/lib64/pkgconfig/
>>> /usr/lib64/pkgconfig/gmpxx.pc
>>> /usr/lib64/pkgconfig/gmp.pc
>>> /usr/lib64/libgmpxx.so.4 -> libgmpxx.so.4.6.0
>>> /usr/lib64/libgmpxx.so -> libgmpxx.so.4.6.0
>>> /usr/lib64/libgmpxx.so.4.6.0
>>> /usr/lib64/libgmp.so.10 -> libgmp.so.10.4.0
>>> /usr/lib64/libgmp.so.10.4.0
>>> /usr/lib64/libgmp.so -> libgmp.so.10.4.0
--- /usr/share/
--- /usr/share/info/
>>> /usr/share/info/gmp.info-1.bz2
>>> /usr/share/info/gmp.info.bz2
>>> /usr/share/info/gmp.info-2.bz2
--- /usr/include/
>>> /usr/include/gmp.h
>>> /usr/include/gmpxx.h
--- /usr/include/x86_64-pc-linux-gnu/
>>> /usr/include/x86_64-pc-linux-gnu/gmp.h
>>> Safely unmerging already-installed instance...
>>> Original instance of package unmerged safely.
>>> dev-libs/gmp-6.2.0-r1 merged.
>>> Regenerating /etc/ld.so.cache...
