 * Package:    dev-libs/libltdl-2.4.6
 * Repository: gentoo
 * Maintainer: base-system@gentoo.org
 * USE:        abi_x86_64 amd64 elibc_glibc kernel_linux userland_GNU
 * FEATURES:   ccache network-sandbox preserve-libs sandbox userpriv usersandbox
 * /etc/portage/package.cflags/ltoworkarounds.conf -> dev-libs/libltdl: *FLAGS-=-flto*
 * /etc/portage/package.cflags/ltoworkarounds.conf -> dev-libs/libltdl: *FLAGS-="${NOCOMMON}" # builds but causes symbol lookup errors
 * FEATURES='assume-digests binpkg-docompress binpkg-dostrip binpkg-logs buildpkg ccache cgroup compress-index config-protect-if-modified distlocks ebuild-locks fixlafiles ipc-sandbox merge-sync multilib-strict network-sandbox news nodoc parallel-fetch pid-sandbox preserve-libs qa-unresolved-soname-deps sandbox sfperms strict strict-keepdir unknown-features-warn unmerge-logs unmerge-orphans userfetch userpriv usersandbox usersync xattr'
 * CFLAGS='-march=znver2 -O2 -pipe -g0 -falign-functions=32 -fno-stack-protector -fno-stack-clash-protection -fstack-check=no -fno-stack-check -Wl,-O1,--sort-common,--as-needed,-z,norelro,-z,now'
 * CXXFLAGS='-march=znver2 -O2 -pipe -g0 -falign-functions=32 -fno-stack-protector -fno-stack-clash-protection -fstack-check=no -fno-stack-check -Wl,-O1,--sort-common,--as-needed,-z,norelro,-z,now'
 * FFLAGS='-march=znver2 -O2 -pipe -g0 -falign-functions=32 -fno-stack-protector -fno-stack-clash-protection -fstack-check=no -fno-stack-check -Wl,-O1,--sort-common,--as-needed,-z,norelro,-z,now'
 * FCFLAGS='-march=znver2 -O2 -pipe -g0 -falign-functions=32 -fno-stack-protector -fno-stack-clash-protection -fstack-check=no -fno-stack-check -Wl,-O1,--sort-common,--as-needed,-z,norelro,-z,now'
 * F77FLAGS='-march=znver2 -O2 -pipe -g0 -falign-functions=32 -fno-stack-protector -fno-stack-clash-protection -fstack-check=no -fno-stack-check -Wl,-O1,--sort-common,--as-needed,-z,norelro,-z,now'
 * LDFLAGS='-Wl,-O1,--sort-common,--as-needed,-z,norelro,-z,now'
 * MAKEOPTS='-j12 -l12'
 * gcc (Gentoo 11.0.0_pre9999 p1, commit 184c21bf1cd04a108ed9bd04635e7d57ac39f616) 11.0.0 20200611 (experimental)
 * g++ (Gentoo 11.0.0_pre9999 p1, commit 184c21bf1cd04a108ed9bd04635e7d57ac39f616) 11.0.0 20200611 (experimental)
 * GNU ld (Gentoo 2.34 p4) 2.34.0
 * Linux rescue 5.4.36 #1 SMP Thu Apr 30 04:38:28 UTC 2020 x86_64 AMD Ryzen 5 3600 6-Core Processor AuthenticAMD GNU/Linux
dev-libs/libltdl: 1 minute, 53 seconds average for 29 merges
2020-05-20T01:02:48 >>> dev-libs/libltdl: 23 seconds
2020-05-21T06:00:53 >>> dev-libs/libltdl: 5 seconds
2020-05-22T02:04:35 >>> dev-libs/libltdl: 3 minutes, 23 seconds
2020-05-22T03:16:31 >>> dev-libs/libltdl: 2 minutes, 33 seconds
2020-05-22T12:08:03 >>> dev-libs/libltdl: 6 seconds
2020-05-22T12:35:49 >>> dev-libs/libltdl: 2 minutes, 27 seconds
2020-05-22T13:01:58 >>> dev-libs/libltdl: 6 seconds
2020-05-22T13:03:07 >>> dev-libs/libltdl: 17 seconds
2020-05-23T03:37:31 >>> dev-libs/libltdl: 2 minutes, 27 seconds
2020-05-24T22:43:29 >>> dev-libs/libltdl: 4 minutes, 24 seconds
2020-05-24T23:33:10 >>> dev-libs/libltdl: 5 minutes, 12 seconds
2020-05-25T03:07:11 >>> dev-libs/libltdl: 19 seconds
2020-05-25T14:41:44 >>> dev-libs/libltdl: 56 seconds
2020-05-25T18:25:35 >>> dev-libs/libltdl: 2 minutes, 44 seconds
2020-05-25T19:58:55 >>> dev-libs/libltdl: 1 minute, 52 seconds
2020-05-26T12:57:10 >>> dev-libs/libltdl: 2 minutes, 14 seconds
2020-05-26T13:53:39 >>> dev-libs/libltdl: 25 seconds
2020-05-27T01:33:08 >>> dev-libs/libltdl: 27 seconds
2020-05-27T03:13:16 >>> dev-libs/libltdl: 2 minutes, 26 seconds
2020-05-28T13:33:33 >>> dev-libs/libltdl: 2 minutes, 24 seconds
2020-05-28T14:19:13 >>> dev-libs/libltdl: 20 seconds
2020-05-29T01:40:59 >>> dev-libs/libltdl: 29 seconds
2020-05-30T12:41:21 >>> dev-libs/libltdl: 2 minutes, 36 seconds
2020-05-30T21:39:11 >>> dev-libs/libltdl: 29 seconds
2020-06-01T01:56:01 >>> dev-libs/libltdl: 2 minutes, 20 seconds
2020-06-04T12:22:20 >>> dev-libs/libltdl: 10 minutes, 15 seconds
2020-06-12T01:25:43 >>> dev-libs/libltdl: 1 minute, 3 seconds
2020-06-13T03:28:06 >>> dev-libs/libltdl: 1 minute, 58 seconds
2020-06-13T20:04:52 >>> dev-libs/libltdl: 15 seconds
]0;emerge 04:43:54 148|887 libltdl 01:05 (root@rescue)>>> Unpacking source...
>>> Unpacking libtool-2.4.6.tar.xz to /tmp/portage/dev-libs/libltdl-2.4.6/work
>>> Source unpacked in /tmp/portage/dev-libs/libltdl-2.4.6/work
>>> Preparing source in /tmp/portage/dev-libs/libltdl-2.4.6/work/libtool-2.4.6/libltdl ...
>>> Source prepared.
>>> Configuring source in /tmp/portage/dev-libs/libltdl-2.4.6/work/libtool-2.4.6/libltdl ...
 * abi_x86_64.amd64: running multilib-minimal_abi_src_configure
 * econf: updating libtool-2.4.6/build-aux/config.guess with /usr/share/gnuconfig/config.guess
 * econf: updating libtool-2.4.6/build-aux/config.sub with /usr/share/gnuconfig/config.sub
/tmp/portage/dev-libs/libltdl-2.4.6/work/libtool-2.4.6/libltdl/configure --prefix=/usr --build=x86_64-pc-linux-gnu --host=x86_64-pc-linux-gnu --mandir=/usr/share/man --infodir=/usr/share/info --datadir=/usr/share --sysconfdir=/etc --localstatedir=/var/lib --disable-dependency-tracking --disable-silent-rules --docdir=/usr/share/doc/libltdl-2.4.6 --htmldir=/usr/share/doc/libltdl-2.4.6/html --with-sysroot=/ --libdir=/usr/lib64 --enable-ltdl-install --disable-static
checking for a BSD-compatible install... /tmp/portage/._portage_reinstall_.dq2b4q9k/bin/ebuild-helpers/xattr/install -c
checking whether build environment is sane... yes
checking for a thread-safe mkdir -p... /bin/mkdir -p
checking for gawk... gawk
checking whether make sets $(MAKE)... yes
checking whether make supports nested variables... yes
checking whether make supports nested variables... (cached) yes
checking build system type... x86_64-pc-linux-gnu
checking host system type... x86_64-pc-linux-gnu
checking how to print strings... printf
checking for style of include used by make... GNU
checking for x86_64-pc-linux-gnu-gcc... x86_64-pc-linux-gnu-gcc
checking whether the C compiler works... yes
checking for C compiler default output file name... a.out
checking for suffix of executables... 
checking whether we are cross compiling... no
checking for suffix of object files... o
checking whether we are using the GNU C compiler... yes
checking whether x86_64-pc-linux-gnu-gcc accepts -g... yes
checking for x86_64-pc-linux-gnu-gcc option to accept ISO C89... none needed
checking whether x86_64-pc-linux-gnu-gcc understands -c and -o together... yes
checking dependency style of x86_64-pc-linux-gnu-gcc... none
checking for a sed that does not truncate output... /bin/sed
checking for grep that handles long lines and -e... /bin/grep
checking for egrep... /bin/grep -E
checking for fgrep... /bin/grep -F
checking for ld used by x86_64-pc-linux-gnu-gcc... /usr/x86_64-pc-linux-gnu/bin/ld
checking if the linker (/usr/x86_64-pc-linux-gnu/bin/ld) is GNU ld... yes
checking for BSD- or MS-compatible name lister (nm)... /usr/bin/x86_64-pc-linux-gnu-nm -B
checking the name lister (/usr/bin/x86_64-pc-linux-gnu-nm -B) interface... BSD nm
checking whether ln -s works... yes
checking the maximum length of command line arguments... 1572864
checking how to convert x86_64-pc-linux-gnu file names to x86_64-pc-linux-gnu format... func_convert_file_noop
checking how to convert x86_64-pc-linux-gnu file names to toolchain format... func_convert_file_noop
checking for /usr/x86_64-pc-linux-gnu/bin/ld option to reload object files... -r
checking for x86_64-pc-linux-gnu-objdump... x86_64-pc-linux-gnu-objdump
checking how to recognize dependent libraries... pass_all
checking for x86_64-pc-linux-gnu-dlltool... x86_64-pc-linux-gnu-dlltool
checking how to associate runtime and link libraries... printf %s\n
checking for x86_64-pc-linux-gnu-ar... x86_64-pc-linux-gnu-ar
checking for archiver @FILE support... @
checking for x86_64-pc-linux-gnu-strip... x86_64-pc-linux-gnu-strip
checking for x86_64-pc-linux-gnu-ranlib... x86_64-pc-linux-gnu-ranlib
checking command to parse /usr/bin/x86_64-pc-linux-gnu-nm -B output from x86_64-pc-linux-gnu-gcc object... ok
checking for sysroot... /
checking for a working dd... /bin/dd
checking how to truncate binary pipes... /bin/dd bs=4096 count=1
checking for x86_64-pc-linux-gnu-mt... no
checking for mt... no
checking if : is a manifest tool... no
checking how to run the C preprocessor... x86_64-pc-linux-gnu-gcc -E
checking for ANSI C header files... yes
checking for sys/types.h... yes
checking for sys/stat.h... yes
checking for stdlib.h... yes
checking for string.h... yes
checking for memory.h... yes
checking for strings.h... yes
checking for inttypes.h... yes
checking for stdint.h... yes
checking for unistd.h... yes
checking for dlfcn.h... yes
checking for objdir... .libs
checking if x86_64-pc-linux-gnu-gcc supports -fno-rtti -fno-exceptions... no
checking for x86_64-pc-linux-gnu-gcc option to produce PIC... -fPIC -DPIC
checking if x86_64-pc-linux-gnu-gcc PIC flag -fPIC -DPIC works... yes
checking if x86_64-pc-linux-gnu-gcc static flag -static works... yes
checking if x86_64-pc-linux-gnu-gcc supports -c -o file.o... yes
checking if x86_64-pc-linux-gnu-gcc supports -c -o file.o... (cached) yes
checking whether the x86_64-pc-linux-gnu-gcc linker (/usr/x86_64-pc-linux-gnu/bin/ld -m elf_x86_64) supports shared libraries... yes
checking whether -lc should be explicitly linked in... no
checking dynamic linker characteristics... GNU/Linux ld.so
checking how to hardcode library paths into programs... immediate
checking for shl_load... no
checking for shl_load in -ldld... no
checking for dlopen... no
checking for dlopen in -ldl... yes
checking whether a program can dlopen itself... yes
checking whether a statically linked program can dlopen itself... no
checking whether stripping libraries is possible... yes
checking if libtool supports shared libraries... yes
checking whether to build shared libraries... yes
checking whether to build static libraries... no
checking what extension is used for runtime loadable modules... .so
checking what variable specifies run-time module search path... LD_LIBRARY_PATH
checking for the default library search path... /lib /usr/lib /usr/lib/gcc/x86_64-pc-linux-gnu/11.0.0/32 /usr/lib/gcc/x86_64-pc-linux-gnu/11.0.0 /lib64 /usr/lib64 /usr/local/lib64 /lib /usr/lib /usr/local/lib /usr/lib/llvm/10/lib64 
checking for library containing dlopen... -ldl
checking for dlerror... yes
checking for shl_load... (cached) no
checking for shl_load in -ldld... (cached) no
checking for dld_link in -ldld... no
checking for _ prefix in compiled symbols... no
checking whether deplibs are loaded by dlopen... yes
checking for argz.h... yes
checking for error_t... yes
checking for argz_add... yes
checking for argz_append... yes
checking for argz_count... yes
checking for argz_create_sep... yes
checking for argz_insert... yes
checking for argz_next... yes
checking for argz_stringify... yes
checking if argz actually works... yes
checking whether libtool supports -dlopen/-dlpreopen... yes
checking for unistd.h... (cached) yes
checking for dl.h... no
checking for sys/dl.h... no
checking for dld.h... no
checking for mach-o/dyld.h... no
checking for dirent.h... yes
checking for closedir... yes
checking for opendir... yes
checking for readdir... yes
checking for strlcat... no
checking for strlcpy... no
checking that generated files are newer than configure... done
configure: creating ./config.status
config.status: creating Makefile
config.status: creating config.h
config.status: executing depfiles commands
config.status: executing libtool commands
>>> Source configured.
>>> Compiling source in /tmp/portage/dev-libs/libltdl-2.4.6/work/libtool-2.4.6/libltdl ...
 * abi_x86_64.amd64: running multilib-minimal_abi_src_compile
make -j12 -l12 
make  all-am
make[1]: Entering directory '/tmp/portage/dev-libs/libltdl-2.4.6/work/libtool-2.4.6/libltdl-abi_x86_64.amd64'
/bin/sh ./libtool  --tag=CC   --mode=compile x86_64-pc-linux-gnu-gcc -DHAVE_CONFIG_H -I. -I/tmp/portage/dev-libs/libltdl-2.4.6/work/libtool-2.4.6/libltdl  -DLTDLOPEN=libltdl -DLT_CONFIG_H='<config.h>' -DLTDL -I. -I/tmp/portage/dev-libs/libltdl-2.4.6/work/libtool-2.4.6/libltdl -Ilibltdl -I/tmp/portage/dev-libs/libltdl-2.4.6/work/libtool-2.4.6/libltdl/libltdl   -march=znver2 -O2 -pipe -g0 -falign-functions=32 -fno-stack-protector -fno-stack-clash-protection -fstack-check=no -fno-stack-check -Wl,-O1,--sort-common,--as-needed,-z,norelro,-z,now -c -o libltdl_la-lt__alloc.lo `test -f 'lt__alloc.c' || echo '/tmp/portage/dev-libs/libltdl-2.4.6/work/libtool-2.4.6/libltdl/'`lt__alloc.c
/bin/sh ./libtool  --tag=CC   --mode=compile x86_64-pc-linux-gnu-gcc -DHAVE_CONFIG_H -I. -I/tmp/portage/dev-libs/libltdl-2.4.6/work/libtool-2.4.6/libltdl  -DLTDLOPEN=libltdl -DLT_CONFIG_H='<config.h>' -DLTDL -I. -I/tmp/portage/dev-libs/libltdl-2.4.6/work/libtool-2.4.6/libltdl -Ilibltdl -I/tmp/portage/dev-libs/libltdl-2.4.6/work/libtool-2.4.6/libltdl/libltdl   -march=znver2 -O2 -pipe -g0 -falign-functions=32 -fno-stack-protector -fno-stack-clash-protection -fstack-check=no -fno-stack-check -Wl,-O1,--sort-common,--as-needed,-z,norelro,-z,now -c -o libltdl_la-lt_dlloader.lo `test -f 'lt_dlloader.c' || echo '/tmp/portage/dev-libs/libltdl-2.4.6/work/libtool-2.4.6/libltdl/'`lt_dlloader.c
/bin/sh ./libtool  --tag=CC   --mode=compile x86_64-pc-linux-gnu-gcc -DHAVE_CONFIG_H -I. -I/tmp/portage/dev-libs/libltdl-2.4.6/work/libtool-2.4.6/libltdl  -DLTDLOPEN=libltdl -DLT_CONFIG_H='<config.h>' -DLTDL -I. -I/tmp/portage/dev-libs/libltdl-2.4.6/work/libtool-2.4.6/libltdl -Ilibltdl -I/tmp/portage/dev-libs/libltdl-2.4.6/work/libtool-2.4.6/libltdl/libltdl   -march=znver2 -O2 -pipe -g0 -falign-functions=32 -fno-stack-protector -fno-stack-clash-protection -fstack-check=no -fno-stack-check -Wl,-O1,--sort-common,--as-needed,-z,norelro,-z,now -c -o libltdl_la-lt_error.lo `test -f 'lt_error.c' || echo '/tmp/portage/dev-libs/libltdl-2.4.6/work/libtool-2.4.6/libltdl/'`lt_error.c
/bin/sh ./libtool  --tag=CC   --mode=compile x86_64-pc-linux-gnu-gcc -DHAVE_CONFIG_H -I. -I/tmp/portage/dev-libs/libltdl-2.4.6/work/libtool-2.4.6/libltdl  -DLTDLOPEN=libltdl -DLT_CONFIG_H='<config.h>' -DLTDL -I. -I/tmp/portage/dev-libs/libltdl-2.4.6/work/libtool-2.4.6/libltdl -Ilibltdl -I/tmp/portage/dev-libs/libltdl-2.4.6/work/libtool-2.4.6/libltdl/libltdl   -march=znver2 -O2 -pipe -g0 -falign-functions=32 -fno-stack-protector -fno-stack-clash-protection -fstack-check=no -fno-stack-check -Wl,-O1,--sort-common,--as-needed,-z,norelro,-z,now -c -o libltdl_la-ltdl.lo `test -f 'ltdl.c' || echo '/tmp/portage/dev-libs/libltdl-2.4.6/work/libtool-2.4.6/libltdl/'`ltdl.c
/bin/sh ./libtool  --tag=CC   --mode=compile x86_64-pc-linux-gnu-gcc -DHAVE_CONFIG_H -I. -I/tmp/portage/dev-libs/libltdl-2.4.6/work/libtool-2.4.6/libltdl  -DLTDLOPEN=libltdl -DLT_CONFIG_H='<config.h>' -DLTDL -I. -I/tmp/portage/dev-libs/libltdl-2.4.6/work/libtool-2.4.6/libltdl -Ilibltdl -I/tmp/portage/dev-libs/libltdl-2.4.6/work/libtool-2.4.6/libltdl/libltdl   -march=znver2 -O2 -pipe -g0 -falign-functions=32 -fno-stack-protector -fno-stack-clash-protection -fstack-check=no -fno-stack-check -Wl,-O1,--sort-common,--as-needed,-z,norelro,-z,now -c -o libltdl_la-slist.lo `test -f 'slist.c' || echo '/tmp/portage/dev-libs/libltdl-2.4.6/work/libtool-2.4.6/libltdl/'`slist.c
/bin/sh ./libtool  --tag=CC   --mode=compile x86_64-pc-linux-gnu-gcc -DHAVE_CONFIG_H -I. -I/tmp/portage/dev-libs/libltdl-2.4.6/work/libtool-2.4.6/libltdl  -DLT_CONFIG_H='<config.h>' -DLTDL -I. -I/tmp/portage/dev-libs/libltdl-2.4.6/work/libtool-2.4.6/libltdl -Ilibltdl -I/tmp/portage/dev-libs/libltdl-2.4.6/work/libtool-2.4.6/libltdl/libltdl   -march=znver2 -O2 -pipe -g0 -falign-functions=32 -fno-stack-protector -fno-stack-clash-protection -fstack-check=no -fno-stack-check -Wl,-O1,--sort-common,--as-needed,-z,norelro,-z,now -c -o loaders/dlopen.lo /tmp/portage/dev-libs/libltdl-2.4.6/work/libtool-2.4.6/libltdl/loaders/dlopen.c
/bin/sh ./libtool  --tag=CC   --mode=compile x86_64-pc-linux-gnu-gcc -DHAVE_CONFIG_H -I. -I/tmp/portage/dev-libs/libltdl-2.4.6/work/libtool-2.4.6/libltdl  -DLT_CONFIG_H='<config.h>' -DLTDL -I. -I/tmp/portage/dev-libs/libltdl-2.4.6/work/libtool-2.4.6/libltdl -Ilibltdl -I/tmp/portage/dev-libs/libltdl-2.4.6/work/libtool-2.4.6/libltdl/libltdl   -march=znver2 -O2 -pipe -g0 -falign-functions=32 -fno-stack-protector -fno-stack-clash-protection -fstack-check=no -fno-stack-check -Wl,-O1,--sort-common,--as-needed,-z,norelro,-z,now -c -o lt__strl.lo /tmp/portage/dev-libs/libltdl-2.4.6/work/libtool-2.4.6/libltdl/lt__strl.c
/bin/sh ./libtool  --tag=CC   --mode=compile x86_64-pc-linux-gnu-gcc -DHAVE_CONFIG_H -I. -I/tmp/portage/dev-libs/libltdl-2.4.6/work/libtool-2.4.6/libltdl  -DLTDLOPEN=libltdl -DLT_CONFIG_H='<config.h>' -DLTDL -I. -I/tmp/portage/dev-libs/libltdl-2.4.6/work/libtool-2.4.6/libltdl -Ilibltdl -I/tmp/portage/dev-libs/libltdl-2.4.6/work/libtool-2.4.6/libltdl/libltdl   -march=znver2 -O2 -pipe -g0 -falign-functions=32 -fno-stack-protector -fno-stack-clash-protection -fstack-check=no -fno-stack-check -Wl,-O1,--sort-common,--as-needed,-z,norelro,-z,now -c -o loaders/libltdl_la-preopen.lo `test -f 'loaders/preopen.c' || echo '/tmp/portage/dev-libs/libltdl-2.4.6/work/libtool-2.4.6/libltdl/'`loaders/preopen.c
libtool: compile:  x86_64-pc-linux-gnu-gcc -DHAVE_CONFIG_H -I. -I/tmp/portage/dev-libs/libltdl-2.4.6/work/libtool-2.4.6/libltdl -DLTDLOPEN=libltdl "-DLT_CONFIG_H=<config.h>" -DLTDL -I. -I/tmp/portage/dev-libs/libltdl-2.4.6/work/libtool-2.4.6/libltdl -Ilibltdl -I/tmp/portage/dev-libs/libltdl-2.4.6/work/libtool-2.4.6/libltdl/libltdl -march=znver2 -O2 -pipe -g0 -falign-functions=32 -fno-stack-protector -fno-stack-clash-protection -fstack-check=no -fno-stack-check -Wl,-O1,--sort-common,--as-needed,-z,norelro,-z,now -c /tmp/portage/dev-libs/libltdl-2.4.6/work/libtool-2.4.6/libltdl/lt__alloc.c  -fPIC -DPIC -o .libs/libltdl_la-lt__alloc.o
libtool: compile:  x86_64-pc-linux-gnu-gcc -DHAVE_CONFIG_H -I. -I/tmp/portage/dev-libs/libltdl-2.4.6/work/libtool-2.4.6/libltdl -DLTDLOPEN=libltdl "-DLT_CONFIG_H=<config.h>" -DLTDL -I. -I/tmp/portage/dev-libs/libltdl-2.4.6/work/libtool-2.4.6/libltdl -Ilibltdl -I/tmp/portage/dev-libs/libltdl-2.4.6/work/libtool-2.4.6/libltdl/libltdl -march=znver2 -O2 -pipe -g0 -falign-functions=32 -fno-stack-protector -fno-stack-clash-protection -fstack-check=no -fno-stack-check -Wl,-O1,--sort-common,--as-needed,-z,norelro,-z,now -c /tmp/portage/dev-libs/libltdl-2.4.6/work/libtool-2.4.6/libltdl/ltdl.c  -fPIC -DPIC -o .libs/libltdl_la-ltdl.o
libtool: compile:  x86_64-pc-linux-gnu-gcc -DHAVE_CONFIG_H -I. -I/tmp/portage/dev-libs/libltdl-2.4.6/work/libtool-2.4.6/libltdl "-DLT_CONFIG_H=<config.h>" -DLTDL -I. -I/tmp/portage/dev-libs/libltdl-2.4.6/work/libtool-2.4.6/libltdl -Ilibltdl -I/tmp/portage/dev-libs/libltdl-2.4.6/work/libtool-2.4.6/libltdl/libltdl -march=znver2 -O2 -pipe -g0 -falign-functions=32 -fno-stack-protector -fno-stack-clash-protection -fstack-check=no -fno-stack-check -Wl,-O1,--sort-common,--as-needed,-z,norelro,-z,now -c /tmp/portage/dev-libs/libltdl-2.4.6/work/libtool-2.4.6/libltdl/lt__strl.c  -fPIC -DPIC -o .libs/lt__strl.o
libtool: compile:  x86_64-pc-linux-gnu-gcc -DHAVE_CONFIG_H -I. -I/tmp/portage/dev-libs/libltdl-2.4.6/work/libtool-2.4.6/libltdl "-DLT_CONFIG_H=<config.h>" -DLTDL -I. -I/tmp/portage/dev-libs/libltdl-2.4.6/work/libtool-2.4.6/libltdl -Ilibltdl -I/tmp/portage/dev-libs/libltdl-2.4.6/work/libtool-2.4.6/libltdl/libltdl -march=znver2 -O2 -pipe -g0 -falign-functions=32 -fno-stack-protector -fno-stack-clash-protection -fstack-check=no -fno-stack-check -Wl,-O1,--sort-common,--as-needed,-z,norelro,-z,now -c /tmp/portage/dev-libs/libltdl-2.4.6/work/libtool-2.4.6/libltdl/loaders/dlopen.c  -fPIC -DPIC -o loaders/.libs/dlopen.o
libtool: compile:  x86_64-pc-linux-gnu-gcc -DHAVE_CONFIG_H -I. -I/tmp/portage/dev-libs/libltdl-2.4.6/work/libtool-2.4.6/libltdl -DLTDLOPEN=libltdl "-DLT_CONFIG_H=<config.h>" -DLTDL -I. -I/tmp/portage/dev-libs/libltdl-2.4.6/work/libtool-2.4.6/libltdl -Ilibltdl -I/tmp/portage/dev-libs/libltdl-2.4.6/work/libtool-2.4.6/libltdl/libltdl -march=znver2 -O2 -pipe -g0 -falign-functions=32 -fno-stack-protector -fno-stack-clash-protection -fstack-check=no -fno-stack-check -Wl,-O1,--sort-common,--as-needed,-z,norelro,-z,now -c /tmp/portage/dev-libs/libltdl-2.4.6/work/libtool-2.4.6/libltdl/slist.c  -fPIC -DPIC -o .libs/libltdl_la-slist.o
libtool: compile:  x86_64-pc-linux-gnu-gcc -DHAVE_CONFIG_H -I. -I/tmp/portage/dev-libs/libltdl-2.4.6/work/libtool-2.4.6/libltdl -DLTDLOPEN=libltdl "-DLT_CONFIG_H=<config.h>" -DLTDL -I. -I/tmp/portage/dev-libs/libltdl-2.4.6/work/libtool-2.4.6/libltdl -Ilibltdl -I/tmp/portage/dev-libs/libltdl-2.4.6/work/libtool-2.4.6/libltdl/libltdl -march=znver2 -O2 -pipe -g0 -falign-functions=32 -fno-stack-protector -fno-stack-clash-protection -fstack-check=no -fno-stack-check -Wl,-O1,--sort-common,--as-needed,-z,norelro,-z,now -c /tmp/portage/dev-libs/libltdl-2.4.6/work/libtool-2.4.6/libltdl/lt_dlloader.c  -fPIC -DPIC -o .libs/libltdl_la-lt_dlloader.o
libtool: compile:  x86_64-pc-linux-gnu-gcc -DHAVE_CONFIG_H -I. -I/tmp/portage/dev-libs/libltdl-2.4.6/work/libtool-2.4.6/libltdl -DLTDLOPEN=libltdl "-DLT_CONFIG_H=<config.h>" -DLTDL -I. -I/tmp/portage/dev-libs/libltdl-2.4.6/work/libtool-2.4.6/libltdl -Ilibltdl -I/tmp/portage/dev-libs/libltdl-2.4.6/work/libtool-2.4.6/libltdl/libltdl -march=znver2 -O2 -pipe -g0 -falign-functions=32 -fno-stack-protector -fno-stack-clash-protection -fstack-check=no -fno-stack-check -Wl,-O1,--sort-common,--as-needed,-z,norelro,-z,now -c /tmp/portage/dev-libs/libltdl-2.4.6/work/libtool-2.4.6/libltdl/lt_error.c  -fPIC -DPIC -o .libs/libltdl_la-lt_error.o
libtool: compile:  x86_64-pc-linux-gnu-gcc -DHAVE_CONFIG_H -I. -I/tmp/portage/dev-libs/libltdl-2.4.6/work/libtool-2.4.6/libltdl -DLTDLOPEN=libltdl "-DLT_CONFIG_H=<config.h>" -DLTDL -I. -I/tmp/portage/dev-libs/libltdl-2.4.6/work/libtool-2.4.6/libltdl -Ilibltdl -I/tmp/portage/dev-libs/libltdl-2.4.6/work/libtool-2.4.6/libltdl/libltdl -march=znver2 -O2 -pipe -g0 -falign-functions=32 -fno-stack-protector -fno-stack-clash-protection -fstack-check=no -fno-stack-check -Wl,-O1,--sort-common,--as-needed,-z,norelro,-z,now -c /tmp/portage/dev-libs/libltdl-2.4.6/work/libtool-2.4.6/libltdl/loaders/preopen.c  -fPIC -DPIC -o loaders/.libs/libltdl_la-preopen.o
/bin/sh ./libtool  --tag=CC   --mode=link x86_64-pc-linux-gnu-gcc  -march=znver2 -O2 -pipe -g0 -falign-functions=32 -fno-stack-protector -fno-stack-clash-protection -fstack-check=no -fno-stack-check -Wl,-O1,--sort-common,--as-needed,-z,norelro,-z,now -module -avoid-version -Wl,-O1,--sort-common,--as-needed,-z,norelro,-z,now -o dlopen.la  loaders/dlopen.lo -ldl 
libtool: link: x86_64-pc-linux-gnu-ar cru .libs/dlopen.a loaders/.libs/dlopen.o 
libtool: link: x86_64-pc-linux-gnu-ranlib .libs/dlopen.a
libtool: link: ( cd ".libs" && rm -f "dlopen.la" && ln -s "../dlopen.la" "dlopen.la" )
/bin/sh ./libtool  --tag=CC   --mode=link x86_64-pc-linux-gnu-gcc  -march=znver2 -O2 -pipe -g0 -falign-functions=32 -fno-stack-protector -fno-stack-clash-protection -fstack-check=no -fno-stack-check -Wl,-O1,--sort-common,--as-needed,-z,norelro,-z,now -no-undefined -version-info 10:1:3 -dlpreopen dlopen.la  -Wl,-O1,--sort-common,--as-needed,-z,norelro,-z,now -o libltdl.la -rpath /usr/lib64 loaders/libltdl_la-preopen.lo libltdl_la-lt__alloc.lo libltdl_la-lt_dlloader.lo libltdl_la-lt_error.lo libltdl_la-ltdl.lo libltdl_la-slist.lo lt__strl.lo 
libtool: link: rm -f .libs/libltdl.nm .libs/libltdl.nmS .libs/libltdl.nmT
libtool: link: rm -f ".libs/libltdl.nmI"
libtool: link: (cd .libs && x86_64-pc-linux-gnu-gcc -march=znver2 -O2 -pipe -g0 -falign-functions=32 -fno-stack-protector -fno-stack-clash-protection -fstack-check=no -fno-stack-check -Wl,-O1,--sort-common,--as-needed,-z,norelro,-z,now -c -fno-builtin  -fPIC -DPIC "libltdlS.c")
libtool: link: rm -f ".libs/libltdlS.c" ".libs/libltdl.nm" ".libs/libltdl.nmS" ".libs/libltdl.nmT" ".libs/libltdl.nmI"
libtool: link: (cd .libs/libltdl.lax/dlopen.a && x86_64-pc-linux-gnu-ar x "/tmp/portage/dev-libs/libltdl-2.4.6/work/libtool-2.4.6/libltdl-abi_x86_64.amd64/./.libs/dlopen.a")
libtool: link: x86_64-pc-linux-gnu-gcc -shared  -fPIC -DPIC  loaders/.libs/libltdl_la-preopen.o .libs/libltdl_la-lt__alloc.o .libs/libltdl_la-lt_dlloader.o .libs/libltdl_la-lt_error.o .libs/libltdl_la-ltdl.o .libs/libltdl_la-slist.o .libs/lt__strl.o .libs/libltdlS.o  .libs/libltdl.lax/dlopen.a/dlopen.o   -ldl  -march=znver2 -O2 -g0 -Wl,-O1 -Wl,--sort-common -Wl,--as-needed -Wl,-z -Wl,norelro -Wl,-z -Wl,now -Wl,-O1 -Wl,--sort-common -Wl,--as-needed -Wl,-z -Wl,norelro -Wl,-z -Wl,now   -Wl,-soname -Wl,libltdl.so.7 -o .libs/libltdl.so.7.3.1
libtool: link: (cd ".libs" && rm -f "libltdl.so.7" && ln -s "libltdl.so.7.3.1" "libltdl.so.7")
libtool: link: (cd ".libs" && rm -f "libltdl.so" && ln -s "libltdl.so.7.3.1" "libltdl.so")
libtool: link: rm -fr .libs/libltdl.lax
libtool: link: ( cd ".libs" && rm -f "libltdl.la" && ln -s "../libltdl.la" "libltdl.la" )
make[1]: Leaving directory '/tmp/portage/dev-libs/libltdl-2.4.6/work/libtool-2.4.6/libltdl-abi_x86_64.amd64'
>>> Source compiled.
 * Skipping make test/check due to ebuild restriction.
>>> Test phase [disabled because of RESTRICT=test]: dev-libs/libltdl-2.4.6

>>> Install dev-libs/libltdl-2.4.6 into /tmp/portage/dev-libs/libltdl-2.4.6/image
 * abi_x86_64.amd64: running multilib-minimal_abi_src_install
make -j12 -l12 DESTDIR=/tmp/portage/dev-libs/libltdl-2.4.6/image install 
make  install-am
make[1]: Entering directory '/tmp/portage/dev-libs/libltdl-2.4.6/work/libtool-2.4.6/libltdl-abi_x86_64.amd64'
make[2]: Entering directory '/tmp/portage/dev-libs/libltdl-2.4.6/work/libtool-2.4.6/libltdl-abi_x86_64.amd64'
 /bin/mkdir -p '/tmp/portage/dev-libs/libltdl-2.4.6/image/usr/lib64'
 /bin/mkdir -p '/tmp/portage/dev-libs/libltdl-2.4.6/image/usr/include'
 /bin/sh ./libtool   --mode=install /tmp/portage/._portage_reinstall_.dq2b4q9k/bin/ebuild-helpers/xattr/install -c   libltdl.la '/tmp/portage/dev-libs/libltdl-2.4.6/image/usr/lib64'
 /bin/mkdir -p '/tmp/portage/dev-libs/libltdl-2.4.6/image/usr/include/libltdl'
 /tmp/portage/._portage_reinstall_.dq2b4q9k/bin/ebuild-helpers/xattr/install -c -m 644 /tmp/portage/dev-libs/libltdl-2.4.6/work/libtool-2.4.6/libltdl/ltdl.h '/tmp/portage/dev-libs/libltdl-2.4.6/image/usr/include'
 /tmp/portage/._portage_reinstall_.dq2b4q9k/bin/ebuild-helpers/xattr/install -c -m 644 /tmp/portage/dev-libs/libltdl-2.4.6/work/libtool-2.4.6/libltdl/libltdl/lt_system.h /tmp/portage/dev-libs/libltdl-2.4.6/work/libtool-2.4.6/libltdl/libltdl/lt_error.h /tmp/portage/dev-libs/libltdl-2.4.6/work/libtool-2.4.6/libltdl/libltdl/lt_dlloader.h '/tmp/portage/dev-libs/libltdl-2.4.6/image/usr/include/libltdl'
libtool: install: /tmp/portage/._portage_reinstall_.dq2b4q9k/bin/ebuild-helpers/xattr/install -c .libs/libltdl.so.7.3.1 /tmp/portage/dev-libs/libltdl-2.4.6/image/usr/lib64/libltdl.so.7.3.1
libtool: install: (cd /tmp/portage/dev-libs/libltdl-2.4.6/image/usr/lib64 && { ln -s -f libltdl.so.7.3.1 libltdl.so.7 || { rm -f libltdl.so.7 && ln -s libltdl.so.7.3.1 libltdl.so.7; }; })
libtool: install: (cd /tmp/portage/dev-libs/libltdl-2.4.6/image/usr/lib64 && { ln -s -f libltdl.so.7.3.1 libltdl.so || { rm -f libltdl.so && ln -s libltdl.so.7.3.1 libltdl.so; }; })
libtool: install: /tmp/portage/._portage_reinstall_.dq2b4q9k/bin/ebuild-helpers/xattr/install -c .libs/libltdl.lai /tmp/portage/dev-libs/libltdl-2.4.6/image/usr/lib64/libltdl.la
libtool: warning: remember to run 'libtool --finish /usr/lib64'
make[2]: Leaving directory '/tmp/portage/dev-libs/libltdl-2.4.6/work/libtool-2.4.6/libltdl-abi_x86_64.amd64'
make[1]: Leaving directory '/tmp/portage/dev-libs/libltdl-2.4.6/work/libtool-2.4.6/libltdl-abi_x86_64.amd64'
>>> Completed installing dev-libs/libltdl-2.4.6 into /tmp/portage/dev-libs/libltdl-2.4.6/image

 * Final size of build directory: 9712 KiB (9.4 MiB)
 * Final size of installed tree:   112 KiB

removing executable bit: /usr/lib64/libltdl.la
Parallel BZIP2 v1.1.13 [Dec 18, 2015]
By: Jeff Gilchrist [http://compression.ca]
Major contributions: Yavor Nikolov [http://javornikolov.wordpress.com]
Uses libbzip2 by Julian Seward

         # CPUs: 8
   Load Average: 4.02
 BWT Block Size: 200 KB
File Block Size: 900 KB
 Maximum Memory: 1024 MB
-------------------------------------------
         File #: 1 of 1
     Input Name: compressme
    Output Name: compressme.bz2

     Input Size: 3895 bytes
Compressing data (no threads)...
Completed: 100%                 Output Size: 918 bytes
-------------------------------------------

     Wall Clock: 0.000810 seconds
Parallel BZIP2 v1.1.13 [Dec 18, 2015]
By: Jeff Gilchrist [http://compression.ca]
Major contributions: Yavor Nikolov [http://javornikolov.wordpress.com]
Uses libbzip2 by Julian Seward

         # CPUs: 8
   Load Average: 4.02
 BWT Block Size: 200 KB
File Block Size: 900 KB
 Maximum Memory: 1024 MB
-------------------------------------------
         File #: 1 of 1
     Input Name: /tmp/portage/dev-libs/libltdl-2.4.6/image/usr/share/doc/libltdl-2.4.6/README
    Output Name: /tmp/portage/dev-libs/libltdl-2.4.6/image/usr/share/doc/libltdl-2.4.6/README.bz2

     Input Size: 693 bytes
Compressing data (no threads)...
Completed: 100%                 Output Size: 482 bytes
-------------------------------------------

     Wall Clock: 0.008233 seconds
strip: x86_64-pc-linux-gnu-strip --strip-unneeded -N __gentoo_check_ldflags__ -R .comment -R .GCC.command.line -R .note.gnu.gold-version
   /usr/lib64/libltdl.so.7.3.1
./
./usr/
./usr/include/
./usr/include/libltdl/
./usr/include/libltdl/lt_error.h
./usr/include/libltdl/lt_system.h
./usr/include/libltdl/lt_dlloader.h
./usr/include/ltdl.h
./usr/share/
./usr/share/doc/
./usr/share/doc/libltdl-2.4.6/
./usr/share/doc/libltdl-2.4.6/README
./usr/share/doc/libltdl-2.4.6/README.bz2
./usr/lib64/
./usr/lib64/libltdl.so
./usr/lib64/libltdl.so.7
./usr/lib64/libltdl.so.7.3.1
./usr/lib64/libltdl.la
>>> Done.
 * checking 8 files for package collisions
>>> Merging dev-libs/libltdl-2.4.6 to /
 * removing unneeded *.la files
--- /usr/
--- /usr/lib64/
>>> /usr/lib64/libltdl.la
>>> /usr/lib64/libltdl.so.7.3.1
>>> /usr/lib64/libltdl.so.7 -> libltdl.so.7.3.1
>>> /usr/lib64/libltdl.so -> libltdl.so.7.3.1
--- /usr/include/
>>> /usr/include/ltdl.h
--- /usr/include/libltdl/
>>> /usr/include/libltdl/lt_dlloader.h
>>> /usr/include/libltdl/lt_system.h
>>> /usr/include/libltdl/lt_error.h
>>> Safely unmerging already-installed instance...
!!! File Not Found: '/etc/env.d/99lcdfilter'
>>> Original instance of package unmerged safely.
>>> dev-libs/libltdl-2.4.6 merged.
!!! File Not Found: '/etc/env.d/99lcdfilter'
>>> Regenerating /etc/ld.so.cache...
