>>> Extracting info
 * Package:    dev-util/glib-utils-2.64.3
 * Repository: gentoo
 * USE:        kernel_linux userland_GNU elibc_glibc amd64 abi_x86_64 python_single_target_python3_8
 * FEATURES:   network-sandbox preserve-libs sandbox userpriv usersandbox
 * FEATURES='assume-digests binpkg-docompress binpkg-dostrip binpkg-logs buildpkg cgroup compress-index config-protect-if-modified distlocks ebuild-locks fixlafiles ipc-sandbox merge-sync multilib-strict network-sandbox news nodoc parallel-fetch pid-sandbox preserve-libs qa-unresolved-soname-deps sandbox sfperms strict strict-keepdir unknown-features-warn unmerge-logs unmerge-orphans userfetch userpriv usersandbox usersync xattr'
 * CFLAGS='-march=znver2 -O2 -pipe -fno-stack-protector -fno-stack-clash-protection -fstack-check=no -fno-stack-check -Wl,-O1 -Wl,--as-needed'
 * CXXFLAGS='-march=znver2 -O2 -pipe -fno-stack-protector -fno-stack-clash-protection -fstack-check=no -fno-stack-check -Wl,-O1 -Wl,--as-needed'
 * FFLAGS='-march=znver2 -O2 -pipe -fno-stack-protector -fno-stack-clash-protection -fstack-check=no -fno-stack-check -Wl,-O1 -Wl,--as-needed'
 * FCFLAGS='-march=znver2 -O2 -pipe -fno-stack-protector -fno-stack-clash-protection -fstack-check=no -fno-stack-check -Wl,-O1 -Wl,--as-needed'
 * F77FLAGS='-march=znver2 -O2 -pipe -fno-stack-protector -fno-stack-clash-protection -fstack-check=no -fno-stack-check -Wl,-O1 -Wl,--as-needed'
 * LDFLAGS='-Wl,-O1 -Wl,--as-needed'
 * MAKEOPTS='-j12 -l12'
 * gcc (Gentoo 10.1.0-r1 p2) 10.1.0
 * g++ (Gentoo 10.1.0-r1 p2) 10.1.0
 * GNU gold (Gentoo 2.34 p4 2.34.0) 1.16
 * Linux rescue 5.4.36 #1 SMP Thu Apr 30 04:38:28 UTC 2020 x86_64 AMD Ryzen 5 3600 6-Core Processor AuthenticAMD GNU/Linux
dev-util/glib-utils: 12 seconds average for 11 merges
2020-05-15T10:29:05 >>> dev-util/glib-utils: 7 seconds
2020-05-20T01:25:51 >>> dev-util/glib-utils: 4 seconds
2020-05-20T04:58:20 >>> dev-util/glib-utils: 6 seconds
2020-05-21T06:25:36 >>> dev-util/glib-utils: 5 seconds
2020-05-25T17:56:17 >>> dev-util/glib-utils: 11 seconds
2020-05-26T00:43:10 >>> dev-util/glib-utils: 10 seconds
2020-05-27T02:17:58 >>> dev-util/glib-utils: 6 seconds
2020-05-30T14:01:35 >>> dev-util/glib-utils: 11 seconds
2020-06-01T03:31:00 >>> dev-util/glib-utils: 12 seconds
2020-06-12T02:12:06 >>> dev-util/glib-utils: 5 seconds
2020-06-13T20:47:47 >>> dev-util/glib-utils: 56 seconds
]0;emerge 14:23:18 466|565 glib-utils 00:24 (root@rescue)>>> Extracting dev-util/glib-utils-2.64.3
 * checking 9 files for package collisions
>>> Merging dev-util/glib-utils-2.64.3 to /
 * removing unneeded *.la files
--- /usr/
--- /usr/share/
--- /usr/share/man/
--- /usr/share/man/man1/
>>> /usr/share/man/man1/gtester-report.1
>>> /usr/share/man/man1/glib-genmarshal.1.bz2
>>> /usr/share/man/man1/glib-mkenums.1
>>> /usr/share/man/man1/glib-mkenums.1.bz2
>>> /usr/share/man/man1/glib-genmarshal.1
>>> /usr/share/man/man1/gtester-report.1.bz2
--- /usr/bin/
>>> /usr/bin/glib-genmarshal
>>> /usr/bin/gtester-report
>>> /usr/bin/glib-mkenums
>>> Safely unmerging already-installed instance...
!!! File Not Found: '/etc/env.d/99lcdfilter'
>>> Original instance of package unmerged safely.
>>> dev-util/glib-utils-2.64.3 merged.
!!! File Not Found: '/etc/env.d/99lcdfilter'
