 * Package:    dev-python/ttystatus-0.36
 * Repository: gentoo
 * USE:        abi_x86_64 amd64 elibc_glibc kernel_linux python_targets_python2_7 python_targets_python3_7 userland_GNU
 * FEATURES:   ccache network-sandbox preserve-libs sandbox userpriv usersandbox
 * FEATURES='assume-digests binpkg-docompress binpkg-dostrip binpkg-logs binpkg-multi-instance buildpkg ccache compress-index config-protect-if-modified distlocks downgrade-backup fixlafiles ipc-sandbox merge-sync multilib-strict network-sandbox news nodoc parallel-fetch parallel-install pid-sandbox preserve-libs qa-unresolved-soname-deps sandbox sfperms strict unknown-features-warn unmerge-backup unmerge-logs unmerge-orphans userfetch userpriv usersandbox usersync xattr'
 * CFLAGS='-march=znver2 -O3 -fgraphite-identity -floop-nest-optimize -fdevirtualize-at-ltrans -fipa-pta -fno-semantic-interposition -flto=12 -fno-plt -fno-signed-zeros -fno-trapping-math -fassociative-math -freciprocal-math -fno-math-errno -ffinite-math-only -fno-rounding-math -fno-signaling-nans -fcx-limited-range -fexcess-precision=fast -falign-functions=32 -fno-stack-protector -fno-stack-clash-protection -fstack-check=no -fno-stack-check -fuse-linker-plugin -pipe -g0 -Wl,-O1 -Wl,--as-needed -Wl,-z,norelro -Wl,-z,now -Wl,--sort-common -s'
 * CXXFLAGS='-march=znver2 -O3 -fgraphite-identity -floop-nest-optimize -fdevirtualize-at-ltrans -fipa-pta -fno-semantic-interposition -flto=12 -fno-plt -fno-signed-zeros -fno-trapping-math -fassociative-math -freciprocal-math -fno-math-errno -ffinite-math-only -fno-rounding-math -fno-signaling-nans -fcx-limited-range -fexcess-precision=fast -falign-functions=32 -fno-stack-protector -fno-stack-clash-protection -fstack-check=no -fno-stack-check -fuse-linker-plugin -pipe -g0 -Wl,-O1 -Wl,--as-needed -Wl,-z,norelro -Wl,-z,now -Wl,--sort-common -s'
 * FFLAGS='-march=znver2 -O3 -fgraphite-identity -floop-nest-optimize -fdevirtualize-at-ltrans -fipa-pta -fno-semantic-interposition -flto=12 -fno-plt -fno-signed-zeros -fno-trapping-math -fassociative-math -freciprocal-math -fno-math-errno -ffinite-math-only -fno-rounding-math -fno-signaling-nans -fcx-limited-range -fexcess-precision=fast -falign-functions=32 -fno-stack-protector -fno-stack-clash-protection -fstack-check=no -fno-stack-check -fuse-linker-plugin -pipe -g0 -Wl,-O1 -Wl,--as-needed -Wl,-z,norelro -Wl,-z,now -Wl,--sort-common -s'
 * FCFLAGS='-march=znver2 -O3 -fgraphite-identity -floop-nest-optimize -fdevirtualize-at-ltrans -fipa-pta -fno-semantic-interposition -flto=12 -fno-plt -fno-signed-zeros -fno-trapping-math -fassociative-math -freciprocal-math -fno-math-errno -ffinite-math-only -fno-rounding-math -fno-signaling-nans -fcx-limited-range -fexcess-precision=fast -falign-functions=32 -fno-stack-protector -fno-stack-clash-protection -fstack-check=no -fno-stack-check -fuse-linker-plugin -pipe -g0 -Wl,-O1 -Wl,--as-needed -Wl,-z,norelro -Wl,-z,now -Wl,--sort-common -s'
 * F77FLAGS='-march=znver2 -O3 -fgraphite-identity -floop-nest-optimize -fdevirtualize-at-ltrans -fipa-pta -fno-semantic-interposition -flto=12 -fno-plt -fno-signed-zeros -fno-trapping-math -fassociative-math -freciprocal-math -fno-math-errno -ffinite-math-only -fno-rounding-math -fno-signaling-nans -fcx-limited-range -fexcess-precision=fast -falign-functions=32 -fno-stack-protector -fno-stack-clash-protection -fstack-check=no -fno-stack-check -fuse-linker-plugin -pipe -g0 -Wl,-O1 -Wl,--as-needed -Wl,-z,norelro -Wl,-z,now -Wl,--sort-common -s'
 * LDFLAGS='-Wl,-O1 -Wl,--as-needed -Wl,-z,norelro -Wl,-z,now -Wl,--sort-common -s -march=znver2 -O3 -fgraphite-identity -floop-nest-optimize -fdevirtualize-at-ltrans -fipa-pta -fno-semantic-interposition -flto=12 -fno-plt -fno-signed-zeros -fno-trapping-math -fassociative-math -freciprocal-math -fno-math-errno -ffinite-math-only -fno-rounding-math -fno-signaling-nans -fcx-limited-range -fexcess-precision=fast -falign-functions=32 -fno-stack-protector -fno-stack-clash-protection -fstack-check=no -fno-stack-check -fuse-linker-plugin -pipe -g0'
 * MAKEOPTS='-j12 -l12'
 * gcc () 11.0.0 20200530 (experimental)
 * g++ () 11.0.0 20200530 (experimental)
 * GNU ld (Gentoo 2.34 p4) 2.34.0
 * Linux ryzen.gnum.org 5.4.36 #1 SMP Thu Apr 30 04:38:28 UTC 2020 x86_64 AMD Ryzen 5 3600 6-Core Processor AuthenticAMD GNU/Linux
dev-python/ttystatus: 16 seconds average for 1 merge
2020-05-28T05:04:04 >>> dev-python/ttystatus: 16 seconds
]0;emerge 14:30:09 455|1110 ttystatus 00:16 (root@ryzen.gnum.org)kemerge 14:30:09 455|1110 ttystatus 00:16 (root@ryzen.gnum.org)\>>> Unpacking source...
>>> Unpacking ttystatus-0.36.tar.gz to /tmp/portage/dev-python/ttystatus-0.36/work
>>> Source unpacked in /tmp/portage/dev-python/ttystatus-0.36/work
>>> Preparing source in /tmp/portage/dev-python/ttystatus-0.36/work/ttystatus-0.36 ...
>>> Source prepared.
>>> Configuring source in /tmp/portage/dev-python/ttystatus-0.36/work/ttystatus-0.36 ...
>>> Source configured.
>>> Compiling source in /tmp/portage/dev-python/ttystatus-0.36/work/ttystatus-0.36 ...
 * python2_7: running distutils-r1_run_phase distutils-r1_python_compile
 * DISTUTILS_USE_SETUPTOOLS value is probably incorrect
 *   value:    DISTUTILS_USE_SETUPTOOLS=bdepend (default?)
 *   expected: DISTUTILS_USE_SETUPTOOLS=no
python2.7 setup.py build
running build
running build_py
creating /tmp/portage/dev-python/ttystatus-0.36/work/ttystatus-0.36-python2_7/lib/ttystatus
copying ttystatus/remtime_tests.py -> /tmp/portage/dev-python/ttystatus-0.36/work/ttystatus-0.36-python2_7/lib/ttystatus
copying ttystatus/progressbar_tests.py -> /tmp/portage/dev-python/ttystatus-0.36/work/ttystatus-0.36-python2_7/lib/ttystatus
copying ttystatus/bytesize.py -> /tmp/portage/dev-python/ttystatus-0.36/work/ttystatus-0.36-python2_7/lib/ttystatus
copying ttystatus/widget.py -> /tmp/portage/dev-python/ttystatus-0.36/work/ttystatus-0.36-python2_7/lib/ttystatus
copying ttystatus/pathname_tests.py -> /tmp/portage/dev-python/ttystatus-0.36/work/ttystatus-0.36-python2_7/lib/ttystatus
copying ttystatus/counter.py -> /tmp/portage/dev-python/ttystatus-0.36/work/ttystatus-0.36-python2_7/lib/ttystatus
copying ttystatus/fmt.py -> /tmp/portage/dev-python/ttystatus-0.36/work/ttystatus-0.36-python2_7/lib/ttystatus
copying ttystatus/pathname.py -> /tmp/portage/dev-python/ttystatus-0.36/work/ttystatus-0.36-python2_7/lib/ttystatus
copying ttystatus/progressbar.py -> /tmp/portage/dev-python/ttystatus-0.36/work/ttystatus-0.36-python2_7/lib/ttystatus
copying ttystatus/bytespeed.py -> /tmp/portage/dev-python/ttystatus-0.36/work/ttystatus-0.36-python2_7/lib/ttystatus
copying ttystatus/percent_tests.py -> /tmp/portage/dev-python/ttystatus-0.36/work/ttystatus-0.36-python2_7/lib/ttystatus
copying ttystatus/__init__.py -> /tmp/portage/dev-python/ttystatus-0.36/work/ttystatus-0.36-python2_7/lib/ttystatus
copying ttystatus/bytespeed_tests.py -> /tmp/portage/dev-python/ttystatus-0.36/work/ttystatus-0.36-python2_7/lib/ttystatus
copying ttystatus/messager.py -> /tmp/portage/dev-python/ttystatus-0.36/work/ttystatus-0.36-python2_7/lib/ttystatus
copying ttystatus/area.py -> /tmp/portage/dev-python/ttystatus-0.36/work/ttystatus-0.36-python2_7/lib/ttystatus
copying ttystatus/integer_tests.py -> /tmp/portage/dev-python/ttystatus-0.36/work/ttystatus-0.36-python2_7/lib/ttystatus
copying ttystatus/tty.py -> /tmp/portage/dev-python/ttystatus-0.36/work/ttystatus-0.36-python2_7/lib/ttystatus
copying ttystatus/fmt_tests.py -> /tmp/portage/dev-python/ttystatus-0.36/work/ttystatus-0.36-python2_7/lib/ttystatus
copying ttystatus/status_tests.py -> /tmp/portage/dev-python/ttystatus-0.36/work/ttystatus-0.36-python2_7/lib/ttystatus
copying ttystatus/remtime.py -> /tmp/portage/dev-python/ttystatus-0.36/work/ttystatus-0.36-python2_7/lib/ttystatus
copying ttystatus/string_tests.py -> /tmp/portage/dev-python/ttystatus-0.36/work/ttystatus-0.36-python2_7/lib/ttystatus
copying ttystatus/counter_tests.py -> /tmp/portage/dev-python/ttystatus-0.36/work/ttystatus-0.36-python2_7/lib/ttystatus
copying ttystatus/literal_tests.py -> /tmp/portage/dev-python/ttystatus-0.36/work/ttystatus-0.36-python2_7/lib/ttystatus
copying ttystatus/percent.py -> /tmp/portage/dev-python/ttystatus-0.36/work/ttystatus-0.36-python2_7/lib/ttystatus
copying ttystatus/string.py -> /tmp/portage/dev-python/ttystatus-0.36/work/ttystatus-0.36-python2_7/lib/ttystatus
copying ttystatus/elapsed.py -> /tmp/portage/dev-python/ttystatus-0.36/work/ttystatus-0.36-python2_7/lib/ttystatus
copying ttystatus/status.py -> /tmp/portage/dev-python/ttystatus-0.36/work/ttystatus-0.36-python2_7/lib/ttystatus
copying ttystatus/version.py -> /tmp/portage/dev-python/ttystatus-0.36/work/ttystatus-0.36-python2_7/lib/ttystatus
copying ttystatus/elapsed_tests.py -> /tmp/portage/dev-python/ttystatus-0.36/work/ttystatus-0.36-python2_7/lib/ttystatus
copying ttystatus/literal.py -> /tmp/portage/dev-python/ttystatus-0.36/work/ttystatus-0.36-python2_7/lib/ttystatus
copying ttystatus/index.py -> /tmp/portage/dev-python/ttystatus-0.36/work/ttystatus-0.36-python2_7/lib/ttystatus
copying ttystatus/integer.py -> /tmp/portage/dev-python/ttystatus-0.36/work/ttystatus-0.36-python2_7/lib/ttystatus
copying ttystatus/index_tests.py -> /tmp/portage/dev-python/ttystatus-0.36/work/ttystatus-0.36-python2_7/lib/ttystatus
copying ttystatus/bytesize_tests.py -> /tmp/portage/dev-python/ttystatus-0.36/work/ttystatus-0.36-python2_7/lib/ttystatus
warning: build_py: byte-compiling is disabled, skipping.

 * python3_7: running distutils-r1_run_phase distutils-r1_python_compile
python3.7 setup.py build -j 12
running build
running build_py
creating /tmp/portage/dev-python/ttystatus-0.36/work/ttystatus-0.36-python3_7/lib/ttystatus
copying ttystatus/remtime_tests.py -> /tmp/portage/dev-python/ttystatus-0.36/work/ttystatus-0.36-python3_7/lib/ttystatus
copying ttystatus/progressbar_tests.py -> /tmp/portage/dev-python/ttystatus-0.36/work/ttystatus-0.36-python3_7/lib/ttystatus
copying ttystatus/bytesize.py -> /tmp/portage/dev-python/ttystatus-0.36/work/ttystatus-0.36-python3_7/lib/ttystatus
copying ttystatus/widget.py -> /tmp/portage/dev-python/ttystatus-0.36/work/ttystatus-0.36-python3_7/lib/ttystatus
copying ttystatus/pathname_tests.py -> /tmp/portage/dev-python/ttystatus-0.36/work/ttystatus-0.36-python3_7/lib/ttystatus
copying ttystatus/counter.py -> /tmp/portage/dev-python/ttystatus-0.36/work/ttystatus-0.36-python3_7/lib/ttystatus
copying ttystatus/fmt.py -> /tmp/portage/dev-python/ttystatus-0.36/work/ttystatus-0.36-python3_7/lib/ttystatus
copying ttystatus/pathname.py -> /tmp/portage/dev-python/ttystatus-0.36/work/ttystatus-0.36-python3_7/lib/ttystatus
copying ttystatus/progressbar.py -> /tmp/portage/dev-python/ttystatus-0.36/work/ttystatus-0.36-python3_7/lib/ttystatus
copying ttystatus/bytespeed.py -> /tmp/portage/dev-python/ttystatus-0.36/work/ttystatus-0.36-python3_7/lib/ttystatus
copying ttystatus/percent_tests.py -> /tmp/portage/dev-python/ttystatus-0.36/work/ttystatus-0.36-python3_7/lib/ttystatus
copying ttystatus/__init__.py -> /tmp/portage/dev-python/ttystatus-0.36/work/ttystatus-0.36-python3_7/lib/ttystatus
copying ttystatus/bytespeed_tests.py -> /tmp/portage/dev-python/ttystatus-0.36/work/ttystatus-0.36-python3_7/lib/ttystatus
copying ttystatus/messager.py -> /tmp/portage/dev-python/ttystatus-0.36/work/ttystatus-0.36-python3_7/lib/ttystatus
copying ttystatus/area.py -> /tmp/portage/dev-python/ttystatus-0.36/work/ttystatus-0.36-python3_7/lib/ttystatus
copying ttystatus/integer_tests.py -> /tmp/portage/dev-python/ttystatus-0.36/work/ttystatus-0.36-python3_7/lib/ttystatus
copying ttystatus/tty.py -> /tmp/portage/dev-python/ttystatus-0.36/work/ttystatus-0.36-python3_7/lib/ttystatus
copying ttystatus/fmt_tests.py -> /tmp/portage/dev-python/ttystatus-0.36/work/ttystatus-0.36-python3_7/lib/ttystatus
copying ttystatus/status_tests.py -> /tmp/portage/dev-python/ttystatus-0.36/work/ttystatus-0.36-python3_7/lib/ttystatus
copying ttystatus/remtime.py -> /tmp/portage/dev-python/ttystatus-0.36/work/ttystatus-0.36-python3_7/lib/ttystatus
copying ttystatus/string_tests.py -> /tmp/portage/dev-python/ttystatus-0.36/work/ttystatus-0.36-python3_7/lib/ttystatus
copying ttystatus/counter_tests.py -> /tmp/portage/dev-python/ttystatus-0.36/work/ttystatus-0.36-python3_7/lib/ttystatus
copying ttystatus/literal_tests.py -> /tmp/portage/dev-python/ttystatus-0.36/work/ttystatus-0.36-python3_7/lib/ttystatus
copying ttystatus/percent.py -> /tmp/portage/dev-python/ttystatus-0.36/work/ttystatus-0.36-python3_7/lib/ttystatus
copying ttystatus/string.py -> /tmp/portage/dev-python/ttystatus-0.36/work/ttystatus-0.36-python3_7/lib/ttystatus
copying ttystatus/elapsed.py -> /tmp/portage/dev-python/ttystatus-0.36/work/ttystatus-0.36-python3_7/lib/ttystatus
copying ttystatus/status.py -> /tmp/portage/dev-python/ttystatus-0.36/work/ttystatus-0.36-python3_7/lib/ttystatus
copying ttystatus/version.py -> /tmp/portage/dev-python/ttystatus-0.36/work/ttystatus-0.36-python3_7/lib/ttystatus
copying ttystatus/elapsed_tests.py -> /tmp/portage/dev-python/ttystatus-0.36/work/ttystatus-0.36-python3_7/lib/ttystatus
copying ttystatus/literal.py -> /tmp/portage/dev-python/ttystatus-0.36/work/ttystatus-0.36-python3_7/lib/ttystatus
copying ttystatus/index.py -> /tmp/portage/dev-python/ttystatus-0.36/work/ttystatus-0.36-python3_7/lib/ttystatus
copying ttystatus/integer.py -> /tmp/portage/dev-python/ttystatus-0.36/work/ttystatus-0.36-python3_7/lib/ttystatus
copying ttystatus/index_tests.py -> /tmp/portage/dev-python/ttystatus-0.36/work/ttystatus-0.36-python3_7/lib/ttystatus
copying ttystatus/bytesize_tests.py -> /tmp/portage/dev-python/ttystatus-0.36/work/ttystatus-0.36-python3_7/lib/ttystatus
warning: build_py: byte-compiling is disabled, skipping.

>>> Source compiled.
>>> Test phase [not enabled]: dev-python/ttystatus-0.36

>>> Install dev-python/ttystatus-0.36 into /tmp/portage/dev-python/ttystatus-0.36/image
 * python2_7: running distutils-r1_run_phase distutils-r1_python_install
python2.7 setup.py install --skip-build --root=/tmp/portage/dev-python/ttystatus-0.36/image/_python2.7
running install
running install_lib
creating /tmp/portage/dev-python/ttystatus-0.36/image/_python2.7
creating /tmp/portage/dev-python/ttystatus-0.36/image/_python2.7/usr
creating /tmp/portage/dev-python/ttystatus-0.36/image/_python2.7/usr/lib64
creating /tmp/portage/dev-python/ttystatus-0.36/image/_python2.7/usr/lib64/python2.7
creating /tmp/portage/dev-python/ttystatus-0.36/image/_python2.7/usr/lib64/python2.7/site-packages
creating /tmp/portage/dev-python/ttystatus-0.36/image/_python2.7/usr/lib64/python2.7/site-packages/ttystatus
copying /tmp/portage/dev-python/ttystatus-0.36/work/ttystatus-0.36-python2_7/lib/ttystatus/remtime_tests.py -> /tmp/portage/dev-python/ttystatus-0.36/image/_python2.7/usr/lib64/python2.7/site-packages/ttystatus
copying /tmp/portage/dev-python/ttystatus-0.36/work/ttystatus-0.36-python2_7/lib/ttystatus/progressbar_tests.py -> /tmp/portage/dev-python/ttystatus-0.36/image/_python2.7/usr/lib64/python2.7/site-packages/ttystatus
copying /tmp/portage/dev-python/ttystatus-0.36/work/ttystatus-0.36-python2_7/lib/ttystatus/bytesize.py -> /tmp/portage/dev-python/ttystatus-0.36/image/_python2.7/usr/lib64/python2.7/site-packages/ttystatus
copying /tmp/portage/dev-python/ttystatus-0.36/work/ttystatus-0.36-python2_7/lib/ttystatus/widget.py -> /tmp/portage/dev-python/ttystatus-0.36/image/_python2.7/usr/lib64/python2.7/site-packages/ttystatus
copying /tmp/portage/dev-python/ttystatus-0.36/work/ttystatus-0.36-python2_7/lib/ttystatus/pathname_tests.py -> /tmp/portage/dev-python/ttystatus-0.36/image/_python2.7/usr/lib64/python2.7/site-packages/ttystatus
copying /tmp/portage/dev-python/ttystatus-0.36/work/ttystatus-0.36-python2_7/lib/ttystatus/counter.py -> /tmp/portage/dev-python/ttystatus-0.36/image/_python2.7/usr/lib64/python2.7/site-packages/ttystatus
copying /tmp/portage/dev-python/ttystatus-0.36/work/ttystatus-0.36-python2_7/lib/ttystatus/fmt.py -> /tmp/portage/dev-python/ttystatus-0.36/image/_python2.7/usr/lib64/python2.7/site-packages/ttystatus
copying /tmp/portage/dev-python/ttystatus-0.36/work/ttystatus-0.36-python2_7/lib/ttystatus/pathname.py -> /tmp/portage/dev-python/ttystatus-0.36/image/_python2.7/usr/lib64/python2.7/site-packages/ttystatus
copying /tmp/portage/dev-python/ttystatus-0.36/work/ttystatus-0.36-python2_7/lib/ttystatus/progressbar.py -> /tmp/portage/dev-python/ttystatus-0.36/image/_python2.7/usr/lib64/python2.7/site-packages/ttystatus
copying /tmp/portage/dev-python/ttystatus-0.36/work/ttystatus-0.36-python2_7/lib/ttystatus/bytespeed.py -> /tmp/portage/dev-python/ttystatus-0.36/image/_python2.7/usr/lib64/python2.7/site-packages/ttystatus
copying /tmp/portage/dev-python/ttystatus-0.36/work/ttystatus-0.36-python2_7/lib/ttystatus/percent_tests.py -> /tmp/portage/dev-python/ttystatus-0.36/image/_python2.7/usr/lib64/python2.7/site-packages/ttystatus
copying /tmp/portage/dev-python/ttystatus-0.36/work/ttystatus-0.36-python2_7/lib/ttystatus/__init__.py -> /tmp/portage/dev-python/ttystatus-0.36/image/_python2.7/usr/lib64/python2.7/site-packages/ttystatus
copying /tmp/portage/dev-python/ttystatus-0.36/work/ttystatus-0.36-python2_7/lib/ttystatus/bytespeed_tests.py -> /tmp/portage/dev-python/ttystatus-0.36/image/_python2.7/usr/lib64/python2.7/site-packages/ttystatus
copying /tmp/portage/dev-python/ttystatus-0.36/work/ttystatus-0.36-python2_7/lib/ttystatus/messager.py -> /tmp/portage/dev-python/ttystatus-0.36/image/_python2.7/usr/lib64/python2.7/site-packages/ttystatus
copying /tmp/portage/dev-python/ttystatus-0.36/work/ttystatus-0.36-python2_7/lib/ttystatus/area.py -> /tmp/portage/dev-python/ttystatus-0.36/image/_python2.7/usr/lib64/python2.7/site-packages/ttystatus
copying /tmp/portage/dev-python/ttystatus-0.36/work/ttystatus-0.36-python2_7/lib/ttystatus/integer_tests.py -> /tmp/portage/dev-python/ttystatus-0.36/image/_python2.7/usr/lib64/python2.7/site-packages/ttystatus
copying /tmp/portage/dev-python/ttystatus-0.36/work/ttystatus-0.36-python2_7/lib/ttystatus/tty.py -> /tmp/portage/dev-python/ttystatus-0.36/image/_python2.7/usr/lib64/python2.7/site-packages/ttystatus
copying /tmp/portage/dev-python/ttystatus-0.36/work/ttystatus-0.36-python2_7/lib/ttystatus/fmt_tests.py -> /tmp/portage/dev-python/ttystatus-0.36/image/_python2.7/usr/lib64/python2.7/site-packages/ttystatus
copying /tmp/portage/dev-python/ttystatus-0.36/work/ttystatus-0.36-python2_7/lib/ttystatus/status_tests.py -> /tmp/portage/dev-python/ttystatus-0.36/image/_python2.7/usr/lib64/python2.7/site-packages/ttystatus
copying /tmp/portage/dev-python/ttystatus-0.36/work/ttystatus-0.36-python2_7/lib/ttystatus/remtime.py -> /tmp/portage/dev-python/ttystatus-0.36/image/_python2.7/usr/lib64/python2.7/site-packages/ttystatus
copying /tmp/portage/dev-python/ttystatus-0.36/work/ttystatus-0.36-python2_7/lib/ttystatus/string_tests.py -> /tmp/portage/dev-python/ttystatus-0.36/image/_python2.7/usr/lib64/python2.7/site-packages/ttystatus
copying /tmp/portage/dev-python/ttystatus-0.36/work/ttystatus-0.36-python2_7/lib/ttystatus/counter_tests.py -> /tmp/portage/dev-python/ttystatus-0.36/image/_python2.7/usr/lib64/python2.7/site-packages/ttystatus
copying /tmp/portage/dev-python/ttystatus-0.36/work/ttystatus-0.36-python2_7/lib/ttystatus/literal_tests.py -> /tmp/portage/dev-python/ttystatus-0.36/image/_python2.7/usr/lib64/python2.7/site-packages/ttystatus
copying /tmp/portage/dev-python/ttystatus-0.36/work/ttystatus-0.36-python2_7/lib/ttystatus/percent.py -> /tmp/portage/dev-python/ttystatus-0.36/image/_python2.7/usr/lib64/python2.7/site-packages/ttystatus
copying /tmp/portage/dev-python/ttystatus-0.36/work/ttystatus-0.36-python2_7/lib/ttystatus/string.py -> /tmp/portage/dev-python/ttystatus-0.36/image/_python2.7/usr/lib64/python2.7/site-packages/ttystatus
copying /tmp/portage/dev-python/ttystatus-0.36/work/ttystatus-0.36-python2_7/lib/ttystatus/elapsed.py -> /tmp/portage/dev-python/ttystatus-0.36/image/_python2.7/usr/lib64/python2.7/site-packages/ttystatus
copying /tmp/portage/dev-python/ttystatus-0.36/work/ttystatus-0.36-python2_7/lib/ttystatus/status.py -> /tmp/portage/dev-python/ttystatus-0.36/image/_python2.7/usr/lib64/python2.7/site-packages/ttystatus
copying /tmp/portage/dev-python/ttystatus-0.36/work/ttystatus-0.36-python2_7/lib/ttystatus/version.py -> /tmp/portage/dev-python/ttystatus-0.36/image/_python2.7/usr/lib64/python2.7/site-packages/ttystatus
copying /tmp/portage/dev-python/ttystatus-0.36/work/ttystatus-0.36-python2_7/lib/ttystatus/elapsed_tests.py -> /tmp/portage/dev-python/ttystatus-0.36/image/_python2.7/usr/lib64/python2.7/site-packages/ttystatus
copying /tmp/portage/dev-python/ttystatus-0.36/work/ttystatus-0.36-python2_7/lib/ttystatus/literal.py -> /tmp/portage/dev-python/ttystatus-0.36/image/_python2.7/usr/lib64/python2.7/site-packages/ttystatus
copying /tmp/portage/dev-python/ttystatus-0.36/work/ttystatus-0.36-python2_7/lib/ttystatus/index.py -> /tmp/portage/dev-python/ttystatus-0.36/image/_python2.7/usr/lib64/python2.7/site-packages/ttystatus
copying /tmp/portage/dev-python/ttystatus-0.36/work/ttystatus-0.36-python2_7/lib/ttystatus/integer.py -> /tmp/portage/dev-python/ttystatus-0.36/image/_python2.7/usr/lib64/python2.7/site-packages/ttystatus
copying /tmp/portage/dev-python/ttystatus-0.36/work/ttystatus-0.36-python2_7/lib/ttystatus/index_tests.py -> /tmp/portage/dev-python/ttystatus-0.36/image/_python2.7/usr/lib64/python2.7/site-packages/ttystatus
copying /tmp/portage/dev-python/ttystatus-0.36/work/ttystatus-0.36-python2_7/lib/ttystatus/bytesize_tests.py -> /tmp/portage/dev-python/ttystatus-0.36/image/_python2.7/usr/lib64/python2.7/site-packages/ttystatus
byte-compiling /tmp/portage/dev-python/ttystatus-0.36/image/_python2.7/usr/lib64/python2.7/site-packages/ttystatus/remtime_tests.py to remtime_tests.pyc
byte-compiling /tmp/portage/dev-python/ttystatus-0.36/image/_python2.7/usr/lib64/python2.7/site-packages/ttystatus/progressbar_tests.py to progressbar_tests.pyc
byte-compiling /tmp/portage/dev-python/ttystatus-0.36/image/_python2.7/usr/lib64/python2.7/site-packages/ttystatus/bytesize.py to bytesize.pyc
byte-compiling /tmp/portage/dev-python/ttystatus-0.36/image/_python2.7/usr/lib64/python2.7/site-packages/ttystatus/widget.py to widget.pyc
byte-compiling /tmp/portage/dev-python/ttystatus-0.36/image/_python2.7/usr/lib64/python2.7/site-packages/ttystatus/pathname_tests.py to pathname_tests.pyc
byte-compiling /tmp/portage/dev-python/ttystatus-0.36/image/_python2.7/usr/lib64/python2.7/site-packages/ttystatus/counter.py to counter.pyc
byte-compiling /tmp/portage/dev-python/ttystatus-0.36/image/_python2.7/usr/lib64/python2.7/site-packages/ttystatus/fmt.py to fmt.pyc
byte-compiling /tmp/portage/dev-python/ttystatus-0.36/image/_python2.7/usr/lib64/python2.7/site-packages/ttystatus/pathname.py to pathname.pyc
byte-compiling /tmp/portage/dev-python/ttystatus-0.36/image/_python2.7/usr/lib64/python2.7/site-packages/ttystatus/progressbar.py to progressbar.pyc
byte-compiling /tmp/portage/dev-python/ttystatus-0.36/image/_python2.7/usr/lib64/python2.7/site-packages/ttystatus/bytespeed.py to bytespeed.pyc
byte-compiling /tmp/portage/dev-python/ttystatus-0.36/image/_python2.7/usr/lib64/python2.7/site-packages/ttystatus/percent_tests.py to percent_tests.pyc
byte-compiling /tmp/portage/dev-python/ttystatus-0.36/image/_python2.7/usr/lib64/python2.7/site-packages/ttystatus/__init__.py to __init__.pyc
byte-compiling /tmp/portage/dev-python/ttystatus-0.36/image/_python2.7/usr/lib64/python2.7/site-packages/ttystatus/bytespeed_tests.py to bytespeed_tests.pyc
byte-compiling /tmp/portage/dev-python/ttystatus-0.36/image/_python2.7/usr/lib64/python2.7/site-packages/ttystatus/messager.py to messager.pyc
byte-compiling /tmp/portage/dev-python/ttystatus-0.36/image/_python2.7/usr/lib64/python2.7/site-packages/ttystatus/area.py to area.pyc
byte-compiling /tmp/portage/dev-python/ttystatus-0.36/image/_python2.7/usr/lib64/python2.7/site-packages/ttystatus/integer_tests.py to integer_tests.pyc
byte-compiling /tmp/portage/dev-python/ttystatus-0.36/image/_python2.7/usr/lib64/python2.7/site-packages/ttystatus/tty.py to tty.pyc
byte-compiling /tmp/portage/dev-python/ttystatus-0.36/image/_python2.7/usr/lib64/python2.7/site-packages/ttystatus/fmt_tests.py to fmt_tests.pyc
byte-compiling /tmp/portage/dev-python/ttystatus-0.36/image/_python2.7/usr/lib64/python2.7/site-packages/ttystatus/status_tests.py to status_tests.pyc
byte-compiling /tmp/portage/dev-python/ttystatus-0.36/image/_python2.7/usr/lib64/python2.7/site-packages/ttystatus/remtime.py to remtime.pyc
byte-compiling /tmp/portage/dev-python/ttystatus-0.36/image/_python2.7/usr/lib64/python2.7/site-packages/ttystatus/string_tests.py to string_tests.pyc
byte-compiling /tmp/portage/dev-python/ttystatus-0.36/image/_python2.7/usr/lib64/python2.7/site-packages/ttystatus/counter_tests.py to counter_tests.pyc
byte-compiling /tmp/portage/dev-python/ttystatus-0.36/image/_python2.7/usr/lib64/python2.7/site-packages/ttystatus/literal_tests.py to literal_tests.pyc
byte-compiling /tmp/portage/dev-python/ttystatus-0.36/image/_python2.7/usr/lib64/python2.7/site-packages/ttystatus/percent.py to percent.pyc
byte-compiling /tmp/portage/dev-python/ttystatus-0.36/image/_python2.7/usr/lib64/python2.7/site-packages/ttystatus/string.py to string.pyc
byte-compiling /tmp/portage/dev-python/ttystatus-0.36/image/_python2.7/usr/lib64/python2.7/site-packages/ttystatus/elapsed.py to elapsed.pyc
byte-compiling /tmp/portage/dev-python/ttystatus-0.36/image/_python2.7/usr/lib64/python2.7/site-packages/ttystatus/status.py to status.pyc
byte-compiling /tmp/portage/dev-python/ttystatus-0.36/image/_python2.7/usr/lib64/python2.7/site-packages/ttystatus/version.py to version.pyc
byte-compiling /tmp/portage/dev-python/ttystatus-0.36/image/_python2.7/usr/lib64/python2.7/site-packages/ttystatus/elapsed_tests.py to elapsed_tests.pyc
byte-compiling /tmp/portage/dev-python/ttystatus-0.36/image/_python2.7/usr/lib64/python2.7/site-packages/ttystatus/literal.py to literal.pyc
byte-compiling /tmp/portage/dev-python/ttystatus-0.36/image/_python2.7/usr/lib64/python2.7/site-packages/ttystatus/index.py to index.pyc
byte-compiling /tmp/portage/dev-python/ttystatus-0.36/image/_python2.7/usr/lib64/python2.7/site-packages/ttystatus/integer.py to integer.pyc
byte-compiling /tmp/portage/dev-python/ttystatus-0.36/image/_python2.7/usr/lib64/python2.7/site-packages/ttystatus/index_tests.py to index_tests.pyc
byte-compiling /tmp/portage/dev-python/ttystatus-0.36/image/_python2.7/usr/lib64/python2.7/site-packages/ttystatus/bytesize_tests.py to bytesize_tests.pyc
writing byte-compilation script '/tmp/portage/dev-python/ttystatus-0.36/temp/tmpHvBoxt.py'
/usr/bin/python2.7 -OO /tmp/portage/dev-python/ttystatus-0.36/temp/tmpHvBoxt.py
removing /tmp/portage/dev-python/ttystatus-0.36/temp/tmpHvBoxt.py
running install_egg_info
Writing /tmp/portage/dev-python/ttystatus-0.36/image/_python2.7/usr/lib64/python2.7/site-packages/ttystatus-0.36-py2.7.egg-info
 * python3_7: running distutils-r1_run_phase distutils-r1_python_install
python3.7 setup.py install --skip-build --root=/tmp/portage/dev-python/ttystatus-0.36/image/_python3.7
running install
running install_lib
creating /tmp/portage/dev-python/ttystatus-0.36/image/_python3.7
creating /tmp/portage/dev-python/ttystatus-0.36/image/_python3.7/usr
creating /tmp/portage/dev-python/ttystatus-0.36/image/_python3.7/usr/lib
creating /tmp/portage/dev-python/ttystatus-0.36/image/_python3.7/usr/lib/python3.7
creating /tmp/portage/dev-python/ttystatus-0.36/image/_python3.7/usr/lib/python3.7/site-packages
creating /tmp/portage/dev-python/ttystatus-0.36/image/_python3.7/usr/lib/python3.7/site-packages/ttystatus
copying /tmp/portage/dev-python/ttystatus-0.36/work/ttystatus-0.36-python3_7/lib/ttystatus/remtime_tests.py -> /tmp/portage/dev-python/ttystatus-0.36/image/_python3.7/usr/lib/python3.7/site-packages/ttystatus
copying /tmp/portage/dev-python/ttystatus-0.36/work/ttystatus-0.36-python3_7/lib/ttystatus/progressbar_tests.py -> /tmp/portage/dev-python/ttystatus-0.36/image/_python3.7/usr/lib/python3.7/site-packages/ttystatus
copying /tmp/portage/dev-python/ttystatus-0.36/work/ttystatus-0.36-python3_7/lib/ttystatus/bytesize.py -> /tmp/portage/dev-python/ttystatus-0.36/image/_python3.7/usr/lib/python3.7/site-packages/ttystatus
copying /tmp/portage/dev-python/ttystatus-0.36/work/ttystatus-0.36-python3_7/lib/ttystatus/widget.py -> /tmp/portage/dev-python/ttystatus-0.36/image/_python3.7/usr/lib/python3.7/site-packages/ttystatus
copying /tmp/portage/dev-python/ttystatus-0.36/work/ttystatus-0.36-python3_7/lib/ttystatus/pathname_tests.py -> /tmp/portage/dev-python/ttystatus-0.36/image/_python3.7/usr/lib/python3.7/site-packages/ttystatus
copying /tmp/portage/dev-python/ttystatus-0.36/work/ttystatus-0.36-python3_7/lib/ttystatus/counter.py -> /tmp/portage/dev-python/ttystatus-0.36/image/_python3.7/usr/lib/python3.7/site-packages/ttystatus
copying /tmp/portage/dev-python/ttystatus-0.36/work/ttystatus-0.36-python3_7/lib/ttystatus/fmt.py -> /tmp/portage/dev-python/ttystatus-0.36/image/_python3.7/usr/lib/python3.7/site-packages/ttystatus
copying /tmp/portage/dev-python/ttystatus-0.36/work/ttystatus-0.36-python3_7/lib/ttystatus/pathname.py -> /tmp/portage/dev-python/ttystatus-0.36/image/_python3.7/usr/lib/python3.7/site-packages/ttystatus
copying /tmp/portage/dev-python/ttystatus-0.36/work/ttystatus-0.36-python3_7/lib/ttystatus/progressbar.py -> /tmp/portage/dev-python/ttystatus-0.36/image/_python3.7/usr/lib/python3.7/site-packages/ttystatus
copying /tmp/portage/dev-python/ttystatus-0.36/work/ttystatus-0.36-python3_7/lib/ttystatus/bytespeed.py -> /tmp/portage/dev-python/ttystatus-0.36/image/_python3.7/usr/lib/python3.7/site-packages/ttystatus
copying /tmp/portage/dev-python/ttystatus-0.36/work/ttystatus-0.36-python3_7/lib/ttystatus/percent_tests.py -> /tmp/portage/dev-python/ttystatus-0.36/image/_python3.7/usr/lib/python3.7/site-packages/ttystatus
copying /tmp/portage/dev-python/ttystatus-0.36/work/ttystatus-0.36-python3_7/lib/ttystatus/__init__.py -> /tmp/portage/dev-python/ttystatus-0.36/image/_python3.7/usr/lib/python3.7/site-packages/ttystatus
copying /tmp/portage/dev-python/ttystatus-0.36/work/ttystatus-0.36-python3_7/lib/ttystatus/bytespeed_tests.py -> /tmp/portage/dev-python/ttystatus-0.36/image/_python3.7/usr/lib/python3.7/site-packages/ttystatus
copying /tmp/portage/dev-python/ttystatus-0.36/work/ttystatus-0.36-python3_7/lib/ttystatus/messager.py -> /tmp/portage/dev-python/ttystatus-0.36/image/_python3.7/usr/lib/python3.7/site-packages/ttystatus
copying /tmp/portage/dev-python/ttystatus-0.36/work/ttystatus-0.36-python3_7/lib/ttystatus/area.py -> /tmp/portage/dev-python/ttystatus-0.36/image/_python3.7/usr/lib/python3.7/site-packages/ttystatus
copying /tmp/portage/dev-python/ttystatus-0.36/work/ttystatus-0.36-python3_7/lib/ttystatus/integer_tests.py -> /tmp/portage/dev-python/ttystatus-0.36/image/_python3.7/usr/lib/python3.7/site-packages/ttystatus
copying /tmp/portage/dev-python/ttystatus-0.36/work/ttystatus-0.36-python3_7/lib/ttystatus/tty.py -> /tmp/portage/dev-python/ttystatus-0.36/image/_python3.7/usr/lib/python3.7/site-packages/ttystatus
copying /tmp/portage/dev-python/ttystatus-0.36/work/ttystatus-0.36-python3_7/lib/ttystatus/fmt_tests.py -> /tmp/portage/dev-python/ttystatus-0.36/image/_python3.7/usr/lib/python3.7/site-packages/ttystatus
copying /tmp/portage/dev-python/ttystatus-0.36/work/ttystatus-0.36-python3_7/lib/ttystatus/status_tests.py -> /tmp/portage/dev-python/ttystatus-0.36/image/_python3.7/usr/lib/python3.7/site-packages/ttystatus
copying /tmp/portage/dev-python/ttystatus-0.36/work/ttystatus-0.36-python3_7/lib/ttystatus/remtime.py -> /tmp/portage/dev-python/ttystatus-0.36/image/_python3.7/usr/lib/python3.7/site-packages/ttystatus
copying /tmp/portage/dev-python/ttystatus-0.36/work/ttystatus-0.36-python3_7/lib/ttystatus/string_tests.py -> /tmp/portage/dev-python/ttystatus-0.36/image/_python3.7/usr/lib/python3.7/site-packages/ttystatus
copying /tmp/portage/dev-python/ttystatus-0.36/work/ttystatus-0.36-python3_7/lib/ttystatus/counter_tests.py -> /tmp/portage/dev-python/ttystatus-0.36/image/_python3.7/usr/lib/python3.7/site-packages/ttystatus
copying /tmp/portage/dev-python/ttystatus-0.36/work/ttystatus-0.36-python3_7/lib/ttystatus/literal_tests.py -> /tmp/portage/dev-python/ttystatus-0.36/image/_python3.7/usr/lib/python3.7/site-packages/ttystatus
copying /tmp/portage/dev-python/ttystatus-0.36/work/ttystatus-0.36-python3_7/lib/ttystatus/percent.py -> /tmp/portage/dev-python/ttystatus-0.36/image/_python3.7/usr/lib/python3.7/site-packages/ttystatus
copying /tmp/portage/dev-python/ttystatus-0.36/work/ttystatus-0.36-python3_7/lib/ttystatus/string.py -> /tmp/portage/dev-python/ttystatus-0.36/image/_python3.7/usr/lib/python3.7/site-packages/ttystatus
copying /tmp/portage/dev-python/ttystatus-0.36/work/ttystatus-0.36-python3_7/lib/ttystatus/elapsed.py -> /tmp/portage/dev-python/ttystatus-0.36/image/_python3.7/usr/lib/python3.7/site-packages/ttystatus
copying /tmp/portage/dev-python/ttystatus-0.36/work/ttystatus-0.36-python3_7/lib/ttystatus/status.py -> /tmp/portage/dev-python/ttystatus-0.36/image/_python3.7/usr/lib/python3.7/site-packages/ttystatus
copying /tmp/portage/dev-python/ttystatus-0.36/work/ttystatus-0.36-python3_7/lib/ttystatus/version.py -> /tmp/portage/dev-python/ttystatus-0.36/image/_python3.7/usr/lib/python3.7/site-packages/ttystatus
copying /tmp/portage/dev-python/ttystatus-0.36/work/ttystatus-0.36-python3_7/lib/ttystatus/elapsed_tests.py -> /tmp/portage/dev-python/ttystatus-0.36/image/_python3.7/usr/lib/python3.7/site-packages/ttystatus
copying /tmp/portage/dev-python/ttystatus-0.36/work/ttystatus-0.36-python3_7/lib/ttystatus/literal.py -> /tmp/portage/dev-python/ttystatus-0.36/image/_python3.7/usr/lib/python3.7/site-packages/ttystatus
copying /tmp/portage/dev-python/ttystatus-0.36/work/ttystatus-0.36-python3_7/lib/ttystatus/index.py -> /tmp/portage/dev-python/ttystatus-0.36/image/_python3.7/usr/lib/python3.7/site-packages/ttystatus
copying /tmp/portage/dev-python/ttystatus-0.36/work/ttystatus-0.36-python3_7/lib/ttystatus/integer.py -> /tmp/portage/dev-python/ttystatus-0.36/image/_python3.7/usr/lib/python3.7/site-packages/ttystatus
copying /tmp/portage/dev-python/ttystatus-0.36/work/ttystatus-0.36-python3_7/lib/ttystatus/index_tests.py -> /tmp/portage/dev-python/ttystatus-0.36/image/_python3.7/usr/lib/python3.7/site-packages/ttystatus
copying /tmp/portage/dev-python/ttystatus-0.36/work/ttystatus-0.36-python3_7/lib/ttystatus/bytesize_tests.py -> /tmp/portage/dev-python/ttystatus-0.36/image/_python3.7/usr/lib/python3.7/site-packages/ttystatus
byte-compiling /tmp/portage/dev-python/ttystatus-0.36/image/_python3.7/usr/lib/python3.7/site-packages/ttystatus/remtime_tests.py to remtime_tests.cpython-37.pyc
byte-compiling /tmp/portage/dev-python/ttystatus-0.36/image/_python3.7/usr/lib/python3.7/site-packages/ttystatus/progressbar_tests.py to progressbar_tests.cpython-37.pyc
byte-compiling /tmp/portage/dev-python/ttystatus-0.36/image/_python3.7/usr/lib/python3.7/site-packages/ttystatus/bytesize.py to bytesize.cpython-37.pyc
byte-compiling /tmp/portage/dev-python/ttystatus-0.36/image/_python3.7/usr/lib/python3.7/site-packages/ttystatus/widget.py to widget.cpython-37.pyc
byte-compiling /tmp/portage/dev-python/ttystatus-0.36/image/_python3.7/usr/lib/python3.7/site-packages/ttystatus/pathname_tests.py to pathname_tests.cpython-37.pyc
byte-compiling /tmp/portage/dev-python/ttystatus-0.36/image/_python3.7/usr/lib/python3.7/site-packages/ttystatus/counter.py to counter.cpython-37.pyc
byte-compiling /tmp/portage/dev-python/ttystatus-0.36/image/_python3.7/usr/lib/python3.7/site-packages/ttystatus/fmt.py to fmt.cpython-37.pyc
byte-compiling /tmp/portage/dev-python/ttystatus-0.36/image/_python3.7/usr/lib/python3.7/site-packages/ttystatus/pathname.py to pathname.cpython-37.pyc
byte-compiling /tmp/portage/dev-python/ttystatus-0.36/image/_python3.7/usr/lib/python3.7/site-packages/ttystatus/progressbar.py to progressbar.cpython-37.pyc
byte-compiling /tmp/portage/dev-python/ttystatus-0.36/image/_python3.7/usr/lib/python3.7/site-packages/ttystatus/bytespeed.py to bytespeed.cpython-37.pyc
byte-compiling /tmp/portage/dev-python/ttystatus-0.36/image/_python3.7/usr/lib/python3.7/site-packages/ttystatus/percent_tests.py to percent_tests.cpython-37.pyc
byte-compiling /tmp/portage/dev-python/ttystatus-0.36/image/_python3.7/usr/lib/python3.7/site-packages/ttystatus/__init__.py to __init__.cpython-37.pyc
byte-compiling /tmp/portage/dev-python/ttystatus-0.36/image/_python3.7/usr/lib/python3.7/site-packages/ttystatus/bytespeed_tests.py to bytespeed_tests.cpython-37.pyc
byte-compiling /tmp/portage/dev-python/ttystatus-0.36/image/_python3.7/usr/lib/python3.7/site-packages/ttystatus/messager.py to messager.cpython-37.pyc
byte-compiling /tmp/portage/dev-python/ttystatus-0.36/image/_python3.7/usr/lib/python3.7/site-packages/ttystatus/area.py to area.cpython-37.pyc
byte-compiling /tmp/portage/dev-python/ttystatus-0.36/image/_python3.7/usr/lib/python3.7/site-packages/ttystatus/integer_tests.py to integer_tests.cpython-37.pyc
byte-compiling /tmp/portage/dev-python/ttystatus-0.36/image/_python3.7/usr/lib/python3.7/site-packages/ttystatus/tty.py to tty.cpython-37.pyc
byte-compiling /tmp/portage/dev-python/ttystatus-0.36/image/_python3.7/usr/lib/python3.7/site-packages/ttystatus/fmt_tests.py to fmt_tests.cpython-37.pyc
byte-compiling /tmp/portage/dev-python/ttystatus-0.36/image/_python3.7/usr/lib/python3.7/site-packages/ttystatus/status_tests.py to status_tests.cpython-37.pyc
byte-compiling /tmp/portage/dev-python/ttystatus-0.36/image/_python3.7/usr/lib/python3.7/site-packages/ttystatus/remtime.py to remtime.cpython-37.pyc
byte-compiling /tmp/portage/dev-python/ttystatus-0.36/image/_python3.7/usr/lib/python3.7/site-packages/ttystatus/string_tests.py to string_tests.cpython-37.pyc
byte-compiling /tmp/portage/dev-python/ttystatus-0.36/image/_python3.7/usr/lib/python3.7/site-packages/ttystatus/counter_tests.py to counter_tests.cpython-37.pyc
byte-compiling /tmp/portage/dev-python/ttystatus-0.36/image/_python3.7/usr/lib/python3.7/site-packages/ttystatus/literal_tests.py to literal_tests.cpython-37.pyc
byte-compiling /tmp/portage/dev-python/ttystatus-0.36/image/_python3.7/usr/lib/python3.7/site-packages/ttystatus/percent.py to percent.cpython-37.pyc
byte-compiling /tmp/portage/dev-python/ttystatus-0.36/image/_python3.7/usr/lib/python3.7/site-packages/ttystatus/string.py to string.cpython-37.pyc
byte-compiling /tmp/portage/dev-python/ttystatus-0.36/image/_python3.7/usr/lib/python3.7/site-packages/ttystatus/elapsed.py to elapsed.cpython-37.pyc
byte-compiling /tmp/portage/dev-python/ttystatus-0.36/image/_python3.7/usr/lib/python3.7/site-packages/ttystatus/status.py to status.cpython-37.pyc
byte-compiling /tmp/portage/dev-python/ttystatus-0.36/image/_python3.7/usr/lib/python3.7/site-packages/ttystatus/version.py to version.cpython-37.pyc
byte-compiling /tmp/portage/dev-python/ttystatus-0.36/image/_python3.7/usr/lib/python3.7/site-packages/ttystatus/elapsed_tests.py to elapsed_tests.cpython-37.pyc
byte-compiling /tmp/portage/dev-python/ttystatus-0.36/image/_python3.7/usr/lib/python3.7/site-packages/ttystatus/literal.py to literal.cpython-37.pyc
byte-compiling /tmp/portage/dev-python/ttystatus-0.36/image/_python3.7/usr/lib/python3.7/site-packages/ttystatus/index.py to index.cpython-37.pyc
byte-compiling /tmp/portage/dev-python/ttystatus-0.36/image/_python3.7/usr/lib/python3.7/site-packages/ttystatus/integer.py to integer.cpython-37.pyc
byte-compiling /tmp/portage/dev-python/ttystatus-0.36/image/_python3.7/usr/lib/python3.7/site-packages/ttystatus/index_tests.py to index_tests.cpython-37.pyc
byte-compiling /tmp/portage/dev-python/ttystatus-0.36/image/_python3.7/usr/lib/python3.7/site-packages/ttystatus/bytesize_tests.py to bytesize_tests.cpython-37.pyc
writing byte-compilation script '/tmp/portage/dev-python/ttystatus-0.36/temp/tmpklutbm9g.py'
/usr/bin/python3.7 /tmp/portage/dev-python/ttystatus-0.36/temp/tmpklutbm9g.py
removing /tmp/portage/dev-python/ttystatus-0.36/temp/tmpklutbm9g.py
writing byte-compilation script '/tmp/portage/dev-python/ttystatus-0.36/temp/tmprz_x2vsh.py'
/usr/bin/python3.7 /tmp/portage/dev-python/ttystatus-0.36/temp/tmprz_x2vsh.py
removing /tmp/portage/dev-python/ttystatus-0.36/temp/tmprz_x2vsh.py
running install_egg_info
Writing /tmp/portage/dev-python/ttystatus-0.36/image/_python3.7/usr/lib/python3.7/site-packages/ttystatus-0.36-py3.7.egg-info
 * Using python3.7 in global scope
 * python3_7: running distutils-r1_run_phase distutils-r1_python_install_all
>>> Completed installing dev-python/ttystatus-0.36 into /tmp/portage/dev-python/ttystatus-0.36/image

 * Final size of build directory:  780 KiB
 * Final size of installed tree:  1128 KiB (1.1 MiB)

 * Verifying compiled files in /usr/lib64/python2.7/site-packages
 * Verifying compiled files in /usr/lib/python3.7/site-packages
./
./usr/
./usr/lib/
./usr/lib/python3.7/
./usr/lib/python3.7/site-packages/
./usr/lib/python3.7/site-packages/ttystatus/
./usr/lib/python3.7/site-packages/ttystatus/remtime_tests.py
./usr/lib/python3.7/site-packages/ttystatus/progressbar_tests.py
./usr/lib/python3.7/site-packages/ttystatus/bytesize.py
./usr/lib/python3.7/site-packages/ttystatus/widget.py
./usr/lib/python3.7/site-packages/ttystatus/pathname_tests.py
./usr/lib/python3.7/site-packages/ttystatus/counter.py
./usr/lib/python3.7/site-packages/ttystatus/fmt.py
./usr/lib/python3.7/site-packages/ttystatus/pathname.py
./usr/lib/python3.7/site-packages/ttystatus/progressbar.py
./usr/lib/python3.7/site-packages/ttystatus/bytespeed.py
./usr/lib/python3.7/site-packages/ttystatus/percent_tests.py
./usr/lib/python3.7/site-packages/ttystatus/__init__.py
./usr/lib/python3.7/site-packages/ttystatus/bytespeed_tests.py
./usr/lib/python3.7/site-packages/ttystatus/messager.py
./usr/lib/python3.7/site-packages/ttystatus/area.py
./usr/lib/python3.7/site-packages/ttystatus/integer_tests.py
./usr/lib/python3.7/site-packages/ttystatus/tty.py
./usr/lib/python3.7/site-packages/ttystatus/fmt_tests.py
./usr/lib/python3.7/site-packages/ttystatus/status_tests.py
./usr/lib/python3.7/site-packages/ttystatus/remtime.py
./usr/lib/python3.7/site-packages/ttystatus/string_tests.py
./usr/lib/python3.7/site-packages/ttystatus/counter_tests.py
./usr/lib/python3.7/site-packages/ttystatus/literal_tests.py
./usr/lib/python3.7/site-packages/ttystatus/percent.py
./usr/lib/python3.7/site-packages/ttystatus/string.py
./usr/lib/python3.7/site-packages/ttystatus/__pycache__/
./usr/lib/python3.7/site-packages/ttystatus/__pycache__/remtime.cpython-37.opt-2.pyc
./usr/lib/python3.7/site-packages/ttystatus/__pycache__/literal.cpython-37.opt-1.pyc
./usr/lib/python3.7/site-packages/ttystatus/__pycache__/pathname.cpython-37.opt-2.pyc
./usr/lib/python3.7/site-packages/ttystatus/__pycache__/elapsed.cpython-37.pyc
./usr/lib/python3.7/site-packages/ttystatus/__pycache__/progressbar.cpython-37.opt-1.pyc
./usr/lib/python3.7/site-packages/ttystatus/__pycache__/remtime.cpython-37.opt-1.pyc
./usr/lib/python3.7/site-packages/ttystatus/__pycache__/status.cpython-37.pyc
./usr/lib/python3.7/site-packages/ttystatus/__pycache__/literal_tests.cpython-37.opt-2.pyc
./usr/lib/python3.7/site-packages/ttystatus/__pycache__/elapsed_tests.cpython-37.pyc
./usr/lib/python3.7/site-packages/ttystatus/__pycache__/elapsed.cpython-37.opt-1.pyc
./usr/lib/python3.7/site-packages/ttystatus/__pycache__/pathname.cpython-37.pyc
./usr/lib/python3.7/site-packages/ttystatus/__pycache__/string_tests.cpython-37.opt-2.pyc
./usr/lib/python3.7/site-packages/ttystatus/__pycache__/progressbar.cpython-37.pyc
./usr/lib/python3.7/site-packages/ttystatus/__pycache__/elapsed_tests.cpython-37.opt-2.pyc
./usr/lib/python3.7/site-packages/ttystatus/__pycache__/index_tests.cpython-37.pyc
./usr/lib/python3.7/site-packages/ttystatus/__pycache__/pathname_tests.cpython-37.opt-2.pyc
./usr/lib/python3.7/site-packages/ttystatus/__pycache__/bytesize.cpython-37.opt-2.pyc
./usr/lib/python3.7/site-packages/ttystatus/__pycache__/literal_tests.cpython-37.opt-1.pyc
./usr/lib/python3.7/site-packages/ttystatus/__pycache__/messager.cpython-37.pyc
./usr/lib/python3.7/site-packages/ttystatus/__pycache__/string.cpython-37.opt-2.pyc
./usr/lib/python3.7/site-packages/ttystatus/__pycache__/index.cpython-37.pyc
./usr/lib/python3.7/site-packages/ttystatus/__pycache__/area.cpython-37.opt-2.pyc
./usr/lib/python3.7/site-packages/ttystatus/__pycache__/literal.cpython-37.opt-2.pyc
./usr/lib/python3.7/site-packages/ttystatus/__pycache__/widget.cpython-37.pyc
./usr/lib/python3.7/site-packages/ttystatus/__pycache__/status_tests.cpython-37.pyc
./usr/lib/python3.7/site-packages/ttystatus/__pycache__/percent.cpython-37.opt-1.pyc
./usr/lib/python3.7/site-packages/ttystatus/__pycache__/percent.cpython-37.opt-2.pyc
./usr/lib/python3.7/site-packages/ttystatus/__pycache__/bytesize_tests.cpython-37.opt-2.pyc
./usr/lib/python3.7/site-packages/ttystatus/__pycache__/bytespeed_tests.cpython-37.opt-2.pyc
./usr/lib/python3.7/site-packages/ttystatus/__pycache__/bytespeed_tests.cpython-37.opt-1.pyc
./usr/lib/python3.7/site-packages/ttystatus/__pycache__/elapsed.cpython-37.opt-2.pyc
./usr/lib/python3.7/site-packages/ttystatus/__pycache__/integer.cpython-37.opt-1.pyc
./usr/lib/python3.7/site-packages/ttystatus/__pycache__/progressbar_tests.cpython-37.pyc
./usr/lib/python3.7/site-packages/ttystatus/__pycache__/integer_tests.cpython-37.opt-2.pyc
./usr/lib/python3.7/site-packages/ttystatus/__pycache__/widget.cpython-37.opt-2.pyc
./usr/lib/python3.7/site-packages/ttystatus/__pycache__/bytesize_tests.cpython-37.opt-1.pyc
./usr/lib/python3.7/site-packages/ttystatus/__pycache__/string_tests.cpython-37.pyc
./usr/lib/python3.7/site-packages/ttystatus/__pycache__/counter.cpython-37.opt-2.pyc
./usr/lib/python3.7/site-packages/ttystatus/__pycache__/tty.cpython-37.opt-1.pyc
./usr/lib/python3.7/site-packages/ttystatus/__pycache__/tty.cpython-37.opt-2.pyc
./usr/lib/python3.7/site-packages/ttystatus/__pycache__/remtime_tests.cpython-37.opt-2.pyc
./usr/lib/python3.7/site-packages/ttystatus/__pycache__/percent_tests.cpython-37.opt-2.pyc
./usr/lib/python3.7/site-packages/ttystatus/__pycache__/bytespeed.cpython-37.opt-1.pyc
./usr/lib/python3.7/site-packages/ttystatus/__pycache__/messager.cpython-37.opt-1.pyc
./usr/lib/python3.7/site-packages/ttystatus/__pycache__/fmt.cpython-37.pyc
./usr/lib/python3.7/site-packages/ttystatus/__pycache__/area.cpython-37.opt-1.pyc
./usr/lib/python3.7/site-packages/ttystatus/__pycache__/integer.cpython-37.pyc
./usr/lib/python3.7/site-packages/ttystatus/__pycache__/fmt_tests.cpython-37.pyc
./usr/lib/python3.7/site-packages/ttystatus/__pycache__/__init__.cpython-37.opt-1.pyc
./usr/lib/python3.7/site-packages/ttystatus/__pycache__/integer_tests.cpython-37.pyc
./usr/lib/python3.7/site-packages/ttystatus/__pycache__/bytesize.cpython-37.pyc
./usr/lib/python3.7/site-packages/ttystatus/__pycache__/fmt_tests.cpython-37.opt-2.pyc
./usr/lib/python3.7/site-packages/ttystatus/__pycache__/__init__.cpython-37.opt-2.pyc
./usr/lib/python3.7/site-packages/ttystatus/__pycache__/pathname_tests.cpython-37.opt-1.pyc
./usr/lib/python3.7/site-packages/ttystatus/__pycache__/percent_tests.cpython-37.opt-1.pyc
./usr/lib/python3.7/site-packages/ttystatus/__pycache__/tty.cpython-37.pyc
./usr/lib/python3.7/site-packages/ttystatus/__pycache__/elapsed_tests.cpython-37.opt-1.pyc
./usr/lib/python3.7/site-packages/ttystatus/__pycache__/status.cpython-37.opt-1.pyc
./usr/lib/python3.7/site-packages/ttystatus/__pycache__/fmt.cpython-37.opt-1.pyc
./usr/lib/python3.7/site-packages/ttystatus/__pycache__/bytespeed.cpython-37.opt-2.pyc
./usr/lib/python3.7/site-packages/ttystatus/__pycache__/counter_tests.cpython-37.opt-1.pyc
./usr/lib/python3.7/site-packages/ttystatus/__pycache__/index.cpython-37.opt-1.pyc
./usr/lib/python3.7/site-packages/ttystatus/__pycache__/area.cpython-37.pyc
./usr/lib/python3.7/site-packages/ttystatus/__pycache__/literal_tests.cpython-37.pyc
./usr/lib/python3.7/site-packages/ttystatus/__pycache__/literal.cpython-37.pyc
./usr/lib/python3.7/site-packages/ttystatus/__pycache__/messager.cpython-37.opt-2.pyc
./usr/lib/python3.7/site-packages/ttystatus/__pycache__/index.cpython-37.opt-2.pyc
./usr/lib/python3.7/site-packages/ttystatus/__pycache__/counter.cpython-37.opt-1.pyc
./usr/lib/python3.7/site-packages/ttystatus/__pycache__/bytesize_tests.cpython-37.pyc
./usr/lib/python3.7/site-packages/ttystatus/__pycache__/fmt_tests.cpython-37.opt-1.pyc
./usr/lib/python3.7/site-packages/ttystatus/__pycache__/integer_tests.cpython-37.opt-1.pyc
./usr/lib/python3.7/site-packages/ttystatus/__pycache__/index_tests.cpython-37.opt-1.pyc
./usr/lib/python3.7/site-packages/ttystatus/__pycache__/widget.cpython-37.opt-1.pyc
./usr/lib/python3.7/site-packages/ttystatus/__pycache__/remtime_tests.cpython-37.pyc
./usr/lib/python3.7/site-packages/ttystatus/__pycache__/percent_tests.cpython-37.pyc
./usr/lib/python3.7/site-packages/ttystatus/__pycache__/integer.cpython-37.opt-2.pyc
./usr/lib/python3.7/site-packages/ttystatus/__pycache__/status_tests.cpython-37.opt-1.pyc
./usr/lib/python3.7/site-packages/ttystatus/__pycache__/counter_tests.cpython-37.pyc
./usr/lib/python3.7/site-packages/ttystatus/__pycache__/remtime_tests.cpython-37.opt-1.pyc
./usr/lib/python3.7/site-packages/ttystatus/__pycache__/bytesize.cpython-37.opt-1.pyc
./usr/lib/python3.7/site-packages/ttystatus/__pycache__/pathname_tests.cpython-37.pyc
./usr/lib/python3.7/site-packages/ttystatus/__pycache__/bytespeed_tests.cpython-37.pyc
./usr/lib/python3.7/site-packages/ttystatus/__pycache__/percent.cpython-37.pyc
./usr/lib/python3.7/site-packages/ttystatus/__pycache__/bytespeed.cpython-37.pyc
./usr/lib/python3.7/site-packages/ttystatus/__pycache__/string_tests.cpython-37.opt-1.pyc
./usr/lib/python3.7/site-packages/ttystatus/__pycache__/version.cpython-37.opt-1.pyc
./usr/lib/python3.7/site-packages/ttystatus/__pycache__/__init__.cpython-37.pyc
./usr/lib/python3.7/site-packages/ttystatus/__pycache__/fmt.cpython-37.opt-2.pyc
./usr/lib/python3.7/site-packages/ttystatus/__pycache__/index_tests.cpython-37.opt-2.pyc
./usr/lib/python3.7/site-packages/ttystatus/__pycache__/status_tests.cpython-37.opt-2.pyc
./usr/lib/python3.7/site-packages/ttystatus/__pycache__/remtime.cpython-37.pyc
./usr/lib/python3.7/site-packages/ttystatus/__pycache__/string.cpython-37.pyc
./usr/lib/python3.7/site-packages/ttystatus/__pycache__/version.cpython-37.pyc
./usr/lib/python3.7/site-packages/ttystatus/__pycache__/counter.cpython-37.pyc
./usr/lib/python3.7/site-packages/ttystatus/__pycache__/progressbar.cpython-37.opt-2.pyc
./usr/lib/python3.7/site-packages/ttystatus/__pycache__/counter_tests.cpython-37.opt-2.pyc
./usr/lib/python3.7/site-packages/ttystatus/__pycache__/status.cpython-37.opt-2.pyc
./usr/lib/python3.7/site-packages/ttystatus/__pycache__/string.cpython-37.opt-1.pyc
./usr/lib/python3.7/site-packages/ttystatus/__pycache__/progressbar_tests.cpython-37.opt-2.pyc
./usr/lib/python3.7/site-packages/ttystatus/__pycache__/pathname.cpython-37.opt-1.pyc
./usr/lib/python3.7/site-packages/ttystatus/__pycache__/version.cpython-37.opt-2.pyc
./usr/lib/python3.7/site-packages/ttystatus/__pycache__/progressbar_tests.cpython-37.opt-1.pyc
./usr/lib/python3.7/site-packages/ttystatus/elapsed.py
./usr/lib/python3.7/site-packages/ttystatus/status.py
./usr/lib/python3.7/site-packages/ttystatus/version.py
./usr/lib/python3.7/site-packages/ttystatus/elapsed_tests.py
./usr/lib/python3.7/site-packages/ttystatus/literal.py
./usr/lib/python3.7/site-packages/ttystatus/index.py
./usr/lib/python3.7/site-packages/ttystatus/integer.py
./usr/lib/python3.7/site-packages/ttystatus/index_tests.py
./usr/lib/python3.7/site-packages/ttystatus/bytesize_tests.py
./usr/lib/python3.7/site-packages/ttystatus-0.36-py3.7.egg-info
./usr/share/
./usr/share/doc/
./usr/share/doc/ttystatus-0.36/
./usr/share/doc/ttystatus-0.36/README.bz2
./usr/share/doc/ttystatus-0.36/NEWS.bz2
./usr/lib64/
./usr/lib64/python2.7/
./usr/lib64/python2.7/site-packages/
./usr/lib64/python2.7/site-packages/ttystatus-0.36-py2.7.egg-info
./usr/lib64/python2.7/site-packages/ttystatus/
./usr/lib64/python2.7/site-packages/ttystatus/remtime_tests.py
./usr/lib64/python2.7/site-packages/ttystatus/literal.pyo
./usr/lib64/python2.7/site-packages/ttystatus/progressbar_tests.py
./usr/lib64/python2.7/site-packages/ttystatus/remtime_tests.pyo
./usr/lib64/python2.7/site-packages/ttystatus/counter_tests.pyo
./usr/lib64/python2.7/site-packages/ttystatus/bytesize.py
./usr/lib64/python2.7/site-packages/ttystatus/bytesize_tests.pyo
./usr/lib64/python2.7/site-packages/ttystatus/tty.pyo
./usr/lib64/python2.7/site-packages/ttystatus/widget.py
./usr/lib64/python2.7/site-packages/ttystatus/messager.pyo
./usr/lib64/python2.7/site-packages/ttystatus/pathname_tests.py
./usr/lib64/python2.7/site-packages/ttystatus/__init__.pyo
./usr/lib64/python2.7/site-packages/ttystatus/counter.py
./usr/lib64/python2.7/site-packages/ttystatus/fmt.py
./usr/lib64/python2.7/site-packages/ttystatus/pathname.py
./usr/lib64/python2.7/site-packages/ttystatus/progressbar.py
./usr/lib64/python2.7/site-packages/ttystatus/integer_tests.pyo
./usr/lib64/python2.7/site-packages/ttystatus/bytespeed.py
./usr/lib64/python2.7/site-packages/ttystatus/area.pyc
./usr/lib64/python2.7/site-packages/ttystatus/percent_tests.py
./usr/lib64/python2.7/site-packages/ttystatus/counter.pyc
./usr/lib64/python2.7/site-packages/ttystatus/tty.pyc
./usr/lib64/python2.7/site-packages/ttystatus/__init__.py
./usr/lib64/python2.7/site-packages/ttystatus/bytespeed_tests.py
./usr/lib64/python2.7/site-packages/ttystatus/messager.py
./usr/lib64/python2.7/site-packages/ttystatus/area.py
./usr/lib64/python2.7/site-packages/ttystatus/counter_tests.pyc
./usr/lib64/python2.7/site-packages/ttystatus/remtime.pyc
./usr/lib64/python2.7/site-packages/ttystatus/bytespeed_tests.pyo
./usr/lib64/python2.7/site-packages/ttystatus/integer_tests.py
./usr/lib64/python2.7/site-packages/ttystatus/bytespeed.pyo
./usr/lib64/python2.7/site-packages/ttystatus/fmt.pyo
./usr/lib64/python2.7/site-packages/ttystatus/remtime_tests.pyc
./usr/lib64/python2.7/site-packages/ttystatus/percent_tests.pyo
./usr/lib64/python2.7/site-packages/ttystatus/index_tests.pyc
./usr/lib64/python2.7/site-packages/ttystatus/bytespeed.pyc
./usr/lib64/python2.7/site-packages/ttystatus/pathname.pyc
./usr/lib64/python2.7/site-packages/ttystatus/progressbar.pyo
./usr/lib64/python2.7/site-packages/ttystatus/tty.py
./usr/lib64/python2.7/site-packages/ttystatus/fmt_tests.py
./usr/lib64/python2.7/site-packages/ttystatus/percent.pyc
./usr/lib64/python2.7/site-packages/ttystatus/elapsed.pyo
./usr/lib64/python2.7/site-packages/ttystatus/percent_tests.pyc
./usr/lib64/python2.7/site-packages/ttystatus/status_tests.py
./usr/lib64/python2.7/site-packages/ttystatus/string.pyo
./usr/lib64/python2.7/site-packages/ttystatus/fmt.pyc
./usr/lib64/python2.7/site-packages/ttystatus/fmt_tests.pyo
./usr/lib64/python2.7/site-packages/ttystatus/remtime.py
./usr/lib64/python2.7/site-packages/ttystatus/fmt_tests.pyc
./usr/lib64/python2.7/site-packages/ttystatus/string_tests.py
./usr/lib64/python2.7/site-packages/ttystatus/counter_tests.py
./usr/lib64/python2.7/site-packages/ttystatus/literal_tests.py
./usr/lib64/python2.7/site-packages/ttystatus/percent.py
./usr/lib64/python2.7/site-packages/ttystatus/percent.pyo
./usr/lib64/python2.7/site-packages/ttystatus/elapsed.pyc
./usr/lib64/python2.7/site-packages/ttystatus/pathname_tests.pyc
./usr/lib64/python2.7/site-packages/ttystatus/literal_tests.pyo
./usr/lib64/python2.7/site-packages/ttystatus/literal.pyc
./usr/lib64/python2.7/site-packages/ttystatus/string.py
./usr/lib64/python2.7/site-packages/ttystatus/string.pyc
./usr/lib64/python2.7/site-packages/ttystatus/remtime.pyo
./usr/lib64/python2.7/site-packages/ttystatus/version.pyo
./usr/lib64/python2.7/site-packages/ttystatus/bytesize.pyc
./usr/lib64/python2.7/site-packages/ttystatus/elapsed.py
./usr/lib64/python2.7/site-packages/ttystatus/status.py
./usr/lib64/python2.7/site-packages/ttystatus/elapsed_tests.pyo
./usr/lib64/python2.7/site-packages/ttystatus/progressbar.pyc
./usr/lib64/python2.7/site-packages/ttystatus/integer.pyc
./usr/lib64/python2.7/site-packages/ttystatus/widget.pyc
./usr/lib64/python2.7/site-packages/ttystatus/literal_tests.pyc
./usr/lib64/python2.7/site-packages/ttystatus/version.py
./usr/lib64/python2.7/site-packages/ttystatus/elapsed_tests.py
./usr/lib64/python2.7/site-packages/ttystatus/integer.pyo
./usr/lib64/python2.7/site-packages/ttystatus/progressbar_tests.pyo
./usr/lib64/python2.7/site-packages/ttystatus/status_tests.pyc
./usr/lib64/python2.7/site-packages/ttystatus/pathname_tests.pyo
./usr/lib64/python2.7/site-packages/ttystatus/literal.py
./usr/lib64/python2.7/site-packages/ttystatus/index_tests.pyo
./usr/lib64/python2.7/site-packages/ttystatus/counter.pyo
./usr/lib64/python2.7/site-packages/ttystatus/index.py
./usr/lib64/python2.7/site-packages/ttystatus/bytespeed_tests.pyc
./usr/lib64/python2.7/site-packages/ttystatus/index.pyc
./usr/lib64/python2.7/site-packages/ttystatus/widget.pyo
./usr/lib64/python2.7/site-packages/ttystatus/integer_tests.pyc
./usr/lib64/python2.7/site-packages/ttystatus/elapsed_tests.pyc
./usr/lib64/python2.7/site-packages/ttystatus/string_tests.pyc
./usr/lib64/python2.7/site-packages/ttystatus/version.pyc
./usr/lib64/python2.7/site-packages/ttystatus/bytesize.pyo
./usr/lib64/python2.7/site-packages/ttystatus/string_tests.pyo
./usr/lib64/python2.7/site-packages/ttystatus/integer.py
./usr/lib64/python2.7/site-packages/ttystatus/progressbar_tests.pyc
./usr/lib64/python2.7/site-packages/ttystatus/messager.pyc
./usr/lib64/python2.7/site-packages/ttystatus/status.pyo
./usr/lib64/python2.7/site-packages/ttystatus/index_tests.py
./usr/lib64/python2.7/site-packages/ttystatus/bytesize_tests.pyc
./usr/lib64/python2.7/site-packages/ttystatus/bytesize_tests.py
./usr/lib64/python2.7/site-packages/ttystatus/__init__.pyc
./usr/lib64/python2.7/site-packages/ttystatus/status_tests.pyo
./usr/lib64/python2.7/site-packages/ttystatus/status.pyc
./usr/lib64/python2.7/site-packages/ttystatus/index.pyo
./usr/lib64/python2.7/site-packages/ttystatus/area.pyo
./usr/lib64/python2.7/site-packages/ttystatus/pathname.pyo
>>> Done.
 * checking 240 files for package collisions
[32;01m * [39;49;00mBuilding package for dev-python/ttystatus-0.36 ...                    [34;01m[ [39;49;00m[32;01mok[39;49;00m[34;01m ][39;49;00m
[32;01m * [39;49;00mPackages now in '/usr/portage/packages':
[32;01m * [39;49;00mdev-python/ttystatus-0.36: 85.2K

>>> Merging dev-python/ttystatus-0.36 to /
 * removing unneeded *.la files
--- /usr/
--- /usr/lib64/
--- /usr/lib64/python2.7/
--- /usr/lib64/python2.7/site-packages/
--- /usr/lib64/python2.7/site-packages/ttystatus/
>>> /usr/lib64/python2.7/site-packages/ttystatus/pathname.pyo
>>> /usr/lib64/python2.7/site-packages/ttystatus/area.pyo
>>> /usr/lib64/python2.7/site-packages/ttystatus/index.pyo
>>> /usr/lib64/python2.7/site-packages/ttystatus/status.pyc
>>> /usr/lib64/python2.7/site-packages/ttystatus/status_tests.pyo
>>> /usr/lib64/python2.7/site-packages/ttystatus/__init__.pyc
>>> /usr/lib64/python2.7/site-packages/ttystatus/bytesize_tests.py
>>> /usr/lib64/python2.7/site-packages/ttystatus/bytesize_tests.pyc
>>> /usr/lib64/python2.7/site-packages/ttystatus/index_tests.py
>>> /usr/lib64/python2.7/site-packages/ttystatus/status.pyo
>>> /usr/lib64/python2.7/site-packages/ttystatus/messager.pyc
>>> /usr/lib64/python2.7/site-packages/ttystatus/progressbar_tests.pyc
>>> /usr/lib64/python2.7/site-packages/ttystatus/integer.py
>>> /usr/lib64/python2.7/site-packages/ttystatus/string_tests.pyo
>>> /usr/lib64/python2.7/site-packages/ttystatus/bytesize.pyo
>>> /usr/lib64/python2.7/site-packages/ttystatus/version.pyc
>>> /usr/lib64/python2.7/site-packages/ttystatus/string_tests.pyc
>>> /usr/lib64/python2.7/site-packages/ttystatus/elapsed_tests.pyc
>>> /usr/lib64/python2.7/site-packages/ttystatus/integer_tests.pyc
>>> /usr/lib64/python2.7/site-packages/ttystatus/widget.pyo
>>> /usr/lib64/python2.7/site-packages/ttystatus/index.pyc
>>> /usr/lib64/python2.7/site-packages/ttystatus/bytespeed_tests.pyc
>>> /usr/lib64/python2.7/site-packages/ttystatus/index.py
>>> /usr/lib64/python2.7/site-packages/ttystatus/counter.pyo
>>> /usr/lib64/python2.7/site-packages/ttystatus/index_tests.pyo
>>> /usr/lib64/python2.7/site-packages/ttystatus/literal.py
>>> /usr/lib64/python2.7/site-packages/ttystatus/pathname_tests.pyo
>>> /usr/lib64/python2.7/site-packages/ttystatus/status_tests.pyc
>>> /usr/lib64/python2.7/site-packages/ttystatus/progressbar_tests.pyo
>>> /usr/lib64/python2.7/site-packages/ttystatus/integer.pyo
>>> /usr/lib64/python2.7/site-packages/ttystatus/elapsed_tests.py
>>> /usr/lib64/python2.7/site-packages/ttystatus/version.py
>>> /usr/lib64/python2.7/site-packages/ttystatus/literal_tests.pyc
>>> /usr/lib64/python2.7/site-packages/ttystatus/widget.pyc
>>> /usr/lib64/python2.7/site-packages/ttystatus/integer.pyc
>>> /usr/lib64/python2.7/site-packages/ttystatus/progressbar.pyc
>>> /usr/lib64/python2.7/site-packages/ttystatus/elapsed_tests.pyo
>>> /usr/lib64/python2.7/site-packages/ttystatus/status.py
>>> /usr/lib64/python2.7/site-packages/ttystatus/elapsed.py
>>> /usr/lib64/python2.7/site-packages/ttystatus/bytesize.pyc
>>> /usr/lib64/python2.7/site-packages/ttystatus/version.pyo
>>> /usr/lib64/python2.7/site-packages/ttystatus/remtime.pyo
>>> /usr/lib64/python2.7/site-packages/ttystatus/string.pyc
>>> /usr/lib64/python2.7/site-packages/ttystatus/string.py
>>> /usr/lib64/python2.7/site-packages/ttystatus/literal.pyc
>>> /usr/lib64/python2.7/site-packages/ttystatus/literal_tests.pyo
>>> /usr/lib64/python2.7/site-packages/ttystatus/pathname_tests.pyc
>>> /usr/lib64/python2.7/site-packages/ttystatus/elapsed.pyc
>>> /usr/lib64/python2.7/site-packages/ttystatus/percent.pyo
>>> /usr/lib64/python2.7/site-packages/ttystatus/percent.py
>>> /usr/lib64/python2.7/site-packages/ttystatus/literal_tests.py
>>> /usr/lib64/python2.7/site-packages/ttystatus/counter_tests.py
>>> /usr/lib64/python2.7/site-packages/ttystatus/string_tests.py
>>> /usr/lib64/python2.7/site-packages/ttystatus/fmt_tests.pyc
>>> /usr/lib64/python2.7/site-packages/ttystatus/remtime.py
>>> /usr/lib64/python2.7/site-packages/ttystatus/fmt_tests.pyo
>>> /usr/lib64/python2.7/site-packages/ttystatus/fmt.pyc
>>> /usr/lib64/python2.7/site-packages/ttystatus/string.pyo
>>> /usr/lib64/python2.7/site-packages/ttystatus/status_tests.py
>>> /usr/lib64/python2.7/site-packages/ttystatus/percent_tests.pyc
>>> /usr/lib64/python2.7/site-packages/ttystatus/elapsed.pyo
>>> /usr/lib64/python2.7/site-packages/ttystatus/percent.pyc
>>> /usr/lib64/python2.7/site-packages/ttystatus/fmt_tests.py
>>> /usr/lib64/python2.7/site-packages/ttystatus/tty.py
>>> /usr/lib64/python2.7/site-packages/ttystatus/progressbar.pyo
>>> /usr/lib64/python2.7/site-packages/ttystatus/pathname.pyc
>>> /usr/lib64/python2.7/site-packages/ttystatus/bytespeed.pyc
>>> /usr/lib64/python2.7/site-packages/ttystatus/index_tests.pyc
>>> /usr/lib64/python2.7/site-packages/ttystatus/percent_tests.pyo
>>> /usr/lib64/python2.7/site-packages/ttystatus/remtime_tests.pyc
>>> /usr/lib64/python2.7/site-packages/ttystatus/fmt.pyo
>>> /usr/lib64/python2.7/site-packages/ttystatus/bytespeed.pyo
>>> /usr/lib64/python2.7/site-packages/ttystatus/integer_tests.py
>>> /usr/lib64/python2.7/site-packages/ttystatus/bytespeed_tests.pyo
>>> /usr/lib64/python2.7/site-packages/ttystatus/remtime.pyc
>>> /usr/lib64/python2.7/site-packages/ttystatus/counter_tests.pyc
>>> /usr/lib64/python2.7/site-packages/ttystatus/area.py
>>> /usr/lib64/python2.7/site-packages/ttystatus/messager.py
>>> /usr/lib64/python2.7/site-packages/ttystatus/bytespeed_tests.py
>>> /usr/lib64/python2.7/site-packages/ttystatus/__init__.py
>>> /usr/lib64/python2.7/site-packages/ttystatus/tty.pyc
>>> /usr/lib64/python2.7/site-packages/ttystatus/counter.pyc
>>> /usr/lib64/python2.7/site-packages/ttystatus/percent_tests.py
>>> /usr/lib64/python2.7/site-packages/ttystatus/area.pyc
>>> /usr/lib64/python2.7/site-packages/ttystatus/bytespeed.py
>>> /usr/lib64/python2.7/site-packages/ttystatus/integer_tests.pyo
>>> /usr/lib64/python2.7/site-packages/ttystatus/progressbar.py
>>> /usr/lib64/python2.7/site-packages/ttystatus/pathname.py
>>> /usr/lib64/python2.7/site-packages/ttystatus/fmt.py
>>> /usr/lib64/python2.7/site-packages/ttystatus/counter.py
>>> /usr/lib64/python2.7/site-packages/ttystatus/__init__.pyo
>>> /usr/lib64/python2.7/site-packages/ttystatus/pathname_tests.py
>>> /usr/lib64/python2.7/site-packages/ttystatus/messager.pyo
>>> /usr/lib64/python2.7/site-packages/ttystatus/widget.py
>>> /usr/lib64/python2.7/site-packages/ttystatus/tty.pyo
>>> /usr/lib64/python2.7/site-packages/ttystatus/bytesize_tests.pyo
>>> /usr/lib64/python2.7/site-packages/ttystatus/bytesize.py
>>> /usr/lib64/python2.7/site-packages/ttystatus/counter_tests.pyo
>>> /usr/lib64/python2.7/site-packages/ttystatus/remtime_tests.pyo
>>> /usr/lib64/python2.7/site-packages/ttystatus/progressbar_tests.py
>>> /usr/lib64/python2.7/site-packages/ttystatus/literal.pyo
>>> /usr/lib64/python2.7/site-packages/ttystatus/remtime_tests.py
>>> /usr/lib64/python2.7/site-packages/ttystatus-0.36-py2.7.egg-info
--- /usr/lib/
--- /usr/lib/python3.7/
--- /usr/lib/python3.7/site-packages/
>>> /usr/lib/python3.7/site-packages/ttystatus-0.36-py3.7.egg-info
--- /usr/lib/python3.7/site-packages/ttystatus/
>>> /usr/lib/python3.7/site-packages/ttystatus/bytesize_tests.py
>>> /usr/lib/python3.7/site-packages/ttystatus/index_tests.py
>>> /usr/lib/python3.7/site-packages/ttystatus/integer.py
>>> /usr/lib/python3.7/site-packages/ttystatus/index.py
>>> /usr/lib/python3.7/site-packages/ttystatus/literal.py
>>> /usr/lib/python3.7/site-packages/ttystatus/elapsed_tests.py
>>> /usr/lib/python3.7/site-packages/ttystatus/version.py
>>> /usr/lib/python3.7/site-packages/ttystatus/status.py
>>> /usr/lib/python3.7/site-packages/ttystatus/elapsed.py
--- /usr/lib/python3.7/site-packages/ttystatus/__pycache__/
>>> /usr/lib/python3.7/site-packages/ttystatus/__pycache__/progressbar_tests.cpython-37.opt-1.pyc
>>> /usr/lib/python3.7/site-packages/ttystatus/__pycache__/version.cpython-37.opt-2.pyc
>>> /usr/lib/python3.7/site-packages/ttystatus/__pycache__/pathname.cpython-37.opt-1.pyc
>>> /usr/lib/python3.7/site-packages/ttystatus/__pycache__/progressbar_tests.cpython-37.opt-2.pyc
>>> /usr/lib/python3.7/site-packages/ttystatus/__pycache__/string.cpython-37.opt-1.pyc
>>> /usr/lib/python3.7/site-packages/ttystatus/__pycache__/status.cpython-37.opt-2.pyc
>>> /usr/lib/python3.7/site-packages/ttystatus/__pycache__/counter_tests.cpython-37.opt-2.pyc
>>> /usr/lib/python3.7/site-packages/ttystatus/__pycache__/progressbar.cpython-37.opt-2.pyc
>>> /usr/lib/python3.7/site-packages/ttystatus/__pycache__/counter.cpython-37.pyc
>>> /usr/lib/python3.7/site-packages/ttystatus/__pycache__/version.cpython-37.pyc
>>> /usr/lib/python3.7/site-packages/ttystatus/__pycache__/string.cpython-37.pyc
>>> /usr/lib/python3.7/site-packages/ttystatus/__pycache__/remtime.cpython-37.pyc
>>> /usr/lib/python3.7/site-packages/ttystatus/__pycache__/status_tests.cpython-37.opt-2.pyc
>>> /usr/lib/python3.7/site-packages/ttystatus/__pycache__/index_tests.cpython-37.opt-2.pyc
>>> /usr/lib/python3.7/site-packages/ttystatus/__pycache__/fmt.cpython-37.opt-2.pyc
>>> /usr/lib/python3.7/site-packages/ttystatus/__pycache__/__init__.cpython-37.pyc
>>> /usr/lib/python3.7/site-packages/ttystatus/__pycache__/version.cpython-37.opt-1.pyc
>>> /usr/lib/python3.7/site-packages/ttystatus/__pycache__/string_tests.cpython-37.opt-1.pyc
>>> /usr/lib/python3.7/site-packages/ttystatus/__pycache__/bytespeed.cpython-37.pyc
>>> /usr/lib/python3.7/site-packages/ttystatus/__pycache__/percent.cpython-37.pyc
>>> /usr/lib/python3.7/site-packages/ttystatus/__pycache__/bytespeed_tests.cpython-37.pyc
>>> /usr/lib/python3.7/site-packages/ttystatus/__pycache__/pathname_tests.cpython-37.pyc
>>> /usr/lib/python3.7/site-packages/ttystatus/__pycache__/bytesize.cpython-37.opt-1.pyc
>>> /usr/lib/python3.7/site-packages/ttystatus/__pycache__/remtime_tests.cpython-37.opt-1.pyc
>>> /usr/lib/python3.7/site-packages/ttystatus/__pycache__/counter_tests.cpython-37.pyc
>>> /usr/lib/python3.7/site-packages/ttystatus/__pycache__/status_tests.cpython-37.opt-1.pyc
>>> /usr/lib/python3.7/site-packages/ttystatus/__pycache__/integer.cpython-37.opt-2.pyc
>>> /usr/lib/python3.7/site-packages/ttystatus/__pycache__/percent_tests.cpython-37.pyc
>>> /usr/lib/python3.7/site-packages/ttystatus/__pycache__/remtime_tests.cpython-37.pyc
>>> /usr/lib/python3.7/site-packages/ttystatus/__pycache__/widget.cpython-37.opt-1.pyc
>>> /usr/lib/python3.7/site-packages/ttystatus/__pycache__/index_tests.cpython-37.opt-1.pyc
>>> /usr/lib/python3.7/site-packages/ttystatus/__pycache__/integer_tests.cpython-37.opt-1.pyc
>>> /usr/lib/python3.7/site-packages/ttystatus/__pycache__/fmt_tests.cpython-37.opt-1.pyc
>>> /usr/lib/python3.7/site-packages/ttystatus/__pycache__/bytesize_tests.cpython-37.pyc
>>> /usr/lib/python3.7/site-packages/ttystatus/__pycache__/counter.cpython-37.opt-1.pyc
>>> /usr/lib/python3.7/site-packages/ttystatus/__pycache__/index.cpython-37.opt-2.pyc
>>> /usr/lib/python3.7/site-packages/ttystatus/__pycache__/messager.cpython-37.opt-2.pyc
>>> /usr/lib/python3.7/site-packages/ttystatus/__pycache__/literal.cpython-37.pyc
>>> /usr/lib/python3.7/site-packages/ttystatus/__pycache__/literal_tests.cpython-37.pyc
>>> /usr/lib/python3.7/site-packages/ttystatus/__pycache__/area.cpython-37.pyc
>>> /usr/lib/python3.7/site-packages/ttystatus/__pycache__/index.cpython-37.opt-1.pyc
>>> /usr/lib/python3.7/site-packages/ttystatus/__pycache__/counter_tests.cpython-37.opt-1.pyc
>>> /usr/lib/python3.7/site-packages/ttystatus/__pycache__/bytespeed.cpython-37.opt-2.pyc
>>> /usr/lib/python3.7/site-packages/ttystatus/__pycache__/fmt.cpython-37.opt-1.pyc
>>> /usr/lib/python3.7/site-packages/ttystatus/__pycache__/status.cpython-37.opt-1.pyc
>>> /usr/lib/python3.7/site-packages/ttystatus/__pycache__/elapsed_tests.cpython-37.opt-1.pyc
>>> /usr/lib/python3.7/site-packages/ttystatus/__pycache__/tty.cpython-37.pyc
>>> /usr/lib/python3.7/site-packages/ttystatus/__pycache__/percent_tests.cpython-37.opt-1.pyc
>>> /usr/lib/python3.7/site-packages/ttystatus/__pycache__/pathname_tests.cpython-37.opt-1.pyc
>>> /usr/lib/python3.7/site-packages/ttystatus/__pycache__/__init__.cpython-37.opt-2.pyc
>>> /usr/lib/python3.7/site-packages/ttystatus/__pycache__/fmt_tests.cpython-37.opt-2.pyc
>>> /usr/lib/python3.7/site-packages/ttystatus/__pycache__/bytesize.cpython-37.pyc
>>> /usr/lib/python3.7/site-packages/ttystatus/__pycache__/integer_tests.cpython-37.pyc
>>> /usr/lib/python3.7/site-packages/ttystatus/__pycache__/__init__.cpython-37.opt-1.pyc
>>> /usr/lib/python3.7/site-packages/ttystatus/__pycache__/fmt_tests.cpython-37.pyc
>>> /usr/lib/python3.7/site-packages/ttystatus/__pycache__/integer.cpython-37.pyc
>>> /usr/lib/python3.7/site-packages/ttystatus/__pycache__/area.cpython-37.opt-1.pyc
>>> /usr/lib/python3.7/site-packages/ttystatus/__pycache__/fmt.cpython-37.pyc
>>> /usr/lib/python3.7/site-packages/ttystatus/__pycache__/messager.cpython-37.opt-1.pyc
>>> /usr/lib/python3.7/site-packages/ttystatus/__pycache__/bytespeed.cpython-37.opt-1.pyc
>>> /usr/lib/python3.7/site-packages/ttystatus/__pycache__/percent_tests.cpython-37.opt-2.pyc
>>> /usr/lib/python3.7/site-packages/ttystatus/__pycache__/remtime_tests.cpython-37.opt-2.pyc
>>> /usr/lib/python3.7/site-packages/ttystatus/__pycache__/tty.cpython-37.opt-2.pyc
>>> /usr/lib/python3.7/site-packages/ttystatus/__pycache__/tty.cpython-37.opt-1.pyc
>>> /usr/lib/python3.7/site-packages/ttystatus/__pycache__/counter.cpython-37.opt-2.pyc
>>> /usr/lib/python3.7/site-packages/ttystatus/__pycache__/string_tests.cpython-37.pyc
>>> /usr/lib/python3.7/site-packages/ttystatus/__pycache__/bytesize_tests.cpython-37.opt-1.pyc
>>> /usr/lib/python3.7/site-packages/ttystatus/__pycache__/widget.cpython-37.opt-2.pyc
>>> /usr/lib/python3.7/site-packages/ttystatus/__pycache__/integer_tests.cpython-37.opt-2.pyc
>>> /usr/lib/python3.7/site-packages/ttystatus/__pycache__/progressbar_tests.cpython-37.pyc
>>> /usr/lib/python3.7/site-packages/ttystatus/__pycache__/integer.cpython-37.opt-1.pyc
>>> /usr/lib/python3.7/site-packages/ttystatus/__pycache__/elapsed.cpython-37.opt-2.pyc
>>> /usr/lib/python3.7/site-packages/ttystatus/__pycache__/bytespeed_tests.cpython-37.opt-1.pyc
>>> /usr/lib/python3.7/site-packages/ttystatus/__pycache__/bytespeed_tests.cpython-37.opt-2.pyc
>>> /usr/lib/python3.7/site-packages/ttystatus/__pycache__/bytesize_tests.cpython-37.opt-2.pyc
>>> /usr/lib/python3.7/site-packages/ttystatus/__pycache__/percent.cpython-37.opt-2.pyc
>>> /usr/lib/python3.7/site-packages/ttystatus/__pycache__/percent.cpython-37.opt-1.pyc
>>> /usr/lib/python3.7/site-packages/ttystatus/__pycache__/status_tests.cpython-37.pyc
>>> /usr/lib/python3.7/site-packages/ttystatus/__pycache__/widget.cpython-37.pyc
>>> /usr/lib/python3.7/site-packages/ttystatus/__pycache__/literal.cpython-37.opt-2.pyc
>>> /usr/lib/python3.7/site-packages/ttystatus/__pycache__/area.cpython-37.opt-2.pyc
>>> /usr/lib/python3.7/site-packages/ttystatus/__pycache__/index.cpython-37.pyc
>>> /usr/lib/python3.7/site-packages/ttystatus/__pycache__/string.cpython-37.opt-2.pyc
>>> /usr/lib/python3.7/site-packages/ttystatus/__pycache__/messager.cpython-37.pyc
>>> /usr/lib/python3.7/site-packages/ttystatus/__pycache__/literal_tests.cpython-37.opt-1.pyc
>>> /usr/lib/python3.7/site-packages/ttystatus/__pycache__/bytesize.cpython-37.opt-2.pyc
>>> /usr/lib/python3.7/site-packages/ttystatus/__pycache__/pathname_tests.cpython-37.opt-2.pyc
>>> /usr/lib/python3.7/site-packages/ttystatus/__pycache__/index_tests.cpython-37.pyc
>>> /usr/lib/python3.7/site-packages/ttystatus/__pycache__/elapsed_tests.cpython-37.opt-2.pyc
>>> /usr/lib/python3.7/site-packages/ttystatus/__pycache__/progressbar.cpython-37.pyc
>>> /usr/lib/python3.7/site-packages/ttystatus/__pycache__/string_tests.cpython-37.opt-2.pyc
>>> /usr/lib/python3.7/site-packages/ttystatus/__pycache__/pathname.cpython-37.pyc
>>> /usr/lib/python3.7/site-packages/ttystatus/__pycache__/elapsed.cpython-37.opt-1.pyc
>>> /usr/lib/python3.7/site-packages/ttystatus/__pycache__/elapsed_tests.cpython-37.pyc
>>> /usr/lib/python3.7/site-packages/ttystatus/__pycache__/literal_tests.cpython-37.opt-2.pyc
>>> /usr/lib/python3.7/site-packages/ttystatus/__pycache__/status.cpython-37.pyc
>>> /usr/lib/python3.7/site-packages/ttystatus/__pycache__/remtime.cpython-37.opt-1.pyc
>>> /usr/lib/python3.7/site-packages/ttystatus/__pycache__/progressbar.cpython-37.opt-1.pyc
>>> /usr/lib/python3.7/site-packages/ttystatus/__pycache__/elapsed.cpython-37.pyc
>>> /usr/lib/python3.7/site-packages/ttystatus/__pycache__/pathname.cpython-37.opt-2.pyc
>>> /usr/lib/python3.7/site-packages/ttystatus/__pycache__/literal.cpython-37.opt-1.pyc
>>> /usr/lib/python3.7/site-packages/ttystatus/__pycache__/remtime.cpython-37.opt-2.pyc
>>> /usr/lib/python3.7/site-packages/ttystatus/string.py
>>> /usr/lib/python3.7/site-packages/ttystatus/percent.py
>>> /usr/lib/python3.7/site-packages/ttystatus/literal_tests.py
>>> /usr/lib/python3.7/site-packages/ttystatus/counter_tests.py
>>> /usr/lib/python3.7/site-packages/ttystatus/string_tests.py
>>> /usr/lib/python3.7/site-packages/ttystatus/remtime.py
>>> /usr/lib/python3.7/site-packages/ttystatus/status_tests.py
>>> /usr/lib/python3.7/site-packages/ttystatus/fmt_tests.py
>>> /usr/lib/python3.7/site-packages/ttystatus/tty.py
>>> /usr/lib/python3.7/site-packages/ttystatus/integer_tests.py
>>> /usr/lib/python3.7/site-packages/ttystatus/area.py
>>> /usr/lib/python3.7/site-packages/ttystatus/messager.py
>>> /usr/lib/python3.7/site-packages/ttystatus/bytespeed_tests.py
>>> /usr/lib/python3.7/site-packages/ttystatus/__init__.py
>>> /usr/lib/python3.7/site-packages/ttystatus/percent_tests.py
>>> /usr/lib/python3.7/site-packages/ttystatus/bytespeed.py
>>> /usr/lib/python3.7/site-packages/ttystatus/progressbar.py
>>> /usr/lib/python3.7/site-packages/ttystatus/pathname.py
>>> /usr/lib/python3.7/site-packages/ttystatus/fmt.py
>>> /usr/lib/python3.7/site-packages/ttystatus/counter.py
>>> /usr/lib/python3.7/site-packages/ttystatus/pathname_tests.py
>>> /usr/lib/python3.7/site-packages/ttystatus/widget.py
>>> /usr/lib/python3.7/site-packages/ttystatus/bytesize.py
>>> /usr/lib/python3.7/site-packages/ttystatus/progressbar_tests.py
>>> /usr/lib/python3.7/site-packages/ttystatus/remtime_tests.py
>>> Safely unmerging already-installed instance...
>>> Original instance of package unmerged safely.
>>> dev-python/ttystatus-0.36 merged.
