[32;01m * [39;49;00mPackage:    dev-util/opencl-headers-2020.03.13-r1
[32;01m * [39;49;00mRepository: gentoo
[32;01m * [39;49;00mMaintainer: marecki@gentoo.org
[32;01m * [39;49;00mUSE:        abi_x86_64 amd64 elibc_glibc kernel_linux userland_GNU
[32;01m * [39;49;00mFEATURES:   ccache network-sandbox preserve-libs sandbox userpriv usersandbox
 [32;01m*[0m FEATURES='assume-digests binpkg-docompress binpkg-dostrip binpkg-logs buildpkg ccache config-protect-if-modified distlocks ebuild-locks fixlafiles ipc-sandbox merge-sync multilib-strict network-sandbox news parallel-fetch pid-sandbox preserve-libs protect-owned qa-unresolved-soname-deps sandbox sfperms sign strict unknown-features-warn unmerge-logs unmerge-orphans userfetch userpriv usersandbox usersync xattr'
 [32;01m*[0m CFLAGS='-march=native -O3 -fgraphite-identity -floop-nest-optimize -fdevirtualize-at-ltrans -fipa-pta -fno-semantic-interposition -flto=12 -fno-signed-zeros -fno-trapping-math -fassociative-math -freciprocal-math -fno-math-errno -ffinite-math-only -fno-rounding-math -fno-signaling-nans -fcx-limited-range -fexcess-precision=fast -fno-plt -fno-common -fuse-linker-plugin -pipe -g0 -fno-stack-protector -fno-stack-clash-protection -fstack-check=no -fno-stack-check -Wl,-O1 -Wl,--as-needed -Wl,--defsym=__gentoo_check_ldflags__=0 -Wl,--hash-style=gnu -Wl,-z,norelro'
 [32;01m*[0m CXXFLAGS='-march=native -O3 -fgraphite-identity -floop-nest-optimize -fdevirtualize-at-ltrans -fipa-pta -fno-semantic-interposition -flto=12 -fno-signed-zeros -fno-trapping-math -fassociative-math -freciprocal-math -fno-math-errno -ffinite-math-only -fno-rounding-math -fno-signaling-nans -fcx-limited-range -fexcess-precision=fast -fno-plt -fno-common -fuse-linker-plugin -pipe -g0 -fno-stack-protector -fno-stack-clash-protection -fstack-check=no -fno-stack-check -Wl,-O1 -Wl,--as-needed -Wl,--defsym=__gentoo_check_ldflags__=0 -Wl,--hash-style=gnu -Wl,-z,norelro'
 [32;01m*[0m FFLAGS='-march=native -O3 -fgraphite-identity -floop-nest-optimize -fdevirtualize-at-ltrans -fipa-pta -fno-semantic-interposition -flto=12 -fno-signed-zeros -fno-trapping-math -fassociative-math -freciprocal-math -fno-math-errno -ffinite-math-only -fno-rounding-math -fno-signaling-nans -fcx-limited-range -fexcess-precision=fast -fno-plt -fno-common -fuse-linker-plugin -pipe -g0 -fno-stack-protector -fno-stack-clash-protection -fstack-check=no -fno-stack-check -Wl,-O1 -Wl,--as-needed -Wl,--defsym=__gentoo_check_ldflags__=0 -Wl,--hash-style=gnu -Wl,-z,norelro'
 [32;01m*[0m FCFLAGS='-march=native -O3 -fgraphite-identity -floop-nest-optimize -fdevirtualize-at-ltrans -fipa-pta -fno-semantic-interposition -flto=12 -fno-signed-zeros -fno-trapping-math -fassociative-math -freciprocal-math -fno-math-errno -ffinite-math-only -fno-rounding-math -fno-signaling-nans -fcx-limited-range -fexcess-precision=fast -fno-plt -fno-common -fuse-linker-plugin -pipe -g0 -fno-stack-protector -fno-stack-clash-protection -fstack-check=no -fno-stack-check -Wl,-O1 -Wl,--as-needed -Wl,--defsym=__gentoo_check_ldflags__=0 -Wl,--hash-style=gnu -Wl,-z,norelro'
 [32;01m*[0m F77FLAGS='-march=native -O3 -fgraphite-identity -floop-nest-optimize -fdevirtualize-at-ltrans -fipa-pta -fno-semantic-interposition -flto=12 -fno-signed-zeros -fno-trapping-math -fassociative-math -freciprocal-math -fno-math-errno -ffinite-math-only -fno-rounding-math -fno-signaling-nans -fcx-limited-range -fexcess-precision=fast -fno-plt -fno-common -fuse-linker-plugin -pipe -g0 -fno-stack-protector -fno-stack-clash-protection -fstack-check=no -fno-stack-check -Wl,-O1 -Wl,--as-needed -Wl,--defsym=__gentoo_check_ldflags__=0 -Wl,--hash-style=gnu -Wl,-z,norelro'
 [32;01m*[0m LDFLAGS='-Wl,-O1 -Wl,--as-needed -Wl,--defsym=__gentoo_check_ldflags__=0 -Wl,--hash-style=gnu -Wl,-z,norelro -march=native -O3 -fgraphite-identity -floop-nest-optimize -fdevirtualize-at-ltrans -fipa-pta -fno-semantic-interposition -flto=12 -fno-signed-zeros -fno-trapping-math -fassociative-math -freciprocal-math -fno-math-errno -ffinite-math-only -fno-rounding-math -fno-signaling-nans -fcx-limited-range -fexcess-precision=fast -fno-plt -fno-common -fuse-linker-plugin -pipe -g0 -fno-stack-protector -fno-stack-clash-protection -fstack-check=no -fno-stack-check'
 [32;01m*[0m MAKEOPTS='-j12'
 [32;01m*[0m gcc (Gentoo 10.1.0 p1) 10.1.0
 [32;01m*[0m g++ (Gentoo 10.1.0 p1) 10.1.0
 [32;01m*[0m GNU ld (Gentoo 2.33.1 p2) 2.33.1
 [32;01m*[0m Linux ryzen.gnum.org 5.4.36 #1 SMP Thu Apr 30 04:38:28 UTC 2020 x86_64 AMD Ryzen 5 3600 6-Core Processor AuthenticAMD GNU/Linux
[00;01mdev-util/[00;00m[36;01mopencl-headers[00;00m: [32;01m5[00;00m seconds average for [32;01m1[00;00m merge
2020-05-15T03:28:02 >>> [00;01mdev-util/[00;00m[36;01mopencl-headers[00;00m: [32;01m5[00;00m seconds
]0;emerge 20:44:36 60|604 opencl-headers 00:05 (root@ryzen.gnum.org)>>> Unpacking source...
>>> Unpacking opencl-headers-2020.03.13.tar.gz to /tmp/portage/dev-util/opencl-headers-2020.03.13-r1/work
>>> Source unpacked in /tmp/portage/dev-util/opencl-headers-2020.03.13-r1/work
>>> Preparing source in /tmp/portage/dev-util/opencl-headers-2020.03.13-r1/work/OpenCL-Headers-2020.03.13 ...
>>> Source prepared.
>>> Configuring source in /tmp/portage/dev-util/opencl-headers-2020.03.13-r1/work/OpenCL-Headers-2020.03.13 ...
>>> Source configured.
>>> Compiling source in /tmp/portage/dev-util/opencl-headers-2020.03.13-r1/work/OpenCL-Headers-2020.03.13 ...
>>> Source compiled.
>>> Test phase [not enabled]: dev-util/opencl-headers-2020.03.13-r1

>>> Install dev-util/opencl-headers-2020.03.13-r1 into /tmp/portage/dev-util/opencl-headers-2020.03.13-r1/image
>>> Completed installing dev-util/opencl-headers-2020.03.13-r1 into /tmp/portage/dev-util/opencl-headers-2020.03.13-r1/image

 [32;01m*[0m Final size of build directory: 408 KiB
 [32;01m*[0m Final size of installed tree:  316 KiB

./
./usr/
./usr/include/
./usr/include/CL/
./usr/include/CL/cl.h
./usr/include/CL/cl_dx9_media_sharing_intel.h
./usr/include/CL/opencl.h
./usr/include/CL/cl_gl_ext.h
./usr/include/CL/cl_d3d10.h
./usr/include/CL/cl_egl.h
./usr/include/CL/cl_dx9_media_sharing.h
./usr/include/CL/cl_version.h
./usr/include/CL/cl_platform.h
./usr/include/CL/cl_gl.h
./usr/include/CL/cl_ext_intel.h
./usr/include/CL/cl_icd.h
./usr/include/CL/cl_va_api_media_sharing_intel.h
./usr/include/CL/cl_d3d11.h
./usr/include/CL/cl_ext.h
>>> Done.
 [32;01m*[39;49;00m checking 15 files for package collisions
>>> Merging dev-util/opencl-headers-2020.03.13-r1 to /
 [32;01m*[0m removing unneeded *.la files
--- /usr/
--- /usr/include/
--- /usr/include/CL/
>>> /usr/include/CL/cl_ext.h
>>> /usr/include/CL/cl_d3d11.h
>>> /usr/include/CL/cl_va_api_media_sharing_intel.h
>>> /usr/include/CL/cl_icd.h
>>> /usr/include/CL/cl_ext_intel.h
>>> /usr/include/CL/cl_gl.h
>>> /usr/include/CL/cl_platform.h
>>> /usr/include/CL/cl_version.h
>>> /usr/include/CL/cl_dx9_media_sharing.h
>>> /usr/include/CL/cl_egl.h
>>> /usr/include/CL/cl_d3d10.h
>>> /usr/include/CL/cl_gl_ext.h
>>> /usr/include/CL/opencl.h
>>> /usr/include/CL/cl_dx9_media_sharing_intel.h
>>> /usr/include/CL/cl.h
>>> Safely unmerging already-installed instance...
No package files given... Grabbing a set.
--- replaced obj /usr/include/CL/opencl.h
--- replaced obj /usr/include/CL/cl_version.h
--- replaced obj /usr/include/CL/cl_va_api_media_sharing_intel.h
--- replaced obj /usr/include/CL/cl_platform.h
--- replaced obj /usr/include/CL/cl_icd.h
--- replaced obj /usr/include/CL/cl_gl_ext.h
--- replaced obj /usr/include/CL/cl_gl.h
--- replaced obj /usr/include/CL/cl_ext_intel.h
--- replaced obj /usr/include/CL/cl_ext.h
--- replaced obj /usr/include/CL/cl_egl.h
--- replaced obj /usr/include/CL/cl_dx9_media_sharing_intel.h
--- replaced obj /usr/include/CL/cl_dx9_media_sharing.h
--- replaced obj /usr/include/CL/cl_d3d11.h
--- replaced obj /usr/include/CL/cl_d3d10.h
--- replaced obj /usr/include/CL/cl.h
--- replaced dir /usr/include/CL
--- replaced dir /usr/include
--- replaced dir /usr
>>> Regenerating /etc/ld.so.cache...
>>> Original instance of package unmerged safely.
>>> dev-util/opencl-headers-2020.03.13-r1 merged.
