 * Package:    dev-perl/Encode-Locale-1.50.0
 * Repository: gentoo
 * Maintainer: perl@gentoo.org
 * USE:        abi_x86_64 amd64 elibc_glibc kernel_linux userland_GNU
 * FEATURES:   ccache network-sandbox preserve-libs sandbox userpriv usersandbox
 * FEATURES='binpkg-logs nodoc usersandbox unmerge-logs assume-digests cgroup usersync multilib-strict merge-sync ccache news config-protect-if-modified network-sandbox pid-sandbox fixlafiles xattr preserve-libs binpkg-dostrip parallel-fetch distlocks unmerge-backup qa-unresolved-soname-deps ipc-sandbox protect-owned unknown-features-warn binpkg-multi-instance strict-keepdir buildpkg unmerge-orphans sfperms compress-index strict sandbox userpriv parallel-install binpkg-docompress downgrade-backup collision-protect userfetch'
 * CFLAGS='-march=native -O3 -fgraphite-identity -floop-nest-optimize -fdevirtualize-at-ltrans -fipa-pta -fno-semantic-interposition -flto=12 -fno-plt -fno-math-errno -fno-trapping-math -fuse-linker-plugin -pipe -g0 -Wl,-O1 -Wl,--as-needed -Wl,--hash-style=gnu,-z,norelro,--as-needed'
 * CXXFLAGS='-march=native -O3 -fgraphite-identity -floop-nest-optimize -fdevirtualize-at-ltrans -fipa-pta -fno-semantic-interposition -flto=12 -fno-plt -fno-math-errno -fno-trapping-math -fuse-linker-plugin -pipe -g0 -Wl,-O1 -Wl,--as-needed -Wl,--hash-style=gnu,-z,norelro,--as-needed'
 * FFLAGS='-march=native -O3 -fgraphite-identity -floop-nest-optimize -fdevirtualize-at-ltrans -fipa-pta -fno-semantic-interposition -flto=12 -fno-plt -fno-math-errno -fno-trapping-math -fuse-linker-plugin -pipe -g0 -Wl,-O1 -Wl,--as-needed -Wl,--hash-style=gnu,-z,norelro,--as-needed'
 * FCFLAGS='-march=native -O3 -fgraphite-identity -floop-nest-optimize -fdevirtualize-at-ltrans -fipa-pta -fno-semantic-interposition -flto=12 -fno-plt -fno-math-errno -fno-trapping-math -fuse-linker-plugin -pipe -g0 -Wl,-O1 -Wl,--as-needed -Wl,--hash-style=gnu,-z,norelro,--as-needed'
 * F77FLAGS='-march=native -O3 -fgraphite-identity -floop-nest-optimize -fdevirtualize-at-ltrans -fipa-pta -fno-semantic-interposition -flto=12 -fno-plt -fno-math-errno -fno-trapping-math -fuse-linker-plugin -pipe -g0 -Wl,-O1 -Wl,--as-needed -Wl,--hash-style=gnu,-z,norelro,--as-needed'
 * LDFLAGS='-Wl,-O1 -Wl,--as-needed -Wl,--hash-style=gnu,-z,norelro,--as-needed -march=native -O3 -fgraphite-identity -floop-nest-optimize -fdevirtualize-at-ltrans -fipa-pta -fno-semantic-interposition -flto=12 -fno-plt -fno-math-errno -fno-trapping-math -fuse-linker-plugin -pipe -g0'
 * MAKEOPTS='-j12 -l12'
 * gcc (Gentoo 11.0.0_pre9999 p1, commit 584d52b088f9fcf78704b504c3f1f07e17c1cded) 11.0.0 20200523 (experimental)
 * g++ (Gentoo 11.0.0_pre9999 p1, commit 584d52b088f9fcf78704b504c3f1f07e17c1cded) 11.0.0 20200523 (experimental)
 * GNU ld (Gentoo 2.34 p4) 2.34.0
 * Linux ryzen.gnum.org 5.4.36 #1 SMP Thu Apr 30 04:38:28 UTC 2020 x86_64 AMD Ryzen 5 3600 6-Core Processor AuthenticAMD GNU/Linux
dev-perl/Encode-Locale: 6 seconds average for 5 merges
2020-05-15T04:00:45 >>> dev-perl/Encode-Locale: 6 seconds
2020-05-15T12:45:33 >>> dev-perl/Encode-Locale: 7 seconds
2020-05-20T01:21:53 >>> dev-perl/Encode-Locale: 5 seconds
2020-05-21T06:42:39 >>> dev-perl/Encode-Locale: 6 seconds
2020-05-23T14:07:29 >>> dev-perl/Encode-Locale: 10 seconds
]0;emerge 00:23:15 13|434 Encode-Locale 00:07 (root@ryzen.gnum.org)kemerge 00:23:15 13|434 Encode-Locale 00:07 (root@ryzen.gnum.org)\>>> Unpacking source...
>>> Unpacking Encode-Locale-1.05.tar.gz to /tmp/portage/dev-perl/Encode-Locale-1.50.0/work
>>> Source unpacked in /tmp/portage/dev-perl/Encode-Locale-1.50.0/work
>>> Preparing source in /tmp/portage/dev-perl/Encode-Locale-1.50.0/work/Encode-Locale-1.05 ...
>>> Source prepared.
>>> Configuring source in /tmp/portage/dev-perl/Encode-Locale-1.50.0/work/Encode-Locale-1.05 ...
 * Using ExtUtils::MakeMaker
 * perl Makefile.PL PREFIX=/usr INSTALLDIRS=vendor INSTALLMAN3DIR=none DESTDIR=/tmp/portage/dev-perl/Encode-Locale-1.50.0/image/
Checking if your kit is complete...
Looks good
Generating a Unix-style Makefile
Writing Makefile for Encode::Locale
Writing MYMETA.yml and MYMETA.json
>>> Source configured.
>>> Compiling source in /tmp/portage/dev-perl/Encode-Locale-1.50.0/work/Encode-Locale-1.05 ...
 * emake OTHERLDFLAGS=-Wl,-O1 -Wl,--as-needed -Wl,--hash-style=gnu,-z,norelro,--as-needed -march=native -O3 -fgraphite-identity -floop-nest-optimize -fdevirtualize-at-ltrans -fipa-pta -fno-semantic-interposition -flto=12 -fno-plt -fno-math-errno -fno-trapping-math -fuse-linker-plugin -pipe -g0
make -j12 -l12 'OTHERLDFLAGS=-Wl,-O1 -Wl,--as-needed -Wl,--hash-style=gnu,-z,norelro,--as-needed -march=native -O3 -fgraphite-identity -floop-nest-optimize -fdevirtualize-at-ltrans -fipa-pta -fno-semantic-interposition -flto=12 -fno-plt -fno-math-errno -fno-trapping-math -fuse-linker-plugin -pipe -g0' 
cp lib/Encode/Locale.pm blib/lib/Encode/Locale.pm
>>> Source compiled.
 * Skipping make test/check due to ebuild restriction.
>>> Test phase [disabled because of RESTRICT=test]: dev-perl/Encode-Locale-1.50.0

>>> Install dev-perl/Encode-Locale-1.50.0 into /tmp/portage/dev-perl/Encode-Locale-1.50.0/image/
make -j12 -l12 pure_install 
Installing /tmp/portage/dev-perl/Encode-Locale-1.50.0/image/usr/lib64/perl5/vendor_perl/5.30.2/Encode/Locale.pm
 * Fixing packlist file /usr/lib64/perl5/vendor_perl/5.30.2/x86_64-linux/auto/Encode/Locale/.packlist
>>> Completed installing dev-perl/Encode-Locale-1.50.0 into /tmp/portage/dev-perl/Encode-Locale-1.50.0/image/

 * Final size of build directory: 192 KiB
 * Final size of installed tree:   84 KiB

./
./usr/
./usr/share/
./usr/share/doc/
./usr/share/doc/Encode-Locale-1.50.0/
./usr/share/doc/Encode-Locale-1.50.0/README.bz2
./usr/share/doc/Encode-Locale-1.50.0/Changes.bz2
./usr/lib64/
./usr/lib64/perl5/
./usr/lib64/perl5/vendor_perl/
./usr/lib64/perl5/vendor_perl/5.30.2/
./usr/lib64/perl5/vendor_perl/5.30.2/x86_64-linux/
./usr/lib64/perl5/vendor_perl/5.30.2/x86_64-linux/auto/
./usr/lib64/perl5/vendor_perl/5.30.2/x86_64-linux/auto/Encode/
./usr/lib64/perl5/vendor_perl/5.30.2/x86_64-linux/auto/Encode/Locale/
./usr/lib64/perl5/vendor_perl/5.30.2/x86_64-linux/auto/Encode/Locale/.packlist
./usr/lib64/perl5/vendor_perl/5.30.2/Encode/
./usr/lib64/perl5/vendor_perl/5.30.2/Encode/Locale.pm
>>> Done.
 * checking 2 files for package collisions
>>> Merging dev-perl/Encode-Locale-1.50.0 to /
 * removing unneeded *.la files
--- /usr/
--- /usr/lib64/
--- /usr/lib64/perl5/
--- /usr/lib64/perl5/vendor_perl/
--- /usr/lib64/perl5/vendor_perl/5.30.2/
--- /usr/lib64/perl5/vendor_perl/5.30.2/Encode/
>>> /usr/lib64/perl5/vendor_perl/5.30.2/Encode/Locale.pm
--- /usr/lib64/perl5/vendor_perl/5.30.2/x86_64-linux/
--- /usr/lib64/perl5/vendor_perl/5.30.2/x86_64-linux/auto/
--- /usr/lib64/perl5/vendor_perl/5.30.2/x86_64-linux/auto/Encode/
--- /usr/lib64/perl5/vendor_perl/5.30.2/x86_64-linux/auto/Encode/Locale/
>>> /usr/lib64/perl5/vendor_perl/5.30.2/x86_64-linux/auto/Encode/Locale/.packlist
>>> Safely unmerging already-installed instance...
>>> Original instance of package unmerged safely.
>>> dev-perl/Encode-Locale-1.50.0 merged.
