>>> Extracting info
 * Package:    dev-perl/X11-Protocol-0.560.0-r2
 * Repository: gentoo
 * USE:        amd64 abi_x86_64 kernel_linux userland_GNU elibc_glibc
 * FEATURES:   ccache network-sandbox preserve-libs sandbox userpriv usersandbox
 * FEATURES='buildpkg unmerge-backup ipc-sandbox binpkg-dostrip pid-sandbox unmerge-logs downgrade-backup usersandbox usersync sfperms distlocks config-protect-if-modified merge-sync strict news parallel-fetch qa-unresolved-soname-deps unmerge-orphans userpriv fixlafiles unknown-features-warn ccache multilib-strict nodoc parallel-install binpkg-logs assume-digests compress-index sandbox network-sandbox xattr userfetch binpkg-docompress preserve-libs cgroup binpkg-multi-instance'
 * CFLAGS='-march=native -O3 -fdevirtualize-at-ltrans -fipa-pta -fno-semantic-interposition -fno-signed-zeros -fno-trapping-math -fassociative-math -freciprocal-math -fno-math-errno -ffinite-math-only -fno-rounding-math -fno-signaling-nans -fcx-limited-range -fexcess-precision=fast -fno-plt -fno-common -pipe -g0 -fno-stack-protector -fno-stack-clash-protection -fstack-check=no -fno-stack-check -Wl,-O1 -Wl,--as-needed -Wl,--defsym=__gentoo_check_ldflags__=0 -Wl,--hash-style=gnu -Wl,-z,norelro'
 * CXXFLAGS='-march=native -O3 -fdevirtualize-at-ltrans -fipa-pta -fno-semantic-interposition -fno-signed-zeros -fno-trapping-math -fassociative-math -freciprocal-math -fno-math-errno -ffinite-math-only -fno-rounding-math -fno-signaling-nans -fcx-limited-range -fexcess-precision=fast -fno-plt -fno-common -pipe -g0 -fno-stack-protector -fno-stack-clash-protection -fstack-check=no -fno-stack-check -Wl,-O1 -Wl,--as-needed -Wl,--defsym=__gentoo_check_ldflags__=0 -Wl,--hash-style=gnu -Wl,-z,norelro'
 * FFLAGS='-march=native -O3 -fdevirtualize-at-ltrans -fipa-pta -fno-semantic-interposition -fno-signed-zeros -fno-trapping-math -fassociative-math -freciprocal-math -fno-math-errno -ffinite-math-only -fno-rounding-math -fno-signaling-nans -fcx-limited-range -fexcess-precision=fast -fno-plt -fno-common -pipe -g0 -fno-stack-protector -fno-stack-clash-protection -fstack-check=no -fno-stack-check -Wl,-O1 -Wl,--as-needed -Wl,--defsym=__gentoo_check_ldflags__=0 -Wl,--hash-style=gnu -Wl,-z,norelro'
 * FCFLAGS='-march=native -O3 -fdevirtualize-at-ltrans -fipa-pta -fno-semantic-interposition -fno-signed-zeros -fno-trapping-math -fassociative-math -freciprocal-math -fno-math-errno -ffinite-math-only -fno-rounding-math -fno-signaling-nans -fcx-limited-range -fexcess-precision=fast -fno-plt -fno-common -pipe -g0 -fno-stack-protector -fno-stack-clash-protection -fstack-check=no -fno-stack-check -Wl,-O1 -Wl,--as-needed -Wl,--defsym=__gentoo_check_ldflags__=0 -Wl,--hash-style=gnu -Wl,-z,norelro'
 * F77FLAGS='-march=native -O3 -fdevirtualize-at-ltrans -fipa-pta -fno-semantic-interposition -fno-signed-zeros -fno-trapping-math -fassociative-math -freciprocal-math -fno-math-errno -ffinite-math-only -fno-rounding-math -fno-signaling-nans -fcx-limited-range -fexcess-precision=fast -fno-plt -fno-common -pipe -g0 -fno-stack-protector -fno-stack-clash-protection -fstack-check=no -fno-stack-check -Wl,-O1 -Wl,--as-needed -Wl,--defsym=__gentoo_check_ldflags__=0 -Wl,--hash-style=gnu -Wl,-z,norelro'
 * LDFLAGS='-Wl,-O1 -Wl,--as-needed -Wl,--defsym=__gentoo_check_ldflags__=0 -Wl,--hash-style=gnu -Wl,-z,norelro'
 * MAKEOPTS='-j12'
 * gcc (Gentoo 10.1.0 p1) 10.1.0
 * g++ (Gentoo 10.1.0 p1) 10.1.0
 * GNU ld (Gentoo 2.34 p1) 2.34.0
 * Linux ryzen.gnum.org 5.4.36 #1 SMP Thu Apr 30 04:38:28 UTC 2020 x86_64 AMD Ryzen 5 3600 6-Core Processor AuthenticAMD GNU/Linux
dev-perl/X11-Protocol: 6 seconds average for 1 merge
2020-05-15T12:43:17 >>> dev-perl/X11-Protocol: 6 seconds
]0;emerge 01:17:46 296|738 X11-Protocol 00:06 (root@ryzen.gnum.org)>>> Extracting dev-perl/X11-Protocol-0.560.0-r2
 * checking 18 files for package collisions
>>> Merging dev-perl/X11-Protocol-0.560.0-r2 to /
 * removing unneeded *.la files
--- /usr/
--- /usr/lib64/
--- /usr/lib64/perl5/
--- /usr/lib64/perl5/vendor_perl/
--- /usr/lib64/perl5/vendor_perl/5.30.2/
--- /usr/lib64/perl5/vendor_perl/5.30.2/X11/
>>> /usr/lib64/perl5/vendor_perl/5.30.2/X11/Keysyms.pm
--- /usr/lib64/perl5/vendor_perl/5.30.2/X11/Protocol/
>>> /usr/lib64/perl5/vendor_perl/5.30.2/X11/Protocol/Constants.pm
--- /usr/lib64/perl5/vendor_perl/5.30.2/X11/Protocol/Connection/
>>> /usr/lib64/perl5/vendor_perl/5.30.2/X11/Protocol/Connection/INETSocket.pm
>>> /usr/lib64/perl5/vendor_perl/5.30.2/X11/Protocol/Connection/FileHandle.pm
>>> /usr/lib64/perl5/vendor_perl/5.30.2/X11/Protocol/Connection/INETFH.pm
>>> /usr/lib64/perl5/vendor_perl/5.30.2/X11/Protocol/Connection/UNIXFH.pm
>>> /usr/lib64/perl5/vendor_perl/5.30.2/X11/Protocol/Connection/UNIXSocket.pm
>>> /usr/lib64/perl5/vendor_perl/5.30.2/X11/Protocol/Connection/Socket.pm
--- /usr/lib64/perl5/vendor_perl/5.30.2/X11/Protocol/Ext/
>>> /usr/lib64/perl5/vendor_perl/5.30.2/X11/Protocol/Ext/RENDER.pm
>>> /usr/lib64/perl5/vendor_perl/5.30.2/X11/Protocol/Ext/XFree86_Misc.pm
>>> /usr/lib64/perl5/vendor_perl/5.30.2/X11/Protocol/Ext/DPMS.pm
>>> /usr/lib64/perl5/vendor_perl/5.30.2/X11/Protocol/Ext/XC_MISC.pm
>>> /usr/lib64/perl5/vendor_perl/5.30.2/X11/Protocol/Ext/SHAPE.pm
>>> /usr/lib64/perl5/vendor_perl/5.30.2/X11/Protocol/Ext/BIG_REQUESTS.pm
>>> /usr/lib64/perl5/vendor_perl/5.30.2/X11/Protocol/Connection.pm
>>> /usr/lib64/perl5/vendor_perl/5.30.2/X11/Protocol.pm
>>> /usr/lib64/perl5/vendor_perl/5.30.2/X11/Auth.pm
--- /usr/lib64/perl5/vendor_perl/5.30.2/x86_64-linux/
--- /usr/lib64/perl5/vendor_perl/5.30.2/x86_64-linux/auto/
--- /usr/lib64/perl5/vendor_perl/5.30.2/x86_64-linux/auto/X11/
--- /usr/lib64/perl5/vendor_perl/5.30.2/x86_64-linux/auto/X11/Protocol/
>>> /usr/lib64/perl5/vendor_perl/5.30.2/x86_64-linux/auto/X11/Protocol/.packlist
>>> Safely unmerging already-installed instance...
>>> Original instance of package unmerged safely.
>>> dev-perl/X11-Protocol-0.560.0-r2 merged.
