No package files given... Grabbing a set.
--- replaced obj /usr/lib64/perl5/vendor_perl/5.30.3/x86_64-linux-thread-multi/auto/MailTools/.packlist
--- replaced dir /usr/lib64/perl5/vendor_perl/5.30.3/x86_64-linux-thread-multi/auto/MailTools
--- replaced dir /usr/lib64/perl5/vendor_perl/5.30.3/x86_64-linux-thread-multi/auto
--- replaced dir /usr/lib64/perl5/vendor_perl/5.30.3/x86_64-linux-thread-multi
--- replaced obj /usr/lib64/perl5/vendor_perl/5.30.3/MailTools.pod
--- replaced obj /usr/lib64/perl5/vendor_perl/5.30.3/MailTools.pm
--- replaced obj /usr/lib64/perl5/vendor_perl/5.30.3/Mail/Util.pod
--- replaced obj /usr/lib64/perl5/vendor_perl/5.30.3/Mail/Util.pm
--- replaced obj /usr/lib64/perl5/vendor_perl/5.30.3/Mail/Send.pod
--- replaced obj /usr/lib64/perl5/vendor_perl/5.30.3/Mail/Send.pm
--- replaced obj /usr/lib64/perl5/vendor_perl/5.30.3/Mail/Mailer/testfile.pm
--- replaced obj /usr/lib64/perl5/vendor_perl/5.30.3/Mail/Mailer/smtps.pm
--- replaced obj /usr/lib64/perl5/vendor_perl/5.30.3/Mail/Mailer/smtp.pm
--- replaced obj /usr/lib64/perl5/vendor_perl/5.30.3/Mail/Mailer/sendmail.pm
--- replaced obj /usr/lib64/perl5/vendor_perl/5.30.3/Mail/Mailer/rfc822.pm
--- replaced obj /usr/lib64/perl5/vendor_perl/5.30.3/Mail/Mailer/qmail.pm
--- replaced obj /usr/lib64/perl5/vendor_perl/5.30.3/Mail/Mailer.pod
--- replaced obj /usr/lib64/perl5/vendor_perl/5.30.3/Mail/Mailer.pm
--- replaced dir /usr/lib64/perl5/vendor_perl/5.30.3/Mail/Mailer
--- replaced obj /usr/lib64/perl5/vendor_perl/5.30.3/Mail/Internet.pod
--- replaced obj /usr/lib64/perl5/vendor_perl/5.30.3/Mail/Internet.pm
--- replaced obj /usr/lib64/perl5/vendor_perl/5.30.3/Mail/Header.pod
--- replaced obj /usr/lib64/perl5/vendor_perl/5.30.3/Mail/Header.pm
--- replaced obj /usr/lib64/perl5/vendor_perl/5.30.3/Mail/Filter.pod
--- replaced obj /usr/lib64/perl5/vendor_perl/5.30.3/Mail/Filter.pm
--- replaced obj /usr/lib64/perl5/vendor_perl/5.30.3/Mail/Field/Generic.pod
--- replaced obj /usr/lib64/perl5/vendor_perl/5.30.3/Mail/Field/Generic.pm
--- replaced obj /usr/lib64/perl5/vendor_perl/5.30.3/Mail/Field/Date.pod
--- replaced obj /usr/lib64/perl5/vendor_perl/5.30.3/Mail/Field/Date.pm
--- replaced obj /usr/lib64/perl5/vendor_perl/5.30.3/Mail/Field/AddrList.pod
--- replaced obj /usr/lib64/perl5/vendor_perl/5.30.3/Mail/Field/AddrList.pm
--- replaced obj /usr/lib64/perl5/vendor_perl/5.30.3/Mail/Field.pod
--- replaced obj /usr/lib64/perl5/vendor_perl/5.30.3/Mail/Field.pm
--- replaced dir /usr/lib64/perl5/vendor_perl/5.30.3/Mail/Field
--- replaced obj /usr/lib64/perl5/vendor_perl/5.30.3/Mail/Cap.pod
--- replaced obj /usr/lib64/perl5/vendor_perl/5.30.3/Mail/Cap.pm
--- replaced obj /usr/lib64/perl5/vendor_perl/5.30.3/Mail/Address.pod
--- replaced obj /usr/lib64/perl5/vendor_perl/5.30.3/Mail/Address.pm
--- replaced dir /usr/lib64/perl5/vendor_perl/5.30.3/Mail
--- replaced dir /usr/lib64/perl5/vendor_perl/5.30.3
--- replaced dir /usr/lib64/perl5/vendor_perl
--- replaced dir /usr/lib64/perl5
--- replaced dir /usr/lib64
--- replaced dir /usr
>>> Regenerating /etc/ld.so.cache...
