 * Package:    dev-perl/Module-Build-0.422.400
 * Repository: gentoo
 * Maintainer: perl@gentoo.org
 * USE:        abi_x86_64 amd64 elibc_glibc kernel_linux userland_GNU
 * FEATURES:   ccache network-sandbox preserve-libs sandbox userpriv usersandbox
 * /etc/portage/package.cflags/ltoworkarounds.conf -> */*: *FLAGS+=-Wl,-O4 *FLAGS-=-Wl,-O1
 * FEATURES='news nodoc config-protect-if-modified unknown-features-warn parallel-fetch cgroup unmerge-logs preserve-libs xattr buildpkg network-sandbox fixlafiles usersandbox pid-sandbox binpkg-dostrip parallel-install strict userfetch sandbox merge-sync multilib-strict assume-digests qa-unresolved-soname-deps strict-keepdir distlocks binpkg-logs sfperms unmerge-orphans binpkg-multi-instance usersync compress-index ipc-sandbox binpkg-docompress userpriv ccache'
 * CFLAGS='-march=znver2 -pipe -g0 -O3 -fgraphite-identity -floop-nest-optimize -fdevirtualize-at-ltrans -fipa-pta -fno-semantic-interposition -flto=12 -fno-plt -fno-signed-zeros -fno-trapping-math -fassociative-math -freciprocal-math -fno-math-errno -ffinite-math-only -fno-rounding-math -fno-signaling-nans -fcx-limited-range -fexcess-precision=fast -falign-functions=32 -fno-stack-protector -fno-stack-clash-protection -fstack-check=no -fno-stack-check -fuse-linker-plugin -Wl,-O4 -Wl,--as-needed -Wl,-lpthread -Wl,-lgomp -Wl,-z,norelro -Wl,-z,now -Wl,--sort-common -s'
 * CXXFLAGS='-march=znver2 -pipe -g0 -O3 -fgraphite-identity -floop-nest-optimize -fdevirtualize-at-ltrans -fipa-pta -fno-semantic-interposition -flto=12 -fno-plt -fno-signed-zeros -fno-trapping-math -fassociative-math -freciprocal-math -fno-math-errno -ffinite-math-only -fno-rounding-math -fno-signaling-nans -fcx-limited-range -fexcess-precision=fast -falign-functions=32 -fno-stack-protector -fno-stack-clash-protection -fstack-check=no -fno-stack-check -fuse-linker-plugin -Wl,-O4 -Wl,--as-needed -Wl,-lpthread -Wl,-lgomp -Wl,-z,norelro -Wl,-z,now -Wl,--sort-common -s'
 * FFLAGS='-march=znver2 -pipe -g0 -O3 -fgraphite-identity -floop-nest-optimize -fdevirtualize-at-ltrans -fipa-pta -fno-semantic-interposition -flto=12 -fno-plt -fno-signed-zeros -fno-trapping-math -fassociative-math -freciprocal-math -fno-math-errno -ffinite-math-only -fno-rounding-math -fno-signaling-nans -fcx-limited-range -fexcess-precision=fast -falign-functions=32 -fno-stack-protector -fno-stack-clash-protection -fstack-check=no -fno-stack-check -fuse-linker-plugin -Wl,-O4 -Wl,--as-needed -Wl,-lpthread -Wl,-lgomp -Wl,-z,norelro -Wl,-z,now -Wl,--sort-common -s'
 * FCFLAGS='-march=znver2 -pipe -g0 -O3 -fgraphite-identity -floop-nest-optimize -fdevirtualize-at-ltrans -fipa-pta -fno-semantic-interposition -flto=12 -fno-plt -fno-signed-zeros -fno-trapping-math -fassociative-math -freciprocal-math -fno-math-errno -ffinite-math-only -fno-rounding-math -fno-signaling-nans -fcx-limited-range -fexcess-precision=fast -falign-functions=32 -fno-stack-protector -fno-stack-clash-protection -fstack-check=no -fno-stack-check -fuse-linker-plugin -Wl,-O4 -Wl,--as-needed -Wl,-lpthread -Wl,-lgomp -Wl,-z,norelro -Wl,-z,now -Wl,--sort-common -s'
 * F77FLAGS='-march=znver2 -pipe -g0 -O3 -fgraphite-identity -floop-nest-optimize -fdevirtualize-at-ltrans -fipa-pta -fno-semantic-interposition -flto=12 -fno-plt -fno-signed-zeros -fno-trapping-math -fassociative-math -freciprocal-math -fno-math-errno -ffinite-math-only -fno-rounding-math -fno-signaling-nans -fcx-limited-range -fexcess-precision=fast -falign-functions=32 -fno-stack-protector -fno-stack-clash-protection -fstack-check=no -fno-stack-check -fuse-linker-plugin -Wl,-O4 -Wl,--as-needed -Wl,-lpthread -Wl,-lgomp -Wl,-z,norelro -Wl,-z,now -Wl,--sort-common -s'
 * LDFLAGS='-march=znver2 -pipe -g0 -O3 -fgraphite-identity -floop-nest-optimize -fdevirtualize-at-ltrans -fipa-pta -fno-semantic-interposition -flto=12 -fno-plt -fno-signed-zeros -fno-trapping-math -fassociative-math -freciprocal-math -fno-math-errno -ffinite-math-only -fno-rounding-math -fno-signaling-nans -fcx-limited-range -fexcess-precision=fast -falign-functions=32 -fno-stack-protector -fno-stack-clash-protection -fstack-check=no -fno-stack-check -fuse-linker-plugin -Wl,-O4 -Wl,--as-needed -Wl,-lpthread -Wl,-lgomp -Wl,-z,norelro -Wl,-z,now -Wl,--sort-common -s'
 * MAKEOPTS='-j12 -l12'
 * gcc () 11.0.0 20200605 (experimental)
 * g++ () 11.0.0 20200605 (experimental)
 * GNU ld (Gentoo 2.34 p4) 2.34.0
 * Linux rescue 5.4.36 #1 SMP Thu Apr 30 04:38:28 UTC 2020 x86_64 AMD Ryzen 5 3600 6-Core Processor AuthenticAMD GNU/Linux
dev-perl/Module-Build: 9 seconds average for 16 merges
2020-05-15T04:05:41 >>> dev-perl/Module-Build: 16 seconds
2020-05-15T12:48:09 >>> dev-perl/Module-Build: 8 seconds
2020-05-20T01:23:57 >>> dev-perl/Module-Build: 6 seconds
2020-05-21T06:49:54 >>> dev-perl/Module-Build: 5 seconds
2020-05-23T14:11:06 >>> dev-perl/Module-Build: 10 seconds
2020-05-25T00:29:14 >>> dev-perl/Module-Build: 11 seconds
2020-05-25T22:52:42 >>> dev-perl/Module-Build: 11 seconds
2020-05-26T14:22:01 >>> dev-perl/Module-Build: 6 seconds
2020-05-27T01:59:04 >>> dev-perl/Module-Build: 6 seconds
2020-05-27T04:06:45 >>> dev-perl/Module-Build: 11 seconds
2020-05-28T03:07:43 >>> dev-perl/Module-Build: 6 seconds
2020-05-29T02:22:16 >>> dev-perl/Module-Build: 6 seconds
2020-05-29T12:29:58 >>> dev-perl/Module-Build: 12 seconds
2020-05-30T14:06:09 >>> dev-perl/Module-Build: 12 seconds
2020-06-01T03:32:33 >>> dev-perl/Module-Build: 12 seconds
2020-06-03T13:15:32 >>> dev-perl/Module-Build: 12 seconds
]0;emerge 11:13:57 79|397 Module-Build 00:12 (root@rescue)kemerge 11:13:57 79|397 Module-Build 00:12 (root@rescue)\>>> Unpacking source...
>>> Unpacking Module-Build-0.4224.tar.gz to /tmp/portage/dev-perl/Module-Build-0.422.400/work
>>> Source unpacked in /tmp/portage/dev-perl/Module-Build-0.422.400/work
>>> Preparing source in /tmp/portage/dev-perl/Module-Build-0.422.400/work/Module-Build-0.4224 ...
>>> Source prepared.
>>> Configuring source in /tmp/portage/dev-perl/Module-Build-0.422.400/work/Module-Build-0.4224 ...
 * Using Module::Build
 * perl Build.PL --installdirs=vendor --libdoc= --destdir=/tmp/portage/dev-perl/Module-Build-0.422.400/image/ --create_packlist=1

Checking optional features...
inc_bundling_support....disabled
  requires:
    ! inc::latest is not installed

ERRORS/WARNINGS FOUND IN PREREQUISITES.  You may wish to install the versions
of the modules indicated above before proceeding with this installation

Created MYMETA.yml and MYMETA.json
Creating new 'Build' script for 'Module-Build' version '0.4224'
>>> Source configured.
>>> Compiling source in /tmp/portage/dev-perl/Module-Build-0.422.400/work/Module-Build-0.4224 ...
Building Module-Build
>>> Source compiled.
 * Skipping make test/check due to ebuild restriction.
>>> Test phase [disabled because of RESTRICT=test]: dev-perl/Module-Build-0.422.400

>>> Install dev-perl/Module-Build-0.422.400 into /tmp/portage/dev-perl/Module-Build-0.422.400/image/
 * ./Build install --pure
Building Module-Build
Installing /tmp/portage/dev-perl/Module-Build-0.422.400/image/usr/share/man/man1/config_data.1
Installing /tmp/portage/dev-perl/Module-Build-0.422.400/image/usr/lib64/perl5/vendor_perl/5.30.3/Module/Build.pm
Installing /tmp/portage/dev-perl/Module-Build-0.422.400/image/usr/lib64/perl5/vendor_perl/5.30.3/Module/Build/ConfigData.pm
Installing /tmp/portage/dev-perl/Module-Build-0.422.400/image/usr/lib64/perl5/vendor_perl/5.30.3/Module/Build/Config.pm
Installing /tmp/portage/dev-perl/Module-Build-0.422.400/image/usr/lib64/perl5/vendor_perl/5.30.3/Module/Build/PodParser.pm
Installing /tmp/portage/dev-perl/Module-Build-0.422.400/image/usr/lib64/perl5/vendor_perl/5.30.3/Module/Build/PPMMaker.pm
Installing /tmp/portage/dev-perl/Module-Build-0.422.400/image/usr/lib64/perl5/vendor_perl/5.30.3/Module/Build/API.pod
Installing /tmp/portage/dev-perl/Module-Build-0.422.400/image/usr/lib64/perl5/vendor_perl/5.30.3/Module/Build/Bundling.pod
Installing /tmp/portage/dev-perl/Module-Build-0.422.400/image/usr/lib64/perl5/vendor_perl/5.30.3/Module/Build/Cookbook.pm
Installing /tmp/portage/dev-perl/Module-Build-0.422.400/image/usr/lib64/perl5/vendor_perl/5.30.3/Module/Build/Compat.pm
Installing /tmp/portage/dev-perl/Module-Build-0.422.400/image/usr/lib64/perl5/vendor_perl/5.30.3/Module/Build/Authoring.pod
Installing /tmp/portage/dev-perl/Module-Build-0.422.400/image/usr/lib64/perl5/vendor_perl/5.30.3/Module/Build/Base.pm
Installing /tmp/portage/dev-perl/Module-Build-0.422.400/image/usr/lib64/perl5/vendor_perl/5.30.3/Module/Build/Dumper.pm
Installing /tmp/portage/dev-perl/Module-Build-0.422.400/image/usr/lib64/perl5/vendor_perl/5.30.3/Module/Build/Notes.pm
Installing /tmp/portage/dev-perl/Module-Build-0.422.400/image/usr/lib64/perl5/vendor_perl/5.30.3/Module/Build/Platform/Unix.pm
Installing /tmp/portage/dev-perl/Module-Build-0.422.400/image/usr/lib64/perl5/vendor_perl/5.30.3/Module/Build/Platform/MacOS.pm
Installing /tmp/portage/dev-perl/Module-Build-0.422.400/image/usr/lib64/perl5/vendor_perl/5.30.3/Module/Build/Platform/VMS.pm
Installing /tmp/portage/dev-perl/Module-Build-0.422.400/image/usr/lib64/perl5/vendor_perl/5.30.3/Module/Build/Platform/os2.pm
Installing /tmp/portage/dev-perl/Module-Build-0.422.400/image/usr/lib64/perl5/vendor_perl/5.30.3/Module/Build/Platform/VOS.pm
Installing /tmp/portage/dev-perl/Module-Build-0.422.400/image/usr/lib64/perl5/vendor_perl/5.30.3/Module/Build/Platform/Default.pm
Installing /tmp/portage/dev-perl/Module-Build-0.422.400/image/usr/lib64/perl5/vendor_perl/5.30.3/Module/Build/Platform/aix.pm
Installing /tmp/portage/dev-perl/Module-Build-0.422.400/image/usr/lib64/perl5/vendor_perl/5.30.3/Module/Build/Platform/darwin.pm
Installing /tmp/portage/dev-perl/Module-Build-0.422.400/image/usr/lib64/perl5/vendor_perl/5.30.3/Module/Build/Platform/Windows.pm
Installing /tmp/portage/dev-perl/Module-Build-0.422.400/image/usr/lib64/perl5/vendor_perl/5.30.3/Module/Build/Platform/cygwin.pm
Installing /tmp/portage/dev-perl/Module-Build-0.422.400/image/usr/share/man/man3/Module::Build::Bundling.3pm
Installing /tmp/portage/dev-perl/Module-Build-0.422.400/image/usr/share/man/man3/Module::Build::Cookbook.3pm
Installing /tmp/portage/dev-perl/Module-Build-0.422.400/image/usr/share/man/man3/Module::Build::Compat.3pm
Installing /tmp/portage/dev-perl/Module-Build-0.422.400/image/usr/share/man/man3/Module::Build::Platform::VOS.3pm
Installing /tmp/portage/dev-perl/Module-Build-0.422.400/image/usr/share/man/man3/Module::Build::Platform::Unix.3pm
Installing /tmp/portage/dev-perl/Module-Build-0.422.400/image/usr/share/man/man3/Module::Build::Platform::cygwin.3pm
Installing /tmp/portage/dev-perl/Module-Build-0.422.400/image/usr/share/man/man3/Module::Build::Notes.3pm
Installing /tmp/portage/dev-perl/Module-Build-0.422.400/image/usr/share/man/man3/Module::Build::Platform::Windows.3pm
Installing /tmp/portage/dev-perl/Module-Build-0.422.400/image/usr/share/man/man3/Module::Build.3pm
Installing /tmp/portage/dev-perl/Module-Build-0.422.400/image/usr/share/man/man3/Module::Build::Platform::VMS.3pm
Installing /tmp/portage/dev-perl/Module-Build-0.422.400/image/usr/share/man/man3/Module::Build::PPMMaker.3pm
Installing /tmp/portage/dev-perl/Module-Build-0.422.400/image/usr/share/man/man3/Module::Build::Platform::os2.3pm
Installing /tmp/portage/dev-perl/Module-Build-0.422.400/image/usr/share/man/man3/Module::Build::Platform::darwin.3pm
Installing /tmp/portage/dev-perl/Module-Build-0.422.400/image/usr/share/man/man3/Module::Build::ConfigData.3pm
Installing /tmp/portage/dev-perl/Module-Build-0.422.400/image/usr/share/man/man3/Module::Build::Platform::aix.3pm
Installing /tmp/portage/dev-perl/Module-Build-0.422.400/image/usr/share/man/man3/Module::Build::API.3pm
Installing /tmp/portage/dev-perl/Module-Build-0.422.400/image/usr/share/man/man3/Module::Build::Authoring.3pm
Installing /tmp/portage/dev-perl/Module-Build-0.422.400/image/usr/share/man/man3/Module::Build::Platform::Default.3pm
Installing /tmp/portage/dev-perl/Module-Build-0.422.400/image/usr/share/man/man3/Module::Build::Base.3pm
Installing /tmp/portage/dev-perl/Module-Build-0.422.400/image/usr/share/man/man3/Module::Build::Platform::MacOS.3pm
Installing /tmp/portage/dev-perl/Module-Build-0.422.400/image/usr/bin/config_data
 * Fixing packlist file /usr/lib64/perl5/vendor_perl/5.30.3/x86_64-linux-thread-multi/auto/Module/Build/.packlist
 * Pruning surplus packlist entry /usr/share/man/man3/Module::Build.3pm
 * Pruning surplus packlist entry /usr/share/man/man3/Module::Build::API.3pm
 * Pruning surplus packlist entry /usr/share/man/man3/Module::Build::Authoring.3pm
 * Pruning surplus packlist entry /usr/share/man/man3/Module::Build::Base.3pm
 * Pruning surplus packlist entry /usr/share/man/man3/Module::Build::Bundling.3pm
 * Pruning surplus packlist entry /usr/share/man/man3/Module::Build::Compat.3pm
 * Pruning surplus packlist entry /usr/share/man/man3/Module::Build::ConfigData.3pm
 * Pruning surplus packlist entry /usr/share/man/man3/Module::Build::Cookbook.3pm
 * Pruning surplus packlist entry /usr/share/man/man3/Module::Build::Notes.3pm
 * Pruning surplus packlist entry /usr/share/man/man3/Module::Build::PPMMaker.3pm
 * Pruning surplus packlist entry /usr/share/man/man3/Module::Build::Platform::Default.3pm
 * Pruning surplus packlist entry /usr/share/man/man3/Module::Build::Platform::MacOS.3pm
 * Pruning surplus packlist entry /usr/share/man/man3/Module::Build::Platform::Unix.3pm
 * Pruning surplus packlist entry /usr/share/man/man3/Module::Build::Platform::VMS.3pm
 * Pruning surplus packlist entry /usr/share/man/man3/Module::Build::Platform::VOS.3pm
 * Pruning surplus packlist entry /usr/share/man/man3/Module::Build::Platform::Windows.3pm
 * Pruning surplus packlist entry /usr/share/man/man3/Module::Build::Platform::aix.3pm
 * Pruning surplus packlist entry /usr/share/man/man3/Module::Build::Platform::cygwin.3pm
 * Pruning surplus packlist entry /usr/share/man/man3/Module::Build::Platform::darwin.3pm
 * Pruning surplus packlist entry /usr/share/man/man3/Module::Build::Platform::os2.3pm
>>> Completed installing dev-perl/Module-Build-0.422.400 into /tmp/portage/dev-perl/Module-Build-0.422.400/image/

 * Final size of build directory: 1984 KiB (1.9 MiB)
 * Final size of installed tree:   708 KiB

./
./usr/
./usr/bin/
./usr/bin/config_data
./usr/share/
./usr/share/man/
./usr/share/man/man1/
./usr/share/man/man1/config_data.1.bz2
./usr/share/doc/
./usr/share/doc/Module-Build-0.422.400/
./usr/share/doc/Module-Build-0.422.400/README.bz2
./usr/share/doc/Module-Build-0.422.400/Changes.bz2
./usr/lib64/
./usr/lib64/perl5/
./usr/lib64/perl5/vendor_perl/
./usr/lib64/perl5/vendor_perl/5.30.3/
./usr/lib64/perl5/vendor_perl/5.30.3/x86_64-linux-thread-multi/
./usr/lib64/perl5/vendor_perl/5.30.3/x86_64-linux-thread-multi/auto/
./usr/lib64/perl5/vendor_perl/5.30.3/x86_64-linux-thread-multi/auto/Module/
./usr/lib64/perl5/vendor_perl/5.30.3/x86_64-linux-thread-multi/auto/Module/Build/
./usr/lib64/perl5/vendor_perl/5.30.3/x86_64-linux-thread-multi/auto/Module/Build/.packlist
./usr/lib64/perl5/vendor_perl/5.30.3/Module/
./usr/lib64/perl5/vendor_perl/5.30.3/Module/Build.pm
./usr/lib64/perl5/vendor_perl/5.30.3/Module/Build/
./usr/lib64/perl5/vendor_perl/5.30.3/Module/Build/ConfigData.pm
./usr/lib64/perl5/vendor_perl/5.30.3/Module/Build/Config.pm
./usr/lib64/perl5/vendor_perl/5.30.3/Module/Build/Platform/
./usr/lib64/perl5/vendor_perl/5.30.3/Module/Build/Platform/Unix.pm
./usr/lib64/perl5/vendor_perl/5.30.3/Module/Build/Platform/MacOS.pm
./usr/lib64/perl5/vendor_perl/5.30.3/Module/Build/Platform/VMS.pm
./usr/lib64/perl5/vendor_perl/5.30.3/Module/Build/Platform/os2.pm
./usr/lib64/perl5/vendor_perl/5.30.3/Module/Build/Platform/VOS.pm
./usr/lib64/perl5/vendor_perl/5.30.3/Module/Build/Platform/Default.pm
./usr/lib64/perl5/vendor_perl/5.30.3/Module/Build/Platform/aix.pm
./usr/lib64/perl5/vendor_perl/5.30.3/Module/Build/Platform/darwin.pm
./usr/lib64/perl5/vendor_perl/5.30.3/Module/Build/Platform/Windows.pm
./usr/lib64/perl5/vendor_perl/5.30.3/Module/Build/Platform/cygwin.pm
./usr/lib64/perl5/vendor_perl/5.30.3/Module/Build/PodParser.pm
./usr/lib64/perl5/vendor_perl/5.30.3/Module/Build/PPMMaker.pm
./usr/lib64/perl5/vendor_perl/5.30.3/Module/Build/API.pod
./usr/lib64/perl5/vendor_perl/5.30.3/Module/Build/Bundling.pod
./usr/lib64/perl5/vendor_perl/5.30.3/Module/Build/Cookbook.pm
./usr/lib64/perl5/vendor_perl/5.30.3/Module/Build/Compat.pm
./usr/lib64/perl5/vendor_perl/5.30.3/Module/Build/Authoring.pod
./usr/lib64/perl5/vendor_perl/5.30.3/Module/Build/Base.pm
./usr/lib64/perl5/vendor_perl/5.30.3/Module/Build/Dumper.pm
./usr/lib64/perl5/vendor_perl/5.30.3/Module/Build/Notes.pm
>>> Done.
 * checking 26 files for package collisions
>>> Merging dev-perl/Module-Build-0.422.400 to /
 * removing unneeded *.la files
--- /usr/
--- /usr/lib64/
--- /usr/lib64/perl5/
--- /usr/lib64/perl5/vendor_perl/
--- /usr/lib64/perl5/vendor_perl/5.30.3/
--- /usr/lib64/perl5/vendor_perl/5.30.3/Module/
--- /usr/lib64/perl5/vendor_perl/5.30.3/Module/Build/
>>> /usr/lib64/perl5/vendor_perl/5.30.3/Module/Build/Notes.pm
>>> /usr/lib64/perl5/vendor_perl/5.30.3/Module/Build/Dumper.pm
>>> /usr/lib64/perl5/vendor_perl/5.30.3/Module/Build/Base.pm
>>> /usr/lib64/perl5/vendor_perl/5.30.3/Module/Build/Authoring.pod
>>> /usr/lib64/perl5/vendor_perl/5.30.3/Module/Build/Compat.pm
>>> /usr/lib64/perl5/vendor_perl/5.30.3/Module/Build/Cookbook.pm
>>> /usr/lib64/perl5/vendor_perl/5.30.3/Module/Build/Bundling.pod
>>> /usr/lib64/perl5/vendor_perl/5.30.3/Module/Build/API.pod
>>> /usr/lib64/perl5/vendor_perl/5.30.3/Module/Build/PPMMaker.pm
>>> /usr/lib64/perl5/vendor_perl/5.30.3/Module/Build/PodParser.pm
--- /usr/lib64/perl5/vendor_perl/5.30.3/Module/Build/Platform/
>>> /usr/lib64/perl5/vendor_perl/5.30.3/Module/Build/Platform/cygwin.pm
>>> /usr/lib64/perl5/vendor_perl/5.30.3/Module/Build/Platform/Windows.pm
>>> /usr/lib64/perl5/vendor_perl/5.30.3/Module/Build/Platform/darwin.pm
>>> /usr/lib64/perl5/vendor_perl/5.30.3/Module/Build/Platform/aix.pm
>>> /usr/lib64/perl5/vendor_perl/5.30.3/Module/Build/Platform/Default.pm
>>> /usr/lib64/perl5/vendor_perl/5.30.3/Module/Build/Platform/VOS.pm
>>> /usr/lib64/perl5/vendor_perl/5.30.3/Module/Build/Platform/os2.pm
>>> /usr/lib64/perl5/vendor_perl/5.30.3/Module/Build/Platform/VMS.pm
>>> /usr/lib64/perl5/vendor_perl/5.30.3/Module/Build/Platform/MacOS.pm
>>> /usr/lib64/perl5/vendor_perl/5.30.3/Module/Build/Platform/Unix.pm
>>> /usr/lib64/perl5/vendor_perl/5.30.3/Module/Build/Config.pm
>>> /usr/lib64/perl5/vendor_perl/5.30.3/Module/Build/ConfigData.pm
>>> /usr/lib64/perl5/vendor_perl/5.30.3/Module/Build.pm
--- /usr/lib64/perl5/vendor_perl/5.30.3/x86_64-linux-thread-multi/
--- /usr/lib64/perl5/vendor_perl/5.30.3/x86_64-linux-thread-multi/auto/
--- /usr/lib64/perl5/vendor_perl/5.30.3/x86_64-linux-thread-multi/auto/Module/
--- /usr/lib64/perl5/vendor_perl/5.30.3/x86_64-linux-thread-multi/auto/Module/Build/
>>> /usr/lib64/perl5/vendor_perl/5.30.3/x86_64-linux-thread-multi/auto/Module/Build/.packlist
--- /usr/share/
--- /usr/share/man/
--- /usr/share/man/man1/
>>> /usr/share/man/man1/config_data.1.bz2
--- /usr/bin/
>>> /usr/bin/config_data
>>> Safely unmerging already-installed instance...
>>> Original instance of package unmerged safely.
>>> dev-perl/Module-Build-0.422.400 merged.
