No package files given... Grabbing a set.
--- replaced obj /usr/share/man/man1/dm_zdump.1.bz2
--- replaced obj /usr/share/man/man1/dm_date.1.bz2
--- replaced dir /usr/share/man/man1
--- replaced dir /usr/share/man
--- replaced dir /usr/share
--- replaced obj /usr/lib64/perl5/vendor_perl/5.30.3/x86_64-linux-thread-multi/auto/Date/Manip/.packlist
--- replaced dir /usr/lib64/perl5/vendor_perl/5.30.3/x86_64-linux-thread-multi/auto/Date/Manip
--- replaced dir /usr/lib64/perl5/vendor_perl/5.30.3/x86_64-linux-thread-multi/auto/Date
--- replaced dir /usr/lib64/perl5/vendor_perl/5.30.3/x86_64-linux-thread-multi/auto
--- replaced dir /usr/lib64/perl5/vendor_perl/5.30.3/x86_64-linux-thread-multi
--- replaced obj /usr/lib64/perl5/vendor_perl/5.30.3/Date/Manip/Zones.pod
--- replaced obj /usr/lib64/perl5/vendor_perl/5.30.3/Date/Manip/Zones.pm
--- replaced obj /usr/lib64/perl5/vendor_perl/5.30.3/Date/Manip/TZdata.pod
--- replaced obj /usr/lib64/perl5/vendor_perl/5.30.3/Date/Manip/TZdata.pm
--- replaced obj /usr/lib64/perl5/vendor_perl/5.30.3/Date/Manip/TZ_Base.pod
--- replaced obj /usr/lib64/perl5/vendor_perl/5.30.3/Date/Manip/TZ_Base.pm
--- replaced obj /usr/lib64/perl5/vendor_perl/5.30.3/Date/Manip/TZ/z00.pm
--- replaced obj /usr/lib64/perl5/vendor_perl/5.30.3/Date/Manip/TZ/y00.pm
--- replaced obj /usr/lib64/perl5/vendor_perl/5.30.3/Date/Manip/TZ/x00.pm
--- replaced obj /usr/lib64/perl5/vendor_perl/5.30.3/Date/Manip/TZ/wet00.pm
--- replaced obj /usr/lib64/perl5/vendor_perl/5.30.3/Date/Manip/TZ/w00.pm
--- replaced obj /usr/lib64/perl5/vendor_perl/5.30.3/Date/Manip/TZ/v00.pm
--- replaced obj /usr/lib64/perl5/vendor_perl/5.30.3/Date/Manip/TZ/utc00.pm
--- replaced obj /usr/lib64/perl5/vendor_perl/5.30.3/Date/Manip/TZ/ut00.pm
--- replaced obj /usr/lib64/perl5/vendor_perl/5.30.3/Date/Manip/TZ/u00.pm
--- replaced obj /usr/lib64/perl5/vendor_perl/5.30.3/Date/Manip/TZ/t00.pm
--- replaced obj /usr/lib64/perl5/vendor_perl/5.30.3/Date/Manip/TZ/s00.pm
--- replaced obj /usr/lib64/perl5/vendor_perl/5.30.3/Date/Manip/TZ/r00.pm
--- replaced obj /usr/lib64/perl5/vendor_perl/5.30.3/Date/Manip/TZ/q00.pm
--- replaced obj /usr/lib64/perl5/vendor_perl/5.30.3/Date/Manip/TZ/pawall00.pm
--- replaced obj /usr/lib64/perl5/vendor_perl/5.30.3/Date/Manip/TZ/pawake00.pm
--- replaced obj /usr/lib64/perl5/vendor_perl/5.30.3/Date/Manip/TZ/patong00.pm
--- replaced obj /usr/lib64/perl5/vendor_perl/5.30.3/Date/Manip/TZ/patara00.pm
--- replaced obj /usr/lib64/perl5/vendor_perl/5.30.3/Date/Manip/TZ/patahi00.pm
--- replaced obj /usr/lib64/perl5/vendor_perl/5.30.3/Date/Manip/TZ/pararo00.pm
--- replaced obj /usr/lib64/perl5/vendor_perl/5.30.3/Date/Manip/TZ/paport00.pm
--- replaced obj /usr/lib64/perl5/vendor_perl/5.30.3/Date/Manip/TZ/papohn00.pm
--- replaced obj /usr/lib64/perl5/vendor_perl/5.30.3/Date/Manip/TZ/papitc00.pm
--- replaced obj /usr/lib64/perl5/vendor_perl/5.30.3/Date/Manip/TZ/papala00.pm
--- replaced obj /usr/lib64/perl5/vendor_perl/5.30.3/Date/Manip/TZ/papago00.pm
--- replaced obj /usr/lib64/perl5/vendor_perl/5.30.3/Date/Manip/TZ/panoum00.pm
--- replaced obj /usr/lib64/perl5/vendor_perl/5.30.3/Date/Manip/TZ/panorf00.pm
--- replaced obj /usr/lib64/perl5/vendor_perl/5.30.3/Date/Manip/TZ/paniue00.pm
--- replaced obj /usr/lib64/perl5/vendor_perl/5.30.3/Date/Manip/TZ/panaur00.pm
--- replaced obj /usr/lib64/perl5/vendor_perl/5.30.3/Date/Manip/TZ/pamarq00.pm
--- replaced obj /usr/lib64/perl5/vendor_perl/5.30.3/Date/Manip/TZ/pamaju00.pm
--- replaced obj /usr/lib64/perl5/vendor_perl/5.30.3/Date/Manip/TZ/pakwaj00.pm
--- replaced obj /usr/lib64/perl5/vendor_perl/5.30.3/Date/Manip/TZ/pakosr00.pm
--- replaced obj /usr/lib64/perl5/vendor_perl/5.30.3/Date/Manip/TZ/pakiri00.pm
--- replaced obj /usr/lib64/perl5/vendor_perl/5.30.3/Date/Manip/TZ/pahono00.pm
--- replaced obj /usr/lib64/perl5/vendor_perl/5.30.3/Date/Manip/TZ/paguam00.pm
--- replaced obj /usr/lib64/perl5/vendor_perl/5.30.3/Date/Manip/TZ/paguad00.pm
--- replaced obj /usr/lib64/perl5/vendor_perl/5.30.3/Date/Manip/TZ/pagamb00.pm
--- replaced obj /usr/lib64/perl5/vendor_perl/5.30.3/Date/Manip/TZ/pagala00.pm
--- replaced obj /usr/lib64/perl5/vendor_perl/5.30.3/Date/Manip/TZ/pafuna00.pm
--- replaced obj /usr/lib64/perl5/vendor_perl/5.30.3/Date/Manip/TZ/pafiji00.pm
--- replaced obj /usr/lib64/perl5/vendor_perl/5.30.3/Date/Manip/TZ/pafaka00.pm
--- replaced obj /usr/lib64/perl5/vendor_perl/5.30.3/Date/Manip/TZ/paende00.pm
--- replaced obj /usr/lib64/perl5/vendor_perl/5.30.3/Date/Manip/TZ/paefat00.pm
--- replaced obj /usr/lib64/perl5/vendor_perl/5.30.3/Date/Manip/TZ/paeast00.pm
--- replaced obj /usr/lib64/perl5/vendor_perl/5.30.3/Date/Manip/TZ/pachuu00.pm
--- replaced obj /usr/lib64/perl5/vendor_perl/5.30.3/Date/Manip/TZ/pachat00.pm
--- replaced obj /usr/lib64/perl5/vendor_perl/5.30.3/Date/Manip/TZ/paboug00.pm
--- replaced obj /usr/lib64/perl5/vendor_perl/5.30.3/Date/Manip/TZ/paauck00.pm
--- replaced obj /usr/lib64/perl5/vendor_perl/5.30.3/Date/Manip/TZ/paapia00.pm
--- replaced obj /usr/lib64/perl5/vendor_perl/5.30.3/Date/Manip/TZ/p00.pm
--- replaced obj /usr/lib64/perl5/vendor_perl/5.30.3/Date/Manip/TZ/o00.pm
--- replaced obj /usr/lib64/perl5/vendor_perl/5.30.3/Date/Manip/TZ/n00.pm
--- replaced obj /usr/lib64/perl5/vendor_perl/5.30.3/Date/Manip/TZ/met00.pm
--- replaced obj /usr/lib64/perl5/vendor_perl/5.30.3/Date/Manip/TZ/m00.pm
--- replaced obj /usr/lib64/perl5/vendor_perl/5.30.3/Date/Manip/TZ/l00.pm
--- replaced obj /usr/lib64/perl5/vendor_perl/5.30.3/Date/Manip/TZ/k00.pm
--- replaced obj /usr/lib64/perl5/vendor_perl/5.30.3/Date/Manip/TZ/inreun00.pm
--- replaced obj /usr/lib64/perl5/vendor_perl/5.30.3/Date/Manip/TZ/inmaur00.pm
--- replaced obj /usr/lib64/perl5/vendor_perl/5.30.3/Date/Manip/TZ/inmald00.pm
--- replaced obj /usr/lib64/perl5/vendor_perl/5.30.3/Date/Manip/TZ/inmahe00.pm
--- replaced obj /usr/lib64/perl5/vendor_perl/5.30.3/Date/Manip/TZ/inkerg00.pm
--- replaced obj /usr/lib64/perl5/vendor_perl/5.30.3/Date/Manip/TZ/incoco00.pm
--- replaced obj /usr/lib64/perl5/vendor_perl/5.30.3/Date/Manip/TZ/inchri00.pm
--- replaced obj /usr/lib64/perl5/vendor_perl/5.30.3/Date/Manip/TZ/inchag00.pm
--- replaced obj /usr/lib64/perl5/vendor_perl/5.30.3/Date/Manip/TZ/i00.pm
--- replaced obj /usr/lib64/perl5/vendor_perl/5.30.3/Date/Manip/TZ/h00.pm
--- replaced obj /usr/lib64/perl5/vendor_perl/5.30.3/Date/Manip/TZ/g00.pm
--- replaced obj /usr/lib64/perl5/vendor_perl/5.30.3/Date/Manip/TZ/f00.pm
--- replaced obj /usr/lib64/perl5/vendor_perl/5.30.3/Date/Manip/TZ/euzuri00.pm
--- replaced obj /usr/lib64/perl5/vendor_perl/5.30.3/Date/Manip/TZ/euzapo00.pm
--- replaced obj /usr/lib64/perl5/vendor_perl/5.30.3/Date/Manip/TZ/euwars00.pm
--- replaced obj /usr/lib64/perl5/vendor_perl/5.30.3/Date/Manip/TZ/euvolg00.pm
--- replaced obj /usr/lib64/perl5/vendor_perl/5.30.3/Date/Manip/TZ/euviln00.pm
--- replaced obj /usr/lib64/perl5/vendor_perl/5.30.3/Date/Manip/TZ/euvien00.pm
--- replaced obj /usr/lib64/perl5/vendor_perl/5.30.3/Date/Manip/TZ/euuzhg00.pm
--- replaced obj /usr/lib64/perl5/vendor_perl/5.30.3/Date/Manip/TZ/euulya00.pm
--- replaced obj /usr/lib64/perl5/vendor_perl/5.30.3/Date/Manip/TZ/eutira00.pm
--- replaced obj /usr/lib64/perl5/vendor_perl/5.30.3/Date/Manip/TZ/eutall00.pm
--- replaced obj /usr/lib64/perl5/vendor_perl/5.30.3/Date/Manip/TZ/eustoc00.pm
--- replaced obj /usr/lib64/perl5/vendor_perl/5.30.3/Date/Manip/TZ/eusofi00.pm
--- replaced obj /usr/lib64/perl5/vendor_perl/5.30.3/Date/Manip/TZ/eusimf00.pm
--- replaced obj /usr/lib64/perl5/vendor_perl/5.30.3/Date/Manip/TZ/eusara00.pm
--- replaced obj /usr/lib64/perl5/vendor_perl/5.30.3/Date/Manip/TZ/eusama00.pm
--- replaced obj /usr/lib64/perl5/vendor_perl/5.30.3/Date/Manip/TZ/eurome00.pm
--- replaced obj /usr/lib64/perl5/vendor_perl/5.30.3/Date/Manip/TZ/euriga00.pm
--- replaced obj /usr/lib64/perl5/vendor_perl/5.30.3/Date/Manip/TZ/euprag00.pm
--- replaced obj /usr/lib64/perl5/vendor_perl/5.30.3/Date/Manip/TZ/eupari00.pm
--- replaced obj /usr/lib64/perl5/vendor_perl/5.30.3/Date/Manip/TZ/euoslo00.pm
--- replaced obj /usr/lib64/perl5/vendor_perl/5.30.3/Date/Manip/TZ/eumosc00.pm
--- replaced obj /usr/lib64/perl5/vendor_perl/5.30.3/Date/Manip/TZ/eumona00.pm
--- replaced obj /usr/lib64/perl5/vendor_perl/5.30.3/Date/Manip/TZ/eumins00.pm
--- replaced obj /usr/lib64/perl5/vendor_perl/5.30.3/Date/Manip/TZ/eumalt00.pm
--- replaced obj /usr/lib64/perl5/vendor_perl/5.30.3/Date/Manip/TZ/eumadr00.pm
--- replaced obj /usr/lib64/perl5/vendor_perl/5.30.3/Date/Manip/TZ/euluxe00.pm
--- replaced obj /usr/lib64/perl5/vendor_perl/5.30.3/Date/Manip/TZ/eulond00.pm
--- replaced obj /usr/lib64/perl5/vendor_perl/5.30.3/Date/Manip/TZ/eulisb00.pm
--- replaced obj /usr/lib64/perl5/vendor_perl/5.30.3/Date/Manip/TZ/eukiro00.pm
--- replaced obj /usr/lib64/perl5/vendor_perl/5.30.3/Date/Manip/TZ/eukiev00.pm
--- replaced obj /usr/lib64/perl5/vendor_perl/5.30.3/Date/Manip/TZ/eukali00.pm
--- replaced obj /usr/lib64/perl5/vendor_perl/5.30.3/Date/Manip/TZ/euista00.pm
--- replaced obj /usr/lib64/perl5/vendor_perl/5.30.3/Date/Manip/TZ/euhels00.pm
--- replaced obj /usr/lib64/perl5/vendor_perl/5.30.3/Date/Manip/TZ/eugibr00.pm
--- replaced obj /usr/lib64/perl5/vendor_perl/5.30.3/Date/Manip/TZ/eudubl00.pm
--- replaced obj /usr/lib64/perl5/vendor_perl/5.30.3/Date/Manip/TZ/eucope00.pm
--- replaced obj /usr/lib64/perl5/vendor_perl/5.30.3/Date/Manip/TZ/euchis00.pm
--- replaced obj /usr/lib64/perl5/vendor_perl/5.30.3/Date/Manip/TZ/eubuda00.pm
--- replaced obj /usr/lib64/perl5/vendor_perl/5.30.3/Date/Manip/TZ/eubuch00.pm
--- replaced obj /usr/lib64/perl5/vendor_perl/5.30.3/Date/Manip/TZ/eubrus00.pm
--- replaced obj /usr/lib64/perl5/vendor_perl/5.30.3/Date/Manip/TZ/euberl00.pm
--- replaced obj /usr/lib64/perl5/vendor_perl/5.30.3/Date/Manip/TZ/eubelg00.pm
--- replaced obj /usr/lib64/perl5/vendor_perl/5.30.3/Date/Manip/TZ/euathe00.pm
--- replaced obj /usr/lib64/perl5/vendor_perl/5.30.3/Date/Manip/TZ/euastr00.pm
--- replaced obj /usr/lib64/perl5/vendor_perl/5.30.3/Date/Manip/TZ/euando00.pm
--- replaced obj /usr/lib64/perl5/vendor_perl/5.30.3/Date/Manip/TZ/euamst00.pm
--- replaced obj /usr/lib64/perl5/vendor_perl/5.30.3/Date/Manip/TZ/etgmtp11.pm
--- replaced obj /usr/lib64/perl5/vendor_perl/5.30.3/Date/Manip/TZ/etgmtp10.pm
--- replaced obj /usr/lib64/perl5/vendor_perl/5.30.3/Date/Manip/TZ/etgmtp09.pm
--- replaced obj /usr/lib64/perl5/vendor_perl/5.30.3/Date/Manip/TZ/etgmtp08.pm
--- replaced obj /usr/lib64/perl5/vendor_perl/5.30.3/Date/Manip/TZ/etgmtp07.pm
--- replaced obj /usr/lib64/perl5/vendor_perl/5.30.3/Date/Manip/TZ/etgmtp06.pm
--- replaced obj /usr/lib64/perl5/vendor_perl/5.30.3/Date/Manip/TZ/etgmtp05.pm
--- replaced obj /usr/lib64/perl5/vendor_perl/5.30.3/Date/Manip/TZ/etgmtp04.pm
--- replaced obj /usr/lib64/perl5/vendor_perl/5.30.3/Date/Manip/TZ/etgmtp03.pm
--- replaced obj /usr/lib64/perl5/vendor_perl/5.30.3/Date/Manip/TZ/etgmtp02.pm
--- replaced obj /usr/lib64/perl5/vendor_perl/5.30.3/Date/Manip/TZ/etgmtp01.pm
--- replaced obj /usr/lib64/perl5/vendor_perl/5.30.3/Date/Manip/TZ/etgmtp00.pm
--- replaced obj /usr/lib64/perl5/vendor_perl/5.30.3/Date/Manip/TZ/etgmtm13.pm
--- replaced obj /usr/lib64/perl5/vendor_perl/5.30.3/Date/Manip/TZ/etgmtm12.pm
--- replaced obj /usr/lib64/perl5/vendor_perl/5.30.3/Date/Manip/TZ/etgmtm11.pm
--- replaced obj /usr/lib64/perl5/vendor_perl/5.30.3/Date/Manip/TZ/etgmtm10.pm
--- replaced obj /usr/lib64/perl5/vendor_perl/5.30.3/Date/Manip/TZ/etgmtm09.pm
--- replaced obj /usr/lib64/perl5/vendor_perl/5.30.3/Date/Manip/TZ/etgmtm08.pm
--- replaced obj /usr/lib64/perl5/vendor_perl/5.30.3/Date/Manip/TZ/etgmtm07.pm
--- replaced obj /usr/lib64/perl5/vendor_perl/5.30.3/Date/Manip/TZ/etgmtm06.pm
--- replaced obj /usr/lib64/perl5/vendor_perl/5.30.3/Date/Manip/TZ/etgmtm05.pm
--- replaced obj /usr/lib64/perl5/vendor_perl/5.30.3/Date/Manip/TZ/etgmtm04.pm
--- replaced obj /usr/lib64/perl5/vendor_perl/5.30.3/Date/Manip/TZ/etgmtm03.pm
--- replaced obj /usr/lib64/perl5/vendor_perl/5.30.3/Date/Manip/TZ/etgmtm02.pm
--- replaced obj /usr/lib64/perl5/vendor_perl/5.30.3/Date/Manip/TZ/etgmtm01.pm
--- replaced obj /usr/lib64/perl5/vendor_perl/5.30.3/Date/Manip/TZ/etgmtm00.pm
--- replaced obj /usr/lib64/perl5/vendor_perl/5.30.3/Date/Manip/TZ/etgmt00.pm
--- replaced obj /usr/lib64/perl5/vendor_perl/5.30.3/Date/Manip/TZ/eet00.pm
--- replaced obj /usr/lib64/perl5/vendor_perl/5.30.3/Date/Manip/TZ/e00.pm
--- replaced obj /usr/lib64/perl5/vendor_perl/5.30.3/Date/Manip/TZ/d00.pm
--- replaced obj /usr/lib64/perl5/vendor_perl/5.30.3/Date/Manip/TZ/cet00.pm
--- replaced obj /usr/lib64/perl5/vendor_perl/5.30.3/Date/Manip/TZ/c00.pm
--- replaced obj /usr/lib64/perl5/vendor_perl/5.30.3/Date/Manip/TZ/b00.pm
--- replaced obj /usr/lib64/perl5/vendor_perl/5.30.3/Date/Manip/TZ/ausydn00.pm
--- replaced obj /usr/lib64/perl5/vendor_perl/5.30.3/Date/Manip/TZ/aupert00.pm
--- replaced obj /usr/lib64/perl5/vendor_perl/5.30.3/Date/Manip/TZ/aumelb00.pm
--- replaced obj /usr/lib64/perl5/vendor_perl/5.30.3/Date/Manip/TZ/aulord00.pm
--- replaced obj /usr/lib64/perl5/vendor_perl/5.30.3/Date/Manip/TZ/aulind00.pm
--- replaced obj /usr/lib64/perl5/vendor_perl/5.30.3/Date/Manip/TZ/auhoba00.pm
--- replaced obj /usr/lib64/perl5/vendor_perl/5.30.3/Date/Manip/TZ/aueucl00.pm
--- replaced obj /usr/lib64/perl5/vendor_perl/5.30.3/Date/Manip/TZ/audarw00.pm
--- replaced obj /usr/lib64/perl5/vendor_perl/5.30.3/Date/Manip/TZ/aucurr00.pm
--- replaced obj /usr/lib64/perl5/vendor_perl/5.30.3/Date/Manip/TZ/aubrok00.pm
--- replaced obj /usr/lib64/perl5/vendor_perl/5.30.3/Date/Manip/TZ/aubris00.pm
--- replaced obj /usr/lib64/perl5/vendor_perl/5.30.3/Date/Manip/TZ/auadel00.pm
--- replaced obj /usr/lib64/perl5/vendor_perl/5.30.3/Date/Manip/TZ/atstan00.pm
--- replaced obj /usr/lib64/perl5/vendor_perl/5.30.3/Date/Manip/TZ/atsout00.pm
--- replaced obj /usr/lib64/perl5/vendor_perl/5.30.3/Date/Manip/TZ/atreyk00.pm
--- replaced obj /usr/lib64/perl5/vendor_perl/5.30.3/Date/Manip/TZ/atmade00.pm
--- replaced obj /usr/lib64/perl5/vendor_perl/5.30.3/Date/Manip/TZ/atfaro00.pm
--- replaced obj /usr/lib64/perl5/vendor_perl/5.30.3/Date/Manip/TZ/atcape00.pm
--- replaced obj /usr/lib64/perl5/vendor_perl/5.30.3/Date/Manip/TZ/atcana00.pm
--- replaced obj /usr/lib64/perl5/vendor_perl/5.30.3/Date/Manip/TZ/atberm00.pm
--- replaced obj /usr/lib64/perl5/vendor_perl/5.30.3/Date/Manip/TZ/atazor00.pm
--- replaced obj /usr/lib64/perl5/vendor_perl/5.30.3/Date/Manip/TZ/asyere00.pm
--- replaced obj /usr/lib64/perl5/vendor_perl/5.30.3/Date/Manip/TZ/asyeka00.pm
--- replaced obj /usr/lib64/perl5/vendor_perl/5.30.3/Date/Manip/TZ/asyang00.pm
--- replaced obj /usr/lib64/perl5/vendor_perl/5.30.3/Date/Manip/TZ/asyaku00.pm
--- replaced obj /usr/lib64/perl5/vendor_perl/5.30.3/Date/Manip/TZ/asvlad00.pm
--- replaced obj /usr/lib64/perl5/vendor_perl/5.30.3/Date/Manip/TZ/asustm00.pm
--- replaced obj /usr/lib64/perl5/vendor_perl/5.30.3/Date/Manip/TZ/asurum00.pm
--- replaced obj /usr/lib64/perl5/vendor_perl/5.30.3/Date/Manip/TZ/asulaa00.pm
--- replaced obj /usr/lib64/perl5/vendor_perl/5.30.3/Date/Manip/TZ/astoms00.pm
--- replaced obj /usr/lib64/perl5/vendor_perl/5.30.3/Date/Manip/TZ/astoky00.pm
--- replaced obj /usr/lib64/perl5/vendor_perl/5.30.3/Date/Manip/TZ/asthim00.pm
--- replaced obj /usr/lib64/perl5/vendor_perl/5.30.3/Date/Manip/TZ/astehr00.pm
--- replaced obj /usr/lib64/perl5/vendor_perl/5.30.3/Date/Manip/TZ/astbil00.pm
--- replaced obj /usr/lib64/perl5/vendor_perl/5.30.3/Date/Manip/TZ/astash00.pm
--- replaced obj /usr/lib64/perl5/vendor_perl/5.30.3/Date/Manip/TZ/astaip00.pm
--- replaced obj /usr/lib64/perl5/vendor_perl/5.30.3/Date/Manip/TZ/assred00.pm
--- replaced obj /usr/lib64/perl5/vendor_perl/5.30.3/Date/Manip/TZ/assing00.pm
--- replaced obj /usr/lib64/perl5/vendor_perl/5.30.3/Date/Manip/TZ/asshan00.pm
--- replaced obj /usr/lib64/perl5/vendor_perl/5.30.3/Date/Manip/TZ/asseou00.pm
--- replaced obj /usr/lib64/perl5/vendor_perl/5.30.3/Date/Manip/TZ/assama00.pm
--- replaced obj /usr/lib64/perl5/vendor_perl/5.30.3/Date/Manip/TZ/assakh00.pm
--- replaced obj /usr/lib64/perl5/vendor_perl/5.30.3/Date/Manip/TZ/asriya00.pm
--- replaced obj /usr/lib64/perl5/vendor_perl/5.30.3/Date/Manip/TZ/asqyzy00.pm
--- replaced obj /usr/lib64/perl5/vendor_perl/5.30.3/Date/Manip/TZ/asqata00.pm
--- replaced obj /usr/lib64/perl5/vendor_perl/5.30.3/Date/Manip/TZ/aspyon00.pm
--- replaced obj /usr/lib64/perl5/vendor_perl/5.30.3/Date/Manip/TZ/aspont00.pm
--- replaced obj /usr/lib64/perl5/vendor_perl/5.30.3/Date/Manip/TZ/asoral00.pm
--- replaced obj /usr/lib64/perl5/vendor_perl/5.30.3/Date/Manip/TZ/asomsk00.pm
--- replaced obj /usr/lib64/perl5/vendor_perl/5.30.3/Date/Manip/TZ/asnovo01.pm
--- replaced obj /usr/lib64/perl5/vendor_perl/5.30.3/Date/Manip/TZ/asnovo00.pm
--- replaced obj /usr/lib64/perl5/vendor_perl/5.30.3/Date/Manip/TZ/asnico00.pm
--- replaced obj /usr/lib64/perl5/vendor_perl/5.30.3/Date/Manip/TZ/asmani00.pm
--- replaced obj /usr/lib64/perl5/vendor_perl/5.30.3/Date/Manip/TZ/asmaka00.pm
--- replaced obj /usr/lib64/perl5/vendor_perl/5.30.3/Date/Manip/TZ/asmaga00.pm
--- replaced obj /usr/lib64/perl5/vendor_perl/5.30.3/Date/Manip/TZ/asmaca00.pm
--- replaced obj /usr/lib64/perl5/vendor_perl/5.30.3/Date/Manip/TZ/askuch00.pm
--- replaced obj /usr/lib64/perl5/vendor_perl/5.30.3/Date/Manip/TZ/askual00.pm
--- replaced obj /usr/lib64/perl5/vendor_perl/5.30.3/Date/Manip/TZ/askras00.pm
--- replaced obj /usr/lib64/perl5/vendor_perl/5.30.3/Date/Manip/TZ/askolk00.pm
--- replaced obj /usr/lib64/perl5/vendor_perl/5.30.3/Date/Manip/TZ/askhan00.pm
--- replaced obj /usr/lib64/perl5/vendor_perl/5.30.3/Date/Manip/TZ/askath00.pm
--- replaced obj /usr/lib64/perl5/vendor_perl/5.30.3/Date/Manip/TZ/askara00.pm
--- replaced obj /usr/lib64/perl5/vendor_perl/5.30.3/Date/Manip/TZ/askamc00.pm
--- replaced obj /usr/lib64/perl5/vendor_perl/5.30.3/Date/Manip/TZ/askabu00.pm
--- replaced obj /usr/lib64/perl5/vendor_perl/5.30.3/Date/Manip/TZ/asjeru00.pm
--- replaced obj /usr/lib64/perl5/vendor_perl/5.30.3/Date/Manip/TZ/asjaya00.pm
--- replaced obj /usr/lib64/perl5/vendor_perl/5.30.3/Date/Manip/TZ/asjaka00.pm
--- replaced obj /usr/lib64/perl5/vendor_perl/5.30.3/Date/Manip/TZ/asirku00.pm
--- replaced obj /usr/lib64/perl5/vendor_perl/5.30.3/Date/Manip/TZ/ashovd00.pm
--- replaced obj /usr/lib64/perl5/vendor_perl/5.30.3/Date/Manip/TZ/ashong00.pm
--- replaced obj /usr/lib64/perl5/vendor_perl/5.30.3/Date/Manip/TZ/asho_c00.pm
--- replaced obj /usr/lib64/perl5/vendor_perl/5.30.3/Date/Manip/TZ/ashebr00.pm
--- replaced obj /usr/lib64/perl5/vendor_perl/5.30.3/Date/Manip/TZ/asgaza00.pm
--- replaced obj /usr/lib64/perl5/vendor_perl/5.30.3/Date/Manip/TZ/asfama00.pm
--- replaced obj /usr/lib64/perl5/vendor_perl/5.30.3/Date/Manip/TZ/asdush00.pm
--- replaced obj /usr/lib64/perl5/vendor_perl/5.30.3/Date/Manip/TZ/asduba00.pm
--- replaced obj /usr/lib64/perl5/vendor_perl/5.30.3/Date/Manip/TZ/asdili00.pm
--- replaced obj /usr/lib64/perl5/vendor_perl/5.30.3/Date/Manip/TZ/asdhak00.pm
--- replaced obj /usr/lib64/perl5/vendor_perl/5.30.3/Date/Manip/TZ/asdama00.pm
--- replaced obj /usr/lib64/perl5/vendor_perl/5.30.3/Date/Manip/TZ/ascolo00.pm
--- replaced obj /usr/lib64/perl5/vendor_perl/5.30.3/Date/Manip/TZ/aschoi00.pm
--- replaced obj /usr/lib64/perl5/vendor_perl/5.30.3/Date/Manip/TZ/aschit00.pm
--- replaced obj /usr/lib64/perl5/vendor_perl/5.30.3/Date/Manip/TZ/asbrun00.pm
--- replaced obj /usr/lib64/perl5/vendor_perl/5.30.3/Date/Manip/TZ/asbish00.pm
--- replaced obj /usr/lib64/perl5/vendor_perl/5.30.3/Date/Manip/TZ/asbeir00.pm
--- replaced obj /usr/lib64/perl5/vendor_perl/5.30.3/Date/Manip/TZ/asbarn00.pm
--- replaced obj /usr/lib64/perl5/vendor_perl/5.30.3/Date/Manip/TZ/asbang00.pm
--- replaced obj /usr/lib64/perl5/vendor_perl/5.30.3/Date/Manip/TZ/asbaku00.pm
--- replaced obj /usr/lib64/perl5/vendor_perl/5.30.3/Date/Manip/TZ/asbagh00.pm
--- replaced obj /usr/lib64/perl5/vendor_perl/5.30.3/Date/Manip/TZ/asatyr00.pm
--- replaced obj /usr/lib64/perl5/vendor_perl/5.30.3/Date/Manip/TZ/asashg00.pm
--- replaced obj /usr/lib64/perl5/vendor_perl/5.30.3/Date/Manip/TZ/asaqto00.pm
--- replaced obj /usr/lib64/perl5/vendor_perl/5.30.3/Date/Manip/TZ/asaqta00.pm
--- replaced obj /usr/lib64/perl5/vendor_perl/5.30.3/Date/Manip/TZ/asanad00.pm
--- replaced obj /usr/lib64/perl5/vendor_perl/5.30.3/Date/Manip/TZ/asamma00.pm
--- replaced obj /usr/lib64/perl5/vendor_perl/5.30.3/Date/Manip/TZ/asalma00.pm
--- replaced obj /usr/lib64/perl5/vendor_perl/5.30.3/Date/Manip/TZ/anvost00.pm
--- replaced obj /usr/lib64/perl5/vendor_perl/5.30.3/Date/Manip/TZ/antrol00.pm
--- replaced obj /usr/lib64/perl5/vendor_perl/5.30.3/Date/Manip/TZ/ansyow00.pm
--- replaced obj /usr/lib64/perl5/vendor_perl/5.30.3/Date/Manip/TZ/anroth00.pm
--- replaced obj /usr/lib64/perl5/vendor_perl/5.30.3/Date/Manip/TZ/anpalm00.pm
--- replaced obj /usr/lib64/perl5/vendor_perl/5.30.3/Date/Manip/TZ/anmaws00.pm
--- replaced obj /usr/lib64/perl5/vendor_perl/5.30.3/Date/Manip/TZ/anmacq00.pm
--- replaced obj /usr/lib64/perl5/vendor_perl/5.30.3/Date/Manip/TZ/andumo00.pm
--- replaced obj /usr/lib64/perl5/vendor_perl/5.30.3/Date/Manip/TZ/andavi00.pm
--- replaced obj /usr/lib64/perl5/vendor_perl/5.30.3/Date/Manip/TZ/ancase00.pm
--- replaced obj /usr/lib64/perl5/vendor_perl/5.30.3/Date/Manip/TZ/amyell00.pm
--- replaced obj /usr/lib64/perl5/vendor_perl/5.30.3/Date/Manip/TZ/amyaku00.pm
--- replaced obj /usr/lib64/perl5/vendor_perl/5.30.3/Date/Manip/TZ/amwinn00.pm
--- replaced obj /usr/lib64/perl5/vendor_perl/5.30.3/Date/Manip/TZ/amwina00.pm
--- replaced obj /usr/lib64/perl5/vendor_perl/5.30.3/Date/Manip/TZ/amwhit00.pm
--- replaced obj /usr/lib64/perl5/vendor_perl/5.30.3/Date/Manip/TZ/amvinc00.pm
--- replaced obj /usr/lib64/perl5/vendor_perl/5.30.3/Date/Manip/TZ/amveva00.pm
--- replaced obj /usr/lib64/perl5/vendor_perl/5.30.3/Date/Manip/TZ/amvanc00.pm
--- replaced obj /usr/lib64/perl5/vendor_perl/5.30.3/Date/Manip/TZ/amushu00.pm
--- replaced obj /usr/lib64/perl5/vendor_perl/5.30.3/Date/Manip/TZ/amtucu00.pm
--- replaced obj /usr/lib64/perl5/vendor_perl/5.30.3/Date/Manip/TZ/amtoro00.pm
--- replaced obj /usr/lib64/perl5/vendor_perl/5.30.3/Date/Manip/TZ/amtiju00.pm
--- replaced obj /usr/lib64/perl5/vendor_perl/5.30.3/Date/Manip/TZ/amthun00.pm
--- replaced obj /usr/lib64/perl5/vendor_perl/5.30.3/Date/Manip/TZ/amthul00.pm
--- replaced obj /usr/lib64/perl5/vendor_perl/5.30.3/Date/Manip/TZ/amtell00.pm
--- replaced obj /usr/lib64/perl5/vendor_perl/5.30.3/Date/Manip/TZ/amtegu00.pm
--- replaced obj /usr/lib64/perl5/vendor_perl/5.30.3/Date/Manip/TZ/amswif00.pm
--- replaced obj /usr/lib64/perl5/vendor_perl/5.30.3/Date/Manip/TZ/amst_j00.pm
--- replaced obj /usr/lib64/perl5/vendor_perl/5.30.3/Date/Manip/TZ/amsitk00.pm
--- replaced obj /usr/lib64/perl5/vendor_perl/5.30.3/Date/Manip/TZ/amscor00.pm
--- replaced obj /usr/lib64/perl5/vendor_perl/5.30.3/Date/Manip/TZ/amsao_00.pm
--- replaced obj /usr/lib64/perl5/vendor_perl/5.30.3/Date/Manip/TZ/amsant02.pm
--- replaced obj /usr/lib64/perl5/vendor_perl/5.30.3/Date/Manip/TZ/amsant01.pm
--- replaced obj /usr/lib64/perl5/vendor_perl/5.30.3/Date/Manip/TZ/amsant00.pm
--- replaced obj /usr/lib64/perl5/vendor_perl/5.30.3/Date/Manip/TZ/amsan_01.pm
--- replaced obj /usr/lib64/perl5/vendor_perl/5.30.3/Date/Manip/TZ/amsan_00.pm
--- replaced obj /usr/lib64/perl5/vendor_perl/5.30.3/Date/Manip/TZ/amsalt00.pm
--- replaced obj /usr/lib64/perl5/vendor_perl/5.30.3/Date/Manip/TZ/amrio_01.pm
--- replaced obj /usr/lib64/perl5/vendor_perl/5.30.3/Date/Manip/TZ/amrio_00.pm
--- replaced obj /usr/lib64/perl5/vendor_perl/5.30.3/Date/Manip/TZ/amreso00.pm
--- replaced obj /usr/lib64/perl5/vendor_perl/5.30.3/Date/Manip/TZ/amregi00.pm
--- replaced obj /usr/lib64/perl5/vendor_perl/5.30.3/Date/Manip/TZ/amreci00.pm
--- replaced obj /usr/lib64/perl5/vendor_perl/5.30.3/Date/Manip/TZ/amrank00.pm
--- replaced obj /usr/lib64/perl5/vendor_perl/5.30.3/Date/Manip/TZ/amrain00.pm
--- replaced obj /usr/lib64/perl5/vendor_perl/5.30.3/Date/Manip/TZ/ampunt00.pm
--- replaced obj /usr/lib64/perl5/vendor_perl/5.30.3/Date/Manip/TZ/ampuer00.pm
--- replaced obj /usr/lib64/perl5/vendor_perl/5.30.3/Date/Manip/TZ/amport02.pm
--- replaced obj /usr/lib64/perl5/vendor_perl/5.30.3/Date/Manip/TZ/amport01.pm
--- replaced obj /usr/lib64/perl5/vendor_perl/5.30.3/Date/Manip/TZ/amport00.pm
--- replaced obj /usr/lib64/perl5/vendor_perl/5.30.3/Date/Manip/TZ/amphoe00.pm
--- replaced obj /usr/lib64/perl5/vendor_perl/5.30.3/Date/Manip/TZ/ampete00.pm
--- replaced obj /usr/lib64/perl5/vendor_perl/5.30.3/Date/Manip/TZ/ampara00.pm
--- replaced obj /usr/lib64/perl5/vendor_perl/5.30.3/Date/Manip/TZ/ampang00.pm
--- replaced obj /usr/lib64/perl5/vendor_perl/5.30.3/Date/Manip/TZ/ampana00.pm
--- replaced obj /usr/lib64/perl5/vendor_perl/5.30.3/Date/Manip/TZ/amojin00.pm
--- replaced obj /usr/lib64/perl5/vendor_perl/5.30.3/Date/Manip/TZ/amnoro00.pm
--- replaced obj /usr/lib64/perl5/vendor_perl/5.30.3/Date/Manip/TZ/amnome00.pm
--- replaced obj /usr/lib64/perl5/vendor_perl/5.30.3/Date/Manip/TZ/amnipi00.pm
--- replaced obj /usr/lib64/perl5/vendor_perl/5.30.3/Date/Manip/TZ/amnew_01.pm
--- replaced obj /usr/lib64/perl5/vendor_perl/5.30.3/Date/Manip/TZ/amnew_00.pm
--- replaced obj /usr/lib64/perl5/vendor_perl/5.30.3/Date/Manip/TZ/amnass00.pm
--- replaced obj /usr/lib64/perl5/vendor_perl/5.30.3/Date/Manip/TZ/ammont02.pm
--- replaced obj /usr/lib64/perl5/vendor_perl/5.30.3/Date/Manip/TZ/ammont01.pm
--- replaced obj /usr/lib64/perl5/vendor_perl/5.30.3/Date/Manip/TZ/ammont00.pm
--- replaced obj /usr/lib64/perl5/vendor_perl/5.30.3/Date/Manip/TZ/ammonc00.pm
--- replaced obj /usr/lib64/perl5/vendor_perl/5.30.3/Date/Manip/TZ/ammiqu00.pm
--- replaced obj /usr/lib64/perl5/vendor_perl/5.30.3/Date/Manip/TZ/ammexi00.pm
--- replaced obj /usr/lib64/perl5/vendor_perl/5.30.3/Date/Manip/TZ/ammetl00.pm
--- replaced obj /usr/lib64/perl5/vendor_perl/5.30.3/Date/Manip/TZ/ammeri00.pm
--- replaced obj /usr/lib64/perl5/vendor_perl/5.30.3/Date/Manip/TZ/ammeno00.pm
--- replaced obj /usr/lib64/perl5/vendor_perl/5.30.3/Date/Manip/TZ/ammend00.pm
--- replaced obj /usr/lib64/perl5/vendor_perl/5.30.3/Date/Manip/TZ/ammaza00.pm
--- replaced obj /usr/lib64/perl5/vendor_perl/5.30.3/Date/Manip/TZ/ammata00.pm
--- replaced obj /usr/lib64/perl5/vendor_perl/5.30.3/Date/Manip/TZ/ammart00.pm
--- replaced obj /usr/lib64/perl5/vendor_perl/5.30.3/Date/Manip/TZ/ammare00.pm
--- replaced obj /usr/lib64/perl5/vendor_perl/5.30.3/Date/Manip/TZ/ammana01.pm
--- replaced obj /usr/lib64/perl5/vendor_perl/5.30.3/Date/Manip/TZ/ammana00.pm
--- replaced obj /usr/lib64/perl5/vendor_perl/5.30.3/Date/Manip/TZ/ammace00.pm
--- replaced obj /usr/lib64/perl5/vendor_perl/5.30.3/Date/Manip/TZ/amloui00.pm
--- replaced obj /usr/lib64/perl5/vendor_perl/5.30.3/Date/Manip/TZ/amlos_00.pm
--- replaced obj /usr/lib64/perl5/vendor_perl/5.30.3/Date/Manip/TZ/amlima00.pm
--- replaced obj /usr/lib64/perl5/vendor_perl/5.30.3/Date/Manip/TZ/amla_r00.pm
--- replaced obj /usr/lib64/perl5/vendor_perl/5.30.3/Date/Manip/TZ/amla_p00.pm
--- replaced obj /usr/lib64/perl5/vendor_perl/5.30.3/Date/Manip/TZ/amknox00.pm
--- replaced obj /usr/lib64/perl5/vendor_perl/5.30.3/Date/Manip/TZ/amjune00.pm
--- replaced obj /usr/lib64/perl5/vendor_perl/5.30.3/Date/Manip/TZ/amjuju00.pm
--- replaced obj /usr/lib64/perl5/vendor_perl/5.30.3/Date/Manip/TZ/amjama00.pm
--- replaced obj /usr/lib64/perl5/vendor_perl/5.30.3/Date/Manip/TZ/amiqal00.pm
--- replaced obj /usr/lib64/perl5/vendor_perl/5.30.3/Date/Manip/TZ/aminuv00.pm
--- replaced obj /usr/lib64/perl5/vendor_perl/5.30.3/Date/Manip/TZ/amindi00.pm
--- replaced obj /usr/lib64/perl5/vendor_perl/5.30.3/Date/Manip/TZ/amherm00.pm
--- replaced obj /usr/lib64/perl5/vendor_perl/5.30.3/Date/Manip/TZ/amhava00.pm
--- replaced obj /usr/lib64/perl5/vendor_perl/5.30.3/Date/Manip/TZ/amhali00.pm
--- replaced obj /usr/lib64/perl5/vendor_perl/5.30.3/Date/Manip/TZ/amguya00.pm
--- replaced obj /usr/lib64/perl5/vendor_perl/5.30.3/Date/Manip/TZ/amguay00.pm
--- replaced obj /usr/lib64/perl5/vendor_perl/5.30.3/Date/Manip/TZ/amguat00.pm
--- replaced obj /usr/lib64/perl5/vendor_perl/5.30.3/Date/Manip/TZ/amgran00.pm
--- replaced obj /usr/lib64/perl5/vendor_perl/5.30.3/Date/Manip/TZ/amgoos00.pm
--- replaced obj /usr/lib64/perl5/vendor_perl/5.30.3/Date/Manip/TZ/amgodt00.pm
--- replaced obj /usr/lib64/perl5/vendor_perl/5.30.3/Date/Manip/TZ/amglac00.pm
--- replaced obj /usr/lib64/perl5/vendor_perl/5.30.3/Date/Manip/TZ/amfort01.pm
--- replaced obj /usr/lib64/perl5/vendor_perl/5.30.3/Date/Manip/TZ/amfort00.pm
--- replaced obj /usr/lib64/perl5/vendor_perl/5.30.3/Date/Manip/TZ/amel_s00.pm
--- replaced obj /usr/lib64/perl5/vendor_perl/5.30.3/Date/Manip/TZ/ameiru00.pm
--- replaced obj /usr/lib64/perl5/vendor_perl/5.30.3/Date/Manip/TZ/amedmo00.pm
--- replaced obj /usr/lib64/perl5/vendor_perl/5.30.3/Date/Manip/TZ/amdetr00.pm
--- replaced obj /usr/lib64/perl5/vendor_perl/5.30.3/Date/Manip/TZ/amdenv00.pm
--- replaced obj /usr/lib64/perl5/vendor_perl/5.30.3/Date/Manip/TZ/amdaws01.pm
--- replaced obj /usr/lib64/perl5/vendor_perl/5.30.3/Date/Manip/TZ/amdaws00.pm
--- replaced obj /usr/lib64/perl5/vendor_perl/5.30.3/Date/Manip/TZ/amdanm00.pm
--- replaced obj /usr/lib64/perl5/vendor_perl/5.30.3/Date/Manip/TZ/amcura00.pm
--- replaced obj /usr/lib64/perl5/vendor_perl/5.30.3/Date/Manip/TZ/amcuia00.pm
--- replaced obj /usr/lib64/perl5/vendor_perl/5.30.3/Date/Manip/TZ/amcres00.pm
--- replaced obj /usr/lib64/perl5/vendor_perl/5.30.3/Date/Manip/TZ/amcost00.pm
--- replaced obj /usr/lib64/perl5/vendor_perl/5.30.3/Date/Manip/TZ/amcord00.pm
--- replaced obj /usr/lib64/perl5/vendor_perl/5.30.3/Date/Manip/TZ/amchih00.pm
--- replaced obj /usr/lib64/perl5/vendor_perl/5.30.3/Date/Manip/TZ/amchic00.pm
--- replaced obj /usr/lib64/perl5/vendor_perl/5.30.3/Date/Manip/TZ/amcent00.pm
--- replaced obj /usr/lib64/perl5/vendor_perl/5.30.3/Date/Manip/TZ/amcaye00.pm
--- replaced obj /usr/lib64/perl5/vendor_perl/5.30.3/Date/Manip/TZ/amcata00.pm
--- replaced obj /usr/lib64/perl5/vendor_perl/5.30.3/Date/Manip/TZ/amcara00.pm
--- replaced obj /usr/lib64/perl5/vendor_perl/5.30.3/Date/Manip/TZ/amcanc00.pm
--- replaced obj /usr/lib64/perl5/vendor_perl/5.30.3/Date/Manip/TZ/amcamp00.pm
--- replaced obj /usr/lib64/perl5/vendor_perl/5.30.3/Date/Manip/TZ/amcamb00.pm
--- replaced obj /usr/lib64/perl5/vendor_perl/5.30.3/Date/Manip/TZ/ambuen00.pm
--- replaced obj /usr/lib64/perl5/vendor_perl/5.30.3/Date/Manip/TZ/ambois00.pm
--- replaced obj /usr/lib64/perl5/vendor_perl/5.30.3/Date/Manip/TZ/ambogo00.pm
--- replaced obj /usr/lib64/perl5/vendor_perl/5.30.3/Date/Manip/TZ/amboa_00.pm
--- replaced obj /usr/lib64/perl5/vendor_perl/5.30.3/Date/Manip/TZ/amblan00.pm
--- replaced obj /usr/lib64/perl5/vendor_perl/5.30.3/Date/Manip/TZ/ambeul00.pm
--- replaced obj /usr/lib64/perl5/vendor_perl/5.30.3/Date/Manip/TZ/ambeli00.pm
--- replaced obj /usr/lib64/perl5/vendor_perl/5.30.3/Date/Manip/TZ/ambele00.pm
--- replaced obj /usr/lib64/perl5/vendor_perl/5.30.3/Date/Manip/TZ/ambarb00.pm
--- replaced obj /usr/lib64/perl5/vendor_perl/5.30.3/Date/Manip/TZ/ambahi01.pm
--- replaced obj /usr/lib64/perl5/vendor_perl/5.30.3/Date/Manip/TZ/ambahi00.pm
--- replaced obj /usr/lib64/perl5/vendor_perl/5.30.3/Date/Manip/TZ/amatik00.pm
--- replaced obj /usr/lib64/perl5/vendor_perl/5.30.3/Date/Manip/TZ/amasun00.pm
--- replaced obj /usr/lib64/perl5/vendor_perl/5.30.3/Date/Manip/TZ/amarag00.pm
--- replaced obj /usr/lib64/perl5/vendor_perl/5.30.3/Date/Manip/TZ/amanch00.pm
--- replaced obj /usr/lib64/perl5/vendor_perl/5.30.3/Date/Manip/TZ/amadak00.pm
--- replaced obj /usr/lib64/perl5/vendor_perl/5.30.3/Date/Manip/TZ/afwind00.pm
--- replaced obj /usr/lib64/perl5/vendor_perl/5.30.3/Date/Manip/TZ/aftuni00.pm
--- replaced obj /usr/lib64/perl5/vendor_perl/5.30.3/Date/Manip/TZ/aftrip00.pm
--- replaced obj /usr/lib64/perl5/vendor_perl/5.30.3/Date/Manip/TZ/afndja00.pm
--- replaced obj /usr/lib64/perl5/vendor_perl/5.30.3/Date/Manip/TZ/afnair00.pm
--- replaced obj /usr/lib64/perl5/vendor_perl/5.30.3/Date/Manip/TZ/afmonr00.pm
--- replaced obj /usr/lib64/perl5/vendor_perl/5.30.3/Date/Manip/TZ/afmapu00.pm
--- replaced obj /usr/lib64/perl5/vendor_perl/5.30.3/Date/Manip/TZ/aflago00.pm
--- replaced obj /usr/lib64/perl5/vendor_perl/5.30.3/Date/Manip/TZ/afkhar00.pm
--- replaced obj /usr/lib64/perl5/vendor_perl/5.30.3/Date/Manip/TZ/afjoha00.pm
--- replaced obj /usr/lib64/perl5/vendor_perl/5.30.3/Date/Manip/TZ/afel_a00.pm
--- replaced obj /usr/lib64/perl5/vendor_perl/5.30.3/Date/Manip/TZ/afceut00.pm
--- replaced obj /usr/lib64/perl5/vendor_perl/5.30.3/Date/Manip/TZ/afcasa00.pm
--- replaced obj /usr/lib64/perl5/vendor_perl/5.30.3/Date/Manip/TZ/afcair00.pm
--- replaced obj /usr/lib64/perl5/vendor_perl/5.30.3/Date/Manip/TZ/afbiss00.pm
--- replaced obj /usr/lib64/perl5/vendor_perl/5.30.3/Date/Manip/TZ/afalgi00.pm
--- replaced obj /usr/lib64/perl5/vendor_perl/5.30.3/Date/Manip/TZ/afaccr00.pm
--- replaced obj /usr/lib64/perl5/vendor_perl/5.30.3/Date/Manip/TZ/afabid00.pm
--- replaced obj /usr/lib64/perl5/vendor_perl/5.30.3/Date/Manip/TZ/a00.pm
--- replaced obj /usr/lib64/perl5/vendor_perl/5.30.3/Date/Manip/TZ.pod
--- replaced obj /usr/lib64/perl5/vendor_perl/5.30.3/Date/Manip/TZ.pm
--- replaced dir /usr/lib64/perl5/vendor_perl/5.30.3/Date/Manip/TZ
--- replaced obj /usr/lib64/perl5/vendor_perl/5.30.3/Date/Manip/Recur.pod
--- replaced obj /usr/lib64/perl5/vendor_perl/5.30.3/Date/Manip/Recur.pm
--- replaced obj /usr/lib64/perl5/vendor_perl/5.30.3/Date/Manip/Problems.pod
--- replaced obj /usr/lib64/perl5/vendor_perl/5.30.3/Date/Manip/Offset/off436.pm
--- replaced obj /usr/lib64/perl5/vendor_perl/5.30.3/Date/Manip/Offset/off435.pm
--- replaced obj /usr/lib64/perl5/vendor_perl/5.30.3/Date/Manip/Offset/off434.pm
--- replaced obj /usr/lib64/perl5/vendor_perl/5.30.3/Date/Manip/Offset/off433.pm
--- replaced obj /usr/lib64/perl5/vendor_perl/5.30.3/Date/Manip/Offset/off432.pm
--- replaced obj /usr/lib64/perl5/vendor_perl/5.30.3/Date/Manip/Offset/off431.pm
--- replaced obj /usr/lib64/perl5/vendor_perl/5.30.3/Date/Manip/Offset/off430.pm
--- replaced obj /usr/lib64/perl5/vendor_perl/5.30.3/Date/Manip/Offset/off429.pm
--- replaced obj /usr/lib64/perl5/vendor_perl/5.30.3/Date/Manip/Offset/off428.pm
--- replaced obj /usr/lib64/perl5/vendor_perl/5.30.3/Date/Manip/Offset/off427.pm
--- replaced obj /usr/lib64/perl5/vendor_perl/5.30.3/Date/Manip/Offset/off426.pm
--- replaced obj /usr/lib64/perl5/vendor_perl/5.30.3/Date/Manip/Offset/off425.pm
--- replaced obj /usr/lib64/perl5/vendor_perl/5.30.3/Date/Manip/Offset/off424.pm
--- replaced obj /usr/lib64/perl5/vendor_perl/5.30.3/Date/Manip/Offset/off423.pm
--- replaced obj /usr/lib64/perl5/vendor_perl/5.30.3/Date/Manip/Offset/off422.pm
--- replaced obj /usr/lib64/perl5/vendor_perl/5.30.3/Date/Manip/Offset/off421.pm
--- replaced obj /usr/lib64/perl5/vendor_perl/5.30.3/Date/Manip/Offset/off420.pm
--- replaced obj /usr/lib64/perl5/vendor_perl/5.30.3/Date/Manip/Offset/off419.pm
--- replaced obj /usr/lib64/perl5/vendor_perl/5.30.3/Date/Manip/Offset/off418.pm
--- replaced obj /usr/lib64/perl5/vendor_perl/5.30.3/Date/Manip/Offset/off417.pm
--- replaced obj /usr/lib64/perl5/vendor_perl/5.30.3/Date/Manip/Offset/off416.pm
--- replaced obj /usr/lib64/perl5/vendor_perl/5.30.3/Date/Manip/Offset/off415.pm
--- replaced obj /usr/lib64/perl5/vendor_perl/5.30.3/Date/Manip/Offset/off414.pm
--- replaced obj /usr/lib64/perl5/vendor_perl/5.30.3/Date/Manip/Offset/off413.pm
--- replaced obj /usr/lib64/perl5/vendor_perl/5.30.3/Date/Manip/Offset/off412.pm
--- replaced obj /usr/lib64/perl5/vendor_perl/5.30.3/Date/Manip/Offset/off411.pm
--- replaced obj /usr/lib64/perl5/vendor_perl/5.30.3/Date/Manip/Offset/off410.pm
--- replaced obj /usr/lib64/perl5/vendor_perl/5.30.3/Date/Manip/Offset/off409.pm
--- replaced obj /usr/lib64/perl5/vendor_perl/5.30.3/Date/Manip/Offset/off408.pm
--- replaced obj /usr/lib64/perl5/vendor_perl/5.30.3/Date/Manip/Offset/off407.pm
--- replaced obj /usr/lib64/perl5/vendor_perl/5.30.3/Date/Manip/Offset/off406.pm
--- replaced obj /usr/lib64/perl5/vendor_perl/5.30.3/Date/Manip/Offset/off405.pm
--- replaced obj /usr/lib64/perl5/vendor_perl/5.30.3/Date/Manip/Offset/off404.pm
--- replaced obj /usr/lib64/perl5/vendor_perl/5.30.3/Date/Manip/Offset/off403.pm
--- replaced obj /usr/lib64/perl5/vendor_perl/5.30.3/Date/Manip/Offset/off402.pm
--- replaced obj /usr/lib64/perl5/vendor_perl/5.30.3/Date/Manip/Offset/off401.pm
--- replaced obj /usr/lib64/perl5/vendor_perl/5.30.3/Date/Manip/Offset/off400.pm
--- replaced obj /usr/lib64/perl5/vendor_perl/5.30.3/Date/Manip/Offset/off399.pm
--- replaced obj /usr/lib64/perl5/vendor_perl/5.30.3/Date/Manip/Offset/off398.pm
--- replaced obj /usr/lib64/perl5/vendor_perl/5.30.3/Date/Manip/Offset/off397.pm
--- replaced obj /usr/lib64/perl5/vendor_perl/5.30.3/Date/Manip/Offset/off396.pm
--- replaced obj /usr/lib64/perl5/vendor_perl/5.30.3/Date/Manip/Offset/off395.pm
--- replaced obj /usr/lib64/perl5/vendor_perl/5.30.3/Date/Manip/Offset/off394.pm
--- replaced obj /usr/lib64/perl5/vendor_perl/5.30.3/Date/Manip/Offset/off393.pm
--- replaced obj /usr/lib64/perl5/vendor_perl/5.30.3/Date/Manip/Offset/off392.pm
--- replaced obj /usr/lib64/perl5/vendor_perl/5.30.3/Date/Manip/Offset/off391.pm
--- replaced obj /usr/lib64/perl5/vendor_perl/5.30.3/Date/Manip/Offset/off390.pm
--- replaced obj /usr/lib64/perl5/vendor_perl/5.30.3/Date/Manip/Offset/off389.pm
--- replaced obj /usr/lib64/perl5/vendor_perl/5.30.3/Date/Manip/Offset/off388.pm
--- replaced obj /usr/lib64/perl5/vendor_perl/5.30.3/Date/Manip/Offset/off387.pm
--- replaced obj /usr/lib64/perl5/vendor_perl/5.30.3/Date/Manip/Offset/off386.pm
--- replaced obj /usr/lib64/perl5/vendor_perl/5.30.3/Date/Manip/Offset/off385.pm
--- replaced obj /usr/lib64/perl5/vendor_perl/5.30.3/Date/Manip/Offset/off384.pm
--- replaced obj /usr/lib64/perl5/vendor_perl/5.30.3/Date/Manip/Offset/off383.pm
--- replaced obj /usr/lib64/perl5/vendor_perl/5.30.3/Date/Manip/Offset/off382.pm
--- replaced obj /usr/lib64/perl5/vendor_perl/5.30.3/Date/Manip/Offset/off381.pm
--- replaced obj /usr/lib64/perl5/vendor_perl/5.30.3/Date/Manip/Offset/off380.pm
--- replaced obj /usr/lib64/perl5/vendor_perl/5.30.3/Date/Manip/Offset/off379.pm
--- replaced obj /usr/lib64/perl5/vendor_perl/5.30.3/Date/Manip/Offset/off378.pm
--- replaced obj /usr/lib64/perl5/vendor_perl/5.30.3/Date/Manip/Offset/off377.pm
--- replaced obj /usr/lib64/perl5/vendor_perl/5.30.3/Date/Manip/Offset/off376.pm
--- replaced obj /usr/lib64/perl5/vendor_perl/5.30.3/Date/Manip/Offset/off375.pm
--- replaced obj /usr/lib64/perl5/vendor_perl/5.30.3/Date/Manip/Offset/off374.pm
--- replaced obj /usr/lib64/perl5/vendor_perl/5.30.3/Date/Manip/Offset/off373.pm
--- replaced obj /usr/lib64/perl5/vendor_perl/5.30.3/Date/Manip/Offset/off372.pm
--- replaced obj /usr/lib64/perl5/vendor_perl/5.30.3/Date/Manip/Offset/off371.pm
--- replaced obj /usr/lib64/perl5/vendor_perl/5.30.3/Date/Manip/Offset/off370.pm
--- replaced obj /usr/lib64/perl5/vendor_perl/5.30.3/Date/Manip/Offset/off369.pm
--- replaced obj /usr/lib64/perl5/vendor_perl/5.30.3/Date/Manip/Offset/off368.pm
--- replaced obj /usr/lib64/perl5/vendor_perl/5.30.3/Date/Manip/Offset/off367.pm
--- replaced obj /usr/lib64/perl5/vendor_perl/5.30.3/Date/Manip/Offset/off366.pm
--- replaced obj /usr/lib64/perl5/vendor_perl/5.30.3/Date/Manip/Offset/off365.pm
--- replaced obj /usr/lib64/perl5/vendor_perl/5.30.3/Date/Manip/Offset/off364.pm
--- replaced obj /usr/lib64/perl5/vendor_perl/5.30.3/Date/Manip/Offset/off363.pm
--- replaced obj /usr/lib64/perl5/vendor_perl/5.30.3/Date/Manip/Offset/off362.pm
--- replaced obj /usr/lib64/perl5/vendor_perl/5.30.3/Date/Manip/Offset/off361.pm
--- replaced obj /usr/lib64/perl5/vendor_perl/5.30.3/Date/Manip/Offset/off360.pm
--- replaced obj /usr/lib64/perl5/vendor_perl/5.30.3/Date/Manip/Offset/off359.pm
--- replaced obj /usr/lib64/perl5/vendor_perl/5.30.3/Date/Manip/Offset/off358.pm
--- replaced obj /usr/lib64/perl5/vendor_perl/5.30.3/Date/Manip/Offset/off357.pm
--- replaced obj /usr/lib64/perl5/vendor_perl/5.30.3/Date/Manip/Offset/off356.pm
--- replaced obj /usr/lib64/perl5/vendor_perl/5.30.3/Date/Manip/Offset/off355.pm
--- replaced obj /usr/lib64/perl5/vendor_perl/5.30.3/Date/Manip/Offset/off354.pm
--- replaced obj /usr/lib64/perl5/vendor_perl/5.30.3/Date/Manip/Offset/off353.pm
--- replaced obj /usr/lib64/perl5/vendor_perl/5.30.3/Date/Manip/Offset/off352.pm
--- replaced obj /usr/lib64/perl5/vendor_perl/5.30.3/Date/Manip/Offset/off351.pm
--- replaced obj /usr/lib64/perl5/vendor_perl/5.30.3/Date/Manip/Offset/off350.pm
--- replaced obj /usr/lib64/perl5/vendor_perl/5.30.3/Date/Manip/Offset/off349.pm
--- replaced obj /usr/lib64/perl5/vendor_perl/5.30.3/Date/Manip/Offset/off348.pm
--- replaced obj /usr/lib64/perl5/vendor_perl/5.30.3/Date/Manip/Offset/off347.pm
--- replaced obj /usr/lib64/perl5/vendor_perl/5.30.3/Date/Manip/Offset/off346.pm
--- replaced obj /usr/lib64/perl5/vendor_perl/5.30.3/Date/Manip/Offset/off345.pm
--- replaced obj /usr/lib64/perl5/vendor_perl/5.30.3/Date/Manip/Offset/off344.pm
--- replaced obj /usr/lib64/perl5/vendor_perl/5.30.3/Date/Manip/Offset/off343.pm
--- replaced obj /usr/lib64/perl5/vendor_perl/5.30.3/Date/Manip/Offset/off342.pm
--- replaced obj /usr/lib64/perl5/vendor_perl/5.30.3/Date/Manip/Offset/off341.pm
--- replaced obj /usr/lib64/perl5/vendor_perl/5.30.3/Date/Manip/Offset/off340.pm
--- replaced obj /usr/lib64/perl5/vendor_perl/5.30.3/Date/Manip/Offset/off339.pm
--- replaced obj /usr/lib64/perl5/vendor_perl/5.30.3/Date/Manip/Offset/off338.pm
--- replaced obj /usr/lib64/perl5/vendor_perl/5.30.3/Date/Manip/Offset/off337.pm
--- replaced obj /usr/lib64/perl5/vendor_perl/5.30.3/Date/Manip/Offset/off336.pm
--- replaced obj /usr/lib64/perl5/vendor_perl/5.30.3/Date/Manip/Offset/off335.pm
--- replaced obj /usr/lib64/perl5/vendor_perl/5.30.3/Date/Manip/Offset/off334.pm
--- replaced obj /usr/lib64/perl5/vendor_perl/5.30.3/Date/Manip/Offset/off333.pm
--- replaced obj /usr/lib64/perl5/vendor_perl/5.30.3/Date/Manip/Offset/off332.pm
--- replaced obj /usr/lib64/perl5/vendor_perl/5.30.3/Date/Manip/Offset/off331.pm
--- replaced obj /usr/lib64/perl5/vendor_perl/5.30.3/Date/Manip/Offset/off330.pm
--- replaced obj /usr/lib64/perl5/vendor_perl/5.30.3/Date/Manip/Offset/off329.pm
--- replaced obj /usr/lib64/perl5/vendor_perl/5.30.3/Date/Manip/Offset/off328.pm
--- replaced obj /usr/lib64/perl5/vendor_perl/5.30.3/Date/Manip/Offset/off327.pm
--- replaced obj /usr/lib64/perl5/vendor_perl/5.30.3/Date/Manip/Offset/off326.pm
--- replaced obj /usr/lib64/perl5/vendor_perl/5.30.3/Date/Manip/Offset/off325.pm
--- replaced obj /usr/lib64/perl5/vendor_perl/5.30.3/Date/Manip/Offset/off324.pm
--- replaced obj /usr/lib64/perl5/vendor_perl/5.30.3/Date/Manip/Offset/off323.pm
--- replaced obj /usr/lib64/perl5/vendor_perl/5.30.3/Date/Manip/Offset/off322.pm
--- replaced obj /usr/lib64/perl5/vendor_perl/5.30.3/Date/Manip/Offset/off321.pm
--- replaced obj /usr/lib64/perl5/vendor_perl/5.30.3/Date/Manip/Offset/off320.pm
--- replaced obj /usr/lib64/perl5/vendor_perl/5.30.3/Date/Manip/Offset/off319.pm
--- replaced obj /usr/lib64/perl5/vendor_perl/5.30.3/Date/Manip/Offset/off318.pm
--- replaced obj /usr/lib64/perl5/vendor_perl/5.30.3/Date/Manip/Offset/off317.pm
--- replaced obj /usr/lib64/perl5/vendor_perl/5.30.3/Date/Manip/Offset/off316.pm
--- replaced obj /usr/lib64/perl5/vendor_perl/5.30.3/Date/Manip/Offset/off315.pm
--- replaced obj /usr/lib64/perl5/vendor_perl/5.30.3/Date/Manip/Offset/off314.pm
--- replaced obj /usr/lib64/perl5/vendor_perl/5.30.3/Date/Manip/Offset/off313.pm
--- replaced obj /usr/lib64/perl5/vendor_perl/5.30.3/Date/Manip/Offset/off312.pm
--- replaced obj /usr/lib64/perl5/vendor_perl/5.30.3/Date/Manip/Offset/off311.pm
--- replaced obj /usr/lib64/perl5/vendor_perl/5.30.3/Date/Manip/Offset/off310.pm
--- replaced obj /usr/lib64/perl5/vendor_perl/5.30.3/Date/Manip/Offset/off309.pm
--- replaced obj /usr/lib64/perl5/vendor_perl/5.30.3/Date/Manip/Offset/off308.pm
--- replaced obj /usr/lib64/perl5/vendor_perl/5.30.3/Date/Manip/Offset/off307.pm
--- replaced obj /usr/lib64/perl5/vendor_perl/5.30.3/Date/Manip/Offset/off306.pm
--- replaced obj /usr/lib64/perl5/vendor_perl/5.30.3/Date/Manip/Offset/off305.pm
--- replaced obj /usr/lib64/perl5/vendor_perl/5.30.3/Date/Manip/Offset/off304.pm
--- replaced obj /usr/lib64/perl5/vendor_perl/5.30.3/Date/Manip/Offset/off303.pm
--- replaced obj /usr/lib64/perl5/vendor_perl/5.30.3/Date/Manip/Offset/off302.pm
--- replaced obj /usr/lib64/perl5/vendor_perl/5.30.3/Date/Manip/Offset/off301.pm
--- replaced obj /usr/lib64/perl5/vendor_perl/5.30.3/Date/Manip/Offset/off300.pm
--- replaced obj /usr/lib64/perl5/vendor_perl/5.30.3/Date/Manip/Offset/off299.pm
--- replaced obj /usr/lib64/perl5/vendor_perl/5.30.3/Date/Manip/Offset/off298.pm
--- replaced obj /usr/lib64/perl5/vendor_perl/5.30.3/Date/Manip/Offset/off297.pm
--- replaced obj /usr/lib64/perl5/vendor_perl/5.30.3/Date/Manip/Offset/off296.pm
--- replaced obj /usr/lib64/perl5/vendor_perl/5.30.3/Date/Manip/Offset/off295.pm
--- replaced obj /usr/lib64/perl5/vendor_perl/5.30.3/Date/Manip/Offset/off294.pm
--- replaced obj /usr/lib64/perl5/vendor_perl/5.30.3/Date/Manip/Offset/off293.pm
--- replaced obj /usr/lib64/perl5/vendor_perl/5.30.3/Date/Manip/Offset/off292.pm
--- replaced obj /usr/lib64/perl5/vendor_perl/5.30.3/Date/Manip/Offset/off291.pm
--- replaced obj /usr/lib64/perl5/vendor_perl/5.30.3/Date/Manip/Offset/off290.pm
--- replaced obj /usr/lib64/perl5/vendor_perl/5.30.3/Date/Manip/Offset/off289.pm
--- replaced obj /usr/lib64/perl5/vendor_perl/5.30.3/Date/Manip/Offset/off288.pm
--- replaced obj /usr/lib64/perl5/vendor_perl/5.30.3/Date/Manip/Offset/off287.pm
--- replaced obj /usr/lib64/perl5/vendor_perl/5.30.3/Date/Manip/Offset/off286.pm
--- replaced obj /usr/lib64/perl5/vendor_perl/5.30.3/Date/Manip/Offset/off285.pm
--- replaced obj /usr/lib64/perl5/vendor_perl/5.30.3/Date/Manip/Offset/off284.pm
--- replaced obj /usr/lib64/perl5/vendor_perl/5.30.3/Date/Manip/Offset/off283.pm
--- replaced obj /usr/lib64/perl5/vendor_perl/5.30.3/Date/Manip/Offset/off282.pm
--- replaced obj /usr/lib64/perl5/vendor_perl/5.30.3/Date/Manip/Offset/off281.pm
--- replaced obj /usr/lib64/perl5/vendor_perl/5.30.3/Date/Manip/Offset/off280.pm
--- replaced obj /usr/lib64/perl5/vendor_perl/5.30.3/Date/Manip/Offset/off279.pm
--- replaced obj /usr/lib64/perl5/vendor_perl/5.30.3/Date/Manip/Offset/off278.pm
--- replaced obj /usr/lib64/perl5/vendor_perl/5.30.3/Date/Manip/Offset/off277.pm
--- replaced obj /usr/lib64/perl5/vendor_perl/5.30.3/Date/Manip/Offset/off276.pm
--- replaced obj /usr/lib64/perl5/vendor_perl/5.30.3/Date/Manip/Offset/off275.pm
--- replaced obj /usr/lib64/perl5/vendor_perl/5.30.3/Date/Manip/Offset/off274.pm
--- replaced obj /usr/lib64/perl5/vendor_perl/5.30.3/Date/Manip/Offset/off273.pm
--- replaced obj /usr/lib64/perl5/vendor_perl/5.30.3/Date/Manip/Offset/off272.pm
--- replaced obj /usr/lib64/perl5/vendor_perl/5.30.3/Date/Manip/Offset/off271.pm
--- replaced obj /usr/lib64/perl5/vendor_perl/5.30.3/Date/Manip/Offset/off270.pm
--- replaced obj /usr/lib64/perl5/vendor_perl/5.30.3/Date/Manip/Offset/off269.pm
--- replaced obj /usr/lib64/perl5/vendor_perl/5.30.3/Date/Manip/Offset/off268.pm
--- replaced obj /usr/lib64/perl5/vendor_perl/5.30.3/Date/Manip/Offset/off267.pm
--- replaced obj /usr/lib64/perl5/vendor_perl/5.30.3/Date/Manip/Offset/off266.pm
--- replaced obj /usr/lib64/perl5/vendor_perl/5.30.3/Date/Manip/Offset/off265.pm
--- replaced obj /usr/lib64/perl5/vendor_perl/5.30.3/Date/Manip/Offset/off264.pm
--- replaced obj /usr/lib64/perl5/vendor_perl/5.30.3/Date/Manip/Offset/off263.pm
--- replaced obj /usr/lib64/perl5/vendor_perl/5.30.3/Date/Manip/Offset/off262.pm
--- replaced obj /usr/lib64/perl5/vendor_perl/5.30.3/Date/Manip/Offset/off261.pm
--- replaced obj /usr/lib64/perl5/vendor_perl/5.30.3/Date/Manip/Offset/off260.pm
--- replaced obj /usr/lib64/perl5/vendor_perl/5.30.3/Date/Manip/Offset/off259.pm
--- replaced obj /usr/lib64/perl5/vendor_perl/5.30.3/Date/Manip/Offset/off258.pm
--- replaced obj /usr/lib64/perl5/vendor_perl/5.30.3/Date/Manip/Offset/off257.pm
--- replaced obj /usr/lib64/perl5/vendor_perl/5.30.3/Date/Manip/Offset/off256.pm
--- replaced obj /usr/lib64/perl5/vendor_perl/5.30.3/Date/Manip/Offset/off255.pm
--- replaced obj /usr/lib64/perl5/vendor_perl/5.30.3/Date/Manip/Offset/off254.pm
--- replaced obj /usr/lib64/perl5/vendor_perl/5.30.3/Date/Manip/Offset/off253.pm
--- replaced obj /usr/lib64/perl5/vendor_perl/5.30.3/Date/Manip/Offset/off252.pm
--- replaced obj /usr/lib64/perl5/vendor_perl/5.30.3/Date/Manip/Offset/off251.pm
--- replaced obj /usr/lib64/perl5/vendor_perl/5.30.3/Date/Manip/Offset/off250.pm
--- replaced obj /usr/lib64/perl5/vendor_perl/5.30.3/Date/Manip/Offset/off249.pm
--- replaced obj /usr/lib64/perl5/vendor_perl/5.30.3/Date/Manip/Offset/off248.pm
--- replaced obj /usr/lib64/perl5/vendor_perl/5.30.3/Date/Manip/Offset/off247.pm
--- replaced obj /usr/lib64/perl5/vendor_perl/5.30.3/Date/Manip/Offset/off246.pm
--- replaced obj /usr/lib64/perl5/vendor_perl/5.30.3/Date/Manip/Offset/off245.pm
--- replaced obj /usr/lib64/perl5/vendor_perl/5.30.3/Date/Manip/Offset/off244.pm
--- replaced obj /usr/lib64/perl5/vendor_perl/5.30.3/Date/Manip/Offset/off243.pm
--- replaced obj /usr/lib64/perl5/vendor_perl/5.30.3/Date/Manip/Offset/off242.pm
--- replaced obj /usr/lib64/perl5/vendor_perl/5.30.3/Date/Manip/Offset/off241.pm
--- replaced obj /usr/lib64/perl5/vendor_perl/5.30.3/Date/Manip/Offset/off240.pm
--- replaced obj /usr/lib64/perl5/vendor_perl/5.30.3/Date/Manip/Offset/off239.pm
--- replaced obj /usr/lib64/perl5/vendor_perl/5.30.3/Date/Manip/Offset/off238.pm
--- replaced obj /usr/lib64/perl5/vendor_perl/5.30.3/Date/Manip/Offset/off237.pm
--- replaced obj /usr/lib64/perl5/vendor_perl/5.30.3/Date/Manip/Offset/off236.pm
--- replaced obj /usr/lib64/perl5/vendor_perl/5.30.3/Date/Manip/Offset/off235.pm
--- replaced obj /usr/lib64/perl5/vendor_perl/5.30.3/Date/Manip/Offset/off234.pm
--- replaced obj /usr/lib64/perl5/vendor_perl/5.30.3/Date/Manip/Offset/off233.pm
--- replaced obj /usr/lib64/perl5/vendor_perl/5.30.3/Date/Manip/Offset/off232.pm
--- replaced obj /usr/lib64/perl5/vendor_perl/5.30.3/Date/Manip/Offset/off231.pm
--- replaced obj /usr/lib64/perl5/vendor_perl/5.30.3/Date/Manip/Offset/off230.pm
--- replaced obj /usr/lib64/perl5/vendor_perl/5.30.3/Date/Manip/Offset/off229.pm
--- replaced obj /usr/lib64/perl5/vendor_perl/5.30.3/Date/Manip/Offset/off228.pm
--- replaced obj /usr/lib64/perl5/vendor_perl/5.30.3/Date/Manip/Offset/off227.pm
--- replaced obj /usr/lib64/perl5/vendor_perl/5.30.3/Date/Manip/Offset/off226.pm
--- replaced obj /usr/lib64/perl5/vendor_perl/5.30.3/Date/Manip/Offset/off225.pm
--- replaced obj /usr/lib64/perl5/vendor_perl/5.30.3/Date/Manip/Offset/off224.pm
--- replaced obj /usr/lib64/perl5/vendor_perl/5.30.3/Date/Manip/Offset/off223.pm
--- replaced obj /usr/lib64/perl5/vendor_perl/5.30.3/Date/Manip/Offset/off222.pm
--- replaced obj /usr/lib64/perl5/vendor_perl/5.30.3/Date/Manip/Offset/off221.pm
--- replaced obj /usr/lib64/perl5/vendor_perl/5.30.3/Date/Manip/Offset/off220.pm
--- replaced obj /usr/lib64/perl5/vendor_perl/5.30.3/Date/Manip/Offset/off219.pm
--- replaced obj /usr/lib64/perl5/vendor_perl/5.30.3/Date/Manip/Offset/off218.pm
--- replaced obj /usr/lib64/perl5/vendor_perl/5.30.3/Date/Manip/Offset/off217.pm
--- replaced obj /usr/lib64/perl5/vendor_perl/5.30.3/Date/Manip/Offset/off216.pm
--- replaced obj /usr/lib64/perl5/vendor_perl/5.30.3/Date/Manip/Offset/off215.pm
--- replaced obj /usr/lib64/perl5/vendor_perl/5.30.3/Date/Manip/Offset/off214.pm
--- replaced obj /usr/lib64/perl5/vendor_perl/5.30.3/Date/Manip/Offset/off213.pm
--- replaced obj /usr/lib64/perl5/vendor_perl/5.30.3/Date/Manip/Offset/off212.pm
--- replaced obj /usr/lib64/perl5/vendor_perl/5.30.3/Date/Manip/Offset/off211.pm
--- replaced obj /usr/lib64/perl5/vendor_perl/5.30.3/Date/Manip/Offset/off210.pm
--- replaced obj /usr/lib64/perl5/vendor_perl/5.30.3/Date/Manip/Offset/off209.pm
--- replaced obj /usr/lib64/perl5/vendor_perl/5.30.3/Date/Manip/Offset/off208.pm
--- replaced obj /usr/lib64/perl5/vendor_perl/5.30.3/Date/Manip/Offset/off207.pm
--- replaced obj /usr/lib64/perl5/vendor_perl/5.30.3/Date/Manip/Offset/off206.pm
--- replaced obj /usr/lib64/perl5/vendor_perl/5.30.3/Date/Manip/Offset/off205.pm
--- replaced obj /usr/lib64/perl5/vendor_perl/5.30.3/Date/Manip/Offset/off204.pm
--- replaced obj /usr/lib64/perl5/vendor_perl/5.30.3/Date/Manip/Offset/off203.pm
--- replaced obj /usr/lib64/perl5/vendor_perl/5.30.3/Date/Manip/Offset/off202.pm
--- replaced obj /usr/lib64/perl5/vendor_perl/5.30.3/Date/Manip/Offset/off201.pm
--- replaced obj /usr/lib64/perl5/vendor_perl/5.30.3/Date/Manip/Offset/off200.pm
--- replaced obj /usr/lib64/perl5/vendor_perl/5.30.3/Date/Manip/Offset/off199.pm
--- replaced obj /usr/lib64/perl5/vendor_perl/5.30.3/Date/Manip/Offset/off198.pm
--- replaced obj /usr/lib64/perl5/vendor_perl/5.30.3/Date/Manip/Offset/off197.pm
--- replaced obj /usr/lib64/perl5/vendor_perl/5.30.3/Date/Manip/Offset/off196.pm
--- replaced obj /usr/lib64/perl5/vendor_perl/5.30.3/Date/Manip/Offset/off195.pm
--- replaced obj /usr/lib64/perl5/vendor_perl/5.30.3/Date/Manip/Offset/off194.pm
--- replaced obj /usr/lib64/perl5/vendor_perl/5.30.3/Date/Manip/Offset/off193.pm
--- replaced obj /usr/lib64/perl5/vendor_perl/5.30.3/Date/Manip/Offset/off192.pm
--- replaced obj /usr/lib64/perl5/vendor_perl/5.30.3/Date/Manip/Offset/off191.pm
--- replaced obj /usr/lib64/perl5/vendor_perl/5.30.3/Date/Manip/Offset/off190.pm
--- replaced obj /usr/lib64/perl5/vendor_perl/5.30.3/Date/Manip/Offset/off189.pm
--- replaced obj /usr/lib64/perl5/vendor_perl/5.30.3/Date/Manip/Offset/off188.pm
--- replaced obj /usr/lib64/perl5/vendor_perl/5.30.3/Date/Manip/Offset/off187.pm
--- replaced obj /usr/lib64/perl5/vendor_perl/5.30.3/Date/Manip/Offset/off186.pm
--- replaced obj /usr/lib64/perl5/vendor_perl/5.30.3/Date/Manip/Offset/off185.pm
--- replaced obj /usr/lib64/perl5/vendor_perl/5.30.3/Date/Manip/Offset/off184.pm
--- replaced obj /usr/lib64/perl5/vendor_perl/5.30.3/Date/Manip/Offset/off183.pm
--- replaced obj /usr/lib64/perl5/vendor_perl/5.30.3/Date/Manip/Offset/off182.pm
--- replaced obj /usr/lib64/perl5/vendor_perl/5.30.3/Date/Manip/Offset/off181.pm
--- replaced obj /usr/lib64/perl5/vendor_perl/5.30.3/Date/Manip/Offset/off180.pm
--- replaced obj /usr/lib64/perl5/vendor_perl/5.30.3/Date/Manip/Offset/off179.pm
--- replaced obj /usr/lib64/perl5/vendor_perl/5.30.3/Date/Manip/Offset/off178.pm
--- replaced obj /usr/lib64/perl5/vendor_perl/5.30.3/Date/Manip/Offset/off177.pm
--- replaced obj /usr/lib64/perl5/vendor_perl/5.30.3/Date/Manip/Offset/off176.pm
--- replaced obj /usr/lib64/perl5/vendor_perl/5.30.3/Date/Manip/Offset/off175.pm
--- replaced obj /usr/lib64/perl5/vendor_perl/5.30.3/Date/Manip/Offset/off174.pm
--- replaced obj /usr/lib64/perl5/vendor_perl/5.30.3/Date/Manip/Offset/off173.pm
--- replaced obj /usr/lib64/perl5/vendor_perl/5.30.3/Date/Manip/Offset/off172.pm
--- replaced obj /usr/lib64/perl5/vendor_perl/5.30.3/Date/Manip/Offset/off171.pm
--- replaced obj /usr/lib64/perl5/vendor_perl/5.30.3/Date/Manip/Offset/off170.pm
--- replaced obj /usr/lib64/perl5/vendor_perl/5.30.3/Date/Manip/Offset/off169.pm
--- replaced obj /usr/lib64/perl5/vendor_perl/5.30.3/Date/Manip/Offset/off168.pm
--- replaced obj /usr/lib64/perl5/vendor_perl/5.30.3/Date/Manip/Offset/off167.pm
--- replaced obj /usr/lib64/perl5/vendor_perl/5.30.3/Date/Manip/Offset/off166.pm
--- replaced obj /usr/lib64/perl5/vendor_perl/5.30.3/Date/Manip/Offset/off165.pm
--- replaced obj /usr/lib64/perl5/vendor_perl/5.30.3/Date/Manip/Offset/off164.pm
--- replaced obj /usr/lib64/perl5/vendor_perl/5.30.3/Date/Manip/Offset/off163.pm
--- replaced obj /usr/lib64/perl5/vendor_perl/5.30.3/Date/Manip/Offset/off162.pm
--- replaced obj /usr/lib64/perl5/vendor_perl/5.30.3/Date/Manip/Offset/off161.pm
--- replaced obj /usr/lib64/perl5/vendor_perl/5.30.3/Date/Manip/Offset/off160.pm
--- replaced obj /usr/lib64/perl5/vendor_perl/5.30.3/Date/Manip/Offset/off159.pm
--- replaced obj /usr/lib64/perl5/vendor_perl/5.30.3/Date/Manip/Offset/off158.pm
--- replaced obj /usr/lib64/perl5/vendor_perl/5.30.3/Date/Manip/Offset/off157.pm
--- replaced obj /usr/lib64/perl5/vendor_perl/5.30.3/Date/Manip/Offset/off156.pm
--- replaced obj /usr/lib64/perl5/vendor_perl/5.30.3/Date/Manip/Offset/off155.pm
--- replaced obj /usr/lib64/perl5/vendor_perl/5.30.3/Date/Manip/Offset/off154.pm
--- replaced obj /usr/lib64/perl5/vendor_perl/5.30.3/Date/Manip/Offset/off153.pm
--- replaced obj /usr/lib64/perl5/vendor_perl/5.30.3/Date/Manip/Offset/off152.pm
--- replaced obj /usr/lib64/perl5/vendor_perl/5.30.3/Date/Manip/Offset/off151.pm
--- replaced obj /usr/lib64/perl5/vendor_perl/5.30.3/Date/Manip/Offset/off150.pm
--- replaced obj /usr/lib64/perl5/vendor_perl/5.30.3/Date/Manip/Offset/off149.pm
--- replaced obj /usr/lib64/perl5/vendor_perl/5.30.3/Date/Manip/Offset/off148.pm
--- replaced obj /usr/lib64/perl5/vendor_perl/5.30.3/Date/Manip/Offset/off147.pm
--- replaced obj /usr/lib64/perl5/vendor_perl/5.30.3/Date/Manip/Offset/off146.pm
--- replaced obj /usr/lib64/perl5/vendor_perl/5.30.3/Date/Manip/Offset/off145.pm
--- replaced obj /usr/lib64/perl5/vendor_perl/5.30.3/Date/Manip/Offset/off144.pm
--- replaced obj /usr/lib64/perl5/vendor_perl/5.30.3/Date/Manip/Offset/off143.pm
--- replaced obj /usr/lib64/perl5/vendor_perl/5.30.3/Date/Manip/Offset/off142.pm
--- replaced obj /usr/lib64/perl5/vendor_perl/5.30.3/Date/Manip/Offset/off141.pm
--- replaced obj /usr/lib64/perl5/vendor_perl/5.30.3/Date/Manip/Offset/off140.pm
--- replaced obj /usr/lib64/perl5/vendor_perl/5.30.3/Date/Manip/Offset/off139.pm
--- replaced obj /usr/lib64/perl5/vendor_perl/5.30.3/Date/Manip/Offset/off138.pm
--- replaced obj /usr/lib64/perl5/vendor_perl/5.30.3/Date/Manip/Offset/off137.pm
--- replaced obj /usr/lib64/perl5/vendor_perl/5.30.3/Date/Manip/Offset/off136.pm
--- replaced obj /usr/lib64/perl5/vendor_perl/5.30.3/Date/Manip/Offset/off135.pm
--- replaced obj /usr/lib64/perl5/vendor_perl/5.30.3/Date/Manip/Offset/off134.pm
--- replaced obj /usr/lib64/perl5/vendor_perl/5.30.3/Date/Manip/Offset/off133.pm
--- replaced obj /usr/lib64/perl5/vendor_perl/5.30.3/Date/Manip/Offset/off132.pm
--- replaced obj /usr/lib64/perl5/vendor_perl/5.30.3/Date/Manip/Offset/off131.pm
--- replaced obj /usr/lib64/perl5/vendor_perl/5.30.3/Date/Manip/Offset/off130.pm
--- replaced obj /usr/lib64/perl5/vendor_perl/5.30.3/Date/Manip/Offset/off129.pm
--- replaced obj /usr/lib64/perl5/vendor_perl/5.30.3/Date/Manip/Offset/off128.pm
--- replaced obj /usr/lib64/perl5/vendor_perl/5.30.3/Date/Manip/Offset/off127.pm
--- replaced obj /usr/lib64/perl5/vendor_perl/5.30.3/Date/Manip/Offset/off126.pm
--- replaced obj /usr/lib64/perl5/vendor_perl/5.30.3/Date/Manip/Offset/off125.pm
--- replaced obj /usr/lib64/perl5/vendor_perl/5.30.3/Date/Manip/Offset/off124.pm
--- replaced obj /usr/lib64/perl5/vendor_perl/5.30.3/Date/Manip/Offset/off123.pm
--- replaced obj /usr/lib64/perl5/vendor_perl/5.30.3/Date/Manip/Offset/off122.pm
--- replaced obj /usr/lib64/perl5/vendor_perl/5.30.3/Date/Manip/Offset/off121.pm
--- replaced obj /usr/lib64/perl5/vendor_perl/5.30.3/Date/Manip/Offset/off120.pm
--- replaced obj /usr/lib64/perl5/vendor_perl/5.30.3/Date/Manip/Offset/off119.pm
--- replaced obj /usr/lib64/perl5/vendor_perl/5.30.3/Date/Manip/Offset/off118.pm
--- replaced obj /usr/lib64/perl5/vendor_perl/5.30.3/Date/Manip/Offset/off117.pm
--- replaced obj /usr/lib64/perl5/vendor_perl/5.30.3/Date/Manip/Offset/off116.pm
--- replaced obj /usr/lib64/perl5/vendor_perl/5.30.3/Date/Manip/Offset/off115.pm
--- replaced obj /usr/lib64/perl5/vendor_perl/5.30.3/Date/Manip/Offset/off114.pm
--- replaced obj /usr/lib64/perl5/vendor_perl/5.30.3/Date/Manip/Offset/off113.pm
--- replaced obj /usr/lib64/perl5/vendor_perl/5.30.3/Date/Manip/Offset/off112.pm
--- replaced obj /usr/lib64/perl5/vendor_perl/5.30.3/Date/Manip/Offset/off111.pm
--- replaced obj /usr/lib64/perl5/vendor_perl/5.30.3/Date/Manip/Offset/off110.pm
--- replaced obj /usr/lib64/perl5/vendor_perl/5.30.3/Date/Manip/Offset/off109.pm
--- replaced obj /usr/lib64/perl5/vendor_perl/5.30.3/Date/Manip/Offset/off108.pm
--- replaced obj /usr/lib64/perl5/vendor_perl/5.30.3/Date/Manip/Offset/off107.pm
--- replaced obj /usr/lib64/perl5/vendor_perl/5.30.3/Date/Manip/Offset/off106.pm
--- replaced obj /usr/lib64/perl5/vendor_perl/5.30.3/Date/Manip/Offset/off105.pm
--- replaced obj /usr/lib64/perl5/vendor_perl/5.30.3/Date/Manip/Offset/off104.pm
--- replaced obj /usr/lib64/perl5/vendor_perl/5.30.3/Date/Manip/Offset/off103.pm
--- replaced obj /usr/lib64/perl5/vendor_perl/5.30.3/Date/Manip/Offset/off102.pm
--- replaced obj /usr/lib64/perl5/vendor_perl/5.30.3/Date/Manip/Offset/off101.pm
--- replaced obj /usr/lib64/perl5/vendor_perl/5.30.3/Date/Manip/Offset/off100.pm
--- replaced obj /usr/lib64/perl5/vendor_perl/5.30.3/Date/Manip/Offset/off099.pm
--- replaced obj /usr/lib64/perl5/vendor_perl/5.30.3/Date/Manip/Offset/off098.pm
--- replaced obj /usr/lib64/perl5/vendor_perl/5.30.3/Date/Manip/Offset/off097.pm
--- replaced obj /usr/lib64/perl5/vendor_perl/5.30.3/Date/Manip/Offset/off096.pm
--- replaced obj /usr/lib64/perl5/vendor_perl/5.30.3/Date/Manip/Offset/off095.pm
--- replaced obj /usr/lib64/perl5/vendor_perl/5.30.3/Date/Manip/Offset/off094.pm
--- replaced obj /usr/lib64/perl5/vendor_perl/5.30.3/Date/Manip/Offset/off093.pm
--- replaced obj /usr/lib64/perl5/vendor_perl/5.30.3/Date/Manip/Offset/off092.pm
--- replaced obj /usr/lib64/perl5/vendor_perl/5.30.3/Date/Manip/Offset/off091.pm
--- replaced obj /usr/lib64/perl5/vendor_perl/5.30.3/Date/Manip/Offset/off090.pm
--- replaced obj /usr/lib64/perl5/vendor_perl/5.30.3/Date/Manip/Offset/off089.pm
--- replaced obj /usr/lib64/perl5/vendor_perl/5.30.3/Date/Manip/Offset/off088.pm
--- replaced obj /usr/lib64/perl5/vendor_perl/5.30.3/Date/Manip/Offset/off087.pm
--- replaced obj /usr/lib64/perl5/vendor_perl/5.30.3/Date/Manip/Offset/off086.pm
--- replaced obj /usr/lib64/perl5/vendor_perl/5.30.3/Date/Manip/Offset/off085.pm
--- replaced obj /usr/lib64/perl5/vendor_perl/5.30.3/Date/Manip/Offset/off084.pm
--- replaced obj /usr/lib64/perl5/vendor_perl/5.30.3/Date/Manip/Offset/off083.pm
--- replaced obj /usr/lib64/perl5/vendor_perl/5.30.3/Date/Manip/Offset/off082.pm
--- replaced obj /usr/lib64/perl5/vendor_perl/5.30.3/Date/Manip/Offset/off081.pm
--- replaced obj /usr/lib64/perl5/vendor_perl/5.30.3/Date/Manip/Offset/off080.pm
--- replaced obj /usr/lib64/perl5/vendor_perl/5.30.3/Date/Manip/Offset/off079.pm
--- replaced obj /usr/lib64/perl5/vendor_perl/5.30.3/Date/Manip/Offset/off078.pm
--- replaced obj /usr/lib64/perl5/vendor_perl/5.30.3/Date/Manip/Offset/off077.pm
--- replaced obj /usr/lib64/perl5/vendor_perl/5.30.3/Date/Manip/Offset/off076.pm
--- replaced obj /usr/lib64/perl5/vendor_perl/5.30.3/Date/Manip/Offset/off075.pm
--- replaced obj /usr/lib64/perl5/vendor_perl/5.30.3/Date/Manip/Offset/off074.pm
--- replaced obj /usr/lib64/perl5/vendor_perl/5.30.3/Date/Manip/Offset/off073.pm
--- replaced obj /usr/lib64/perl5/vendor_perl/5.30.3/Date/Manip/Offset/off072.pm
--- replaced obj /usr/lib64/perl5/vendor_perl/5.30.3/Date/Manip/Offset/off071.pm
--- replaced obj /usr/lib64/perl5/vendor_perl/5.30.3/Date/Manip/Offset/off070.pm
--- replaced obj /usr/lib64/perl5/vendor_perl/5.30.3/Date/Manip/Offset/off069.pm
--- replaced obj /usr/lib64/perl5/vendor_perl/5.30.3/Date/Manip/Offset/off068.pm
--- replaced obj /usr/lib64/perl5/vendor_perl/5.30.3/Date/Manip/Offset/off067.pm
--- replaced obj /usr/lib64/perl5/vendor_perl/5.30.3/Date/Manip/Offset/off066.pm
--- replaced obj /usr/lib64/perl5/vendor_perl/5.30.3/Date/Manip/Offset/off065.pm
--- replaced obj /usr/lib64/perl5/vendor_perl/5.30.3/Date/Manip/Offset/off064.pm
--- replaced obj /usr/lib64/perl5/vendor_perl/5.30.3/Date/Manip/Offset/off063.pm
--- replaced obj /usr/lib64/perl5/vendor_perl/5.30.3/Date/Manip/Offset/off062.pm
--- replaced obj /usr/lib64/perl5/vendor_perl/5.30.3/Date/Manip/Offset/off061.pm
--- replaced obj /usr/lib64/perl5/vendor_perl/5.30.3/Date/Manip/Offset/off060.pm
--- replaced obj /usr/lib64/perl5/vendor_perl/5.30.3/Date/Manip/Offset/off059.pm
--- replaced obj /usr/lib64/perl5/vendor_perl/5.30.3/Date/Manip/Offset/off058.pm
--- replaced obj /usr/lib64/perl5/vendor_perl/5.30.3/Date/Manip/Offset/off057.pm
--- replaced obj /usr/lib64/perl5/vendor_perl/5.30.3/Date/Manip/Offset/off056.pm
--- replaced obj /usr/lib64/perl5/vendor_perl/5.30.3/Date/Manip/Offset/off055.pm
--- replaced obj /usr/lib64/perl5/vendor_perl/5.30.3/Date/Manip/Offset/off054.pm
--- replaced obj /usr/lib64/perl5/vendor_perl/5.30.3/Date/Manip/Offset/off053.pm
--- replaced obj /usr/lib64/perl5/vendor_perl/5.30.3/Date/Manip/Offset/off052.pm
--- replaced obj /usr/lib64/perl5/vendor_perl/5.30.3/Date/Manip/Offset/off051.pm
--- replaced obj /usr/lib64/perl5/vendor_perl/5.30.3/Date/Manip/Offset/off050.pm
--- replaced obj /usr/lib64/perl5/vendor_perl/5.30.3/Date/Manip/Offset/off049.pm
--- replaced obj /usr/lib64/perl5/vendor_perl/5.30.3/Date/Manip/Offset/off048.pm
--- replaced obj /usr/lib64/perl5/vendor_perl/5.30.3/Date/Manip/Offset/off047.pm
--- replaced obj /usr/lib64/perl5/vendor_perl/5.30.3/Date/Manip/Offset/off046.pm
--- replaced obj /usr/lib64/perl5/vendor_perl/5.30.3/Date/Manip/Offset/off045.pm
--- replaced obj /usr/lib64/perl5/vendor_perl/5.30.3/Date/Manip/Offset/off044.pm
--- replaced obj /usr/lib64/perl5/vendor_perl/5.30.3/Date/Manip/Offset/off043.pm
--- replaced obj /usr/lib64/perl5/vendor_perl/5.30.3/Date/Manip/Offset/off042.pm
--- replaced obj /usr/lib64/perl5/vendor_perl/5.30.3/Date/Manip/Offset/off041.pm
--- replaced obj /usr/lib64/perl5/vendor_perl/5.30.3/Date/Manip/Offset/off040.pm
--- replaced obj /usr/lib64/perl5/vendor_perl/5.30.3/Date/Manip/Offset/off039.pm
--- replaced obj /usr/lib64/perl5/vendor_perl/5.30.3/Date/Manip/Offset/off038.pm
--- replaced obj /usr/lib64/perl5/vendor_perl/5.30.3/Date/Manip/Offset/off037.pm
--- replaced obj /usr/lib64/perl5/vendor_perl/5.30.3/Date/Manip/Offset/off036.pm
--- replaced obj /usr/lib64/perl5/vendor_perl/5.30.3/Date/Manip/Offset/off035.pm
--- replaced obj /usr/lib64/perl5/vendor_perl/5.30.3/Date/Manip/Offset/off034.pm
--- replaced obj /usr/lib64/perl5/vendor_perl/5.30.3/Date/Manip/Offset/off033.pm
--- replaced obj /usr/lib64/perl5/vendor_perl/5.30.3/Date/Manip/Offset/off032.pm
--- replaced obj /usr/lib64/perl5/vendor_perl/5.30.3/Date/Manip/Offset/off031.pm
--- replaced obj /usr/lib64/perl5/vendor_perl/5.30.3/Date/Manip/Offset/off030.pm
--- replaced obj /usr/lib64/perl5/vendor_perl/5.30.3/Date/Manip/Offset/off029.pm
--- replaced obj /usr/lib64/perl5/vendor_perl/5.30.3/Date/Manip/Offset/off028.pm
--- replaced obj /usr/lib64/perl5/vendor_perl/5.30.3/Date/Manip/Offset/off027.pm
--- replaced obj /usr/lib64/perl5/vendor_perl/5.30.3/Date/Manip/Offset/off026.pm
--- replaced obj /usr/lib64/perl5/vendor_perl/5.30.3/Date/Manip/Offset/off025.pm
--- replaced obj /usr/lib64/perl5/vendor_perl/5.30.3/Date/Manip/Offset/off024.pm
--- replaced obj /usr/lib64/perl5/vendor_perl/5.30.3/Date/Manip/Offset/off023.pm
--- replaced obj /usr/lib64/perl5/vendor_perl/5.30.3/Date/Manip/Offset/off022.pm
--- replaced obj /usr/lib64/perl5/vendor_perl/5.30.3/Date/Manip/Offset/off021.pm
--- replaced obj /usr/lib64/perl5/vendor_perl/5.30.3/Date/Manip/Offset/off020.pm
--- replaced obj /usr/lib64/perl5/vendor_perl/5.30.3/Date/Manip/Offset/off019.pm
--- replaced obj /usr/lib64/perl5/vendor_perl/5.30.3/Date/Manip/Offset/off018.pm
--- replaced obj /usr/lib64/perl5/vendor_perl/5.30.3/Date/Manip/Offset/off017.pm
--- replaced obj /usr/lib64/perl5/vendor_perl/5.30.3/Date/Manip/Offset/off016.pm
--- replaced obj /usr/lib64/perl5/vendor_perl/5.30.3/Date/Manip/Offset/off015.pm
--- replaced obj /usr/lib64/perl5/vendor_perl/5.30.3/Date/Manip/Offset/off014.pm
--- replaced obj /usr/lib64/perl5/vendor_perl/5.30.3/Date/Manip/Offset/off013.pm
--- replaced obj /usr/lib64/perl5/vendor_perl/5.30.3/Date/Manip/Offset/off012.pm
--- replaced obj /usr/lib64/perl5/vendor_perl/5.30.3/Date/Manip/Offset/off011.pm
--- replaced obj /usr/lib64/perl5/vendor_perl/5.30.3/Date/Manip/Offset/off010.pm
--- replaced obj /usr/lib64/perl5/vendor_perl/5.30.3/Date/Manip/Offset/off009.pm
--- replaced obj /usr/lib64/perl5/vendor_perl/5.30.3/Date/Manip/Offset/off008.pm
--- replaced obj /usr/lib64/perl5/vendor_perl/5.30.3/Date/Manip/Offset/off007.pm
--- replaced obj /usr/lib64/perl5/vendor_perl/5.30.3/Date/Manip/Offset/off006.pm
--- replaced obj /usr/lib64/perl5/vendor_perl/5.30.3/Date/Manip/Offset/off005.pm
--- replaced obj /usr/lib64/perl5/vendor_perl/5.30.3/Date/Manip/Offset/off004.pm
--- replaced obj /usr/lib64/perl5/vendor_perl/5.30.3/Date/Manip/Offset/off003.pm
--- replaced obj /usr/lib64/perl5/vendor_perl/5.30.3/Date/Manip/Offset/off002.pm
--- replaced obj /usr/lib64/perl5/vendor_perl/5.30.3/Date/Manip/Offset/off001.pm
--- replaced obj /usr/lib64/perl5/vendor_perl/5.30.3/Date/Manip/Offset/off000.pm
--- replaced dir /usr/lib64/perl5/vendor_perl/5.30.3/Date/Manip/Offset
--- replaced obj /usr/lib64/perl5/vendor_perl/5.30.3/Date/Manip/Objects.pod
--- replaced obj /usr/lib64/perl5/vendor_perl/5.30.3/Date/Manip/Obj.pod
--- replaced obj /usr/lib64/perl5/vendor_perl/5.30.3/Date/Manip/Obj.pm
--- replaced obj /usr/lib64/perl5/vendor_perl/5.30.3/Date/Manip/Misc.pod
--- replaced obj /usr/lib64/perl5/vendor_perl/5.30.3/Date/Manip/Migration5to6.pod
--- replaced obj /usr/lib64/perl5/vendor_perl/5.30.3/Date/Manip/Lang/turkish.pod
--- replaced obj /usr/lib64/perl5/vendor_perl/5.30.3/Date/Manip/Lang/turkish.pm
--- replaced obj /usr/lib64/perl5/vendor_perl/5.30.3/Date/Manip/Lang/swedish.pod
--- replaced obj /usr/lib64/perl5/vendor_perl/5.30.3/Date/Manip/Lang/swedish.pm
--- replaced obj /usr/lib64/perl5/vendor_perl/5.30.3/Date/Manip/Lang/spanish.pod
--- replaced obj /usr/lib64/perl5/vendor_perl/5.30.3/Date/Manip/Lang/spanish.pm
--- replaced obj /usr/lib64/perl5/vendor_perl/5.30.3/Date/Manip/Lang/russian.pod
--- replaced obj /usr/lib64/perl5/vendor_perl/5.30.3/Date/Manip/Lang/russian.pm
--- replaced obj /usr/lib64/perl5/vendor_perl/5.30.3/Date/Manip/Lang/romanian.pod
--- replaced obj /usr/lib64/perl5/vendor_perl/5.30.3/Date/Manip/Lang/romanian.pm
--- replaced obj /usr/lib64/perl5/vendor_perl/5.30.3/Date/Manip/Lang/portugue.pod
--- replaced obj /usr/lib64/perl5/vendor_perl/5.30.3/Date/Manip/Lang/portugue.pm
--- replaced obj /usr/lib64/perl5/vendor_perl/5.30.3/Date/Manip/Lang/polish.pod
--- replaced obj /usr/lib64/perl5/vendor_perl/5.30.3/Date/Manip/Lang/polish.pm
--- replaced obj /usr/lib64/perl5/vendor_perl/5.30.3/Date/Manip/Lang/norwegian.pod
--- replaced obj /usr/lib64/perl5/vendor_perl/5.30.3/Date/Manip/Lang/norwegian.pm
--- replaced obj /usr/lib64/perl5/vendor_perl/5.30.3/Date/Manip/Lang/italian.pod
--- replaced obj /usr/lib64/perl5/vendor_perl/5.30.3/Date/Manip/Lang/italian.pm
--- replaced obj /usr/lib64/perl5/vendor_perl/5.30.3/Date/Manip/Lang/index.pm
--- replaced obj /usr/lib64/perl5/vendor_perl/5.30.3/Date/Manip/Lang/german.pod
--- replaced obj /usr/lib64/perl5/vendor_perl/5.30.3/Date/Manip/Lang/german.pm
--- replaced obj /usr/lib64/perl5/vendor_perl/5.30.3/Date/Manip/Lang/french.pod
--- replaced obj /usr/lib64/perl5/vendor_perl/5.30.3/Date/Manip/Lang/french.pm
--- replaced obj /usr/lib64/perl5/vendor_perl/5.30.3/Date/Manip/Lang/finnish.pod
--- replaced obj /usr/lib64/perl5/vendor_perl/5.30.3/Date/Manip/Lang/finnish.pm
--- replaced obj /usr/lib64/perl5/vendor_perl/5.30.3/Date/Manip/Lang/english.pod
--- replaced obj /usr/lib64/perl5/vendor_perl/5.30.3/Date/Manip/Lang/english.pm
--- replaced obj /usr/lib64/perl5/vendor_perl/5.30.3/Date/Manip/Lang/dutch.pod
--- replaced obj /usr/lib64/perl5/vendor_perl/5.30.3/Date/Manip/Lang/dutch.pm
--- replaced obj /usr/lib64/perl5/vendor_perl/5.30.3/Date/Manip/Lang/danish.pod
--- replaced obj /usr/lib64/perl5/vendor_perl/5.30.3/Date/Manip/Lang/danish.pm
--- replaced obj /usr/lib64/perl5/vendor_perl/5.30.3/Date/Manip/Lang/catalan.pod
--- replaced obj /usr/lib64/perl5/vendor_perl/5.30.3/Date/Manip/Lang/catalan.pm
--- replaced obj /usr/lib64/perl5/vendor_perl/5.30.3/Date/Manip/Lang.pod
--- replaced dir /usr/lib64/perl5/vendor_perl/5.30.3/Date/Manip/Lang
--- replaced obj /usr/lib64/perl5/vendor_perl/5.30.3/Date/Manip/Interfaces.pod
--- replaced obj /usr/lib64/perl5/vendor_perl/5.30.3/Date/Manip/Holidays.pod
--- replaced obj /usr/lib64/perl5/vendor_perl/5.30.3/Date/Manip/History.pod
--- replaced obj /usr/lib64/perl5/vendor_perl/5.30.3/Date/Manip/Examples.pod
--- replaced obj /usr/lib64/perl5/vendor_perl/5.30.3/Date/Manip/Delta.pod
--- replaced obj /usr/lib64/perl5/vendor_perl/5.30.3/Date/Manip/Delta.pm
--- replaced obj /usr/lib64/perl5/vendor_perl/5.30.3/Date/Manip/Date.pod
--- replaced obj /usr/lib64/perl5/vendor_perl/5.30.3/Date/Manip/Date.pm
--- replaced obj /usr/lib64/perl5/vendor_perl/5.30.3/Date/Manip/DM6.pod
--- replaced obj /usr/lib64/perl5/vendor_perl/5.30.3/Date/Manip/DM6.pm
--- replaced obj /usr/lib64/perl5/vendor_perl/5.30.3/Date/Manip/DM5abbrevs.pm
--- replaced obj /usr/lib64/perl5/vendor_perl/5.30.3/Date/Manip/DM5.pod
--- replaced obj /usr/lib64/perl5/vendor_perl/5.30.3/Date/Manip/DM5.pm
--- replaced obj /usr/lib64/perl5/vendor_perl/5.30.3/Date/Manip/ConfigFile.pod
--- replaced obj /usr/lib64/perl5/vendor_perl/5.30.3/Date/Manip/Config.pod
--- replaced obj /usr/lib64/perl5/vendor_perl/5.30.3/Date/Manip/Changes6.pod
--- replaced obj /usr/lib64/perl5/vendor_perl/5.30.3/Date/Manip/Changes5to6.pod
--- replaced obj /usr/lib64/perl5/vendor_perl/5.30.3/Date/Manip/Changes5.pod
--- replaced obj /usr/lib64/perl5/vendor_perl/5.30.3/Date/Manip/Calc.pod
--- replaced obj /usr/lib64/perl5/vendor_perl/5.30.3/Date/Manip/Base.pod
--- replaced obj /usr/lib64/perl5/vendor_perl/5.30.3/Date/Manip/Base.pm
--- replaced obj /usr/lib64/perl5/vendor_perl/5.30.3/Date/Manip.pod
--- replaced obj /usr/lib64/perl5/vendor_perl/5.30.3/Date/Manip.pm
--- replaced dir /usr/lib64/perl5/vendor_perl/5.30.3/Date/Manip
--- replaced dir /usr/lib64/perl5/vendor_perl/5.30.3/Date
--- replaced dir /usr/lib64/perl5/vendor_perl/5.30.3
--- replaced dir /usr/lib64/perl5/vendor_perl
--- replaced dir /usr/lib64/perl5
--- replaced dir /usr/lib64
--- replaced obj /usr/bin/dm_zdump
--- replaced obj /usr/bin/dm_date
--- replaced dir /usr/bin
--- replaced dir /usr
>>> Regenerating /etc/ld.so.cache...
