>>> Extracting info
 * Package:    dev-libs/gmp-6.2.0-r1
 * Repository: gentoo
 * USE:        userland_GNU abi_x86_64 cxx kernel_linux amd64 elibc_glibc asm
 * FEATURES:   ccache network-sandbox preserve-libs sandbox userpriv usersandbox
 * FEATURES='assume-digests binpkg-docompress binpkg-dostrip binpkg-logs binpkg-multi-instance buildpkg ccache compress-index config-protect-if-modified distlocks downgrade-backup fixlafiles ipc-sandbox merge-sync multilib-strict network-sandbox news nodoc parallel-fetch parallel-install pid-sandbox preserve-libs qa-unresolved-soname-deps sandbox sfperms strict unknown-features-warn unmerge-backup unmerge-logs unmerge-orphans userfetch userpriv usersandbox usersync xattr'
 * CFLAGS='-march=znver2 -O3 -fgraphite-identity -floop-nest-optimize -fdevirtualize-at-ltrans -fipa-pta -fno-semantic-interposition -flto=12 -fno-plt -fno-signed-zeros -fno-trapping-math -fassociative-math -freciprocal-math -fno-math-errno -ffinite-math-only -fno-rounding-math -fno-signaling-nans -fcx-limited-range -fexcess-precision=fast -falign-functions=32 -fno-stack-protector -fno-stack-clash-protection -fstack-check=no -fno-stack-check -fuse-linker-plugin -pipe -g0 -Wl,-O1 -Wl,--as-needed -Wl,-z,norelro -Wl,-z,now -Wl,--sort-common -s'
 * CXXFLAGS='-march=znver2 -O3 -fgraphite-identity -floop-nest-optimize -fdevirtualize-at-ltrans -fipa-pta -fno-semantic-interposition -flto=12 -fno-plt -fno-signed-zeros -fno-trapping-math -fassociative-math -freciprocal-math -fno-math-errno -ffinite-math-only -fno-rounding-math -fno-signaling-nans -fcx-limited-range -fexcess-precision=fast -falign-functions=32 -fno-stack-protector -fno-stack-clash-protection -fstack-check=no -fno-stack-check -fuse-linker-plugin -pipe -g0 -Wl,-O1 -Wl,--as-needed -Wl,-z,norelro -Wl,-z,now -Wl,--sort-common -s'
 * FFLAGS='-march=znver2 -O3 -fgraphite-identity -floop-nest-optimize -fdevirtualize-at-ltrans -fipa-pta -fno-semantic-interposition -flto=12 -fno-plt -fno-signed-zeros -fno-trapping-math -fassociative-math -freciprocal-math -fno-math-errno -ffinite-math-only -fno-rounding-math -fno-signaling-nans -fcx-limited-range -fexcess-precision=fast -falign-functions=32 -fno-stack-protector -fno-stack-clash-protection -fstack-check=no -fno-stack-check -fuse-linker-plugin -pipe -g0 -Wl,-O1 -Wl,--as-needed -Wl,-z,norelro -Wl,-z,now -Wl,--sort-common -s'
 * FCFLAGS='-march=znver2 -O3 -fgraphite-identity -floop-nest-optimize -fdevirtualize-at-ltrans -fipa-pta -fno-semantic-interposition -flto=12 -fno-plt -fno-signed-zeros -fno-trapping-math -fassociative-math -freciprocal-math -fno-math-errno -ffinite-math-only -fno-rounding-math -fno-signaling-nans -fcx-limited-range -fexcess-precision=fast -falign-functions=32 -fno-stack-protector -fno-stack-clash-protection -fstack-check=no -fno-stack-check -fuse-linker-plugin -pipe -g0 -Wl,-O1 -Wl,--as-needed -Wl,-z,norelro -Wl,-z,now -Wl,--sort-common -s'
 * F77FLAGS='-march=znver2 -O3 -fgraphite-identity -floop-nest-optimize -fdevirtualize-at-ltrans -fipa-pta -fno-semantic-interposition -flto=12 -fno-plt -fno-signed-zeros -fno-trapping-math -fassociative-math -freciprocal-math -fno-math-errno -ffinite-math-only -fno-rounding-math -fno-signaling-nans -fcx-limited-range -fexcess-precision=fast -falign-functions=32 -fno-stack-protector -fno-stack-clash-protection -fstack-check=no -fno-stack-check -fuse-linker-plugin -pipe -g0 -Wl,-O1 -Wl,--as-needed -Wl,-z,norelro -Wl,-z,now -Wl,--sort-common -s'
 * LDFLAGS='-Wl,-O1 -Wl,--as-needed -Wl,-z,norelro -Wl,-z,now -Wl,--sort-common -s -march=znver2 -O3 -fgraphite-identity -floop-nest-optimize -fdevirtualize-at-ltrans -fipa-pta -fno-semantic-interposition -flto=12 -fno-plt -fno-signed-zeros -fno-trapping-math -fassociative-math -freciprocal-math -fno-math-errno -ffinite-math-only -fno-rounding-math -fno-signaling-nans -fcx-limited-range -fexcess-precision=fast -falign-functions=32 -fno-stack-protector -fno-stack-clash-protection -fstack-check=no -fno-stack-check -fuse-linker-plugin -pipe -g0'
 * MAKEOPTS='-j12 -l12'
 * x86_64-pc-linux-gnu-gcc () 11.0.0 20200530 (experimental)
 * g++ () 11.0.0 20200530 (experimental)
 * GNU ld (Gentoo 2.34 p4) 2.34.0
 * Linux ryzen.gnum.org 5.4.36 #1 SMP Thu Apr 30 04:38:28 UTC 2020 x86_64 AMD Ryzen 5 3600 6-Core Processor AuthenticAMD GNU/Linux
dev-libs/gmp: 1 minute, 30 seconds average for 21 merges
2020-05-16T19:00:16 >>> dev-libs/gmp: 49 seconds
2020-05-16T21:28:05 >>> dev-libs/gmp: 54 seconds
2020-05-20T01:03:20 >>> dev-libs/gmp: 21 seconds
2020-05-21T06:01:40 >>> dev-libs/gmp: 6 seconds
2020-05-22T03:16:29 >>> dev-libs/gmp: 2 minutes, 44 seconds
2020-05-22T12:35:48 >>> dev-libs/gmp: 2 minutes, 36 seconds
2020-05-23T03:37:27 >>> dev-libs/gmp: 2 minutes, 40 seconds
2020-05-24T22:43:27 >>> dev-libs/gmp: 4 minutes, 42 seconds
2020-05-24T23:33:07 >>> dev-libs/gmp: 5 minutes, 31 seconds
2020-05-25T03:07:35 >>> dev-libs/gmp: 16 seconds
2020-05-25T14:41:44 >>> dev-libs/gmp: 1 minute
2020-05-25T18:29:01 >>> dev-libs/gmp: 1 minute, 46 seconds
2020-05-25T20:01:21 >>> dev-libs/gmp: 1 minute, 1 second
2020-05-26T12:59:58 >>> dev-libs/gmp: 1 minute, 4 seconds
2020-05-26T13:54:16 >>> dev-libs/gmp: 18 seconds
2020-05-27T01:33:53 >>> dev-libs/gmp: 22 seconds
2020-05-27T03:16:16 >>> dev-libs/gmp: 1 minute, 21 seconds
2020-05-28T13:36:35 >>> dev-libs/gmp: 1 minute, 20 seconds
2020-05-28T14:19:38 >>> dev-libs/gmp: 28 seconds
2020-05-29T01:41:47 >>> dev-libs/gmp: 28 seconds
2020-05-30T12:42:47 >>> dev-libs/gmp: 1 minute, 49 seconds
]0;emerge 21:39:35 149|1110 gmp 00:55 (root@ryzen.gnum.org)kemerge 21:39:35 149|1110 gmp 00:55 (root@ryzen.gnum.org)\>>> Extracting dev-libs/gmp-6.2.0-r1
 * checking 14 files for package collisions
>>> Merging dev-libs/gmp-6.2.0-r1 to /
 * removing unneeded *.la files
--- /usr/
--- /usr/lib64/
--- /usr/lib64/pkgconfig/
>>> /usr/lib64/pkgconfig/gmpxx.pc
>>> /usr/lib64/pkgconfig/gmp.pc
>>> /usr/lib64/libgmpxx.so.4 -> libgmpxx.so.4.6.0
>>> /usr/lib64/libgmpxx.so -> libgmpxx.so.4.6.0
>>> /usr/lib64/libgmpxx.so.4.6.0
>>> /usr/lib64/libgmp.so.10 -> libgmp.so.10.4.0
>>> /usr/lib64/libgmp.so.10.4.0
>>> /usr/lib64/libgmp.so -> libgmp.so.10.4.0
--- /usr/share/
--- /usr/share/info/
>>> /usr/share/info/gmp.info-1.bz2
>>> /usr/share/info/gmp.info.bz2
>>> /usr/share/info/gmp.info-2.bz2
--- /usr/include/
>>> /usr/include/gmp.h
>>> /usr/include/gmpxx.h
--- /usr/include/x86_64-pc-linux-gnu/
>>> /usr/include/x86_64-pc-linux-gnu/gmp.h
>>> Safely unmerging already-installed instance...
>>> Original instance of package unmerged safely.
>>> dev-libs/gmp-6.2.0-r1 merged.
>>> Regenerating /etc/ld.so.cache...
