 * Package:    dev-perl/TimeDate-2.300.0
 * Repository: gentoo
 * Maintainer: perl@gentoo.org
 * USE:        abi_x86_64 amd64 elibc_glibc kernel_linux userland_GNU
 * FEATURES:   ccache network-sandbox preserve-libs sandbox userpriv usersandbox
 * FEATURES='assume-digests binpkg-docompress binpkg-dostrip binpkg-logs binpkg-multi-instance buildpkg ccache compress-index config-protect-if-modified distlocks downgrade-backup fixlafiles ipc-sandbox merge-sync multilib-strict network-sandbox news nodoc parallel-fetch parallel-install pid-sandbox preserve-libs qa-unresolved-soname-deps sandbox sfperms strict unknown-features-warn unmerge-backup unmerge-logs unmerge-orphans userfetch userpriv usersandbox usersync xattr'
 * CFLAGS='-march=znver2 -O3 -fgraphite-identity -floop-nest-optimize -fdevirtualize-at-ltrans -fipa-pta -fno-semantic-interposition -flto=12 -fno-plt -fno-signed-zeros -fno-trapping-math -fassociative-math -freciprocal-math -fno-math-errno -ffinite-math-only -fno-rounding-math -fno-signaling-nans -fcx-limited-range -fexcess-precision=fast -falign-functions=32 -fno-stack-protector -fno-stack-clash-protection -fstack-check=no -fno-stack-check -fuse-linker-plugin -pipe -g0 -Wl,-O1 -Wl,--as-needed -Wl,-z,norelro -Wl,-z,now -Wl,--sort-common -s'
 * CXXFLAGS='-march=znver2 -O3 -fgraphite-identity -floop-nest-optimize -fdevirtualize-at-ltrans -fipa-pta -fno-semantic-interposition -flto=12 -fno-plt -fno-signed-zeros -fno-trapping-math -fassociative-math -freciprocal-math -fno-math-errno -ffinite-math-only -fno-rounding-math -fno-signaling-nans -fcx-limited-range -fexcess-precision=fast -falign-functions=32 -fno-stack-protector -fno-stack-clash-protection -fstack-check=no -fno-stack-check -fuse-linker-plugin -pipe -g0 -Wl,-O1 -Wl,--as-needed -Wl,-z,norelro -Wl,-z,now -Wl,--sort-common -s'
 * FFLAGS='-march=znver2 -O3 -fgraphite-identity -floop-nest-optimize -fdevirtualize-at-ltrans -fipa-pta -fno-semantic-interposition -flto=12 -fno-plt -fno-signed-zeros -fno-trapping-math -fassociative-math -freciprocal-math -fno-math-errno -ffinite-math-only -fno-rounding-math -fno-signaling-nans -fcx-limited-range -fexcess-precision=fast -falign-functions=32 -fno-stack-protector -fno-stack-clash-protection -fstack-check=no -fno-stack-check -fuse-linker-plugin -pipe -g0 -Wl,-O1 -Wl,--as-needed -Wl,-z,norelro -Wl,-z,now -Wl,--sort-common -s'
 * FCFLAGS='-march=znver2 -O3 -fgraphite-identity -floop-nest-optimize -fdevirtualize-at-ltrans -fipa-pta -fno-semantic-interposition -flto=12 -fno-plt -fno-signed-zeros -fno-trapping-math -fassociative-math -freciprocal-math -fno-math-errno -ffinite-math-only -fno-rounding-math -fno-signaling-nans -fcx-limited-range -fexcess-precision=fast -falign-functions=32 -fno-stack-protector -fno-stack-clash-protection -fstack-check=no -fno-stack-check -fuse-linker-plugin -pipe -g0 -Wl,-O1 -Wl,--as-needed -Wl,-z,norelro -Wl,-z,now -Wl,--sort-common -s'
 * F77FLAGS='-march=znver2 -O3 -fgraphite-identity -floop-nest-optimize -fdevirtualize-at-ltrans -fipa-pta -fno-semantic-interposition -flto=12 -fno-plt -fno-signed-zeros -fno-trapping-math -fassociative-math -freciprocal-math -fno-math-errno -ffinite-math-only -fno-rounding-math -fno-signaling-nans -fcx-limited-range -fexcess-precision=fast -falign-functions=32 -fno-stack-protector -fno-stack-clash-protection -fstack-check=no -fno-stack-check -fuse-linker-plugin -pipe -g0 -Wl,-O1 -Wl,--as-needed -Wl,-z,norelro -Wl,-z,now -Wl,--sort-common -s'
 * LDFLAGS='-Wl,-O1 -Wl,--as-needed -Wl,-z,norelro -Wl,-z,now -Wl,--sort-common -s -march=znver2 -O3 -fgraphite-identity -floop-nest-optimize -fdevirtualize-at-ltrans -fipa-pta -fno-semantic-interposition -flto=12 -fno-plt -fno-signed-zeros -fno-trapping-math -fassociative-math -freciprocal-math -fno-math-errno -ffinite-math-only -fno-rounding-math -fno-signaling-nans -fcx-limited-range -fexcess-precision=fast -falign-functions=32 -fno-stack-protector -fno-stack-clash-protection -fstack-check=no -fno-stack-check -fuse-linker-plugin -pipe -g0'
 * MAKEOPTS='-j12 -l12'
 * gcc () 11.0.0 20200530 (experimental)
 * g++ () 11.0.0 20200530 (experimental)
 * GNU ld (Gentoo 2.34 p4) 2.34.0
 * Linux ryzen.gnum.org 5.4.36 #1 SMP Thu Apr 30 04:38:28 UTC 2020 x86_64 AMD Ryzen 5 3600 6-Core Processor AuthenticAMD GNU/Linux
dev-perl/TimeDate: 7 seconds average for 10 merges
2020-05-19T23:49:54 >>> dev-perl/TimeDate: 4 seconds
2020-05-20T01:17:41 >>> dev-perl/TimeDate: 5 seconds
2020-05-21T06:39:30 >>> dev-perl/TimeDate: 5 seconds
2020-05-23T14:09:04 >>> dev-perl/TimeDate: 10 seconds
2020-05-25T00:24:58 >>> dev-perl/TimeDate: 11 seconds
2020-05-25T22:48:46 >>> dev-perl/TimeDate: 11 seconds
2020-05-26T14:13:50 >>> dev-perl/TimeDate: 6 seconds
2020-05-27T01:51:32 >>> dev-perl/TimeDate: 6 seconds
2020-05-27T04:05:03 >>> dev-perl/TimeDate: 11 seconds
2020-05-29T02:19:25 >>> dev-perl/TimeDate: 8 seconds
]0;emerge 15:07:59 538|1110 TimeDate 00:08 (root@ryzen.gnum.org)kemerge 15:07:59 538|1110 TimeDate 00:08 (root@ryzen.gnum.org)\>>> Unpacking source...
>>> Unpacking TimeDate-2.30.tar.gz to /tmp/portage/dev-perl/TimeDate-2.300.0/work
>>> Source unpacked in /tmp/portage/dev-perl/TimeDate-2.300.0/work
>>> Preparing source in /tmp/portage/dev-perl/TimeDate-2.300.0/work/TimeDate-2.30 ...
>>> Source prepared.
>>> Configuring source in /tmp/portage/dev-perl/TimeDate-2.300.0/work/TimeDate-2.30 ...
 * Using ExtUtils::MakeMaker
 * perl Makefile.PL PREFIX=/usr INSTALLDIRS=vendor INSTALLMAN3DIR=none DESTDIR=/tmp/portage/dev-perl/TimeDate-2.300.0/image/
Checking if your kit is complete...
Looks good
Generating a Unix-style Makefile
Writing Makefile for Date::Parse
Writing MYMETA.yml and MYMETA.json
>>> Source configured.
>>> Compiling source in /tmp/portage/dev-perl/TimeDate-2.300.0/work/TimeDate-2.30 ...
 * emake OTHERLDFLAGS=-Wl,-O1 -Wl,--as-needed -Wl,-z,norelro -Wl,-z,now -Wl,--sort-common -s -march=znver2 -O3 -fgraphite-identity -floop-nest-optimize -fdevirtualize-at-ltrans -fipa-pta -fno-semantic-interposition -flto=12 -fno-plt -fno-signed-zeros -fno-trapping-math -fassociative-math -freciprocal-math -fno-math-errno -ffinite-math-only -fno-rounding-math -fno-signaling-nans -fcx-limited-range -fexcess-precision=fast -falign-functions=32 -fno-stack-protector -fno-stack-clash-protection -fstack-check=no -fno-stack-check -fuse-linker-plugin -pipe -g0
make -j12 -l12 'OTHERLDFLAGS=-Wl,-O1 -Wl,--as-needed -Wl,-z,norelro -Wl,-z,now -Wl,--sort-common -s -march=znver2 -O3 -fgraphite-identity -floop-nest-optimize -fdevirtualize-at-ltrans -fipa-pta -fno-semantic-interposition -flto=12 -fno-plt -fno-signed-zeros -fno-trapping-math -fassociative-math -freciprocal-math -fno-math-errno -ffinite-math-only -fno-rounding-math -fno-signaling-nans -fcx-limited-range -fexcess-precision=fast -falign-functions=32 -fno-stack-protector -fno-stack-clash-protection -fstack-check=no -fno-stack-check -fuse-linker-plugin -pipe -g0' 
>>> Source compiled.
>>> Test phase [not enabled]: dev-perl/TimeDate-2.300.0

>>> Install dev-perl/TimeDate-2.300.0 into /tmp/portage/dev-perl/TimeDate-2.300.0/image/
make -j12 -l12 pure_install 
Installing /tmp/portage/dev-perl/TimeDate-2.300.0/image/usr/lib64/perl5/vendor_perl/5.30.2/Time/Zone.pm
Installing /tmp/portage/dev-perl/TimeDate-2.300.0/image/usr/lib64/perl5/vendor_perl/5.30.2/Date/Parse.pm
Installing /tmp/portage/dev-perl/TimeDate-2.300.0/image/usr/lib64/perl5/vendor_perl/5.30.2/Date/Language.pm
Installing /tmp/portage/dev-perl/TimeDate-2.300.0/image/usr/lib64/perl5/vendor_perl/5.30.2/Date/Format.pm
Installing /tmp/portage/dev-perl/TimeDate-2.300.0/image/usr/lib64/perl5/vendor_perl/5.30.2/Date/Language/Spanish.pm
Installing /tmp/portage/dev-perl/TimeDate-2.300.0/image/usr/lib64/perl5/vendor_perl/5.30.2/Date/Language/Oromo.pm
Installing /tmp/portage/dev-perl/TimeDate-2.300.0/image/usr/lib64/perl5/vendor_perl/5.30.2/Date/Language/Danish.pm
Installing /tmp/portage/dev-perl/TimeDate-2.300.0/image/usr/lib64/perl5/vendor_perl/5.30.2/Date/Language/Austrian.pm
Installing /tmp/portage/dev-perl/TimeDate-2.300.0/image/usr/lib64/perl5/vendor_perl/5.30.2/Date/Language/Gedeo.pm
Installing /tmp/portage/dev-perl/TimeDate-2.300.0/image/usr/lib64/perl5/vendor_perl/5.30.2/Date/Language/Hungarian.pm
Installing /tmp/portage/dev-perl/TimeDate-2.300.0/image/usr/lib64/perl5/vendor_perl/5.30.2/Date/Language/Romanian.pm
Installing /tmp/portage/dev-perl/TimeDate-2.300.0/image/usr/lib64/perl5/vendor_perl/5.30.2/Date/Language/Finnish.pm
Installing /tmp/portage/dev-perl/TimeDate-2.300.0/image/usr/lib64/perl5/vendor_perl/5.30.2/Date/Language/Chinese_GB.pm
Installing /tmp/portage/dev-perl/TimeDate-2.300.0/image/usr/lib64/perl5/vendor_perl/5.30.2/Date/Language/Turkish.pm
Installing /tmp/portage/dev-perl/TimeDate-2.300.0/image/usr/lib64/perl5/vendor_perl/5.30.2/Date/Language/Amharic.pm
Installing /tmp/portage/dev-perl/TimeDate-2.300.0/image/usr/lib64/perl5/vendor_perl/5.30.2/Date/Language/Italian.pm
Installing /tmp/portage/dev-perl/TimeDate-2.300.0/image/usr/lib64/perl5/vendor_perl/5.30.2/Date/Language/Russian_koi8r.pm
Installing /tmp/portage/dev-perl/TimeDate-2.300.0/image/usr/lib64/perl5/vendor_perl/5.30.2/Date/Language/Swedish.pm
Installing /tmp/portage/dev-perl/TimeDate-2.300.0/image/usr/lib64/perl5/vendor_perl/5.30.2/Date/Language/TigrinyaEthiopian.pm
Installing /tmp/portage/dev-perl/TimeDate-2.300.0/image/usr/lib64/perl5/vendor_perl/5.30.2/Date/Language/Dutch.pm
Installing /tmp/portage/dev-perl/TimeDate-2.300.0/image/usr/lib64/perl5/vendor_perl/5.30.2/Date/Language/Chinese.pm
Installing /tmp/portage/dev-perl/TimeDate-2.300.0/image/usr/lib64/perl5/vendor_perl/5.30.2/Date/Language/Sidama.pm
Installing /tmp/portage/dev-perl/TimeDate-2.300.0/image/usr/lib64/perl5/vendor_perl/5.30.2/Date/Language/French.pm
Installing /tmp/portage/dev-perl/TimeDate-2.300.0/image/usr/lib64/perl5/vendor_perl/5.30.2/Date/Language/Bulgarian.pm
Installing /tmp/portage/dev-perl/TimeDate-2.300.0/image/usr/lib64/perl5/vendor_perl/5.30.2/Date/Language/English.pm
Installing /tmp/portage/dev-perl/TimeDate-2.300.0/image/usr/lib64/perl5/vendor_perl/5.30.2/Date/Language/Norwegian.pm
Installing /tmp/portage/dev-perl/TimeDate-2.300.0/image/usr/lib64/perl5/vendor_perl/5.30.2/Date/Language/Icelandic.pm
Installing /tmp/portage/dev-perl/TimeDate-2.300.0/image/usr/lib64/perl5/vendor_perl/5.30.2/Date/Language/Czech.pm
Installing /tmp/portage/dev-perl/TimeDate-2.300.0/image/usr/lib64/perl5/vendor_perl/5.30.2/Date/Language/Russian.pm
Installing /tmp/portage/dev-perl/TimeDate-2.300.0/image/usr/lib64/perl5/vendor_perl/5.30.2/Date/Language/Afar.pm
Installing /tmp/portage/dev-perl/TimeDate-2.300.0/image/usr/lib64/perl5/vendor_perl/5.30.2/Date/Language/TigrinyaEritrean.pm
Installing /tmp/portage/dev-perl/TimeDate-2.300.0/image/usr/lib64/perl5/vendor_perl/5.30.2/Date/Language/Greek.pm
Installing /tmp/portage/dev-perl/TimeDate-2.300.0/image/usr/lib64/perl5/vendor_perl/5.30.2/Date/Language/German.pm
Installing /tmp/portage/dev-perl/TimeDate-2.300.0/image/usr/lib64/perl5/vendor_perl/5.30.2/Date/Language/Tigrinya.pm
Installing /tmp/portage/dev-perl/TimeDate-2.300.0/image/usr/lib64/perl5/vendor_perl/5.30.2/Date/Language/Brazilian.pm
Installing /tmp/portage/dev-perl/TimeDate-2.300.0/image/usr/lib64/perl5/vendor_perl/5.30.2/Date/Language/Somali.pm
Installing /tmp/portage/dev-perl/TimeDate-2.300.0/image/usr/lib64/perl5/vendor_perl/5.30.2/Date/Language/Russian_cp1251.pm
>>> Completed installing dev-perl/TimeDate-2.300.0 into /tmp/portage/dev-perl/TimeDate-2.300.0/image/

 * Final size of build directory: 544 KiB
 * Final size of installed tree:  236 KiB

./
./usr/
./usr/share/
./usr/share/doc/
./usr/share/doc/TimeDate-2.300.0/
./usr/share/doc/TimeDate-2.300.0/README.bz2
./usr/share/doc/TimeDate-2.300.0/ChangeLog.bz2
./usr/lib64/
./usr/lib64/perl5/
./usr/lib64/perl5/vendor_perl/
./usr/lib64/perl5/vendor_perl/5.30.2/
./usr/lib64/perl5/vendor_perl/5.30.2/Time/
./usr/lib64/perl5/vendor_perl/5.30.2/Time/Zone.pm
./usr/lib64/perl5/vendor_perl/5.30.2/Date/
./usr/lib64/perl5/vendor_perl/5.30.2/Date/Parse.pm
./usr/lib64/perl5/vendor_perl/5.30.2/Date/Language.pm
./usr/lib64/perl5/vendor_perl/5.30.2/Date/Language/
./usr/lib64/perl5/vendor_perl/5.30.2/Date/Language/Spanish.pm
./usr/lib64/perl5/vendor_perl/5.30.2/Date/Language/Oromo.pm
./usr/lib64/perl5/vendor_perl/5.30.2/Date/Language/Danish.pm
./usr/lib64/perl5/vendor_perl/5.30.2/Date/Language/Austrian.pm
./usr/lib64/perl5/vendor_perl/5.30.2/Date/Language/Gedeo.pm
./usr/lib64/perl5/vendor_perl/5.30.2/Date/Language/Hungarian.pm
./usr/lib64/perl5/vendor_perl/5.30.2/Date/Language/Romanian.pm
./usr/lib64/perl5/vendor_perl/5.30.2/Date/Language/Finnish.pm
./usr/lib64/perl5/vendor_perl/5.30.2/Date/Language/Chinese_GB.pm
./usr/lib64/perl5/vendor_perl/5.30.2/Date/Language/Turkish.pm
./usr/lib64/perl5/vendor_perl/5.30.2/Date/Language/Amharic.pm
./usr/lib64/perl5/vendor_perl/5.30.2/Date/Language/Italian.pm
./usr/lib64/perl5/vendor_perl/5.30.2/Date/Language/Russian_koi8r.pm
./usr/lib64/perl5/vendor_perl/5.30.2/Date/Language/Swedish.pm
./usr/lib64/perl5/vendor_perl/5.30.2/Date/Language/TigrinyaEthiopian.pm
./usr/lib64/perl5/vendor_perl/5.30.2/Date/Language/Dutch.pm
./usr/lib64/perl5/vendor_perl/5.30.2/Date/Language/Chinese.pm
./usr/lib64/perl5/vendor_perl/5.30.2/Date/Language/Sidama.pm
./usr/lib64/perl5/vendor_perl/5.30.2/Date/Language/French.pm
./usr/lib64/perl5/vendor_perl/5.30.2/Date/Language/Bulgarian.pm
./usr/lib64/perl5/vendor_perl/5.30.2/Date/Language/English.pm
./usr/lib64/perl5/vendor_perl/5.30.2/Date/Language/Norwegian.pm
./usr/lib64/perl5/vendor_perl/5.30.2/Date/Language/Icelandic.pm
./usr/lib64/perl5/vendor_perl/5.30.2/Date/Language/Czech.pm
./usr/lib64/perl5/vendor_perl/5.30.2/Date/Language/Russian.pm
./usr/lib64/perl5/vendor_perl/5.30.2/Date/Language/Afar.pm
./usr/lib64/perl5/vendor_perl/5.30.2/Date/Language/TigrinyaEritrean.pm
./usr/lib64/perl5/vendor_perl/5.30.2/Date/Language/Greek.pm
./usr/lib64/perl5/vendor_perl/5.30.2/Date/Language/German.pm
./usr/lib64/perl5/vendor_perl/5.30.2/Date/Language/Tigrinya.pm
./usr/lib64/perl5/vendor_perl/5.30.2/Date/Language/Brazilian.pm
./usr/lib64/perl5/vendor_perl/5.30.2/Date/Language/Somali.pm
./usr/lib64/perl5/vendor_perl/5.30.2/Date/Language/Russian_cp1251.pm
./usr/lib64/perl5/vendor_perl/5.30.2/Date/Format.pm
>>> Done.
 * checking 37 files for package collisions
>>> Merging dev-perl/TimeDate-2.300.0 to /
 * removing unneeded *.la files
--- /usr/
--- /usr/lib64/
--- /usr/lib64/perl5/
--- /usr/lib64/perl5/vendor_perl/
--- /usr/lib64/perl5/vendor_perl/5.30.2/
--- /usr/lib64/perl5/vendor_perl/5.30.2/Date/
>>> /usr/lib64/perl5/vendor_perl/5.30.2/Date/Format.pm
--- /usr/lib64/perl5/vendor_perl/5.30.2/Date/Language/
>>> /usr/lib64/perl5/vendor_perl/5.30.2/Date/Language/Russian_cp1251.pm
>>> /usr/lib64/perl5/vendor_perl/5.30.2/Date/Language/Somali.pm
>>> /usr/lib64/perl5/vendor_perl/5.30.2/Date/Language/Brazilian.pm
>>> /usr/lib64/perl5/vendor_perl/5.30.2/Date/Language/Tigrinya.pm
>>> /usr/lib64/perl5/vendor_perl/5.30.2/Date/Language/German.pm
>>> /usr/lib64/perl5/vendor_perl/5.30.2/Date/Language/Greek.pm
>>> /usr/lib64/perl5/vendor_perl/5.30.2/Date/Language/TigrinyaEritrean.pm
>>> /usr/lib64/perl5/vendor_perl/5.30.2/Date/Language/Afar.pm
>>> /usr/lib64/perl5/vendor_perl/5.30.2/Date/Language/Russian.pm
>>> /usr/lib64/perl5/vendor_perl/5.30.2/Date/Language/Czech.pm
>>> /usr/lib64/perl5/vendor_perl/5.30.2/Date/Language/Icelandic.pm
>>> /usr/lib64/perl5/vendor_perl/5.30.2/Date/Language/Norwegian.pm
>>> /usr/lib64/perl5/vendor_perl/5.30.2/Date/Language/English.pm
>>> /usr/lib64/perl5/vendor_perl/5.30.2/Date/Language/Bulgarian.pm
>>> /usr/lib64/perl5/vendor_perl/5.30.2/Date/Language/French.pm
>>> /usr/lib64/perl5/vendor_perl/5.30.2/Date/Language/Sidama.pm
>>> /usr/lib64/perl5/vendor_perl/5.30.2/Date/Language/Chinese.pm
>>> /usr/lib64/perl5/vendor_perl/5.30.2/Date/Language/Dutch.pm
>>> /usr/lib64/perl5/vendor_perl/5.30.2/Date/Language/TigrinyaEthiopian.pm
>>> /usr/lib64/perl5/vendor_perl/5.30.2/Date/Language/Swedish.pm
>>> /usr/lib64/perl5/vendor_perl/5.30.2/Date/Language/Russian_koi8r.pm
>>> /usr/lib64/perl5/vendor_perl/5.30.2/Date/Language/Italian.pm
>>> /usr/lib64/perl5/vendor_perl/5.30.2/Date/Language/Amharic.pm
>>> /usr/lib64/perl5/vendor_perl/5.30.2/Date/Language/Turkish.pm
>>> /usr/lib64/perl5/vendor_perl/5.30.2/Date/Language/Chinese_GB.pm
>>> /usr/lib64/perl5/vendor_perl/5.30.2/Date/Language/Finnish.pm
>>> /usr/lib64/perl5/vendor_perl/5.30.2/Date/Language/Romanian.pm
>>> /usr/lib64/perl5/vendor_perl/5.30.2/Date/Language/Hungarian.pm
>>> /usr/lib64/perl5/vendor_perl/5.30.2/Date/Language/Gedeo.pm
>>> /usr/lib64/perl5/vendor_perl/5.30.2/Date/Language/Austrian.pm
>>> /usr/lib64/perl5/vendor_perl/5.30.2/Date/Language/Danish.pm
>>> /usr/lib64/perl5/vendor_perl/5.30.2/Date/Language/Oromo.pm
>>> /usr/lib64/perl5/vendor_perl/5.30.2/Date/Language/Spanish.pm
>>> /usr/lib64/perl5/vendor_perl/5.30.2/Date/Language.pm
>>> /usr/lib64/perl5/vendor_perl/5.30.2/Date/Parse.pm
--- /usr/lib64/perl5/vendor_perl/5.30.2/Time/
>>> /usr/lib64/perl5/vendor_perl/5.30.2/Time/Zone.pm
>>> Safely unmerging already-installed instance...
>>> Original instance of package unmerged safely.
>>> dev-perl/TimeDate-2.300.0 merged.
