No package files given... Grabbing a set.
--- replaced obj /usr/lib64/pkgconfig/yaml-0.1.pc
--- replaced dir /usr/lib64/pkgconfig
--- replaced sym /usr/lib64/libyaml.so
--- replaced obj /usr/lib64/libyaml-0.so.2.0.6
--- replaced sym /usr/lib64/libyaml-0.so.2
--- replaced dir /usr/lib64
--- replaced obj /usr/include/yaml.h
--- replaced dir /usr/include
--- replaced dir /usr
>>> Regenerating /etc/ld.so.cache...
