No package files given... Grabbing a set.
--- replaced obj /usr/share/man/man3/popt.3.bz2
--- replaced dir /usr/share/man/man3
--- replaced dir /usr/share/man
<<<          obj /usr/share/doc/popt-1.16-r2/README.bz2
<<<          obj /usr/share/doc/popt-1.16-r2/CHANGES.bz2
--- replaced dir /usr/share
--- replaced obj /usr/lib64/pkgconfig/popt.pc
--- replaced dir /usr/lib64/pkgconfig
--- replaced obj /usr/lib64/libpopt.so.0.0.0
--- replaced sym /usr/lib64/libpopt.so.0
--- replaced sym /usr/lib64/libpopt.so
--- replaced dir /usr/lib64
--- replaced obj /usr/include/popt.h
--- replaced dir /usr/include
--- replaced dir /usr
<<<          dir /usr/share/doc/popt-1.16-r2
--- !empty   dir /usr/share/doc
>>> Regenerating /etc/ld.so.cache...
