 * Package:    dev-perl/Sub-Exporter-Progressive-0.1.13
 * Repository: gentoo
 * Maintainer: perl@gentoo.org
 * USE:        abi_x86_64 amd64 elibc_glibc kernel_linux userland_GNU
 * FEATURES:   network-sandbox preserve-libs sandbox userpriv usersandbox
 * FEATURES='assume-digests binpkg-docompress binpkg-dostrip binpkg-logs binpkg-multi-instance buildpkg collision-protect compress-index config-protect-if-modified distlocks downgrade-backup fixlafiles ipc-sandbox merge-sync multilib-strict network-sandbox news nodoc parallel-fetch parallel-install pid-sandbox preserve-libs protect-owned qa-unresolved-soname-deps sandbox sfperms strict strict-keepdir unknown-features-warn unmerge-backup unmerge-logs unmerge-orphans userfetch userpriv usersandbox usersync xattr'
 * CFLAGS='-march=native -O3 -fgraphite-identity -floop-nest-optimize -fdevirtualize-at-ltrans -fipa-pta -fno-semantic-interposition -flto=12 -fno-plt -fno-signed-zeros -fno-trapping-math -fassociative-math -freciprocal-math -fno-math-errno -ffinite-math-only -fno-rounding-math -fno-signaling-nans -fcx-limited-range -fexcess-precision=fast -fno-signed-zeros -fno-trapping-math -fassociative-math -freciprocal-math -fno-math-errno -ffinite-math-only -fno-rounding-math -fno-signaling-nans -fcx-limited-range -fexcess-precision=fast -fuse-linker-plugin -pipe -g0 -Wl,-O1 -Wl,--as-needed -Wl,--hash-style=gnu,-z,norelro,--as-needed'
 * CXXFLAGS='-march=native -O3 -fgraphite-identity -floop-nest-optimize -fdevirtualize-at-ltrans -fipa-pta -fno-semantic-interposition -flto=12 -fno-plt -fno-signed-zeros -fno-trapping-math -fassociative-math -freciprocal-math -fno-math-errno -ffinite-math-only -fno-rounding-math -fno-signaling-nans -fcx-limited-range -fexcess-precision=fast -fno-signed-zeros -fno-trapping-math -fassociative-math -freciprocal-math -fno-math-errno -ffinite-math-only -fno-rounding-math -fno-signaling-nans -fcx-limited-range -fexcess-precision=fast -fuse-linker-plugin -pipe -g0 -Wl,-O1 -Wl,--as-needed -Wl,--hash-style=gnu,-z,norelro,--as-needed'
 * FFLAGS='-march=native -O3 -fgraphite-identity -floop-nest-optimize -fdevirtualize-at-ltrans -fipa-pta -fno-semantic-interposition -flto=12 -fno-plt -fno-signed-zeros -fno-trapping-math -fassociative-math -freciprocal-math -fno-math-errno -ffinite-math-only -fno-rounding-math -fno-signaling-nans -fcx-limited-range -fexcess-precision=fast -fno-signed-zeros -fno-trapping-math -fassociative-math -freciprocal-math -fno-math-errno -ffinite-math-only -fno-rounding-math -fno-signaling-nans -fcx-limited-range -fexcess-precision=fast -fuse-linker-plugin -pipe -g0 -Wl,-O1 -Wl,--as-needed -Wl,--hash-style=gnu,-z,norelro,--as-needed'
 * FCFLAGS='-march=native -O3 -fgraphite-identity -floop-nest-optimize -fdevirtualize-at-ltrans -fipa-pta -fno-semantic-interposition -flto=12 -fno-plt -fno-signed-zeros -fno-trapping-math -fassociative-math -freciprocal-math -fno-math-errno -ffinite-math-only -fno-rounding-math -fno-signaling-nans -fcx-limited-range -fexcess-precision=fast -fno-signed-zeros -fno-trapping-math -fassociative-math -freciprocal-math -fno-math-errno -ffinite-math-only -fno-rounding-math -fno-signaling-nans -fcx-limited-range -fexcess-precision=fast -fuse-linker-plugin -pipe -g0 -Wl,-O1 -Wl,--as-needed -Wl,--hash-style=gnu,-z,norelro,--as-needed'
 * F77FLAGS='-march=native -O3 -fgraphite-identity -floop-nest-optimize -fdevirtualize-at-ltrans -fipa-pta -fno-semantic-interposition -flto=12 -fno-plt -fno-signed-zeros -fno-trapping-math -fassociative-math -freciprocal-math -fno-math-errno -ffinite-math-only -fno-rounding-math -fno-signaling-nans -fcx-limited-range -fexcess-precision=fast -fno-signed-zeros -fno-trapping-math -fassociative-math -freciprocal-math -fno-math-errno -ffinite-math-only -fno-rounding-math -fno-signaling-nans -fcx-limited-range -fexcess-precision=fast -fuse-linker-plugin -pipe -g0 -Wl,-O1 -Wl,--as-needed -Wl,--hash-style=gnu,-z,norelro,--as-needed'
 * LDFLAGS='-Wl,-O1 -Wl,--as-needed -Wl,--hash-style=gnu,-z,norelro,--as-needed -march=native -O3 -fgraphite-identity -floop-nest-optimize -fdevirtualize-at-ltrans -fipa-pta -fno-semantic-interposition -flto=12 -fno-plt -fno-signed-zeros -fno-trapping-math -fassociative-math -freciprocal-math -fno-math-errno -ffinite-math-only -fno-rounding-math -fno-signaling-nans -fcx-limited-range -fexcess-precision=fast -fuse-linker-plugin -pipe -g0'
 * MAKEOPTS='-j12 -l12'
 * gcc (Gentoo 10.1.0 p1) 10.1.0
 * g++ (Gentoo 10.1.0 p1) 10.1.0
 * GNU ld (Gentoo 2.34 p1) 2.34.0
 * Linux ryzen.gnum.org 5.4.36 #1 SMP Thu Apr 30 04:38:28 UTC 2020 x86_64 AMD Ryzen 5 3600 6-Core Processor AuthenticAMD GNU/Linux
dev-perl/Sub-Exporter-Progressive: 4 seconds average for 1 merge
2020-05-21T12:54:08 >>> dev-perl/Sub-Exporter-Progressive: 4 seconds
]0;emerge 12:34:24 12|824 Sub-Exporter-Progressive 00:04 (root@ryzen.gnum.org)>>> Unpacking source...
>>> Unpacking Sub-Exporter-Progressive-0.001013.tar.gz to /tmp/portage/dev-perl/Sub-Exporter-Progressive-0.1.13/work
>>> Source unpacked in /tmp/portage/dev-perl/Sub-Exporter-Progressive-0.1.13/work
>>> Preparing source in /tmp/portage/dev-perl/Sub-Exporter-Progressive-0.1.13/work/Sub-Exporter-Progressive-0.001013 ...
 * Removing un-needed t/author-pod-syntax.t
 * Removing un-needed t/release-changes_has_content.t
 * Fixing Manifest
>>> Source prepared.
>>> Configuring source in /tmp/portage/dev-perl/Sub-Exporter-Progressive-0.1.13/work/Sub-Exporter-Progressive-0.001013 ...
 * Using ExtUtils::MakeMaker
 * perl Makefile.PL PREFIX=/usr INSTALLDIRS=vendor INSTALLMAN3DIR=none DESTDIR=/tmp/portage/dev-perl/Sub-Exporter-Progressive-0.1.13/image/
Checking if your kit is complete...
Looks good
Generating a Unix-style Makefile
Writing Makefile for Sub::Exporter::Progressive
Writing MYMETA.yml and MYMETA.json
>>> Source configured.
>>> Compiling source in /tmp/portage/dev-perl/Sub-Exporter-Progressive-0.1.13/work/Sub-Exporter-Progressive-0.001013 ...
 * emake OTHERLDFLAGS=-Wl,-O1 -Wl,--as-needed -Wl,--hash-style=gnu,-z,norelro,--as-needed -march=native -O3 -fgraphite-identity -floop-nest-optimize -fdevirtualize-at-ltrans -fipa-pta -fno-semantic-interposition -flto=12 -fno-plt -fno-signed-zeros -fno-trapping-math -fassociative-math -freciprocal-math -fno-math-errno -ffinite-math-only -fno-rounding-math -fno-signaling-nans -fcx-limited-range -fexcess-precision=fast -fuse-linker-plugin -pipe -g0
make -j12 -l12 'OTHERLDFLAGS=-Wl,-O1 -Wl,--as-needed -Wl,--hash-style=gnu,-z,norelro,--as-needed -march=native -O3 -fgraphite-identity -floop-nest-optimize -fdevirtualize-at-ltrans -fipa-pta -fno-semantic-interposition -flto=12 -fno-plt -fno-signed-zeros -fno-trapping-math -fassociative-math -freciprocal-math -fno-math-errno -ffinite-math-only -fno-rounding-math -fno-signaling-nans -fcx-limited-range -fexcess-precision=fast -fuse-linker-plugin -pipe -g0' 
cp lib/Sub/Exporter/Progressive.pm blib/lib/Sub/Exporter/Progressive.pm
>>> Source compiled.
>>> Test phase [not enabled]: dev-perl/Sub-Exporter-Progressive-0.1.13

>>> Install dev-perl/Sub-Exporter-Progressive-0.1.13 into /tmp/portage/dev-perl/Sub-Exporter-Progressive-0.1.13/image/
make -j12 -l12 pure_install 
Installing /tmp/portage/dev-perl/Sub-Exporter-Progressive-0.1.13/image/usr/lib64/perl5/vendor_perl/5.30.2/Sub/Exporter/Progressive.pm
 * Fixing packlist file /usr/lib64/perl5/vendor_perl/5.30.2/x86_64-linux/auto/Sub/Exporter/Progressive/.packlist
>>> Completed installing dev-perl/Sub-Exporter-Progressive-0.1.13 into /tmp/portage/dev-perl/Sub-Exporter-Progressive-0.1.13/image/

 * Final size of build directory: 240 KiB
 * Final size of installed tree:   84 KiB

./
./usr/
./usr/share/
./usr/share/doc/
./usr/share/doc/Sub-Exporter-Progressive-0.1.13/
./usr/share/doc/Sub-Exporter-Progressive-0.1.13/README.bz2
./usr/share/doc/Sub-Exporter-Progressive-0.1.13/Changes.bz2
./usr/lib64/
./usr/lib64/perl5/
./usr/lib64/perl5/vendor_perl/
./usr/lib64/perl5/vendor_perl/5.30.2/
./usr/lib64/perl5/vendor_perl/5.30.2/x86_64-linux/
./usr/lib64/perl5/vendor_perl/5.30.2/x86_64-linux/auto/
./usr/lib64/perl5/vendor_perl/5.30.2/x86_64-linux/auto/Sub/
./usr/lib64/perl5/vendor_perl/5.30.2/x86_64-linux/auto/Sub/Exporter/
./usr/lib64/perl5/vendor_perl/5.30.2/x86_64-linux/auto/Sub/Exporter/Progressive/
./usr/lib64/perl5/vendor_perl/5.30.2/x86_64-linux/auto/Sub/Exporter/Progressive/.packlist
./usr/lib64/perl5/vendor_perl/5.30.2/Sub/
./usr/lib64/perl5/vendor_perl/5.30.2/Sub/Exporter/
./usr/lib64/perl5/vendor_perl/5.30.2/Sub/Exporter/Progressive.pm
>>> Done.
 * checking 2 files for package collisions
>>> Merging dev-perl/Sub-Exporter-Progressive-0.1.13 to /
 * removing unneeded *.la files
--- /usr/
--- /usr/lib64/
--- /usr/lib64/perl5/
--- /usr/lib64/perl5/vendor_perl/
--- /usr/lib64/perl5/vendor_perl/5.30.2/
--- /usr/lib64/perl5/vendor_perl/5.30.2/Sub/
--- /usr/lib64/perl5/vendor_perl/5.30.2/Sub/Exporter/
>>> /usr/lib64/perl5/vendor_perl/5.30.2/Sub/Exporter/Progressive.pm
--- /usr/lib64/perl5/vendor_perl/5.30.2/x86_64-linux/
--- /usr/lib64/perl5/vendor_perl/5.30.2/x86_64-linux/auto/
--- /usr/lib64/perl5/vendor_perl/5.30.2/x86_64-linux/auto/Sub/
--- /usr/lib64/perl5/vendor_perl/5.30.2/x86_64-linux/auto/Sub/Exporter/
--- /usr/lib64/perl5/vendor_perl/5.30.2/x86_64-linux/auto/Sub/Exporter/Progressive/
>>> /usr/lib64/perl5/vendor_perl/5.30.2/x86_64-linux/auto/Sub/Exporter/Progressive/.packlist
>>> Safely unmerging already-installed instance...
>>> Original instance of package unmerged safely.
>>> dev-perl/Sub-Exporter-Progressive-0.1.13 merged.
