No package files given... Grabbing a set.
--- replaced obj /usr/lib64/qt5/mkspecs/modules/qt_lib_printsupport_private.pri
--- replaced obj /usr/lib64/qt5/mkspecs/modules/qt_lib_printsupport.pri
--- replaced dir /usr/lib64/qt5/mkspecs/modules
--- replaced obj /usr/lib64/qt5/mkspecs/gentoo/qtprintsupport-qconfig.pri
--- replaced dir /usr/lib64/qt5/mkspecs/gentoo
--- replaced dir /usr/lib64/qt5/mkspecs
--- replaced dir /usr/lib64/qt5
--- replaced obj /usr/lib64/pkgconfig/Qt5PrintSupport.pc
--- replaced dir /usr/lib64/pkgconfig
--- replaced obj /usr/lib64/libQt5PrintSupport.so.5.15.0
--- replaced sym /usr/lib64/libQt5PrintSupport.so.5.15
--- replaced sym /usr/lib64/libQt5PrintSupport.so.5
--- replaced sym /usr/lib64/libQt5PrintSupport.so
--- replaced obj /usr/lib64/libQt5PrintSupport.prl
--- replaced obj /usr/lib64/cmake/Qt5PrintSupport/Qt5PrintSupportConfigVersion.cmake
--- replaced obj /usr/lib64/cmake/Qt5PrintSupport/Qt5PrintSupportConfig.cmake
--- replaced dir /usr/lib64/cmake/Qt5PrintSupport
--- replaced dir /usr/lib64/cmake
--- replaced dir /usr/lib64
--- replaced obj /usr/include/qt5/QtPrintSupport/qtprintsupportversion.h
--- replaced obj /usr/include/qt5/QtPrintSupport/qtprintsupportglobal.h
--- replaced obj /usr/include/qt5/QtPrintSupport/qtprintsupport-config.h
--- replaced obj /usr/include/qt5/QtPrintSupport/qprintpreviewwidget.h
--- replaced obj /usr/include/qt5/QtPrintSupport/qprintpreviewdialog.h
--- replaced obj /usr/include/qt5/QtPrintSupport/qprinterinfo.h
--- replaced obj /usr/include/qt5/QtPrintSupport/qprinter.h
--- replaced obj /usr/include/qt5/QtPrintSupport/qprintengine.h
--- replaced obj /usr/include/qt5/QtPrintSupport/qprintdialog.h
--- replaced obj /usr/include/qt5/QtPrintSupport/qpagesetupdialog.h
--- replaced obj /usr/include/qt5/QtPrintSupport/qabstractprintdialog.h
--- replaced obj /usr/include/qt5/QtPrintSupport/QtPrintSupportVersion
--- replaced obj /usr/include/qt5/QtPrintSupport/QtPrintSupportDepends
--- replaced obj /usr/include/qt5/QtPrintSupport/QtPrintSupport
--- replaced obj /usr/include/qt5/QtPrintSupport/QPrinterInfo
--- replaced obj /usr/include/qt5/QtPrintSupport/QPrinter
--- replaced obj /usr/include/qt5/QtPrintSupport/QPrintPreviewWidget
--- replaced obj /usr/include/qt5/QtPrintSupport/QPrintPreviewDialog
--- replaced obj /usr/include/qt5/QtPrintSupport/QPrintEngine
--- replaced obj /usr/include/qt5/QtPrintSupport/QPrintDialog
--- replaced obj /usr/include/qt5/QtPrintSupport/QPageSetupDialog
--- replaced obj /usr/include/qt5/QtPrintSupport/QAbstractPrintDialog
--- replaced obj /usr/include/qt5/QtPrintSupport/5.15.0/QtPrintSupport/qpa/qplatformprintplugin.h
--- replaced obj /usr/include/qt5/QtPrintSupport/5.15.0/QtPrintSupport/qpa/qplatformprintersupport.h
--- replaced obj /usr/include/qt5/QtPrintSupport/5.15.0/QtPrintSupport/qpa/qplatformprintdevice.h
--- replaced dir /usr/include/qt5/QtPrintSupport/5.15.0/QtPrintSupport/qpa
--- replaced obj /usr/include/qt5/QtPrintSupport/5.15.0/QtPrintSupport/private/qtprintsupportglobal_p.h
--- replaced obj /usr/include/qt5/QtPrintSupport/5.15.0/QtPrintSupport/private/qtprintsupport-config_p.h
--- replaced obj /usr/include/qt5/QtPrintSupport/5.15.0/QtPrintSupport/private/qprinterinfo_p.h
--- replaced obj /usr/include/qt5/QtPrintSupport/5.15.0/QtPrintSupport/private/qprinter_p.h
--- replaced obj /usr/include/qt5/QtPrintSupport/5.15.0/QtPrintSupport/private/qprintengine_win_p.h
--- replaced obj /usr/include/qt5/QtPrintSupport/5.15.0/QtPrintSupport/private/qprintengine_pdf_p.h
--- replaced obj /usr/include/qt5/QtPrintSupport/5.15.0/QtPrintSupport/private/qprintdevice_p.h
--- replaced obj /usr/include/qt5/QtPrintSupport/5.15.0/QtPrintSupport/private/qprint_p.h
--- replaced obj /usr/include/qt5/QtPrintSupport/5.15.0/QtPrintSupport/private/qpaintengine_preview_p.h
--- replaced obj /usr/include/qt5/QtPrintSupport/5.15.0/QtPrintSupport/private/qpaintengine_alpha_p.h
--- replaced obj /usr/include/qt5/QtPrintSupport/5.15.0/QtPrintSupport/private/qpagesetupdialog_unix_p.h
--- replaced obj /usr/include/qt5/QtPrintSupport/5.15.0/QtPrintSupport/private/qpagesetupdialog_p.h
--- replaced obj /usr/include/qt5/QtPrintSupport/5.15.0/QtPrintSupport/private/qcupsjobwidget_p.h
--- replaced obj /usr/include/qt5/QtPrintSupport/5.15.0/QtPrintSupport/private/qcups_p.h
--- replaced obj /usr/include/qt5/QtPrintSupport/5.15.0/QtPrintSupport/private/qabstractprintdialog_p.h
--- replaced dir /usr/include/qt5/QtPrintSupport/5.15.0/QtPrintSupport/private
--- replaced dir /usr/include/qt5/QtPrintSupport/5.15.0/QtPrintSupport
--- replaced dir /usr/include/qt5/QtPrintSupport/5.15.0
--- replaced dir /usr/include/qt5/QtPrintSupport
--- replaced obj /usr/include/qt5/Gentoo/qtprintsupport-qconfig.h
--- replaced dir /usr/include/qt5/Gentoo
--- replaced dir /usr/include/qt5
--- replaced dir /usr/include
--- replaced dir /usr
>>> Regenerating /etc/ld.so.cache...
