 * Package:    dev-python/pytest-xprocess-0.13.1
 * Repository: gentoo
 * Maintainer: python@gentoo.org
 * USE:        abi_x86_64 amd64 elibc_glibc kernel_linux python_targets_pypy3 python_targets_python2_7 python_targets_python3_7 python_targets_python3_8 python_targets_python3_9 test userland_GNU
 * FEATURES:   ccache network-sandbox preserve-libs sandbox userpriv usersandbox
 * /etc/portage/package.cflags/ltoworkarounds.conf -> */*: *FLAGS+=-Wl,-O4 *FLAGS-=-Wl,-O1
 * FEATURES='assume-digests binpkg-docompress binpkg-dostrip binpkg-logs binpkg-multi-instance buildpkg ccache cgroup compress-index config-protect-if-modified distlocks fixlafiles ipc-sandbox merge-sync multilib-strict network-sandbox news nodoc parallel-fetch parallel-install pid-sandbox preserve-libs qa-unresolved-soname-deps sandbox sfperms strict unknown-features-warn unmerge-logs unmerge-orphans userfetch userpriv usersandbox usersync xattr'
 * CFLAGS='-march=znver2 -pipe -g0 -O3 -fgraphite-identity -floop-nest-optimize -fdevirtualize-at-ltrans -fipa-pta -fno-semantic-interposition -flto=12 -fno-plt -fno-signed-zeros -fno-trapping-math -fassociative-math -freciprocal-math -fno-math-errno -ffinite-math-only -fno-rounding-math -fno-signaling-nans -fcx-limited-range -fexcess-precision=fast -falign-functions=32 -fno-stack-protector -fno-stack-clash-protection -fstack-check=no -fno-stack-check -fuse-linker-plugin -Wl,-O4 -Wl,--as-needed -Wl,-lpthread -Wl,-lgomp -Wl,-z,norelro -Wl,-z,now -Wl,--sort-common -s'
 * CXXFLAGS='-march=znver2 -pipe -g0 -O3 -fgraphite-identity -floop-nest-optimize -fdevirtualize-at-ltrans -fipa-pta -fno-semantic-interposition -flto=12 -fno-plt -fno-signed-zeros -fno-trapping-math -fassociative-math -freciprocal-math -fno-math-errno -ffinite-math-only -fno-rounding-math -fno-signaling-nans -fcx-limited-range -fexcess-precision=fast -falign-functions=32 -fno-stack-protector -fno-stack-clash-protection -fstack-check=no -fno-stack-check -fuse-linker-plugin -Wl,-O4 -Wl,--as-needed -Wl,-lpthread -Wl,-lgomp -Wl,-z,norelro -Wl,-z,now -Wl,--sort-common -s'
 * FFLAGS='-march=znver2 -pipe -g0 -O3 -fgraphite-identity -floop-nest-optimize -fdevirtualize-at-ltrans -fipa-pta -fno-semantic-interposition -flto=12 -fno-plt -fno-signed-zeros -fno-trapping-math -fassociative-math -freciprocal-math -fno-math-errno -ffinite-math-only -fno-rounding-math -fno-signaling-nans -fcx-limited-range -fexcess-precision=fast -falign-functions=32 -fno-stack-protector -fno-stack-clash-protection -fstack-check=no -fno-stack-check -fuse-linker-plugin -Wl,-O4 -Wl,--as-needed -Wl,-lpthread -Wl,-lgomp -Wl,-z,norelro -Wl,-z,now -Wl,--sort-common -s'
 * FCFLAGS='-march=znver2 -pipe -g0 -O3 -fgraphite-identity -floop-nest-optimize -fdevirtualize-at-ltrans -fipa-pta -fno-semantic-interposition -flto=12 -fno-plt -fno-signed-zeros -fno-trapping-math -fassociative-math -freciprocal-math -fno-math-errno -ffinite-math-only -fno-rounding-math -fno-signaling-nans -fcx-limited-range -fexcess-precision=fast -falign-functions=32 -fno-stack-protector -fno-stack-clash-protection -fstack-check=no -fno-stack-check -fuse-linker-plugin -Wl,-O4 -Wl,--as-needed -Wl,-lpthread -Wl,-lgomp -Wl,-z,norelro -Wl,-z,now -Wl,--sort-common -s'
 * F77FLAGS='-march=znver2 -pipe -g0 -O3 -fgraphite-identity -floop-nest-optimize -fdevirtualize-at-ltrans -fipa-pta -fno-semantic-interposition -flto=12 -fno-plt -fno-signed-zeros -fno-trapping-math -fassociative-math -freciprocal-math -fno-math-errno -ffinite-math-only -fno-rounding-math -fno-signaling-nans -fcx-limited-range -fexcess-precision=fast -falign-functions=32 -fno-stack-protector -fno-stack-clash-protection -fstack-check=no -fno-stack-check -fuse-linker-plugin -Wl,-O4 -Wl,--as-needed -Wl,-lpthread -Wl,-lgomp -Wl,-z,norelro -Wl,-z,now -Wl,--sort-common -s'
 * LDFLAGS='-march=znver2 -pipe -g0 -O3 -fgraphite-identity -floop-nest-optimize -fdevirtualize-at-ltrans -fipa-pta -fno-semantic-interposition -flto=12 -fno-plt -fno-signed-zeros -fno-trapping-math -fassociative-math -freciprocal-math -fno-math-errno -ffinite-math-only -fno-rounding-math -fno-signaling-nans -fcx-limited-range -fexcess-precision=fast -falign-functions=32 -fno-stack-protector -fno-stack-clash-protection -fstack-check=no -fno-stack-check -fuse-linker-plugin -Wl,-O4 -Wl,--as-needed -Wl,-lpthread -Wl,-lgomp -Wl,-z,norelro -Wl,-z,now -Wl,--sort-common -s'
 * MAKEOPTS='-j12 -l12'
 * gcc () 11.0.0 20200601 (experimental)
 * g++ () 11.0.0 20200601 (experimental)
 * GNU ld (Gentoo 2.34 p4) 2.34.0
 * Linux ryzen.gnum.org 5.4.36 #1 SMP Thu Apr 30 04:38:28 UTC 2020 x86_64 AMD Ryzen 5 3600 6-Core Processor AuthenticAMD GNU/Linux
dev-python/pytest-xprocess: 27 seconds average for 2 merges
2020-05-28T05:25:17 >>> dev-python/pytest-xprocess: 18 seconds
2020-05-31T00:03:24 >>> dev-python/pytest-xprocess: 36 seconds
]0;emerge 10:19:52 1590999592:  === Unmerging... (dev-util/shadowman-2) pytest-xprocess 00:27 (root@ryzen.gnum.org)kemerge 10:19:52 1590999592:  === Unmerging... (dev-util/shadowman-2) pytest-xprocess 00:27 (root@ryzen.gnum.org)\>>> Unpacking source...
>>> Unpacking pytest-xprocess-0.13.1.tar.gz to /tmp/portage/dev-python/pytest-xprocess-0.13.1/work
>>> Source unpacked in /tmp/portage/dev-python/pytest-xprocess-0.13.1/work
>>> Preparing source in /tmp/portage/dev-python/pytest-xprocess-0.13.1/work/pytest-xprocess-0.13.1 ...
>>> Source prepared.
>>> Configuring source in /tmp/portage/dev-python/pytest-xprocess-0.13.1/work/pytest-xprocess-0.13.1 ...
>>> Source configured.
>>> Compiling source in /tmp/portage/dev-python/pytest-xprocess-0.13.1/work/pytest-xprocess-0.13.1 ...
 * pypy3: running distutils-r1_run_phase distutils-r1_python_compile
pypy3 setup.py build -j 12
running build
running build_py
copying pytest_xprocess.py -> /tmp/portage/dev-python/pytest-xprocess-0.13.1/work/pytest-xprocess-0.13.1-pypy3/lib
copying xprocess.py -> /tmp/portage/dev-python/pytest-xprocess-0.13.1/work/pytest-xprocess-0.13.1-pypy3/lib
warning: build_py: byte-compiling is disabled, skipping.

 * python2_7: running distutils-r1_run_phase distutils-r1_python_compile
python2.7 setup.py build
running build
running build_py
copying pytest_xprocess.py -> /tmp/portage/dev-python/pytest-xprocess-0.13.1/work/pytest-xprocess-0.13.1-python2_7/lib
copying xprocess.py -> /tmp/portage/dev-python/pytest-xprocess-0.13.1/work/pytest-xprocess-0.13.1-python2_7/lib
warning: build_py: byte-compiling is disabled, skipping.

 * python3_7: running distutils-r1_run_phase distutils-r1_python_compile
python3.7 setup.py build -j 12
running build
running build_py
copying pytest_xprocess.py -> /tmp/portage/dev-python/pytest-xprocess-0.13.1/work/pytest-xprocess-0.13.1-python3_7/lib
copying xprocess.py -> /tmp/portage/dev-python/pytest-xprocess-0.13.1/work/pytest-xprocess-0.13.1-python3_7/lib
warning: build_py: byte-compiling is disabled, skipping.

 * python3_8: running distutils-r1_run_phase distutils-r1_python_compile
python3.8 setup.py build -j 12
running build
running build_py
copying pytest_xprocess.py -> /tmp/portage/dev-python/pytest-xprocess-0.13.1/work/pytest-xprocess-0.13.1-python3_8/lib
copying xprocess.py -> /tmp/portage/dev-python/pytest-xprocess-0.13.1/work/pytest-xprocess-0.13.1-python3_8/lib
warning: build_py: byte-compiling is disabled, skipping.

 * python3_9: running distutils-r1_run_phase distutils-r1_python_compile
python3.9 setup.py build -j 12
running build
running build_py
copying pytest_xprocess.py -> /tmp/portage/dev-python/pytest-xprocess-0.13.1/work/pytest-xprocess-0.13.1-python3_9/lib
copying xprocess.py -> /tmp/portage/dev-python/pytest-xprocess-0.13.1/work/pytest-xprocess-0.13.1-python3_9/lib
warning: build_py: byte-compiling is disabled, skipping.

>>> Source compiled.
>>> Test phase [not enabled]: dev-python/pytest-xprocess-0.13.1

>>> Install dev-python/pytest-xprocess-0.13.1 into /tmp/portage/dev-python/pytest-xprocess-0.13.1/image
 * pypy3: running distutils-r1_run_phase distutils-r1_python_install
pypy3 setup.py install --skip-build --root=/tmp/portage/dev-python/pytest-xprocess-0.13.1/image/_pypy3
running install
running install_lib
creating /tmp/portage/dev-python/pytest-xprocess-0.13.1/image/_pypy3
creating /tmp/portage/dev-python/pytest-xprocess-0.13.1/image/_pypy3/usr
creating /tmp/portage/dev-python/pytest-xprocess-0.13.1/image/_pypy3/usr/lib
creating /tmp/portage/dev-python/pytest-xprocess-0.13.1/image/_pypy3/usr/lib/pypy3.6
creating /tmp/portage/dev-python/pytest-xprocess-0.13.1/image/_pypy3/usr/lib/pypy3.6/site-packages
copying /tmp/portage/dev-python/pytest-xprocess-0.13.1/work/pytest-xprocess-0.13.1-pypy3/lib/pytest_xprocess.py -> /tmp/portage/dev-python/pytest-xprocess-0.13.1/image/_pypy3/usr/lib/pypy3.6/site-packages
copying /tmp/portage/dev-python/pytest-xprocess-0.13.1/work/pytest-xprocess-0.13.1-pypy3/lib/xprocess.py -> /tmp/portage/dev-python/pytest-xprocess-0.13.1/image/_pypy3/usr/lib/pypy3.6/site-packages
byte-compiling /tmp/portage/dev-python/pytest-xprocess-0.13.1/image/_pypy3/usr/lib/pypy3.6/site-packages/pytest_xprocess.py to pytest_xprocess.pypy36.pyc
byte-compiling /tmp/portage/dev-python/pytest-xprocess-0.13.1/image/_pypy3/usr/lib/pypy3.6/site-packages/xprocess.py to xprocess.pypy36.pyc
writing byte-compilation script '/tmp/portage/dev-python/pytest-xprocess-0.13.1/temp/tmpikqdsemb.py'
/usr/bin/pypy3 /tmp/portage/dev-python/pytest-xprocess-0.13.1/temp/tmpikqdsemb.py
removing /tmp/portage/dev-python/pytest-xprocess-0.13.1/temp/tmpikqdsemb.py
writing byte-compilation script '/tmp/portage/dev-python/pytest-xprocess-0.13.1/temp/tmpbu6l8bwi.py'
/usr/bin/pypy3 /tmp/portage/dev-python/pytest-xprocess-0.13.1/temp/tmpbu6l8bwi.py
removing /tmp/portage/dev-python/pytest-xprocess-0.13.1/temp/tmpbu6l8bwi.py
running install_egg_info
running egg_info
writing pytest_xprocess.egg-info/PKG-INFO
writing dependency_links to pytest_xprocess.egg-info/dependency_links.txt
writing entry points to pytest_xprocess.egg-info/entry_points.txt
writing requirements to pytest_xprocess.egg-info/requires.txt
writing top-level names to pytest_xprocess.egg-info/top_level.txt
reading manifest file 'pytest_xprocess.egg-info/SOURCES.txt'
reading manifest template 'MANIFEST.in'
writing manifest file 'pytest_xprocess.egg-info/SOURCES.txt'
Copying pytest_xprocess.egg-info to /tmp/portage/dev-python/pytest-xprocess-0.13.1/image/_pypy3/usr/lib/pypy3.6/site-packages/pytest_xprocess-0.13.1-py3.6.egg-info
running install_scripts
 * python2_7: running distutils-r1_run_phase distutils-r1_python_install
python2.7 setup.py install --skip-build --root=/tmp/portage/dev-python/pytest-xprocess-0.13.1/image/_python2.7
running install
running install_lib
creating /tmp/portage/dev-python/pytest-xprocess-0.13.1/image/_python2.7
creating /tmp/portage/dev-python/pytest-xprocess-0.13.1/image/_python2.7/usr
creating /tmp/portage/dev-python/pytest-xprocess-0.13.1/image/_python2.7/usr/lib64
creating /tmp/portage/dev-python/pytest-xprocess-0.13.1/image/_python2.7/usr/lib64/python2.7
creating /tmp/portage/dev-python/pytest-xprocess-0.13.1/image/_python2.7/usr/lib64/python2.7/site-packages
copying /tmp/portage/dev-python/pytest-xprocess-0.13.1/work/pytest-xprocess-0.13.1-python2_7/lib/pytest_xprocess.py -> /tmp/portage/dev-python/pytest-xprocess-0.13.1/image/_python2.7/usr/lib64/python2.7/site-packages
copying /tmp/portage/dev-python/pytest-xprocess-0.13.1/work/pytest-xprocess-0.13.1-python2_7/lib/xprocess.py -> /tmp/portage/dev-python/pytest-xprocess-0.13.1/image/_python2.7/usr/lib64/python2.7/site-packages
byte-compiling /tmp/portage/dev-python/pytest-xprocess-0.13.1/image/_python2.7/usr/lib64/python2.7/site-packages/pytest_xprocess.py to pytest_xprocess.pyc
byte-compiling /tmp/portage/dev-python/pytest-xprocess-0.13.1/image/_python2.7/usr/lib64/python2.7/site-packages/xprocess.py to xprocess.pyc
writing byte-compilation script '/tmp/portage/dev-python/pytest-xprocess-0.13.1/temp/tmp_bmaPB.py'
/usr/bin/python2.7 -OO /tmp/portage/dev-python/pytest-xprocess-0.13.1/temp/tmp_bmaPB.py
removing /tmp/portage/dev-python/pytest-xprocess-0.13.1/temp/tmp_bmaPB.py
running install_egg_info
running egg_info
writing requirements to pytest_xprocess.egg-info/requires.txt
writing pytest_xprocess.egg-info/PKG-INFO
writing top-level names to pytest_xprocess.egg-info/top_level.txt
writing dependency_links to pytest_xprocess.egg-info/dependency_links.txt
writing entry points to pytest_xprocess.egg-info/entry_points.txt
reading manifest file 'pytest_xprocess.egg-info/SOURCES.txt'
reading manifest template 'MANIFEST.in'
writing manifest file 'pytest_xprocess.egg-info/SOURCES.txt'
Copying pytest_xprocess.egg-info to /tmp/portage/dev-python/pytest-xprocess-0.13.1/image/_python2.7/usr/lib64/python2.7/site-packages/pytest_xprocess-0.13.1-py2.7.egg-info
running install_scripts
 * python3_7: running distutils-r1_run_phase distutils-r1_python_install
python3.7 setup.py install --skip-build --root=/tmp/portage/dev-python/pytest-xprocess-0.13.1/image/_python3.7
running install
running install_lib
creating /tmp/portage/dev-python/pytest-xprocess-0.13.1/image/_python3.7
creating /tmp/portage/dev-python/pytest-xprocess-0.13.1/image/_python3.7/usr
creating /tmp/portage/dev-python/pytest-xprocess-0.13.1/image/_python3.7/usr/lib
creating /tmp/portage/dev-python/pytest-xprocess-0.13.1/image/_python3.7/usr/lib/python3.7
creating /tmp/portage/dev-python/pytest-xprocess-0.13.1/image/_python3.7/usr/lib/python3.7/site-packages
copying /tmp/portage/dev-python/pytest-xprocess-0.13.1/work/pytest-xprocess-0.13.1-python3_7/lib/pytest_xprocess.py -> /tmp/portage/dev-python/pytest-xprocess-0.13.1/image/_python3.7/usr/lib/python3.7/site-packages
copying /tmp/portage/dev-python/pytest-xprocess-0.13.1/work/pytest-xprocess-0.13.1-python3_7/lib/xprocess.py -> /tmp/portage/dev-python/pytest-xprocess-0.13.1/image/_python3.7/usr/lib/python3.7/site-packages
byte-compiling /tmp/portage/dev-python/pytest-xprocess-0.13.1/image/_python3.7/usr/lib/python3.7/site-packages/pytest_xprocess.py to pytest_xprocess.cpython-37.pyc
byte-compiling /tmp/portage/dev-python/pytest-xprocess-0.13.1/image/_python3.7/usr/lib/python3.7/site-packages/xprocess.py to xprocess.cpython-37.pyc
writing byte-compilation script '/tmp/portage/dev-python/pytest-xprocess-0.13.1/temp/tmp85uo9c52.py'
/usr/bin/python3.7 /tmp/portage/dev-python/pytest-xprocess-0.13.1/temp/tmp85uo9c52.py
removing /tmp/portage/dev-python/pytest-xprocess-0.13.1/temp/tmp85uo9c52.py
writing byte-compilation script '/tmp/portage/dev-python/pytest-xprocess-0.13.1/temp/tmp0bcb1jr7.py'
/usr/bin/python3.7 /tmp/portage/dev-python/pytest-xprocess-0.13.1/temp/tmp0bcb1jr7.py
removing /tmp/portage/dev-python/pytest-xprocess-0.13.1/temp/tmp0bcb1jr7.py
running install_egg_info
running egg_info
writing pytest_xprocess.egg-info/PKG-INFO
writing dependency_links to pytest_xprocess.egg-info/dependency_links.txt
writing entry points to pytest_xprocess.egg-info/entry_points.txt
writing requirements to pytest_xprocess.egg-info/requires.txt
writing top-level names to pytest_xprocess.egg-info/top_level.txt
reading manifest file 'pytest_xprocess.egg-info/SOURCES.txt'
reading manifest template 'MANIFEST.in'
writing manifest file 'pytest_xprocess.egg-info/SOURCES.txt'
Copying pytest_xprocess.egg-info to /tmp/portage/dev-python/pytest-xprocess-0.13.1/image/_python3.7/usr/lib/python3.7/site-packages/pytest_xprocess-0.13.1-py3.7.egg-info
running install_scripts
 * python3_8: running distutils-r1_run_phase distutils-r1_python_install
python3.8 setup.py install --skip-build --root=/tmp/portage/dev-python/pytest-xprocess-0.13.1/image/_python3.8
running install
running install_lib
creating /tmp/portage/dev-python/pytest-xprocess-0.13.1/image/_python3.8
creating /tmp/portage/dev-python/pytest-xprocess-0.13.1/image/_python3.8/usr
creating /tmp/portage/dev-python/pytest-xprocess-0.13.1/image/_python3.8/usr/lib
creating /tmp/portage/dev-python/pytest-xprocess-0.13.1/image/_python3.8/usr/lib/python3.8
creating /tmp/portage/dev-python/pytest-xprocess-0.13.1/image/_python3.8/usr/lib/python3.8/site-packages
copying /tmp/portage/dev-python/pytest-xprocess-0.13.1/work/pytest-xprocess-0.13.1-python3_8/lib/pytest_xprocess.py -> /tmp/portage/dev-python/pytest-xprocess-0.13.1/image/_python3.8/usr/lib/python3.8/site-packages
copying /tmp/portage/dev-python/pytest-xprocess-0.13.1/work/pytest-xprocess-0.13.1-python3_8/lib/xprocess.py -> /tmp/portage/dev-python/pytest-xprocess-0.13.1/image/_python3.8/usr/lib/python3.8/site-packages
byte-compiling /tmp/portage/dev-python/pytest-xprocess-0.13.1/image/_python3.8/usr/lib/python3.8/site-packages/pytest_xprocess.py to pytest_xprocess.cpython-38.pyc
byte-compiling /tmp/portage/dev-python/pytest-xprocess-0.13.1/image/_python3.8/usr/lib/python3.8/site-packages/xprocess.py to xprocess.cpython-38.pyc
writing byte-compilation script '/tmp/portage/dev-python/pytest-xprocess-0.13.1/temp/tmpmvdij0y9.py'
/usr/bin/python3.8 /tmp/portage/dev-python/pytest-xprocess-0.13.1/temp/tmpmvdij0y9.py
removing /tmp/portage/dev-python/pytest-xprocess-0.13.1/temp/tmpmvdij0y9.py
writing byte-compilation script '/tmp/portage/dev-python/pytest-xprocess-0.13.1/temp/tmpgcq_vv78.py'
/usr/bin/python3.8 /tmp/portage/dev-python/pytest-xprocess-0.13.1/temp/tmpgcq_vv78.py
removing /tmp/portage/dev-python/pytest-xprocess-0.13.1/temp/tmpgcq_vv78.py
running install_egg_info
running egg_info
writing pytest_xprocess.egg-info/PKG-INFO
writing dependency_links to pytest_xprocess.egg-info/dependency_links.txt
writing entry points to pytest_xprocess.egg-info/entry_points.txt
writing requirements to pytest_xprocess.egg-info/requires.txt
writing top-level names to pytest_xprocess.egg-info/top_level.txt
reading manifest file 'pytest_xprocess.egg-info/SOURCES.txt'
reading manifest template 'MANIFEST.in'
writing manifest file 'pytest_xprocess.egg-info/SOURCES.txt'
Copying pytest_xprocess.egg-info to /tmp/portage/dev-python/pytest-xprocess-0.13.1/image/_python3.8/usr/lib/python3.8/site-packages/pytest_xprocess-0.13.1-py3.8.egg-info
running install_scripts
 * python3_9: running distutils-r1_run_phase distutils-r1_python_install
python3.9 setup.py install --skip-build --root=/tmp/portage/dev-python/pytest-xprocess-0.13.1/image/_python3.9
running install
running install_lib
creating /tmp/portage/dev-python/pytest-xprocess-0.13.1/image/_python3.9
creating /tmp/portage/dev-python/pytest-xprocess-0.13.1/image/_python3.9/usr
creating /tmp/portage/dev-python/pytest-xprocess-0.13.1/image/_python3.9/usr/lib
creating /tmp/portage/dev-python/pytest-xprocess-0.13.1/image/_python3.9/usr/lib/python3.9
creating /tmp/portage/dev-python/pytest-xprocess-0.13.1/image/_python3.9/usr/lib/python3.9/site-packages
copying /tmp/portage/dev-python/pytest-xprocess-0.13.1/work/pytest-xprocess-0.13.1-python3_9/lib/pytest_xprocess.py -> /tmp/portage/dev-python/pytest-xprocess-0.13.1/image/_python3.9/usr/lib/python3.9/site-packages
copying /tmp/portage/dev-python/pytest-xprocess-0.13.1/work/pytest-xprocess-0.13.1-python3_9/lib/xprocess.py -> /tmp/portage/dev-python/pytest-xprocess-0.13.1/image/_python3.9/usr/lib/python3.9/site-packages
byte-compiling /tmp/portage/dev-python/pytest-xprocess-0.13.1/image/_python3.9/usr/lib/python3.9/site-packages/pytest_xprocess.py to pytest_xprocess.cpython-39.pyc
byte-compiling /tmp/portage/dev-python/pytest-xprocess-0.13.1/image/_python3.9/usr/lib/python3.9/site-packages/xprocess.py to xprocess.cpython-39.pyc
writing byte-compilation script '/tmp/portage/dev-python/pytest-xprocess-0.13.1/temp/tmp64jh_qh7.py'
/usr/bin/python3.9 /tmp/portage/dev-python/pytest-xprocess-0.13.1/temp/tmp64jh_qh7.py
removing /tmp/portage/dev-python/pytest-xprocess-0.13.1/temp/tmp64jh_qh7.py
writing byte-compilation script '/tmp/portage/dev-python/pytest-xprocess-0.13.1/temp/tmp1_ela410.py'
/usr/bin/python3.9 /tmp/portage/dev-python/pytest-xprocess-0.13.1/temp/tmp1_ela410.py
removing /tmp/portage/dev-python/pytest-xprocess-0.13.1/temp/tmp1_ela410.py
running install_egg_info
running egg_info
writing pytest_xprocess.egg-info/PKG-INFO
writing dependency_links to pytest_xprocess.egg-info/dependency_links.txt
writing entry points to pytest_xprocess.egg-info/entry_points.txt
writing requirements to pytest_xprocess.egg-info/requires.txt
writing top-level names to pytest_xprocess.egg-info/top_level.txt
reading manifest file 'pytest_xprocess.egg-info/SOURCES.txt'
reading manifest template 'MANIFEST.in'
writing manifest file 'pytest_xprocess.egg-info/SOURCES.txt'
Copying pytest_xprocess.egg-info to /tmp/portage/dev-python/pytest-xprocess-0.13.1/image/_python3.9/usr/lib/python3.9/site-packages/pytest_xprocess-0.13.1-py3.9.egg-info
running install_scripts
 * Using python3.9 in global scope
 * python3_9: running distutils-r1_run_phase distutils-r1_python_install_all
>>> Completed installing dev-python/pytest-xprocess-0.13.1 into /tmp/portage/dev-python/pytest-xprocess-0.13.1/image

 * Final size of build directory: 380 KiB
 * Final size of installed tree:  536 KiB

 * Verifying compiled files in /usr/lib/pypy3.6/site-packages
 * Verifying compiled files in /usr/lib64/python2.7/site-packages
 * Verifying compiled files in /usr/lib/python3.7/site-packages
 * Verifying compiled files in /usr/lib/python3.8/site-packages
 * Verifying compiled files in /usr/lib/python3.9/site-packages
./
./usr/
./usr/lib/
./usr/lib/python3.9/
./usr/lib/python3.9/site-packages/
./usr/lib/python3.9/site-packages/pytest_xprocess.py
./usr/lib/python3.9/site-packages/xprocess.py
./usr/lib/python3.9/site-packages/pytest_xprocess-0.13.1-py3.9.egg-info/
./usr/lib/python3.9/site-packages/pytest_xprocess-0.13.1-py3.9.egg-info/top_level.txt
./usr/lib/python3.9/site-packages/pytest_xprocess-0.13.1-py3.9.egg-info/SOURCES.txt
./usr/lib/python3.9/site-packages/pytest_xprocess-0.13.1-py3.9.egg-info/dependency_links.txt
./usr/lib/python3.9/site-packages/pytest_xprocess-0.13.1-py3.9.egg-info/PKG-INFO
./usr/lib/python3.9/site-packages/pytest_xprocess-0.13.1-py3.9.egg-info/entry_points.txt
./usr/lib/python3.9/site-packages/pytest_xprocess-0.13.1-py3.9.egg-info/requires.txt
./usr/lib/python3.9/site-packages/__pycache__/
./usr/lib/python3.9/site-packages/__pycache__/xprocess.cpython-39.opt-2.pyc
./usr/lib/python3.9/site-packages/__pycache__/pytest_xprocess.cpython-39.pyc
./usr/lib/python3.9/site-packages/__pycache__/pytest_xprocess.cpython-39.opt-2.pyc
./usr/lib/python3.9/site-packages/__pycache__/pytest_xprocess.cpython-39.opt-1.pyc
./usr/lib/python3.9/site-packages/__pycache__/xprocess.cpython-39.opt-1.pyc
./usr/lib/python3.9/site-packages/__pycache__/xprocess.cpython-39.pyc
./usr/lib/python3.8/
./usr/lib/python3.8/site-packages/
./usr/lib/python3.8/site-packages/pytest_xprocess.py
./usr/lib/python3.8/site-packages/xprocess.py
./usr/lib/python3.8/site-packages/__pycache__/
./usr/lib/python3.8/site-packages/__pycache__/xprocess.cpython-38.opt-1.pyc
./usr/lib/python3.8/site-packages/__pycache__/xprocess.cpython-38.pyc
./usr/lib/python3.8/site-packages/__pycache__/pytest_xprocess.cpython-38.opt-2.pyc
./usr/lib/python3.8/site-packages/__pycache__/pytest_xprocess.cpython-38.opt-1.pyc
./usr/lib/python3.8/site-packages/__pycache__/pytest_xprocess.cpython-38.pyc
./usr/lib/python3.8/site-packages/__pycache__/xprocess.cpython-38.opt-2.pyc
./usr/lib/python3.8/site-packages/pytest_xprocess-0.13.1-py3.8.egg-info/
./usr/lib/python3.8/site-packages/pytest_xprocess-0.13.1-py3.8.egg-info/top_level.txt
./usr/lib/python3.8/site-packages/pytest_xprocess-0.13.1-py3.8.egg-info/SOURCES.txt
./usr/lib/python3.8/site-packages/pytest_xprocess-0.13.1-py3.8.egg-info/dependency_links.txt
./usr/lib/python3.8/site-packages/pytest_xprocess-0.13.1-py3.8.egg-info/PKG-INFO
./usr/lib/python3.8/site-packages/pytest_xprocess-0.13.1-py3.8.egg-info/entry_points.txt
./usr/lib/python3.8/site-packages/pytest_xprocess-0.13.1-py3.8.egg-info/requires.txt
./usr/lib/python3.7/
./usr/lib/python3.7/site-packages/
./usr/lib/python3.7/site-packages/pytest_xprocess.py
./usr/lib/python3.7/site-packages/xprocess.py
./usr/lib/python3.7/site-packages/pytest_xprocess-0.13.1-py3.7.egg-info/
./usr/lib/python3.7/site-packages/pytest_xprocess-0.13.1-py3.7.egg-info/top_level.txt
./usr/lib/python3.7/site-packages/pytest_xprocess-0.13.1-py3.7.egg-info/SOURCES.txt
./usr/lib/python3.7/site-packages/pytest_xprocess-0.13.1-py3.7.egg-info/dependency_links.txt
./usr/lib/python3.7/site-packages/pytest_xprocess-0.13.1-py3.7.egg-info/PKG-INFO
./usr/lib/python3.7/site-packages/pytest_xprocess-0.13.1-py3.7.egg-info/entry_points.txt
./usr/lib/python3.7/site-packages/pytest_xprocess-0.13.1-py3.7.egg-info/requires.txt
./usr/lib/python3.7/site-packages/__pycache__/
./usr/lib/python3.7/site-packages/__pycache__/xprocess.cpython-37.opt-1.pyc
./usr/lib/python3.7/site-packages/__pycache__/pytest_xprocess.cpython-37.pyc
./usr/lib/python3.7/site-packages/__pycache__/pytest_xprocess.cpython-37.opt-1.pyc
./usr/lib/python3.7/site-packages/__pycache__/xprocess.cpython-37.pyc
./usr/lib/python3.7/site-packages/__pycache__/pytest_xprocess.cpython-37.opt-2.pyc
./usr/lib/python3.7/site-packages/__pycache__/xprocess.cpython-37.opt-2.pyc
./usr/lib/pypy3.6/
./usr/lib/pypy3.6/site-packages/
./usr/lib/pypy3.6/site-packages/pytest_xprocess-0.13.1-py3.6.egg-info/
./usr/lib/pypy3.6/site-packages/pytest_xprocess-0.13.1-py3.6.egg-info/top_level.txt
./usr/lib/pypy3.6/site-packages/pytest_xprocess-0.13.1-py3.6.egg-info/SOURCES.txt
./usr/lib/pypy3.6/site-packages/pytest_xprocess-0.13.1-py3.6.egg-info/dependency_links.txt
./usr/lib/pypy3.6/site-packages/pytest_xprocess-0.13.1-py3.6.egg-info/PKG-INFO
./usr/lib/pypy3.6/site-packages/pytest_xprocess-0.13.1-py3.6.egg-info/entry_points.txt
./usr/lib/pypy3.6/site-packages/pytest_xprocess-0.13.1-py3.6.egg-info/requires.txt
./usr/lib/pypy3.6/site-packages/pytest_xprocess.py
./usr/lib/pypy3.6/site-packages/xprocess.py
./usr/lib/pypy3.6/site-packages/__pycache__/
./usr/lib/pypy3.6/site-packages/__pycache__/xprocess.pypy36.pyc
./usr/lib/pypy3.6/site-packages/__pycache__/pytest_xprocess.pypy36.pyc
./usr/lib/pypy3.6/site-packages/__pycache__/xprocess.pypy36.opt-1.pyc
./usr/lib/pypy3.6/site-packages/__pycache__/xprocess.pypy36.opt-2.pyc
./usr/lib/pypy3.6/site-packages/__pycache__/pytest_xprocess.pypy36.opt-1.pyc
./usr/lib/pypy3.6/site-packages/__pycache__/pytest_xprocess.pypy36.opt-2.pyc
./usr/share/
./usr/share/doc/
./usr/share/doc/pytest-xprocess-0.13.1/
./usr/share/doc/pytest-xprocess-0.13.1/README.rst.bz2
./usr/share/doc/pytest-xprocess-0.13.1/CHANGELOG.bz2
./usr/lib64/
./usr/lib64/python2.7/
./usr/lib64/python2.7/site-packages/
./usr/lib64/python2.7/site-packages/pytest_xprocess.py
./usr/lib64/python2.7/site-packages/pytest_xprocess.pyo
./usr/lib64/python2.7/site-packages/pytest_xprocess-0.13.1-py2.7.egg-info/
./usr/lib64/python2.7/site-packages/pytest_xprocess-0.13.1-py2.7.egg-info/top_level.txt
./usr/lib64/python2.7/site-packages/pytest_xprocess-0.13.1-py2.7.egg-info/SOURCES.txt
./usr/lib64/python2.7/site-packages/pytest_xprocess-0.13.1-py2.7.egg-info/dependency_links.txt
./usr/lib64/python2.7/site-packages/pytest_xprocess-0.13.1-py2.7.egg-info/PKG-INFO
./usr/lib64/python2.7/site-packages/pytest_xprocess-0.13.1-py2.7.egg-info/entry_points.txt
./usr/lib64/python2.7/site-packages/pytest_xprocess-0.13.1-py2.7.egg-info/requires.txt
./usr/lib64/python2.7/site-packages/xprocess.pyo
./usr/lib64/python2.7/site-packages/xprocess.py
./usr/lib64/python2.7/site-packages/xprocess.pyc
./usr/lib64/python2.7/site-packages/pytest_xprocess.pyc
>>> Done.
 * checking 68 files for package collisions
>>> Merging dev-python/pytest-xprocess-0.13.1 to /
 * removing unneeded *.la files
--- /usr/
--- /usr/lib64/
--- /usr/lib64/python2.7/
--- /usr/lib64/python2.7/site-packages/
>>> /usr/lib64/python2.7/site-packages/pytest_xprocess.pyc
>>> /usr/lib64/python2.7/site-packages/xprocess.pyc
>>> /usr/lib64/python2.7/site-packages/xprocess.py
>>> /usr/lib64/python2.7/site-packages/xprocess.pyo
--- /usr/lib64/python2.7/site-packages/pytest_xprocess-0.13.1-py2.7.egg-info/
>>> /usr/lib64/python2.7/site-packages/pytest_xprocess-0.13.1-py2.7.egg-info/requires.txt
>>> /usr/lib64/python2.7/site-packages/pytest_xprocess-0.13.1-py2.7.egg-info/entry_points.txt
>>> /usr/lib64/python2.7/site-packages/pytest_xprocess-0.13.1-py2.7.egg-info/PKG-INFO
>>> /usr/lib64/python2.7/site-packages/pytest_xprocess-0.13.1-py2.7.egg-info/dependency_links.txt
>>> /usr/lib64/python2.7/site-packages/pytest_xprocess-0.13.1-py2.7.egg-info/SOURCES.txt
>>> /usr/lib64/python2.7/site-packages/pytest_xprocess-0.13.1-py2.7.egg-info/top_level.txt
>>> /usr/lib64/python2.7/site-packages/pytest_xprocess.pyo
>>> /usr/lib64/python2.7/site-packages/pytest_xprocess.py
--- /usr/lib/
--- /usr/lib/pypy3.6/
--- /usr/lib/pypy3.6/site-packages/
--- /usr/lib/pypy3.6/site-packages/__pycache__/
>>> /usr/lib/pypy3.6/site-packages/__pycache__/pytest_xprocess.pypy36.opt-2.pyc
>>> /usr/lib/pypy3.6/site-packages/__pycache__/pytest_xprocess.pypy36.opt-1.pyc
>>> /usr/lib/pypy3.6/site-packages/__pycache__/xprocess.pypy36.opt-2.pyc
>>> /usr/lib/pypy3.6/site-packages/__pycache__/xprocess.pypy36.opt-1.pyc
>>> /usr/lib/pypy3.6/site-packages/__pycache__/pytest_xprocess.pypy36.pyc
>>> /usr/lib/pypy3.6/site-packages/__pycache__/xprocess.pypy36.pyc
>>> /usr/lib/pypy3.6/site-packages/xprocess.py
>>> /usr/lib/pypy3.6/site-packages/pytest_xprocess.py
--- /usr/lib/pypy3.6/site-packages/pytest_xprocess-0.13.1-py3.6.egg-info/
>>> /usr/lib/pypy3.6/site-packages/pytest_xprocess-0.13.1-py3.6.egg-info/requires.txt
>>> /usr/lib/pypy3.6/site-packages/pytest_xprocess-0.13.1-py3.6.egg-info/entry_points.txt
>>> /usr/lib/pypy3.6/site-packages/pytest_xprocess-0.13.1-py3.6.egg-info/PKG-INFO
>>> /usr/lib/pypy3.6/site-packages/pytest_xprocess-0.13.1-py3.6.egg-info/dependency_links.txt
>>> /usr/lib/pypy3.6/site-packages/pytest_xprocess-0.13.1-py3.6.egg-info/SOURCES.txt
>>> /usr/lib/pypy3.6/site-packages/pytest_xprocess-0.13.1-py3.6.egg-info/top_level.txt
--- /usr/lib/python3.7/
--- /usr/lib/python3.7/site-packages/
--- /usr/lib/python3.7/site-packages/__pycache__/
>>> /usr/lib/python3.7/site-packages/__pycache__/xprocess.cpython-37.opt-2.pyc
>>> /usr/lib/python3.7/site-packages/__pycache__/pytest_xprocess.cpython-37.opt-2.pyc
>>> /usr/lib/python3.7/site-packages/__pycache__/xprocess.cpython-37.pyc
>>> /usr/lib/python3.7/site-packages/__pycache__/pytest_xprocess.cpython-37.opt-1.pyc
>>> /usr/lib/python3.7/site-packages/__pycache__/pytest_xprocess.cpython-37.pyc
>>> /usr/lib/python3.7/site-packages/__pycache__/xprocess.cpython-37.opt-1.pyc
--- /usr/lib/python3.7/site-packages/pytest_xprocess-0.13.1-py3.7.egg-info/
>>> /usr/lib/python3.7/site-packages/pytest_xprocess-0.13.1-py3.7.egg-info/requires.txt
>>> /usr/lib/python3.7/site-packages/pytest_xprocess-0.13.1-py3.7.egg-info/entry_points.txt
>>> /usr/lib/python3.7/site-packages/pytest_xprocess-0.13.1-py3.7.egg-info/PKG-INFO
>>> /usr/lib/python3.7/site-packages/pytest_xprocess-0.13.1-py3.7.egg-info/dependency_links.txt
>>> /usr/lib/python3.7/site-packages/pytest_xprocess-0.13.1-py3.7.egg-info/SOURCES.txt
>>> /usr/lib/python3.7/site-packages/pytest_xprocess-0.13.1-py3.7.egg-info/top_level.txt
>>> /usr/lib/python3.7/site-packages/xprocess.py
>>> /usr/lib/python3.7/site-packages/pytest_xprocess.py
--- /usr/lib/python3.8/
--- /usr/lib/python3.8/site-packages/
--- /usr/lib/python3.8/site-packages/pytest_xprocess-0.13.1-py3.8.egg-info/
>>> /usr/lib/python3.8/site-packages/pytest_xprocess-0.13.1-py3.8.egg-info/requires.txt
>>> /usr/lib/python3.8/site-packages/pytest_xprocess-0.13.1-py3.8.egg-info/entry_points.txt
>>> /usr/lib/python3.8/site-packages/pytest_xprocess-0.13.1-py3.8.egg-info/PKG-INFO
>>> /usr/lib/python3.8/site-packages/pytest_xprocess-0.13.1-py3.8.egg-info/dependency_links.txt
>>> /usr/lib/python3.8/site-packages/pytest_xprocess-0.13.1-py3.8.egg-info/SOURCES.txt
>>> /usr/lib/python3.8/site-packages/pytest_xprocess-0.13.1-py3.8.egg-info/top_level.txt
--- /usr/lib/python3.8/site-packages/__pycache__/
>>> /usr/lib/python3.8/site-packages/__pycache__/xprocess.cpython-38.opt-2.pyc
>>> /usr/lib/python3.8/site-packages/__pycache__/pytest_xprocess.cpython-38.pyc
>>> /usr/lib/python3.8/site-packages/__pycache__/pytest_xprocess.cpython-38.opt-1.pyc
>>> /usr/lib/python3.8/site-packages/__pycache__/pytest_xprocess.cpython-38.opt-2.pyc
>>> /usr/lib/python3.8/site-packages/__pycache__/xprocess.cpython-38.pyc
>>> /usr/lib/python3.8/site-packages/__pycache__/xprocess.cpython-38.opt-1.pyc
>>> /usr/lib/python3.8/site-packages/xprocess.py
>>> /usr/lib/python3.8/site-packages/pytest_xprocess.py
--- /usr/lib/python3.9/
--- /usr/lib/python3.9/site-packages/
--- /usr/lib/python3.9/site-packages/__pycache__/
>>> /usr/lib/python3.9/site-packages/__pycache__/xprocess.cpython-39.pyc
>>> /usr/lib/python3.9/site-packages/__pycache__/xprocess.cpython-39.opt-1.pyc
>>> /usr/lib/python3.9/site-packages/__pycache__/pytest_xprocess.cpython-39.opt-1.pyc
>>> /usr/lib/python3.9/site-packages/__pycache__/pytest_xprocess.cpython-39.opt-2.pyc
>>> /usr/lib/python3.9/site-packages/__pycache__/pytest_xprocess.cpython-39.pyc
>>> /usr/lib/python3.9/site-packages/__pycache__/xprocess.cpython-39.opt-2.pyc
--- /usr/lib/python3.9/site-packages/pytest_xprocess-0.13.1-py3.9.egg-info/
>>> /usr/lib/python3.9/site-packages/pytest_xprocess-0.13.1-py3.9.egg-info/requires.txt
>>> /usr/lib/python3.9/site-packages/pytest_xprocess-0.13.1-py3.9.egg-info/entry_points.txt
>>> /usr/lib/python3.9/site-packages/pytest_xprocess-0.13.1-py3.9.egg-info/PKG-INFO
>>> /usr/lib/python3.9/site-packages/pytest_xprocess-0.13.1-py3.9.egg-info/dependency_links.txt
>>> /usr/lib/python3.9/site-packages/pytest_xprocess-0.13.1-py3.9.egg-info/SOURCES.txt
>>> /usr/lib/python3.9/site-packages/pytest_xprocess-0.13.1-py3.9.egg-info/top_level.txt
>>> /usr/lib/python3.9/site-packages/xprocess.py
>>> /usr/lib/python3.9/site-packages/pytest_xprocess.py
>>> Safely unmerging already-installed instance...
>>> Original instance of package unmerged safely.
>>> dev-python/pytest-xprocess-0.13.1 merged.
