No package files given... Grabbing a set.
--- replaced obj /usr/lib64/perl5/vendor_perl/5.30.3/x86_64-linux-thread-multi/auto/Ref/Util/XS/XS.so
--- replaced obj /usr/lib64/perl5/vendor_perl/5.30.3/x86_64-linux-thread-multi/auto/Ref/Util/XS/.packlist
--- replaced dir /usr/lib64/perl5/vendor_perl/5.30.3/x86_64-linux-thread-multi/auto/Ref/Util/XS
--- replaced dir /usr/lib64/perl5/vendor_perl/5.30.3/x86_64-linux-thread-multi/auto/Ref/Util
--- replaced dir /usr/lib64/perl5/vendor_perl/5.30.3/x86_64-linux-thread-multi/auto/Ref
--- replaced dir /usr/lib64/perl5/vendor_perl/5.30.3/x86_64-linux-thread-multi/auto
--- replaced obj /usr/lib64/perl5/vendor_perl/5.30.3/x86_64-linux-thread-multi/Ref/Util/XS.pm
--- replaced dir /usr/lib64/perl5/vendor_perl/5.30.3/x86_64-linux-thread-multi/Ref/Util
--- replaced dir /usr/lib64/perl5/vendor_perl/5.30.3/x86_64-linux-thread-multi/Ref
--- replaced dir /usr/lib64/perl5/vendor_perl/5.30.3/x86_64-linux-thread-multi
--- replaced dir /usr/lib64/perl5/vendor_perl/5.30.3
--- replaced dir /usr/lib64/perl5/vendor_perl
--- replaced dir /usr/lib64/perl5
--- replaced dir /usr/lib64
--- replaced dir /usr
>>> Regenerating /etc/ld.so.cache...
