No package files given... Grabbing a set.
--- replaced obj /usr/lib64/python2.7/site-packages/contextlib2.pyo
--- replaced obj /usr/lib64/python2.7/site-packages/contextlib2.pyc
--- replaced obj /usr/lib64/python2.7/site-packages/contextlib2.py
--- replaced obj /usr/lib64/python2.7/site-packages/contextlib2-0.6.0.post1-py2.7.egg-info/top_level.txt
--- replaced obj /usr/lib64/python2.7/site-packages/contextlib2-0.6.0.post1-py2.7.egg-info/dependency_links.txt
--- replaced obj /usr/lib64/python2.7/site-packages/contextlib2-0.6.0.post1-py2.7.egg-info/SOURCES.txt
--- replaced obj /usr/lib64/python2.7/site-packages/contextlib2-0.6.0.post1-py2.7.egg-info/PKG-INFO
--- replaced dir /usr/lib64/python2.7/site-packages/contextlib2-0.6.0.post1-py2.7.egg-info
--- replaced dir /usr/lib64/python2.7/site-packages
--- replaced dir /usr/lib64/python2.7
--- replaced dir /usr/lib64
--- replaced obj /usr/lib/python3.8/site-packages/contextlib2.py
--- replaced obj /usr/lib/python3.8/site-packages/contextlib2-0.6.0.post1-py3.8.egg-info/top_level.txt
--- replaced obj /usr/lib/python3.8/site-packages/contextlib2-0.6.0.post1-py3.8.egg-info/dependency_links.txt
--- replaced obj /usr/lib/python3.8/site-packages/contextlib2-0.6.0.post1-py3.8.egg-info/SOURCES.txt
--- replaced obj /usr/lib/python3.8/site-packages/contextlib2-0.6.0.post1-py3.8.egg-info/PKG-INFO
--- replaced dir /usr/lib/python3.8/site-packages/contextlib2-0.6.0.post1-py3.8.egg-info
--- replaced obj /usr/lib/python3.8/site-packages/__pycache__/contextlib2.cpython-38.pyc
--- replaced obj /usr/lib/python3.8/site-packages/__pycache__/contextlib2.cpython-38.opt-2.pyc
--- replaced obj /usr/lib/python3.8/site-packages/__pycache__/contextlib2.cpython-38.opt-1.pyc
--- replaced dir /usr/lib/python3.8/site-packages/__pycache__
--- replaced dir /usr/lib/python3.8/site-packages
--- replaced dir /usr/lib/python3.8
--- replaced dir /usr/lib
--- replaced dir /usr
>>> Regenerating /etc/ld.so.cache...
