No package files given... Grabbing a set.
--- replaced obj /usr/lib64/qt5/bin/lupdate-pro
--- replaced obj /usr/lib64/qt5/bin/lupdate
--- replaced obj /usr/lib64/qt5/bin/lrelease-pro
--- replaced obj /usr/lib64/qt5/bin/lrelease
--- replaced obj /usr/lib64/qt5/bin/lprodump
--- replaced obj /usr/lib64/qt5/bin/lconvert
--- replaced dir /usr/lib64/qt5/bin
--- replaced dir /usr/lib64/qt5
--- replaced obj /usr/lib64/cmake/Qt5LinguistTools/Qt5LinguistToolsMacros.cmake
--- replaced obj /usr/lib64/cmake/Qt5LinguistTools/Qt5LinguistToolsConfigVersion.cmake
--- replaced obj /usr/lib64/cmake/Qt5LinguistTools/Qt5LinguistToolsConfig.cmake
--- replaced dir /usr/lib64/cmake/Qt5LinguistTools
--- replaced dir /usr/lib64/cmake
--- replaced dir /usr/lib64
--- replaced dir /usr
>>> Regenerating /etc/ld.so.cache...
