>>> Extracting info
 * Package:    dev-perl/Params-ValidationCompiler-0.260.0
 * Repository: gentoo
 * USE:        abi_x86_64 userland_GNU examples amd64 kernel_linux elibc_glibc
 * FEATURES:   network-sandbox preserve-libs sandbox userpriv usersandbox
 * FEATURES='nodoc binpkg-multi-instance usersandbox distlocks sfperms buildpkg strict-keepdir network-sandbox assume-digests unmerge-logs multilib-strict fixlafiles binpkg-logs binpkg-dostrip unknown-features-warn strict compress-index unmerge-orphans sandbox pid-sandbox downgrade-backup ipc-sandbox preserve-libs news userpriv parallel-install cgroup unmerge-backup parallel-fetch usersync binpkg-docompress qa-unresolved-soname-deps merge-sync xattr userfetch config-protect-if-modified'
 * CFLAGS='-march=native -O3 -fgraphite-identity -floop-nest-optimize -fdevirtualize-at-ltrans -fipa-pta -fno-semantic-interposition -flto=12 -fno-plt -fno-math-errno -fno-trapping-math -fuse-linker-plugin -pipe -g0 -falign-functions=32 -Wl,-O1 -Wl,--as-needed -Wl,--hash-style=gnu,-z,norelro,--as-needed'
 * CXXFLAGS='-march=native -O3 -fgraphite-identity -floop-nest-optimize -fdevirtualize-at-ltrans -fipa-pta -fno-semantic-interposition -flto=12 -fno-plt -fno-math-errno -fno-trapping-math -fuse-linker-plugin -pipe -g0 -falign-functions=32 -Wl,-O1 -Wl,--as-needed -Wl,--hash-style=gnu,-z,norelro,--as-needed'
 * FFLAGS='-march=native -O3 -fgraphite-identity -floop-nest-optimize -fdevirtualize-at-ltrans -fipa-pta -fno-semantic-interposition -flto=12 -fno-plt -fno-math-errno -fno-trapping-math -fuse-linker-plugin -pipe -g0 -falign-functions=32 -Wl,-O1 -Wl,--as-needed -Wl,--hash-style=gnu,-z,norelro,--as-needed'
 * FCFLAGS='-march=native -O3 -fgraphite-identity -floop-nest-optimize -fdevirtualize-at-ltrans -fipa-pta -fno-semantic-interposition -flto=12 -fno-plt -fno-math-errno -fno-trapping-math -fuse-linker-plugin -pipe -g0 -falign-functions=32 -Wl,-O1 -Wl,--as-needed -Wl,--hash-style=gnu,-z,norelro,--as-needed'
 * F77FLAGS='-march=native -O3 -fgraphite-identity -floop-nest-optimize -fdevirtualize-at-ltrans -fipa-pta -fno-semantic-interposition -flto=12 -fno-plt -fno-math-errno -fno-trapping-math -fuse-linker-plugin -pipe -g0 -falign-functions=32 -Wl,-O1 -Wl,--as-needed -Wl,--hash-style=gnu,-z,norelro,--as-needed'
 * LDFLAGS='-Wl,-O1 -Wl,--as-needed -Wl,--hash-style=gnu,-z,norelro,--as-needed -march=native -O3 -fgraphite-identity -floop-nest-optimize -fdevirtualize-at-ltrans -fipa-pta -fno-semantic-interposition -flto=12 -fno-plt -fno-math-errno -fno-trapping-math -fuse-linker-plugin -pipe -g0 -falign-functions=32'
 * MAKEOPTS='-j12 -l12'
 * gcc () 11.0.0 20200526 (experimental)
 * g++ () 11.0.0 20200526 (experimental)
 * GNU ld (Gentoo 2.34 p4) 2.34.0
 * Linux ryzen.gnum.org 5.4.36 #1 SMP Thu Apr 30 04:38:28 UTC 2020 x86_64 AMD Ryzen 5 3600 6-Core Processor AuthenticAMD GNU/Linux
dev-perl/Params-ValidationCompiler: 7 seconds average for 7 merges
2020-05-21T12:54:12 >>> dev-perl/Params-ValidationCompiler: 8 seconds
2020-05-23T14:27:04 >>> dev-perl/Params-ValidationCompiler: 10 seconds
2020-05-24T05:18:45 >>> dev-perl/Params-ValidationCompiler: 5 seconds
2020-05-24T16:41:12 >>> dev-perl/Params-ValidationCompiler: 4 seconds
2020-05-25T00:40:54 >>> dev-perl/Params-ValidationCompiler: 10 seconds
2020-05-25T23:18:22 >>> dev-perl/Params-ValidationCompiler: 10 seconds
2020-05-26T14:24:59 >>> dev-perl/Params-ValidationCompiler: 5 seconds
]0;emerge 02:01:54 363|647 Params-ValidationCompiler 00:08 (root@ryzen.gnum.org)kemerge 02:01:54 363|647 Params-ValidationCompiler 00:08 (root@ryzen.gnum.org)\>>> Extracting dev-perl/Params-ValidationCompiler-0.260.0
 * checking 4 files for package collisions
>>> Merging dev-perl/Params-ValidationCompiler-0.260.0 to /
 * removing unneeded *.la files
--- /usr/
--- /usr/lib64/
--- /usr/lib64/perl5/
--- /usr/lib64/perl5/vendor_perl/
--- /usr/lib64/perl5/vendor_perl/5.30.2/
--- /usr/lib64/perl5/vendor_perl/5.30.2/Params/
>>> /usr/lib64/perl5/vendor_perl/5.30.2/Params/ValidationCompiler.pm
--- /usr/lib64/perl5/vendor_perl/5.30.2/Params/ValidationCompiler/
>>> /usr/lib64/perl5/vendor_perl/5.30.2/Params/ValidationCompiler/Exceptions.pm
>>> /usr/lib64/perl5/vendor_perl/5.30.2/Params/ValidationCompiler/Compiler.pm
--- /usr/lib64/perl5/vendor_perl/5.30.2/x86_64-linux/
--- /usr/lib64/perl5/vendor_perl/5.30.2/x86_64-linux/auto/
--- /usr/lib64/perl5/vendor_perl/5.30.2/x86_64-linux/auto/Params/
--- /usr/lib64/perl5/vendor_perl/5.30.2/x86_64-linux/auto/Params/ValidationCompiler/
>>> /usr/lib64/perl5/vendor_perl/5.30.2/x86_64-linux/auto/Params/ValidationCompiler/.packlist
>>> Safely unmerging already-installed instance...
>>> Original instance of package unmerged safely.
>>> dev-perl/Params-ValidationCompiler-0.260.0 merged.
