 * Package:    dev-ruby/hashdiff-1.0.1
 * Repository: gentoo
 * Maintainer: ruby@gentoo.org
 * USE:        abi_x86_64 amd64 elibc_glibc kernel_linux ruby_targets_ruby25 ruby_targets_ruby26 ruby_targets_ruby27 test userland_GNU
 * FEATURES:   ccache network-sandbox preserve-libs sandbox userpriv usersandbox
 * /etc/portage/package.cflags/ltoworkarounds.conf -> */*: *FLAGS+=-Wl,-O4 *FLAGS-=-Wl,-O1
 * FEATURES='assume-digests binpkg-docompress binpkg-dostrip binpkg-logs binpkg-multi-instance buildpkg ccache cgroup compress-index config-protect-if-modified distlocks fixlafiles ipc-sandbox merge-sync multilib-strict network-sandbox news nodoc parallel-fetch parallel-install pid-sandbox preserve-libs qa-unresolved-soname-deps sandbox sfperms strict strict-keepdir unknown-features-warn unmerge-logs unmerge-orphans userfetch userpriv usersandbox usersync xattr'
 * CFLAGS='-march=znver2 -pipe -g0 -O3 -fgraphite-identity -floop-nest-optimize -fdevirtualize-at-ltrans -fipa-pta -fno-semantic-interposition -flto=12 -fno-plt -fno-signed-zeros -fno-trapping-math -fassociative-math -freciprocal-math -fno-math-errno -ffinite-math-only -fno-rounding-math -fno-signaling-nans -fcx-limited-range -fexcess-precision=fast -falign-functions=32 -fno-stack-protector -fno-stack-clash-protection -fstack-check=no -fno-stack-check -fuse-linker-plugin -Wl,-O4 -Wl,--as-needed -Wl,-lpthread -Wl,-lgomp -Wl,-z,norelro -Wl,-z,now -Wl,--sort-common -s'
 * CXXFLAGS='-march=znver2 -pipe -g0 -O3 -fgraphite-identity -floop-nest-optimize -fdevirtualize-at-ltrans -fipa-pta -fno-semantic-interposition -flto=12 -fno-plt -fno-signed-zeros -fno-trapping-math -fassociative-math -freciprocal-math -fno-math-errno -ffinite-math-only -fno-rounding-math -fno-signaling-nans -fcx-limited-range -fexcess-precision=fast -falign-functions=32 -fno-stack-protector -fno-stack-clash-protection -fstack-check=no -fno-stack-check -fuse-linker-plugin -Wl,-O4 -Wl,--as-needed -Wl,-lpthread -Wl,-lgomp -Wl,-z,norelro -Wl,-z,now -Wl,--sort-common -s'
 * FFLAGS='-march=znver2 -pipe -g0 -O3 -fgraphite-identity -floop-nest-optimize -fdevirtualize-at-ltrans -fipa-pta -fno-semantic-interposition -flto=12 -fno-plt -fno-signed-zeros -fno-trapping-math -fassociative-math -freciprocal-math -fno-math-errno -ffinite-math-only -fno-rounding-math -fno-signaling-nans -fcx-limited-range -fexcess-precision=fast -falign-functions=32 -fno-stack-protector -fno-stack-clash-protection -fstack-check=no -fno-stack-check -fuse-linker-plugin -Wl,-O4 -Wl,--as-needed -Wl,-lpthread -Wl,-lgomp -Wl,-z,norelro -Wl,-z,now -Wl,--sort-common -s'
 * FCFLAGS='-march=znver2 -pipe -g0 -O3 -fgraphite-identity -floop-nest-optimize -fdevirtualize-at-ltrans -fipa-pta -fno-semantic-interposition -flto=12 -fno-plt -fno-signed-zeros -fno-trapping-math -fassociative-math -freciprocal-math -fno-math-errno -ffinite-math-only -fno-rounding-math -fno-signaling-nans -fcx-limited-range -fexcess-precision=fast -falign-functions=32 -fno-stack-protector -fno-stack-clash-protection -fstack-check=no -fno-stack-check -fuse-linker-plugin -Wl,-O4 -Wl,--as-needed -Wl,-lpthread -Wl,-lgomp -Wl,-z,norelro -Wl,-z,now -Wl,--sort-common -s'
 * F77FLAGS='-march=znver2 -pipe -g0 -O3 -fgraphite-identity -floop-nest-optimize -fdevirtualize-at-ltrans -fipa-pta -fno-semantic-interposition -flto=12 -fno-plt -fno-signed-zeros -fno-trapping-math -fassociative-math -freciprocal-math -fno-math-errno -ffinite-math-only -fno-rounding-math -fno-signaling-nans -fcx-limited-range -fexcess-precision=fast -falign-functions=32 -fno-stack-protector -fno-stack-clash-protection -fstack-check=no -fno-stack-check -fuse-linker-plugin -Wl,-O4 -Wl,--as-needed -Wl,-lpthread -Wl,-lgomp -Wl,-z,norelro -Wl,-z,now -Wl,--sort-common -s'
 * LDFLAGS='-march=znver2 -pipe -g0 -O3 -fgraphite-identity -floop-nest-optimize -fdevirtualize-at-ltrans -fipa-pta -fno-semantic-interposition -flto=12 -fno-plt -fno-signed-zeros -fno-trapping-math -fassociative-math -freciprocal-math -fno-math-errno -ffinite-math-only -fno-rounding-math -fno-signaling-nans -fcx-limited-range -fexcess-precision=fast -falign-functions=32 -fno-stack-protector -fno-stack-clash-protection -fstack-check=no -fno-stack-check -fuse-linker-plugin -Wl,-O4 -Wl,--as-needed -Wl,-lpthread -Wl,-lgomp -Wl,-z,norelro -Wl,-z,now -Wl,--sort-common -s'
 * MAKEOPTS='-j12 -l12'
 * gcc () 11.0.0 20200605 (experimental)
 * g++ () 11.0.0 20200605 (experimental)
 * GNU ld (Gentoo 2.34 p4) 2.34.0
 * Linux ryzen.gnum.org 5.4.36 #1 SMP Thu Apr 30 04:38:28 UTC 2020 x86_64 AMD Ryzen 5 3600 6-Core Processor AuthenticAMD GNU/Linux
]0;emerge 00:45:56 40|231 hashdiff (root@ryzen.gnum.org)kemerge 00:45:56 40|231 hashdiff (root@ryzen.gnum.org)\>>> Unpacking source...
 * Running unpack phase for all ...
 * Unpacking .gem file... ...
 [ ok ]
 * Uncompressing metadata ...
 [ ok ]
 * Unpacking data.tar.gz ...
 [ ok ]
>>> Source unpacked in /tmp/portage/dev-ruby/hashdiff-1.0.1/work
>>> Preparing source in /tmp/portage/dev-ruby/hashdiff-1.0.1/work ...
 * Running prepare phase for all ...
 * Running prepare phase for all ...
 * Running source copy phase for ruby25 ...
 * Running source copy phase for ruby26 ...
 * Running source copy phase for ruby27 ...
>>> Source prepared.
>>> Configuring source in /tmp/portage/dev-ruby/hashdiff-1.0.1/work ...
>>> Source configured.
>>> Compiling source in /tmp/portage/dev-ruby/hashdiff-1.0.1/work ...
 * Running compile phase for all ...
>>> Source compiled.
>>> Test phase [not enabled]: dev-ruby/hashdiff-1.0.1

>>> Install dev-ruby/hashdiff-1.0.1 into /tmp/portage/dev-ruby/hashdiff-1.0.1/image
 * Running install phase for ruby25 ...
 * Running install phase for ruby26 ...
 * Running install phase for ruby27 ...
 * Running install phase for all ...
 * Running check install phase for ruby25 ...
 * Running check install phase for ruby26 ...
 * Running check install phase for ruby27 ...
>>> Completed installing dev-ruby/hashdiff-1.0.1 into /tmp/portage/dev-ruby/hashdiff-1.0.1/image

 * Final size of build directory: 272 KiB
 * Final size of installed tree:  264 KiB

./
./usr/
./usr/share/
./usr/share/doc/
./usr/share/doc/hashdiff-1.0.1/
./usr/share/doc/hashdiff-1.0.1/README.md.bz2
./usr/share/doc/hashdiff-1.0.1/changelog.md.bz2
./usr/lib64/
./usr/lib64/ruby/
./usr/lib64/ruby/gems/
./usr/lib64/ruby/gems/2.6.0/
./usr/lib64/ruby/gems/2.6.0/specifications/
./usr/lib64/ruby/gems/2.6.0/specifications/hashdiff-1.0.1.gemspec
./usr/lib64/ruby/gems/2.6.0/gems/
./usr/lib64/ruby/gems/2.6.0/gems/hashdiff-1.0.1/
./usr/lib64/ruby/gems/2.6.0/gems/hashdiff-1.0.1/lib/
./usr/lib64/ruby/gems/2.6.0/gems/hashdiff-1.0.1/lib/hashdiff.rb
./usr/lib64/ruby/gems/2.6.0/gems/hashdiff-1.0.1/lib/hashdiff/
./usr/lib64/ruby/gems/2.6.0/gems/hashdiff-1.0.1/lib/hashdiff/linear_compare_array.rb
./usr/lib64/ruby/gems/2.6.0/gems/hashdiff-1.0.1/lib/hashdiff/compare_hashes.rb
./usr/lib64/ruby/gems/2.6.0/gems/hashdiff-1.0.1/lib/hashdiff/patch.rb
./usr/lib64/ruby/gems/2.6.0/gems/hashdiff-1.0.1/lib/hashdiff/util.rb
./usr/lib64/ruby/gems/2.6.0/gems/hashdiff-1.0.1/lib/hashdiff/lcs_compare_arrays.rb
./usr/lib64/ruby/gems/2.6.0/gems/hashdiff-1.0.1/lib/hashdiff/lcs.rb
./usr/lib64/ruby/gems/2.6.0/gems/hashdiff-1.0.1/lib/hashdiff/version.rb
./usr/lib64/ruby/gems/2.6.0/gems/hashdiff-1.0.1/lib/hashdiff/diff.rb
./usr/lib64/ruby/gems/2.7.0/
./usr/lib64/ruby/gems/2.7.0/specifications/
./usr/lib64/ruby/gems/2.7.0/specifications/hashdiff-1.0.1.gemspec
./usr/lib64/ruby/gems/2.7.0/gems/
./usr/lib64/ruby/gems/2.7.0/gems/hashdiff-1.0.1/
./usr/lib64/ruby/gems/2.7.0/gems/hashdiff-1.0.1/lib/
./usr/lib64/ruby/gems/2.7.0/gems/hashdiff-1.0.1/lib/hashdiff.rb
./usr/lib64/ruby/gems/2.7.0/gems/hashdiff-1.0.1/lib/hashdiff/
./usr/lib64/ruby/gems/2.7.0/gems/hashdiff-1.0.1/lib/hashdiff/linear_compare_array.rb
./usr/lib64/ruby/gems/2.7.0/gems/hashdiff-1.0.1/lib/hashdiff/compare_hashes.rb
./usr/lib64/ruby/gems/2.7.0/gems/hashdiff-1.0.1/lib/hashdiff/patch.rb
./usr/lib64/ruby/gems/2.7.0/gems/hashdiff-1.0.1/lib/hashdiff/util.rb
./usr/lib64/ruby/gems/2.7.0/gems/hashdiff-1.0.1/lib/hashdiff/lcs_compare_arrays.rb
./usr/lib64/ruby/gems/2.7.0/gems/hashdiff-1.0.1/lib/hashdiff/lcs.rb
./usr/lib64/ruby/gems/2.7.0/gems/hashdiff-1.0.1/lib/hashdiff/version.rb
./usr/lib64/ruby/gems/2.7.0/gems/hashdiff-1.0.1/lib/hashdiff/diff.rb
./usr/lib64/ruby/gems/2.5.0/
./usr/lib64/ruby/gems/2.5.0/specifications/
./usr/lib64/ruby/gems/2.5.0/specifications/hashdiff-1.0.1.gemspec
./usr/lib64/ruby/gems/2.5.0/gems/
./usr/lib64/ruby/gems/2.5.0/gems/hashdiff-1.0.1/
./usr/lib64/ruby/gems/2.5.0/gems/hashdiff-1.0.1/lib/
./usr/lib64/ruby/gems/2.5.0/gems/hashdiff-1.0.1/lib/hashdiff.rb
./usr/lib64/ruby/gems/2.5.0/gems/hashdiff-1.0.1/lib/hashdiff/
./usr/lib64/ruby/gems/2.5.0/gems/hashdiff-1.0.1/lib/hashdiff/linear_compare_array.rb
./usr/lib64/ruby/gems/2.5.0/gems/hashdiff-1.0.1/lib/hashdiff/compare_hashes.rb
./usr/lib64/ruby/gems/2.5.0/gems/hashdiff-1.0.1/lib/hashdiff/patch.rb
./usr/lib64/ruby/gems/2.5.0/gems/hashdiff-1.0.1/lib/hashdiff/util.rb
./usr/lib64/ruby/gems/2.5.0/gems/hashdiff-1.0.1/lib/hashdiff/lcs_compare_arrays.rb
./usr/lib64/ruby/gems/2.5.0/gems/hashdiff-1.0.1/lib/hashdiff/lcs.rb
./usr/lib64/ruby/gems/2.5.0/gems/hashdiff-1.0.1/lib/hashdiff/version.rb
./usr/lib64/ruby/gems/2.5.0/gems/hashdiff-1.0.1/lib/hashdiff/diff.rb
>>> Done.
 * checking 30 files for package collisions
>>> Merging dev-ruby/hashdiff-1.0.1 to /
 * removing unneeded *.la files
--- /usr/
--- /usr/lib64/
--- /usr/lib64/ruby/
--- /usr/lib64/ruby/gems/
--- /usr/lib64/ruby/gems/2.5.0/
--- /usr/lib64/ruby/gems/2.5.0/gems/
>>> /usr/lib64/ruby/gems/2.5.0/gems/hashdiff-1.0.1/
>>> /usr/lib64/ruby/gems/2.5.0/gems/hashdiff-1.0.1/lib/
>>> /usr/lib64/ruby/gems/2.5.0/gems/hashdiff-1.0.1/lib/hashdiff/
>>> /usr/lib64/ruby/gems/2.5.0/gems/hashdiff-1.0.1/lib/hashdiff/diff.rb
>>> /usr/lib64/ruby/gems/2.5.0/gems/hashdiff-1.0.1/lib/hashdiff/version.rb
>>> /usr/lib64/ruby/gems/2.5.0/gems/hashdiff-1.0.1/lib/hashdiff/lcs.rb
>>> /usr/lib64/ruby/gems/2.5.0/gems/hashdiff-1.0.1/lib/hashdiff/lcs_compare_arrays.rb
>>> /usr/lib64/ruby/gems/2.5.0/gems/hashdiff-1.0.1/lib/hashdiff/util.rb
>>> /usr/lib64/ruby/gems/2.5.0/gems/hashdiff-1.0.1/lib/hashdiff/patch.rb
>>> /usr/lib64/ruby/gems/2.5.0/gems/hashdiff-1.0.1/lib/hashdiff/compare_hashes.rb
>>> /usr/lib64/ruby/gems/2.5.0/gems/hashdiff-1.0.1/lib/hashdiff/linear_compare_array.rb
>>> /usr/lib64/ruby/gems/2.5.0/gems/hashdiff-1.0.1/lib/hashdiff.rb
--- /usr/lib64/ruby/gems/2.5.0/specifications/
>>> /usr/lib64/ruby/gems/2.5.0/specifications/hashdiff-1.0.1.gemspec
--- /usr/lib64/ruby/gems/2.7.0/
--- /usr/lib64/ruby/gems/2.7.0/gems/
>>> /usr/lib64/ruby/gems/2.7.0/gems/hashdiff-1.0.1/
>>> /usr/lib64/ruby/gems/2.7.0/gems/hashdiff-1.0.1/lib/
>>> /usr/lib64/ruby/gems/2.7.0/gems/hashdiff-1.0.1/lib/hashdiff/
>>> /usr/lib64/ruby/gems/2.7.0/gems/hashdiff-1.0.1/lib/hashdiff/diff.rb
>>> /usr/lib64/ruby/gems/2.7.0/gems/hashdiff-1.0.1/lib/hashdiff/version.rb
>>> /usr/lib64/ruby/gems/2.7.0/gems/hashdiff-1.0.1/lib/hashdiff/lcs.rb
>>> /usr/lib64/ruby/gems/2.7.0/gems/hashdiff-1.0.1/lib/hashdiff/lcs_compare_arrays.rb
>>> /usr/lib64/ruby/gems/2.7.0/gems/hashdiff-1.0.1/lib/hashdiff/util.rb
>>> /usr/lib64/ruby/gems/2.7.0/gems/hashdiff-1.0.1/lib/hashdiff/patch.rb
>>> /usr/lib64/ruby/gems/2.7.0/gems/hashdiff-1.0.1/lib/hashdiff/compare_hashes.rb
>>> /usr/lib64/ruby/gems/2.7.0/gems/hashdiff-1.0.1/lib/hashdiff/linear_compare_array.rb
>>> /usr/lib64/ruby/gems/2.7.0/gems/hashdiff-1.0.1/lib/hashdiff.rb
--- /usr/lib64/ruby/gems/2.7.0/specifications/
>>> /usr/lib64/ruby/gems/2.7.0/specifications/hashdiff-1.0.1.gemspec
--- /usr/lib64/ruby/gems/2.6.0/
--- /usr/lib64/ruby/gems/2.6.0/gems/
>>> /usr/lib64/ruby/gems/2.6.0/gems/hashdiff-1.0.1/
>>> /usr/lib64/ruby/gems/2.6.0/gems/hashdiff-1.0.1/lib/
>>> /usr/lib64/ruby/gems/2.6.0/gems/hashdiff-1.0.1/lib/hashdiff/
>>> /usr/lib64/ruby/gems/2.6.0/gems/hashdiff-1.0.1/lib/hashdiff/diff.rb
>>> /usr/lib64/ruby/gems/2.6.0/gems/hashdiff-1.0.1/lib/hashdiff/version.rb
>>> /usr/lib64/ruby/gems/2.6.0/gems/hashdiff-1.0.1/lib/hashdiff/lcs.rb
>>> /usr/lib64/ruby/gems/2.6.0/gems/hashdiff-1.0.1/lib/hashdiff/lcs_compare_arrays.rb
>>> /usr/lib64/ruby/gems/2.6.0/gems/hashdiff-1.0.1/lib/hashdiff/util.rb
>>> /usr/lib64/ruby/gems/2.6.0/gems/hashdiff-1.0.1/lib/hashdiff/patch.rb
>>> /usr/lib64/ruby/gems/2.6.0/gems/hashdiff-1.0.1/lib/hashdiff/compare_hashes.rb
>>> /usr/lib64/ruby/gems/2.6.0/gems/hashdiff-1.0.1/lib/hashdiff/linear_compare_array.rb
>>> /usr/lib64/ruby/gems/2.6.0/gems/hashdiff-1.0.1/lib/hashdiff.rb
--- /usr/lib64/ruby/gems/2.6.0/specifications/
>>> /usr/lib64/ruby/gems/2.6.0/specifications/hashdiff-1.0.1.gemspec
>>> dev-ruby/hashdiff-1.0.1 merged.
>>> Regenerating /etc/ld.so.cache...
