 * Package:    dev-ruby/power_assert-1.2.0
 * Repository: gentoo
 * Maintainer: ruby@gentoo.org
 * USE:        abi_x86_64 amd64 elibc_glibc kernel_linux ruby_targets_ruby26 ruby_targets_ruby27 userland_GNU
 * FEATURES:   ccache network-sandbox preserve-libs sandbox userpriv usersandbox
 * FEATURES='binpkg-multi-instance parallel-fetch binpkg-logs xattr binpkg-dostrip unmerge-logs sfperms multilib-strict unknown-features-warn buildpkg config-protect-if-modified fixlafiles pid-sandbox unmerge-backup parallel-install userpriv binpkg-docompress distlocks downgrade-backup news usersandbox sandbox qa-unresolved-soname-deps compress-index network-sandbox preserve-libs assume-digests userfetch unmerge-orphans ipc-sandbox usersync strict nodoc ccache merge-sync'
 * CFLAGS='-march=znver2 -O3 -fgraphite-identity -floop-nest-optimize -fdevirtualize-at-ltrans -fipa-pta -fno-semantic-interposition -flto=12 -fno-plt -fno-signed-zeros -fno-trapping-math -fassociative-math -freciprocal-math -fno-math-errno -ffinite-math-only -fno-rounding-math -fno-signaling-nans -fcx-limited-range -fexcess-precision=fast -falign-functions=32 -fno-stack-protector -fno-stack-clash-protection -fstack-check=no -fno-stack-check -fuse-linker-plugin -pipe -g0 -Wl,-O1 -Wl,--as-needed -Wl,-z,norelro -Wl,-z,now -Wl,--sort-common -s'
 * CXXFLAGS='-march=znver2 -O3 -fgraphite-identity -floop-nest-optimize -fdevirtualize-at-ltrans -fipa-pta -fno-semantic-interposition -flto=12 -fno-plt -fno-signed-zeros -fno-trapping-math -fassociative-math -freciprocal-math -fno-math-errno -ffinite-math-only -fno-rounding-math -fno-signaling-nans -fcx-limited-range -fexcess-precision=fast -falign-functions=32 -fno-stack-protector -fno-stack-clash-protection -fstack-check=no -fno-stack-check -fuse-linker-plugin -pipe -g0 -Wl,-O1 -Wl,--as-needed -Wl,-z,norelro -Wl,-z,now -Wl,--sort-common -s'
 * FFLAGS='-march=znver2 -O3 -fgraphite-identity -floop-nest-optimize -fdevirtualize-at-ltrans -fipa-pta -fno-semantic-interposition -flto=12 -fno-plt -fno-signed-zeros -fno-trapping-math -fassociative-math -freciprocal-math -fno-math-errno -ffinite-math-only -fno-rounding-math -fno-signaling-nans -fcx-limited-range -fexcess-precision=fast -falign-functions=32 -fno-stack-protector -fno-stack-clash-protection -fstack-check=no -fno-stack-check -fuse-linker-plugin -pipe -g0 -Wl,-O1 -Wl,--as-needed -Wl,-z,norelro -Wl,-z,now -Wl,--sort-common -s'
 * FCFLAGS='-march=znver2 -O3 -fgraphite-identity -floop-nest-optimize -fdevirtualize-at-ltrans -fipa-pta -fno-semantic-interposition -flto=12 -fno-plt -fno-signed-zeros -fno-trapping-math -fassociative-math -freciprocal-math -fno-math-errno -ffinite-math-only -fno-rounding-math -fno-signaling-nans -fcx-limited-range -fexcess-precision=fast -falign-functions=32 -fno-stack-protector -fno-stack-clash-protection -fstack-check=no -fno-stack-check -fuse-linker-plugin -pipe -g0 -Wl,-O1 -Wl,--as-needed -Wl,-z,norelro -Wl,-z,now -Wl,--sort-common -s'
 * F77FLAGS='-march=znver2 -O3 -fgraphite-identity -floop-nest-optimize -fdevirtualize-at-ltrans -fipa-pta -fno-semantic-interposition -flto=12 -fno-plt -fno-signed-zeros -fno-trapping-math -fassociative-math -freciprocal-math -fno-math-errno -ffinite-math-only -fno-rounding-math -fno-signaling-nans -fcx-limited-range -fexcess-precision=fast -falign-functions=32 -fno-stack-protector -fno-stack-clash-protection -fstack-check=no -fno-stack-check -fuse-linker-plugin -pipe -g0 -Wl,-O1 -Wl,--as-needed -Wl,-z,norelro -Wl,-z,now -Wl,--sort-common -s'
 * LDFLAGS='-Wl,-O1 -Wl,--as-needed -Wl,-z,norelro -Wl,-z,now -Wl,--sort-common -s -march=znver2 -O3 -fgraphite-identity -floop-nest-optimize -fdevirtualize-at-ltrans -fipa-pta -fno-semantic-interposition -flto=12 -fno-plt -fno-signed-zeros -fno-trapping-math -fassociative-math -freciprocal-math -fno-math-errno -ffinite-math-only -fno-rounding-math -fno-signaling-nans -fcx-limited-range -fexcess-precision=fast -falign-functions=32 -fno-stack-protector -fno-stack-clash-protection -fstack-check=no -fno-stack-check -fuse-linker-plugin -pipe -g0'
 * MAKEOPTS='-j12 -l12'
 * gcc () 11.0.0 20200530 (experimental)
 * g++ () 11.0.0 20200530 (experimental)
 * GNU ld (Gentoo 2.34 p4) 2.34.0
 * Linux ryzen.gnum.org 5.4.36 #1 SMP Thu Apr 30 04:38:28 UTC 2020 x86_64 AMD Ryzen 5 3600 6-Core Processor AuthenticAMD GNU/Linux
dev-ruby/power_assert: 7 seconds average for 8 merges
2020-05-15T10:26:19 >>> dev-ruby/power_assert: 7 seconds
2020-05-16T14:53:15 >>> dev-ruby/power_assert: 7 seconds
2020-05-20T01:43:19 >>> dev-ruby/power_assert: 10 seconds
2020-05-20T08:38:46 >>> dev-ruby/power_assert: 5 seconds
2020-05-21T06:32:50 >>> dev-ruby/power_assert: 6 seconds
2020-05-23T21:14:41 >>> dev-ruby/power_assert: 11 seconds
2020-05-24T19:47:49 >>> dev-ruby/power_assert: 4 seconds
2020-05-28T08:36:49 >>> dev-ruby/power_assert: 11 seconds
]0;emerge 00:31:36 302|337 power_assert 00:09 (root@ryzen.gnum.org)kemerge 00:31:36 302|337 power_assert 00:09 (root@ryzen.gnum.org)\>>> Unpacking source...
 * Running unpack phase for all ...
>>> Unpacking power_assert-1.2.0.tar.gz to /tmp/portage/dev-ruby/power_assert-1.2.0/work/all
>>> Source unpacked in /tmp/portage/dev-ruby/power_assert-1.2.0/work
>>> Preparing source in /tmp/portage/dev-ruby/power_assert-1.2.0/work ...
 * Running prepare phase for all ...
 * Running prepare phase for all ...
 * Running source copy phase for ruby26 ...
 * Running source copy phase for ruby27 ...
>>> Source prepared.
>>> Configuring source in /tmp/portage/dev-ruby/power_assert-1.2.0/work ...
>>> Source configured.
>>> Compiling source in /tmp/portage/dev-ruby/power_assert-1.2.0/work ...
 * Running compile phase for all ...
>>> Source compiled.
 * Skipping make test/check due to ebuild restriction.
>>> Test phase [disabled because of RESTRICT=test]: dev-ruby/power_assert-1.2.0

>>> Install dev-ruby/power_assert-1.2.0 into /tmp/portage/dev-ruby/power_assert-1.2.0/image
 * Running install phase for ruby26 ...
 * Running install phase for ruby27 ...
 * Running install phase for all ...
 * Running check install phase for ruby26 ...
 * Running check install phase for ruby27 ...
>>> Completed installing dev-ruby/power_assert-1.2.0 into /tmp/portage/dev-ruby/power_assert-1.2.0/image

 * Final size of build directory: 216 KiB
 * Final size of installed tree:  196 KiB

./
./usr/
./usr/share/
./usr/share/doc/
./usr/share/doc/power_assert-1.2.0/
./usr/share/doc/power_assert-1.2.0/README.rdoc.bz2
./usr/lib64/
./usr/lib64/ruby/
./usr/lib64/ruby/gems/
./usr/lib64/ruby/gems/2.6.0/
./usr/lib64/ruby/gems/2.6.0/specifications/
./usr/lib64/ruby/gems/2.6.0/specifications/power_assert-1.2.0.gemspec
./usr/lib64/ruby/gems/2.6.0/gems/
./usr/lib64/ruby/gems/2.6.0/gems/power_assert-1.2.0/
./usr/lib64/ruby/gems/2.6.0/gems/power_assert-1.2.0/lib/
./usr/lib64/ruby/gems/2.6.0/gems/power_assert-1.2.0/lib/power_assert.rb
./usr/lib64/ruby/gems/2.6.0/gems/power_assert-1.2.0/lib/power_assert/
./usr/lib64/ruby/gems/2.6.0/gems/power_assert-1.2.0/lib/power_assert/enable_tracepoint_events.rb
./usr/lib64/ruby/gems/2.6.0/gems/power_assert-1.2.0/lib/power_assert/configuration.rb
./usr/lib64/ruby/gems/2.6.0/gems/power_assert-1.2.0/lib/power_assert/parser.rb
./usr/lib64/ruby/gems/2.6.0/gems/power_assert-1.2.0/lib/power_assert/colorize.rb
./usr/lib64/ruby/gems/2.6.0/gems/power_assert-1.2.0/lib/power_assert/version.rb
./usr/lib64/ruby/gems/2.6.0/gems/power_assert-1.2.0/lib/power_assert/context.rb
./usr/lib64/ruby/gems/2.6.0/gems/power_assert-1.2.0/lib/power_assert/inspector.rb
./usr/lib64/ruby/gems/2.6.0/gems/power_assert-1.2.0/bin/
./usr/lib64/ruby/gems/2.6.0/gems/power_assert-1.2.0/bin/setup
./usr/lib64/ruby/gems/2.6.0/gems/power_assert-1.2.0/bin/console
./usr/lib64/ruby/gems/2.7.0/
./usr/lib64/ruby/gems/2.7.0/specifications/
./usr/lib64/ruby/gems/2.7.0/specifications/power_assert-1.2.0.gemspec
./usr/lib64/ruby/gems/2.7.0/gems/
./usr/lib64/ruby/gems/2.7.0/gems/power_assert-1.2.0/
./usr/lib64/ruby/gems/2.7.0/gems/power_assert-1.2.0/lib/
./usr/lib64/ruby/gems/2.7.0/gems/power_assert-1.2.0/lib/power_assert.rb
./usr/lib64/ruby/gems/2.7.0/gems/power_assert-1.2.0/lib/power_assert/
./usr/lib64/ruby/gems/2.7.0/gems/power_assert-1.2.0/lib/power_assert/enable_tracepoint_events.rb
./usr/lib64/ruby/gems/2.7.0/gems/power_assert-1.2.0/lib/power_assert/configuration.rb
./usr/lib64/ruby/gems/2.7.0/gems/power_assert-1.2.0/lib/power_assert/parser.rb
./usr/lib64/ruby/gems/2.7.0/gems/power_assert-1.2.0/lib/power_assert/colorize.rb
./usr/lib64/ruby/gems/2.7.0/gems/power_assert-1.2.0/lib/power_assert/version.rb
./usr/lib64/ruby/gems/2.7.0/gems/power_assert-1.2.0/lib/power_assert/context.rb
./usr/lib64/ruby/gems/2.7.0/gems/power_assert-1.2.0/lib/power_assert/inspector.rb
./usr/lib64/ruby/gems/2.7.0/gems/power_assert-1.2.0/bin/
./usr/lib64/ruby/gems/2.7.0/gems/power_assert-1.2.0/bin/setup
./usr/lib64/ruby/gems/2.7.0/gems/power_assert-1.2.0/bin/console
>>> Done.
 * checking 22 files for package collisions
[32;01m * [39;49;00mBuilding package for dev-ruby/power_assert-1.2.0 ...                  [34;01m[ [39;49;00m[32;01mok[39;49;00m[34;01m ][39;49;00m
[32;01m * [39;49;00mPackages now in '/usr/portage/packages':
[32;01m * [39;49;00mdev-ruby/power_assert-1.2.0: 42.6K

>>> Merging dev-ruby/power_assert-1.2.0 to /
 * removing unneeded *.la files
--- /usr/
--- /usr/lib64/
--- /usr/lib64/ruby/
--- /usr/lib64/ruby/gems/
--- /usr/lib64/ruby/gems/2.7.0/
--- /usr/lib64/ruby/gems/2.7.0/gems/
--- /usr/lib64/ruby/gems/2.7.0/gems/power_assert-1.2.0/
--- /usr/lib64/ruby/gems/2.7.0/gems/power_assert-1.2.0/bin/
>>> /usr/lib64/ruby/gems/2.7.0/gems/power_assert-1.2.0/bin/console
>>> /usr/lib64/ruby/gems/2.7.0/gems/power_assert-1.2.0/bin/setup
--- /usr/lib64/ruby/gems/2.7.0/gems/power_assert-1.2.0/lib/
--- /usr/lib64/ruby/gems/2.7.0/gems/power_assert-1.2.0/lib/power_assert/
>>> /usr/lib64/ruby/gems/2.7.0/gems/power_assert-1.2.0/lib/power_assert/inspector.rb
>>> /usr/lib64/ruby/gems/2.7.0/gems/power_assert-1.2.0/lib/power_assert/context.rb
>>> /usr/lib64/ruby/gems/2.7.0/gems/power_assert-1.2.0/lib/power_assert/version.rb
>>> /usr/lib64/ruby/gems/2.7.0/gems/power_assert-1.2.0/lib/power_assert/colorize.rb
>>> /usr/lib64/ruby/gems/2.7.0/gems/power_assert-1.2.0/lib/power_assert/parser.rb
>>> /usr/lib64/ruby/gems/2.7.0/gems/power_assert-1.2.0/lib/power_assert/configuration.rb
>>> /usr/lib64/ruby/gems/2.7.0/gems/power_assert-1.2.0/lib/power_assert/enable_tracepoint_events.rb
>>> /usr/lib64/ruby/gems/2.7.0/gems/power_assert-1.2.0/lib/power_assert.rb
--- /usr/lib64/ruby/gems/2.7.0/specifications/
>>> /usr/lib64/ruby/gems/2.7.0/specifications/power_assert-1.2.0.gemspec
--- /usr/lib64/ruby/gems/2.6.0/
--- /usr/lib64/ruby/gems/2.6.0/gems/
--- /usr/lib64/ruby/gems/2.6.0/gems/power_assert-1.2.0/
--- /usr/lib64/ruby/gems/2.6.0/gems/power_assert-1.2.0/bin/
>>> /usr/lib64/ruby/gems/2.6.0/gems/power_assert-1.2.0/bin/console
>>> /usr/lib64/ruby/gems/2.6.0/gems/power_assert-1.2.0/bin/setup
--- /usr/lib64/ruby/gems/2.6.0/gems/power_assert-1.2.0/lib/
--- /usr/lib64/ruby/gems/2.6.0/gems/power_assert-1.2.0/lib/power_assert/
>>> /usr/lib64/ruby/gems/2.6.0/gems/power_assert-1.2.0/lib/power_assert/inspector.rb
>>> /usr/lib64/ruby/gems/2.6.0/gems/power_assert-1.2.0/lib/power_assert/context.rb
>>> /usr/lib64/ruby/gems/2.6.0/gems/power_assert-1.2.0/lib/power_assert/version.rb
>>> /usr/lib64/ruby/gems/2.6.0/gems/power_assert-1.2.0/lib/power_assert/colorize.rb
>>> /usr/lib64/ruby/gems/2.6.0/gems/power_assert-1.2.0/lib/power_assert/parser.rb
>>> /usr/lib64/ruby/gems/2.6.0/gems/power_assert-1.2.0/lib/power_assert/configuration.rb
>>> /usr/lib64/ruby/gems/2.6.0/gems/power_assert-1.2.0/lib/power_assert/enable_tracepoint_events.rb
>>> /usr/lib64/ruby/gems/2.6.0/gems/power_assert-1.2.0/lib/power_assert.rb
--- /usr/lib64/ruby/gems/2.6.0/specifications/
>>> /usr/lib64/ruby/gems/2.6.0/specifications/power_assert-1.2.0.gemspec
>>> Safely unmerging already-installed instance...
>>> Original instance of package unmerged safely.
>>> dev-ruby/power_assert-1.2.0 merged.
