No package files given... Grabbing a set.
--- replaced obj /usr/lib64/ruby/gems/2.7.0/specifications/net-telnet-0.2.0.gemspec
--- replaced dir /usr/lib64/ruby/gems/2.7.0/specifications
--- replaced obj /usr/lib64/ruby/gems/2.7.0/gems/net-telnet-0.2.0/lib/net/telnet/version.rb
--- replaced obj /usr/lib64/ruby/gems/2.7.0/gems/net-telnet-0.2.0/lib/net/telnet.rb
--- replaced dir /usr/lib64/ruby/gems/2.7.0/gems/net-telnet-0.2.0/lib/net/telnet
--- replaced obj /usr/lib64/ruby/gems/2.7.0/gems/net-telnet-0.2.0/lib/net-telnet.rb
--- replaced dir /usr/lib64/ruby/gems/2.7.0/gems/net-telnet-0.2.0/lib/net
--- replaced dir /usr/lib64/ruby/gems/2.7.0/gems/net-telnet-0.2.0/lib
--- replaced obj /usr/lib64/ruby/gems/2.7.0/gems/net-telnet-0.2.0/bin/setup
--- replaced obj /usr/lib64/ruby/gems/2.7.0/gems/net-telnet-0.2.0/bin/console
--- replaced dir /usr/lib64/ruby/gems/2.7.0/gems/net-telnet-0.2.0/bin
--- replaced dir /usr/lib64/ruby/gems/2.7.0/gems/net-telnet-0.2.0
--- replaced dir /usr/lib64/ruby/gems/2.7.0/gems
--- replaced dir /usr/lib64/ruby/gems/2.7.0
--- replaced obj /usr/lib64/ruby/gems/2.6.0/specifications/net-telnet-0.2.0.gemspec
--- replaced dir /usr/lib64/ruby/gems/2.6.0/specifications
--- replaced obj /usr/lib64/ruby/gems/2.6.0/gems/net-telnet-0.2.0/lib/net/telnet/version.rb
--- replaced obj /usr/lib64/ruby/gems/2.6.0/gems/net-telnet-0.2.0/lib/net/telnet.rb
--- replaced dir /usr/lib64/ruby/gems/2.6.0/gems/net-telnet-0.2.0/lib/net/telnet
--- replaced obj /usr/lib64/ruby/gems/2.6.0/gems/net-telnet-0.2.0/lib/net-telnet.rb
--- replaced dir /usr/lib64/ruby/gems/2.6.0/gems/net-telnet-0.2.0/lib/net
--- replaced dir /usr/lib64/ruby/gems/2.6.0/gems/net-telnet-0.2.0/lib
--- replaced obj /usr/lib64/ruby/gems/2.6.0/gems/net-telnet-0.2.0/bin/setup
--- replaced obj /usr/lib64/ruby/gems/2.6.0/gems/net-telnet-0.2.0/bin/console
--- replaced dir /usr/lib64/ruby/gems/2.6.0/gems/net-telnet-0.2.0/bin
--- replaced dir /usr/lib64/ruby/gems/2.6.0/gems/net-telnet-0.2.0
--- replaced dir /usr/lib64/ruby/gems/2.6.0/gems
--- replaced dir /usr/lib64/ruby/gems/2.6.0
--- replaced dir /usr/lib64/ruby/gems
--- replaced dir /usr/lib64/ruby
--- replaced dir /usr/lib64
--- replaced dir /usr
>>> Regenerating /etc/ld.so.cache...
