No package files given... Grabbing a set.
<<<          obj /usr/share/doc/tix-8.4.3-r1/html/tix-book/tlist.tex.html
<<<          obj /usr/share/doc/tix-8.4.3-r1/html/tix-book/tix.book.html
<<<          obj /usr/share/doc/tix-8.4.3-r1/html/tix-book/preface.tex.html
<<<          obj /usr/share/doc/tix-8.4.3-r1/html/tix-book/oop.tex.html
<<<          obj /usr/share/doc/tix-8.4.3-r1/html/tix-book/intro.tex.html
<<<          obj /usr/share/doc/tix-8.4.3-r1/html/tix-book/hlist.tex.html
<<<          obj /usr/share/doc/tix-8.4.3-r1/html/tix-book/filesel.tex.html
<<<          obj /usr/share/doc/tix-8.4.3-r1/html/tix-book/fig/tlist/widgets.gif
<<<          obj /usr/share/doc/tix-8.4.3-r1/html/tix-book/fig/tlist/vertical.gif
<<<          obj /usr/share/doc/tix-8.4.3-r1/html/tix-book/fig/tlist/twofont2.gif
<<<          obj /usr/share/doc/tix-8.4.3-r1/html/tix-book/fig/tlist/twofont.gif
<<<          obj /usr/share/doc/tix-8.4.3-r1/html/tix-book/fig/tlist/tlist.gif
<<<          obj /usr/share/doc/tix-8.4.3-r1/html/tix-book/fig/tlist/relation.gif
<<<          obj /usr/share/doc/tix-8.4.3-r1/html/tix-book/fig/tlist/joe.gif
<<<          obj /usr/share/doc/tix-8.4.3-r1/html/tix-book/fig/tlist/horizontal.gif
<<<          obj /usr/share/doc/tix-8.4.3-r1/html/tix-book/fig/oop/arrows.gif
<<<          obj /usr/share/doc/tix-8.4.3-r1/html/tix-book/fig/intro/select1.gif
<<<          obj /usr/share/doc/tix-8.4.3-r1/html/tix-book/fig/intro/select.gif
<<<          obj /usr/share/doc/tix-8.4.3-r1/html/tix-book/fig/intro/select-vert.gif
<<<          obj /usr/share/doc/tix-8.4.3-r1/html/tix-book/fig/intro/lawyer.gif
<<<          obj /usr/share/doc/tix-8.4.3-r1/html/tix-book/fig/intro/law_comp.gif
<<<          obj /usr/share/doc/tix-8.4.3-r1/html/tix-book/fig/intro/hierarchy.gif
<<<          obj /usr/share/doc/tix-8.4.3-r1/html/tix-book/fig/intro/ctl_wopt.gif
<<<          obj /usr/share/doc/tix-8.4.3-r1/html/tix-book/fig/intro/ctl_subw.gif
<<<          obj /usr/share/doc/tix-8.4.3-r1/html/tix-book/fig/intro/ctl_noopt.gif
<<<          obj /usr/share/doc/tix-8.4.3-r1/html/tix-book/fig/hlist/hlist_ex3.gif
<<<          obj /usr/share/doc/tix-8.4.3-r1/html/tix-book/fig/hlist/hlist_ex2.gif
<<<          obj /usr/share/doc/tix-8.4.3-r1/html/tix-book/fig/hlist/hlist_ex1.gif
<<<          obj /usr/share/doc/tix-8.4.3-r1/html/tix-book/fig/hlist/hlist1.gif
<<<          obj /usr/share/doc/tix-8.4.3-r1/html/tix-book/fig/hlist/dirtree.gif
<<<          obj /usr/share/doc/tix-8.4.3-r1/html/tix-book/fig/filesel/fb_comp.gif
<<<          obj /usr/share/doc/tix-8.4.3-r1/html/tix-book/fig/filesel/exfile.gif
<<<          obj /usr/share/doc/tix-8.4.3-r1/html/tix-book/fig/filesel/dirtree.gif
<<<          obj /usr/share/doc/tix-8.4.3-r1/html/tix-book/fig/filesel/dirlist.gif
<<<          obj /usr/share/doc/tix-8.4.3-r1/html/tix-book/fig/cover.gif
<<<          obj /usr/share/doc/tix-8.4.3-r1/html/tix-book/fig/container/sl-nobar.gif
<<<          obj /usr/share/doc/tix-8.4.3-r1/html/tix-book/fig/container/sl-bar.gif
<<<          obj /usr/share/doc/tix-8.4.3-r1/html/tix-book/fig/container/pane_vert.gif
<<<          obj /usr/share/doc/tix-8.4.3-r1/html/tix-book/fig/container/pane_horz.gif
<<<          obj /usr/share/doc/tix-8.4.3-r1/html/tix-book/fig/container/pane_add.gif
<<<          obj /usr/share/doc/tix-8.4.3-r1/html/tix-book/fig/container/notebook.gif
<<<          obj /usr/share/doc/tix-8.4.3-r1/html/tix-book/container.tex.html
<<<          obj /usr/share/doc/tix-8.4.3-r1/html/index.html
<<<          obj /usr/share/doc/tix-8.4.3-r1/html/img/tk42b.gif
<<<          obj /usr/share/doc/tix-8.4.3-r1/html/img/tk42a.gif
<<<          obj /usr/share/doc/tix-8.4.3-r1/html/img/setup6.gif
<<<          obj /usr/share/doc/tix-8.4.3-r1/html/img/setup5.gif
<<<          obj /usr/share/doc/tix-8.4.3-r1/html/img/setup3.gif
<<<          obj /usr/share/doc/tix-8.4.3-r1/html/img/setup2.gif
<<<          obj /usr/share/doc/tix-8.4.3-r1/html/img/setup1.gif
<<<          obj /usr/share/doc/tix-8.4.3-r1/html/img/setup0.gif
<<<          obj /usr/share/doc/tix-8.4.3-r1/html/img/docview_w.gif
<<<          obj /usr/share/doc/tix-8.4.3-r1/html/img/demo1.gif
<<<          obj /usr/share/doc/tix-8.4.3-r1/html/html/gif/tix/tlist/widgets.gif
<<<          obj /usr/share/doc/tix-8.4.3-r1/html/html/gif/tix/tlist/vertical.gif
<<<          obj /usr/share/doc/tix-8.4.3-r1/html/html/gif/tix/tlist/twofont2.gif
<<<          obj /usr/share/doc/tix-8.4.3-r1/html/html/gif/tix/tlist/twofont.gif
<<<          obj /usr/share/doc/tix-8.4.3-r1/html/html/gif/tix/tlist/tlist.gif
<<<          obj /usr/share/doc/tix-8.4.3-r1/html/html/gif/tix/tlist/relation.gif
<<<          obj /usr/share/doc/tix-8.4.3-r1/html/html/gif/tix/tlist/joe.gif
<<<          obj /usr/share/doc/tix-8.4.3-r1/html/html/gif/tix/tlist/horizontal.gif
<<<          obj /usr/share/doc/tix-8.4.3-r1/html/html/gif/tix/tix32.png
<<<          obj /usr/share/doc/tix-8.4.3-r1/html/html/gif/tix/tix32.gif
<<<          obj /usr/share/doc/tix-8.4.3-r1/html/html/gif/tix/oop/arrows.gif
<<<          obj /usr/share/doc/tix-8.4.3-r1/html/html/gif/tix/intro/select1.gif
<<<          obj /usr/share/doc/tix-8.4.3-r1/html/html/gif/tix/intro/select.gif
<<<          obj /usr/share/doc/tix-8.4.3-r1/html/html/gif/tix/intro/select-vert.gif
<<<          obj /usr/share/doc/tix-8.4.3-r1/html/html/gif/tix/intro/lawyer.gif
<<<          obj /usr/share/doc/tix-8.4.3-r1/html/html/gif/tix/intro/law_comp.gif
<<<          obj /usr/share/doc/tix-8.4.3-r1/html/html/gif/tix/intro/hierarchy.gif
<<<          obj /usr/share/doc/tix-8.4.3-r1/html/html/gif/tix/intro/ctl_wopt.gif
<<<          obj /usr/share/doc/tix-8.4.3-r1/html/html/gif/tix/intro/ctl_subw.gif
<<<          obj /usr/share/doc/tix-8.4.3-r1/html/html/gif/tix/intro/ctl_noopt.gif
<<<          obj /usr/share/doc/tix-8.4.3-r1/html/html/gif/tix/intro/combo.gif
<<<          obj /usr/share/doc/tix-8.4.3-r1/html/html/gif/tix/hlist/hlist_ex3.gif
<<<          obj /usr/share/doc/tix-8.4.3-r1/html/html/gif/tix/hlist/hlist_ex2.gif
<<<          obj /usr/share/doc/tix-8.4.3-r1/html/html/gif/tix/hlist/hlist_ex1.gif
<<<          obj /usr/share/doc/tix-8.4.3-r1/html/html/gif/tix/hlist/hlist1.gif
<<<          obj /usr/share/doc/tix-8.4.3-r1/html/html/gif/tix/hlist/dirtree.gif
<<<          obj /usr/share/doc/tix-8.4.3-r1/html/html/gif/tix/hierarchy.png
<<<          obj /usr/share/doc/tix-8.4.3-r1/html/html/gif/tix/hierarchy.gif
<<<          obj /usr/share/doc/tix-8.4.3-r1/html/html/gif/tix/filesel/fb_comp.gif
<<<          obj /usr/share/doc/tix-8.4.3-r1/html/html/gif/tix/filesel/exfile.gif
<<<          obj /usr/share/doc/tix-8.4.3-r1/html/html/gif/tix/filesel/dirtree.gif
<<<          obj /usr/share/doc/tix-8.4.3-r1/html/html/gif/tix/filesel/dirlist.gif
<<<          obj /usr/share/doc/tix-8.4.3-r1/html/html/gif/tix/container/sl-nobar.gif
<<<          obj /usr/share/doc/tix-8.4.3-r1/html/html/gif/tix/container/sl-bar.gif
<<<          obj /usr/share/doc/tix-8.4.3-r1/html/html/gif/tix/container/pane_vert.gif
<<<          obj /usr/share/doc/tix-8.4.3-r1/html/html/gif/tix/container/pane_horz.gif
<<<          obj /usr/share/doc/tix-8.4.3-r1/html/html/gif/tix/container/pane_add.gif
<<<          obj /usr/share/doc/tix-8.4.3-r1/html/html/gif/tix/container/notebook.gif
<<<          obj /usr/share/doc/tix-8.4.3-r1/html/html/gif/tix/arrows.png
<<<          obj /usr/share/doc/tix-8.4.3-r1/html/html/gif/tix/ARROWS.gif
<<<          obj /usr/share/doc/tix-8.4.3-r1/html/html/TixBook/tableofcontents3_1.html
<<<          obj /usr/share/doc/tix-8.4.3-r1/html/html/TixBook/subsubsectionstar3_8_5_4.html
<<<          obj /usr/share/doc/tix-8.4.3-r1/html/html/TixBook/subsubsectionstar3_8_5_2.html
<<<          obj /usr/share/doc/tix-8.4.3-r1/html/html/TixBook/subsubsectionstar3_8_4_3.html
<<<          obj /usr/share/doc/tix-8.4.3-r1/html/html/TixBook/subsubsectionstar3_8_4_2.html
<<<          obj /usr/share/doc/tix-8.4.3-r1/html/html/TixBook/subsubsectionstar3_8_1_5.html
<<<          obj /usr/share/doc/tix-8.4.3-r1/html/html/TixBook/subsubsectionstar3_8_1_4.html
<<<          obj /usr/share/doc/tix-8.4.3-r1/html/html/TixBook/subsubsectionstar3_8_1_3.html
<<<          obj /usr/share/doc/tix-8.4.3-r1/html/html/TixBook/subsubsectionstar3_7_1_5.html
<<<          obj /usr/share/doc/tix-8.4.3-r1/html/html/TixBook/subsubsectionstar3_3_5_4.html
<<<          obj /usr/share/doc/tix-8.4.3-r1/html/html/TixBook/subsubsectionstar3_3_5_3.html
<<<          obj /usr/share/doc/tix-8.4.3-r1/html/html/TixBook/subsubsectionstar3_3_5_2.html
<<<          obj /usr/share/doc/tix-8.4.3-r1/html/html/TixBook/subsubsectionstar3_3_2_3.html
<<<          obj /usr/share/doc/tix-8.4.3-r1/html/html/TixBook/subsubsection3_8_5_3.html
<<<          obj /usr/share/doc/tix-8.4.3-r1/html/html/TixBook/subsubsection3_8_5_1.html
<<<          obj /usr/share/doc/tix-8.4.3-r1/html/html/TixBook/subsubsection3_8_4_5.html
<<<          obj /usr/share/doc/tix-8.4.3-r1/html/html/TixBook/subsubsection3_8_4_4.html
<<<          obj /usr/share/doc/tix-8.4.3-r1/html/html/TixBook/subsubsection3_8_4_1.html
<<<          obj /usr/share/doc/tix-8.4.3-r1/html/html/TixBook/subsubsection3_8_3_1.html
<<<          obj /usr/share/doc/tix-8.4.3-r1/html/html/TixBook/subsubsection3_8_2_1.html
<<<          obj /usr/share/doc/tix-8.4.3-r1/html/html/TixBook/subsubsection3_8_1_2.html
<<<          obj /usr/share/doc/tix-8.4.3-r1/html/html/TixBook/subsubsection3_8_1_1.html
<<<          obj /usr/share/doc/tix-8.4.3-r1/html/html/TixBook/subsubsection3_7_1_4.html
<<<          obj /usr/share/doc/tix-8.4.3-r1/html/html/TixBook/subsubsection3_7_1_3.html
<<<          obj /usr/share/doc/tix-8.4.3-r1/html/html/TixBook/subsubsection3_7_1_2.html
<<<          obj /usr/share/doc/tix-8.4.3-r1/html/html/TixBook/subsubsection3_7_1_1.html
<<<          obj /usr/share/doc/tix-8.4.3-r1/html/html/TixBook/subsubsection3_6_1_4.html
<<<          obj /usr/share/doc/tix-8.4.3-r1/html/html/TixBook/subsubsection3_6_1_3.html
<<<          obj /usr/share/doc/tix-8.4.3-r1/html/html/TixBook/subsubsection3_6_1_2.html
<<<          obj /usr/share/doc/tix-8.4.3-r1/html/html/TixBook/subsubsection3_6_1_1.html
<<<          obj /usr/share/doc/tix-8.4.3-r1/html/html/TixBook/subsubsection3_5_3_6.html
<<<          obj /usr/share/doc/tix-8.4.3-r1/html/html/TixBook/subsubsection3_5_3_5.html
<<<          obj /usr/share/doc/tix-8.4.3-r1/html/html/TixBook/subsubsection3_5_3_4.html
<<<          obj /usr/share/doc/tix-8.4.3-r1/html/html/TixBook/subsubsection3_5_3_3.html
<<<          obj /usr/share/doc/tix-8.4.3-r1/html/html/TixBook/subsubsection3_5_3_2.html
<<<          obj /usr/share/doc/tix-8.4.3-r1/html/html/TixBook/subsubsection3_5_3_1.html
<<<          obj /usr/share/doc/tix-8.4.3-r1/html/html/TixBook/subsubsection3_5_2_2.html
<<<          obj /usr/share/doc/tix-8.4.3-r1/html/html/TixBook/subsubsection3_5_2_1.html
<<<          obj /usr/share/doc/tix-8.4.3-r1/html/html/TixBook/subsubsection3_4_3_2.html
<<<          obj /usr/share/doc/tix-8.4.3-r1/html/html/TixBook/subsubsection3_4_3_1.html
<<<          obj /usr/share/doc/tix-8.4.3-r1/html/html/TixBook/subsubsection3_4_2_4.html
<<<          obj /usr/share/doc/tix-8.4.3-r1/html/html/TixBook/subsubsection3_4_2_3.html
<<<          obj /usr/share/doc/tix-8.4.3-r1/html/html/TixBook/subsubsection3_4_2_2.html
<<<          obj /usr/share/doc/tix-8.4.3-r1/html/html/TixBook/subsubsection3_4_2_1.html
<<<          obj /usr/share/doc/tix-8.4.3-r1/html/html/TixBook/subsubsection3_4_1_4.html
<<<          obj /usr/share/doc/tix-8.4.3-r1/html/html/TixBook/subsubsection3_4_1_3.html
<<<          obj /usr/share/doc/tix-8.4.3-r1/html/html/TixBook/subsubsection3_4_1_2.html
<<<          obj /usr/share/doc/tix-8.4.3-r1/html/html/TixBook/subsubsection3_4_1_1.html
<<<          obj /usr/share/doc/tix-8.4.3-r1/html/html/TixBook/subsubsection3_3_5_7.html
<<<          obj /usr/share/doc/tix-8.4.3-r1/html/html/TixBook/subsubsection3_3_5_6.html
<<<          obj /usr/share/doc/tix-8.4.3-r1/html/html/TixBook/subsubsection3_3_5_5.html
<<<          obj /usr/share/doc/tix-8.4.3-r1/html/html/TixBook/subsubsection3_3_5_1.html
<<<          obj /usr/share/doc/tix-8.4.3-r1/html/html/TixBook/subsubsection3_3_4_4.html
<<<          obj /usr/share/doc/tix-8.4.3-r1/html/html/TixBook/subsubsection3_3_4_3.html
<<<          obj /usr/share/doc/tix-8.4.3-r1/html/html/TixBook/subsubsection3_3_4_2.html
<<<          obj /usr/share/doc/tix-8.4.3-r1/html/html/TixBook/subsubsection3_3_4_1.html
<<<          obj /usr/share/doc/tix-8.4.3-r1/html/html/TixBook/subsubsection3_3_3_7.html
<<<          obj /usr/share/doc/tix-8.4.3-r1/html/html/TixBook/subsubsection3_3_3_6.html
<<<          obj /usr/share/doc/tix-8.4.3-r1/html/html/TixBook/subsubsection3_3_3_5.html
<<<          obj /usr/share/doc/tix-8.4.3-r1/html/html/TixBook/subsubsection3_3_3_4.html
<<<          obj /usr/share/doc/tix-8.4.3-r1/html/html/TixBook/subsubsection3_3_3_3.html
<<<          obj /usr/share/doc/tix-8.4.3-r1/html/html/TixBook/subsubsection3_3_3_2.html
<<<          obj /usr/share/doc/tix-8.4.3-r1/html/html/TixBook/subsubsection3_3_3_1.html
<<<          obj /usr/share/doc/tix-8.4.3-r1/html/html/TixBook/subsubsection3_3_2_4.html
<<<          obj /usr/share/doc/tix-8.4.3-r1/html/html/TixBook/subsubsection3_3_2_2.html
<<<          obj /usr/share/doc/tix-8.4.3-r1/html/html/TixBook/subsubsection3_3_2_1.html
<<<          obj /usr/share/doc/tix-8.4.3-r1/html/html/TixBook/subsubsection3_3_1_2.html
<<<          obj /usr/share/doc/tix-8.4.3-r1/html/html/TixBook/subsubsection3_3_1_1.html
<<<          obj /usr/share/doc/tix-8.4.3-r1/html/html/TixBook/subsectionstar3_2_3.html
<<<          obj /usr/share/doc/tix-8.4.3-r1/html/html/TixBook/subsectionstar3_2_2.html
<<<          obj /usr/share/doc/tix-8.4.3-r1/html/html/TixBook/subsectionstar3_2_1.html
<<<          obj /usr/share/doc/tix-8.4.3-r1/html/html/TixBook/subsection3_8_7.html
<<<          obj /usr/share/doc/tix-8.4.3-r1/html/html/TixBook/subsection3_8_6.html
<<<          obj /usr/share/doc/tix-8.4.3-r1/html/html/TixBook/subsection3_8_5.html
<<<          obj /usr/share/doc/tix-8.4.3-r1/html/html/TixBook/subsection3_8_4.html
<<<          obj /usr/share/doc/tix-8.4.3-r1/html/html/TixBook/subsection3_8_3.html
<<<          obj /usr/share/doc/tix-8.4.3-r1/html/html/TixBook/subsection3_8_2.html
<<<          obj /usr/share/doc/tix-8.4.3-r1/html/html/TixBook/subsection3_8_1.html
<<<          obj /usr/share/doc/tix-8.4.3-r1/html/html/TixBook/subsection3_7_2.html
<<<          obj /usr/share/doc/tix-8.4.3-r1/html/html/TixBook/subsection3_7_1.html
<<<          obj /usr/share/doc/tix-8.4.3-r1/html/html/TixBook/subsection3_6_2.html
<<<          obj /usr/share/doc/tix-8.4.3-r1/html/html/TixBook/subsection3_6_1.html
<<<          obj /usr/share/doc/tix-8.4.3-r1/html/html/TixBook/subsection3_5_3.html
<<<          obj /usr/share/doc/tix-8.4.3-r1/html/html/TixBook/subsection3_5_2.html
<<<          obj /usr/share/doc/tix-8.4.3-r1/html/html/TixBook/subsection3_5_1.html
<<<          obj /usr/share/doc/tix-8.4.3-r1/html/html/TixBook/subsection3_4_3.html
<<<          obj /usr/share/doc/tix-8.4.3-r1/html/html/TixBook/subsection3_4_2.html
<<<          obj /usr/share/doc/tix-8.4.3-r1/html/html/TixBook/subsection3_4_1.html
<<<          obj /usr/share/doc/tix-8.4.3-r1/html/html/TixBook/subsection3_3_5.html
<<<          obj /usr/share/doc/tix-8.4.3-r1/html/html/TixBook/subsection3_3_4.html
<<<          obj /usr/share/doc/tix-8.4.3-r1/html/html/TixBook/subsection3_3_3.html
<<<          obj /usr/share/doc/tix-8.4.3-r1/html/html/TixBook/subsection3_3_2.html
<<<          obj /usr/share/doc/tix-8.4.3-r1/html/html/TixBook/subsection3_3_1.html
<<<          obj /usr/share/doc/tix-8.4.3-r1/html/html/TixBook/sectionstar3_2.html
<<<          obj /usr/share/doc/tix-8.4.3-r1/html/html/TixBook/section3_8.html
<<<          obj /usr/share/doc/tix-8.4.3-r1/html/html/TixBook/section3_7.html
<<<          obj /usr/share/doc/tix-8.4.3-r1/html/html/TixBook/section3_6.html
<<<          obj /usr/share/doc/tix-8.4.3-r1/html/html/TixBook/section3_5.html
<<<          obj /usr/share/doc/tix-8.4.3-r1/html/html/TixBook/section3_4.html
<<<          obj /usr/share/doc/tix-8.4.3-r1/html/html/TixBook/section3_3.html
<<<          obj /usr/share/doc/tix-8.4.3-r1/html/html/TixBook/TixBook.html
<<<          obj /usr/share/doc/tix-8.4.3-r1/html/Release.html
<<<          obj /usr/share/doc/tix-8.4.3-r1/html/FAQ.html
<<<          obj /usr/share/doc/tix-8.4.3-r1/html/ABOUT.html
<<<          obj /usr/share/doc/tix-8.4.3-r1/Release-8.4.0.txt.bz2
<<<          obj /usr/share/doc/tix-8.4.3-r1/Release-8.2.0.txt.bz2
<<<          obj /usr/share/doc/tix-8.4.3-r1/Release-8.1.3.txt.bz2
<<<          obj /usr/share/doc/tix-8.4.3-r1/Release-8.1.2.txt.bz2
<<<          obj /usr/share/doc/tix-8.4.3-r1/Release-8.1.1.txt.bz2
<<<          obj /usr/share/doc/tix-8.4.3-r1/Release-8.1.0.txt.bz2
<<<          obj /usr/share/doc/tix-8.4.3-r1/Release-8.0.2.txt.bz2
<<<          obj /usr/share/doc/tix-8.4.3-r1/Release-8.0.1.txt.bz2
<<<          obj /usr/share/doc/tix-8.4.3-r1/Release-8.0.0.txt.bz2
<<<          obj /usr/share/doc/tix-8.4.3-r1/README.txt.bz2
<<<          obj /usr/share/doc/tix-8.4.3-r1/Files.txt.bz2
<<<          obj /usr/share/doc/tix-8.4.3-r1/FAQ.txt.bz2
<<<          obj /usr/share/doc/tix-8.4.3-r1/ChangeLog.bz2
--- replaced sym /usr/lib64/libTix8.4.3.so
--- replaced obj /usr/lib64/Tix8.4.3/pref/pkgIndex.tcl
--- replaced obj /usr/lib64/Tix8.4.3/pref/WmDefault.txt
--- replaced obj /usr/lib64/Tix8.4.3/pref/WmDefault.tcl
--- replaced obj /usr/lib64/Tix8.4.3/pref/WmDefault.py
--- replaced obj /usr/lib64/Tix8.4.3/pref/WmDefault.fsc
--- replaced obj /usr/lib64/Tix8.4.3/pref/WmDefault.fs
--- replaced obj /usr/lib64/Tix8.4.3/pref/WmDefault.csc
--- replaced obj /usr/lib64/Tix8.4.3/pref/WmDefault.cs
--- replaced obj /usr/lib64/Tix8.4.3/pref/TkWin.fsc
--- replaced obj /usr/lib64/Tix8.4.3/pref/TkWin.fs
--- replaced obj /usr/lib64/Tix8.4.3/pref/TkWin.csc
--- replaced obj /usr/lib64/Tix8.4.3/pref/TkWin.cs
--- replaced obj /usr/lib64/Tix8.4.3/pref/TixGray.csc
--- replaced obj /usr/lib64/Tix8.4.3/pref/TixGray.cs
--- replaced obj /usr/lib64/Tix8.4.3/pref/TK.fsc
--- replaced obj /usr/lib64/Tix8.4.3/pref/TK.fs
--- replaced obj /usr/lib64/Tix8.4.3/pref/TK.csc
--- replaced obj /usr/lib64/Tix8.4.3/pref/TK.cs
--- replaced obj /usr/lib64/Tix8.4.3/pref/SGIGray.csc
--- replaced obj /usr/lib64/Tix8.4.3/pref/SGIGray.cs
--- replaced obj /usr/lib64/Tix8.4.3/pref/Old14Pt.fs
--- replaced obj /usr/lib64/Tix8.4.3/pref/Old12Pt.fs
--- replaced obj /usr/lib64/Tix8.4.3/pref/Gray.csc
--- replaced obj /usr/lib64/Tix8.4.3/pref/Gray.cs
--- replaced obj /usr/lib64/Tix8.4.3/pref/Blue.csc
--- replaced obj /usr/lib64/Tix8.4.3/pref/Blue.cs
--- replaced obj /usr/lib64/Tix8.4.3/pref/Bisque.csc
--- replaced obj /usr/lib64/Tix8.4.3/pref/Bisque.cs
--- replaced obj /usr/lib64/Tix8.4.3/pref/14Point.fsc
--- replaced obj /usr/lib64/Tix8.4.3/pref/14Point.fs
--- replaced obj /usr/lib64/Tix8.4.3/pref/12Point.fsc
--- replaced obj /usr/lib64/Tix8.4.3/pref/12Point.fs
--- replaced obj /usr/lib64/Tix8.4.3/pref/10Point.fsc
--- replaced obj /usr/lib64/Tix8.4.3/pref/10Point.fs
--- replaced dir /usr/lib64/Tix8.4.3/pref
--- replaced obj /usr/lib64/Tix8.4.3/pkgIndex.tcl
--- replaced obj /usr/lib64/Tix8.4.3/license.terms
--- replaced obj /usr/lib64/Tix8.4.3/libTix8.4.3.so
--- replaced dir /usr/lib64/Tix8.4.3/html
--- replaced obj /usr/lib64/Tix8.4.3/fs.tcl
--- replaced obj /usr/lib64/Tix8.4.3/bitmaps/warning.xpm
--- replaced obj /usr/lib64/Tix8.4.3/bitmaps/warning.gif
--- replaced obj /usr/lib64/Tix8.4.3/bitmaps/tick.xbm
--- replaced obj /usr/lib64/Tix8.4.3/bitmaps/textfile.xpm
--- replaced obj /usr/lib64/Tix8.4.3/bitmaps/textfile.xbm
--- replaced obj /usr/lib64/Tix8.4.3/bitmaps/textfile.gif
--- replaced obj /usr/lib64/Tix8.4.3/bitmaps/system.xbm
--- replaced obj /usr/lib64/Tix8.4.3/bitmaps/srcfile.xpm
--- replaced obj /usr/lib64/Tix8.4.3/bitmaps/srcfile.xbm
--- replaced obj /usr/lib64/Tix8.4.3/bitmaps/srcfile.gif
--- replaced obj /usr/lib64/Tix8.4.3/bitmaps/restore.xbm
--- replaced obj /usr/lib64/Tix8.4.3/bitmaps/resize2.xbm
--- replaced obj /usr/lib64/Tix8.4.3/bitmaps/resize1.xbm
--- replaced obj /usr/lib64/Tix8.4.3/bitmaps/plusarm.xpm
--- replaced obj /usr/lib64/Tix8.4.3/bitmaps/plusarm.xbm
--- replaced obj /usr/lib64/Tix8.4.3/bitmaps/plusarm.gif
--- replaced obj /usr/lib64/Tix8.4.3/bitmaps/plus.xpm
--- replaced obj /usr/lib64/Tix8.4.3/bitmaps/plus.xbm
--- replaced obj /usr/lib64/Tix8.4.3/bitmaps/plus.gif
--- replaced obj /usr/lib64/Tix8.4.3/bitmaps/openfold.xpm
--- replaced obj /usr/lib64/Tix8.4.3/bitmaps/openfold.xbm
--- replaced obj /usr/lib64/Tix8.4.3/bitmaps/openfold.gif
--- replaced obj /usr/lib64/Tix8.4.3/bitmaps/openfile.xbm
--- replaced obj /usr/lib64/Tix8.4.3/bitmaps/no_entry.xpm
--- replaced obj /usr/lib64/Tix8.4.3/bitmaps/no_entry.gif
--- replaced obj /usr/lib64/Tix8.4.3/bitmaps/network.xbm
--- replaced obj /usr/lib64/Tix8.4.3/bitmaps/mktransgif.tcl
--- replaced obj /usr/lib64/Tix8.4.3/bitmaps/minusarm.xpm
--- replaced obj /usr/lib64/Tix8.4.3/bitmaps/minusarm.xbm
--- replaced obj /usr/lib64/Tix8.4.3/bitmaps/minusarm.gif
--- replaced obj /usr/lib64/Tix8.4.3/bitmaps/minus.xpm
--- replaced obj /usr/lib64/Tix8.4.3/bitmaps/minus.xbm
--- replaced obj /usr/lib64/Tix8.4.3/bitmaps/minus.gif
--- replaced obj /usr/lib64/Tix8.4.3/bitmaps/minimize.xbm
--- replaced obj /usr/lib64/Tix8.4.3/bitmaps/maximize.xbm
--- replaced obj /usr/lib64/Tix8.4.3/bitmaps/info.xpm
--- replaced obj /usr/lib64/Tix8.4.3/bitmaps/info.gif
--- replaced obj /usr/lib64/Tix8.4.3/bitmaps/incr.xbm
--- replaced obj /usr/lib64/Tix8.4.3/bitmaps/hourglas.xbm
--- replaced obj /usr/lib64/Tix8.4.3/bitmaps/hourglas.mask
--- replaced obj /usr/lib64/Tix8.4.3/bitmaps/harddisk.xbm
--- replaced obj /usr/lib64/Tix8.4.3/bitmaps/folder.xpm
--- replaced obj /usr/lib64/Tix8.4.3/bitmaps/folder.xbm
--- replaced obj /usr/lib64/Tix8.4.3/bitmaps/folder.gif
--- replaced obj /usr/lib64/Tix8.4.3/bitmaps/file.xpm
--- replaced obj /usr/lib64/Tix8.4.3/bitmaps/file.xbm
--- replaced obj /usr/lib64/Tix8.4.3/bitmaps/file.gif
--- replaced obj /usr/lib64/Tix8.4.3/bitmaps/drop.xbm
--- replaced obj /usr/lib64/Tix8.4.3/bitmaps/decr.xbm
--- replaced obj /usr/lib64/Tix8.4.3/bitmaps/cross.xbm
--- replaced obj /usr/lib64/Tix8.4.3/bitmaps/ck_on.xbm
--- replaced obj /usr/lib64/Tix8.4.3/bitmaps/ck_off.xbm
--- replaced obj /usr/lib64/Tix8.4.3/bitmaps/ck_def.xbm
--- replaced obj /usr/lib64/Tix8.4.3/bitmaps/cbxarrow.xbm
--- replaced obj /usr/lib64/Tix8.4.3/bitmaps/balarrow.xbm
--- replaced obj /usr/lib64/Tix8.4.3/bitmaps/act_fold.xpm
--- replaced obj /usr/lib64/Tix8.4.3/bitmaps/act_fold.xbm
--- replaced obj /usr/lib64/Tix8.4.3/bitmaps/act_fold.gif
--- replaced dir /usr/lib64/Tix8.4.3/bitmaps
--- replaced obj /usr/lib64/Tix8.4.3/WInfo.tcl
--- replaced obj /usr/lib64/Tix8.4.3/Variable.tcl
--- replaced obj /usr/lib64/Tix8.4.3/VTree.tcl
--- replaced obj /usr/lib64/Tix8.4.3/VStack.tcl
--- replaced obj /usr/lib64/Tix8.4.3/VResize.tcl
--- replaced obj /usr/lib64/Tix8.4.3/Utils.tcl
--- replaced obj /usr/lib64/Tix8.4.3/Tree.tcl
--- replaced obj /usr/lib64/Tix8.4.3/Tix.tcl
--- replaced obj /usr/lib64/Tix8.4.3/TList.tcl
--- replaced obj /usr/lib64/Tix8.4.3/StdShell.tcl
--- replaced obj /usr/lib64/Tix8.4.3/StdBBox.tcl
--- replaced obj /usr/lib64/Tix8.4.3/StatBar.tcl
--- replaced obj /usr/lib64/Tix8.4.3/StackWin.tcl
--- replaced obj /usr/lib64/Tix8.4.3/SimpDlg.tcl
--- replaced obj /usr/lib64/Tix8.4.3/Shell.tcl
--- replaced obj /usr/lib64/Tix8.4.3/Select.tcl
--- replaced obj /usr/lib64/Tix8.4.3/SWindow.tcl
--- replaced obj /usr/lib64/Tix8.4.3/SWidget.tcl
--- replaced obj /usr/lib64/Tix8.4.3/SText.tcl
--- replaced obj /usr/lib64/Tix8.4.3/STList.tcl
--- replaced obj /usr/lib64/Tix8.4.3/SListBox.tcl
--- replaced obj /usr/lib64/Tix8.4.3/SHList.tcl
--- replaced obj /usr/lib64/Tix8.4.3/SGrid.tcl
--- replaced obj /usr/lib64/Tix8.4.3/ResizeH.tcl
--- replaced obj /usr/lib64/Tix8.4.3/README.txt
--- replaced obj /usr/lib64/Tix8.4.3/Primitiv.tcl
--- replaced obj /usr/lib64/Tix8.4.3/PopMenu.tcl
--- replaced obj /usr/lib64/Tix8.4.3/PanedWin.tcl
--- replaced obj /usr/lib64/Tix8.4.3/OptMenu.tcl
--- replaced obj /usr/lib64/Tix8.4.3/OldUtil.tcl
--- replaced obj /usr/lib64/Tix8.4.3/NoteBook.tcl
--- replaced obj /usr/lib64/Tix8.4.3/MultView.tcl
--- replaced obj /usr/lib64/Tix8.4.3/Meter.tcl
--- replaced obj /usr/lib64/Tix8.4.3/ListNBk.tcl
--- replaced obj /usr/lib64/Tix8.4.3/LabWidg.tcl
--- replaced obj /usr/lib64/Tix8.4.3/LabFrame.tcl
--- replaced obj /usr/lib64/Tix8.4.3/LabEntry.tcl
--- replaced obj /usr/lib64/Tix8.4.3/Init.tcl
--- replaced obj /usr/lib64/Tix8.4.3/IconView.tcl
--- replaced obj /usr/lib64/Tix8.4.3/HListDD.tcl
--- replaced obj /usr/lib64/Tix8.4.3/HList.tcl
--- replaced obj /usr/lib64/Tix8.4.3/Grid.tcl
--- replaced obj /usr/lib64/Tix8.4.3/FloatEnt.tcl
--- replaced obj /usr/lib64/Tix8.4.3/FileEnt.tcl
--- replaced obj /usr/lib64/Tix8.4.3/FileDlg.tcl
--- replaced obj /usr/lib64/Tix8.4.3/FileCbx.tcl
--- replaced obj /usr/lib64/Tix8.4.3/FileBox.tcl
--- replaced obj /usr/lib64/Tix8.4.3/Event.tcl
--- replaced obj /usr/lib64/Tix8.4.3/EFileDlg.tcl
--- replaced obj /usr/lib64/Tix8.4.3/EFileBox.tcl
--- replaced obj /usr/lib64/Tix8.4.3/DtlList.tcl
--- replaced obj /usr/lib64/Tix8.4.3/DragDrop.tcl
--- replaced obj /usr/lib64/Tix8.4.3/DirTree.tcl
--- replaced obj /usr/lib64/Tix8.4.3/DirList.tcl
--- replaced obj /usr/lib64/Tix8.4.3/DirDlg.tcl
--- replaced obj /usr/lib64/Tix8.4.3/DirBox.tcl
--- replaced obj /usr/lib64/Tix8.4.3/DialogS.tcl
--- replaced obj /usr/lib64/Tix8.4.3/DefSchm.tcl
--- replaced obj /usr/lib64/Tix8.4.3/Control.tcl
--- replaced obj /usr/lib64/Tix8.4.3/Console.tcl
--- replaced obj /usr/lib64/Tix8.4.3/Compat.tcl
--- replaced obj /usr/lib64/Tix8.4.3/ComboBox.tcl
--- replaced obj /usr/lib64/Tix8.4.3/ChkList.tcl
--- replaced obj /usr/lib64/Tix8.4.3/CObjView.tcl
--- replaced obj /usr/lib64/Tix8.4.3/BtnBox.tcl
--- replaced obj /usr/lib64/Tix8.4.3/Balloon.tcl
--- replaced dir /usr/lib64/Tix8.4.3
--- replaced dir /usr/lib64
--- replaced obj /usr/include/tix.h
--- replaced dir /usr/include
--- replaced dir /usr/bin
--- replaced dir /usr
<<<          dir /usr/share/doc/tix-8.4.3-r1/html/tix-book/fig/tlist
<<<          dir /usr/share/doc/tix-8.4.3-r1/html/tix-book/fig/oop
<<<          dir /usr/share/doc/tix-8.4.3-r1/html/tix-book/fig/intro
<<<          dir /usr/share/doc/tix-8.4.3-r1/html/tix-book/fig/hlist
<<<          dir /usr/share/doc/tix-8.4.3-r1/html/tix-book/fig/filesel
<<<          dir /usr/share/doc/tix-8.4.3-r1/html/tix-book/fig/container
<<<          dir /usr/share/doc/tix-8.4.3-r1/html/tix-book/fig
<<<          dir /usr/share/doc/tix-8.4.3-r1/html/tix-book
<<<          dir /usr/share/doc/tix-8.4.3-r1/html/img
<<<          dir /usr/share/doc/tix-8.4.3-r1/html/html/gif/tix/tlist
<<<          dir /usr/share/doc/tix-8.4.3-r1/html/html/gif/tix/oop
<<<          dir /usr/share/doc/tix-8.4.3-r1/html/html/gif/tix/intro
<<<          dir /usr/share/doc/tix-8.4.3-r1/html/html/gif/tix/hlist
<<<          dir /usr/share/doc/tix-8.4.3-r1/html/html/gif/tix/filesel
<<<          dir /usr/share/doc/tix-8.4.3-r1/html/html/gif/tix/container
<<<          dir /usr/share/doc/tix-8.4.3-r1/html/html/gif/tix
<<<          dir /usr/share/doc/tix-8.4.3-r1/html/html/gif
<<<          dir /usr/share/doc/tix-8.4.3-r1/html/html/TixBook
<<<          dir /usr/share/doc/tix-8.4.3-r1/html/html
<<<          dir /usr/share/doc/tix-8.4.3-r1/html
<<<          dir /usr/share/doc/tix-8.4.3-r1
--- !empty   dir /usr/share/doc
--- !empty   dir /usr/share
>>> Regenerating /etc/ld.so.cache...
