No package files given... Grabbing a set.
--- replaced obj /usr/lib64/pkgconfig/atomic_ops.pc
--- replaced dir /usr/lib64/pkgconfig
--- replaced obj /usr/lib64/libatomic_ops_gpl.so.1.1.2
--- replaced sym /usr/lib64/libatomic_ops_gpl.so.1
--- replaced sym /usr/lib64/libatomic_ops_gpl.so
--- replaced obj /usr/lib64/libatomic_ops_gpl.a
--- replaced obj /usr/lib64/libatomic_ops.so.1.1.1
--- replaced sym /usr/lib64/libatomic_ops.so.1
--- replaced sym /usr/lib64/libatomic_ops.so
--- replaced obj /usr/lib64/libatomic_ops.a
--- replaced dir /usr/lib64
--- replaced obj /usr/include/atomic_ops_stack.h
--- replaced obj /usr/include/atomic_ops_malloc.h
--- replaced obj /usr/include/atomic_ops/sysdeps/test_and_set_t_is_char.h
--- replaced obj /usr/include/atomic_ops/sysdeps/test_and_set_t_is_ao_t.h
--- replaced obj /usr/include/atomic_ops/sysdeps/sunc/x86.h
--- replaced obj /usr/include/atomic_ops/sysdeps/sunc/sparc.h
--- replaced dir /usr/include/atomic_ops/sysdeps/sunc
--- replaced obj /usr/include/atomic_ops/sysdeps/standard_ao_double_t.h
--- replaced obj /usr/include/atomic_ops/sysdeps/read_ordered.h
--- replaced obj /usr/include/atomic_ops/sysdeps/ordered_except_wr.h
--- replaced obj /usr/include/atomic_ops/sysdeps/ordered.h
--- replaced obj /usr/include/atomic_ops/sysdeps/msftc/x86_64.h
--- replaced obj /usr/include/atomic_ops/sysdeps/msftc/x86.h
--- replaced obj /usr/include/atomic_ops/sysdeps/msftc/common32_defs.h
--- replaced obj /usr/include/atomic_ops/sysdeps/msftc/arm.h
--- replaced dir /usr/include/atomic_ops/sysdeps/msftc
--- replaced obj /usr/include/atomic_ops/sysdeps/loadstore/short_atomic_store.h
--- replaced obj /usr/include/atomic_ops/sysdeps/loadstore/short_atomic_load.h
--- replaced obj /usr/include/atomic_ops/sysdeps/loadstore/short_acquire_release_volatile.h
--- replaced obj /usr/include/atomic_ops/sysdeps/loadstore/ordered_stores_only.h
--- replaced obj /usr/include/atomic_ops/sysdeps/loadstore/ordered_loads_only.h
--- replaced obj /usr/include/atomic_ops/sysdeps/loadstore/int_atomic_store.h
--- replaced obj /usr/include/atomic_ops/sysdeps/loadstore/int_atomic_load.h
--- replaced obj /usr/include/atomic_ops/sysdeps/loadstore/int_acquire_release_volatile.h
--- replaced obj /usr/include/atomic_ops/sysdeps/loadstore/double_atomic_load_store.h
--- replaced obj /usr/include/atomic_ops/sysdeps/loadstore/char_atomic_store.h
--- replaced obj /usr/include/atomic_ops/sysdeps/loadstore/char_atomic_load.h
--- replaced obj /usr/include/atomic_ops/sysdeps/loadstore/char_acquire_release_volatile.h
--- replaced obj /usr/include/atomic_ops/sysdeps/loadstore/atomic_store.h
--- replaced obj /usr/include/atomic_ops/sysdeps/loadstore/atomic_load.h
--- replaced obj /usr/include/atomic_ops/sysdeps/loadstore/acquire_release_volatile.h
--- replaced dir /usr/include/atomic_ops/sysdeps/loadstore
--- replaced obj /usr/include/atomic_ops/sysdeps/icc/ia64.h
--- replaced dir /usr/include/atomic_ops/sysdeps/icc
--- replaced obj /usr/include/atomic_ops/sysdeps/ibmc/powerpc.h
--- replaced dir /usr/include/atomic_ops/sysdeps/ibmc
--- replaced obj /usr/include/atomic_ops/sysdeps/hpc/ia64.h
--- replaced obj /usr/include/atomic_ops/sysdeps/hpc/hppa.h
--- replaced dir /usr/include/atomic_ops/sysdeps/hpc
--- replaced obj /usr/include/atomic_ops/sysdeps/generic_pthread.h
--- replaced obj /usr/include/atomic_ops/sysdeps/gcc/x86.h
--- replaced obj /usr/include/atomic_ops/sysdeps/gcc/tile.h
--- replaced obj /usr/include/atomic_ops/sysdeps/gcc/sparc.h
--- replaced obj /usr/include/atomic_ops/sysdeps/gcc/sh.h
--- replaced obj /usr/include/atomic_ops/sysdeps/gcc/s390.h
--- replaced obj /usr/include/atomic_ops/sysdeps/gcc/riscv.h
--- replaced obj /usr/include/atomic_ops/sysdeps/gcc/powerpc.h
--- replaced obj /usr/include/atomic_ops/sysdeps/gcc/mips.h
--- replaced obj /usr/include/atomic_ops/sysdeps/gcc/m68k.h
--- replaced obj /usr/include/atomic_ops/sysdeps/gcc/ia64.h
--- replaced obj /usr/include/atomic_ops/sysdeps/gcc/hppa.h
--- replaced obj /usr/include/atomic_ops/sysdeps/gcc/hexagon.h
--- replaced obj /usr/include/atomic_ops/sysdeps/gcc/generic.h
--- replaced obj /usr/include/atomic_ops/sysdeps/gcc/generic-small.h
--- replaced obj /usr/include/atomic_ops/sysdeps/gcc/generic-arithm.h
--- replaced obj /usr/include/atomic_ops/sysdeps/gcc/cris.h
--- replaced obj /usr/include/atomic_ops/sysdeps/gcc/avr32.h
--- replaced obj /usr/include/atomic_ops/sysdeps/gcc/arm.h
--- replaced obj /usr/include/atomic_ops/sysdeps/gcc/alpha.h
--- replaced obj /usr/include/atomic_ops/sysdeps/gcc/aarch64.h
--- replaced dir /usr/include/atomic_ops/sysdeps/gcc
--- replaced obj /usr/include/atomic_ops/sysdeps/emul_cas.h
--- replaced obj /usr/include/atomic_ops/sysdeps/armcc/arm_v6.h
--- replaced dir /usr/include/atomic_ops/sysdeps/armcc
--- replaced obj /usr/include/atomic_ops/sysdeps/ao_t_is_int.h
--- replaced obj /usr/include/atomic_ops/sysdeps/all_atomic_only_load.h
--- replaced obj /usr/include/atomic_ops/sysdeps/all_atomic_load_store.h
--- replaced obj /usr/include/atomic_ops/sysdeps/all_aligned_atomic_load_store.h
--- replaced obj /usr/include/atomic_ops/sysdeps/all_acquire_release_volatile.h
--- replaced dir /usr/include/atomic_ops/sysdeps
--- replaced obj /usr/include/atomic_ops/generalize.h
--- replaced obj /usr/include/atomic_ops/generalize-small.h
--- replaced obj /usr/include/atomic_ops/generalize-arithm.h
--- replaced obj /usr/include/atomic_ops/ao_version.h
--- replaced obj /usr/include/atomic_ops.h
--- replaced dir /usr/include/atomic_ops
--- replaced dir /usr/include
--- replaced dir /usr
>>> Regenerating /etc/ld.so.cache...
