>>> Extracting info
 * Package:    dev-ruby/json-2.3.0
 * Repository: gentoo
 * USE:        kernel_linux userland_GNU ruby_targets_ruby26 elibc_glibc amd64 abi_x86_64 ruby_targets_ruby27
 * FEATURES:   network-sandbox preserve-libs sandbox userpriv usersandbox
 * FEATURES='ebuild-locks usersync nodoc strict-keepdir cgroup compress-index usersandbox unmerge-orphans fixlafiles parallel-fetch unmerge-logs binpkg-dostrip xattr sandbox assume-digests buildpkg merge-sync network-sandbox qa-unresolved-soname-deps ipc-sandbox distlocks userfetch binpkg-docompress userpriv binpkg-logs unknown-features-warn news pid-sandbox sfperms multilib-strict preserve-libs strict config-protect-if-modified'
 * CFLAGS='-march=znver2 -O2 -pipe -fno-stack-protector -fno-stack-clash-protection -fstack-check=no -fno-stack-check -Wl,-O1 -Wl,--as-needed'
 * CXXFLAGS='-march=znver2 -O2 -pipe -fno-stack-protector -fno-stack-clash-protection -fstack-check=no -fno-stack-check -Wl,-O1 -Wl,--as-needed'
 * FFLAGS='-march=znver2 -O2 -pipe -fno-stack-protector -fno-stack-clash-protection -fstack-check=no -fno-stack-check -Wl,-O1 -Wl,--as-needed'
 * FCFLAGS='-march=znver2 -O2 -pipe -fno-stack-protector -fno-stack-clash-protection -fstack-check=no -fno-stack-check -Wl,-O1 -Wl,--as-needed'
 * F77FLAGS='-march=znver2 -O2 -pipe -fno-stack-protector -fno-stack-clash-protection -fstack-check=no -fno-stack-check -Wl,-O1 -Wl,--as-needed'
 * LDFLAGS='-Wl,-O1 -Wl,--as-needed'
 * MAKEOPTS='-j12 -l12'
 * gcc (Gentoo 10.1.0-r1 p2) 10.1.0
 * g++ (Gentoo 10.1.0-r1 p2) 10.1.0
 * GNU gold (Gentoo 2.34 p4 2.34.0) 1.16
 * Linux rescue 5.4.36 #1 SMP Thu Apr 30 04:38:28 UTC 2020 x86_64 AMD Ryzen 5 3600 6-Core Processor AuthenticAMD GNU/Linux
dev-ruby/json: 13 seconds average for 16 merges
2020-05-15T10:27:45 >>> dev-ruby/json: 22 seconds
2020-05-15T12:38:20 >>> dev-ruby/json: 12 seconds
2020-05-16T14:54:04 >>> dev-ruby/json: 8 seconds
2020-05-20T01:43:40 >>> dev-ruby/json: 15 seconds
2020-05-20T08:39:45 >>> dev-ruby/json: 5 seconds
2020-05-23T21:16:01 >>> dev-ruby/json: 18 seconds
2020-05-24T19:47:53 >>> dev-ruby/json: 4 seconds
2020-05-28T10:40:32 >>> dev-ruby/json: 15 seconds
2020-05-29T03:22:45 >>> dev-ruby/json: 25 seconds
2020-05-29T12:27:14 >>> dev-ruby/json: 17 seconds
2020-05-31T00:32:14 >>> dev-ruby/json: 18 seconds
2020-06-01T03:41:17 >>> dev-ruby/json: 16 seconds
2020-06-06T00:39:47 >>> dev-ruby/json: 19 seconds
2020-06-06T11:47:40 >>> dev-ruby/json: 15 seconds
2020-06-12T02:16:11 >>> dev-ruby/json: 6 seconds
2020-06-13T21:10:10 >>> dev-ruby/json: 6 seconds
]0;emerge 14:31:02 558|565 json 00:09 (root@rescue)>>> Extracting dev-ruby/json-2.3.0
 * checking 52 files for package collisions
>>> Merging dev-ruby/json-2.3.0 to /
 * removing unneeded *.la files
--- /usr/
--- /usr/lib64/
--- /usr/lib64/ruby/
--- /usr/lib64/ruby/gems/
--- /usr/lib64/ruby/gems/2.7.0/
--- /usr/lib64/ruby/gems/2.7.0/gems/
--- /usr/lib64/ruby/gems/2.7.0/gems/json-2.3.0/
--- /usr/lib64/ruby/gems/2.7.0/gems/json-2.3.0/lib/
>>> /usr/lib64/ruby/gems/2.7.0/gems/json-2.3.0/lib/json.rb
--- /usr/lib64/ruby/gems/2.7.0/gems/json-2.3.0/lib/json/
>>> /usr/lib64/ruby/gems/2.7.0/gems/json-2.3.0/lib/json/common.rb
--- /usr/lib64/ruby/gems/2.7.0/gems/json-2.3.0/lib/json/pure/
>>> /usr/lib64/ruby/gems/2.7.0/gems/json-2.3.0/lib/json/pure/generator.rb
>>> /usr/lib64/ruby/gems/2.7.0/gems/json-2.3.0/lib/json/pure/parser.rb
--- /usr/lib64/ruby/gems/2.7.0/gems/json-2.3.0/lib/json/ext/
>>> /usr/lib64/ruby/gems/2.7.0/gems/json-2.3.0/lib/json/ext/.keep
>>> /usr/lib64/ruby/gems/2.7.0/gems/json-2.3.0/lib/json/ext/generator.so
>>> /usr/lib64/ruby/gems/2.7.0/gems/json-2.3.0/lib/json/ext/parser.so
--- /usr/lib64/ruby/gems/2.7.0/gems/json-2.3.0/lib/json/add/
>>> /usr/lib64/ruby/gems/2.7.0/gems/json-2.3.0/lib/json/add/date_time.rb
>>> /usr/lib64/ruby/gems/2.7.0/gems/json-2.3.0/lib/json/add/complex.rb
>>> /usr/lib64/ruby/gems/2.7.0/gems/json-2.3.0/lib/json/add/time.rb
>>> /usr/lib64/ruby/gems/2.7.0/gems/json-2.3.0/lib/json/add/range.rb
>>> /usr/lib64/ruby/gems/2.7.0/gems/json-2.3.0/lib/json/add/struct.rb
>>> /usr/lib64/ruby/gems/2.7.0/gems/json-2.3.0/lib/json/add/regexp.rb
>>> /usr/lib64/ruby/gems/2.7.0/gems/json-2.3.0/lib/json/add/set.rb
>>> /usr/lib64/ruby/gems/2.7.0/gems/json-2.3.0/lib/json/add/exception.rb
>>> /usr/lib64/ruby/gems/2.7.0/gems/json-2.3.0/lib/json/add/bigdecimal.rb
>>> /usr/lib64/ruby/gems/2.7.0/gems/json-2.3.0/lib/json/add/rational.rb
>>> /usr/lib64/ruby/gems/2.7.0/gems/json-2.3.0/lib/json/add/core.rb
>>> /usr/lib64/ruby/gems/2.7.0/gems/json-2.3.0/lib/json/add/date.rb
>>> /usr/lib64/ruby/gems/2.7.0/gems/json-2.3.0/lib/json/add/symbol.rb
>>> /usr/lib64/ruby/gems/2.7.0/gems/json-2.3.0/lib/json/add/ostruct.rb
>>> /usr/lib64/ruby/gems/2.7.0/gems/json-2.3.0/lib/json/version.rb
>>> /usr/lib64/ruby/gems/2.7.0/gems/json-2.3.0/lib/json/generic_object.rb
>>> /usr/lib64/ruby/gems/2.7.0/gems/json-2.3.0/lib/json/pure.rb
>>> /usr/lib64/ruby/gems/2.7.0/gems/json-2.3.0/lib/json/ext.rb
--- /usr/lib64/ruby/gems/2.7.0/specifications/
>>> /usr/lib64/ruby/gems/2.7.0/specifications/json-2.3.0.gemspec
--- /usr/lib64/ruby/gems/2.6.0/
--- /usr/lib64/ruby/gems/2.6.0/gems/
--- /usr/lib64/ruby/gems/2.6.0/gems/json-2.3.0/
--- /usr/lib64/ruby/gems/2.6.0/gems/json-2.3.0/lib/
>>> /usr/lib64/ruby/gems/2.6.0/gems/json-2.3.0/lib/json.rb
--- /usr/lib64/ruby/gems/2.6.0/gems/json-2.3.0/lib/json/
>>> /usr/lib64/ruby/gems/2.6.0/gems/json-2.3.0/lib/json/common.rb
--- /usr/lib64/ruby/gems/2.6.0/gems/json-2.3.0/lib/json/pure/
>>> /usr/lib64/ruby/gems/2.6.0/gems/json-2.3.0/lib/json/pure/generator.rb
>>> /usr/lib64/ruby/gems/2.6.0/gems/json-2.3.0/lib/json/pure/parser.rb
--- /usr/lib64/ruby/gems/2.6.0/gems/json-2.3.0/lib/json/ext/
>>> /usr/lib64/ruby/gems/2.6.0/gems/json-2.3.0/lib/json/ext/.keep
>>> /usr/lib64/ruby/gems/2.6.0/gems/json-2.3.0/lib/json/ext/generator.so
>>> /usr/lib64/ruby/gems/2.6.0/gems/json-2.3.0/lib/json/ext/parser.so
--- /usr/lib64/ruby/gems/2.6.0/gems/json-2.3.0/lib/json/add/
>>> /usr/lib64/ruby/gems/2.6.0/gems/json-2.3.0/lib/json/add/date_time.rb
>>> /usr/lib64/ruby/gems/2.6.0/gems/json-2.3.0/lib/json/add/complex.rb
>>> /usr/lib64/ruby/gems/2.6.0/gems/json-2.3.0/lib/json/add/time.rb
>>> /usr/lib64/ruby/gems/2.6.0/gems/json-2.3.0/lib/json/add/range.rb
>>> /usr/lib64/ruby/gems/2.6.0/gems/json-2.3.0/lib/json/add/struct.rb
>>> /usr/lib64/ruby/gems/2.6.0/gems/json-2.3.0/lib/json/add/regexp.rb
>>> /usr/lib64/ruby/gems/2.6.0/gems/json-2.3.0/lib/json/add/set.rb
>>> /usr/lib64/ruby/gems/2.6.0/gems/json-2.3.0/lib/json/add/exception.rb
>>> /usr/lib64/ruby/gems/2.6.0/gems/json-2.3.0/lib/json/add/bigdecimal.rb
>>> /usr/lib64/ruby/gems/2.6.0/gems/json-2.3.0/lib/json/add/rational.rb
>>> /usr/lib64/ruby/gems/2.6.0/gems/json-2.3.0/lib/json/add/core.rb
>>> /usr/lib64/ruby/gems/2.6.0/gems/json-2.3.0/lib/json/add/date.rb
>>> /usr/lib64/ruby/gems/2.6.0/gems/json-2.3.0/lib/json/add/symbol.rb
>>> /usr/lib64/ruby/gems/2.6.0/gems/json-2.3.0/lib/json/add/ostruct.rb
>>> /usr/lib64/ruby/gems/2.6.0/gems/json-2.3.0/lib/json/version.rb
>>> /usr/lib64/ruby/gems/2.6.0/gems/json-2.3.0/lib/json/generic_object.rb
>>> /usr/lib64/ruby/gems/2.6.0/gems/json-2.3.0/lib/json/pure.rb
>>> /usr/lib64/ruby/gems/2.6.0/gems/json-2.3.0/lib/json/ext.rb
--- /usr/lib64/ruby/gems/2.6.0/specifications/
>>> /usr/lib64/ruby/gems/2.6.0/specifications/json-2.3.0.gemspec
>>> Safely unmerging already-installed instance...
!!! File Not Found: '/etc/env.d/99lcdfilter'
>>> Original instance of package unmerged safely.
>>> dev-ruby/json-2.3.0 merged.
!!! File Not Found: '/etc/env.d/99lcdfilter'
