No package files given... Grabbing a set.
--- replaced obj /usr/share/info/mpfr.info.bz2
--- replaced dir /usr/share/info
--- replaced dir /usr/share
--- replaced obj /usr/lib64/pkgconfig/mpfr.pc
--- replaced dir /usr/lib64/pkgconfig
--- replaced obj /usr/lib64/libmpfr.so.6.0.2
--- replaced sym /usr/lib64/libmpfr.so.6
--- replaced sym /usr/lib64/libmpfr.so
--- replaced dir /usr/lib64
--- replaced obj /usr/include/mpfr.h
--- replaced obj /usr/include/mpf2mpfr.h
--- replaced dir /usr/include
--- replaced dir /usr
>>> Regenerating /etc/ld.so.cache...
