No package files given... Grabbing a set.
<<<          obj /usr/share/doc/WWW-RobotRules-6.20.0-r1/README.bz2
<<<          obj /usr/share/doc/WWW-RobotRules-6.20.0-r1/Changes.bz2
--- replaced obj /usr/lib64/perl5/vendor_perl/5.30.2/x86_64-linux/auto/WWW/RobotRules/.packlist
--- replaced dir /usr/lib64/perl5/vendor_perl/5.30.2/x86_64-linux/auto/WWW/RobotRules
--- replaced dir /usr/lib64/perl5/vendor_perl/5.30.2/x86_64-linux/auto/WWW
--- replaced dir /usr/lib64/perl5/vendor_perl/5.30.2/x86_64-linux/auto
--- replaced dir /usr/lib64/perl5/vendor_perl/5.30.2/x86_64-linux
--- replaced obj /usr/lib64/perl5/vendor_perl/5.30.2/WWW/RobotRules/AnyDBM_File.pm
--- replaced obj /usr/lib64/perl5/vendor_perl/5.30.2/WWW/RobotRules.pm
--- replaced dir /usr/lib64/perl5/vendor_perl/5.30.2/WWW/RobotRules
--- replaced dir /usr/lib64/perl5/vendor_perl/5.30.2/WWW
--- replaced dir /usr/lib64/perl5/vendor_perl/5.30.2
--- replaced dir /usr/lib64/perl5/vendor_perl
--- replaced dir /usr/lib64/perl5
--- replaced dir /usr/lib64
--- replaced dir /usr
<<<          dir /usr/share/doc/WWW-RobotRules-6.20.0-r1
--- !empty   dir /usr/share/doc
--- !empty   dir /usr/share
>>> Regenerating /etc/ld.so.cache...
