No package files given... Grabbing a set.
--- !found   obj /usr/lib64/python3.6/site-packages/atomicwrites/__pycache__/__init__.cpython-36.pyc
--- !found   obj /usr/lib64/python3.6/site-packages/atomicwrites/__pycache__/__init__.cpython-36.opt-2.pyc
--- !found   obj /usr/lib64/python3.6/site-packages/atomicwrites/__pycache__/__init__.cpython-36.opt-1.pyc
--- !found   dir /usr/lib64/python3.6/site-packages/atomicwrites/__pycache__
--- !found   obj /usr/lib64/python3.6/site-packages/atomicwrites/__init__.py
--- !found   obj /usr/lib64/python3.6/site-packages/atomicwrites-1.4.0-py3.6.egg-info/top_level.txt
--- !found   obj /usr/lib64/python3.6/site-packages/atomicwrites-1.4.0-py3.6.egg-info/dependency_links.txt
--- !found   obj /usr/lib64/python3.6/site-packages/atomicwrites-1.4.0-py3.6.egg-info/SOURCES.txt
--- !found   obj /usr/lib64/python3.6/site-packages/atomicwrites-1.4.0-py3.6.egg-info/PKG-INFO
--- !found   dir /usr/lib64/python3.6/site-packages/atomicwrites-1.4.0-py3.6.egg-info
--- !found   dir /usr/lib64/python3.6/site-packages/atomicwrites
--- !found   obj /usr/lib64/python2.7/site-packages/atomicwrites/__init__.pyo
--- !found   obj /usr/lib64/python2.7/site-packages/atomicwrites/__init__.pyc
--- !found   obj /usr/lib64/python2.7/site-packages/atomicwrites/__init__.py
--- !found   obj /usr/lib64/python2.7/site-packages/atomicwrites-1.4.0-py2.7.egg-info/top_level.txt
--- !found   obj /usr/lib64/python2.7/site-packages/atomicwrites-1.4.0-py2.7.egg-info/dependency_links.txt
--- !found   obj /usr/lib64/python2.7/site-packages/atomicwrites-1.4.0-py2.7.egg-info/SOURCES.txt
--- !found   obj /usr/lib64/python2.7/site-packages/atomicwrites-1.4.0-py2.7.egg-info/PKG-INFO
--- !found   dir /usr/lib64/python2.7/site-packages/atomicwrites-1.4.0-py2.7.egg-info
--- !found   dir /usr/lib64/python2.7/site-packages/atomicwrites
--- !found   obj /usr/lib/python3.9/site-packages/atomicwrites/__pycache__/__init__.cpython-39.pyc
--- !found   obj /usr/lib/python3.9/site-packages/atomicwrites/__pycache__/__init__.cpython-39.opt-2.pyc
--- !found   obj /usr/lib/python3.9/site-packages/atomicwrites/__pycache__/__init__.cpython-39.opt-1.pyc
--- !found   dir /usr/lib/python3.9/site-packages/atomicwrites/__pycache__
--- !found   obj /usr/lib/python3.9/site-packages/atomicwrites/__init__.py
--- !found   obj /usr/lib/python3.9/site-packages/atomicwrites-1.4.0-py3.9.egg-info/top_level.txt
--- !found   obj /usr/lib/python3.9/site-packages/atomicwrites-1.4.0-py3.9.egg-info/dependency_links.txt
--- !found   obj /usr/lib/python3.9/site-packages/atomicwrites-1.4.0-py3.9.egg-info/SOURCES.txt
--- !found   obj /usr/lib/python3.9/site-packages/atomicwrites-1.4.0-py3.9.egg-info/PKG-INFO
--- !found   dir /usr/lib/python3.9/site-packages/atomicwrites-1.4.0-py3.9.egg-info
--- !found   dir /usr/lib/python3.9/site-packages/atomicwrites
--- !found   obj /usr/lib/python3.8/site-packages/atomicwrites/__pycache__/__init__.cpython-38.pyc
--- !found   obj /usr/lib/python3.8/site-packages/atomicwrites/__pycache__/__init__.cpython-38.opt-2.pyc
--- !found   obj /usr/lib/python3.8/site-packages/atomicwrites/__pycache__/__init__.cpython-38.opt-1.pyc
--- !found   dir /usr/lib/python3.8/site-packages/atomicwrites/__pycache__
--- !found   obj /usr/lib/python3.8/site-packages/atomicwrites/__init__.py
--- !found   obj /usr/lib/python3.8/site-packages/atomicwrites-1.4.0-py3.8.egg-info/top_level.txt
--- !found   obj /usr/lib/python3.8/site-packages/atomicwrites-1.4.0-py3.8.egg-info/dependency_links.txt
--- !found   obj /usr/lib/python3.8/site-packages/atomicwrites-1.4.0-py3.8.egg-info/SOURCES.txt
--- !found   obj /usr/lib/python3.8/site-packages/atomicwrites-1.4.0-py3.8.egg-info/PKG-INFO
--- !found   dir /usr/lib/python3.8/site-packages/atomicwrites-1.4.0-py3.8.egg-info
--- !found   dir /usr/lib/python3.8/site-packages/atomicwrites
--- !found   obj /usr/lib/python3.7/site-packages/atomicwrites/__pycache__/__init__.cpython-37.pyc
--- !found   obj /usr/lib/python3.7/site-packages/atomicwrites/__pycache__/__init__.cpython-37.opt-2.pyc
--- !found   obj /usr/lib/python3.7/site-packages/atomicwrites/__pycache__/__init__.cpython-37.opt-1.pyc
--- !found   dir /usr/lib/python3.7/site-packages/atomicwrites/__pycache__
--- !found   obj /usr/lib/python3.7/site-packages/atomicwrites/__init__.py
--- !found   obj /usr/lib/python3.7/site-packages/atomicwrites-1.4.0-py3.7.egg-info/top_level.txt
--- !found   obj /usr/lib/python3.7/site-packages/atomicwrites-1.4.0-py3.7.egg-info/dependency_links.txt
--- !found   obj /usr/lib/python3.7/site-packages/atomicwrites-1.4.0-py3.7.egg-info/SOURCES.txt
--- !found   obj /usr/lib/python3.7/site-packages/atomicwrites-1.4.0-py3.7.egg-info/PKG-INFO
--- !found   dir /usr/lib/python3.7/site-packages/atomicwrites-1.4.0-py3.7.egg-info
--- !found   dir /usr/lib/python3.7/site-packages/atomicwrites
--- !found   obj /usr/lib/pypy3.6/site-packages/atomicwrites/__pycache__/__init__.pypy36.pyc
--- !found   obj /usr/lib/pypy3.6/site-packages/atomicwrites/__pycache__/__init__.pypy36.opt-2.pyc
--- !found   obj /usr/lib/pypy3.6/site-packages/atomicwrites/__pycache__/__init__.pypy36.opt-1.pyc
--- !found   dir /usr/lib/pypy3.6/site-packages/atomicwrites/__pycache__
--- !found   obj /usr/lib/pypy3.6/site-packages/atomicwrites/__init__.py
--- !found   obj /usr/lib/pypy3.6/site-packages/atomicwrites-1.4.0-py3.6.egg-info/top_level.txt
--- !found   obj /usr/lib/pypy3.6/site-packages/atomicwrites-1.4.0-py3.6.egg-info/dependency_links.txt
--- !found   obj /usr/lib/pypy3.6/site-packages/atomicwrites-1.4.0-py3.6.egg-info/SOURCES.txt
--- !found   obj /usr/lib/pypy3.6/site-packages/atomicwrites-1.4.0-py3.6.egg-info/PKG-INFO
--- !found   dir /usr/lib/pypy3.6/site-packages/atomicwrites-1.4.0-py3.6.egg-info
--- !found   dir /usr/lib/pypy3.6/site-packages/atomicwrites
--- !empty   dir /usr/lib64/python3.6/site-packages
--- !empty   dir /usr/lib64/python3.6
--- !empty   dir /usr/lib64/python2.7/site-packages
--- !empty   dir /usr/lib64/python2.7
--- !empty   dir /usr/lib64
--- !empty   dir /usr/lib/python3.9/site-packages
--- !empty   dir /usr/lib/python3.9
--- !empty   dir /usr/lib/python3.8/site-packages
--- !empty   dir /usr/lib/python3.8
--- !empty   dir /usr/lib/python3.7/site-packages
--- !empty   dir /usr/lib/python3.7
--- !empty   dir /usr/lib/pypy3.6/site-packages
--- !empty   dir /usr/lib/pypy3.6
--- !empty   dir /usr/lib
--- !empty   dir /usr
