 * Package:    dev-libs/vala-common-0.48.5
 * Repository: gentoo
 * Maintainer: gnome@gentoo.org
 * USE:        abi_x86_64 amd64 elibc_glibc kernel_linux userland_GNU
 * FEATURES:   ccache network-sandbox preserve-libs sandbox userpriv usersandbox
 * FEATURES='assume-digests binpkg-docompress binpkg-dostrip binpkg-logs binpkg-multi-instance buildpkg ccache cgroup collision-protect compress-index config-protect-if-modified distlocks downgrade-backup fixlafiles ipc-sandbox merge-sync multilib-strict network-sandbox news nodoc parallel-fetch parallel-install pid-sandbox preserve-libs protect-owned qa-unresolved-soname-deps sandbox sfperms strict strict-keepdir unknown-features-warn unmerge-backup unmerge-logs unmerge-orphans userfetch userpriv usersandbox usersync xattr'
 * CFLAGS='-march=native -O3 -fgraphite-identity -floop-nest-optimize -fdevirtualize-at-ltrans -fipa-pta -fno-semantic-interposition -flto=12 -fno-plt -fno-math-errno -fno-trapping-math -fuse-linker-plugin -pipe -g0 -Wl,-O1 -Wl,--as-needed -Wl,--hash-style=gnu,-z,norelro,--as-needed'
 * CXXFLAGS='-march=native -O3 -fgraphite-identity -floop-nest-optimize -fdevirtualize-at-ltrans -fipa-pta -fno-semantic-interposition -flto=12 -fno-plt -fno-math-errno -fno-trapping-math -fuse-linker-plugin -pipe -g0 -Wl,-O1 -Wl,--as-needed -Wl,--hash-style=gnu,-z,norelro,--as-needed'
 * FFLAGS='-march=native -O3 -fgraphite-identity -floop-nest-optimize -fdevirtualize-at-ltrans -fipa-pta -fno-semantic-interposition -flto=12 -fno-plt -fno-math-errno -fno-trapping-math -fuse-linker-plugin -pipe -g0 -Wl,-O1 -Wl,--as-needed -Wl,--hash-style=gnu,-z,norelro,--as-needed'
 * FCFLAGS='-march=native -O3 -fgraphite-identity -floop-nest-optimize -fdevirtualize-at-ltrans -fipa-pta -fno-semantic-interposition -flto=12 -fno-plt -fno-math-errno -fno-trapping-math -fuse-linker-plugin -pipe -g0 -Wl,-O1 -Wl,--as-needed -Wl,--hash-style=gnu,-z,norelro,--as-needed'
 * F77FLAGS='-march=native -O3 -fgraphite-identity -floop-nest-optimize -fdevirtualize-at-ltrans -fipa-pta -fno-semantic-interposition -flto=12 -fno-plt -fno-math-errno -fno-trapping-math -fuse-linker-plugin -pipe -g0 -Wl,-O1 -Wl,--as-needed -Wl,--hash-style=gnu,-z,norelro,--as-needed'
 * LDFLAGS='-Wl,-O1 -Wl,--as-needed -Wl,--hash-style=gnu,-z,norelro,--as-needed -march=native -O3 -fgraphite-identity -floop-nest-optimize -fdevirtualize-at-ltrans -fipa-pta -fno-semantic-interposition -flto=12 -fno-plt -fno-math-errno -fno-trapping-math -fuse-linker-plugin -pipe -g0'
 * MAKEOPTS='-j12 -l12'
 * gcc (Gentoo 11.0.0_pre9999 p1, commit 584d52b088f9fcf78704b504c3f1f07e17c1cded) 11.0.0 20200523 (experimental)
 * g++ (Gentoo 11.0.0_pre9999 p1, commit 584d52b088f9fcf78704b504c3f1f07e17c1cded) 11.0.0 20200523 (experimental)
 * GNU ld (Gentoo 2.34 p4) 2.34.0
 * Linux ryzen.gnum.org 5.4.36 #1 SMP Thu Apr 30 04:38:28 UTC 2020 x86_64 AMD Ryzen 5 3600 6-Core Processor AuthenticAMD GNU/Linux
dev-libs/vala-common: 6 seconds average for 4 merges
2020-05-15T03:32:01 >>> dev-libs/vala-common: 5 seconds
2020-05-20T01:03:19 >>> dev-libs/vala-common: 4 seconds
2020-05-21T06:01:30 >>> dev-libs/vala-common: 5 seconds
2020-05-23T03:40:53 >>> dev-libs/vala-common: 13 seconds
]0;emerge 23:40:14 115|645 vala-common 00:07 (root@ryzen.gnum.org)>>> Unpacking source...
>>> Unpacking vala-0.48.5.tar.xz to /tmp/portage/dev-libs/vala-common-0.48.5/work
>>> Source unpacked in /tmp/portage/dev-libs/vala-common-0.48.5/work
>>> Preparing source in /tmp/portage/dev-libs/vala-common-0.48.5/work/vala-0.48.5 ...
>>> Source prepared.
>>> Configuring source in /tmp/portage/dev-libs/vala-common-0.48.5/work/vala-0.48.5 ...
>>> Source configured.
>>> Compiling source in /tmp/portage/dev-libs/vala-common-0.48.5/work/vala-0.48.5 ...
>>> Source compiled.
>>> Test phase [not enabled]: dev-libs/vala-common-0.48.5

>>> Install dev-libs/vala-common-0.48.5 into /tmp/portage/dev-libs/vala-common-0.48.5/image
>>> Completed installing dev-libs/vala-common-0.48.5 into /tmp/portage/dev-libs/vala-common-0.48.5/image

 * Final size of build directory: 43252 KiB (42.2 MiB)
 * Final size of installed tree:     36 KiB

./
./usr/
./usr/share/
./usr/share/vala/
./usr/share/vala/Makefile.vapigen
./usr/share/aclocal/
./usr/share/aclocal/vapigen.m4
./usr/share/aclocal/vala.m4
>>> Done.
 * checking 3 files for package collisions
>>> Merging dev-libs/vala-common-0.48.5 to /
 * removing unneeded *.la files
--- /usr/
--- /usr/share/
--- /usr/share/aclocal/
>>> /usr/share/aclocal/vala.m4
>>> /usr/share/aclocal/vapigen.m4
--- /usr/share/vala/
>>> /usr/share/vala/Makefile.vapigen
>>> Safely unmerging already-installed instance...
>>> Original instance of package unmerged safely.
>>> dev-libs/vala-common-0.48.5 merged.
