>>> Extracting info
 * Package:    dev-perl/Package-Stash-0.370.0
 * Repository: gentoo
 * USE:        kernel_linux userland_GNU elibc_glibc amd64 abi_x86_64
 * FEATURES:   network-sandbox preserve-libs sandbox userpriv usersandbox
 * FEATURES='ebuild-locks usersync nodoc strict-keepdir cgroup compress-index usersandbox unmerge-orphans fixlafiles parallel-fetch unmerge-logs binpkg-dostrip xattr sandbox assume-digests buildpkg merge-sync network-sandbox qa-unresolved-soname-deps ipc-sandbox distlocks userfetch binpkg-docompress userpriv binpkg-logs unknown-features-warn news pid-sandbox sfperms multilib-strict preserve-libs strict config-protect-if-modified'
 * CFLAGS='-march=znver2 -O2 -pipe -fno-stack-protector -fno-stack-clash-protection -fstack-check=no -fno-stack-check -Wl,-O1 -Wl,--as-needed'
 * CXXFLAGS='-march=znver2 -O2 -pipe -fno-stack-protector -fno-stack-clash-protection -fstack-check=no -fno-stack-check -Wl,-O1 -Wl,--as-needed'
 * FFLAGS='-march=znver2 -O2 -pipe -fno-stack-protector -fno-stack-clash-protection -fstack-check=no -fno-stack-check -Wl,-O1 -Wl,--as-needed'
 * FCFLAGS='-march=znver2 -O2 -pipe -fno-stack-protector -fno-stack-clash-protection -fstack-check=no -fno-stack-check -Wl,-O1 -Wl,--as-needed'
 * F77FLAGS='-march=znver2 -O2 -pipe -fno-stack-protector -fno-stack-clash-protection -fstack-check=no -fno-stack-check -Wl,-O1 -Wl,--as-needed'
 * LDFLAGS='-Wl,-O1 -Wl,--as-needed'
 * MAKEOPTS='-j12 -l12'
 * gcc (Gentoo 10.1.0-r1 p2) 10.1.0
 * g++ (Gentoo 10.1.0-r1 p2) 10.1.0
 * GNU gold (Gentoo 2.34 p4 2.34.0) 1.16
 * Linux rescue 5.4.36 #1 SMP Thu Apr 30 04:38:28 UTC 2020 x86_64 AMD Ryzen 5 3600 6-Core Processor AuthenticAMD GNU/Linux
dev-perl/Package-Stash: 8 seconds average for 18 merges
2020-05-21T12:54:42 >>> dev-perl/Package-Stash: 9 seconds
2020-05-23T15:11:40 >>> dev-perl/Package-Stash: 10 seconds
2020-05-24T05:18:55 >>> dev-perl/Package-Stash: 5 seconds
2020-05-24T16:39:22 >>> dev-perl/Package-Stash: 5 seconds
2020-05-25T00:37:28 >>> dev-perl/Package-Stash: 10 seconds
2020-05-25T23:17:52 >>> dev-perl/Package-Stash: 10 seconds
2020-05-26T14:25:10 >>> dev-perl/Package-Stash: 7 seconds
2020-05-27T02:02:04 >>> dev-perl/Package-Stash: 6 seconds
2020-05-27T04:29:58 >>> dev-perl/Package-Stash: 11 seconds
2020-05-28T03:37:04 >>> dev-perl/Package-Stash: 7 seconds
2020-05-29T01:59:07 >>> dev-perl/Package-Stash: 7 seconds
2020-05-29T12:45:03 >>> dev-perl/Package-Stash: 11 seconds
2020-05-30T14:38:23 >>> dev-perl/Package-Stash: 11 seconds
2020-06-01T04:18:00 >>> dev-perl/Package-Stash: 11 seconds
2020-06-03T13:25:54 >>> dev-perl/Package-Stash: 11 seconds
2020-06-06T11:15:10 >>> dev-perl/Package-Stash: 12 seconds
2020-06-12T01:55:03 >>> dev-perl/Package-Stash: 5 seconds
2020-06-13T20:33:04 >>> dev-perl/Package-Stash: 5 seconds
]0;emerge 14:10:54 342|565 Package-Stash 00:07 (root@rescue)>>> Extracting dev-perl/Package-Stash-0.370.0
 * checking 7 files for package collisions
>>> Merging dev-perl/Package-Stash-0.370.0 to /
 * removing unneeded *.la files
--- /usr/
--- /usr/lib64/
--- /usr/lib64/perl5/
--- /usr/lib64/perl5/vendor_perl/
--- /usr/lib64/perl5/vendor_perl/5.30.3/
--- /usr/lib64/perl5/vendor_perl/5.30.3/Package/
>>> /usr/lib64/perl5/vendor_perl/5.30.3/Package/Stash.pm
--- /usr/lib64/perl5/vendor_perl/5.30.3/Package/Stash/
>>> /usr/lib64/perl5/vendor_perl/5.30.3/Package/Stash/PP.pm
>>> /usr/lib64/perl5/vendor_perl/5.30.3/Package/Stash/Conflicts.pm
--- /usr/lib64/perl5/vendor_perl/5.30.3/x86_64-linux-thread-multi/
--- /usr/lib64/perl5/vendor_perl/5.30.3/x86_64-linux-thread-multi/auto/
--- /usr/lib64/perl5/vendor_perl/5.30.3/x86_64-linux-thread-multi/auto/Package/
--- /usr/lib64/perl5/vendor_perl/5.30.3/x86_64-linux-thread-multi/auto/Package/Stash/
>>> /usr/lib64/perl5/vendor_perl/5.30.3/x86_64-linux-thread-multi/auto/Package/Stash/.packlist
--- /usr/share/
--- /usr/share/man/
--- /usr/share/man/man1/
>>> /usr/share/man/man1/package-stash-conflicts.1.bz2
>>> /usr/share/man/man1/package-stash-conflicts.1
--- /usr/bin/
>>> /usr/bin/package-stash-conflicts
>>> Safely unmerging already-installed instance...
!!! File Not Found: '/etc/env.d/99lcdfilter'
>>> Original instance of package unmerged safely.
>>> dev-perl/Package-Stash-0.370.0 merged.
!!! File Not Found: '/etc/env.d/99lcdfilter'
