>>> Extracting info
 * Package:    dev-libs/libgusb-0.3.4
 * Repository: gentoo
 * USE:        abi_x86_64 userland_GNU kernel_linux amd64 vala introspection elibc_glibc
 * FEATURES:   network-sandbox preserve-libs sandbox userpriv usersandbox
 * FEATURES='nodoc news qa-unresolved-soname-deps strict-keepdir unmerge-backup binpkg-dostrip unmerge-logs cgroup binpkg-logs downgrade-backup buildpkg binpkg-multi-instance binpkg-docompress userpriv compress-index sfperms ipc-sandbox parallel-fetch merge-sync strict network-sandbox multilib-strict xattr preserve-libs unknown-features-warn usersync parallel-install unmerge-orphans sandbox config-protect-if-modified distlocks usersandbox fixlafiles pid-sandbox userfetch assume-digests'
 * CFLAGS='-march=native -O3 -fgraphite-identity -floop-nest-optimize -fdevirtualize-at-ltrans -fipa-pta -fno-semantic-interposition -flto=12 -fno-plt -fno-math-errno -fno-trapping-math -fuse-linker-plugin -pipe -g0 -falign-functions=32 -Wl,-O1 -Wl,--as-needed -Wl,--hash-style=gnu,-z,norelro,--as-needed'
 * CXXFLAGS='-march=native -O3 -fgraphite-identity -floop-nest-optimize -fdevirtualize-at-ltrans -fipa-pta -fno-semantic-interposition -flto=12 -fno-plt -fno-math-errno -fno-trapping-math -fuse-linker-plugin -pipe -g0 -falign-functions=32 -Wl,-O1 -Wl,--as-needed -Wl,--hash-style=gnu,-z,norelro,--as-needed'
 * FFLAGS='-march=native -O3 -fgraphite-identity -floop-nest-optimize -fdevirtualize-at-ltrans -fipa-pta -fno-semantic-interposition -flto=12 -fno-plt -fno-math-errno -fno-trapping-math -fuse-linker-plugin -pipe -g0 -falign-functions=32 -Wl,-O1 -Wl,--as-needed -Wl,--hash-style=gnu,-z,norelro,--as-needed'
 * FCFLAGS='-march=native -O3 -fgraphite-identity -floop-nest-optimize -fdevirtualize-at-ltrans -fipa-pta -fno-semantic-interposition -flto=12 -fno-plt -fno-math-errno -fno-trapping-math -fuse-linker-plugin -pipe -g0 -falign-functions=32 -Wl,-O1 -Wl,--as-needed -Wl,--hash-style=gnu,-z,norelro,--as-needed'
 * F77FLAGS='-march=native -O3 -fgraphite-identity -floop-nest-optimize -fdevirtualize-at-ltrans -fipa-pta -fno-semantic-interposition -flto=12 -fno-plt -fno-math-errno -fno-trapping-math -fuse-linker-plugin -pipe -g0 -falign-functions=32 -Wl,-O1 -Wl,--as-needed -Wl,--hash-style=gnu,-z,norelro,--as-needed'
 * LDFLAGS='-Wl,-O1 -Wl,--as-needed -Wl,--hash-style=gnu,-z,norelro,--as-needed -march=native -O3 -fgraphite-identity -floop-nest-optimize -fdevirtualize-at-ltrans -fipa-pta -fno-semantic-interposition -flto=12 -fno-plt -fno-math-errno -fno-trapping-math -fuse-linker-plugin -pipe -g0 -falign-functions=32'
 * MAKEOPTS='-j12 -l12'
 * gcc () 11.0.0 20200526 (experimental)
 * g++ () 11.0.0 20200526 (experimental)
 * GNU ld (Gentoo 2.34 p4) 2.34.0
 * Linux ryzen.gnum.org 5.4.36 #1 SMP Thu Apr 30 04:38:28 UTC 2020 x86_64 AMD Ryzen 5 3600 6-Core Processor AuthenticAMD GNU/Linux
dev-libs/libgusb: 17 seconds average for 3 merges
2020-05-20T02:20:14 >>> dev-libs/libgusb: 3 seconds
2020-05-21T06:25:26 >>> dev-libs/libgusb: 5 seconds
2020-05-26T00:53:21 >>> dev-libs/libgusb: 44 seconds
]0;emerge 14:36:43 571|980 libgusb 00:17 (root@ryzen.gnum.org)kemerge 14:36:43 571|980 libgusb 00:17 (root@ryzen.gnum.org)\>>> Extracting dev-libs/libgusb-0.3.4
 * checking 23 files for package collisions
>>> Merging dev-libs/libgusb-0.3.4 to /
 * removing unneeded *.la files
--- /usr/
--- /usr/lib64/
>>> /usr/lib64/libgusb.so.2 -> libgusb.so.2.0.10
--- /usr/lib64/pkgconfig/
>>> /usr/lib64/pkgconfig/gusb.pc
>>> /usr/lib64/libgusb.so -> libgusb.so.2
--- /usr/lib64/girepository-1.0/
>>> /usr/lib64/girepository-1.0/GUsb-1.0.typelib
>>> /usr/lib64/libgusb.so.2.0.10
--- /usr/share/
--- /usr/share/gir-1.0/
>>> /usr/share/gir-1.0/GUsb-1.0.gir
--- /usr/share/vala/
--- /usr/share/vala/vapi/
>>> /usr/share/vala/vapi/gusb.deps
>>> /usr/share/vala/vapi/gusb.vapi
--- /usr/include/
--- /usr/include/gusb-1/
--- /usr/include/gusb-1/gusb/
>>> /usr/include/gusb-1/gusb/gusb-device-private.h
>>> /usr/include/gusb-1/gusb/gusb-source.h
>>> /usr/include/gusb-1/gusb/gusb-interface-private.h
>>> /usr/include/gusb-1/gusb/gusb-version.h
>>> /usr/include/gusb-1/gusb/gusb-context-private.h
>>> /usr/include/gusb-1/gusb/gusb-util.h
>>> /usr/include/gusb-1/gusb/gusb-device.h
>>> /usr/include/gusb-1/gusb/gusb-context.h
>>> /usr/include/gusb-1/gusb/gusb-device-list.h
>>> /usr/include/gusb-1/gusb/gusb-endpoint.h
>>> /usr/include/gusb-1/gusb/gusb-autocleanups.h
>>> /usr/include/gusb-1/gusb/gusb-interface.h
>>> /usr/include/gusb-1/gusb/gusb-endpoint-private.h
>>> /usr/include/gusb-1/gusb.h
--- /usr/bin/
>>> /usr/bin/gusbcmd
>>> Safely unmerging already-installed instance...
>>> Original instance of package unmerged safely.
>>> dev-libs/libgusb-0.3.4 merged.
>>> Regenerating /etc/ld.so.cache...
