[32;01m * [39;49;00mPackage:    dev-lang/python-3.9.0_beta1
[32;01m * [39;49;00mRepository: gentoo
[32;01m * [39;49;00mMaintainer: python@gentoo.org
[32;01m * [39;49;00mUSE:        abi_x86_64 amd64 elibc_glibc gdbm kernel_linux ncurses readline sqlite ssl userland_GNU xml
[32;01m * [39;49;00mFEATURES:   network-sandbox preserve-libs sandbox userpriv usersandbox
