 * Package:    dev-perl/Digest-HMAC-1.30.0-r1
 * Repository: gentoo
 * Maintainer: perl@gentoo.org
 * USE:        abi_x86_64 amd64 elibc_glibc kernel_linux userland_GNU
 * FEATURES:   ccache network-sandbox preserve-libs sandbox userpriv usersandbox
 * /etc/portage/package.cflags/ltoworkarounds.conf -> */*: *FLAGS+=-Wl,-O4 *FLAGS-=-Wl,-O1
 * FEATURES='assume-digests binpkg-docompress binpkg-dostrip binpkg-logs binpkg-multi-instance buildpkg ccache cgroup compress-index config-protect-if-modified distlocks fixlafiles ipc-sandbox merge-sync multilib-strict network-sandbox news nodoc parallel-fetch parallel-install pid-sandbox preserve-libs qa-unresolved-soname-deps sandbox sfperms strict strict-keepdir unknown-features-warn unmerge-logs unmerge-orphans userfetch userpriv usersandbox usersync xattr'
 * CFLAGS='-march=znver2 -pipe -g0 -O3 -fgraphite-identity -floop-nest-optimize -fdevirtualize-at-ltrans -fipa-pta -fno-semantic-interposition -flto=12 -fno-plt -fno-signed-zeros -fno-trapping-math -fassociative-math -freciprocal-math -fno-math-errno -ffinite-math-only -fno-rounding-math -fno-signaling-nans -fcx-limited-range -fexcess-precision=fast -falign-functions=32 -fno-stack-protector -fno-stack-clash-protection -fstack-check=no -fno-stack-check -fuse-linker-plugin -Wl,-O4 -Wl,--as-needed -Wl,-lpthread -Wl,-lgomp -Wl,-z,norelro -Wl,-z,now -Wl,--sort-common -s'
 * CXXFLAGS='-march=znver2 -pipe -g0 -O3 -fgraphite-identity -floop-nest-optimize -fdevirtualize-at-ltrans -fipa-pta -fno-semantic-interposition -flto=12 -fno-plt -fno-signed-zeros -fno-trapping-math -fassociative-math -freciprocal-math -fno-math-errno -ffinite-math-only -fno-rounding-math -fno-signaling-nans -fcx-limited-range -fexcess-precision=fast -falign-functions=32 -fno-stack-protector -fno-stack-clash-protection -fstack-check=no -fno-stack-check -fuse-linker-plugin -Wl,-O4 -Wl,--as-needed -Wl,-lpthread -Wl,-lgomp -Wl,-z,norelro -Wl,-z,now -Wl,--sort-common -s'
 * FFLAGS='-march=znver2 -pipe -g0 -O3 -fgraphite-identity -floop-nest-optimize -fdevirtualize-at-ltrans -fipa-pta -fno-semantic-interposition -flto=12 -fno-plt -fno-signed-zeros -fno-trapping-math -fassociative-math -freciprocal-math -fno-math-errno -ffinite-math-only -fno-rounding-math -fno-signaling-nans -fcx-limited-range -fexcess-precision=fast -falign-functions=32 -fno-stack-protector -fno-stack-clash-protection -fstack-check=no -fno-stack-check -fuse-linker-plugin -Wl,-O4 -Wl,--as-needed -Wl,-lpthread -Wl,-lgomp -Wl,-z,norelro -Wl,-z,now -Wl,--sort-common -s'
 * FCFLAGS='-march=znver2 -pipe -g0 -O3 -fgraphite-identity -floop-nest-optimize -fdevirtualize-at-ltrans -fipa-pta -fno-semantic-interposition -flto=12 -fno-plt -fno-signed-zeros -fno-trapping-math -fassociative-math -freciprocal-math -fno-math-errno -ffinite-math-only -fno-rounding-math -fno-signaling-nans -fcx-limited-range -fexcess-precision=fast -falign-functions=32 -fno-stack-protector -fno-stack-clash-protection -fstack-check=no -fno-stack-check -fuse-linker-plugin -Wl,-O4 -Wl,--as-needed -Wl,-lpthread -Wl,-lgomp -Wl,-z,norelro -Wl,-z,now -Wl,--sort-common -s'
 * F77FLAGS='-march=znver2 -pipe -g0 -O3 -fgraphite-identity -floop-nest-optimize -fdevirtualize-at-ltrans -fipa-pta -fno-semantic-interposition -flto=12 -fno-plt -fno-signed-zeros -fno-trapping-math -fassociative-math -freciprocal-math -fno-math-errno -ffinite-math-only -fno-rounding-math -fno-signaling-nans -fcx-limited-range -fexcess-precision=fast -falign-functions=32 -fno-stack-protector -fno-stack-clash-protection -fstack-check=no -fno-stack-check -fuse-linker-plugin -Wl,-O4 -Wl,--as-needed -Wl,-lpthread -Wl,-lgomp -Wl,-z,norelro -Wl,-z,now -Wl,--sort-common -s'
 * LDFLAGS='-march=znver2 -pipe -g0 -O3 -fgraphite-identity -floop-nest-optimize -fdevirtualize-at-ltrans -fipa-pta -fno-semantic-interposition -flto=12 -fno-plt -fno-signed-zeros -fno-trapping-math -fassociative-math -freciprocal-math -fno-math-errno -ffinite-math-only -fno-rounding-math -fno-signaling-nans -fcx-limited-range -fexcess-precision=fast -falign-functions=32 -fno-stack-protector -fno-stack-clash-protection -fstack-check=no -fno-stack-check -fuse-linker-plugin -Wl,-O4 -Wl,--as-needed -Wl,-lpthread -Wl,-lgomp -Wl,-z,norelro -Wl,-z,now -Wl,--sort-common -s'
 * MAKEOPTS='-j12 -l12'
 * gcc () 11.0.0 20200601 (experimental)
 * g++ () 11.0.0 20200601 (experimental)
 * GNU ld (Gentoo 2.34 p4) 2.34.0
 * Linux ryzen.gnum.org 5.4.36 #1 SMP Thu Apr 30 04:38:28 UTC 2020 x86_64 AMD Ryzen 5 3600 6-Core Processor AuthenticAMD GNU/Linux
dev-perl/Digest-HMAC: 8 seconds average for 12 merges
2020-05-19T23:49:58 >>> dev-perl/Digest-HMAC: 3 seconds
2020-05-20T01:22:14 >>> dev-perl/Digest-HMAC: 4 seconds
2020-05-21T06:43:49 >>> dev-perl/Digest-HMAC: 6 seconds
2020-05-23T14:08:43 >>> dev-perl/Digest-HMAC: 10 seconds
2020-05-25T00:24:48 >>> dev-perl/Digest-HMAC: 10 seconds
2020-05-25T22:48:36 >>> dev-perl/Digest-HMAC: 10 seconds
2020-05-26T14:19:18 >>> dev-perl/Digest-HMAC: 7 seconds
2020-05-27T01:56:04 >>> dev-perl/Digest-HMAC: 6 seconds
2020-05-27T04:04:52 >>> dev-perl/Digest-HMAC: 11 seconds
2020-05-29T02:20:45 >>> dev-perl/Digest-HMAC: 8 seconds
2020-05-30T15:07:47 >>> dev-perl/Digest-HMAC: 11 seconds
2020-06-01T04:45:44 >>> dev-perl/Digest-HMAC: 12 seconds
]0;emerge 13:08:15 20|142 Digest-HMAC 00:10 (root@ryzen.gnum.org)kemerge 13:08:15 20|142 Digest-HMAC 00:10 (root@ryzen.gnum.org)\>>> Unpacking source...
>>> Unpacking Digest-HMAC-1.03.tar.gz to /tmp/portage/dev-perl/Digest-HMAC-1.30.0-r1/work
>>> Source unpacked in /tmp/portage/dev-perl/Digest-HMAC-1.30.0-r1/work
>>> Preparing source in /tmp/portage/dev-perl/Digest-HMAC-1.30.0-r1/work/Digest-HMAC-1.03 ...
>>> Source prepared.
>>> Configuring source in /tmp/portage/dev-perl/Digest-HMAC-1.30.0-r1/work/Digest-HMAC-1.03 ...
 * Using ExtUtils::MakeMaker
 * perl Makefile.PL PREFIX=/usr INSTALLDIRS=vendor INSTALLMAN3DIR=none DESTDIR=/tmp/portage/dev-perl/Digest-HMAC-1.30.0-r1/image/
Checking if your kit is complete...
Looks good
Generating a Unix-style Makefile
Writing Makefile for Digest::HMAC
Writing MYMETA.yml and MYMETA.json
>>> Source configured.
>>> Compiling source in /tmp/portage/dev-perl/Digest-HMAC-1.30.0-r1/work/Digest-HMAC-1.03 ...
 * emake OTHERLDFLAGS=-march=znver2 -pipe -g0 -O3 -fgraphite-identity -floop-nest-optimize -fdevirtualize-at-ltrans -fipa-pta -fno-semantic-interposition -flto=12 -fno-plt -fno-signed-zeros -fno-trapping-math -fassociative-math -freciprocal-math -fno-math-errno -ffinite-math-only -fno-rounding-math -fno-signaling-nans -fcx-limited-range -fexcess-precision=fast -falign-functions=32 -fno-stack-protector -fno-stack-clash-protection -fstack-check=no -fno-stack-check -fuse-linker-plugin -Wl,-O4 -Wl,--as-needed -Wl,-lpthread -Wl,-lgomp -Wl,-z,norelro -Wl,-z,now -Wl,--sort-common -s
make -j12 -l12 'OTHERLDFLAGS=-march=znver2 -pipe -g0 -O3 -fgraphite-identity -floop-nest-optimize -fdevirtualize-at-ltrans -fipa-pta -fno-semantic-interposition -flto=12 -fno-plt -fno-signed-zeros -fno-trapping-math -fassociative-math -freciprocal-math -fno-math-errno -ffinite-math-only -fno-rounding-math -fno-signaling-nans -fcx-limited-range -fexcess-precision=fast -falign-functions=32 -fno-stack-protector -fno-stack-clash-protection -fstack-check=no -fno-stack-check -fuse-linker-plugin -Wl,-O4 -Wl,--as-needed -Wl,-lpthread -Wl,-lgomp -Wl,-z,norelro -Wl,-z,now -Wl,--sort-common -s' 
>>> Source compiled.
>>> Test phase [not enabled]: dev-perl/Digest-HMAC-1.30.0-r1

>>> Install dev-perl/Digest-HMAC-1.30.0-r1 into /tmp/portage/dev-perl/Digest-HMAC-1.30.0-r1/image/
make -j12 -l12 pure_install 
Installing /tmp/portage/dev-perl/Digest-HMAC-1.30.0-r1/image/usr/lib64/perl5/vendor_perl/5.30.3/Digest/HMAC_SHA1.pm
Installing /tmp/portage/dev-perl/Digest-HMAC-1.30.0-r1/image/usr/lib64/perl5/vendor_perl/5.30.3/Digest/HMAC.pm
Installing /tmp/portage/dev-perl/Digest-HMAC-1.30.0-r1/image/usr/lib64/perl5/vendor_perl/5.30.3/Digest/HMAC_MD5.pm
>>> Completed installing dev-perl/Digest-HMAC-1.30.0-r1 into /tmp/portage/dev-perl/Digest-HMAC-1.30.0-r1/image/

 * Final size of build directory: 176 KiB
 * Final size of installed tree:   60 KiB

./
./usr/
./usr/share/
./usr/share/doc/
./usr/share/doc/Digest-HMAC-1.30.0-r1/
./usr/share/doc/Digest-HMAC-1.30.0-r1/README.bz2
./usr/share/doc/Digest-HMAC-1.30.0-r1/Changes.bz2
./usr/lib64/
./usr/lib64/perl5/
./usr/lib64/perl5/vendor_perl/
./usr/lib64/perl5/vendor_perl/5.30.3/
./usr/lib64/perl5/vendor_perl/5.30.3/Digest/
./usr/lib64/perl5/vendor_perl/5.30.3/Digest/HMAC_SHA1.pm
./usr/lib64/perl5/vendor_perl/5.30.3/Digest/HMAC.pm
./usr/lib64/perl5/vendor_perl/5.30.3/Digest/HMAC_MD5.pm
>>> Done.
 * checking 3 files for package collisions
>>> Merging dev-perl/Digest-HMAC-1.30.0-r1 to /
 * removing unneeded *.la files
--- /usr/
--- /usr/lib64/
--- /usr/lib64/perl5/
--- /usr/lib64/perl5/vendor_perl/
--- /usr/lib64/perl5/vendor_perl/5.30.3/
>>> /usr/lib64/perl5/vendor_perl/5.30.3/Digest/
>>> /usr/lib64/perl5/vendor_perl/5.30.3/Digest/HMAC_MD5.pm
>>> /usr/lib64/perl5/vendor_perl/5.30.3/Digest/HMAC.pm
>>> /usr/lib64/perl5/vendor_perl/5.30.3/Digest/HMAC_SHA1.pm
>>> Safely unmerging already-installed instance...
>>> Original instance of package unmerged safely.
>>> dev-perl/Digest-HMAC-1.30.0-r1 merged.
