No package files given... Grabbing a set.
--- replaced obj /usr/lib64/ruby/gems/2.7.0/specifications/rdoc-6.2.0.gemspec
--- replaced dir /usr/lib64/ruby/gems/2.7.0/specifications
--- replaced obj /usr/lib64/ruby/gems/2.7.0/gems/rdoc-6.2.0/lib/rdoc/version.rb
--- replaced obj /usr/lib64/ruby/gems/2.7.0/gems/rdoc-6.2.0/lib/rdoc/top_level.rb
--- replaced obj /usr/lib64/ruby/gems/2.7.0/gems/rdoc-6.2.0/lib/rdoc/tom_doc.rb
--- replaced obj /usr/lib64/ruby/gems/2.7.0/gems/rdoc-6.2.0/lib/rdoc/token_stream.rb
--- replaced obj /usr/lib64/ruby/gems/2.7.0/gems/rdoc-6.2.0/lib/rdoc/text.rb
--- replaced obj /usr/lib64/ruby/gems/2.7.0/gems/rdoc-6.2.0/lib/rdoc/task.rb
--- replaced obj /usr/lib64/ruby/gems/2.7.0/gems/rdoc-6.2.0/lib/rdoc/store.rb
--- replaced obj /usr/lib64/ruby/gems/2.7.0/gems/rdoc-6.2.0/lib/rdoc/stats/verbose.rb
--- replaced obj /usr/lib64/ruby/gems/2.7.0/gems/rdoc-6.2.0/lib/rdoc/stats/quiet.rb
--- replaced obj /usr/lib64/ruby/gems/2.7.0/gems/rdoc-6.2.0/lib/rdoc/stats/normal.rb
--- replaced obj /usr/lib64/ruby/gems/2.7.0/gems/rdoc-6.2.0/lib/rdoc/stats.rb
--- replaced dir /usr/lib64/ruby/gems/2.7.0/gems/rdoc-6.2.0/lib/rdoc/stats
--- replaced obj /usr/lib64/ruby/gems/2.7.0/gems/rdoc-6.2.0/lib/rdoc/single_class.rb
--- replaced obj /usr/lib64/ruby/gems/2.7.0/gems/rdoc-6.2.0/lib/rdoc/servlet.rb
--- replaced obj /usr/lib64/ruby/gems/2.7.0/gems/rdoc-6.2.0/lib/rdoc/rubygems_hook.rb
--- replaced obj /usr/lib64/ruby/gems/2.7.0/gems/rdoc-6.2.0/lib/rdoc/ri/task.rb
--- replaced obj /usr/lib64/ruby/gems/2.7.0/gems/rdoc-6.2.0/lib/rdoc/ri/store.rb
--- replaced obj /usr/lib64/ruby/gems/2.7.0/gems/rdoc-6.2.0/lib/rdoc/ri/paths.rb
--- replaced obj /usr/lib64/ruby/gems/2.7.0/gems/rdoc-6.2.0/lib/rdoc/ri/formatter.rb
--- replaced obj /usr/lib64/ruby/gems/2.7.0/gems/rdoc-6.2.0/lib/rdoc/ri/driver.rb
--- replaced obj /usr/lib64/ruby/gems/2.7.0/gems/rdoc-6.2.0/lib/rdoc/ri.rb
--- replaced dir /usr/lib64/ruby/gems/2.7.0/gems/rdoc-6.2.0/lib/rdoc/ri
--- replaced obj /usr/lib64/ruby/gems/2.7.0/gems/rdoc-6.2.0/lib/rdoc/require.rb
--- replaced obj /usr/lib64/ruby/gems/2.7.0/gems/rdoc-6.2.0/lib/rdoc/rdoc.rb
--- replaced obj /usr/lib64/ruby/gems/2.7.0/gems/rdoc-6.2.0/lib/rdoc/rd/inline_parser.ry
--- replaced obj /usr/lib64/ruby/gems/2.7.0/gems/rdoc-6.2.0/lib/rdoc/rd/inline_parser.rb
--- replaced obj /usr/lib64/ruby/gems/2.7.0/gems/rdoc-6.2.0/lib/rdoc/rd/inline.rb
--- replaced obj /usr/lib64/ruby/gems/2.7.0/gems/rdoc-6.2.0/lib/rdoc/rd/block_parser.ry
--- replaced obj /usr/lib64/ruby/gems/2.7.0/gems/rdoc-6.2.0/lib/rdoc/rd/block_parser.rb
--- replaced obj /usr/lib64/ruby/gems/2.7.0/gems/rdoc-6.2.0/lib/rdoc/rd.rb
--- replaced dir /usr/lib64/ruby/gems/2.7.0/gems/rdoc-6.2.0/lib/rdoc/rd
--- replaced obj /usr/lib64/ruby/gems/2.7.0/gems/rdoc-6.2.0/lib/rdoc/parser/text.rb
--- replaced obj /usr/lib64/ruby/gems/2.7.0/gems/rdoc-6.2.0/lib/rdoc/parser/simple.rb
--- replaced obj /usr/lib64/ruby/gems/2.7.0/gems/rdoc-6.2.0/lib/rdoc/parser/ruby_tools.rb
--- replaced obj /usr/lib64/ruby/gems/2.7.0/gems/rdoc-6.2.0/lib/rdoc/parser/ruby.rb
--- replaced obj /usr/lib64/ruby/gems/2.7.0/gems/rdoc-6.2.0/lib/rdoc/parser/ripper_state_lex.rb
--- replaced obj /usr/lib64/ruby/gems/2.7.0/gems/rdoc-6.2.0/lib/rdoc/parser/rd.rb
--- replaced obj /usr/lib64/ruby/gems/2.7.0/gems/rdoc-6.2.0/lib/rdoc/parser/markdown.rb
--- replaced obj /usr/lib64/ruby/gems/2.7.0/gems/rdoc-6.2.0/lib/rdoc/parser/changelog.rb
--- replaced obj /usr/lib64/ruby/gems/2.7.0/gems/rdoc-6.2.0/lib/rdoc/parser/c.rb
--- replaced obj /usr/lib64/ruby/gems/2.7.0/gems/rdoc-6.2.0/lib/rdoc/parser.rb
--- replaced dir /usr/lib64/ruby/gems/2.7.0/gems/rdoc-6.2.0/lib/rdoc/parser
--- replaced obj /usr/lib64/ruby/gems/2.7.0/gems/rdoc-6.2.0/lib/rdoc/options.rb
--- replaced obj /usr/lib64/ruby/gems/2.7.0/gems/rdoc-6.2.0/lib/rdoc/normal_module.rb
--- replaced obj /usr/lib64/ruby/gems/2.7.0/gems/rdoc-6.2.0/lib/rdoc/normal_class.rb
--- replaced obj /usr/lib64/ruby/gems/2.7.0/gems/rdoc-6.2.0/lib/rdoc/mixin.rb
--- replaced obj /usr/lib64/ruby/gems/2.7.0/gems/rdoc-6.2.0/lib/rdoc/method_attr.rb
--- replaced obj /usr/lib64/ruby/gems/2.7.0/gems/rdoc-6.2.0/lib/rdoc/meta_method.rb
--- replaced obj /usr/lib64/ruby/gems/2.7.0/gems/rdoc-6.2.0/lib/rdoc/markup/verbatim.rb
--- replaced obj /usr/lib64/ruby/gems/2.7.0/gems/rdoc-6.2.0/lib/rdoc/markup/to_tt_only.rb
--- replaced obj /usr/lib64/ruby/gems/2.7.0/gems/rdoc-6.2.0/lib/rdoc/markup/to_test.rb
--- replaced obj /usr/lib64/ruby/gems/2.7.0/gems/rdoc-6.2.0/lib/rdoc/markup/to_table_of_contents.rb
--- replaced obj /usr/lib64/ruby/gems/2.7.0/gems/rdoc-6.2.0/lib/rdoc/markup/to_rdoc.rb
--- replaced obj /usr/lib64/ruby/gems/2.7.0/gems/rdoc-6.2.0/lib/rdoc/markup/to_markdown.rb
--- replaced obj /usr/lib64/ruby/gems/2.7.0/gems/rdoc-6.2.0/lib/rdoc/markup/to_label.rb
--- replaced obj /usr/lib64/ruby/gems/2.7.0/gems/rdoc-6.2.0/lib/rdoc/markup/to_joined_paragraph.rb
--- replaced obj /usr/lib64/ruby/gems/2.7.0/gems/rdoc-6.2.0/lib/rdoc/markup/to_html_snippet.rb
--- replaced obj /usr/lib64/ruby/gems/2.7.0/gems/rdoc-6.2.0/lib/rdoc/markup/to_html_crossref.rb
--- replaced obj /usr/lib64/ruby/gems/2.7.0/gems/rdoc-6.2.0/lib/rdoc/markup/to_html.rb
--- replaced obj /usr/lib64/ruby/gems/2.7.0/gems/rdoc-6.2.0/lib/rdoc/markup/to_bs.rb
--- replaced obj /usr/lib64/ruby/gems/2.7.0/gems/rdoc-6.2.0/lib/rdoc/markup/to_ansi.rb
--- replaced obj /usr/lib64/ruby/gems/2.7.0/gems/rdoc-6.2.0/lib/rdoc/markup/rule.rb
--- replaced obj /usr/lib64/ruby/gems/2.7.0/gems/rdoc-6.2.0/lib/rdoc/markup/regexp_handling.rb
--- replaced obj /usr/lib64/ruby/gems/2.7.0/gems/rdoc-6.2.0/lib/rdoc/markup/raw.rb
--- replaced obj /usr/lib64/ruby/gems/2.7.0/gems/rdoc-6.2.0/lib/rdoc/markup/pre_process.rb
--- replaced obj /usr/lib64/ruby/gems/2.7.0/gems/rdoc-6.2.0/lib/rdoc/markup/parser.rb
--- replaced obj /usr/lib64/ruby/gems/2.7.0/gems/rdoc-6.2.0/lib/rdoc/markup/paragraph.rb
--- replaced obj /usr/lib64/ruby/gems/2.7.0/gems/rdoc-6.2.0/lib/rdoc/markup/list_item.rb
--- replaced obj /usr/lib64/ruby/gems/2.7.0/gems/rdoc-6.2.0/lib/rdoc/markup/list.rb
--- replaced obj /usr/lib64/ruby/gems/2.7.0/gems/rdoc-6.2.0/lib/rdoc/markup/indented_paragraph.rb
--- replaced obj /usr/lib64/ruby/gems/2.7.0/gems/rdoc-6.2.0/lib/rdoc/markup/include.rb
--- replaced obj /usr/lib64/ruby/gems/2.7.0/gems/rdoc-6.2.0/lib/rdoc/markup/heading.rb
--- replaced obj /usr/lib64/ruby/gems/2.7.0/gems/rdoc-6.2.0/lib/rdoc/markup/hard_break.rb
--- replaced obj /usr/lib64/ruby/gems/2.7.0/gems/rdoc-6.2.0/lib/rdoc/markup/formatter.rb
--- replaced obj /usr/lib64/ruby/gems/2.7.0/gems/rdoc-6.2.0/lib/rdoc/markup/document.rb
--- replaced obj /usr/lib64/ruby/gems/2.7.0/gems/rdoc-6.2.0/lib/rdoc/markup/block_quote.rb
--- replaced obj /usr/lib64/ruby/gems/2.7.0/gems/rdoc-6.2.0/lib/rdoc/markup/blank_line.rb
--- replaced obj /usr/lib64/ruby/gems/2.7.0/gems/rdoc-6.2.0/lib/rdoc/markup/attributes.rb
--- replaced obj /usr/lib64/ruby/gems/2.7.0/gems/rdoc-6.2.0/lib/rdoc/markup/attribute_manager.rb
--- replaced obj /usr/lib64/ruby/gems/2.7.0/gems/rdoc-6.2.0/lib/rdoc/markup/attr_span.rb
--- replaced obj /usr/lib64/ruby/gems/2.7.0/gems/rdoc-6.2.0/lib/rdoc/markup/attr_changer.rb
--- replaced obj /usr/lib64/ruby/gems/2.7.0/gems/rdoc-6.2.0/lib/rdoc/markup.rb
--- replaced dir /usr/lib64/ruby/gems/2.7.0/gems/rdoc-6.2.0/lib/rdoc/markup
--- replaced obj /usr/lib64/ruby/gems/2.7.0/gems/rdoc-6.2.0/lib/rdoc/markdown/literals.rb
--- replaced obj /usr/lib64/ruby/gems/2.7.0/gems/rdoc-6.2.0/lib/rdoc/markdown/literals.kpeg
--- replaced obj /usr/lib64/ruby/gems/2.7.0/gems/rdoc-6.2.0/lib/rdoc/markdown/entities.rb
--- replaced obj /usr/lib64/ruby/gems/2.7.0/gems/rdoc-6.2.0/lib/rdoc/markdown.rb
--- replaced obj /usr/lib64/ruby/gems/2.7.0/gems/rdoc-6.2.0/lib/rdoc/markdown.kpeg
--- replaced dir /usr/lib64/ruby/gems/2.7.0/gems/rdoc-6.2.0/lib/rdoc/markdown
--- replaced obj /usr/lib64/ruby/gems/2.7.0/gems/rdoc-6.2.0/lib/rdoc/known_classes.rb
--- replaced obj /usr/lib64/ruby/gems/2.7.0/gems/rdoc-6.2.0/lib/rdoc/include.rb
--- replaced obj /usr/lib64/ruby/gems/2.7.0/gems/rdoc-6.2.0/lib/rdoc/i18n/text.rb
--- replaced obj /usr/lib64/ruby/gems/2.7.0/gems/rdoc-6.2.0/lib/rdoc/i18n/locale.rb
--- replaced obj /usr/lib64/ruby/gems/2.7.0/gems/rdoc-6.2.0/lib/rdoc/i18n.rb
--- replaced dir /usr/lib64/ruby/gems/2.7.0/gems/rdoc-6.2.0/lib/rdoc/i18n
--- replaced obj /usr/lib64/ruby/gems/2.7.0/gems/rdoc-6.2.0/lib/rdoc/ghost_method.rb
--- replaced obj /usr/lib64/ruby/gems/2.7.0/gems/rdoc-6.2.0/lib/rdoc/generator/template/json_index/js/searcher.js
--- replaced obj /usr/lib64/ruby/gems/2.7.0/gems/rdoc-6.2.0/lib/rdoc/generator/template/json_index/js/navigation.js
--- replaced dir /usr/lib64/ruby/gems/2.7.0/gems/rdoc-6.2.0/lib/rdoc/generator/template/json_index/js
--- replaced obj /usr/lib64/ruby/gems/2.7.0/gems/rdoc-6.2.0/lib/rdoc/generator/template/json_index/.document
--- replaced dir /usr/lib64/ruby/gems/2.7.0/gems/rdoc-6.2.0/lib/rdoc/generator/template/json_index
--- replaced obj /usr/lib64/ruby/gems/2.7.0/gems/rdoc-6.2.0/lib/rdoc/generator/template/darkfish/table_of_contents.rhtml
--- replaced obj /usr/lib64/ruby/gems/2.7.0/gems/rdoc-6.2.0/lib/rdoc/generator/template/darkfish/servlet_root.rhtml
--- replaced obj /usr/lib64/ruby/gems/2.7.0/gems/rdoc-6.2.0/lib/rdoc/generator/template/darkfish/servlet_not_found.rhtml
--- replaced obj /usr/lib64/ruby/gems/2.7.0/gems/rdoc-6.2.0/lib/rdoc/generator/template/darkfish/page.rhtml
--- replaced obj /usr/lib64/ruby/gems/2.7.0/gems/rdoc-6.2.0/lib/rdoc/generator/template/darkfish/js/search.js
--- replaced obj /usr/lib64/ruby/gems/2.7.0/gems/rdoc-6.2.0/lib/rdoc/generator/template/darkfish/js/darkfish.js
--- replaced dir /usr/lib64/ruby/gems/2.7.0/gems/rdoc-6.2.0/lib/rdoc/generator/template/darkfish/js
--- replaced obj /usr/lib64/ruby/gems/2.7.0/gems/rdoc-6.2.0/lib/rdoc/generator/template/darkfish/index.rhtml
--- replaced obj /usr/lib64/ruby/gems/2.7.0/gems/rdoc-6.2.0/lib/rdoc/generator/template/darkfish/images/zoom.png
--- replaced obj /usr/lib64/ruby/gems/2.7.0/gems/rdoc-6.2.0/lib/rdoc/generator/template/darkfish/images/wrench_orange.png
--- replaced obj /usr/lib64/ruby/gems/2.7.0/gems/rdoc-6.2.0/lib/rdoc/generator/template/darkfish/images/wrench.png
--- replaced obj /usr/lib64/ruby/gems/2.7.0/gems/rdoc-6.2.0/lib/rdoc/generator/template/darkfish/images/transparent.png
--- replaced obj /usr/lib64/ruby/gems/2.7.0/gems/rdoc-6.2.0/lib/rdoc/generator/template/darkfish/images/tag_green.png
--- replaced obj /usr/lib64/ruby/gems/2.7.0/gems/rdoc-6.2.0/lib/rdoc/generator/template/darkfish/images/tag_blue.png
--- replaced obj /usr/lib64/ruby/gems/2.7.0/gems/rdoc-6.2.0/lib/rdoc/generator/template/darkfish/images/ruby.png
--- replaced obj /usr/lib64/ruby/gems/2.7.0/gems/rdoc-6.2.0/lib/rdoc/generator/template/darkfish/images/plugin.png
--- replaced obj /usr/lib64/ruby/gems/2.7.0/gems/rdoc-6.2.0/lib/rdoc/generator/template/darkfish/images/page_white_width.png
--- replaced obj /usr/lib64/ruby/gems/2.7.0/gems/rdoc-6.2.0/lib/rdoc/generator/template/darkfish/images/page_white_text.png
--- replaced obj /usr/lib64/ruby/gems/2.7.0/gems/rdoc-6.2.0/lib/rdoc/generator/template/darkfish/images/page_green.png
--- replaced obj /usr/lib64/ruby/gems/2.7.0/gems/rdoc-6.2.0/lib/rdoc/generator/template/darkfish/images/package.png
--- replaced obj /usr/lib64/ruby/gems/2.7.0/gems/rdoc-6.2.0/lib/rdoc/generator/template/darkfish/images/macFFBgHack.png
--- replaced obj /usr/lib64/ruby/gems/2.7.0/gems/rdoc-6.2.0/lib/rdoc/generator/template/darkfish/images/loadingAnimation.gif
--- replaced obj /usr/lib64/ruby/gems/2.7.0/gems/rdoc-6.2.0/lib/rdoc/generator/template/darkfish/images/find.png
--- replaced obj /usr/lib64/ruby/gems/2.7.0/gems/rdoc-6.2.0/lib/rdoc/generator/template/darkfish/images/delete.png
--- replaced obj /usr/lib64/ruby/gems/2.7.0/gems/rdoc-6.2.0/lib/rdoc/generator/template/darkfish/images/date.png
--- replaced obj /usr/lib64/ruby/gems/2.7.0/gems/rdoc-6.2.0/lib/rdoc/generator/template/darkfish/images/bullet_toggle_plus.png
--- replaced obj /usr/lib64/ruby/gems/2.7.0/gems/rdoc-6.2.0/lib/rdoc/generator/template/darkfish/images/bullet_toggle_minus.png
--- replaced obj /usr/lib64/ruby/gems/2.7.0/gems/rdoc-6.2.0/lib/rdoc/generator/template/darkfish/images/bullet_black.png
--- replaced obj /usr/lib64/ruby/gems/2.7.0/gems/rdoc-6.2.0/lib/rdoc/generator/template/darkfish/images/bug.png
--- replaced obj /usr/lib64/ruby/gems/2.7.0/gems/rdoc-6.2.0/lib/rdoc/generator/template/darkfish/images/brick_link.png
--- replaced obj /usr/lib64/ruby/gems/2.7.0/gems/rdoc-6.2.0/lib/rdoc/generator/template/darkfish/images/brick.png
--- replaced obj /usr/lib64/ruby/gems/2.7.0/gems/rdoc-6.2.0/lib/rdoc/generator/template/darkfish/images/arrow_up.png
--- replaced obj /usr/lib64/ruby/gems/2.7.0/gems/rdoc-6.2.0/lib/rdoc/generator/template/darkfish/images/add.png
--- replaced dir /usr/lib64/ruby/gems/2.7.0/gems/rdoc-6.2.0/lib/rdoc/generator/template/darkfish/images
--- replaced obj /usr/lib64/ruby/gems/2.7.0/gems/rdoc-6.2.0/lib/rdoc/generator/template/darkfish/fonts/SourceCodePro-Regular.ttf
--- replaced obj /usr/lib64/ruby/gems/2.7.0/gems/rdoc-6.2.0/lib/rdoc/generator/template/darkfish/fonts/SourceCodePro-Bold.ttf
--- replaced obj /usr/lib64/ruby/gems/2.7.0/gems/rdoc-6.2.0/lib/rdoc/generator/template/darkfish/fonts/Lato-RegularItalic.ttf
--- replaced obj /usr/lib64/ruby/gems/2.7.0/gems/rdoc-6.2.0/lib/rdoc/generator/template/darkfish/fonts/Lato-Regular.ttf
--- replaced obj /usr/lib64/ruby/gems/2.7.0/gems/rdoc-6.2.0/lib/rdoc/generator/template/darkfish/fonts/Lato-LightItalic.ttf
--- replaced obj /usr/lib64/ruby/gems/2.7.0/gems/rdoc-6.2.0/lib/rdoc/generator/template/darkfish/fonts/Lato-Light.ttf
--- replaced dir /usr/lib64/ruby/gems/2.7.0/gems/rdoc-6.2.0/lib/rdoc/generator/template/darkfish/fonts
--- replaced obj /usr/lib64/ruby/gems/2.7.0/gems/rdoc-6.2.0/lib/rdoc/generator/template/darkfish/css/rdoc.css
--- replaced obj /usr/lib64/ruby/gems/2.7.0/gems/rdoc-6.2.0/lib/rdoc/generator/template/darkfish/css/fonts.css
--- replaced dir /usr/lib64/ruby/gems/2.7.0/gems/rdoc-6.2.0/lib/rdoc/generator/template/darkfish/css
--- replaced obj /usr/lib64/ruby/gems/2.7.0/gems/rdoc-6.2.0/lib/rdoc/generator/template/darkfish/class.rhtml
--- replaced obj /usr/lib64/ruby/gems/2.7.0/gems/rdoc-6.2.0/lib/rdoc/generator/template/darkfish/_sidebar_table_of_contents.rhtml
--- replaced obj /usr/lib64/ruby/gems/2.7.0/gems/rdoc-6.2.0/lib/rdoc/generator/template/darkfish/_sidebar_sections.rhtml
--- replaced obj /usr/lib64/ruby/gems/2.7.0/gems/rdoc-6.2.0/lib/rdoc/generator/template/darkfish/_sidebar_search.rhtml
--- replaced obj /usr/lib64/ruby/gems/2.7.0/gems/rdoc-6.2.0/lib/rdoc/generator/template/darkfish/_sidebar_parent.rhtml
--- replaced obj /usr/lib64/ruby/gems/2.7.0/gems/rdoc-6.2.0/lib/rdoc/generator/template/darkfish/_sidebar_pages.rhtml
--- replaced obj /usr/lib64/ruby/gems/2.7.0/gems/rdoc-6.2.0/lib/rdoc/generator/template/darkfish/_sidebar_navigation.rhtml
--- replaced obj /usr/lib64/ruby/gems/2.7.0/gems/rdoc-6.2.0/lib/rdoc/generator/template/darkfish/_sidebar_methods.rhtml
--- replaced obj /usr/lib64/ruby/gems/2.7.0/gems/rdoc-6.2.0/lib/rdoc/generator/template/darkfish/_sidebar_installed.rhtml
--- replaced obj /usr/lib64/ruby/gems/2.7.0/gems/rdoc-6.2.0/lib/rdoc/generator/template/darkfish/_sidebar_includes.rhtml
--- replaced obj /usr/lib64/ruby/gems/2.7.0/gems/rdoc-6.2.0/lib/rdoc/generator/template/darkfish/_sidebar_in_files.rhtml
--- replaced obj /usr/lib64/ruby/gems/2.7.0/gems/rdoc-6.2.0/lib/rdoc/generator/template/darkfish/_sidebar_extends.rhtml
--- replaced obj /usr/lib64/ruby/gems/2.7.0/gems/rdoc-6.2.0/lib/rdoc/generator/template/darkfish/_sidebar_classes.rhtml
--- replaced obj /usr/lib64/ruby/gems/2.7.0/gems/rdoc-6.2.0/lib/rdoc/generator/template/darkfish/_sidebar_VCS_info.rhtml
--- replaced obj /usr/lib64/ruby/gems/2.7.0/gems/rdoc-6.2.0/lib/rdoc/generator/template/darkfish/_head.rhtml
--- replaced obj /usr/lib64/ruby/gems/2.7.0/gems/rdoc-6.2.0/lib/rdoc/generator/template/darkfish/_footer.rhtml
--- replaced obj /usr/lib64/ruby/gems/2.7.0/gems/rdoc-6.2.0/lib/rdoc/generator/template/darkfish/.document
--- replaced dir /usr/lib64/ruby/gems/2.7.0/gems/rdoc-6.2.0/lib/rdoc/generator/template/darkfish
--- replaced dir /usr/lib64/ruby/gems/2.7.0/gems/rdoc-6.2.0/lib/rdoc/generator/template
--- replaced obj /usr/lib64/ruby/gems/2.7.0/gems/rdoc-6.2.0/lib/rdoc/generator/ri.rb
--- replaced obj /usr/lib64/ruby/gems/2.7.0/gems/rdoc-6.2.0/lib/rdoc/generator/pot/po_entry.rb
--- replaced obj /usr/lib64/ruby/gems/2.7.0/gems/rdoc-6.2.0/lib/rdoc/generator/pot/po.rb
--- replaced obj /usr/lib64/ruby/gems/2.7.0/gems/rdoc-6.2.0/lib/rdoc/generator/pot/message_extractor.rb
--- replaced obj /usr/lib64/ruby/gems/2.7.0/gems/rdoc-6.2.0/lib/rdoc/generator/pot.rb
--- replaced dir /usr/lib64/ruby/gems/2.7.0/gems/rdoc-6.2.0/lib/rdoc/generator/pot
--- replaced obj /usr/lib64/ruby/gems/2.7.0/gems/rdoc-6.2.0/lib/rdoc/generator/markup.rb
--- replaced obj /usr/lib64/ruby/gems/2.7.0/gems/rdoc-6.2.0/lib/rdoc/generator/json_index.rb
--- replaced obj /usr/lib64/ruby/gems/2.7.0/gems/rdoc-6.2.0/lib/rdoc/generator/darkfish.rb
--- replaced obj /usr/lib64/ruby/gems/2.7.0/gems/rdoc-6.2.0/lib/rdoc/generator.rb
--- replaced dir /usr/lib64/ruby/gems/2.7.0/gems/rdoc-6.2.0/lib/rdoc/generator
--- replaced obj /usr/lib64/ruby/gems/2.7.0/gems/rdoc-6.2.0/lib/rdoc/extend.rb
--- replaced obj /usr/lib64/ruby/gems/2.7.0/gems/rdoc-6.2.0/lib/rdoc/erbio.rb
--- replaced obj /usr/lib64/ruby/gems/2.7.0/gems/rdoc-6.2.0/lib/rdoc/erb_partial.rb
--- replaced obj /usr/lib64/ruby/gems/2.7.0/gems/rdoc-6.2.0/lib/rdoc/encoding.rb
--- replaced obj /usr/lib64/ruby/gems/2.7.0/gems/rdoc-6.2.0/lib/rdoc/cross_reference.rb
--- replaced obj /usr/lib64/ruby/gems/2.7.0/gems/rdoc-6.2.0/lib/rdoc/context/section.rb
--- replaced obj /usr/lib64/ruby/gems/2.7.0/gems/rdoc-6.2.0/lib/rdoc/context.rb
--- replaced dir /usr/lib64/ruby/gems/2.7.0/gems/rdoc-6.2.0/lib/rdoc/context
--- replaced obj /usr/lib64/ruby/gems/2.7.0/gems/rdoc-6.2.0/lib/rdoc/constant.rb
--- replaced obj /usr/lib64/ruby/gems/2.7.0/gems/rdoc-6.2.0/lib/rdoc/comment.rb
--- replaced obj /usr/lib64/ruby/gems/2.7.0/gems/rdoc-6.2.0/lib/rdoc/code_objects.rb
--- replaced obj /usr/lib64/ruby/gems/2.7.0/gems/rdoc-6.2.0/lib/rdoc/code_object.rb
--- replaced obj /usr/lib64/ruby/gems/2.7.0/gems/rdoc-6.2.0/lib/rdoc/class_module.rb
--- replaced obj /usr/lib64/ruby/gems/2.7.0/gems/rdoc-6.2.0/lib/rdoc/attr.rb
--- replaced obj /usr/lib64/ruby/gems/2.7.0/gems/rdoc-6.2.0/lib/rdoc/any_method.rb
--- replaced obj /usr/lib64/ruby/gems/2.7.0/gems/rdoc-6.2.0/lib/rdoc/anon_class.rb
--- replaced obj /usr/lib64/ruby/gems/2.7.0/gems/rdoc-6.2.0/lib/rdoc/alias.rb
--- replaced obj /usr/lib64/ruby/gems/2.7.0/gems/rdoc-6.2.0/lib/rdoc.rb
--- replaced dir /usr/lib64/ruby/gems/2.7.0/gems/rdoc-6.2.0/lib/rdoc
--- replaced dir /usr/lib64/ruby/gems/2.7.0/gems/rdoc-6.2.0/lib
--- replaced obj /usr/lib64/ruby/gems/2.7.0/gems/rdoc-6.2.0/exe/ri
--- replaced obj /usr/lib64/ruby/gems/2.7.0/gems/rdoc-6.2.0/exe/rdoc
--- replaced dir /usr/lib64/ruby/gems/2.7.0/gems/rdoc-6.2.0/exe
--- replaced dir /usr/lib64/ruby/gems/2.7.0/gems/rdoc-6.2.0
--- replaced dir /usr/lib64/ruby/gems/2.7.0/gems
--- replaced dir /usr/lib64/ruby/gems/2.7.0
--- replaced obj /usr/lib64/ruby/gems/2.6.0/specifications/rdoc-6.2.0.gemspec
--- replaced dir /usr/lib64/ruby/gems/2.6.0/specifications
--- replaced obj /usr/lib64/ruby/gems/2.6.0/gems/rdoc-6.2.0/lib/rdoc/version.rb
--- replaced obj /usr/lib64/ruby/gems/2.6.0/gems/rdoc-6.2.0/lib/rdoc/top_level.rb
--- replaced obj /usr/lib64/ruby/gems/2.6.0/gems/rdoc-6.2.0/lib/rdoc/tom_doc.rb
--- replaced obj /usr/lib64/ruby/gems/2.6.0/gems/rdoc-6.2.0/lib/rdoc/token_stream.rb
--- replaced obj /usr/lib64/ruby/gems/2.6.0/gems/rdoc-6.2.0/lib/rdoc/text.rb
--- replaced obj /usr/lib64/ruby/gems/2.6.0/gems/rdoc-6.2.0/lib/rdoc/task.rb
--- replaced obj /usr/lib64/ruby/gems/2.6.0/gems/rdoc-6.2.0/lib/rdoc/store.rb
--- replaced obj /usr/lib64/ruby/gems/2.6.0/gems/rdoc-6.2.0/lib/rdoc/stats/verbose.rb
--- replaced obj /usr/lib64/ruby/gems/2.6.0/gems/rdoc-6.2.0/lib/rdoc/stats/quiet.rb
--- replaced obj /usr/lib64/ruby/gems/2.6.0/gems/rdoc-6.2.0/lib/rdoc/stats/normal.rb
--- replaced obj /usr/lib64/ruby/gems/2.6.0/gems/rdoc-6.2.0/lib/rdoc/stats.rb
--- replaced dir /usr/lib64/ruby/gems/2.6.0/gems/rdoc-6.2.0/lib/rdoc/stats
--- replaced obj /usr/lib64/ruby/gems/2.6.0/gems/rdoc-6.2.0/lib/rdoc/single_class.rb
--- replaced obj /usr/lib64/ruby/gems/2.6.0/gems/rdoc-6.2.0/lib/rdoc/servlet.rb
--- replaced obj /usr/lib64/ruby/gems/2.6.0/gems/rdoc-6.2.0/lib/rdoc/rubygems_hook.rb
--- replaced obj /usr/lib64/ruby/gems/2.6.0/gems/rdoc-6.2.0/lib/rdoc/ri/task.rb
--- replaced obj /usr/lib64/ruby/gems/2.6.0/gems/rdoc-6.2.0/lib/rdoc/ri/store.rb
--- replaced obj /usr/lib64/ruby/gems/2.6.0/gems/rdoc-6.2.0/lib/rdoc/ri/paths.rb
--- replaced obj /usr/lib64/ruby/gems/2.6.0/gems/rdoc-6.2.0/lib/rdoc/ri/formatter.rb
--- replaced obj /usr/lib64/ruby/gems/2.6.0/gems/rdoc-6.2.0/lib/rdoc/ri/driver.rb
--- replaced obj /usr/lib64/ruby/gems/2.6.0/gems/rdoc-6.2.0/lib/rdoc/ri.rb
--- replaced dir /usr/lib64/ruby/gems/2.6.0/gems/rdoc-6.2.0/lib/rdoc/ri
--- replaced obj /usr/lib64/ruby/gems/2.6.0/gems/rdoc-6.2.0/lib/rdoc/require.rb
--- replaced obj /usr/lib64/ruby/gems/2.6.0/gems/rdoc-6.2.0/lib/rdoc/rdoc.rb
--- replaced obj /usr/lib64/ruby/gems/2.6.0/gems/rdoc-6.2.0/lib/rdoc/rd/inline_parser.ry
--- replaced obj /usr/lib64/ruby/gems/2.6.0/gems/rdoc-6.2.0/lib/rdoc/rd/inline_parser.rb
--- replaced obj /usr/lib64/ruby/gems/2.6.0/gems/rdoc-6.2.0/lib/rdoc/rd/inline.rb
--- replaced obj /usr/lib64/ruby/gems/2.6.0/gems/rdoc-6.2.0/lib/rdoc/rd/block_parser.ry
--- replaced obj /usr/lib64/ruby/gems/2.6.0/gems/rdoc-6.2.0/lib/rdoc/rd/block_parser.rb
--- replaced obj /usr/lib64/ruby/gems/2.6.0/gems/rdoc-6.2.0/lib/rdoc/rd.rb
--- replaced dir /usr/lib64/ruby/gems/2.6.0/gems/rdoc-6.2.0/lib/rdoc/rd
--- replaced obj /usr/lib64/ruby/gems/2.6.0/gems/rdoc-6.2.0/lib/rdoc/parser/text.rb
--- replaced obj /usr/lib64/ruby/gems/2.6.0/gems/rdoc-6.2.0/lib/rdoc/parser/simple.rb
--- replaced obj /usr/lib64/ruby/gems/2.6.0/gems/rdoc-6.2.0/lib/rdoc/parser/ruby_tools.rb
--- replaced obj /usr/lib64/ruby/gems/2.6.0/gems/rdoc-6.2.0/lib/rdoc/parser/ruby.rb
--- replaced obj /usr/lib64/ruby/gems/2.6.0/gems/rdoc-6.2.0/lib/rdoc/parser/ripper_state_lex.rb
--- replaced obj /usr/lib64/ruby/gems/2.6.0/gems/rdoc-6.2.0/lib/rdoc/parser/rd.rb
--- replaced obj /usr/lib64/ruby/gems/2.6.0/gems/rdoc-6.2.0/lib/rdoc/parser/markdown.rb
--- replaced obj /usr/lib64/ruby/gems/2.6.0/gems/rdoc-6.2.0/lib/rdoc/parser/changelog.rb
--- replaced obj /usr/lib64/ruby/gems/2.6.0/gems/rdoc-6.2.0/lib/rdoc/parser/c.rb
--- replaced obj /usr/lib64/ruby/gems/2.6.0/gems/rdoc-6.2.0/lib/rdoc/parser.rb
--- replaced dir /usr/lib64/ruby/gems/2.6.0/gems/rdoc-6.2.0/lib/rdoc/parser
--- replaced obj /usr/lib64/ruby/gems/2.6.0/gems/rdoc-6.2.0/lib/rdoc/options.rb
--- replaced obj /usr/lib64/ruby/gems/2.6.0/gems/rdoc-6.2.0/lib/rdoc/normal_module.rb
--- replaced obj /usr/lib64/ruby/gems/2.6.0/gems/rdoc-6.2.0/lib/rdoc/normal_class.rb
--- replaced obj /usr/lib64/ruby/gems/2.6.0/gems/rdoc-6.2.0/lib/rdoc/mixin.rb
--- replaced obj /usr/lib64/ruby/gems/2.6.0/gems/rdoc-6.2.0/lib/rdoc/method_attr.rb
--- replaced obj /usr/lib64/ruby/gems/2.6.0/gems/rdoc-6.2.0/lib/rdoc/meta_method.rb
--- replaced obj /usr/lib64/ruby/gems/2.6.0/gems/rdoc-6.2.0/lib/rdoc/markup/verbatim.rb
--- replaced obj /usr/lib64/ruby/gems/2.6.0/gems/rdoc-6.2.0/lib/rdoc/markup/to_tt_only.rb
--- replaced obj /usr/lib64/ruby/gems/2.6.0/gems/rdoc-6.2.0/lib/rdoc/markup/to_test.rb
--- replaced obj /usr/lib64/ruby/gems/2.6.0/gems/rdoc-6.2.0/lib/rdoc/markup/to_table_of_contents.rb
--- replaced obj /usr/lib64/ruby/gems/2.6.0/gems/rdoc-6.2.0/lib/rdoc/markup/to_rdoc.rb
--- replaced obj /usr/lib64/ruby/gems/2.6.0/gems/rdoc-6.2.0/lib/rdoc/markup/to_markdown.rb
--- replaced obj /usr/lib64/ruby/gems/2.6.0/gems/rdoc-6.2.0/lib/rdoc/markup/to_label.rb
--- replaced obj /usr/lib64/ruby/gems/2.6.0/gems/rdoc-6.2.0/lib/rdoc/markup/to_joined_paragraph.rb
--- replaced obj /usr/lib64/ruby/gems/2.6.0/gems/rdoc-6.2.0/lib/rdoc/markup/to_html_snippet.rb
--- replaced obj /usr/lib64/ruby/gems/2.6.0/gems/rdoc-6.2.0/lib/rdoc/markup/to_html_crossref.rb
--- replaced obj /usr/lib64/ruby/gems/2.6.0/gems/rdoc-6.2.0/lib/rdoc/markup/to_html.rb
--- replaced obj /usr/lib64/ruby/gems/2.6.0/gems/rdoc-6.2.0/lib/rdoc/markup/to_bs.rb
--- replaced obj /usr/lib64/ruby/gems/2.6.0/gems/rdoc-6.2.0/lib/rdoc/markup/to_ansi.rb
--- replaced obj /usr/lib64/ruby/gems/2.6.0/gems/rdoc-6.2.0/lib/rdoc/markup/rule.rb
--- replaced obj /usr/lib64/ruby/gems/2.6.0/gems/rdoc-6.2.0/lib/rdoc/markup/regexp_handling.rb
--- replaced obj /usr/lib64/ruby/gems/2.6.0/gems/rdoc-6.2.0/lib/rdoc/markup/raw.rb
--- replaced obj /usr/lib64/ruby/gems/2.6.0/gems/rdoc-6.2.0/lib/rdoc/markup/pre_process.rb
--- replaced obj /usr/lib64/ruby/gems/2.6.0/gems/rdoc-6.2.0/lib/rdoc/markup/parser.rb
--- replaced obj /usr/lib64/ruby/gems/2.6.0/gems/rdoc-6.2.0/lib/rdoc/markup/paragraph.rb
--- replaced obj /usr/lib64/ruby/gems/2.6.0/gems/rdoc-6.2.0/lib/rdoc/markup/list_item.rb
--- replaced obj /usr/lib64/ruby/gems/2.6.0/gems/rdoc-6.2.0/lib/rdoc/markup/list.rb
--- replaced obj /usr/lib64/ruby/gems/2.6.0/gems/rdoc-6.2.0/lib/rdoc/markup/indented_paragraph.rb
--- replaced obj /usr/lib64/ruby/gems/2.6.0/gems/rdoc-6.2.0/lib/rdoc/markup/include.rb
--- replaced obj /usr/lib64/ruby/gems/2.6.0/gems/rdoc-6.2.0/lib/rdoc/markup/heading.rb
--- replaced obj /usr/lib64/ruby/gems/2.6.0/gems/rdoc-6.2.0/lib/rdoc/markup/hard_break.rb
--- replaced obj /usr/lib64/ruby/gems/2.6.0/gems/rdoc-6.2.0/lib/rdoc/markup/formatter.rb
--- replaced obj /usr/lib64/ruby/gems/2.6.0/gems/rdoc-6.2.0/lib/rdoc/markup/document.rb
--- replaced obj /usr/lib64/ruby/gems/2.6.0/gems/rdoc-6.2.0/lib/rdoc/markup/block_quote.rb
--- replaced obj /usr/lib64/ruby/gems/2.6.0/gems/rdoc-6.2.0/lib/rdoc/markup/blank_line.rb
--- replaced obj /usr/lib64/ruby/gems/2.6.0/gems/rdoc-6.2.0/lib/rdoc/markup/attributes.rb
--- replaced obj /usr/lib64/ruby/gems/2.6.0/gems/rdoc-6.2.0/lib/rdoc/markup/attribute_manager.rb
--- replaced obj /usr/lib64/ruby/gems/2.6.0/gems/rdoc-6.2.0/lib/rdoc/markup/attr_span.rb
--- replaced obj /usr/lib64/ruby/gems/2.6.0/gems/rdoc-6.2.0/lib/rdoc/markup/attr_changer.rb
--- replaced obj /usr/lib64/ruby/gems/2.6.0/gems/rdoc-6.2.0/lib/rdoc/markup.rb
--- replaced dir /usr/lib64/ruby/gems/2.6.0/gems/rdoc-6.2.0/lib/rdoc/markup
--- replaced obj /usr/lib64/ruby/gems/2.6.0/gems/rdoc-6.2.0/lib/rdoc/markdown/literals.rb
--- replaced obj /usr/lib64/ruby/gems/2.6.0/gems/rdoc-6.2.0/lib/rdoc/markdown/literals.kpeg
--- replaced obj /usr/lib64/ruby/gems/2.6.0/gems/rdoc-6.2.0/lib/rdoc/markdown/entities.rb
--- replaced obj /usr/lib64/ruby/gems/2.6.0/gems/rdoc-6.2.0/lib/rdoc/markdown.rb
--- replaced obj /usr/lib64/ruby/gems/2.6.0/gems/rdoc-6.2.0/lib/rdoc/markdown.kpeg
--- replaced dir /usr/lib64/ruby/gems/2.6.0/gems/rdoc-6.2.0/lib/rdoc/markdown
--- replaced obj /usr/lib64/ruby/gems/2.6.0/gems/rdoc-6.2.0/lib/rdoc/known_classes.rb
--- replaced obj /usr/lib64/ruby/gems/2.6.0/gems/rdoc-6.2.0/lib/rdoc/include.rb
--- replaced obj /usr/lib64/ruby/gems/2.6.0/gems/rdoc-6.2.0/lib/rdoc/i18n/text.rb
--- replaced obj /usr/lib64/ruby/gems/2.6.0/gems/rdoc-6.2.0/lib/rdoc/i18n/locale.rb
--- replaced obj /usr/lib64/ruby/gems/2.6.0/gems/rdoc-6.2.0/lib/rdoc/i18n.rb
--- replaced dir /usr/lib64/ruby/gems/2.6.0/gems/rdoc-6.2.0/lib/rdoc/i18n
--- replaced obj /usr/lib64/ruby/gems/2.6.0/gems/rdoc-6.2.0/lib/rdoc/ghost_method.rb
--- replaced obj /usr/lib64/ruby/gems/2.6.0/gems/rdoc-6.2.0/lib/rdoc/generator/template/json_index/js/searcher.js
--- replaced obj /usr/lib64/ruby/gems/2.6.0/gems/rdoc-6.2.0/lib/rdoc/generator/template/json_index/js/navigation.js
--- replaced dir /usr/lib64/ruby/gems/2.6.0/gems/rdoc-6.2.0/lib/rdoc/generator/template/json_index/js
--- replaced obj /usr/lib64/ruby/gems/2.6.0/gems/rdoc-6.2.0/lib/rdoc/generator/template/json_index/.document
--- replaced dir /usr/lib64/ruby/gems/2.6.0/gems/rdoc-6.2.0/lib/rdoc/generator/template/json_index
--- replaced obj /usr/lib64/ruby/gems/2.6.0/gems/rdoc-6.2.0/lib/rdoc/generator/template/darkfish/table_of_contents.rhtml
--- replaced obj /usr/lib64/ruby/gems/2.6.0/gems/rdoc-6.2.0/lib/rdoc/generator/template/darkfish/servlet_root.rhtml
--- replaced obj /usr/lib64/ruby/gems/2.6.0/gems/rdoc-6.2.0/lib/rdoc/generator/template/darkfish/servlet_not_found.rhtml
--- replaced obj /usr/lib64/ruby/gems/2.6.0/gems/rdoc-6.2.0/lib/rdoc/generator/template/darkfish/page.rhtml
--- replaced obj /usr/lib64/ruby/gems/2.6.0/gems/rdoc-6.2.0/lib/rdoc/generator/template/darkfish/js/search.js
--- replaced obj /usr/lib64/ruby/gems/2.6.0/gems/rdoc-6.2.0/lib/rdoc/generator/template/darkfish/js/darkfish.js
--- replaced dir /usr/lib64/ruby/gems/2.6.0/gems/rdoc-6.2.0/lib/rdoc/generator/template/darkfish/js
--- replaced obj /usr/lib64/ruby/gems/2.6.0/gems/rdoc-6.2.0/lib/rdoc/generator/template/darkfish/index.rhtml
--- replaced obj /usr/lib64/ruby/gems/2.6.0/gems/rdoc-6.2.0/lib/rdoc/generator/template/darkfish/images/zoom.png
--- replaced obj /usr/lib64/ruby/gems/2.6.0/gems/rdoc-6.2.0/lib/rdoc/generator/template/darkfish/images/wrench_orange.png
--- replaced obj /usr/lib64/ruby/gems/2.6.0/gems/rdoc-6.2.0/lib/rdoc/generator/template/darkfish/images/wrench.png
--- replaced obj /usr/lib64/ruby/gems/2.6.0/gems/rdoc-6.2.0/lib/rdoc/generator/template/darkfish/images/transparent.png
--- replaced obj /usr/lib64/ruby/gems/2.6.0/gems/rdoc-6.2.0/lib/rdoc/generator/template/darkfish/images/tag_green.png
--- replaced obj /usr/lib64/ruby/gems/2.6.0/gems/rdoc-6.2.0/lib/rdoc/generator/template/darkfish/images/tag_blue.png
--- replaced obj /usr/lib64/ruby/gems/2.6.0/gems/rdoc-6.2.0/lib/rdoc/generator/template/darkfish/images/ruby.png
--- replaced obj /usr/lib64/ruby/gems/2.6.0/gems/rdoc-6.2.0/lib/rdoc/generator/template/darkfish/images/plugin.png
--- replaced obj /usr/lib64/ruby/gems/2.6.0/gems/rdoc-6.2.0/lib/rdoc/generator/template/darkfish/images/page_white_width.png
--- replaced obj /usr/lib64/ruby/gems/2.6.0/gems/rdoc-6.2.0/lib/rdoc/generator/template/darkfish/images/page_white_text.png
--- replaced obj /usr/lib64/ruby/gems/2.6.0/gems/rdoc-6.2.0/lib/rdoc/generator/template/darkfish/images/page_green.png
--- replaced obj /usr/lib64/ruby/gems/2.6.0/gems/rdoc-6.2.0/lib/rdoc/generator/template/darkfish/images/package.png
--- replaced obj /usr/lib64/ruby/gems/2.6.0/gems/rdoc-6.2.0/lib/rdoc/generator/template/darkfish/images/macFFBgHack.png
--- replaced obj /usr/lib64/ruby/gems/2.6.0/gems/rdoc-6.2.0/lib/rdoc/generator/template/darkfish/images/loadingAnimation.gif
--- replaced obj /usr/lib64/ruby/gems/2.6.0/gems/rdoc-6.2.0/lib/rdoc/generator/template/darkfish/images/find.png
--- replaced obj /usr/lib64/ruby/gems/2.6.0/gems/rdoc-6.2.0/lib/rdoc/generator/template/darkfish/images/delete.png
--- replaced obj /usr/lib64/ruby/gems/2.6.0/gems/rdoc-6.2.0/lib/rdoc/generator/template/darkfish/images/date.png
--- replaced obj /usr/lib64/ruby/gems/2.6.0/gems/rdoc-6.2.0/lib/rdoc/generator/template/darkfish/images/bullet_toggle_plus.png
--- replaced obj /usr/lib64/ruby/gems/2.6.0/gems/rdoc-6.2.0/lib/rdoc/generator/template/darkfish/images/bullet_toggle_minus.png
--- replaced obj /usr/lib64/ruby/gems/2.6.0/gems/rdoc-6.2.0/lib/rdoc/generator/template/darkfish/images/bullet_black.png
--- replaced obj /usr/lib64/ruby/gems/2.6.0/gems/rdoc-6.2.0/lib/rdoc/generator/template/darkfish/images/bug.png
--- replaced obj /usr/lib64/ruby/gems/2.6.0/gems/rdoc-6.2.0/lib/rdoc/generator/template/darkfish/images/brick_link.png
--- replaced obj /usr/lib64/ruby/gems/2.6.0/gems/rdoc-6.2.0/lib/rdoc/generator/template/darkfish/images/brick.png
--- replaced obj /usr/lib64/ruby/gems/2.6.0/gems/rdoc-6.2.0/lib/rdoc/generator/template/darkfish/images/arrow_up.png
--- replaced obj /usr/lib64/ruby/gems/2.6.0/gems/rdoc-6.2.0/lib/rdoc/generator/template/darkfish/images/add.png
--- replaced dir /usr/lib64/ruby/gems/2.6.0/gems/rdoc-6.2.0/lib/rdoc/generator/template/darkfish/images
--- replaced obj /usr/lib64/ruby/gems/2.6.0/gems/rdoc-6.2.0/lib/rdoc/generator/template/darkfish/fonts/SourceCodePro-Regular.ttf
--- replaced obj /usr/lib64/ruby/gems/2.6.0/gems/rdoc-6.2.0/lib/rdoc/generator/template/darkfish/fonts/SourceCodePro-Bold.ttf
--- replaced obj /usr/lib64/ruby/gems/2.6.0/gems/rdoc-6.2.0/lib/rdoc/generator/template/darkfish/fonts/Lato-RegularItalic.ttf
--- replaced obj /usr/lib64/ruby/gems/2.6.0/gems/rdoc-6.2.0/lib/rdoc/generator/template/darkfish/fonts/Lato-Regular.ttf
--- replaced obj /usr/lib64/ruby/gems/2.6.0/gems/rdoc-6.2.0/lib/rdoc/generator/template/darkfish/fonts/Lato-LightItalic.ttf
--- replaced obj /usr/lib64/ruby/gems/2.6.0/gems/rdoc-6.2.0/lib/rdoc/generator/template/darkfish/fonts/Lato-Light.ttf
--- replaced dir /usr/lib64/ruby/gems/2.6.0/gems/rdoc-6.2.0/lib/rdoc/generator/template/darkfish/fonts
--- replaced obj /usr/lib64/ruby/gems/2.6.0/gems/rdoc-6.2.0/lib/rdoc/generator/template/darkfish/css/rdoc.css
--- replaced obj /usr/lib64/ruby/gems/2.6.0/gems/rdoc-6.2.0/lib/rdoc/generator/template/darkfish/css/fonts.css
--- replaced dir /usr/lib64/ruby/gems/2.6.0/gems/rdoc-6.2.0/lib/rdoc/generator/template/darkfish/css
--- replaced obj /usr/lib64/ruby/gems/2.6.0/gems/rdoc-6.2.0/lib/rdoc/generator/template/darkfish/class.rhtml
--- replaced obj /usr/lib64/ruby/gems/2.6.0/gems/rdoc-6.2.0/lib/rdoc/generator/template/darkfish/_sidebar_table_of_contents.rhtml
--- replaced obj /usr/lib64/ruby/gems/2.6.0/gems/rdoc-6.2.0/lib/rdoc/generator/template/darkfish/_sidebar_sections.rhtml
--- replaced obj /usr/lib64/ruby/gems/2.6.0/gems/rdoc-6.2.0/lib/rdoc/generator/template/darkfish/_sidebar_search.rhtml
--- replaced obj /usr/lib64/ruby/gems/2.6.0/gems/rdoc-6.2.0/lib/rdoc/generator/template/darkfish/_sidebar_parent.rhtml
--- replaced obj /usr/lib64/ruby/gems/2.6.0/gems/rdoc-6.2.0/lib/rdoc/generator/template/darkfish/_sidebar_pages.rhtml
--- replaced obj /usr/lib64/ruby/gems/2.6.0/gems/rdoc-6.2.0/lib/rdoc/generator/template/darkfish/_sidebar_navigation.rhtml
--- replaced obj /usr/lib64/ruby/gems/2.6.0/gems/rdoc-6.2.0/lib/rdoc/generator/template/darkfish/_sidebar_methods.rhtml
--- replaced obj /usr/lib64/ruby/gems/2.6.0/gems/rdoc-6.2.0/lib/rdoc/generator/template/darkfish/_sidebar_installed.rhtml
--- replaced obj /usr/lib64/ruby/gems/2.6.0/gems/rdoc-6.2.0/lib/rdoc/generator/template/darkfish/_sidebar_includes.rhtml
--- replaced obj /usr/lib64/ruby/gems/2.6.0/gems/rdoc-6.2.0/lib/rdoc/generator/template/darkfish/_sidebar_in_files.rhtml
--- replaced obj /usr/lib64/ruby/gems/2.6.0/gems/rdoc-6.2.0/lib/rdoc/generator/template/darkfish/_sidebar_extends.rhtml
--- replaced obj /usr/lib64/ruby/gems/2.6.0/gems/rdoc-6.2.0/lib/rdoc/generator/template/darkfish/_sidebar_classes.rhtml
--- replaced obj /usr/lib64/ruby/gems/2.6.0/gems/rdoc-6.2.0/lib/rdoc/generator/template/darkfish/_sidebar_VCS_info.rhtml
--- replaced obj /usr/lib64/ruby/gems/2.6.0/gems/rdoc-6.2.0/lib/rdoc/generator/template/darkfish/_head.rhtml
--- replaced obj /usr/lib64/ruby/gems/2.6.0/gems/rdoc-6.2.0/lib/rdoc/generator/template/darkfish/_footer.rhtml
--- replaced obj /usr/lib64/ruby/gems/2.6.0/gems/rdoc-6.2.0/lib/rdoc/generator/template/darkfish/.document
--- replaced dir /usr/lib64/ruby/gems/2.6.0/gems/rdoc-6.2.0/lib/rdoc/generator/template/darkfish
--- replaced dir /usr/lib64/ruby/gems/2.6.0/gems/rdoc-6.2.0/lib/rdoc/generator/template
--- replaced obj /usr/lib64/ruby/gems/2.6.0/gems/rdoc-6.2.0/lib/rdoc/generator/ri.rb
--- replaced obj /usr/lib64/ruby/gems/2.6.0/gems/rdoc-6.2.0/lib/rdoc/generator/pot/po_entry.rb
--- replaced obj /usr/lib64/ruby/gems/2.6.0/gems/rdoc-6.2.0/lib/rdoc/generator/pot/po.rb
--- replaced obj /usr/lib64/ruby/gems/2.6.0/gems/rdoc-6.2.0/lib/rdoc/generator/pot/message_extractor.rb
--- replaced obj /usr/lib64/ruby/gems/2.6.0/gems/rdoc-6.2.0/lib/rdoc/generator/pot.rb
--- replaced dir /usr/lib64/ruby/gems/2.6.0/gems/rdoc-6.2.0/lib/rdoc/generator/pot
--- replaced obj /usr/lib64/ruby/gems/2.6.0/gems/rdoc-6.2.0/lib/rdoc/generator/markup.rb
--- replaced obj /usr/lib64/ruby/gems/2.6.0/gems/rdoc-6.2.0/lib/rdoc/generator/json_index.rb
--- replaced obj /usr/lib64/ruby/gems/2.6.0/gems/rdoc-6.2.0/lib/rdoc/generator/darkfish.rb
--- replaced obj /usr/lib64/ruby/gems/2.6.0/gems/rdoc-6.2.0/lib/rdoc/generator.rb
--- replaced dir /usr/lib64/ruby/gems/2.6.0/gems/rdoc-6.2.0/lib/rdoc/generator
--- replaced obj /usr/lib64/ruby/gems/2.6.0/gems/rdoc-6.2.0/lib/rdoc/extend.rb
--- replaced obj /usr/lib64/ruby/gems/2.6.0/gems/rdoc-6.2.0/lib/rdoc/erbio.rb
--- replaced obj /usr/lib64/ruby/gems/2.6.0/gems/rdoc-6.2.0/lib/rdoc/erb_partial.rb
--- replaced obj /usr/lib64/ruby/gems/2.6.0/gems/rdoc-6.2.0/lib/rdoc/encoding.rb
--- replaced obj /usr/lib64/ruby/gems/2.6.0/gems/rdoc-6.2.0/lib/rdoc/cross_reference.rb
--- replaced obj /usr/lib64/ruby/gems/2.6.0/gems/rdoc-6.2.0/lib/rdoc/context/section.rb
--- replaced obj /usr/lib64/ruby/gems/2.6.0/gems/rdoc-6.2.0/lib/rdoc/context.rb
--- replaced dir /usr/lib64/ruby/gems/2.6.0/gems/rdoc-6.2.0/lib/rdoc/context
--- replaced obj /usr/lib64/ruby/gems/2.6.0/gems/rdoc-6.2.0/lib/rdoc/constant.rb
--- replaced obj /usr/lib64/ruby/gems/2.6.0/gems/rdoc-6.2.0/lib/rdoc/comment.rb
--- replaced obj /usr/lib64/ruby/gems/2.6.0/gems/rdoc-6.2.0/lib/rdoc/code_objects.rb
--- replaced obj /usr/lib64/ruby/gems/2.6.0/gems/rdoc-6.2.0/lib/rdoc/code_object.rb
--- replaced obj /usr/lib64/ruby/gems/2.6.0/gems/rdoc-6.2.0/lib/rdoc/class_module.rb
--- replaced obj /usr/lib64/ruby/gems/2.6.0/gems/rdoc-6.2.0/lib/rdoc/attr.rb
--- replaced obj /usr/lib64/ruby/gems/2.6.0/gems/rdoc-6.2.0/lib/rdoc/any_method.rb
--- replaced obj /usr/lib64/ruby/gems/2.6.0/gems/rdoc-6.2.0/lib/rdoc/anon_class.rb
--- replaced obj /usr/lib64/ruby/gems/2.6.0/gems/rdoc-6.2.0/lib/rdoc/alias.rb
--- replaced obj /usr/lib64/ruby/gems/2.6.0/gems/rdoc-6.2.0/lib/rdoc.rb
--- replaced dir /usr/lib64/ruby/gems/2.6.0/gems/rdoc-6.2.0/lib/rdoc
--- replaced dir /usr/lib64/ruby/gems/2.6.0/gems/rdoc-6.2.0/lib
--- replaced obj /usr/lib64/ruby/gems/2.6.0/gems/rdoc-6.2.0/exe/ri
--- replaced obj /usr/lib64/ruby/gems/2.6.0/gems/rdoc-6.2.0/exe/rdoc
--- replaced dir /usr/lib64/ruby/gems/2.6.0/gems/rdoc-6.2.0/exe
--- replaced dir /usr/lib64/ruby/gems/2.6.0/gems/rdoc-6.2.0
--- replaced dir /usr/lib64/ruby/gems/2.6.0/gems
--- replaced dir /usr/lib64/ruby/gems/2.6.0
--- replaced dir /usr/lib64/ruby/gems
--- replaced dir /usr/lib64/ruby
--- replaced dir /usr/lib64
--- replaced obj /usr/bin/ri27
--- replaced obj /usr/bin/ri26
--- replaced obj /usr/bin/ri-2
--- replaced obj /usr/bin/rdoc27
--- replaced obj /usr/bin/rdoc26
--- replaced obj /usr/bin/rdoc-2
--- replaced dir /usr/bin
--- replaced dir /usr
>>> Regenerating /etc/ld.so.cache...
