 * Package:    dev-libs/libedit-20191211.3.1
 * Repository: gentoo
 * Maintainer: mgorny@gentoo.org
 * USE:        abi_x86_64 amd64 elibc_glibc kernel_linux split-usr userland_GNU
 * FEATURES:   network-sandbox preserve-libs sandbox userpriv usersandbox
 * FEATURES='assume-digests binpkg-docompress binpkg-dostrip binpkg-logs buildpkg cgroup compress-index config-protect-if-modified distlocks ebuild-locks fixlafiles ipc-sandbox merge-sync multilib-strict network-sandbox news nodoc parallel-fetch pid-sandbox preserve-libs qa-unresolved-soname-deps sandbox sfperms strict strict-keepdir unknown-features-warn unmerge-logs unmerge-orphans userfetch userpriv usersandbox usersync xattr'
 * CFLAGS='-march=znver2 -Ofast -pipe -g0 -fno-common -fgraphite-identity -floop-interchange -floop-nest-optimize -floop-parallelize-all -ftree-parallelize-loops=12 -ftree-vectorize -fdevirtualize-at-ltrans -fipa-pta -fno-semantic-interposition -flto=12 -fno-plt -falign-functions=32 -fno-stack-protector -fno-stack-clash-protection -fstack-check=no -fno-stack-check -fuse-linker-plugin -Wl,-O1,--sort-common,--as-needed,-z,norelro,-z,now,-lgomp,-lpthread'
 * CXXFLAGS='-march=znver2 -Ofast -pipe -g0 -fno-common -fgraphite-identity -floop-interchange -floop-nest-optimize -floop-parallelize-all -ftree-parallelize-loops=12 -ftree-vectorize -fdevirtualize-at-ltrans -fipa-pta -fno-semantic-interposition -flto=12 -fno-plt -falign-functions=32 -fno-stack-protector -fno-stack-clash-protection -fstack-check=no -fno-stack-check -fuse-linker-plugin -Wl,-O1,--sort-common,--as-needed,-z,norelro,-z,now,-lgomp,-lpthread'
 * FFLAGS='-march=znver2 -Ofast -pipe -g0 -fno-common -fgraphite-identity -floop-interchange -floop-nest-optimize -floop-parallelize-all -ftree-parallelize-loops=12 -ftree-vectorize -fdevirtualize-at-ltrans -fipa-pta -fno-semantic-interposition -flto=12 -fno-plt -falign-functions=32 -fno-stack-protector -fno-stack-clash-protection -fstack-check=no -fno-stack-check -fuse-linker-plugin -Wl,-O1,--sort-common,--as-needed,-z,norelro,-z,now,-lgomp,-lpthread'
 * FCFLAGS='-march=znver2 -Ofast -pipe -g0 -fno-common -fgraphite-identity -floop-interchange -floop-nest-optimize -floop-parallelize-all -ftree-parallelize-loops=12 -ftree-vectorize -fdevirtualize-at-ltrans -fipa-pta -fno-semantic-interposition -flto=12 -fno-plt -falign-functions=32 -fno-stack-protector -fno-stack-clash-protection -fstack-check=no -fno-stack-check -fuse-linker-plugin -Wl,-O1,--sort-common,--as-needed,-z,norelro,-z,now,-lgomp,-lpthread'
 * F77FLAGS='-march=znver2 -Ofast -pipe -g0 -fno-common -fgraphite-identity -floop-interchange -floop-nest-optimize -floop-parallelize-all -ftree-parallelize-loops=12 -ftree-vectorize -fdevirtualize-at-ltrans -fipa-pta -fno-semantic-interposition -flto=12 -fno-plt -falign-functions=32 -fno-stack-protector -fno-stack-clash-protection -fstack-check=no -fno-stack-check -fuse-linker-plugin -Wl,-O1,--sort-common,--as-needed,-z,norelro,-z,now,-lgomp,-lpthread'
 * LDFLAGS='-Wl,-O1,--sort-common,--as-needed,-z,norelro,-z,now,-lgomp,-lpthread -march=znver2 -Ofast -pipe -g0 -fno-common -fgraphite-identity -floop-interchange -floop-nest-optimize -floop-parallelize-all -ftree-parallelize-loops=12 -ftree-vectorize -fdevirtualize-at-ltrans -fipa-pta -fno-semantic-interposition -flto=12 -fno-plt -falign-functions=32 -fno-stack-protector -fno-stack-clash-protection -fstack-check=no -fno-stack-check -fuse-linker-plugin'
 * MAKEOPTS='-j12 -l12'
 * gcc () 11.0.0 20200616 (experimental)
 * g++ () 11.0.0 20200616 (experimental)
 * GNU ld (Gentoo 2.34 p4) 2.34.0
 * Linux rescue 5.4.36 #1 SMP Thu Apr 30 04:38:28 UTC 2020 x86_64 AMD Ryzen 5 3600 6-Core Processor AuthenticAMD GNU/Linux
dev-libs/libedit: 56 seconds average for 6 merges
2020-06-03T00:27:50 >>> dev-libs/libedit: 1 minute, 27 seconds
2020-06-12T01:42:57 >>> dev-libs/libedit: 6 seconds
2020-06-13T20:14:53 >>> dev-libs/libedit: 6 seconds
2020-06-15T13:59:34 >>> dev-libs/libedit: 9 seconds
2020-06-16T17:10:49 >>> dev-libs/libedit: 1 minute, 5 seconds
2020-06-17T15:30:42 >>> dev-libs/libedit: 2 minutes, 46 seconds
]0;emerge 02:08:10 33|180 libedit 01:20 (root@rescue)>>> Unpacking source...
>>> Unpacking libedit-20191211-3.1.tar.gz to /tmp/portage/dev-libs/libedit-20191211.3.1/work
>>> Source unpacked in /tmp/portage/dev-libs/libedit-20191211.3.1/work
>>> Preparing source in /tmp/portage/dev-libs/libedit-20191211.3.1/work/libedit-20191211-3.1 ...
 * Applying libedit-20170329.3.1-tinfo.patch ...
 [ ok ]
 * Running eautoreconf in '/tmp/portage/dev-libs/libedit-20191211.3.1/work/libedit-20191211-3.1' ...
 * Running libtoolize --install --copy --force --automake ...
 [ ok ]
 * Running aclocal -I m4 ...
 [ ok ]
 * Running autoconf --force ...
 [ ok ]
 * Running autoheader ...
 [ ok ]
 * Running automake --add-missing --copy --foreign --force-missing ...
 [ ok ]
 * Running elibtoolize in: libedit-20191211-3.1/
 *   Applying portage/1.2.0 patch ...
 *   Applying sed/1.5.6 patch ...
 *   Applying as-needed/2.4.3 patch ...
>>> Source prepared.
>>> Configuring source in /tmp/portage/dev-libs/libedit-20191211.3.1/work/libedit-20191211-3.1 ...
 * abi_x86_64.amd64: running multilib-minimal_abi_src_configure
 * econf: updating libedit-20191211-3.1/config.guess with /usr/share/gnuconfig/config.guess
 * econf: updating libedit-20191211-3.1/config.sub with /usr/share/gnuconfig/config.sub
/tmp/portage/dev-libs/libedit-20191211.3.1/work/libedit-20191211-3.1/configure --prefix=/usr --build=x86_64-pc-linux-gnu --host=x86_64-pc-linux-gnu --mandir=/usr/share/man --infodir=/usr/share/info --datadir=/usr/share --sysconfdir=/etc --localstatedir=/var/lib --disable-dependency-tracking --disable-silent-rules --docdir=/usr/share/doc/libedit-20191211.3.1 --htmldir=/usr/share/doc/libedit-20191211.3.1/html --with-sysroot=/ --libdir=/usr/lib64 --disable-static --enable-widec --enable-fast-install
checking for x86_64-pc-linux-gnu-gcc... x86_64-pc-linux-gnu-gcc
checking whether the C compiler works... yes
checking for C compiler default output file name... a.out
checking for suffix of executables... 
checking whether we are cross compiling... no
checking for suffix of object files... o
checking whether we are using the GNU C compiler... yes
checking whether x86_64-pc-linux-gnu-gcc accepts -g... yes
checking for x86_64-pc-linux-gnu-gcc option to accept ISO C89... none needed
checking whether x86_64-pc-linux-gnu-gcc understands -c and -o together... yes
checking how to run the C preprocessor... x86_64-pc-linux-gnu-gcc -E
checking for grep that handles long lines and -e... /bin/grep
checking for egrep... /bin/grep -E
checking for ANSI C header files... yes
checking for sys/types.h... yes
checking for sys/stat.h... yes
checking for stdlib.h... yes
checking for string.h... yes
checking for memory.h... yes
checking for strings.h... yes
checking for inttypes.h... yes
checking for stdint.h... yes
checking for unistd.h... yes
checking minix/config.h usability... no
checking minix/config.h presence... no
checking for minix/config.h... no
checking whether it is safe to define __EXTENSIONS__... yes
checking for a BSD-compatible install... /tmp/portage/._portage_reinstall_.ve826zmx/bin/ebuild-helpers/xattr/install -c
checking whether build environment is sane... yes
checking for a thread-safe mkdir -p... /bin/mkdir -p
checking for gawk... gawk
checking whether make sets $(MAKE)... yes
checking whether make supports the include directive... yes (GNU style)
checking whether make supports nested variables... yes
checking dependency style of x86_64-pc-linux-gnu-gcc... none
checking build system type... x86_64-pc-linux-gnu
checking host system type... x86_64-pc-linux-gnu
checking how to print strings... printf
checking for a sed that does not truncate output... /bin/sed
checking for fgrep... /bin/grep -F
checking for ld used by x86_64-pc-linux-gnu-gcc... /usr/x86_64-pc-linux-gnu/bin/ld
checking if the linker (/usr/x86_64-pc-linux-gnu/bin/ld) is GNU ld... yes
checking for BSD- or MS-compatible name lister (nm)... /usr/bin/x86_64-pc-linux-gnu-nm -B
checking the name lister (/usr/bin/x86_64-pc-linux-gnu-nm -B) interface... BSD nm
checking whether ln -s works... yes
checking the maximum length of command line arguments... 1572864
checking how to convert x86_64-pc-linux-gnu file names to x86_64-pc-linux-gnu format... func_convert_file_noop
checking how to convert x86_64-pc-linux-gnu file names to toolchain format... func_convert_file_noop
checking for /usr/x86_64-pc-linux-gnu/bin/ld option to reload object files... -r
checking for x86_64-pc-linux-gnu-objdump... x86_64-pc-linux-gnu-objdump
checking how to recognize dependent libraries... pass_all
checking for x86_64-pc-linux-gnu-dlltool... x86_64-pc-linux-gnu-dlltool
checking how to associate runtime and link libraries... printf %s\n
checking for x86_64-pc-linux-gnu-ar... x86_64-pc-linux-gnu-ar
checking for archiver @FILE support... @
checking for x86_64-pc-linux-gnu-strip... x86_64-pc-linux-gnu-strip
checking for x86_64-pc-linux-gnu-ranlib... x86_64-pc-linux-gnu-ranlib
checking command to parse /usr/bin/x86_64-pc-linux-gnu-nm -B output from x86_64-pc-linux-gnu-gcc object... ok
checking for sysroot... /
checking for a working dd... /bin/dd
checking how to truncate binary pipes... /bin/dd bs=4096 count=1
checking for x86_64-pc-linux-gnu-mt... no
checking for mt... no
checking if : is a manifest tool... no
checking for dlfcn.h... yes
checking for objdir... .libs
checking if x86_64-pc-linux-gnu-gcc supports -fno-rtti -fno-exceptions... no
checking for x86_64-pc-linux-gnu-gcc option to produce PIC... -fPIC -DPIC
checking if x86_64-pc-linux-gnu-gcc PIC flag -fPIC -DPIC works... yes
checking if x86_64-pc-linux-gnu-gcc static flag -static works... yes
checking if x86_64-pc-linux-gnu-gcc supports -c -o file.o... yes
checking if x86_64-pc-linux-gnu-gcc supports -c -o file.o... (cached) yes
checking whether the x86_64-pc-linux-gnu-gcc linker (/usr/x86_64-pc-linux-gnu/bin/ld -m elf_x86_64) supports shared libraries... yes
checking whether -lc should be explicitly linked in... no
checking dynamic linker characteristics... GNU/Linux ld.so
checking how to hardcode library paths into programs... immediate
checking whether stripping libraries is possible... yes
checking if libtool supports shared libraries... yes
checking whether to build shared libraries... yes
checking whether to build static libraries... no
checking whether make supports nested variables... (cached) yes
checking for x86_64-pc-linux-gnu-gcc option to accept ISO C99... none needed
checking whether ln -s works... yes
checking for gawk... (cached) gawk
checking for nroff... /usr/bin/nroff
checking for tgetent in -lncurses... no
checking for tgetent in -lcurses... no
checking for tgetent in -ltermcap... no
checking for tgetent in -ltinfo... yes
checking if you want wide-character code... yes
configure: WARNING: --enable-widec is deprecated, wide-character/UTF-8 is always enabled
checking for dirent.h that defines DIR... yes
checking for library containing opendir... none required
checking for ANSI C header files... (cached) yes
checking for sys/wait.h that is POSIX.1 compatible... yes
checking fcntl.h usability... yes
checking fcntl.h presence... yes
checking for fcntl.h... yes
checking limits.h usability... yes
checking limits.h presence... yes
checking for limits.h... yes
checking malloc.h usability... yes
checking malloc.h presence... yes
checking for malloc.h... yes
checking for stdlib.h... (cached) yes
checking for string.h... (cached) yes
checking sys/ioctl.h usability... yes
checking sys/ioctl.h presence... yes
checking for sys/ioctl.h... yes
checking sys/param.h usability... yes
checking sys/param.h presence... yes
checking for sys/param.h... yes
checking for unistd.h... (cached) yes
checking curses.h usability... yes
checking curses.h presence... yes
checking for curses.h... yes
checking ncurses.h usability... yes
checking ncurses.h presence... yes
checking for ncurses.h... yes
checking sys/cdefs.h usability... yes
checking sys/cdefs.h presence... yes
checking for sys/cdefs.h... yes
checking termcap.h usability... yes
checking termcap.h presence... yes
checking for termcap.h... yes
checking for ncurses.h... (cached) yes
checking termios.h usability... yes
checking termios.h presence... yes
checking for termios.h... yes
checking for term.h... yes
checking for struct dirent.d_namlen... no
checking for an ANSI C-conforming const... yes
checking for pid_t... yes
checking for size_t... yes
checking for u_int32_t... yes
checking whether closedir returns void... no
checking vfork.h usability... no
checking vfork.h presence... no
checking for vfork.h... no
checking for fork... yes
checking for vfork... yes
checking for working fork... yes
checking for working vfork... (cached) yes
checking whether x86_64-pc-linux-gnu-gcc needs -traditional... no
checking return type of signal handlers... void
checking whether lstat correctly handles trailing slash... yes
checking whether stat accepts an empty string... no
checking for endpwent... yes
checking for isascii... yes
checking for memchr... yes
checking for memset... yes
checking for re_comp... yes
checking for regcomp... yes
checking for strcasecmp... yes
checking for strchr... yes
checking for strcspn... yes
checking for strdup... yes
checking for strerror... yes
checking for strrchr... yes
checking for strstr... yes
checking for strtol... yes
checking for issetugid... no
checking for wcsdup... yes
checking for strlcpy... no
checking for strlcat... no
checking for getline... yes
checking for vis... no
checking for strvis... no
checking for strunvis... no
checking for __secure_getenv... no
checking for secure_getenv... yes
checking for strlcpy... (cached) no
checking for strlcat... (cached) no
checking for vis... (cached) no
checking for unvis... no
checking whether getpwnam_r and getpwuid_r are posix like... yes
checking whether getpwnam_r and getpwuid_r are posix _draft_ like... no
checking that generated files are newer than configure... done
configure: creating ./config.status
config.status: creating Makefile
config.status: creating libedit.pc
config.status: creating src/Makefile
config.status: creating doc/Makefile
config.status: creating examples/Makefile
config.status: creating config.h
config.status: executing depfiles commands
config.status: executing libtool commands
>>> Source configured.
>>> Compiling source in /tmp/portage/dev-libs/libedit-20191211.3.1/work/libedit-20191211-3.1 ...
 * abi_x86_64.amd64: running multilib-minimal_abi_src_compile
make -j12 -l12 
make  all-recursive
make[1]: Entering directory '/tmp/portage/dev-libs/libedit-20191211.3.1/work/libedit-20191211-3.1-abi_x86_64.amd64'
Making all in src
make[2]: Entering directory '/tmp/portage/dev-libs/libedit-20191211.3.1/work/libedit-20191211-3.1-abi_x86_64.amd64/src'
AWK=gawk sh /tmp/portage/dev-libs/libedit-20191211.3.1/work/libedit-20191211-3.1/src/makelist -h /tmp/portage/dev-libs/libedit-20191211.3.1/work/libedit-20191211-3.1/src/vi.c > vi.h
AWK=gawk sh /tmp/portage/dev-libs/libedit-20191211.3.1/work/libedit-20191211-3.1/src/makelist -h /tmp/portage/dev-libs/libedit-20191211.3.1/work/libedit-20191211-3.1/src/emacs.c > emacs.h
AWK=gawk sh /tmp/portage/dev-libs/libedit-20191211.3.1/work/libedit-20191211-3.1/src/makelist -h /tmp/portage/dev-libs/libedit-20191211.3.1/work/libedit-20191211-3.1/src/common.c > common.h
AWK=gawk sh /tmp/portage/dev-libs/libedit-20191211.3.1/work/libedit-20191211-3.1/src/makelist -bh /tmp/portage/dev-libs/libedit-20191211.3.1/work/libedit-20191211-3.1/src/vi.c /tmp/portage/dev-libs/libedit-20191211.3.1/work/libedit-20191211-3.1/src/emacs.c /tmp/portage/dev-libs/libedit-20191211.3.1/work/libedit-20191211-3.1/src/common.c > help.h
AWK=gawk sh /tmp/portage/dev-libs/libedit-20191211.3.1/work/libedit-20191211-3.1/src/makelist -fh vi.h emacs.h common.h  > fcns.h
AWK=gawk sh /tmp/portage/dev-libs/libedit-20191211.3.1/work/libedit-20191211-3.1/src/makelist -fc vi.h emacs.h common.h  > func.h
make  all-am
make[3]: Entering directory '/tmp/portage/dev-libs/libedit-20191211.3.1/work/libedit-20191211-3.1-abi_x86_64.amd64/src'
/bin/sh ../libtool  --tag=CC   --mode=compile x86_64-pc-linux-gnu-gcc -DHAVE_CONFIG_H -I. -I/tmp/portage/dev-libs/libedit-20191211.3.1/work/libedit-20191211-3.1/src -I..     -march=znver2 -Ofast -pipe -g0 -fno-common -fgraphite-identity -floop-interchange -floop-nest-optimize -floop-parallelize-all -ftree-parallelize-loops=12 -ftree-vectorize -fdevirtualize-at-ltrans -fipa-pta -fno-semantic-interposition -flto=12 -fno-plt -falign-functions=32 -fno-stack-protector -fno-stack-clash-protection -fstack-check=no -fno-stack-check -fuse-linker-plugin -Wl,-O1,--sort-common,--as-needed,-z,norelro,-z,now,-lgomp,-lpthread -c -o chared.lo /tmp/portage/dev-libs/libedit-20191211.3.1/work/libedit-20191211-3.1/src/chared.c
/bin/sh ../libtool  --tag=CC   --mode=compile x86_64-pc-linux-gnu-gcc -DHAVE_CONFIG_H -I. -I/tmp/portage/dev-libs/libedit-20191211.3.1/work/libedit-20191211-3.1/src -I..     -march=znver2 -Ofast -pipe -g0 -fno-common -fgraphite-identity -floop-interchange -floop-nest-optimize -floop-parallelize-all -ftree-parallelize-loops=12 -ftree-vectorize -fdevirtualize-at-ltrans -fipa-pta -fno-semantic-interposition -flto=12 -fno-plt -falign-functions=32 -fno-stack-protector -fno-stack-clash-protection -fstack-check=no -fno-stack-check -fuse-linker-plugin -Wl,-O1,--sort-common,--as-needed,-z,norelro,-z,now,-lgomp,-lpthread -c -o common.lo /tmp/portage/dev-libs/libedit-20191211.3.1/work/libedit-20191211-3.1/src/common.c
/bin/sh ../libtool  --tag=CC   --mode=compile x86_64-pc-linux-gnu-gcc -DHAVE_CONFIG_H -I. -I/tmp/portage/dev-libs/libedit-20191211.3.1/work/libedit-20191211-3.1/src -I..     -march=znver2 -Ofast -pipe -g0 -fno-common -fgraphite-identity -floop-interchange -floop-nest-optimize -floop-parallelize-all -ftree-parallelize-loops=12 -ftree-vectorize -fdevirtualize-at-ltrans -fipa-pta -fno-semantic-interposition -flto=12 -fno-plt -falign-functions=32 -fno-stack-protector -fno-stack-clash-protection -fstack-check=no -fno-stack-check -fuse-linker-plugin -Wl,-O1,--sort-common,--as-needed,-z,norelro,-z,now,-lgomp,-lpthread -c -o el.lo /tmp/portage/dev-libs/libedit-20191211.3.1/work/libedit-20191211-3.1/src/el.c
/bin/sh ../libtool  --tag=CC   --mode=compile x86_64-pc-linux-gnu-gcc -DHAVE_CONFIG_H -I. -I/tmp/portage/dev-libs/libedit-20191211.3.1/work/libedit-20191211-3.1/src -I..     -march=znver2 -Ofast -pipe -g0 -fno-common -fgraphite-identity -floop-interchange -floop-nest-optimize -floop-parallelize-all -ftree-parallelize-loops=12 -ftree-vectorize -fdevirtualize-at-ltrans -fipa-pta -fno-semantic-interposition -flto=12 -fno-plt -falign-functions=32 -fno-stack-protector -fno-stack-clash-protection -fstack-check=no -fno-stack-check -fuse-linker-plugin -Wl,-O1,--sort-common,--as-needed,-z,norelro,-z,now,-lgomp,-lpthread -c -o eln.lo /tmp/portage/dev-libs/libedit-20191211.3.1/work/libedit-20191211-3.1/src/eln.c
/bin/sh ../libtool  --tag=CC   --mode=compile x86_64-pc-linux-gnu-gcc -DHAVE_CONFIG_H -I. -I/tmp/portage/dev-libs/libedit-20191211.3.1/work/libedit-20191211-3.1/src -I..     -march=znver2 -Ofast -pipe -g0 -fno-common -fgraphite-identity -floop-interchange -floop-nest-optimize -floop-parallelize-all -ftree-parallelize-loops=12 -ftree-vectorize -fdevirtualize-at-ltrans -fipa-pta -fno-semantic-interposition -flto=12 -fno-plt -falign-functions=32 -fno-stack-protector -fno-stack-clash-protection -fstack-check=no -fno-stack-check -fuse-linker-plugin -Wl,-O1,--sort-common,--as-needed,-z,norelro,-z,now,-lgomp,-lpthread -c -o emacs.lo /tmp/portage/dev-libs/libedit-20191211.3.1/work/libedit-20191211-3.1/src/emacs.c
/bin/sh ../libtool  --tag=CC   --mode=compile x86_64-pc-linux-gnu-gcc -DHAVE_CONFIG_H -I. -I/tmp/portage/dev-libs/libedit-20191211.3.1/work/libedit-20191211-3.1/src -I..     -march=znver2 -Ofast -pipe -g0 -fno-common -fgraphite-identity -floop-interchange -floop-nest-optimize -floop-parallelize-all -ftree-parallelize-loops=12 -ftree-vectorize -fdevirtualize-at-ltrans -fipa-pta -fno-semantic-interposition -flto=12 -fno-plt -falign-functions=32 -fno-stack-protector -fno-stack-clash-protection -fstack-check=no -fno-stack-check -fuse-linker-plugin -Wl,-O1,--sort-common,--as-needed,-z,norelro,-z,now,-lgomp,-lpthread -c -o hist.lo /tmp/portage/dev-libs/libedit-20191211.3.1/work/libedit-20191211-3.1/src/hist.c
/bin/sh ../libtool  --tag=CC   --mode=compile x86_64-pc-linux-gnu-gcc -DHAVE_CONFIG_H -I. -I/tmp/portage/dev-libs/libedit-20191211.3.1/work/libedit-20191211-3.1/src -I..     -march=znver2 -Ofast -pipe -g0 -fno-common -fgraphite-identity -floop-interchange -floop-nest-optimize -floop-parallelize-all -ftree-parallelize-loops=12 -ftree-vectorize -fdevirtualize-at-ltrans -fipa-pta -fno-semantic-interposition -flto=12 -fno-plt -falign-functions=32 -fno-stack-protector -fno-stack-clash-protection -fstack-check=no -fno-stack-check -fuse-linker-plugin -Wl,-O1,--sort-common,--as-needed,-z,norelro,-z,now,-lgomp,-lpthread -c -o keymacro.lo /tmp/portage/dev-libs/libedit-20191211.3.1/work/libedit-20191211-3.1/src/keymacro.c
/bin/sh ../libtool  --tag=CC   --mode=compile x86_64-pc-linux-gnu-gcc -DHAVE_CONFIG_H -I. -I/tmp/portage/dev-libs/libedit-20191211.3.1/work/libedit-20191211-3.1/src -I..     -march=znver2 -Ofast -pipe -g0 -fno-common -fgraphite-identity -floop-interchange -floop-nest-optimize -floop-parallelize-all -ftree-parallelize-loops=12 -ftree-vectorize -fdevirtualize-at-ltrans -fipa-pta -fno-semantic-interposition -flto=12 -fno-plt -falign-functions=32 -fno-stack-protector -fno-stack-clash-protection -fstack-check=no -fno-stack-check -fuse-linker-plugin -Wl,-O1,--sort-common,--as-needed,-z,norelro,-z,now,-lgomp,-lpthread -c -o map.lo /tmp/portage/dev-libs/libedit-20191211.3.1/work/libedit-20191211-3.1/src/map.c
/bin/sh ../libtool  --tag=CC   --mode=compile x86_64-pc-linux-gnu-gcc -DHAVE_CONFIG_H -I. -I/tmp/portage/dev-libs/libedit-20191211.3.1/work/libedit-20191211-3.1/src -I..     -march=znver2 -Ofast -pipe -g0 -fno-common -fgraphite-identity -floop-interchange -floop-nest-optimize -floop-parallelize-all -ftree-parallelize-loops=12 -ftree-vectorize -fdevirtualize-at-ltrans -fipa-pta -fno-semantic-interposition -flto=12 -fno-plt -falign-functions=32 -fno-stack-protector -fno-stack-clash-protection -fstack-check=no -fno-stack-check -fuse-linker-plugin -Wl,-O1,--sort-common,--as-needed,-z,norelro,-z,now,-lgomp,-lpthread -c -o chartype.lo /tmp/portage/dev-libs/libedit-20191211.3.1/work/libedit-20191211-3.1/src/chartype.c
/bin/sh ../libtool  --tag=CC   --mode=compile x86_64-pc-linux-gnu-gcc -DHAVE_CONFIG_H -I. -I/tmp/portage/dev-libs/libedit-20191211.3.1/work/libedit-20191211-3.1/src -I..     -march=znver2 -Ofast -pipe -g0 -fno-common -fgraphite-identity -floop-interchange -floop-nest-optimize -floop-parallelize-all -ftree-parallelize-loops=12 -ftree-vectorize -fdevirtualize-at-ltrans -fipa-pta -fno-semantic-interposition -flto=12 -fno-plt -falign-functions=32 -fno-stack-protector -fno-stack-clash-protection -fstack-check=no -fno-stack-check -fuse-linker-plugin -Wl,-O1,--sort-common,--as-needed,-z,norelro,-z,now,-lgomp,-lpthread -c -o parse.lo /tmp/portage/dev-libs/libedit-20191211.3.1/work/libedit-20191211-3.1/src/parse.c
/bin/sh ../libtool  --tag=CC   --mode=compile x86_64-pc-linux-gnu-gcc -DHAVE_CONFIG_H -I. -I/tmp/portage/dev-libs/libedit-20191211.3.1/work/libedit-20191211-3.1/src -I..     -march=znver2 -Ofast -pipe -g0 -fno-common -fgraphite-identity -floop-interchange -floop-nest-optimize -floop-parallelize-all -ftree-parallelize-loops=12 -ftree-vectorize -fdevirtualize-at-ltrans -fipa-pta -fno-semantic-interposition -flto=12 -fno-plt -falign-functions=32 -fno-stack-protector -fno-stack-clash-protection -fstack-check=no -fno-stack-check -fuse-linker-plugin -Wl,-O1,--sort-common,--as-needed,-z,norelro,-z,now,-lgomp,-lpthread -c -o prompt.lo /tmp/portage/dev-libs/libedit-20191211.3.1/work/libedit-20191211-3.1/src/prompt.c
/bin/sh ../libtool  --tag=CC   --mode=compile x86_64-pc-linux-gnu-gcc -DHAVE_CONFIG_H -I. -I/tmp/portage/dev-libs/libedit-20191211.3.1/work/libedit-20191211-3.1/src -I..     -march=znver2 -Ofast -pipe -g0 -fno-common -fgraphite-identity -floop-interchange -floop-nest-optimize -floop-parallelize-all -ftree-parallelize-loops=12 -ftree-vectorize -fdevirtualize-at-ltrans -fipa-pta -fno-semantic-interposition -flto=12 -fno-plt -falign-functions=32 -fno-stack-protector -fno-stack-clash-protection -fstack-check=no -fno-stack-check -fuse-linker-plugin -Wl,-O1,--sort-common,--as-needed,-z,norelro,-z,now,-lgomp,-lpthread -c -o read.lo /tmp/portage/dev-libs/libedit-20191211.3.1/work/libedit-20191211-3.1/src/read.c
libtool: compile:  x86_64-pc-linux-gnu-gcc -DHAVE_CONFIG_H -I. -I/tmp/portage/dev-libs/libedit-20191211.3.1/work/libedit-20191211-3.1/src -I.. -march=znver2 -Ofast -pipe -g0 -fno-common -fgraphite-identity -floop-interchange -floop-nest-optimize -floop-parallelize-all -ftree-parallelize-loops=12 -ftree-vectorize -fdevirtualize-at-ltrans -fipa-pta -fno-semantic-interposition -flto=12 -fno-plt -falign-functions=32 -fno-stack-protector -fno-stack-clash-protection -fstack-check=no -fno-stack-check -fuse-linker-plugin -Wl,-O1,--sort-common,--as-needed,-z,norelro,-z,now,-lgomp,-lpthread -c /tmp/portage/dev-libs/libedit-20191211.3.1/work/libedit-20191211-3.1/src/map.c  -fPIC -DPIC -o .libs/map.o
libtool: compile:  x86_64-pc-linux-gnu-gcc -DHAVE_CONFIG_H -I. -I/tmp/portage/dev-libs/libedit-20191211.3.1/work/libedit-20191211-3.1/src -I.. -march=znver2 -Ofast -pipe -g0 -fno-common -fgraphite-identity -floop-interchange -floop-nest-optimize -floop-parallelize-all -ftree-parallelize-loops=12 -ftree-vectorize -fdevirtualize-at-ltrans -fipa-pta -fno-semantic-interposition -flto=12 -fno-plt -falign-functions=32 -fno-stack-protector -fno-stack-clash-protection -fstack-check=no -fno-stack-check -fuse-linker-plugin -Wl,-O1,--sort-common,--as-needed,-z,norelro,-z,now,-lgomp,-lpthread -c /tmp/portage/dev-libs/libedit-20191211.3.1/work/libedit-20191211-3.1/src/chared.c  -fPIC -DPIC -o .libs/chared.o
libtool: compile:  x86_64-pc-linux-gnu-gcc -DHAVE_CONFIG_H -I. -I/tmp/portage/dev-libs/libedit-20191211.3.1/work/libedit-20191211-3.1/src -I.. -march=znver2 -Ofast -pipe -g0 -fno-common -fgraphite-identity -floop-interchange -floop-nest-optimize -floop-parallelize-all -ftree-parallelize-loops=12 -ftree-vectorize -fdevirtualize-at-ltrans -fipa-pta -fno-semantic-interposition -flto=12 -fno-plt -falign-functions=32 -fno-stack-protector -fno-stack-clash-protection -fstack-check=no -fno-stack-check -fuse-linker-plugin -Wl,-O1,--sort-common,--as-needed,-z,norelro,-z,now,-lgomp,-lpthread -c /tmp/portage/dev-libs/libedit-20191211.3.1/work/libedit-20191211-3.1/src/parse.c  -fPIC -DPIC -o .libs/parse.o
libtool: compile:  x86_64-pc-linux-gnu-gcc -DHAVE_CONFIG_H -I. -I/tmp/portage/dev-libs/libedit-20191211.3.1/work/libedit-20191211-3.1/src -I.. -march=znver2 -Ofast -pipe -g0 -fno-common -fgraphite-identity -floop-interchange -floop-nest-optimize -floop-parallelize-all -ftree-parallelize-loops=12 -ftree-vectorize -fdevirtualize-at-ltrans -fipa-pta -fno-semantic-interposition -flto=12 -fno-plt -falign-functions=32 -fno-stack-protector -fno-stack-clash-protection -fstack-check=no -fno-stack-check -fuse-linker-plugin -Wl,-O1,--sort-common,--as-needed,-z,norelro,-z,now,-lgomp,-lpthread -c /tmp/portage/dev-libs/libedit-20191211.3.1/work/libedit-20191211-3.1/src/common.c  -fPIC -DPIC -o .libs/common.o
libtool: compile:  x86_64-pc-linux-gnu-gcc -DHAVE_CONFIG_H -I. -I/tmp/portage/dev-libs/libedit-20191211.3.1/work/libedit-20191211-3.1/src -I.. -march=znver2 -Ofast -pipe -g0 -fno-common -fgraphite-identity -floop-interchange -floop-nest-optimize -floop-parallelize-all -ftree-parallelize-loops=12 -ftree-vectorize -fdevirtualize-at-ltrans -fipa-pta -fno-semantic-interposition -flto=12 -fno-plt -falign-functions=32 -fno-stack-protector -fno-stack-clash-protection -fstack-check=no -fno-stack-check -fuse-linker-plugin -Wl,-O1,--sort-common,--as-needed,-z,norelro,-z,now,-lgomp,-lpthread -c /tmp/portage/dev-libs/libedit-20191211.3.1/work/libedit-20191211-3.1/src/eln.c  -fPIC -DPIC -o .libs/eln.o
libtool: compile:  x86_64-pc-linux-gnu-gcc -DHAVE_CONFIG_H -I. -I/tmp/portage/dev-libs/libedit-20191211.3.1/work/libedit-20191211-3.1/src -I.. -march=znver2 -Ofast -pipe -g0 -fno-common -fgraphite-identity -floop-interchange -floop-nest-optimize -floop-parallelize-all -ftree-parallelize-loops=12 -ftree-vectorize -fdevirtualize-at-ltrans -fipa-pta -fno-semantic-interposition -flto=12 -fno-plt -falign-functions=32 -fno-stack-protector -fno-stack-clash-protection -fstack-check=no -fno-stack-check -fuse-linker-plugin -Wl,-O1,--sort-common,--as-needed,-z,norelro,-z,now,-lgomp,-lpthread -c /tmp/portage/dev-libs/libedit-20191211.3.1/work/libedit-20191211-3.1/src/emacs.c  -fPIC -DPIC -o .libs/emacs.o
libtool: compile:  x86_64-pc-linux-gnu-gcc -DHAVE_CONFIG_H -I. -I/tmp/portage/dev-libs/libedit-20191211.3.1/work/libedit-20191211-3.1/src -I.. -march=znver2 -Ofast -pipe -g0 -fno-common -fgraphite-identity -floop-interchange -floop-nest-optimize -floop-parallelize-all -ftree-parallelize-loops=12 -ftree-vectorize -fdevirtualize-at-ltrans -fipa-pta -fno-semantic-interposition -flto=12 -fno-plt -falign-functions=32 -fno-stack-protector -fno-stack-clash-protection -fstack-check=no -fno-stack-check -fuse-linker-plugin -Wl,-O1,--sort-common,--as-needed,-z,norelro,-z,now,-lgomp,-lpthread -c /tmp/portage/dev-libs/libedit-20191211.3.1/work/libedit-20191211-3.1/src/el.c  -fPIC -DPIC -o .libs/el.o
libtool: compile:  x86_64-pc-linux-gnu-gcc -DHAVE_CONFIG_H -I. -I/tmp/portage/dev-libs/libedit-20191211.3.1/work/libedit-20191211-3.1/src -I.. -march=znver2 -Ofast -pipe -g0 -fno-common -fgraphite-identity -floop-interchange -floop-nest-optimize -floop-parallelize-all -ftree-parallelize-loops=12 -ftree-vectorize -fdevirtualize-at-ltrans -fipa-pta -fno-semantic-interposition -flto=12 -fno-plt -falign-functions=32 -fno-stack-protector -fno-stack-clash-protection -fstack-check=no -fno-stack-check -fuse-linker-plugin -Wl,-O1,--sort-common,--as-needed,-z,norelro,-z,now,-lgomp,-lpthread -c /tmp/portage/dev-libs/libedit-20191211.3.1/work/libedit-20191211-3.1/src/keymacro.c  -fPIC -DPIC -o .libs/keymacro.o
libtool: compile:  x86_64-pc-linux-gnu-gcc -DHAVE_CONFIG_H -I. -I/tmp/portage/dev-libs/libedit-20191211.3.1/work/libedit-20191211-3.1/src -I.. -march=znver2 -Ofast -pipe -g0 -fno-common -fgraphite-identity -floop-interchange -floop-nest-optimize -floop-parallelize-all -ftree-parallelize-loops=12 -ftree-vectorize -fdevirtualize-at-ltrans -fipa-pta -fno-semantic-interposition -flto=12 -fno-plt -falign-functions=32 -fno-stack-protector -fno-stack-clash-protection -fstack-check=no -fno-stack-check -fuse-linker-plugin -Wl,-O1,--sort-common,--as-needed,-z,norelro,-z,now,-lgomp,-lpthread -c /tmp/portage/dev-libs/libedit-20191211.3.1/work/libedit-20191211-3.1/src/hist.c  -fPIC -DPIC -o .libs/hist.o
libtool: compile:  x86_64-pc-linux-gnu-gcc -DHAVE_CONFIG_H -I. -I/tmp/portage/dev-libs/libedit-20191211.3.1/work/libedit-20191211-3.1/src -I.. -march=znver2 -Ofast -pipe -g0 -fno-common -fgraphite-identity -floop-interchange -floop-nest-optimize -floop-parallelize-all -ftree-parallelize-loops=12 -ftree-vectorize -fdevirtualize-at-ltrans -fipa-pta -fno-semantic-interposition -flto=12 -fno-plt -falign-functions=32 -fno-stack-protector -fno-stack-clash-protection -fstack-check=no -fno-stack-check -fuse-linker-plugin -Wl,-O1,--sort-common,--as-needed,-z,norelro,-z,now,-lgomp,-lpthread -c /tmp/portage/dev-libs/libedit-20191211.3.1/work/libedit-20191211-3.1/src/read.c  -fPIC -DPIC -o .libs/read.o
libtool: compile:  x86_64-pc-linux-gnu-gcc -DHAVE_CONFIG_H -I. -I/tmp/portage/dev-libs/libedit-20191211.3.1/work/libedit-20191211-3.1/src -I.. -march=znver2 -Ofast -pipe -g0 -fno-common -fgraphite-identity -floop-interchange -floop-nest-optimize -floop-parallelize-all -ftree-parallelize-loops=12 -ftree-vectorize -fdevirtualize-at-ltrans -fipa-pta -fno-semantic-interposition -flto=12 -fno-plt -falign-functions=32 -fno-stack-protector -fno-stack-clash-protection -fstack-check=no -fno-stack-check -fuse-linker-plugin -Wl,-O1,--sort-common,--as-needed,-z,norelro,-z,now,-lgomp,-lpthread -c /tmp/portage/dev-libs/libedit-20191211.3.1/work/libedit-20191211-3.1/src/chartype.c  -fPIC -DPIC -o .libs/chartype.o
libtool: compile:  x86_64-pc-linux-gnu-gcc -DHAVE_CONFIG_H -I. -I/tmp/portage/dev-libs/libedit-20191211.3.1/work/libedit-20191211-3.1/src -I.. -march=znver2 -Ofast -pipe -g0 -fno-common -fgraphite-identity -floop-interchange -floop-nest-optimize -floop-parallelize-all -ftree-parallelize-loops=12 -ftree-vectorize -fdevirtualize-at-ltrans -fipa-pta -fno-semantic-interposition -flto=12 -fno-plt -falign-functions=32 -fno-stack-protector -fno-stack-clash-protection -fstack-check=no -fno-stack-check -fuse-linker-plugin -Wl,-O1,--sort-common,--as-needed,-z,norelro,-z,now,-lgomp,-lpthread -c /tmp/portage/dev-libs/libedit-20191211.3.1/work/libedit-20191211-3.1/src/prompt.c  -fPIC -DPIC -o .libs/prompt.o
/bin/sh ../libtool  --tag=CC   --mode=compile x86_64-pc-linux-gnu-gcc -DHAVE_CONFIG_H -I. -I/tmp/portage/dev-libs/libedit-20191211.3.1/work/libedit-20191211-3.1/src -I..     -march=znver2 -Ofast -pipe -g0 -fno-common -fgraphite-identity -floop-interchange -floop-nest-optimize -floop-parallelize-all -ftree-parallelize-loops=12 -ftree-vectorize -fdevirtualize-at-ltrans -fipa-pta -fno-semantic-interposition -flto=12 -fno-plt -falign-functions=32 -fno-stack-protector -fno-stack-clash-protection -fstack-check=no -fno-stack-check -fuse-linker-plugin -Wl,-O1,--sort-common,--as-needed,-z,norelro,-z,now,-lgomp,-lpthread -c -o refresh.lo /tmp/portage/dev-libs/libedit-20191211.3.1/work/libedit-20191211-3.1/src/refresh.c
/bin/sh ../libtool  --tag=CC   --mode=compile x86_64-pc-linux-gnu-gcc -DHAVE_CONFIG_H -I. -I/tmp/portage/dev-libs/libedit-20191211.3.1/work/libedit-20191211-3.1/src -I..     -march=znver2 -Ofast -pipe -g0 -fno-common -fgraphite-identity -floop-interchange -floop-nest-optimize -floop-parallelize-all -ftree-parallelize-loops=12 -ftree-vectorize -fdevirtualize-at-ltrans -fipa-pta -fno-semantic-interposition -flto=12 -fno-plt -falign-functions=32 -fno-stack-protector -fno-stack-clash-protection -fstack-check=no -fno-stack-check -fuse-linker-plugin -Wl,-O1,--sort-common,--as-needed,-z,norelro,-z,now,-lgomp,-lpthread -c -o search.lo /tmp/portage/dev-libs/libedit-20191211.3.1/work/libedit-20191211-3.1/src/search.c
/bin/sh ../libtool  --tag=CC   --mode=compile x86_64-pc-linux-gnu-gcc -DHAVE_CONFIG_H -I. -I/tmp/portage/dev-libs/libedit-20191211.3.1/work/libedit-20191211-3.1/src -I..     -march=znver2 -Ofast -pipe -g0 -fno-common -fgraphite-identity -floop-interchange -floop-nest-optimize -floop-parallelize-all -ftree-parallelize-loops=12 -ftree-vectorize -fdevirtualize-at-ltrans -fipa-pta -fno-semantic-interposition -flto=12 -fno-plt -falign-functions=32 -fno-stack-protector -fno-stack-clash-protection -fstack-check=no -fno-stack-check -fuse-linker-plugin -Wl,-O1,--sort-common,--as-needed,-z,norelro,-z,now,-lgomp,-lpthread -c -o sig.lo /tmp/portage/dev-libs/libedit-20191211.3.1/work/libedit-20191211-3.1/src/sig.c
/bin/sh ../libtool  --tag=CC   --mode=compile x86_64-pc-linux-gnu-gcc -DHAVE_CONFIG_H -I. -I/tmp/portage/dev-libs/libedit-20191211.3.1/work/libedit-20191211-3.1/src -I..     -march=znver2 -Ofast -pipe -g0 -fno-common -fgraphite-identity -floop-interchange -floop-nest-optimize -floop-parallelize-all -ftree-parallelize-loops=12 -ftree-vectorize -fdevirtualize-at-ltrans -fipa-pta -fno-semantic-interposition -flto=12 -fno-plt -falign-functions=32 -fno-stack-protector -fno-stack-clash-protection -fstack-check=no -fno-stack-check -fuse-linker-plugin -Wl,-O1,--sort-common,--as-needed,-z,norelro,-z,now,-lgomp,-lpthread -c -o terminal.lo /tmp/portage/dev-libs/libedit-20191211.3.1/work/libedit-20191211-3.1/src/terminal.c
/bin/sh ../libtool  --tag=CC   --mode=compile x86_64-pc-linux-gnu-gcc -DHAVE_CONFIG_H -I. -I/tmp/portage/dev-libs/libedit-20191211.3.1/work/libedit-20191211-3.1/src -I..     -march=znver2 -Ofast -pipe -g0 -fno-common -fgraphite-identity -floop-interchange -floop-nest-optimize -floop-parallelize-all -ftree-parallelize-loops=12 -ftree-vectorize -fdevirtualize-at-ltrans -fipa-pta -fno-semantic-interposition -flto=12 -fno-plt -falign-functions=32 -fno-stack-protector -fno-stack-clash-protection -fstack-check=no -fno-stack-check -fuse-linker-plugin -Wl,-O1,--sort-common,--as-needed,-z,norelro,-z,now,-lgomp,-lpthread -c -o tty.lo /tmp/portage/dev-libs/libedit-20191211.3.1/work/libedit-20191211-3.1/src/tty.c
/bin/sh ../libtool  --tag=CC   --mode=compile x86_64-pc-linux-gnu-gcc -DHAVE_CONFIG_H -I. -I/tmp/portage/dev-libs/libedit-20191211.3.1/work/libedit-20191211-3.1/src -I..     -march=znver2 -Ofast -pipe -g0 -fno-common -fgraphite-identity -floop-interchange -floop-nest-optimize -floop-parallelize-all -ftree-parallelize-loops=12 -ftree-vectorize -fdevirtualize-at-ltrans -fipa-pta -fno-semantic-interposition -flto=12 -fno-plt -falign-functions=32 -fno-stack-protector -fno-stack-clash-protection -fstack-check=no -fno-stack-check -fuse-linker-plugin -Wl,-O1,--sort-common,--as-needed,-z,norelro,-z,now,-lgomp,-lpthread -c -o vi.lo /tmp/portage/dev-libs/libedit-20191211.3.1/work/libedit-20191211-3.1/src/vi.c
/bin/sh ../libtool  --tag=CC   --mode=compile x86_64-pc-linux-gnu-gcc -DHAVE_CONFIG_H -I. -I/tmp/portage/dev-libs/libedit-20191211.3.1/work/libedit-20191211-3.1/src -I..     -march=znver2 -Ofast -pipe -g0 -fno-common -fgraphite-identity -floop-interchange -floop-nest-optimize -floop-parallelize-all -ftree-parallelize-loops=12 -ftree-vectorize -fdevirtualize-at-ltrans -fipa-pta -fno-semantic-interposition -flto=12 -fno-plt -falign-functions=32 -fno-stack-protector -fno-stack-clash-protection -fstack-check=no -fno-stack-check -fuse-linker-plugin -Wl,-O1,--sort-common,--as-needed,-z,norelro,-z,now,-lgomp,-lpthread -c -o wcsdup.lo /tmp/portage/dev-libs/libedit-20191211.3.1/work/libedit-20191211-3.1/src/wcsdup.c
/bin/sh ../libtool  --tag=CC   --mode=compile x86_64-pc-linux-gnu-gcc -DHAVE_CONFIG_H -I. -I/tmp/portage/dev-libs/libedit-20191211.3.1/work/libedit-20191211-3.1/src -I..     -march=znver2 -Ofast -pipe -g0 -fno-common -fgraphite-identity -floop-interchange -floop-nest-optimize -floop-parallelize-all -ftree-parallelize-loops=12 -ftree-vectorize -fdevirtualize-at-ltrans -fipa-pta -fno-semantic-interposition -flto=12 -fno-plt -falign-functions=32 -fno-stack-protector -fno-stack-clash-protection -fstack-check=no -fno-stack-check -fuse-linker-plugin -Wl,-O1,--sort-common,--as-needed,-z,norelro,-z,now,-lgomp,-lpthread -c -o tokenizer.lo /tmp/portage/dev-libs/libedit-20191211.3.1/work/libedit-20191211-3.1/src/tokenizer.c
/bin/sh ../libtool  --tag=CC   --mode=compile x86_64-pc-linux-gnu-gcc -DHAVE_CONFIG_H -I. -I/tmp/portage/dev-libs/libedit-20191211.3.1/work/libedit-20191211-3.1/src -I..     -march=znver2 -Ofast -pipe -g0 -fno-common -fgraphite-identity -floop-interchange -floop-nest-optimize -floop-parallelize-all -ftree-parallelize-loops=12 -ftree-vectorize -fdevirtualize-at-ltrans -fipa-pta -fno-semantic-interposition -flto=12 -fno-plt -falign-functions=32 -fno-stack-protector -fno-stack-clash-protection -fstack-check=no -fno-stack-check -fuse-linker-plugin -Wl,-O1,--sort-common,--as-needed,-z,norelro,-z,now,-lgomp,-lpthread -c -o tokenizern.lo /tmp/portage/dev-libs/libedit-20191211.3.1/work/libedit-20191211-3.1/src/tokenizern.c
/bin/sh ../libtool  --tag=CC   --mode=compile x86_64-pc-linux-gnu-gcc -DHAVE_CONFIG_H -I. -I/tmp/portage/dev-libs/libedit-20191211.3.1/work/libedit-20191211-3.1/src -I..     -march=znver2 -Ofast -pipe -g0 -fno-common -fgraphite-identity -floop-interchange -floop-nest-optimize -floop-parallelize-all -ftree-parallelize-loops=12 -ftree-vectorize -fdevirtualize-at-ltrans -fipa-pta -fno-semantic-interposition -flto=12 -fno-plt -falign-functions=32 -fno-stack-protector -fno-stack-clash-protection -fstack-check=no -fno-stack-check -fuse-linker-plugin -Wl,-O1,--sort-common,--as-needed,-z,norelro,-z,now,-lgomp,-lpthread -c -o history.lo /tmp/portage/dev-libs/libedit-20191211.3.1/work/libedit-20191211-3.1/src/history.c
/bin/sh ../libtool  --tag=CC   --mode=compile x86_64-pc-linux-gnu-gcc -DHAVE_CONFIG_H -I. -I/tmp/portage/dev-libs/libedit-20191211.3.1/work/libedit-20191211-3.1/src -I..     -march=znver2 -Ofast -pipe -g0 -fno-common -fgraphite-identity -floop-interchange -floop-nest-optimize -floop-parallelize-all -ftree-parallelize-loops=12 -ftree-vectorize -fdevirtualize-at-ltrans -fipa-pta -fno-semantic-interposition -flto=12 -fno-plt -falign-functions=32 -fno-stack-protector -fno-stack-clash-protection -fstack-check=no -fno-stack-check -fuse-linker-plugin -Wl,-O1,--sort-common,--as-needed,-z,norelro,-z,now,-lgomp,-lpthread -c -o historyn.lo /tmp/portage/dev-libs/libedit-20191211.3.1/work/libedit-20191211-3.1/src/historyn.c
/bin/sh ../libtool  --tag=CC   --mode=compile x86_64-pc-linux-gnu-gcc -DHAVE_CONFIG_H -I. -I/tmp/portage/dev-libs/libedit-20191211.3.1/work/libedit-20191211-3.1/src -I..     -march=znver2 -Ofast -pipe -g0 -fno-common -fgraphite-identity -floop-interchange -floop-nest-optimize -floop-parallelize-all -ftree-parallelize-loops=12 -ftree-vectorize -fdevirtualize-at-ltrans -fipa-pta -fno-semantic-interposition -flto=12 -fno-plt -falign-functions=32 -fno-stack-protector -fno-stack-clash-protection -fstack-check=no -fno-stack-check -fuse-linker-plugin -Wl,-O1,--sort-common,--as-needed,-z,norelro,-z,now,-lgomp,-lpthread -c -o filecomplete.lo /tmp/portage/dev-libs/libedit-20191211.3.1/work/libedit-20191211-3.1/src/filecomplete.c
libtool: compile:  x86_64-pc-linux-gnu-gcc -DHAVE_CONFIG_H -I. -I/tmp/portage/dev-libs/libedit-20191211.3.1/work/libedit-20191211-3.1/src -I.. -march=znver2 -Ofast -pipe -g0 -fno-common -fgraphite-identity -floop-interchange -floop-nest-optimize -floop-parallelize-all -ftree-parallelize-loops=12 -ftree-vectorize -fdevirtualize-at-ltrans -fipa-pta -fno-semantic-interposition -flto=12 -fno-plt -falign-functions=32 -fno-stack-protector -fno-stack-clash-protection -fstack-check=no -fno-stack-check -fuse-linker-plugin -Wl,-O1,--sort-common,--as-needed,-z,norelro,-z,now,-lgomp,-lpthread -c /tmp/portage/dev-libs/libedit-20191211.3.1/work/libedit-20191211-3.1/src/search.c  -fPIC -DPIC -o .libs/search.o
libtool: compile:  x86_64-pc-linux-gnu-gcc -DHAVE_CONFIG_H -I. -I/tmp/portage/dev-libs/libedit-20191211.3.1/work/libedit-20191211-3.1/src -I.. -march=znver2 -Ofast -pipe -g0 -fno-common -fgraphite-identity -floop-interchange -floop-nest-optimize -floop-parallelize-all -ftree-parallelize-loops=12 -ftree-vectorize -fdevirtualize-at-ltrans -fipa-pta -fno-semantic-interposition -flto=12 -fno-plt -falign-functions=32 -fno-stack-protector -fno-stack-clash-protection -fstack-check=no -fno-stack-check -fuse-linker-plugin -Wl,-O1,--sort-common,--as-needed,-z,norelro,-z,now,-lgomp,-lpthread -c /tmp/portage/dev-libs/libedit-20191211.3.1/work/libedit-20191211-3.1/src/refresh.c  -fPIC -DPIC -o .libs/refresh.o
libtool: compile:  x86_64-pc-linux-gnu-gcc -DHAVE_CONFIG_H -I. -I/tmp/portage/dev-libs/libedit-20191211.3.1/work/libedit-20191211-3.1/src -I.. -march=znver2 -Ofast -pipe -g0 -fno-common -fgraphite-identity -floop-interchange -floop-nest-optimize -floop-parallelize-all -ftree-parallelize-loops=12 -ftree-vectorize -fdevirtualize-at-ltrans -fipa-pta -fno-semantic-interposition -flto=12 -fno-plt -falign-functions=32 -fno-stack-protector -fno-stack-clash-protection -fstack-check=no -fno-stack-check -fuse-linker-plugin -Wl,-O1,--sort-common,--as-needed,-z,norelro,-z,now,-lgomp,-lpthread -c /tmp/portage/dev-libs/libedit-20191211.3.1/work/libedit-20191211-3.1/src/terminal.c  -fPIC -DPIC -o .libs/terminal.o
libtool: compile:  x86_64-pc-linux-gnu-gcc -DHAVE_CONFIG_H -I. -I/tmp/portage/dev-libs/libedit-20191211.3.1/work/libedit-20191211-3.1/src -I.. -march=znver2 -Ofast -pipe -g0 -fno-common -fgraphite-identity -floop-interchange -floop-nest-optimize -floop-parallelize-all -ftree-parallelize-loops=12 -ftree-vectorize -fdevirtualize-at-ltrans -fipa-pta -fno-semantic-interposition -flto=12 -fno-plt -falign-functions=32 -fno-stack-protector -fno-stack-clash-protection -fstack-check=no -fno-stack-check -fuse-linker-plugin -Wl,-O1,--sort-common,--as-needed,-z,norelro,-z,now,-lgomp,-lpthread -c /tmp/portage/dev-libs/libedit-20191211.3.1/work/libedit-20191211-3.1/src/tty.c  -fPIC -DPIC -o .libs/tty.o
libtool: compile:  x86_64-pc-linux-gnu-gcc -DHAVE_CONFIG_H -I. -I/tmp/portage/dev-libs/libedit-20191211.3.1/work/libedit-20191211-3.1/src -I.. -march=znver2 -Ofast -pipe -g0 -fno-common -fgraphite-identity -floop-interchange -floop-nest-optimize -floop-parallelize-all -ftree-parallelize-loops=12 -ftree-vectorize -fdevirtualize-at-ltrans -fipa-pta -fno-semantic-interposition -flto=12 -fno-plt -falign-functions=32 -fno-stack-protector -fno-stack-clash-protection -fstack-check=no -fno-stack-check -fuse-linker-plugin -Wl,-O1,--sort-common,--as-needed,-z,norelro,-z,now,-lgomp,-lpthread -c /tmp/portage/dev-libs/libedit-20191211.3.1/work/libedit-20191211-3.1/src/sig.c  -fPIC -DPIC -o .libs/sig.o
libtool: compile:  x86_64-pc-linux-gnu-gcc -DHAVE_CONFIG_H -I. -I/tmp/portage/dev-libs/libedit-20191211.3.1/work/libedit-20191211-3.1/src -I.. -march=znver2 -Ofast -pipe -g0 -fno-common -fgraphite-identity -floop-interchange -floop-nest-optimize -floop-parallelize-all -ftree-parallelize-loops=12 -ftree-vectorize -fdevirtualize-at-ltrans -fipa-pta -fno-semantic-interposition -flto=12 -fno-plt -falign-functions=32 -fno-stack-protector -fno-stack-clash-protection -fstack-check=no -fno-stack-check -fuse-linker-plugin -Wl,-O1,--sort-common,--as-needed,-z,norelro,-z,now,-lgomp,-lpthread -c /tmp/portage/dev-libs/libedit-20191211.3.1/work/libedit-20191211-3.1/src/history.c  -fPIC -DPIC -o .libs/history.o
libtool: compile:  x86_64-pc-linux-gnu-gcc -DHAVE_CONFIG_H -I. -I/tmp/portage/dev-libs/libedit-20191211.3.1/work/libedit-20191211-3.1/src -I.. -march=znver2 -Ofast -pipe -g0 -fno-common -fgraphite-identity -floop-interchange -floop-nest-optimize -floop-parallelize-all -ftree-parallelize-loops=12 -ftree-vectorize -fdevirtualize-at-ltrans -fipa-pta -fno-semantic-interposition -flto=12 -fno-plt -falign-functions=32 -fno-stack-protector -fno-stack-clash-protection -fstack-check=no -fno-stack-check -fuse-linker-plugin -Wl,-O1,--sort-common,--as-needed,-z,norelro,-z,now,-lgomp,-lpthread -c /tmp/portage/dev-libs/libedit-20191211.3.1/work/libedit-20191211-3.1/src/vi.c  -fPIC -DPIC -o .libs/vi.o
libtool: compile:  x86_64-pc-linux-gnu-gcc -DHAVE_CONFIG_H -I. -I/tmp/portage/dev-libs/libedit-20191211.3.1/work/libedit-20191211-3.1/src -I.. -march=znver2 -Ofast -pipe -g0 -fno-common -fgraphite-identity -floop-interchange -floop-nest-optimize -floop-parallelize-all -ftree-parallelize-loops=12 -ftree-vectorize -fdevirtualize-at-ltrans -fipa-pta -fno-semantic-interposition -flto=12 -fno-plt -falign-functions=32 -fno-stack-protector -fno-stack-clash-protection -fstack-check=no -fno-stack-check -fuse-linker-plugin -Wl,-O1,--sort-common,--as-needed,-z,norelro,-z,now,-lgomp,-lpthread -c /tmp/portage/dev-libs/libedit-20191211.3.1/work/libedit-20191211-3.1/src/filecomplete.c  -fPIC -DPIC -o .libs/filecomplete.o
libtool: compile:  x86_64-pc-linux-gnu-gcc -DHAVE_CONFIG_H -I. -I/tmp/portage/dev-libs/libedit-20191211.3.1/work/libedit-20191211-3.1/src -I.. -march=znver2 -Ofast -pipe -g0 -fno-common -fgraphite-identity -floop-interchange -floop-nest-optimize -floop-parallelize-all -ftree-parallelize-loops=12 -ftree-vectorize -fdevirtualize-at-ltrans -fipa-pta -fno-semantic-interposition -flto=12 -fno-plt -falign-functions=32 -fno-stack-protector -fno-stack-clash-protection -fstack-check=no -fno-stack-check -fuse-linker-plugin -Wl,-O1,--sort-common,--as-needed,-z,norelro,-z,now,-lgomp,-lpthread -c /tmp/portage/dev-libs/libedit-20191211.3.1/work/libedit-20191211-3.1/src/wcsdup.c  -fPIC -DPIC -o .libs/wcsdup.o
libtool: compile:  x86_64-pc-linux-gnu-gcc -DHAVE_CONFIG_H -I. -I/tmp/portage/dev-libs/libedit-20191211.3.1/work/libedit-20191211-3.1/src -I.. -march=znver2 -Ofast -pipe -g0 -fno-common -fgraphite-identity -floop-interchange -floop-nest-optimize -floop-parallelize-all -ftree-parallelize-loops=12 -ftree-vectorize -fdevirtualize-at-ltrans -fipa-pta -fno-semantic-interposition -flto=12 -fno-plt -falign-functions=32 -fno-stack-protector -fno-stack-clash-protection -fstack-check=no -fno-stack-check -fuse-linker-plugin -Wl,-O1,--sort-common,--as-needed,-z,norelro,-z,now,-lgomp,-lpthread -c /tmp/portage/dev-libs/libedit-20191211.3.1/work/libedit-20191211-3.1/src/tokenizer.c  -fPIC -DPIC -o .libs/tokenizer.o
libtool: compile:  x86_64-pc-linux-gnu-gcc -DHAVE_CONFIG_H -I. -I/tmp/portage/dev-libs/libedit-20191211.3.1/work/libedit-20191211-3.1/src -I.. -march=znver2 -Ofast -pipe -g0 -fno-common -fgraphite-identity -floop-interchange -floop-nest-optimize -floop-parallelize-all -ftree-parallelize-loops=12 -ftree-vectorize -fdevirtualize-at-ltrans -fipa-pta -fno-semantic-interposition -flto=12 -fno-plt -falign-functions=32 -fno-stack-protector -fno-stack-clash-protection -fstack-check=no -fno-stack-check -fuse-linker-plugin -Wl,-O1,--sort-common,--as-needed,-z,norelro,-z,now,-lgomp,-lpthread -c /tmp/portage/dev-libs/libedit-20191211.3.1/work/libedit-20191211-3.1/src/historyn.c  -fPIC -DPIC -o .libs/historyn.o
libtool: compile:  x86_64-pc-linux-gnu-gcc -DHAVE_CONFIG_H -I. -I/tmp/portage/dev-libs/libedit-20191211.3.1/work/libedit-20191211-3.1/src -I.. -march=znver2 -Ofast -pipe -g0 -fno-common -fgraphite-identity -floop-interchange -floop-nest-optimize -floop-parallelize-all -ftree-parallelize-loops=12 -ftree-vectorize -fdevirtualize-at-ltrans -fipa-pta -fno-semantic-interposition -flto=12 -fno-plt -falign-functions=32 -fno-stack-protector -fno-stack-clash-protection -fstack-check=no -fno-stack-check -fuse-linker-plugin -Wl,-O1,--sort-common,--as-needed,-z,norelro,-z,now,-lgomp,-lpthread -c /tmp/portage/dev-libs/libedit-20191211.3.1/work/libedit-20191211-3.1/src/tokenizern.c  -fPIC -DPIC -o .libs/tokenizern.o
/bin/sh ../libtool  --tag=CC   --mode=compile x86_64-pc-linux-gnu-gcc -DHAVE_CONFIG_H -I. -I/tmp/portage/dev-libs/libedit-20191211.3.1/work/libedit-20191211-3.1/src -I..     -march=znver2 -Ofast -pipe -g0 -fno-common -fgraphite-identity -floop-interchange -floop-nest-optimize -floop-parallelize-all -ftree-parallelize-loops=12 -ftree-vectorize -fdevirtualize-at-ltrans -fipa-pta -fno-semantic-interposition -flto=12 -fno-plt -falign-functions=32 -fno-stack-protector -fno-stack-clash-protection -fstack-check=no -fno-stack-check -fuse-linker-plugin -Wl,-O1,--sort-common,--as-needed,-z,norelro,-z,now,-lgomp,-lpthread -c -o readline.lo /tmp/portage/dev-libs/libedit-20191211.3.1/work/libedit-20191211-3.1/src/readline.c
/bin/sh ../libtool  --tag=CC   --mode=compile x86_64-pc-linux-gnu-gcc -DHAVE_CONFIG_H -I. -I/tmp/portage/dev-libs/libedit-20191211.3.1/work/libedit-20191211-3.1/src -I..     -march=znver2 -Ofast -pipe -g0 -fno-common -fgraphite-identity -floop-interchange -floop-nest-optimize -floop-parallelize-all -ftree-parallelize-loops=12 -ftree-vectorize -fdevirtualize-at-ltrans -fipa-pta -fno-semantic-interposition -flto=12 -fno-plt -falign-functions=32 -fno-stack-protector -fno-stack-clash-protection -fstack-check=no -fno-stack-check -fuse-linker-plugin -Wl,-O1,--sort-common,--as-needed,-z,norelro,-z,now,-lgomp,-lpthread -c -o literal.lo /tmp/portage/dev-libs/libedit-20191211.3.1/work/libedit-20191211-3.1/src/literal.c
/bin/sh ../libtool  --tag=CC   --mode=compile x86_64-pc-linux-gnu-gcc -DHAVE_CONFIG_H -I. -I/tmp/portage/dev-libs/libedit-20191211.3.1/work/libedit-20191211-3.1/src -I..     -march=znver2 -Ofast -pipe -g0 -fno-common -fgraphite-identity -floop-interchange -floop-nest-optimize -floop-parallelize-all -ftree-parallelize-loops=12 -ftree-vectorize -fdevirtualize-at-ltrans -fipa-pta -fno-semantic-interposition -flto=12 -fno-plt -falign-functions=32 -fno-stack-protector -fno-stack-clash-protection -fstack-check=no -fno-stack-check -fuse-linker-plugin -Wl,-O1,--sort-common,--as-needed,-z,norelro,-z,now,-lgomp,-lpthread -c -o strlcpy.lo /tmp/portage/dev-libs/libedit-20191211.3.1/work/libedit-20191211-3.1/src/strlcpy.c
/bin/sh ../libtool  --tag=CC   --mode=compile x86_64-pc-linux-gnu-gcc -DHAVE_CONFIG_H -I. -I/tmp/portage/dev-libs/libedit-20191211.3.1/work/libedit-20191211-3.1/src -I..     -march=znver2 -Ofast -pipe -g0 -fno-common -fgraphite-identity -floop-interchange -floop-nest-optimize -floop-parallelize-all -ftree-parallelize-loops=12 -ftree-vectorize -fdevirtualize-at-ltrans -fipa-pta -fno-semantic-interposition -flto=12 -fno-plt -falign-functions=32 -fno-stack-protector -fno-stack-clash-protection -fstack-check=no -fno-stack-check -fuse-linker-plugin -Wl,-O1,--sort-common,--as-needed,-z,norelro,-z,now,-lgomp,-lpthread -c -o strlcat.lo /tmp/portage/dev-libs/libedit-20191211.3.1/work/libedit-20191211-3.1/src/strlcat.c
/bin/sh ../libtool  --tag=CC   --mode=compile x86_64-pc-linux-gnu-gcc -DHAVE_CONFIG_H -I. -I/tmp/portage/dev-libs/libedit-20191211.3.1/work/libedit-20191211-3.1/src -I..     -march=znver2 -Ofast -pipe -g0 -fno-common -fgraphite-identity -floop-interchange -floop-nest-optimize -floop-parallelize-all -ftree-parallelize-loops=12 -ftree-vectorize -fdevirtualize-at-ltrans -fipa-pta -fno-semantic-interposition -flto=12 -fno-plt -falign-functions=32 -fno-stack-protector -fno-stack-clash-protection -fstack-check=no -fno-stack-check -fuse-linker-plugin -Wl,-O1,--sort-common,--as-needed,-z,norelro,-z,now,-lgomp,-lpthread -c -o vis.lo /tmp/portage/dev-libs/libedit-20191211.3.1/work/libedit-20191211-3.1/src/vis.c
/bin/sh ../libtool  --tag=CC   --mode=compile x86_64-pc-linux-gnu-gcc -DHAVE_CONFIG_H -I. -I/tmp/portage/dev-libs/libedit-20191211.3.1/work/libedit-20191211-3.1/src -I..     -march=znver2 -Ofast -pipe -g0 -fno-common -fgraphite-identity -floop-interchange -floop-nest-optimize -floop-parallelize-all -ftree-parallelize-loops=12 -ftree-vectorize -fdevirtualize-at-ltrans -fipa-pta -fno-semantic-interposition -flto=12 -fno-plt -falign-functions=32 -fno-stack-protector -fno-stack-clash-protection -fstack-check=no -fno-stack-check -fuse-linker-plugin -Wl,-O1,--sort-common,--as-needed,-z,norelro,-z,now,-lgomp,-lpthread -c -o unvis.lo /tmp/portage/dev-libs/libedit-20191211.3.1/work/libedit-20191211-3.1/src/unvis.c
libtool: compile:  x86_64-pc-linux-gnu-gcc -DHAVE_CONFIG_H -I. -I/tmp/portage/dev-libs/libedit-20191211.3.1/work/libedit-20191211-3.1/src -I.. -march=znver2 -Ofast -pipe -g0 -fno-common -fgraphite-identity -floop-interchange -floop-nest-optimize -floop-parallelize-all -ftree-parallelize-loops=12 -ftree-vectorize -fdevirtualize-at-ltrans -fipa-pta -fno-semantic-interposition -flto=12 -fno-plt -falign-functions=32 -fno-stack-protector -fno-stack-clash-protection -fstack-check=no -fno-stack-check -fuse-linker-plugin -Wl,-O1,--sort-common,--as-needed,-z,norelro,-z,now,-lgomp,-lpthread -c /tmp/portage/dev-libs/libedit-20191211.3.1/work/libedit-20191211-3.1/src/readline.c  -fPIC -DPIC -o .libs/readline.o
libtool: compile:  x86_64-pc-linux-gnu-gcc -DHAVE_CONFIG_H -I. -I/tmp/portage/dev-libs/libedit-20191211.3.1/work/libedit-20191211-3.1/src -I.. -march=znver2 -Ofast -pipe -g0 -fno-common -fgraphite-identity -floop-interchange -floop-nest-optimize -floop-parallelize-all -ftree-parallelize-loops=12 -ftree-vectorize -fdevirtualize-at-ltrans -fipa-pta -fno-semantic-interposition -flto=12 -fno-plt -falign-functions=32 -fno-stack-protector -fno-stack-clash-protection -fstack-check=no -fno-stack-check -fuse-linker-plugin -Wl,-O1,--sort-common,--as-needed,-z,norelro,-z,now,-lgomp,-lpthread -c /tmp/portage/dev-libs/libedit-20191211.3.1/work/libedit-20191211-3.1/src/literal.c  -fPIC -DPIC -o .libs/literal.o
libtool: compile:  x86_64-pc-linux-gnu-gcc -DHAVE_CONFIG_H -I. -I/tmp/portage/dev-libs/libedit-20191211.3.1/work/libedit-20191211-3.1/src -I.. -march=znver2 -Ofast -pipe -g0 -fno-common -fgraphite-identity -floop-interchange -floop-nest-optimize -floop-parallelize-all -ftree-parallelize-loops=12 -ftree-vectorize -fdevirtualize-at-ltrans -fipa-pta -fno-semantic-interposition -flto=12 -fno-plt -falign-functions=32 -fno-stack-protector -fno-stack-clash-protection -fstack-check=no -fno-stack-check -fuse-linker-plugin -Wl,-O1,--sort-common,--as-needed,-z,norelro,-z,now,-lgomp,-lpthread -c /tmp/portage/dev-libs/libedit-20191211.3.1/work/libedit-20191211-3.1/src/vis.c  -fPIC -DPIC -o .libs/vis.o
libtool: compile:  x86_64-pc-linux-gnu-gcc -DHAVE_CONFIG_H -I. -I/tmp/portage/dev-libs/libedit-20191211.3.1/work/libedit-20191211-3.1/src -I.. -march=znver2 -Ofast -pipe -g0 -fno-common -fgraphite-identity -floop-interchange -floop-nest-optimize -floop-parallelize-all -ftree-parallelize-loops=12 -ftree-vectorize -fdevirtualize-at-ltrans -fipa-pta -fno-semantic-interposition -flto=12 -fno-plt -falign-functions=32 -fno-stack-protector -fno-stack-clash-protection -fstack-check=no -fno-stack-check -fuse-linker-plugin -Wl,-O1,--sort-common,--as-needed,-z,norelro,-z,now,-lgomp,-lpthread -c /tmp/portage/dev-libs/libedit-20191211.3.1/work/libedit-20191211-3.1/src/strlcpy.c  -fPIC -DPIC -o .libs/strlcpy.o
libtool: compile:  x86_64-pc-linux-gnu-gcc -DHAVE_CONFIG_H -I. -I/tmp/portage/dev-libs/libedit-20191211.3.1/work/libedit-20191211-3.1/src -I.. -march=znver2 -Ofast -pipe -g0 -fno-common -fgraphite-identity -floop-interchange -floop-nest-optimize -floop-parallelize-all -ftree-parallelize-loops=12 -ftree-vectorize -fdevirtualize-at-ltrans -fipa-pta -fno-semantic-interposition -flto=12 -fno-plt -falign-functions=32 -fno-stack-protector -fno-stack-clash-protection -fstack-check=no -fno-stack-check -fuse-linker-plugin -Wl,-O1,--sort-common,--as-needed,-z,norelro,-z,now,-lgomp,-lpthread -c /tmp/portage/dev-libs/libedit-20191211.3.1/work/libedit-20191211-3.1/src/strlcat.c  -fPIC -DPIC -o .libs/strlcat.o
libtool: compile:  x86_64-pc-linux-gnu-gcc -DHAVE_CONFIG_H -I. -I/tmp/portage/dev-libs/libedit-20191211.3.1/work/libedit-20191211-3.1/src -I.. -march=znver2 -Ofast -pipe -g0 -fno-common -fgraphite-identity -floop-interchange -floop-nest-optimize -floop-parallelize-all -ftree-parallelize-loops=12 -ftree-vectorize -fdevirtualize-at-ltrans -fipa-pta -fno-semantic-interposition -flto=12 -fno-plt -falign-functions=32 -fno-stack-protector -fno-stack-clash-protection -fstack-check=no -fno-stack-check -fuse-linker-plugin -Wl,-O1,--sort-common,--as-needed,-z,norelro,-z,now,-lgomp,-lpthread -c /tmp/portage/dev-libs/libedit-20191211.3.1/work/libedit-20191211-3.1/src/unvis.c  -fPIC -DPIC -o .libs/unvis.o
/bin/sh ../libtool  --tag=CC   --mode=link x86_64-pc-linux-gnu-gcc  -march=znver2 -Ofast -pipe -g0 -fno-common -fgraphite-identity -floop-interchange -floop-nest-optimize -floop-parallelize-all -ftree-parallelize-loops=12 -ftree-vectorize -fdevirtualize-at-ltrans -fipa-pta -fno-semantic-interposition -flto=12 -fno-plt -falign-functions=32 -fno-stack-protector -fno-stack-clash-protection -fstack-check=no -fno-stack-check -fuse-linker-plugin -Wl,-O1,--sort-common,--as-needed,-z,norelro,-z,now,-lgomp,-lpthread -no-undefined -version-info 0:62:0 -Wl,-O1,--sort-common,--as-needed,-z,norelro,-z,now,-lgomp,-lpthread -march=znver2 -Ofast -pipe -g0 -fno-common -fgraphite-identity -floop-interchange -floop-nest-optimize -floop-parallelize-all -ftree-parallelize-loops=12 -ftree-vectorize -fdevirtualize-at-ltrans -fipa-pta -fno-semantic-interposition -flto=12 -fno-plt -falign-functions=32 -fno-stack-protector -fno-stack-clash-protection -fstack-check=no -fno-stack-check -fuse-linker-plugin -o libedit.la -rpath /usr/lib64 chared.lo common.lo el.lo eln.lo emacs.lo hist.lo keymacro.lo map.lo chartype.lo parse.lo prompt.lo read.lo refresh.lo search.lo sig.lo terminal.lo tty.lo vi.lo wcsdup.lo tokenizer.lo tokenizern.lo history.lo historyn.lo filecomplete.lo readline.lo literal.lo strlcpy.lo strlcat.lo vis.lo unvis.lo   -ltinfo 
libtool: link: x86_64-pc-linux-gnu-gcc -shared  -fPIC -DPIC  .libs/chared.o .libs/common.o .libs/el.o .libs/eln.o .libs/emacs.o .libs/hist.o .libs/keymacro.o .libs/map.o .libs/chartype.o .libs/parse.o .libs/prompt.o .libs/read.o .libs/refresh.o .libs/search.o .libs/sig.o .libs/terminal.o .libs/tty.o .libs/vi.o .libs/wcsdup.o .libs/tokenizer.o .libs/tokenizern.o .libs/history.o .libs/historyn.o .libs/filecomplete.o .libs/readline.o .libs/literal.o .libs/strlcpy.o .libs/strlcat.o .libs/vis.o .libs/unvis.o   -ltinfo  -march=znver2 -Ofast -g0 -flto=12 -fuse-linker-plugin -Wl,-O1 -Wl,--sort-common -Wl,--as-needed -Wl,-z -Wl,norelro -Wl,-z -Wl,now -Wl,-lgomp -Wl,-lpthread -Wl,-O1 -Wl,--sort-common -Wl,--as-needed -Wl,-z -Wl,norelro -Wl,-z -Wl,now -Wl,-lgomp -Wl,-lpthread -march=znver2 -Ofast -g0 -flto=12 -fuse-linker-plugin   -Wl,-soname -Wl,libedit.so.0 -o .libs/libedit.so.0.0.62
libtool: link: (cd ".libs" && rm -f "libedit.so.0" && ln -s "libedit.so.0.0.62" "libedit.so.0")
libtool: link: (cd ".libs" && rm -f "libedit.so" && ln -s "libedit.so.0.0.62" "libedit.so")
libtool: link: ( cd ".libs" && rm -f "libedit.la" && ln -s "../libedit.la" "libedit.la" )
make[3]: Leaving directory '/tmp/portage/dev-libs/libedit-20191211.3.1/work/libedit-20191211-3.1-abi_x86_64.amd64/src'
make[2]: Leaving directory '/tmp/portage/dev-libs/libedit-20191211.3.1/work/libedit-20191211-3.1-abi_x86_64.amd64/src'
Making all in examples
make[2]: Entering directory '/tmp/portage/dev-libs/libedit-20191211.3.1/work/libedit-20191211-3.1-abi_x86_64.amd64/examples'
x86_64-pc-linux-gnu-gcc -DHAVE_CONFIG_H -I. -I/tmp/portage/dev-libs/libedit-20191211.3.1/work/libedit-20191211-3.1/examples -I..    -I/tmp/portage/dev-libs/libedit-20191211.3.1/work/libedit-20191211-3.1/src -march=znver2 -Ofast -pipe -g0 -fno-common -fgraphite-identity -floop-interchange -floop-nest-optimize -floop-parallelize-all -ftree-parallelize-loops=12 -ftree-vectorize -fdevirtualize-at-ltrans -fipa-pta -fno-semantic-interposition -flto=12 -fno-plt -falign-functions=32 -fno-stack-protector -fno-stack-clash-protection -fstack-check=no -fno-stack-check -fuse-linker-plugin -Wl,-O1,--sort-common,--as-needed,-z,norelro,-z,now,-lgomp,-lpthread -c -o tc1.o /tmp/portage/dev-libs/libedit-20191211.3.1/work/libedit-20191211-3.1/examples/tc1.c
x86_64-pc-linux-gnu-gcc -DHAVE_CONFIG_H -I. -I/tmp/portage/dev-libs/libedit-20191211.3.1/work/libedit-20191211-3.1/examples -I..    -I/tmp/portage/dev-libs/libedit-20191211.3.1/work/libedit-20191211-3.1/src -march=znver2 -Ofast -pipe -g0 -fno-common -fgraphite-identity -floop-interchange -floop-nest-optimize -floop-parallelize-all -ftree-parallelize-loops=12 -ftree-vectorize -fdevirtualize-at-ltrans -fipa-pta -fno-semantic-interposition -flto=12 -fno-plt -falign-functions=32 -fno-stack-protector -fno-stack-clash-protection -fstack-check=no -fno-stack-check -fuse-linker-plugin -Wl,-O1,--sort-common,--as-needed,-z,norelro,-z,now,-lgomp,-lpthread -c -o fileman.o /tmp/portage/dev-libs/libedit-20191211.3.1/work/libedit-20191211-3.1/examples/fileman.c
x86_64-pc-linux-gnu-gcc -DHAVE_CONFIG_H -I. -I/tmp/portage/dev-libs/libedit-20191211.3.1/work/libedit-20191211-3.1/examples -I..    -I/tmp/portage/dev-libs/libedit-20191211.3.1/work/libedit-20191211-3.1/src -march=znver2 -Ofast -pipe -g0 -fno-common -fgraphite-identity -floop-interchange -floop-nest-optimize -floop-parallelize-all -ftree-parallelize-loops=12 -ftree-vectorize -fdevirtualize-at-ltrans -fipa-pta -fno-semantic-interposition -flto=12 -fno-plt -falign-functions=32 -fno-stack-protector -fno-stack-clash-protection -fstack-check=no -fno-stack-check -fuse-linker-plugin -Wl,-O1,--sort-common,--as-needed,-z,norelro,-z,now,-lgomp,-lpthread -c -o wtc1.o /tmp/portage/dev-libs/libedit-20191211.3.1/work/libedit-20191211-3.1/examples/wtc1.c
/bin/sh ../libtool  --tag=CC   --mode=link x86_64-pc-linux-gnu-gcc -I/tmp/portage/dev-libs/libedit-20191211.3.1/work/libedit-20191211-3.1/src -march=znver2 -Ofast -pipe -g0 -fno-common -fgraphite-identity -floop-interchange -floop-nest-optimize -floop-parallelize-all -ftree-parallelize-loops=12 -ftree-vectorize -fdevirtualize-at-ltrans -fipa-pta -fno-semantic-interposition -flto=12 -fno-plt -falign-functions=32 -fno-stack-protector -fno-stack-clash-protection -fstack-check=no -fno-stack-check -fuse-linker-plugin -Wl,-O1,--sort-common,--as-needed,-z,norelro,-z,now,-lgomp,-lpthread  -Wl,-O1,--sort-common,--as-needed,-z,norelro,-z,now,-lgomp,-lpthread -march=znver2 -Ofast -pipe -g0 -fno-common -fgraphite-identity -floop-interchange -floop-nest-optimize -floop-parallelize-all -ftree-parallelize-loops=12 -ftree-vectorize -fdevirtualize-at-ltrans -fipa-pta -fno-semantic-interposition -flto=12 -fno-plt -falign-functions=32 -fno-stack-protector -fno-stack-clash-protection -fstack-check=no -fno-stack-check -fuse-linker-plugin -o fileman fileman.o ../src/libedit.la -ltinfo 
/bin/sh ../libtool  --tag=CC   --mode=link x86_64-pc-linux-gnu-gcc -I/tmp/portage/dev-libs/libedit-20191211.3.1/work/libedit-20191211-3.1/src -march=znver2 -Ofast -pipe -g0 -fno-common -fgraphite-identity -floop-interchange -floop-nest-optimize -floop-parallelize-all -ftree-parallelize-loops=12 -ftree-vectorize -fdevirtualize-at-ltrans -fipa-pta -fno-semantic-interposition -flto=12 -fno-plt -falign-functions=32 -fno-stack-protector -fno-stack-clash-protection -fstack-check=no -fno-stack-check -fuse-linker-plugin -Wl,-O1,--sort-common,--as-needed,-z,norelro,-z,now,-lgomp,-lpthread  -Wl,-O1,--sort-common,--as-needed,-z,norelro,-z,now,-lgomp,-lpthread -march=znver2 -Ofast -pipe -g0 -fno-common -fgraphite-identity -floop-interchange -floop-nest-optimize -floop-parallelize-all -ftree-parallelize-loops=12 -ftree-vectorize -fdevirtualize-at-ltrans -fipa-pta -fno-semantic-interposition -flto=12 -fno-plt -falign-functions=32 -fno-stack-protector -fno-stack-clash-protection -fstack-check=no -fno-stack-check -fuse-linker-plugin -o tc1 tc1.o ../src/libedit.la -ltinfo 
/bin/sh ../libtool  --tag=CC   --mode=link x86_64-pc-linux-gnu-gcc -I/tmp/portage/dev-libs/libedit-20191211.3.1/work/libedit-20191211-3.1/src -march=znver2 -Ofast -pipe -g0 -fno-common -fgraphite-identity -floop-interchange -floop-nest-optimize -floop-parallelize-all -ftree-parallelize-loops=12 -ftree-vectorize -fdevirtualize-at-ltrans -fipa-pta -fno-semantic-interposition -flto=12 -fno-plt -falign-functions=32 -fno-stack-protector -fno-stack-clash-protection -fstack-check=no -fno-stack-check -fuse-linker-plugin -Wl,-O1,--sort-common,--as-needed,-z,norelro,-z,now,-lgomp,-lpthread  -Wl,-O1,--sort-common,--as-needed,-z,norelro,-z,now,-lgomp,-lpthread -march=znver2 -Ofast -pipe -g0 -fno-common -fgraphite-identity -floop-interchange -floop-nest-optimize -floop-parallelize-all -ftree-parallelize-loops=12 -ftree-vectorize -fdevirtualize-at-ltrans -fipa-pta -fno-semantic-interposition -flto=12 -fno-plt -falign-functions=32 -fno-stack-protector -fno-stack-clash-protection -fstack-check=no -fno-stack-check -fuse-linker-plugin -o wtc1 wtc1.o ../src/libedit.la -ltinfo 
libtool: link: x86_64-pc-linux-gnu-gcc -I/tmp/portage/dev-libs/libedit-20191211.3.1/work/libedit-20191211-3.1/src -march=znver2 -Ofast -pipe -g0 -fno-common -fgraphite-identity -floop-interchange -floop-nest-optimize -floop-parallelize-all -ftree-parallelize-loops=12 -ftree-vectorize -fdevirtualize-at-ltrans -fipa-pta -fno-semantic-interposition -flto=12 -fno-plt -falign-functions=32 -fno-stack-protector -fno-stack-clash-protection -fstack-check=no -fno-stack-check -fuse-linker-plugin -Wl,-O1 -Wl,--sort-common -Wl,--as-needed -Wl,-z -Wl,norelro -Wl,-z -Wl,now -Wl,-lgomp -Wl,-lpthread -Wl,-O1 -Wl,--sort-common -Wl,--as-needed -Wl,-z -Wl,norelro -Wl,-z -Wl,now -Wl,-lgomp -Wl,-lpthread -march=znver2 -Ofast -pipe -g0 -fno-common -fgraphite-identity -floop-interchange -floop-nest-optimize -floop-parallelize-all -ftree-parallelize-loops=12 -ftree-vectorize -fdevirtualize-at-ltrans -fipa-pta -fno-semantic-interposition -flto=12 -fno-plt -falign-functions=32 -fno-stack-protector -fno-stack-clash-protection -fstack-check=no -fno-stack-check -fuse-linker-plugin -o .libs/fileman fileman.o  ../src/.libs/libedit.so -ltinfo
libtool: link: x86_64-pc-linux-gnu-gcc -I/tmp/portage/dev-libs/libedit-20191211.3.1/work/libedit-20191211-3.1/src -march=znver2 -Ofast -pipe -g0 -fno-common -fgraphite-identity -floop-interchange -floop-nest-optimize -floop-parallelize-all -ftree-parallelize-loops=12 -ftree-vectorize -fdevirtualize-at-ltrans -fipa-pta -fno-semantic-interposition -flto=12 -fno-plt -falign-functions=32 -fno-stack-protector -fno-stack-clash-protection -fstack-check=no -fno-stack-check -fuse-linker-plugin -Wl,-O1 -Wl,--sort-common -Wl,--as-needed -Wl,-z -Wl,norelro -Wl,-z -Wl,now -Wl,-lgomp -Wl,-lpthread -Wl,-O1 -Wl,--sort-common -Wl,--as-needed -Wl,-z -Wl,norelro -Wl,-z -Wl,now -Wl,-lgomp -Wl,-lpthread -march=znver2 -Ofast -pipe -g0 -fno-common -fgraphite-identity -floop-interchange -floop-nest-optimize -floop-parallelize-all -ftree-parallelize-loops=12 -ftree-vectorize -fdevirtualize-at-ltrans -fipa-pta -fno-semantic-interposition -flto=12 -fno-plt -falign-functions=32 -fno-stack-protector -fno-stack-clash-protection -fstack-check=no -fno-stack-check -fuse-linker-plugin -o .libs/wtc1 wtc1.o  ../src/.libs/libedit.so -ltinfo
libtool: link: x86_64-pc-linux-gnu-gcc -I/tmp/portage/dev-libs/libedit-20191211.3.1/work/libedit-20191211-3.1/src -march=znver2 -Ofast -pipe -g0 -fno-common -fgraphite-identity -floop-interchange -floop-nest-optimize -floop-parallelize-all -ftree-parallelize-loops=12 -ftree-vectorize -fdevirtualize-at-ltrans -fipa-pta -fno-semantic-interposition -flto=12 -fno-plt -falign-functions=32 -fno-stack-protector -fno-stack-clash-protection -fstack-check=no -fno-stack-check -fuse-linker-plugin -Wl,-O1 -Wl,--sort-common -Wl,--as-needed -Wl,-z -Wl,norelro -Wl,-z -Wl,now -Wl,-lgomp -Wl,-lpthread -Wl,-O1 -Wl,--sort-common -Wl,--as-needed -Wl,-z -Wl,norelro -Wl,-z -Wl,now -Wl,-lgomp -Wl,-lpthread -march=znver2 -Ofast -pipe -g0 -fno-common -fgraphite-identity -floop-interchange -floop-nest-optimize -floop-parallelize-all -ftree-parallelize-loops=12 -ftree-vectorize -fdevirtualize-at-ltrans -fipa-pta -fno-semantic-interposition -flto=12 -fno-plt -falign-functions=32 -fno-stack-protector -fno-stack-clash-protection -fstack-check=no -fno-stack-check -fuse-linker-plugin -o .libs/tc1 tc1.o  ../src/.libs/libedit.so -ltinfo
make[2]: Leaving directory '/tmp/portage/dev-libs/libedit-20191211.3.1/work/libedit-20191211-3.1-abi_x86_64.amd64/examples'
Making all in doc
make[2]: Entering directory '/tmp/portage/dev-libs/libedit-20191211.3.1/work/libedit-20191211-3.1-abi_x86_64.amd64/doc'
make[2]: Leaving directory '/tmp/portage/dev-libs/libedit-20191211.3.1/work/libedit-20191211-3.1-abi_x86_64.amd64/doc'
make[2]: Entering directory '/tmp/portage/dev-libs/libedit-20191211.3.1/work/libedit-20191211-3.1-abi_x86_64.amd64'
make[2]: Leaving directory '/tmp/portage/dev-libs/libedit-20191211.3.1/work/libedit-20191211-3.1-abi_x86_64.amd64'
make[1]: Leaving directory '/tmp/portage/dev-libs/libedit-20191211.3.1/work/libedit-20191211-3.1-abi_x86_64.amd64'
>>> Source compiled.
>>> Test phase [not enabled]: dev-libs/libedit-20191211.3.1

>>> Install dev-libs/libedit-20191211.3.1 into /tmp/portage/dev-libs/libedit-20191211.3.1/image
 * abi_x86_64.amd64: running multilib-minimal_abi_src_install
make -j12 -l12 DESTDIR=/tmp/portage/dev-libs/libedit-20191211.3.1/image install 
Making install in src
make[1]: Entering directory '/tmp/portage/dev-libs/libedit-20191211.3.1/work/libedit-20191211-3.1-abi_x86_64.amd64/src'
make  install-am
make[2]: Entering directory '/tmp/portage/dev-libs/libedit-20191211.3.1/work/libedit-20191211-3.1-abi_x86_64.amd64/src'
make[3]: Entering directory '/tmp/portage/dev-libs/libedit-20191211.3.1/work/libedit-20191211-3.1-abi_x86_64.amd64/src'
 /bin/mkdir -p '/tmp/portage/dev-libs/libedit-20191211.3.1/image/usr/lib64'
 /bin/mkdir -p '/tmp/portage/dev-libs/libedit-20191211.3.1/image/usr/include'
 /bin/sh ../libtool   --mode=install /tmp/portage/._portage_reinstall_.ve826zmx/bin/ebuild-helpers/xattr/install -c   libedit.la '/tmp/portage/dev-libs/libedit-20191211.3.1/image/usr/lib64'
 /tmp/portage/._portage_reinstall_.ve826zmx/bin/ebuild-helpers/xattr/install -c -m 644  /tmp/portage/dev-libs/libedit-20191211.3.1/work/libedit-20191211-3.1/src/histedit.h '/tmp/portage/dev-libs/libedit-20191211.3.1/image/usr/include/.'
 /bin/mkdir -p '/tmp/portage/dev-libs/libedit-20191211.3.1/image/usr/include/editline'
 /tmp/portage/._portage_reinstall_.ve826zmx/bin/ebuild-helpers/xattr/install -c -m 644  /tmp/portage/dev-libs/libedit-20191211.3.1/work/libedit-20191211-3.1/src/editline/readline.h '/tmp/portage/dev-libs/libedit-20191211.3.1/image/usr/include/editline'
libtool: install: /tmp/portage/._portage_reinstall_.ve826zmx/bin/ebuild-helpers/xattr/install -c .libs/libedit.so.0.0.62 /tmp/portage/dev-libs/libedit-20191211.3.1/image/usr/lib64/libedit.so.0.0.62
libtool: install: (cd /tmp/portage/dev-libs/libedit-20191211.3.1/image/usr/lib64 && { ln -s -f libedit.so.0.0.62 libedit.so.0 || { rm -f libedit.so.0 && ln -s libedit.so.0.0.62 libedit.so.0; }; })
libtool: install: (cd /tmp/portage/dev-libs/libedit-20191211.3.1/image/usr/lib64 && { ln -s -f libedit.so.0.0.62 libedit.so || { rm -f libedit.so && ln -s libedit.so.0.0.62 libedit.so; }; })
libtool: install: /tmp/portage/._portage_reinstall_.ve826zmx/bin/ebuild-helpers/xattr/install -c .libs/libedit.lai /tmp/portage/dev-libs/libedit-20191211.3.1/image/usr/lib64/libedit.la
libtool: warning: remember to run 'libtool --finish /usr/lib64'
make[3]: Leaving directory '/tmp/portage/dev-libs/libedit-20191211.3.1/work/libedit-20191211-3.1-abi_x86_64.amd64/src'
make[2]: Leaving directory '/tmp/portage/dev-libs/libedit-20191211.3.1/work/libedit-20191211-3.1-abi_x86_64.amd64/src'
make[1]: Leaving directory '/tmp/portage/dev-libs/libedit-20191211.3.1/work/libedit-20191211-3.1-abi_x86_64.amd64/src'
Making install in examples
make[1]: Entering directory '/tmp/portage/dev-libs/libedit-20191211.3.1/work/libedit-20191211-3.1-abi_x86_64.amd64/examples'
make[2]: Entering directory '/tmp/portage/dev-libs/libedit-20191211.3.1/work/libedit-20191211-3.1-abi_x86_64.amd64/examples'
make[2]: Nothing to be done for 'install-exec-am'.
make[2]: Nothing to be done for 'install-data-am'.
make[2]: Leaving directory '/tmp/portage/dev-libs/libedit-20191211.3.1/work/libedit-20191211-3.1-abi_x86_64.amd64/examples'
make[1]: Leaving directory '/tmp/portage/dev-libs/libedit-20191211.3.1/work/libedit-20191211-3.1-abi_x86_64.amd64/examples'
Making install in doc
make[1]: Entering directory '/tmp/portage/dev-libs/libedit-20191211.3.1/work/libedit-20191211-3.1-abi_x86_64.amd64/doc'
make[2]: Entering directory '/tmp/portage/dev-libs/libedit-20191211.3.1/work/libedit-20191211-3.1-abi_x86_64.amd64/doc'
make[2]: Nothing to be done for 'install-exec-am'.
 /bin/mkdir -p '/tmp/portage/dev-libs/libedit-20191211.3.1/image/usr/share/man/man3'
 /bin/mkdir -p '/tmp/portage/dev-libs/libedit-20191211.3.1/image/usr/share/man/man5'
 /bin/mkdir -p '/tmp/portage/dev-libs/libedit-20191211.3.1/image/usr/share/man/man7'
 /tmp/portage/._portage_reinstall_.ve826zmx/bin/ebuild-helpers/xattr/install -c -m 644 editline.3 '/tmp/portage/dev-libs/libedit-20191211.3.1/image/usr/share/man/man3'
 /tmp/portage/._portage_reinstall_.ve826zmx/bin/ebuild-helpers/xattr/install -c -m 644 editline.7 '/tmp/portage/dev-libs/libedit-20191211.3.1/image/usr/share/man/man7'
 /tmp/portage/._portage_reinstall_.ve826zmx/bin/ebuild-helpers/xattr/install -c -m 644 editrc.5 '/tmp/portage/dev-libs/libedit-20191211.3.1/image/usr/share/man/man5'
make  install-data-hook
make[3]: Entering directory '/tmp/portage/dev-libs/libedit-20191211.3.1/work/libedit-20191211-3.1-abi_x86_64.amd64/doc'
(cd /tmp/portage/dev-libs/libedit-20191211.3.1/image/usr/share/man/man3 && rm -f el_deletestr.3 && ln -s editline.3 el_deletestr.3)
(cd /tmp/portage/dev-libs/libedit-20191211.3.1/image/usr/share/man/man3 && rm -f el_end.3 && ln -s editline.3 el_end.3)
(cd /tmp/portage/dev-libs/libedit-20191211.3.1/image/usr/share/man/man3 && rm -f el_get.3 && ln -s editline.3 el_get.3)
(cd /tmp/portage/dev-libs/libedit-20191211.3.1/image/usr/share/man/man3 && rm -f el_getc.3 && ln -s editline.3 el_getc.3)
(cd /tmp/portage/dev-libs/libedit-20191211.3.1/image/usr/share/man/man3 && rm -f el_gets.3 && ln -s editline.3 el_gets.3)
(cd /tmp/portage/dev-libs/libedit-20191211.3.1/image/usr/share/man/man3 && rm -f el_init.3 && ln -s editline.3 el_init.3)
(cd /tmp/portage/dev-libs/libedit-20191211.3.1/image/usr/share/man/man3 && rm -f el_init_fd.3 && ln -s editline.3 el_init_fd.3)
(cd /tmp/portage/dev-libs/libedit-20191211.3.1/image/usr/share/man/man3 && rm -f el_insertstr.3 && ln -s editline.3 el_insertstr.3)
(cd /tmp/portage/dev-libs/libedit-20191211.3.1/image/usr/share/man/man3 && rm -f el_line.3 && ln -s editline.3 el_line.3)
(cd /tmp/portage/dev-libs/libedit-20191211.3.1/image/usr/share/man/man3 && rm -f el_parse.3 && ln -s editline.3 el_parse.3)
(cd /tmp/portage/dev-libs/libedit-20191211.3.1/image/usr/share/man/man3 && rm -f el_push.3 && ln -s editline.3 el_push.3)
(cd /tmp/portage/dev-libs/libedit-20191211.3.1/image/usr/share/man/man3 && rm -f el_reset.3 && ln -s editline.3 el_reset.3)
(cd /tmp/portage/dev-libs/libedit-20191211.3.1/image/usr/share/man/man3 && rm -f el_resize.3 && ln -s editline.3 el_resize.3)
(cd /tmp/portage/dev-libs/libedit-20191211.3.1/image/usr/share/man/man3 && rm -f el_set.3 && ln -s editline.3 el_set.3)
(cd /tmp/portage/dev-libs/libedit-20191211.3.1/image/usr/share/man/man3 && rm -f el_source.3 && ln -s editline.3 el_source.3)
(cd /tmp/portage/dev-libs/libedit-20191211.3.1/image/usr/share/man/man3 && rm -f history.3 && ln -s editline.3 history.3)
(cd /tmp/portage/dev-libs/libedit-20191211.3.1/image/usr/share/man/man3 && rm -f history_end.3 && ln -s editline.3 history_end.3)
(cd /tmp/portage/dev-libs/libedit-20191211.3.1/image/usr/share/man/man3 && rm -f history_init.3 && ln -s editline.3 history_init.3)
(cd /tmp/portage/dev-libs/libedit-20191211.3.1/image/usr/share/man/man3 && rm -f tok_end.3 && ln -s editline.3 tok_end.3)
(cd /tmp/portage/dev-libs/libedit-20191211.3.1/image/usr/share/man/man3 && rm -f tok_init.3 && ln -s editline.3 tok_init.3)
(cd /tmp/portage/dev-libs/libedit-20191211.3.1/image/usr/share/man/man3 && rm -f tok_line.3 && ln -s editline.3 tok_line.3)
(cd /tmp/portage/dev-libs/libedit-20191211.3.1/image/usr/share/man/man3 && rm -f tok_reset.3 && ln -s editline.3 tok_reset.3)
(cd /tmp/portage/dev-libs/libedit-20191211.3.1/image/usr/share/man/man3 && rm -f tok_str.3 && ln -s editline.3 tok_str.3)
(cd /tmp/portage/dev-libs/libedit-20191211.3.1/image/usr/share/man/man3 && rm -f el_wdeletestr.3 && ln -s editline.3 el_wdeletestr.3)
(cd /tmp/portage/dev-libs/libedit-20191211.3.1/image/usr/share/man/man3 && rm -f el_wget.3 && ln -s editline.3 el_wget.3)
(cd /tmp/portage/dev-libs/libedit-20191211.3.1/image/usr/share/man/man3 && rm -f el_wgetc.3 && ln -s editline.3 el_wgetc.3)
(cd /tmp/portage/dev-libs/libedit-20191211.3.1/image/usr/share/man/man3 && rm -f el_wgets.3 && ln -s editline.3 el_wgets.3)
(cd /tmp/portage/dev-libs/libedit-20191211.3.1/image/usr/share/man/man3 && rm -f el_winsertstr.3 && ln -s editline.3 el_winsertstr.3)
(cd /tmp/portage/dev-libs/libedit-20191211.3.1/image/usr/share/man/man3 && rm -f el_wline.3 && ln -s editline.3 el_wline.3)
(cd /tmp/portage/dev-libs/libedit-20191211.3.1/image/usr/share/man/man3 && rm -f el_wparse.3 && ln -s editline.3 el_wparse.3)
(cd /tmp/portage/dev-libs/libedit-20191211.3.1/image/usr/share/man/man3 && rm -f el_wpush.3 && ln -s editline.3 el_wpush.3)
(cd /tmp/portage/dev-libs/libedit-20191211.3.1/image/usr/share/man/man3 && rm -f el_wset.3 && ln -s editline.3 el_wset.3)
(cd /tmp/portage/dev-libs/libedit-20191211.3.1/image/usr/share/man/man3 && rm -f history_w.3 && ln -s editline.3 history_w.3)
(cd /tmp/portage/dev-libs/libedit-20191211.3.1/image/usr/share/man/man3 && rm -f history_wend.3 && ln -s editline.3 history_wend.3)
(cd /tmp/portage/dev-libs/libedit-20191211.3.1/image/usr/share/man/man3 && rm -f history_winit.3 && ln -s editline.3 history_winit.3)
(cd /tmp/portage/dev-libs/libedit-20191211.3.1/image/usr/share/man/man3 && rm -f tok_wend.3 && ln -s editline.3 tok_wend.3)
(cd /tmp/portage/dev-libs/libedit-20191211.3.1/image/usr/share/man/man3 && rm -f tok_winit.3 && ln -s editline.3 tok_winit.3)
(cd /tmp/portage/dev-libs/libedit-20191211.3.1/image/usr/share/man/man3 && rm -f tok_wline.3 && ln -s editline.3 tok_wline.3)
(cd /tmp/portage/dev-libs/libedit-20191211.3.1/image/usr/share/man/man3 && rm -f tok_wreset.3 && ln -s editline.3 tok_wreset.3)
(cd /tmp/portage/dev-libs/libedit-20191211.3.1/image/usr/share/man/man3 && rm -f tok_wstr.3 && ln -s editline.3 tok_wstr.3)
make[3]: Leaving directory '/tmp/portage/dev-libs/libedit-20191211.3.1/work/libedit-20191211-3.1-abi_x86_64.amd64/doc'
make[2]: Leaving directory '/tmp/portage/dev-libs/libedit-20191211.3.1/work/libedit-20191211-3.1-abi_x86_64.amd64/doc'
make[1]: Leaving directory '/tmp/portage/dev-libs/libedit-20191211.3.1/work/libedit-20191211-3.1-abi_x86_64.amd64/doc'
make[1]: Entering directory '/tmp/portage/dev-libs/libedit-20191211.3.1/work/libedit-20191211-3.1-abi_x86_64.amd64'
make[2]: Entering directory '/tmp/portage/dev-libs/libedit-20191211.3.1/work/libedit-20191211-3.1-abi_x86_64.amd64'
make[2]: Nothing to be done for 'install-exec-am'.
 /bin/mkdir -p '/tmp/portage/dev-libs/libedit-20191211.3.1/image/usr/lib64/pkgconfig'
 /tmp/portage/._portage_reinstall_.ve826zmx/bin/ebuild-helpers/xattr/install -c -m 644 libedit.pc '/tmp/portage/dev-libs/libedit-20191211.3.1/image/usr/lib64/pkgconfig'
make[2]: Leaving directory '/tmp/portage/dev-libs/libedit-20191211.3.1/work/libedit-20191211-3.1-abi_x86_64.amd64'
make[1]: Leaving directory '/tmp/portage/dev-libs/libedit-20191211.3.1/work/libedit-20191211-3.1-abi_x86_64.amd64'
>>> Completed installing dev-libs/libedit-20191211.3.1 into /tmp/portage/dev-libs/libedit-20191211.3.1/image

 * Final size of build directory: 5968 KiB (5.8 MiB)
 * Final size of installed tree:   456 KiB

Parallel BZIP2 v1.1.13 [Dec 18, 2015]
By: Jeff Gilchrist [http://compression.ca]
Major contributions: Yavor Nikolov [http://javornikolov.wordpress.com]
Uses libbzip2 by Julian Seward

         # CPUs: 9
   Load Average: 3.42
 BWT Block Size: 200 KB
File Block Size: 900 KB
 Maximum Memory: 1024 MB
-------------------------------------------
         File #: 1 of 1
     Input Name: compressme
    Output Name: compressme.bz2

     Input Size: 3895 bytes
Compressing data (no threads)...
Completed: 100%                 Output Size: 918 bytes
-------------------------------------------

     Wall Clock: 0.001080 seconds
Parallel BZIP2 v1.1.13 [Dec 18, 2015]
By: Jeff Gilchrist [http://compression.ca]
Major contributions: Yavor Nikolov [http://javornikolov.wordpress.com]
Uses libbzip2 by Julian Seward

         # CPUs: 9
   Load Average: 3.42
 BWT Block Size: 200 KB
File Block Size: 900 KB
 Maximum Memory: 1024 MB
-------------------------------------------
         File #: 1 of 1
     Input Name: /tmp/portage/dev-libs/libedit-20191211.3.1/image/usr/share/man/man5/editrc.5
    Output Name: /tmp/portage/dev-libs/libedit-20191211.3.1/image/usr/share/man/man5/editrc.5.bz2

     Input Size: 7064 bytes
Compressing data (no threads)...
Completed: 100%                 Output Size: 3058 bytes
-------------------------------------------

     Wall Clock: 0.001241 seconds
Parallel BZIP2 v1.1.13 [Dec 18, 2015]
By: Jeff Gilchrist [http://compression.ca]
Major contributions: Yavor Nikolov [http://javornikolov.wordpress.com]
Uses libbzip2 by Julian Seward

         # CPUs: 9
   Load Average: 3.42
 BWT Block Size: 200 KB
File Block Size: 900 KB
 Maximum Memory: 1024 MB
-------------------------------------------
         File #: 1 of 1
     Input Name: /tmp/portage/dev-libs/libedit-20191211.3.1/image/usr/share/man/man7/editline.7
    Output Name: /tmp/portage/dev-libs/libedit-20191211.3.1/image/usr/share/man/man7/editline.7.bz2

     Input Size: 33733 bytes
Compressing data (no threads)...
Parallel BZIP2 v1.1.13 [Dec 18, 2015]
By: Jeff Gilchrist [http://compression.ca]
Major contributions: Yavor Nikolov [http://javornikolov.wordpress.com]
Uses libbzip2 by Julian Seward

         # CPUs: 9
   Load Average: 3.42
 BWT Block Size: 200 KB
File Block Size: 900 KB
 Maximum Memory: 1024 MB
-------------------------------------------
         File #: 1 of 1
     Input Name: /tmp/portage/dev-libs/libedit-20191211.3.1/image/usr/share/doc/libedit-20191211.3.1/ChangeLog
    Output Name: /tmp/portage/dev-libs/libedit-20191211.3.1/image/usr/share/doc/libedit-20191211.3.1/ChangeLog.bz2

     Input Size: 10415 bytes
Compressing data (no threads)...
Completed: 100%                 Output Size: 7067 bytes
-------------------------------------------

     Wall Clock: 0.004077 seconds
Parallel BZIP2 v1.1.13 [Dec 18, 2015]
By: Jeff Gilchrist [http://compression.ca]
Major contributions: Yavor Nikolov [http://javornikolov.wordpress.com]
Uses libbzip2 by Julian Seward

         # CPUs: 9
   Load Average: 3.42
 BWT Block Size: 200 KB
File Block Size: 900 KB
 Maximum Memory: 1024 MB
-------------------------------------------
         File #: 1 of 1
     Input Name: /tmp/portage/dev-libs/libedit-20191211.3.1/image/usr/share/man/man3/editline.3
    Output Name: /tmp/portage/dev-libs/libedit-20191211.3.1/image/usr/share/man/man3/editline.3.bz2

     Input Size: 23702 bytes
Compressing data (no threads)...
Completed: 100%                 Output Size: 3013 bytes
-------------------------------------------

     Wall Clock: 0.001999 seconds
Completed: 100%                 Output Size: 7076 bytes
-------------------------------------------

     Wall Clock: 0.003208 seconds
strip: x86_64-pc-linux-gnu-strip --strip-unneeded -N __gentoo_check_ldflags__ -R .comment -R .GCC.command.line -R .note.gnu.gold-version
   /lib64/libedit.so.0.0.62
./
./usr/
./usr/include/
./usr/include/editline/
./usr/include/editline/readline.h
./usr/include/histedit.h
./usr/share/
./usr/share/man/
./usr/share/man/man5/
./usr/share/man/man5/editrc.5
./usr/share/man/man5/editrc.5.bz2
./usr/share/man/man7/
./usr/share/man/man7/editline.7
./usr/share/man/man7/editline.7.bz2
./usr/share/man/man3/
./usr/share/man/man3/el_resize.3
./usr/share/man/man3/el_wget.3
./usr/share/man/man3/editline.3.bz2
./usr/share/man/man3/el_init_fd.3
./usr/share/man/man3/el_parse.3
./usr/share/man/man3/el_getc.3
./usr/share/man/man3/el_end.3
./usr/share/man/man3/tok_str.3
./usr/share/man/man3/history_end.3
./usr/share/man/man3/tok_init.3
./usr/share/man/man3/el_wdeletestr.3
./usr/share/man/man3/el_wpush.3
./usr/share/man/man3/el_wgets.3
./usr/share/man/man3/el_wset.3
./usr/share/man/man3/el_set.3
./usr/share/man/man3/el_wparse.3
./usr/share/man/man3/tok_end.3
./usr/share/man/man3/tok_wstr.3
./usr/share/man/man3/el_wgetc.3
./usr/share/man/man3/history_wend.3
./usr/share/man/man3/history_winit.3
./usr/share/man/man3/el_gets.3
./usr/share/man/man3/el_line.3
./usr/share/man/man3/el_reset.3
./usr/share/man/man3/el_get.3
./usr/share/man/man3/el_source.3
./usr/share/man/man3/el_insertstr.3
./usr/share/man/man3/el_wline.3
./usr/share/man/man3/el_winsertstr.3
./usr/share/man/man3/tok_reset.3
./usr/share/man/man3/tok_wline.3
./usr/share/man/man3/el_deletestr.3
./usr/share/man/man3/editline.3
./usr/share/man/man3/tok_line.3
./usr/share/man/man3/el_init.3
./usr/share/man/man3/tok_winit.3
./usr/share/man/man3/history_init.3
./usr/share/man/man3/el_push.3
./usr/share/man/man3/history_w.3
./usr/share/man/man3/tok_wend.3
./usr/share/man/man3/tok_wreset.3
./usr/share/doc/
./usr/share/doc/libedit-20191211.3.1/
./usr/share/doc/libedit-20191211.3.1/ChangeLog
./usr/share/doc/libedit-20191211.3.1/ChangeLog.bz2
./usr/share/doc/libedit-20191211.3.1/THANKS
./usr/lib64/
./usr/lib64/libedit.so
./usr/lib64/pkgconfig/
./usr/lib64/pkgconfig/libedit.pc
./lib64/
./lib64/libedit.so.0
./lib64/libedit.so.0.0.62
>>> Done.
 * checking 51 files for package collisions
>>> Merging dev-libs/libedit-20191211.3.1 to /
 * removing unneeded *.la files
--- /lib64/
>>> /lib64/libedit.so.0.0.62
>>> /lib64/libedit.so.0 -> libedit.so.0.0.62
--- /usr/
--- /usr/lib64/
--- /usr/lib64/pkgconfig/
>>> /usr/lib64/pkgconfig/libedit.pc
>>> /usr/lib64/libedit.so
--- /usr/share/
--- /usr/share/man/
--- /usr/share/man/man3/
>>> /usr/share/man/man3/tok_wreset.3 -> editline.3
>>> /usr/share/man/man3/tok_wend.3 -> editline.3
>>> /usr/share/man/man3/history_w.3 -> editline.3
>>> /usr/share/man/man3/el_push.3 -> editline.3
>>> /usr/share/man/man3/history_init.3 -> editline.3
>>> /usr/share/man/man3/tok_winit.3 -> editline.3
>>> /usr/share/man/man3/el_init.3 -> editline.3
>>> /usr/share/man/man3/tok_line.3 -> editline.3
>>> /usr/share/man/man3/editline.3
>>> /usr/share/man/man3/el_deletestr.3 -> editline.3
>>> /usr/share/man/man3/tok_wline.3 -> editline.3
>>> /usr/share/man/man3/tok_reset.3 -> editline.3
>>> /usr/share/man/man3/el_winsertstr.3 -> editline.3
>>> /usr/share/man/man3/el_wline.3 -> editline.3
>>> /usr/share/man/man3/el_insertstr.3 -> editline.3
>>> /usr/share/man/man3/el_source.3 -> editline.3
>>> /usr/share/man/man3/el_get.3 -> editline.3
>>> /usr/share/man/man3/el_reset.3 -> editline.3
>>> /usr/share/man/man3/el_line.3 -> editline.3
>>> /usr/share/man/man3/el_gets.3 -> editline.3
>>> /usr/share/man/man3/history_winit.3 -> editline.3
>>> /usr/share/man/man3/history_wend.3 -> editline.3
>>> /usr/share/man/man3/el_wgetc.3 -> editline.3
>>> /usr/share/man/man3/tok_wstr.3 -> editline.3
>>> /usr/share/man/man3/tok_end.3 -> editline.3
>>> /usr/share/man/man3/el_wparse.3 -> editline.3
>>> /usr/share/man/man3/el_set.3 -> editline.3
>>> /usr/share/man/man3/el_wset.3 -> editline.3
>>> /usr/share/man/man3/el_wgets.3 -> editline.3
>>> /usr/share/man/man3/el_wpush.3 -> editline.3
>>> /usr/share/man/man3/el_wdeletestr.3 -> editline.3
>>> /usr/share/man/man3/tok_init.3 -> editline.3
>>> /usr/share/man/man3/history_end.3 -> editline.3
>>> /usr/share/man/man3/tok_str.3 -> editline.3
>>> /usr/share/man/man3/el_end.3 -> editline.3
>>> /usr/share/man/man3/el_getc.3 -> editline.3
>>> /usr/share/man/man3/el_parse.3 -> editline.3
>>> /usr/share/man/man3/el_init_fd.3 -> editline.3
>>> /usr/share/man/man3/editline.3.bz2
>>> /usr/share/man/man3/el_wget.3 -> editline.3
>>> /usr/share/man/man3/el_resize.3 -> editline.3
--- /usr/share/man/man7/
>>> /usr/share/man/man7/editline.7.bz2
>>> /usr/share/man/man7/editline.7
--- /usr/share/man/man5/
>>> /usr/share/man/man5/editrc.5.bz2
>>> /usr/share/man/man5/editrc.5
--- /usr/include/
>>> /usr/include/histedit.h
--- /usr/include/editline/
>>> /usr/include/editline/readline.h
>>> Safely unmerging already-installed instance...
>>> Original instance of package unmerged safely.
>>> dev-libs/libedit-20191211.3.1 merged.
>>> Regenerating /etc/ld.so.cache...
