 * Package:    dev-libs/sord-0.16.4
 * Repository: gentoo
 * Maintainer: proaudio@gentoo.org
 * USE:        abi_x86_64 amd64 elibc_glibc kernel_linux test userland_GNU
 * FEATURES:   ccache network-sandbox preserve-libs sandbox userpriv usersandbox
 * /etc/portage/package.cflags/ltoworkarounds.conf -> */*: *FLAGS+=-Wl,-O4 *FLAGS-=-Wl,-O1
 * FEATURES='assume-digests binpkg-docompress binpkg-dostrip binpkg-logs binpkg-multi-instance buildpkg ccache cgroup compress-index config-protect-if-modified distlocks fixlafiles ipc-sandbox merge-sync multilib-strict network-sandbox news nodoc parallel-fetch parallel-install pid-sandbox preserve-libs qa-unresolved-soname-deps sandbox sfperms strict strict-keepdir unknown-features-warn unmerge-logs unmerge-orphans userfetch userpriv usersandbox usersync xattr'
 * CFLAGS='-march=znver2 -pipe -g0 -O3 -fgraphite-identity -floop-nest-optimize -fdevirtualize-at-ltrans -fipa-pta -fno-semantic-interposition -flto=12 -fno-plt -fno-signed-zeros -fno-trapping-math -fassociative-math -freciprocal-math -fno-math-errno -ffinite-math-only -fno-rounding-math -fno-signaling-nans -fcx-limited-range -fexcess-precision=fast -falign-functions=32 -fno-stack-protector -fno-stack-clash-protection -fstack-check=no -fno-stack-check -fuse-linker-plugin -Wl,-O4 -Wl,--as-needed -Wl,-lpthread -Wl,-lgomp -Wl,-z,norelro -Wl,-z,now -Wl,--sort-common -s'
 * CXXFLAGS='-march=znver2 -pipe -g0 -O3 -fgraphite-identity -floop-nest-optimize -fdevirtualize-at-ltrans -fipa-pta -fno-semantic-interposition -flto=12 -fno-plt -fno-signed-zeros -fno-trapping-math -fassociative-math -freciprocal-math -fno-math-errno -ffinite-math-only -fno-rounding-math -fno-signaling-nans -fcx-limited-range -fexcess-precision=fast -falign-functions=32 -fno-stack-protector -fno-stack-clash-protection -fstack-check=no -fno-stack-check -fuse-linker-plugin -Wl,-O4 -Wl,--as-needed -Wl,-lpthread -Wl,-lgomp -Wl,-z,norelro -Wl,-z,now -Wl,--sort-common -s'
 * FFLAGS='-march=znver2 -pipe -g0 -O3 -fgraphite-identity -floop-nest-optimize -fdevirtualize-at-ltrans -fipa-pta -fno-semantic-interposition -flto=12 -fno-plt -fno-signed-zeros -fno-trapping-math -fassociative-math -freciprocal-math -fno-math-errno -ffinite-math-only -fno-rounding-math -fno-signaling-nans -fcx-limited-range -fexcess-precision=fast -falign-functions=32 -fno-stack-protector -fno-stack-clash-protection -fstack-check=no -fno-stack-check -fuse-linker-plugin -Wl,-O4 -Wl,--as-needed -Wl,-lpthread -Wl,-lgomp -Wl,-z,norelro -Wl,-z,now -Wl,--sort-common -s'
 * FCFLAGS='-march=znver2 -pipe -g0 -O3 -fgraphite-identity -floop-nest-optimize -fdevirtualize-at-ltrans -fipa-pta -fno-semantic-interposition -flto=12 -fno-plt -fno-signed-zeros -fno-trapping-math -fassociative-math -freciprocal-math -fno-math-errno -ffinite-math-only -fno-rounding-math -fno-signaling-nans -fcx-limited-range -fexcess-precision=fast -falign-functions=32 -fno-stack-protector -fno-stack-clash-protection -fstack-check=no -fno-stack-check -fuse-linker-plugin -Wl,-O4 -Wl,--as-needed -Wl,-lpthread -Wl,-lgomp -Wl,-z,norelro -Wl,-z,now -Wl,--sort-common -s'
 * F77FLAGS='-march=znver2 -pipe -g0 -O3 -fgraphite-identity -floop-nest-optimize -fdevirtualize-at-ltrans -fipa-pta -fno-semantic-interposition -flto=12 -fno-plt -fno-signed-zeros -fno-trapping-math -fassociative-math -freciprocal-math -fno-math-errno -ffinite-math-only -fno-rounding-math -fno-signaling-nans -fcx-limited-range -fexcess-precision=fast -falign-functions=32 -fno-stack-protector -fno-stack-clash-protection -fstack-check=no -fno-stack-check -fuse-linker-plugin -Wl,-O4 -Wl,--as-needed -Wl,-lpthread -Wl,-lgomp -Wl,-z,norelro -Wl,-z,now -Wl,--sort-common -s'
 * LDFLAGS='-march=znver2 -pipe -g0 -O3 -fgraphite-identity -floop-nest-optimize -fdevirtualize-at-ltrans -fipa-pta -fno-semantic-interposition -flto=12 -fno-plt -fno-signed-zeros -fno-trapping-math -fassociative-math -freciprocal-math -fno-math-errno -ffinite-math-only -fno-rounding-math -fno-signaling-nans -fcx-limited-range -fexcess-precision=fast -falign-functions=32 -fno-stack-protector -fno-stack-clash-protection -fstack-check=no -fno-stack-check -fuse-linker-plugin -Wl,-O4 -Wl,--as-needed -Wl,-lpthread -Wl,-lgomp -Wl,-z,norelro -Wl,-z,now -Wl,--sort-common -s'
 * MAKEOPTS='-j12 -l12'
 * gcc () 11.0.0 20200601 (experimental)
 * g++ () 11.0.0 20200601 (experimental)
 * GNU ld (Gentoo 2.34 p4) 2.34.0
 * Linux ryzen.gnum.org 5.4.36 #1 SMP Thu Apr 30 04:38:28 UTC 2020 x86_64 AMD Ryzen 5 3600 6-Core Processor AuthenticAMD GNU/Linux
dev-libs/sord: 4 seconds average for 2 merges
2020-05-20T07:35:12 >>> dev-libs/sord: 4 seconds
2020-05-21T06:25:09 >>> dev-libs/sord: 5 seconds
]0;emerge 02:10:48 9|484 sord 00:05 (root@ryzen.gnum.org)kemerge 02:10:48 9|484 sord 00:05 (root@ryzen.gnum.org)\ * Using python3.8 to build
>>> Unpacking source...
>>> Unpacking sord-0.16.4.tar.bz2 to /tmp/portage/dev-libs/sord-0.16.4/work
>>> Source unpacked in /tmp/portage/dev-libs/sord-0.16.4/work
>>> Preparing source in /tmp/portage/dev-libs/sord-0.16.4/work/sord-0.16.4 ...
 * Will copy sources from /tmp/portage/dev-libs/sord-0.16.4/work/sord-0.16.4
 * abi_x86_64.amd64: copying to /tmp/portage/dev-libs/sord-0.16.4/work/sord-0.16.4-abi_x86_64.amd64
>>> Source prepared.
>>> Configuring source in /tmp/portage/dev-libs/sord-0.16.4/work/sord-0.16.4 ...
 * abi_x86_64.amd64: running multilib-minimal_abi_src_configure
'CCFLAGS=-march=znver2 -pipe -g0 -O3 -fgraphite-identity -floop-nest-optimize -fdevirtualize-at-ltrans -fipa-pta -fno-semantic-interposition -flto=12 -fno-plt -fno-signed-zeros -fno-trapping-math -fassociative-math -freciprocal-math -fno-math-errno -ffinite-math-only -fno-rounding-math -fno-signaling-nans -fcx-limited-range -fexcess-precision=fast -falign-functions=32 -fno-stack-protector -fno-stack-clash-protection -fstack-check=no -fno-stack-check -fuse-linker-plugin -Wl,-O4 -Wl,--as-needed -Wl,-lpthread -Wl,-lgomp -Wl,-z,norelro -Wl,-z,now -Wl,--sort-common -s' 'LINKFLAGS=-march=znver2 -pipe -g0 -O3 -fgraphite-identity -floop-nest-optimize -fdevirtualize-at-ltrans -fipa-pta -fno-semantic-interposition -flto=12 -fno-plt -fno-signed-zeros -fno-trapping-math -fassociative-math -freciprocal-math -fno-math-errno -ffinite-math-only -fno-rounding-math -fno-signaling-nans -fcx-limited-range -fexcess-precision=fast -falign-functions=32 -fno-stack-protector -fno-stack-clash-protection -fstack-check=no -fno-stack-check -fuse-linker-plugin -Wl,-O4 -Wl,--as-needed -Wl,-lpthread -Wl,-lgomp -Wl,-z,norelro -Wl,-z,now -Wl,--sort-common -s -march=znver2 -pipe -g0 -O3 -fgraphite-identity -floop-nest-optimize -fdevirtualize-at-ltrans -fipa-pta -fno-semantic-interposition -flto=12 -fno-plt -fno-signed-zeros -fno-trapping-math -fassociative-math -freciprocal-math -fno-math-errno -ffinite-math-only -fno-rounding-math -fno-signaling-nans -fcx-limited-range -fexcess-precision=fast -falign-functions=32 -fno-stack-protector -fno-stack-clash-protection -fstack-check=no -fno-stack-check -fuse-linker-plugin -Wl,-O4 -Wl,--as-needed -Wl,-lpthread -Wl,-lgomp -Wl,-z,norelro -Wl,-z,now -Wl,--sort-common -s' 'PKGCONFIG=x86_64-pc-linux-gnu-pkg-config' '/tmp/portage/dev-libs/sord-0.16.4/work/sord-0.16.4/waf' '--prefix=/usr' '--docdir=/usr/share/doc/sord-0.16.4' '--libdir=/usr/lib64' '--docdir=/usr/share/doc/sord-0.16.4' '--test' 'configure'
Setting top to                                : /tmp/portage/dev-libs/sord-0.16.4/work/sord-0.16.4-abi_x86_64.amd64 
Setting out to                                : /tmp/portage/dev-libs/sord-0.16.4/work/sord-0.16.4-abi_x86_64.amd64/build 
Checking for 'gcc' (C compiler)               : x86_64-pc-linux-gnu-gcc 
Checking for 'g++' (C++ compiler)             : x86_64-pc-linux-gnu-g++ 
Checking for library gcov                     : yes 
Checking for flag '-std=c99'                  : yes 
Checking for program 'pkg-config'             : x86_64-pc-linux-gnu-pkg-config 
Checking for 'serd-0 >= 0.30.0'               : yes 
Checking for 'libpcre'                        : yes 
Checking for compiler flags ['-pthread']      : yes 
Install prefix                                : /usr 
C Flags                                       : -I/tmp/portage/dev-libs/sord-0.16.4/work/sord-0.16.4-abi_x86_64.amd64 -march=znver2 -pipe -g0 -O3 -fgraphite-identity -floop-nest-optimize -fdevirtualize-at-ltrans -fipa-pta -fno-semantic-interposition -flto=12 -fno-plt -fno-signed-zeros -fno-trapping-math -fassociative-math -freciprocal-math -fno-math-errno -ffinite-math-only -fno-rounding-math -fno-signaling-nans -fcx-limited-range -fexcess-precision=fast -falign-functions=32 -fno-stack-protector -fno-stack-clash-protection -fstack-check=no -fno-stack-check -fuse-linker-plugin -Wl,-O4 -Wl,--as-needed -Wl,-lpthread -Wl,-lgomp -Wl,-z,norelro -Wl,-z,now -Wl,--sort-common -s -DNDEBUG -fshow-column -std=c99 
C++ Flags                                     : -I/tmp/portage/dev-libs/sord-0.16.4/work/sord-0.16.4-abi_x86_64.amd64 -march=znver2 -pipe -g0 -O3 -fgraphite-identity -floop-nest-optimize -fdevirtualize-at-ltrans -fipa-pta -fno-semantic-interposition -flto=12 -fno-plt -fno-signed-zeros -fno-trapping-math -fassociative-math -freciprocal-math -fno-math-errno -ffinite-math-only -fno-rounding-math -fno-signaling-nans -fcx-limited-range -fexcess-precision=fast -falign-functions=32 -fno-stack-protector -fno-stack-clash-protection -fstack-check=no -fno-stack-check -fuse-linker-plugin -Wl,-O4 -Wl,--as-needed -Wl,-lpthread -Wl,-lgomp -Wl,-z,norelro -Wl,-z,now -Wl,--sort-common -s -DNDEBUG -fshow-column 
Debuggable                                    : no 
Build documentation                           : no 
Static library                                : no 
Shared library                                : yes 
Utilities                                     : yes 
Unit tests                                    : yes 
Debug dumping                                 : [''] 
'configure' finished successfully (0.594s)
>>> Source configured.
>>> Compiling source in /tmp/portage/dev-libs/sord-0.16.4/work/sord-0.16.4 ...
 * abi_x86_64.amd64: running multilib-minimal_abi_src_compile
"/tmp/portage/dev-libs/sord-0.16.4/work/sord-0.16.4/waf" build --verbose --jobs=12 
Waf: Entering directory `/tmp/portage/dev-libs/sord-0.16.4/work/sord-0.16.4-abi_x86_64.amd64/build'
[ 1/18] Compiling src/syntax.c
02:10:52 runner ['x86_64-pc-linux-gnu-gcc', '-I/tmp/portage/dev-libs/sord-0.16.4/work/sord-0.16.4-abi_x86_64.amd64', '-march=znver2', '-pipe', '-g0', '-O3', '-fgraphite-identity', '-floop-nest-optimize', '-fdevirtualize-at-ltrans', '-fipa-pta', '-fno-semantic-interposition', '-flto=12', '-fno-plt', '-fno-signed-zeros', '-fno-trapping-math', '-fassociative-math', '-freciprocal-math', '-fno-math-errno', '-ffinite-math-only', '-fno-rounding-math', '-fno-signaling-nans', '-fcx-limited-range', '-fexcess-precision=fast', '-falign-functions=32', '-fno-stack-protector', '-fno-stack-clash-protection', '-fstack-check=no', '-fno-stack-check', '-fuse-linker-plugin', '-Wl,-O4', '-Wl,--as-needed', '-Wl,-lpthread', '-Wl,-lgomp', '-Wl,-z,norelro', '-Wl,-z,now', '-Wl,--sort-common', '-s', '-DNDEBUG', '-fshow-column', '-std=c99', '--coverage', '-I.', '-I..', '-Isrc', '-I../src', '-I/usr/include/serd-0', '-I/tmp/portage/dev-libs/sord-0.16.4/work/sord-0.16.4-abi_x86_64.amd64/build', '-DHAVE_GCOV=1', '-DSORD_VERSION="0.16.4"', '-DHAVE_SERD=1', '-DHAVE_PCRE=1', '../src/syntax.c', '-c', '-o/tmp/portage/dev-libs/sord-0.16.4/work/sord-0.16.4-abi_x86_64.amd64/build/src/syntax.c.5.o']
[ 2/18] Compiling src/sord.c
02:10:52 runner ['x86_64-pc-linux-gnu-gcc', '-I/tmp/portage/dev-libs/sord-0.16.4/work/sord-0.16.4-abi_x86_64.amd64', '-march=znver2', '-pipe', '-g0', '-O3', '-fgraphite-identity', '-floop-nest-optimize', '-fdevirtualize-at-ltrans', '-fipa-pta', '-fno-semantic-interposition', '-flto=12', '-fno-plt', '-fno-signed-zeros', '-fno-trapping-math', '-fassociative-math', '-freciprocal-math', '-fno-math-errno', '-ffinite-math-only', '-fno-rounding-math', '-fno-signaling-nans', '-fcx-limited-range', '-fexcess-precision=fast', '-falign-functions=32', '-fno-stack-protector', '-fno-stack-clash-protection', '-fstack-check=no', '-fno-stack-check', '-fuse-linker-plugin', '-Wl,-O4', '-Wl,--as-needed', '-Wl,-lpthread', '-Wl,-lgomp', '-Wl,-z,norelro', '-Wl,-z,now', '-Wl,--sort-common', '-s', '-DNDEBUG', '-fshow-column', '-std=c99', '--coverage', '-I.', '-I..', '-Isrc', '-I../src', '-I/usr/include/serd-0', '-I/tmp/portage/dev-libs/sord-0.16.4/work/sord-0.16.4-abi_x86_64.amd64/build', '-DHAVE_GCOV=1', '-DSORD_VERSION="0.16.4"', '-DHAVE_SERD=1', '-DHAVE_PCRE=1', '../src/sord.c', '-c', '-o/tmp/portage/dev-libs/sord-0.16.4/work/sord-0.16.4-abi_x86_64.amd64/build/src/sord.c.5.o']
[ 3/18] Compiling src/syntax.c
02:10:52 runner ['x86_64-pc-linux-gnu-gcc', '-I/tmp/portage/dev-libs/sord-0.16.4/work/sord-0.16.4-abi_x86_64.amd64', '-march=znver2', '-pipe', '-g0', '-O3', '-fgraphite-identity', '-floop-nest-optimize', '-fdevirtualize-at-ltrans', '-fipa-pta', '-fno-semantic-interposition', '-flto=12', '-fno-plt', '-fno-signed-zeros', '-fno-trapping-math', '-fassociative-math', '-freciprocal-math', '-fno-math-errno', '-ffinite-math-only', '-fno-rounding-math', '-fno-signaling-nans', '-fcx-limited-range', '-fexcess-precision=fast', '-falign-functions=32', '-fno-stack-protector', '-fno-stack-clash-protection', '-fstack-check=no', '-fno-stack-check', '-fuse-linker-plugin', '-Wl,-O4', '-Wl,--as-needed', '-Wl,-lpthread', '-Wl,-lgomp', '-Wl,-z,norelro', '-Wl,-z,now', '-Wl,--sort-common', '-s', '-DNDEBUG', '-fshow-column', '-std=c99', '-fvisibility=hidden', '-fPIC', '-I.', '-I..', '-Isrc', '-I../src', '-I/usr/include/serd-0', '-I/tmp/portage/dev-libs/sord-0.16.4/work/sord-0.16.4-abi_x86_64.amd64/build', '-DHAVE_GCOV=1', '-DSORD_VERSION="0.16.4"', '-DHAVE_SERD=1', '-DHAVE_PCRE=1', '-DSORD_SHARED', '-DSORD_INTERNAL', '../src/syntax.c', '-c', '-o/tmp/portage/dev-libs/sord-0.16.4/work/sord-0.16.4-abi_x86_64.amd64/build/src/syntax.c.4.o']
[ 4/18] Compiling src/sord.c
02:10:52 runner ['x86_64-pc-linux-gnu-gcc', '-I/tmp/portage/dev-libs/sord-0.16.4/work/sord-0.16.4-abi_x86_64.amd64', '-march=znver2', '-pipe', '-g0', '-O3', '-fgraphite-identity', '-floop-nest-optimize', '-fdevirtualize-at-ltrans', '-fipa-pta', '-fno-semantic-interposition', '-flto=12', '-fno-plt', '-fno-signed-zeros', '-fno-trapping-math', '-fassociative-math', '-freciprocal-math', '-fno-math-errno', '-ffinite-math-only', '-fno-rounding-math', '-fno-signaling-nans', '-fcx-limited-range', '-fexcess-precision=fast', '-falign-functions=32', '-fno-stack-protector', '-fno-stack-clash-protection', '-fstack-check=no', '-fno-stack-check', '-fuse-linker-plugin', '-Wl,-O4', '-Wl,--as-needed', '-Wl,-lpthread', '-Wl,-lgomp', '-Wl,-z,norelro', '-Wl,-z,now', '-Wl,--sort-common', '-s', '-DNDEBUG', '-fshow-column', '-std=c99', '-fvisibility=hidden', '-fPIC', '-I.', '-I..', '-Isrc', '-I../src', '-I/usr/include/serd-0', '-I/tmp/portage/dev-libs/sord-0.16.4/work/sord-0.16.4-abi_x86_64.amd64/build', '-DHAVE_GCOV=1', '-DSORD_VERSION="0.16.4"', '-DHAVE_SERD=1', '-DHAVE_PCRE=1', '-DSORD_SHARED', '-DSORD_INTERNAL', '../src/sord.c', '-c', '-o/tmp/portage/dev-libs/sord-0.16.4/work/sord-0.16.4-abi_x86_64.amd64/build/src/sord.c.4.o']
[ 5/18] Compiling src/sord_test.c
02:10:52 runner ['x86_64-pc-linux-gnu-gcc', '-I/tmp/portage/dev-libs/sord-0.16.4/work/sord-0.16.4-abi_x86_64.amd64', '-march=znver2', '-pipe', '-g0', '-O3', '-fgraphite-identity', '-floop-nest-optimize', '-fdevirtualize-at-ltrans', '-fipa-pta', '-fno-semantic-interposition', '-flto=12', '-fno-plt', '-fno-signed-zeros', '-fno-trapping-math', '-fassociative-math', '-freciprocal-math', '-fno-math-errno', '-ffinite-math-only', '-fno-rounding-math', '-fno-signaling-nans', '-fcx-limited-range', '-fexcess-precision=fast', '-falign-functions=32', '-fno-stack-protector', '-fno-stack-clash-protection', '-fstack-check=no', '-fno-stack-check', '-fuse-linker-plugin', '-Wl,-O4', '-Wl,--as-needed', '-Wl,-lpthread', '-Wl,-lgomp', '-Wl,-z,norelro', '-Wl,-z,now', '-Wl,--sort-common', '-s', '-DNDEBUG', '-fshow-column', '-std=c99', '--coverage', '-I.', '-I..', '-Isrc', '-I../src', '-I/usr/include/serd-0', '-I/tmp/portage/dev-libs/sord-0.16.4/work/sord-0.16.4-abi_x86_64.amd64/build', '-DHAVE_GCOV=1', '-DSORD_VERSION="0.16.4"', '-DHAVE_SERD=1', '-DHAVE_PCRE=1', '../src/sord_test.c', '-c', '-o/tmp/portage/dev-libs/sord-0.16.4/work/sord-0.16.4-abi_x86_64.amd64/build/src/sord_test.c.6.o']
[ 6/18] Compiling src/sordi.c
02:10:52 runner ['x86_64-pc-linux-gnu-gcc', '-I/tmp/portage/dev-libs/sord-0.16.4/work/sord-0.16.4-abi_x86_64.amd64', '-march=znver2', '-pipe', '-g0', '-O3', '-fgraphite-identity', '-floop-nest-optimize', '-fdevirtualize-at-ltrans', '-fipa-pta', '-fno-semantic-interposition', '-flto=12', '-fno-plt', '-fno-signed-zeros', '-fno-trapping-math', '-fassociative-math', '-freciprocal-math', '-fno-math-errno', '-ffinite-math-only', '-fno-rounding-math', '-fno-signaling-nans', '-fcx-limited-range', '-fexcess-precision=fast', '-falign-functions=32', '-fno-stack-protector', '-fno-stack-clash-protection', '-fstack-check=no', '-fno-stack-check', '-fuse-linker-plugin', '-Wl,-O4', '-Wl,--as-needed', '-Wl,-lpthread', '-Wl,-lgomp', '-Wl,-z,norelro', '-Wl,-z,now', '-Wl,--sort-common', '-s', '-DNDEBUG', '-fshow-column', '-std=c99', '--coverage', '-I.', '-I..', '-Isrc', '-I../src', '-I/usr/include/serd-0', '-I/tmp/portage/dev-libs/sord-0.16.4/work/sord-0.16.4-abi_x86_64.amd64/build', '-DHAVE_GCOV=1', '-DSORD_VERSION="0.16.4"', '-DHAVE_SERD=1', '-DHAVE_PCRE=1', '../src/sordi.c', '-c', '-o/tmp/portage/dev-libs/sord-0.16.4/work/sord-0.16.4-abi_x86_64.amd64/build/src/sordi.c.7.o']
[ 7/18] Compiling src/sordmm_test.cpp
02:10:52 runner ['x86_64-pc-linux-gnu-g++', '-I/tmp/portage/dev-libs/sord-0.16.4/work/sord-0.16.4-abi_x86_64.amd64', '-march=znver2', '-pipe', '-g0', '-O3', '-fgraphite-identity', '-floop-nest-optimize', '-fdevirtualize-at-ltrans', '-fipa-pta', '-fno-semantic-interposition', '-flto=12', '-fno-plt', '-fno-signed-zeros', '-fno-trapping-math', '-fassociative-math', '-freciprocal-math', '-fno-math-errno', '-ffinite-math-only', '-fno-rounding-math', '-fno-signaling-nans', '-fcx-limited-range', '-fexcess-precision=fast', '-falign-functions=32', '-fno-stack-protector', '-fno-stack-clash-protection', '-fstack-check=no', '-fno-stack-check', '-fuse-linker-plugin', '-Wl,-O4', '-Wl,--as-needed', '-Wl,-lpthread', '-Wl,-lgomp', '-Wl,-z,norelro', '-Wl,-z,now', '-Wl,--sort-common', '-s', '-DNDEBUG', '-fshow-column', '--coverage', '-I.', '-I..', '-Isrc', '-I../src', '-I/usr/include/serd-0', '-I/tmp/portage/dev-libs/sord-0.16.4/work/sord-0.16.4-abi_x86_64.amd64/build', '-DHAVE_GCOV=1', '-DSORD_VERSION="0.16.4"', '-DHAVE_SERD=1', '-DHAVE_PCRE=1', '../src/sordmm_test.cpp', '-c', '-o/tmp/portage/dev-libs/sord-0.16.4/work/sord-0.16.4-abi_x86_64.amd64/build/src/sordmm_test.cpp.8.o']
[ 8/18] Compiling src/sordi.c
02:10:52 runner ['x86_64-pc-linux-gnu-gcc', '-I/tmp/portage/dev-libs/sord-0.16.4/work/sord-0.16.4-abi_x86_64.amd64', '-march=znver2', '-pipe', '-g0', '-O3', '-fgraphite-identity', '-floop-nest-optimize', '-fdevirtualize-at-ltrans', '-fipa-pta', '-fno-semantic-interposition', '-flto=12', '-fno-plt', '-fno-signed-zeros', '-fno-trapping-math', '-fassociative-math', '-freciprocal-math', '-fno-math-errno', '-ffinite-math-only', '-fno-rounding-math', '-fno-signaling-nans', '-fcx-limited-range', '-fexcess-precision=fast', '-falign-functions=32', '-fno-stack-protector', '-fno-stack-clash-protection', '-fstack-check=no', '-fno-stack-check', '-fuse-linker-plugin', '-Wl,-O4', '-Wl,--as-needed', '-Wl,-lpthread', '-Wl,-lgomp', '-Wl,-z,norelro', '-Wl,-z,now', '-Wl,--sort-common', '-s', '-DNDEBUG', '-fshow-column', '-std=c99', '-I.', '-I..', '-Isrc', '-I../src', '-I.', '-I..', '-I/usr/include/serd-0', '-I/tmp/portage/dev-libs/sord-0.16.4/work/sord-0.16.4-abi_x86_64.amd64/build', '-DHAVE_GCOV=1', '-DSORD_VERSION="0.16.4"', '-DHAVE_SERD=1', '-DHAVE_PCRE=1', '../src/sordi.c', '-c', '-o/tmp/portage/dev-libs/sord-0.16.4/work/sord-0.16.4-abi_x86_64.amd64/build/src/sordi.c.9.o']
[ 9/18] Compiling src/sord_validate.c
02:10:52 runner ['x86_64-pc-linux-gnu-gcc', '-I/tmp/portage/dev-libs/sord-0.16.4/work/sord-0.16.4-abi_x86_64.amd64', '-march=znver2', '-pipe', '-g0', '-O3', '-fgraphite-identity', '-floop-nest-optimize', '-fdevirtualize-at-ltrans', '-fipa-pta', '-fno-semantic-interposition', '-flto=12', '-fno-plt', '-fno-signed-zeros', '-fno-trapping-math', '-fassociative-math', '-freciprocal-math', '-fno-math-errno', '-ffinite-math-only', '-fno-rounding-math', '-fno-signaling-nans', '-fcx-limited-range', '-fexcess-precision=fast', '-falign-functions=32', '-fno-stack-protector', '-fno-stack-clash-protection', '-fstack-check=no', '-fno-stack-check', '-fuse-linker-plugin', '-Wl,-O4', '-Wl,--as-needed', '-Wl,-lpthread', '-Wl,-lgomp', '-Wl,-z,norelro', '-Wl,-z,now', '-Wl,--sort-common', '-s', '-DNDEBUG', '-fshow-column', '-std=c99', '-pthread', '-I.', '-I..', '-Isrc', '-I../src', '-I.', '-I..', '-I/usr/include/serd-0', '-I/tmp/portage/dev-libs/sord-0.16.4/work/sord-0.16.4-abi_x86_64.amd64/build', '-DHAVE_GCOV=1', '-DSORD_VERSION="0.16.4"', '-DHAVE_SERD=1', '-DHAVE_PCRE=1', '../src/sord_validate.c', '-c', '-o/tmp/portage/dev-libs/sord-0.16.4/work/sord-0.16.4-abi_x86_64.amd64/build/src/sord_validate.c.10.o']
[10/18] Compiling sord.pc.in
[11/18] Linking build/libsord-0.so
02:10:52 runner ['x86_64-pc-linux-gnu-gcc', '-march=znver2', '-pipe', '-g0', '-O3', '-fgraphite-identity', '-floop-nest-optimize', '-fdevirtualize-at-ltrans', '-fipa-pta', '-fno-semantic-interposition', '-flto=12', '-fno-plt', '-fno-signed-zeros', '-fno-trapping-math', '-fassociative-math', '-freciprocal-math', '-fno-math-errno', '-ffinite-math-only', '-fno-rounding-math', '-fno-signaling-nans', '-fcx-limited-range', '-fexcess-precision=fast', '-falign-functions=32', '-fno-stack-protector', '-fno-stack-clash-protection', '-fstack-check=no', '-fno-stack-check', '-fuse-linker-plugin', '-Wl,-O4', '-Wl,--as-needed', '-Wl,-lpthread', '-Wl,-lgomp', '-Wl,-z,norelro', '-Wl,-z,now', '-Wl,--sort-common', '-s', '-march=znver2', '-pipe', '-g0', '-O3', '-fgraphite-identity', '-floop-nest-optimize', '-fdevirtualize-at-ltrans', '-fipa-pta', '-fno-semantic-interposition', '-flto=12', '-fno-plt', '-fno-signed-zeros', '-fno-trapping-math', '-fassociative-math', '-freciprocal-math', '-fno-math-errno', '-ffinite-math-only', '-fno-rounding-math', '-fno-signaling-nans', '-fcx-limited-range', '-fexcess-precision=fast', '-falign-functions=32', '-fno-stack-protector', '-fno-stack-clash-protection', '-fstack-check=no', '-fno-stack-check', '-fuse-linker-plugin', '-Wl,-O4', '-Wl,--as-needed', '-Wl,-lpthread', '-Wl,-lgomp', '-Wl,-z,norelro', '-Wl,-z,now', '-Wl,--sort-common', '-s', '-shared', '-Wl,-h,libsord-0.so.0', 'src/sord.c.4.o', 'src/syntax.c.4.o', '-o/tmp/portage/dev-libs/sord-0.16.4/work/sord-0.16.4-abi_x86_64.amd64/build/libsord-0.so', '-Wl,-Bstatic', '-Wl,-Bdynamic', '-lserd-0', '-march=znver2', '-pipe', '-g0', '-O3', '-fgraphite-identity', '-floop-nest-optimize', '-fdevirtualize-at-ltrans', '-fipa-pta', '-fno-semantic-interposition', '-flto=12', '-fno-plt', '-fno-signed-zeros', '-fno-trapping-math', '-fassociative-math', '-freciprocal-math', '-fno-math-errno', '-ffinite-math-only', '-fno-rounding-math', '-fno-signaling-nans', '-fcx-limited-range', '-fexcess-precision=fast', '-falign-functions=32', '-fno-stack-protector', '-fno-stack-clash-protection', '-fstack-check=no', '-fno-stack-check', '-fuse-linker-plugin', '-Wl,-O4', '-Wl,--as-needed', '-Wl,-lpthread', '-Wl,-lgomp', '-Wl,-z,norelro', '-Wl,-z,now', '-Wl,--sort-common', '-s']
[12/18] Linking build/libsord_profiled.a
02:10:52 runner ['x86_64-pc-linux-gnu-ar', 'rcs', 'libsord_profiled.a', 'src/sord.c.5.o', 'src/syntax.c.5.o']
[13/18] Linking build/sord_test
02:10:52 runner ['x86_64-pc-linux-gnu-gcc', '-march=znver2', '-pipe', '-g0', '-O3', '-fgraphite-identity', '-floop-nest-optimize', '-fdevirtualize-at-ltrans', '-fipa-pta', '-fno-semantic-interposition', '-flto=12', '-fno-plt', '-fno-signed-zeros', '-fno-trapping-math', '-fassociative-math', '-freciprocal-math', '-fno-math-errno', '-ffinite-math-only', '-fno-rounding-math', '-fno-signaling-nans', '-fcx-limited-range', '-fexcess-precision=fast', '-falign-functions=32', '-fno-stack-protector', '-fno-stack-clash-protection', '-fstack-check=no', '-fno-stack-check', '-fuse-linker-plugin', '-Wl,-O4', '-Wl,--as-needed', '-Wl,-lpthread', '-Wl,-lgomp', '-Wl,-z,norelro', '-Wl,-z,now', '-Wl,--sort-common', '-s', '-march=znver2', '-pipe', '-g0', '-O3', '-fgraphite-identity', '-floop-nest-optimize', '-fdevirtualize-at-ltrans', '-fipa-pta', '-fno-semantic-interposition', '-flto=12', '-fno-plt', '-fno-signed-zeros', '-fno-trapping-math', '-fassociative-math', '-freciprocal-math', '-fno-math-errno', '-ffinite-math-only', '-fno-rounding-math', '-fno-signaling-nans', '-fcx-limited-range', '-fexcess-precision=fast', '-falign-functions=32', '-fno-stack-protector', '-fno-stack-clash-protection', '-fstack-check=no', '-fno-stack-check', '-fuse-linker-plugin', '-Wl,-O4', '-Wl,--as-needed', '-Wl,-lpthread', '-Wl,-lgomp', '-Wl,-z,norelro', '-Wl,-z,now', '-Wl,--sort-common', '-s', '--coverage', 'src/sord_test.c.6.o', '-o/tmp/portage/dev-libs/sord-0.16.4/work/sord-0.16.4-abi_x86_64.amd64/build/sord_test', '-Wl,-Bstatic', '-L.', '-lsord_profiled', '-Wl,-Bdynamic', '-lm', '-lserd-0', '-march=znver2', '-pipe', '-g0', '-O3', '-fgraphite-identity', '-floop-nest-optimize', '-fdevirtualize-at-ltrans', '-fipa-pta', '-fno-semantic-interposition', '-flto=12', '-fno-plt', '-fno-signed-zeros', '-fno-trapping-math', '-fassociative-math', '-freciprocal-math', '-fno-math-errno', '-ffinite-math-only', '-fno-rounding-math', '-fno-signaling-nans', '-fcx-limited-range', '-fexcess-precision=fast', '-falign-functions=32', '-fno-stack-protector', '-fno-stack-clash-protection', '-fstack-check=no', '-fno-stack-check', '-fuse-linker-plugin', '-Wl,-O4', '-Wl,--as-needed', '-Wl,-lpthread', '-Wl,-lgomp', '-Wl,-z,norelro', '-Wl,-z,now', '-Wl,--sort-common', '-s']
[14/18] Linking build/sordi_static
02:10:52 runner ['x86_64-pc-linux-gnu-gcc', '-march=znver2', '-pipe', '-g0', '-O3', '-fgraphite-identity', '-floop-nest-optimize', '-fdevirtualize-at-ltrans', '-fipa-pta', '-fno-semantic-interposition', '-flto=12', '-fno-plt', '-fno-signed-zeros', '-fno-trapping-math', '-fassociative-math', '-freciprocal-math', '-fno-math-errno', '-ffinite-math-only', '-fno-rounding-math', '-fno-signaling-nans', '-fcx-limited-range', '-fexcess-precision=fast', '-falign-functions=32', '-fno-stack-protector', '-fno-stack-clash-protection', '-fstack-check=no', '-fno-stack-check', '-fuse-linker-plugin', '-Wl,-O4', '-Wl,--as-needed', '-Wl,-lpthread', '-Wl,-lgomp', '-Wl,-z,norelro', '-Wl,-z,now', '-Wl,--sort-common', '-s', '-march=znver2', '-pipe', '-g0', '-O3', '-fgraphite-identity', '-floop-nest-optimize', '-fdevirtualize-at-ltrans', '-fipa-pta', '-fno-semantic-interposition', '-flto=12', '-fno-plt', '-fno-signed-zeros', '-fno-trapping-math', '-fassociative-math', '-freciprocal-math', '-fno-math-errno', '-ffinite-math-only', '-fno-rounding-math', '-fno-signaling-nans', '-fcx-limited-range', '-fexcess-precision=fast', '-falign-functions=32', '-fno-stack-protector', '-fno-stack-clash-protection', '-fstack-check=no', '-fno-stack-check', '-fuse-linker-plugin', '-Wl,-O4', '-Wl,--as-needed', '-Wl,-lpthread', '-Wl,-lgomp', '-Wl,-z,norelro', '-Wl,-z,now', '-Wl,--sort-common', '-s', '--coverage', 'src/sordi.c.7.o', '-o/tmp/portage/dev-libs/sord-0.16.4/work/sord-0.16.4-abi_x86_64.amd64/build/sordi_static', '-Wl,-Bstatic', '-L.', '-lsord_profiled', '-Wl,-Bdynamic', '-lm', '-lserd-0', '-march=znver2', '-pipe', '-g0', '-O3', '-fgraphite-identity', '-floop-nest-optimize', '-fdevirtualize-at-ltrans', '-fipa-pta', '-fno-semantic-interposition', '-flto=12', '-fno-plt', '-fno-signed-zeros', '-fno-trapping-math', '-fassociative-math', '-freciprocal-math', '-fno-math-errno', '-ffinite-math-only', '-fno-rounding-math', '-fno-signaling-nans', '-fcx-limited-range', '-fexcess-precision=fast', '-falign-functions=32', '-fno-stack-protector', '-fno-stack-clash-protection', '-fstack-check=no', '-fno-stack-check', '-fuse-linker-plugin', '-Wl,-O4', '-Wl,--as-needed', '-Wl,-lpthread', '-Wl,-lgomp', '-Wl,-z,norelro', '-Wl,-z,now', '-Wl,--sort-common', '-s']
[15/18] Linking build/sordmm_test
02:10:52 runner ['x86_64-pc-linux-gnu-g++', '-march=znver2', '-pipe', '-g0', '-O3', '-fgraphite-identity', '-floop-nest-optimize', '-fdevirtualize-at-ltrans', '-fipa-pta', '-fno-semantic-interposition', '-flto=12', '-fno-plt', '-fno-signed-zeros', '-fno-trapping-math', '-fassociative-math', '-freciprocal-math', '-fno-math-errno', '-ffinite-math-only', '-fno-rounding-math', '-fno-signaling-nans', '-fcx-limited-range', '-fexcess-precision=fast', '-falign-functions=32', '-fno-stack-protector', '-fno-stack-clash-protection', '-fstack-check=no', '-fno-stack-check', '-fuse-linker-plugin', '-Wl,-O4', '-Wl,--as-needed', '-Wl,-lpthread', '-Wl,-lgomp', '-Wl,-z,norelro', '-Wl,-z,now', '-Wl,--sort-common', '-s', '-march=znver2', '-pipe', '-g0', '-O3', '-fgraphite-identity', '-floop-nest-optimize', '-fdevirtualize-at-ltrans', '-fipa-pta', '-fno-semantic-interposition', '-flto=12', '-fno-plt', '-fno-signed-zeros', '-fno-trapping-math', '-fassociative-math', '-freciprocal-math', '-fno-math-errno', '-ffinite-math-only', '-fno-rounding-math', '-fno-signaling-nans', '-fcx-limited-range', '-fexcess-precision=fast', '-falign-functions=32', '-fno-stack-protector', '-fno-stack-clash-protection', '-fstack-check=no', '-fno-stack-check', '-fuse-linker-plugin', '-Wl,-O4', '-Wl,--as-needed', '-Wl,-lpthread', '-Wl,-lgomp', '-Wl,-z,norelro', '-Wl,-z,now', '-Wl,--sort-common', '-s', '--coverage', 'src/sordmm_test.cpp.8.o', '-o/tmp/portage/dev-libs/sord-0.16.4/work/sord-0.16.4-abi_x86_64.amd64/build/sordmm_test', '-Wl,-Bstatic', '-L.', '-lsord_profiled', '-Wl,-Bdynamic', '-lm', '-lserd-0', '-march=znver2', '-pipe', '-g0', '-O3', '-fgraphite-identity', '-floop-nest-optimize', '-fdevirtualize-at-ltrans', '-fipa-pta', '-fno-semantic-interposition', '-flto=12', '-fno-plt', '-fno-signed-zeros', '-fno-trapping-math', '-fassociative-math', '-freciprocal-math', '-fno-math-errno', '-ffinite-math-only', '-fno-rounding-math', '-fno-signaling-nans', '-fcx-limited-range', '-fexcess-precision=fast', '-falign-functions=32', '-fno-stack-protector', '-fno-stack-clash-protection', '-fstack-check=no', '-fno-stack-check', '-fuse-linker-plugin', '-Wl,-O4', '-Wl,--as-needed', '-Wl,-lpthread', '-Wl,-lgomp', '-Wl,-z,norelro', '-Wl,-z,now', '-Wl,--sort-common', '-s']
[16/18] Linking build/sordi
02:10:52 runner ['x86_64-pc-linux-gnu-gcc', '-march=znver2', '-pipe', '-g0', '-O3', '-fgraphite-identity', '-floop-nest-optimize', '-fdevirtualize-at-ltrans', '-fipa-pta', '-fno-semantic-interposition', '-flto=12', '-fno-plt', '-fno-signed-zeros', '-fno-trapping-math', '-fassociative-math', '-freciprocal-math', '-fno-math-errno', '-ffinite-math-only', '-fno-rounding-math', '-fno-signaling-nans', '-fcx-limited-range', '-fexcess-precision=fast', '-falign-functions=32', '-fno-stack-protector', '-fno-stack-clash-protection', '-fstack-check=no', '-fno-stack-check', '-fuse-linker-plugin', '-Wl,-O4', '-Wl,--as-needed', '-Wl,-lpthread', '-Wl,-lgomp', '-Wl,-z,norelro', '-Wl,-z,now', '-Wl,--sort-common', '-s', '-march=znver2', '-pipe', '-g0', '-O3', '-fgraphite-identity', '-floop-nest-optimize', '-fdevirtualize-at-ltrans', '-fipa-pta', '-fno-semantic-interposition', '-flto=12', '-fno-plt', '-fno-signed-zeros', '-fno-trapping-math', '-fassociative-math', '-freciprocal-math', '-fno-math-errno', '-ffinite-math-only', '-fno-rounding-math', '-fno-signaling-nans', '-fcx-limited-range', '-fexcess-precision=fast', '-falign-functions=32', '-fno-stack-protector', '-fno-stack-clash-protection', '-fstack-check=no', '-fno-stack-check', '-fuse-linker-plugin', '-Wl,-O4', '-Wl,--as-needed', '-Wl,-lpthread', '-Wl,-lgomp', '-Wl,-z,norelro', '-Wl,-z,now', '-Wl,--sort-common', '-s', 'src/sordi.c.9.o', '-o/tmp/portage/dev-libs/sord-0.16.4/work/sord-0.16.4-abi_x86_64.amd64/build/sordi', '-Wl,-Bstatic', '-Wl,-Bdynamic', '-L.', '-lsord-0', '-lm', '-lserd-0', '-march=znver2', '-pipe', '-g0', '-O3', '-fgraphite-identity', '-floop-nest-optimize', '-fdevirtualize-at-ltrans', '-fipa-pta', '-fno-semantic-interposition', '-flto=12', '-fno-plt', '-fno-signed-zeros', '-fno-trapping-math', '-fassociative-math', '-freciprocal-math', '-fno-math-errno', '-ffinite-math-only', '-fno-rounding-math', '-fno-signaling-nans', '-fcx-limited-range', '-fexcess-precision=fast', '-falign-functions=32', '-fno-stack-protector', '-fno-stack-clash-protection', '-fstack-check=no', '-fno-stack-check', '-fuse-linker-plugin', '-Wl,-O4', '-Wl,--as-needed', '-Wl,-lpthread', '-Wl,-lgomp', '-Wl,-z,norelro', '-Wl,-z,now', '-Wl,--sort-common', '-s']
[17/18] Linking build/sord_validate
02:10:52 runner ['x86_64-pc-linux-gnu-gcc', '-march=znver2', '-pipe', '-g0', '-O3', '-fgraphite-identity', '-floop-nest-optimize', '-fdevirtualize-at-ltrans', '-fipa-pta', '-fno-semantic-interposition', '-flto=12', '-fno-plt', '-fno-signed-zeros', '-fno-trapping-math', '-fassociative-math', '-freciprocal-math', '-fno-math-errno', '-ffinite-math-only', '-fno-rounding-math', '-fno-signaling-nans', '-fcx-limited-range', '-fexcess-precision=fast', '-falign-functions=32', '-fno-stack-protector', '-fno-stack-clash-protection', '-fstack-check=no', '-fno-stack-check', '-fuse-linker-plugin', '-Wl,-O4', '-Wl,--as-needed', '-Wl,-lpthread', '-Wl,-lgomp', '-Wl,-z,norelro', '-Wl,-z,now', '-Wl,--sort-common', '-s', '-march=znver2', '-pipe', '-g0', '-O3', '-fgraphite-identity', '-floop-nest-optimize', '-fdevirtualize-at-ltrans', '-fipa-pta', '-fno-semantic-interposition', '-flto=12', '-fno-plt', '-fno-signed-zeros', '-fno-trapping-math', '-fassociative-math', '-freciprocal-math', '-fno-math-errno', '-ffinite-math-only', '-fno-rounding-math', '-fno-signaling-nans', '-fcx-limited-range', '-fexcess-precision=fast', '-falign-functions=32', '-fno-stack-protector', '-fno-stack-clash-protection', '-fstack-check=no', '-fno-stack-check', '-fuse-linker-plugin', '-Wl,-O4', '-Wl,--as-needed', '-Wl,-lpthread', '-Wl,-lgomp', '-Wl,-z,norelro', '-Wl,-z,now', '-Wl,--sort-common', '-s', '-pthread', 'src/sord_validate.c.10.o', '-o/tmp/portage/dev-libs/sord-0.16.4/work/sord-0.16.4-abi_x86_64.amd64/build/sord_validate', '-Wl,-Bstatic', '-Wl,-Bdynamic', '-L.', '-lsord-0', '-lm', '-lserd-0', '-lpcre', '-march=znver2', '-pipe', '-g0', '-O3', '-fgraphite-identity', '-floop-nest-optimize', '-fdevirtualize-at-ltrans', '-fipa-pta', '-fno-semantic-interposition', '-flto=12', '-fno-plt', '-fno-signed-zeros', '-fno-trapping-math', '-fassociative-math', '-freciprocal-math', '-fno-math-errno', '-ffinite-math-only', '-fno-rounding-math', '-fno-signaling-nans', '-fcx-limited-range', '-fexcess-precision=fast', '-falign-functions=32', '-fno-stack-protector', '-fno-stack-clash-protection', '-fstack-check=no', '-fno-stack-check', '-fuse-linker-plugin', '-Wl,-O4', '-Wl,--as-needed', '-Wl,-lpthread', '-Wl,-lgomp', '-Wl,-z,norelro', '-Wl,-z,now', '-Wl,--sort-common', '-s']
[18/18] Symlinking build/libsord-0.so
Waf: Leaving directory `/tmp/portage/dev-libs/sord-0.16.4/work/sord-0.16.4-abi_x86_64.amd64/build'
Build commands will be stored in build/compile_commands.json
'build' finished successfully (1.255s)
>>> Source compiled.
>>> Test phase [not enabled]: dev-libs/sord-0.16.4

>>> Install dev-libs/sord-0.16.4 into /tmp/portage/dev-libs/sord-0.16.4/image/
 * abi_x86_64.amd64: running multilib-minimal_abi_src_install
"/tmp/portage/dev-libs/sord-0.16.4/work/sord-0.16.4/waf" --destdir="/tmp/portage/dev-libs/sord-0.16.4/image/"  install
Waf: Entering directory `/tmp/portage/dev-libs/sord-0.16.4/work/sord-0.16.4-abi_x86_64.amd64/build'
+ install /tmp/portage/dev-libs/sord-0.16.4/image/usr/include/sord-0/sord/sordmm.hpp (from sord/sordmm.hpp)
+ install /tmp/portage/dev-libs/sord-0.16.4/image/usr/include/sord-0/sord/sord.h (from sord/sord.h)
+ symlink /tmp/portage/dev-libs/sord-0.16.4/image/usr/lib64/libsord-0.so (to libsord-0.so.0.16.4)
+ install /tmp/portage/dev-libs/sord-0.16.4/image/usr/lib64/libsord-0.so.0.16.4 (from build/libsord-0.so)
+ symlink /tmp/portage/dev-libs/sord-0.16.4/image/usr/lib64/libsord-0.so.0 (to libsord-0.so.0.16.4)
+ install /tmp/portage/dev-libs/sord-0.16.4/image/usr/bin/sordi (from build/sordi)
+ install /tmp/portage/dev-libs/sord-0.16.4/image/usr/bin/sord_validate (from build/sord_validate)
+ install /tmp/portage/dev-libs/sord-0.16.4/image/usr/lib64/pkgconfig/sord-0.pc (from build/sord-0.pc)
+ install /tmp/portage/dev-libs/sord-0.16.4/image/usr/share/man/man1/sord_validate.1 (from doc/sord_validate.1)
+ install /tmp/portage/dev-libs/sord-0.16.4/image/usr/share/man/man1/sordi.1 (from doc/sordi.1)
Waf: Leaving directory `/tmp/portage/dev-libs/sord-0.16.4/work/sord-0.16.4-abi_x86_64.amd64/build'
Build commands will be stored in build/compile_commands.json
'install' finished successfully (0.029s)
>>> Completed installing dev-libs/sord-0.16.4 into /tmp/portage/dev-libs/sord-0.16.4/image/

 * Final size of build directory: 12124 KiB (11.8 MiB)
 * Final size of installed tree:    204 KiB



 * QA Notice: Pre-stripped files found:
 * /usr/bin/sordi
 * /usr/bin/sord_validate
 * /usr/lib64/libsord-0.so.0.16.4
./
./usr/
./usr/bin/
./usr/bin/sordi
./usr/bin/sord_validate
./usr/include/
./usr/include/sord-0/
./usr/include/sord-0/sord/
./usr/include/sord-0/sord/sord.h
./usr/include/sord-0/sord/sordmm.hpp
./usr/share/
./usr/share/man/
./usr/share/man/man1/
./usr/share/man/man1/sordi.1.bz2
./usr/share/man/man1/sord_validate.1.bz2
./usr/share/doc/
./usr/share/doc/sord-0.16.4/
./usr/share/doc/sord-0.16.4/README.md.bz2
./usr/share/doc/sord-0.16.4/AUTHORS
./usr/share/doc/sord-0.16.4/NEWS.bz2
./usr/lib64/
./usr/lib64/libsord-0.so.0.16.4
./usr/lib64/libsord-0.so
./usr/lib64/libsord-0.so.0
./usr/lib64/pkgconfig/
./usr/lib64/pkgconfig/sord-0.pc
>>> Done.
 * checking 10 files for package collisions
>>> Merging dev-libs/sord-0.16.4 to /
 * removing unneeded *.la files
--- /usr/
--- /usr/lib64/
--- /usr/lib64/pkgconfig/
>>> /usr/lib64/pkgconfig/sord-0.pc
>>> /usr/lib64/libsord-0.so.0.16.4
--- /usr/share/
--- /usr/share/man/
--- /usr/share/man/man1/
>>> /usr/share/man/man1/sord_validate.1.bz2
>>> /usr/share/man/man1/sordi.1.bz2
--- /usr/include/
>>> /usr/include/sord-0/
>>> /usr/include/sord-0/sord/
>>> /usr/include/sord-0/sord/sordmm.hpp
>>> /usr/include/sord-0/sord/sord.h
--- /usr/bin/
>>> /usr/bin/sord_validate
>>> /usr/bin/sordi
>>> /usr/lib64/libsord-0.so -> libsord-0.so.0.16.4
>>> /usr/lib64/libsord-0.so.0 -> libsord-0.so.0.16.4
>>> dev-libs/sord-0.16.4 merged.
>>> Regenerating /etc/ld.so.cache...
