No package files given... Grabbing a set.
--- replaced obj /usr/lib64/python2.7/site-packages/tidylib/tidy.pyo
--- replaced obj /usr/lib64/python2.7/site-packages/tidylib/tidy.pyc
--- replaced obj /usr/lib64/python2.7/site-packages/tidylib/tidy.py
--- replaced obj /usr/lib64/python2.7/site-packages/tidylib/sink.pyo
--- replaced obj /usr/lib64/python2.7/site-packages/tidylib/sink.pyc
--- replaced obj /usr/lib64/python2.7/site-packages/tidylib/sink.py
--- replaced obj /usr/lib64/python2.7/site-packages/tidylib/__init__.pyo
--- replaced obj /usr/lib64/python2.7/site-packages/tidylib/__init__.pyc
--- replaced obj /usr/lib64/python2.7/site-packages/tidylib/__init__.py
--- replaced dir /usr/lib64/python2.7/site-packages/tidylib
--- replaced obj /usr/lib64/python2.7/site-packages/pytidylib-0.3.2-py2.7.egg-info
--- replaced dir /usr/lib64/python2.7/site-packages
--- replaced dir /usr/lib64/python2.7
--- replaced dir /usr/lib64
--- replaced obj /usr/lib/python3.8/site-packages/tidylib/tidy.py
--- replaced obj /usr/lib/python3.8/site-packages/tidylib/sink.py
--- replaced obj /usr/lib/python3.8/site-packages/tidylib/__pycache__/tidy.cpython-38.pyc
--- replaced obj /usr/lib/python3.8/site-packages/tidylib/__pycache__/tidy.cpython-38.opt-2.pyc
--- replaced obj /usr/lib/python3.8/site-packages/tidylib/__pycache__/tidy.cpython-38.opt-1.pyc
--- replaced obj /usr/lib/python3.8/site-packages/tidylib/__pycache__/sink.cpython-38.pyc
--- replaced obj /usr/lib/python3.8/site-packages/tidylib/__pycache__/sink.cpython-38.opt-2.pyc
--- replaced obj /usr/lib/python3.8/site-packages/tidylib/__pycache__/sink.cpython-38.opt-1.pyc
--- replaced obj /usr/lib/python3.8/site-packages/tidylib/__pycache__/__init__.cpython-38.pyc
--- replaced obj /usr/lib/python3.8/site-packages/tidylib/__pycache__/__init__.cpython-38.opt-2.pyc
--- replaced obj /usr/lib/python3.8/site-packages/tidylib/__pycache__/__init__.cpython-38.opt-1.pyc
--- replaced dir /usr/lib/python3.8/site-packages/tidylib/__pycache__
--- replaced obj /usr/lib/python3.8/site-packages/tidylib/__init__.py
--- replaced dir /usr/lib/python3.8/site-packages/tidylib
--- replaced obj /usr/lib/python3.8/site-packages/pytidylib-0.3.2-py3.8.egg-info
--- replaced dir /usr/lib/python3.8/site-packages
--- replaced dir /usr/lib/python3.8
--- replaced obj /usr/lib/python3.7/site-packages/tidylib/tidy.py
--- replaced obj /usr/lib/python3.7/site-packages/tidylib/sink.py
--- replaced obj /usr/lib/python3.7/site-packages/tidylib/__pycache__/tidy.cpython-37.pyc
--- replaced obj /usr/lib/python3.7/site-packages/tidylib/__pycache__/tidy.cpython-37.opt-2.pyc
--- replaced obj /usr/lib/python3.7/site-packages/tidylib/__pycache__/tidy.cpython-37.opt-1.pyc
--- replaced obj /usr/lib/python3.7/site-packages/tidylib/__pycache__/sink.cpython-37.pyc
--- replaced obj /usr/lib/python3.7/site-packages/tidylib/__pycache__/sink.cpython-37.opt-2.pyc
--- replaced obj /usr/lib/python3.7/site-packages/tidylib/__pycache__/sink.cpython-37.opt-1.pyc
--- replaced obj /usr/lib/python3.7/site-packages/tidylib/__pycache__/__init__.cpython-37.pyc
--- replaced obj /usr/lib/python3.7/site-packages/tidylib/__pycache__/__init__.cpython-37.opt-2.pyc
--- replaced obj /usr/lib/python3.7/site-packages/tidylib/__pycache__/__init__.cpython-37.opt-1.pyc
--- replaced dir /usr/lib/python3.7/site-packages/tidylib/__pycache__
--- replaced obj /usr/lib/python3.7/site-packages/tidylib/__init__.py
--- replaced dir /usr/lib/python3.7/site-packages/tidylib
--- replaced obj /usr/lib/python3.7/site-packages/pytidylib-0.3.2-py3.7.egg-info
--- replaced dir /usr/lib/python3.7/site-packages
--- replaced dir /usr/lib/python3.7
--- replaced obj /usr/lib/pypy3.6/site-packages/tidylib/tidy.py
--- replaced obj /usr/lib/pypy3.6/site-packages/tidylib/sink.py
--- replaced obj /usr/lib/pypy3.6/site-packages/tidylib/__pycache__/tidy.pypy36.pyc
--- replaced obj /usr/lib/pypy3.6/site-packages/tidylib/__pycache__/tidy.pypy36.opt-2.pyc
--- replaced obj /usr/lib/pypy3.6/site-packages/tidylib/__pycache__/tidy.pypy36.opt-1.pyc
--- replaced obj /usr/lib/pypy3.6/site-packages/tidylib/__pycache__/sink.pypy36.pyc
--- replaced obj /usr/lib/pypy3.6/site-packages/tidylib/__pycache__/sink.pypy36.opt-2.pyc
--- replaced obj /usr/lib/pypy3.6/site-packages/tidylib/__pycache__/sink.pypy36.opt-1.pyc
--- replaced obj /usr/lib/pypy3.6/site-packages/tidylib/__pycache__/__init__.pypy36.pyc
--- replaced obj /usr/lib/pypy3.6/site-packages/tidylib/__pycache__/__init__.pypy36.opt-2.pyc
--- replaced obj /usr/lib/pypy3.6/site-packages/tidylib/__pycache__/__init__.pypy36.opt-1.pyc
--- replaced dir /usr/lib/pypy3.6/site-packages/tidylib/__pycache__
--- replaced obj /usr/lib/pypy3.6/site-packages/tidylib/__init__.py
--- replaced dir /usr/lib/pypy3.6/site-packages/tidylib
--- replaced obj /usr/lib/pypy3.6/site-packages/pytidylib-0.3.2-py3.6.egg-info
--- replaced dir /usr/lib/pypy3.6/site-packages
--- replaced dir /usr/lib/pypy3.6
--- replaced dir /usr/lib
--- replaced dir /usr
>>> Regenerating /etc/ld.so.cache...
