No package files given... Grabbing a set.
<<<          obj /usr/lib64/perl5/vendor_perl/5.30.2/x86_64-linux/auto/Params/Util/Util.so
<<<          obj /usr/lib64/perl5/vendor_perl/5.30.2/x86_64-linux/auto/Params/Util/.packlist
<<<          obj /usr/lib64/perl5/vendor_perl/5.30.2/x86_64-linux/Params/Util.pm
<<<          dir /usr/lib64/perl5/vendor_perl/5.30.2/x86_64-linux/auto/Params/Util
<<<          dir /usr/lib64/perl5/vendor_perl/5.30.2/x86_64-linux/auto/Params
--- !empty   dir /usr/lib64/perl5/vendor_perl/5.30.2/x86_64-linux/auto
<<<          dir /usr/lib64/perl5/vendor_perl/5.30.2/x86_64-linux/Params
--- !empty   dir /usr/lib64/perl5/vendor_perl/5.30.2/x86_64-linux
--- !empty   dir /usr/lib64/perl5/vendor_perl/5.30.2
--- !empty   dir /usr/lib64/perl5/vendor_perl
--- !empty   dir /usr/lib64/perl5
--- !empty   dir /usr/lib64
--- !empty   dir /usr
