 * Package:    dev-perl/Module-Implementation-0.90.0
 * Repository: gentoo
 * Maintainer: perl@gentoo.org
 * USE:        abi_x86_64 amd64 elibc_glibc kernel_linux userland_GNU
 * FEATURES:   network-sandbox preserve-libs sandbox userpriv usersandbox
 * FEATURES='config-protect-if-modified nodoc unknown-features-warn buildpkg binpkg-dostrip preserve-libs userfetch assume-digests binpkg-logs news unmerge-logs sfperms multilib-strict strict merge-sync compress-index fixlafiles network-sandbox sandbox pid-sandbox usersandbox usersync cgroup ipc-sandbox qa-unresolved-soname-deps unmerge-orphans parallel-fetch strict-keepdir binpkg-docompress xattr ebuild-locks userpriv distlocks'
 * CFLAGS='-march=znver2 -O2 -pipe -fno-stack-protector -fno-stack-clash-protection -fstack-check=no -fno-stack-check -Wl,-O1 -Wl,--as-needed'
 * CXXFLAGS='-march=znver2 -O2 -pipe -fno-stack-protector -fno-stack-clash-protection -fstack-check=no -fno-stack-check -Wl,-O1 -Wl,--as-needed'
 * FFLAGS='-march=znver2 -O2 -pipe -fno-stack-protector -fno-stack-clash-protection -fstack-check=no -fno-stack-check -Wl,-O1 -Wl,--as-needed'
 * FCFLAGS='-march=znver2 -O2 -pipe -fno-stack-protector -fno-stack-clash-protection -fstack-check=no -fno-stack-check -Wl,-O1 -Wl,--as-needed'
 * F77FLAGS='-march=znver2 -O2 -pipe -fno-stack-protector -fno-stack-clash-protection -fstack-check=no -fno-stack-check -Wl,-O1 -Wl,--as-needed'
 * LDFLAGS='-Wl,-O1 -Wl,--as-needed'
 * MAKEOPTS='-j12 -l12'
 * gcc (Gentoo 10.1.0-r1 p2) 10.1.0
 * g++ (Gentoo 10.1.0-r1 p2) 10.1.0
 * GNU gold (Gentoo 2.34 p4 2.34.0) 1.16
 * Linux rescue 5.4.36 #1 SMP Thu Apr 30 04:38:28 UTC 2020 x86_64 AMD Ryzen 5 3600 6-Core Processor AuthenticAMD GNU/Linux
dev-perl/Module-Implementation: 8 seconds average for 19 merges
2020-05-21T12:53:59 >>> dev-perl/Module-Implementation: 9 seconds
2020-05-23T15:11:20 >>> dev-perl/Module-Implementation: 10 seconds
2020-05-24T05:18:19 >>> dev-perl/Module-Implementation: 5 seconds
2020-05-24T16:38:53 >>> dev-perl/Module-Implementation: 5 seconds
2020-05-25T00:35:01 >>> dev-perl/Module-Implementation: 10 seconds
2020-05-25T23:10:31 >>> dev-perl/Module-Implementation: 10 seconds
2020-05-26T14:24:29 >>> dev-perl/Module-Implementation: 5 seconds
2020-05-27T02:01:24 >>> dev-perl/Module-Implementation: 5 seconds
2020-05-27T04:28:29 >>> dev-perl/Module-Implementation: 11 seconds
2020-05-28T03:36:54 >>> dev-perl/Module-Implementation: 6 seconds
2020-05-29T02:31:21 >>> dev-perl/Module-Implementation: 6 seconds
2020-05-29T12:43:45 >>> dev-perl/Module-Implementation: 11 seconds
2020-05-30T14:22:33 >>> dev-perl/Module-Implementation: 10 seconds
2020-06-01T03:53:20 >>> dev-perl/Module-Implementation: 11 seconds
2020-06-03T13:24:24 >>> dev-perl/Module-Implementation: 11 seconds
2020-06-06T11:14:46 >>> dev-perl/Module-Implementation: 12 seconds
2020-06-12T01:54:23 >>> dev-perl/Module-Implementation: 5 seconds
2020-06-13T20:32:31 >>> dev-perl/Module-Implementation: 5 seconds
2020-06-15T14:10:20 >>> dev-perl/Module-Implementation: 5 seconds
]0;emerge 15:11:25 360|895 Module-Implementation 00:05 (root@rescue)>>> Unpacking source...
>>> Unpacking Module-Implementation-0.09.tar.gz to /tmp/portage/dev-perl/Module-Implementation-0.90.0/work
>>> Source unpacked in /tmp/portage/dev-perl/Module-Implementation-0.90.0/work
>>> Preparing source in /tmp/portage/dev-perl/Module-Implementation-0.90.0/work/Module-Implementation-0.09 ...
>>> Source prepared.
>>> Configuring source in /tmp/portage/dev-perl/Module-Implementation-0.90.0/work/Module-Implementation-0.09 ...
 * Using ExtUtils::MakeMaker
 * perl Makefile.PL PREFIX=/usr INSTALLDIRS=vendor INSTALLMAN3DIR=none DESTDIR=/tmp/portage/dev-perl/Module-Implementation-0.90.0/image/
Checking if your kit is complete...
Looks good
Warning: prerequisite Test::Requires 0 not found.
Generating a Unix-style Makefile
Writing Makefile for Module::Implementation
Writing MYMETA.yml and MYMETA.json
>>> Source configured.
>>> Compiling source in /tmp/portage/dev-perl/Module-Implementation-0.90.0/work/Module-Implementation-0.09 ...
 * emake OTHERLDFLAGS=-Wl,-O1 -Wl,--as-needed
make -j12 -l12 'OTHERLDFLAGS=-Wl,-O1 -Wl,--as-needed' 
cp lib/Module/Implementation.pm blib/lib/Module/Implementation.pm
>>> Source compiled.
 * Skipping make test/check due to ebuild restriction.
>>> Test phase [disabled because of RESTRICT=test]: dev-perl/Module-Implementation-0.90.0

>>> Install dev-perl/Module-Implementation-0.90.0 into /tmp/portage/dev-perl/Module-Implementation-0.90.0/image/
make -j12 -l12 pure_install 
Installing /tmp/portage/dev-perl/Module-Implementation-0.90.0/image/usr/lib64/perl5/vendor_perl/5.30.3/Module/Implementation.pm
 * Fixing packlist file /usr/lib64/perl5/vendor_perl/5.30.3/x86_64-linux-thread-multi/auto/Module/Implementation/.packlist
>>> Completed installing dev-perl/Module-Implementation-0.90.0 into /tmp/portage/dev-perl/Module-Implementation-0.90.0/image/

 * Final size of build directory: 356 KiB
 * Final size of installed tree:   80 KiB

Parallel BZIP2 v1.1.13 [Dec 18, 2015]
By: Jeff Gilchrist [http://compression.ca]
Major contributions: Yavor Nikolov [http://javornikolov.wordpress.com]
Uses libbzip2 by Julian Seward

         # CPUs: 11
   Load Average: 1.44
 BWT Block Size: 200 KB
File Block Size: 900 KB
 Maximum Memory: 1024 MB
-------------------------------------------
         File #: 1 of 1
     Input Name: compressme
    Output Name: compressme.bz2

     Input Size: 3895 bytes
Compressing data (no threads)...
Completed: 100%                 Output Size: 918 bytes
-------------------------------------------

     Wall Clock: 0.000787 seconds
Parallel BZIP2 v1.1.13 [Dec 18, 2015]
By: Jeff Gilchrist [http://compression.ca]
Major contributions: Yavor Nikolov [http://javornikolov.wordpress.com]
Uses libbzip2 by Julian Seward

         # CPUs: 11
   Load Average: 1.44
 BWT Block Size: 200 KB
File Block Size: 900 KB
 Maximum Memory: 1024 MB
-------------------------------------------
         File #: 1 of 1
     Input Name: /tmp/portage/dev-perl/Module-Implementation-0.90.0/image/usr/share/doc/Module-Implementation-0.90.0/README.md
    Output Name: /tmp/portage/dev-perl/Module-Implementation-0.90.0/image/usr/share/doc/Module-Implementation-0.90.0/README.md.bz2

     Input Size: 4223 bytes
Compressing data (no threads)...
Completed: 100%                 Output Size: 1810 bytes
-------------------------------------------

     Wall Clock: 0.001231 seconds
Parallel BZIP2 v1.1.13 [Dec 18, 2015]
By: Jeff Gilchrist [http://compression.ca]
Major contributions: Yavor Nikolov [http://javornikolov.wordpress.com]
Uses libbzip2 by Julian Seward

         # CPUs: 11
   Load Average: 1.44
 BWT Block Size: 200 KB
File Block Size: 900 KB
 Maximum Memory: 1024 MB
-------------------------------------------
         File #: 1 of 1
     Input Name: /tmp/portage/dev-perl/Module-Implementation-0.90.0/image/usr/share/doc/Module-Implementation-0.90.0/Changes
    Output Name: /tmp/portage/dev-perl/Module-Implementation-0.90.0/image/usr/share/doc/Module-Implementation-0.90.0/Changes.bz2

     Input Size: 1427 bytes
Compressing data (no threads)...
Completed: 100%                 Output Size: 756 bytes
-------------------------------------------

     Wall Clock: 0.000677 seconds
./
./usr/
./usr/share/
./usr/share/doc/
./usr/share/doc/Module-Implementation-0.90.0/
./usr/share/doc/Module-Implementation-0.90.0/Changes
./usr/share/doc/Module-Implementation-0.90.0/README.md.bz2
./usr/share/doc/Module-Implementation-0.90.0/README.md
./usr/share/doc/Module-Implementation-0.90.0/Changes.bz2
./usr/lib64/
./usr/lib64/perl5/
./usr/lib64/perl5/vendor_perl/
./usr/lib64/perl5/vendor_perl/5.30.3/
./usr/lib64/perl5/vendor_perl/5.30.3/x86_64-linux-thread-multi/
./usr/lib64/perl5/vendor_perl/5.30.3/x86_64-linux-thread-multi/auto/
./usr/lib64/perl5/vendor_perl/5.30.3/x86_64-linux-thread-multi/auto/Module/
./usr/lib64/perl5/vendor_perl/5.30.3/x86_64-linux-thread-multi/auto/Module/Implementation/
./usr/lib64/perl5/vendor_perl/5.30.3/x86_64-linux-thread-multi/auto/Module/Implementation/.packlist
./usr/lib64/perl5/vendor_perl/5.30.3/Module/
./usr/lib64/perl5/vendor_perl/5.30.3/Module/Implementation.pm
>>> Done.
 * checking 2 files for package collisions
>>> Merging dev-perl/Module-Implementation-0.90.0 to /
 * removing unneeded *.la files
--- /usr/
--- /usr/lib64/
--- /usr/lib64/perl5/
--- /usr/lib64/perl5/vendor_perl/
--- /usr/lib64/perl5/vendor_perl/5.30.3/
--- /usr/lib64/perl5/vendor_perl/5.30.3/Module/
>>> /usr/lib64/perl5/vendor_perl/5.30.3/Module/Implementation.pm
--- /usr/lib64/perl5/vendor_perl/5.30.3/x86_64-linux-thread-multi/
--- /usr/lib64/perl5/vendor_perl/5.30.3/x86_64-linux-thread-multi/auto/
--- /usr/lib64/perl5/vendor_perl/5.30.3/x86_64-linux-thread-multi/auto/Module/
--- /usr/lib64/perl5/vendor_perl/5.30.3/x86_64-linux-thread-multi/auto/Module/Implementation/
>>> /usr/lib64/perl5/vendor_perl/5.30.3/x86_64-linux-thread-multi/auto/Module/Implementation/.packlist
>>> Safely unmerging already-installed instance...
!!! File Not Found: '/etc/env.d/99lcdfilter'
>>> Original instance of package unmerged safely.
>>> dev-perl/Module-Implementation-0.90.0 merged.
!!! File Not Found: '/etc/env.d/99lcdfilter'
