 * Package:    dev-ruby/bcat-0.6.2-r3
 * Repository: gentoo
 * Maintainer: ruby@gentoo.org
 * USE:        abi_x86_64 amd64 elibc_glibc kernel_linux ruby_targets_ruby25 ruby_targets_ruby26 test userland_GNU
 * FEATURES:   ccache network-sandbox preserve-libs sandbox userpriv usersandbox
 * /etc/portage/package.cflags/ltoworkarounds.conf -> */*: *FLAGS+=-Wl,-O4 *FLAGS-=-Wl,-O1
 * FEATURES='assume-digests binpkg-docompress binpkg-dostrip binpkg-logs binpkg-multi-instance buildpkg ccache cgroup compress-index config-protect-if-modified distlocks fixlafiles ipc-sandbox merge-sync multilib-strict network-sandbox news nodoc parallel-fetch parallel-install pid-sandbox preserve-libs qa-unresolved-soname-deps sandbox sfperms strict strict-keepdir unknown-features-warn unmerge-logs unmerge-orphans userfetch userpriv usersandbox usersync xattr'
 * CFLAGS='-march=znver2 -pipe -g0 -O3 -fgraphite-identity -floop-nest-optimize -fdevirtualize-at-ltrans -fipa-pta -fno-semantic-interposition -flto=12 -fno-plt -fno-signed-zeros -fno-trapping-math -fassociative-math -freciprocal-math -fno-math-errno -ffinite-math-only -fno-rounding-math -fno-signaling-nans -fcx-limited-range -fexcess-precision=fast -falign-functions=32 -fno-stack-protector -fno-stack-clash-protection -fstack-check=no -fno-stack-check -fuse-linker-plugin -Wl,-O4 -Wl,--as-needed -Wl,-lpthread -Wl,-lgomp -Wl,-z,norelro -Wl,-z,now -Wl,--sort-common -s'
 * CXXFLAGS='-march=znver2 -pipe -g0 -O3 -fgraphite-identity -floop-nest-optimize -fdevirtualize-at-ltrans -fipa-pta -fno-semantic-interposition -flto=12 -fno-plt -fno-signed-zeros -fno-trapping-math -fassociative-math -freciprocal-math -fno-math-errno -ffinite-math-only -fno-rounding-math -fno-signaling-nans -fcx-limited-range -fexcess-precision=fast -falign-functions=32 -fno-stack-protector -fno-stack-clash-protection -fstack-check=no -fno-stack-check -fuse-linker-plugin -Wl,-O4 -Wl,--as-needed -Wl,-lpthread -Wl,-lgomp -Wl,-z,norelro -Wl,-z,now -Wl,--sort-common -s'
 * FFLAGS='-march=znver2 -pipe -g0 -O3 -fgraphite-identity -floop-nest-optimize -fdevirtualize-at-ltrans -fipa-pta -fno-semantic-interposition -flto=12 -fno-plt -fno-signed-zeros -fno-trapping-math -fassociative-math -freciprocal-math -fno-math-errno -ffinite-math-only -fno-rounding-math -fno-signaling-nans -fcx-limited-range -fexcess-precision=fast -falign-functions=32 -fno-stack-protector -fno-stack-clash-protection -fstack-check=no -fno-stack-check -fuse-linker-plugin -Wl,-O4 -Wl,--as-needed -Wl,-lpthread -Wl,-lgomp -Wl,-z,norelro -Wl,-z,now -Wl,--sort-common -s'
 * FCFLAGS='-march=znver2 -pipe -g0 -O3 -fgraphite-identity -floop-nest-optimize -fdevirtualize-at-ltrans -fipa-pta -fno-semantic-interposition -flto=12 -fno-plt -fno-signed-zeros -fno-trapping-math -fassociative-math -freciprocal-math -fno-math-errno -ffinite-math-only -fno-rounding-math -fno-signaling-nans -fcx-limited-range -fexcess-precision=fast -falign-functions=32 -fno-stack-protector -fno-stack-clash-protection -fstack-check=no -fno-stack-check -fuse-linker-plugin -Wl,-O4 -Wl,--as-needed -Wl,-lpthread -Wl,-lgomp -Wl,-z,norelro -Wl,-z,now -Wl,--sort-common -s'
 * F77FLAGS='-march=znver2 -pipe -g0 -O3 -fgraphite-identity -floop-nest-optimize -fdevirtualize-at-ltrans -fipa-pta -fno-semantic-interposition -flto=12 -fno-plt -fno-signed-zeros -fno-trapping-math -fassociative-math -freciprocal-math -fno-math-errno -ffinite-math-only -fno-rounding-math -fno-signaling-nans -fcx-limited-range -fexcess-precision=fast -falign-functions=32 -fno-stack-protector -fno-stack-clash-protection -fstack-check=no -fno-stack-check -fuse-linker-plugin -Wl,-O4 -Wl,--as-needed -Wl,-lpthread -Wl,-lgomp -Wl,-z,norelro -Wl,-z,now -Wl,--sort-common -s'
 * LDFLAGS='-march=znver2 -pipe -g0 -O3 -fgraphite-identity -floop-nest-optimize -fdevirtualize-at-ltrans -fipa-pta -fno-semantic-interposition -flto=12 -fno-plt -fno-signed-zeros -fno-trapping-math -fassociative-math -freciprocal-math -fno-math-errno -ffinite-math-only -fno-rounding-math -fno-signaling-nans -fcx-limited-range -fexcess-precision=fast -falign-functions=32 -fno-stack-protector -fno-stack-clash-protection -fstack-check=no -fno-stack-check -fuse-linker-plugin -Wl,-O4 -Wl,--as-needed -Wl,-lpthread -Wl,-lgomp -Wl,-z,norelro -Wl,-z,now -Wl,--sort-common -s'
 * MAKEOPTS='-j12 -l12'
 * gcc () 11.0.0 20200605 (experimental)
 * g++ () 11.0.0 20200605 (experimental)
 * GNU ld (Gentoo 2.34 p4) 2.34.0
 * Linux ryzen.gnum.org 5.4.36 #1 SMP Thu Apr 30 04:38:28 UTC 2020 x86_64 AMD Ryzen 5 3600 6-Core Processor AuthenticAMD GNU/Linux
dev-ruby/bcat: 13 seconds average for 3 merges
2020-05-28T10:42:55 >>> dev-ruby/bcat: 12 seconds
2020-05-31T00:32:45 >>> dev-ruby/bcat: 15 seconds
2020-06-01T04:08:14 >>> dev-ruby/bcat: 12 seconds
]0;emerge 00:44:06 32|231 bcat 00:13 (root@ryzen.gnum.org)kemerge 00:44:06 32|231 bcat 00:13 (root@ryzen.gnum.org)\>>> Unpacking source...
 * Running unpack phase for all ...
 * Unpacking .gem file... ...
 [ ok ]
 * Uncompressing metadata ...
 [ ok ]
 * Unpacking data.tar.gz ...
 [ ok ]
>>> Source unpacked in /tmp/portage/dev-ruby/bcat-0.6.2-r3/work
>>> Preparing source in /tmp/portage/dev-ruby/bcat-0.6.2-r3/work ...
 * Running prepare phase for all ...
 * Running source copy phase for ruby25 ...
 * Running source copy phase for ruby26 ...
 * Running prepare phase for ruby25 ...
 * Running prepare phase for ruby26 ...
>>> Source prepared.
>>> Configuring source in /tmp/portage/dev-ruby/bcat-0.6.2-r3/work ...
>>> Source configured.
>>> Compiling source in /tmp/portage/dev-ruby/bcat-0.6.2-r3/work ...
 * Running compile phase for all ...
>>> Source compiled.
>>> Test phase [not enabled]: dev-ruby/bcat-0.6.2-r3

>>> Install dev-ruby/bcat-0.6.2-r3 into /tmp/portage/dev-ruby/bcat-0.6.2-r3/image/
 * Running install phase for ruby25 ...
 * Running install phase for ruby26 ...
 * Running install phase for all ...
 * Running check install phase for ruby25 ...
 * Running check install phase for ruby26 ...
>>> Completed installing dev-ruby/bcat-0.6.2-r3 into /tmp/portage/dev-ruby/bcat-0.6.2-r3/image/

 * Final size of build directory: 272 KiB
 * Final size of installed tree:  224 KiB

./
./usr/
./usr/bin/
./usr/bin/bcat
./usr/bin/a2h
./usr/bin/btee
./usr/share/
./usr/share/man/
./usr/share/man/man1/
./usr/share/man/man1/btee.1.bz2
./usr/share/man/man1/a2h.1.bz2
./usr/share/man/man1/bcat.1.bz2
./usr/share/doc/
./usr/share/doc/bcat-0.6.2-r3/
./usr/share/doc/bcat-0.6.2-r3/README.bz2
./usr/lib64/
./usr/lib64/ruby/
./usr/lib64/ruby/gems/
./usr/lib64/ruby/gems/2.6.0/
./usr/lib64/ruby/gems/2.6.0/specifications/
./usr/lib64/ruby/gems/2.6.0/specifications/bcat-0.6.2.gemspec
./usr/lib64/ruby/gems/2.6.0/gems/
./usr/lib64/ruby/gems/2.6.0/gems/bcat-0.6.2/
./usr/lib64/ruby/gems/2.6.0/gems/bcat-0.6.2/lib/
./usr/lib64/ruby/gems/2.6.0/gems/bcat-0.6.2/lib/bcat/
./usr/lib64/ruby/gems/2.6.0/gems/bcat-0.6.2/lib/bcat/reader.rb
./usr/lib64/ruby/gems/2.6.0/gems/bcat-0.6.2/lib/bcat/html.rb
./usr/lib64/ruby/gems/2.6.0/gems/bcat-0.6.2/lib/bcat/server.rb
./usr/lib64/ruby/gems/2.6.0/gems/bcat-0.6.2/lib/bcat/browser.rb
./usr/lib64/ruby/gems/2.6.0/gems/bcat-0.6.2/lib/bcat/ansi.rb
./usr/lib64/ruby/gems/2.6.0/gems/bcat-0.6.2/lib/bcat.rb
./usr/lib64/ruby/gems/2.6.0/gems/bcat-0.6.2/bin/
./usr/lib64/ruby/gems/2.6.0/gems/bcat-0.6.2/bin/bcat
./usr/lib64/ruby/gems/2.6.0/gems/bcat-0.6.2/bin/a2h
./usr/lib64/ruby/gems/2.6.0/gems/bcat-0.6.2/bin/btee
./usr/lib64/ruby/gems/2.5.0/
./usr/lib64/ruby/gems/2.5.0/specifications/
./usr/lib64/ruby/gems/2.5.0/specifications/bcat-0.6.2.gemspec
./usr/lib64/ruby/gems/2.5.0/gems/
./usr/lib64/ruby/gems/2.5.0/gems/bcat-0.6.2/
./usr/lib64/ruby/gems/2.5.0/gems/bcat-0.6.2/lib/
./usr/lib64/ruby/gems/2.5.0/gems/bcat-0.6.2/lib/bcat/
./usr/lib64/ruby/gems/2.5.0/gems/bcat-0.6.2/lib/bcat/reader.rb
./usr/lib64/ruby/gems/2.5.0/gems/bcat-0.6.2/lib/bcat/html.rb
./usr/lib64/ruby/gems/2.5.0/gems/bcat-0.6.2/lib/bcat/server.rb
./usr/lib64/ruby/gems/2.5.0/gems/bcat-0.6.2/lib/bcat/browser.rb
./usr/lib64/ruby/gems/2.5.0/gems/bcat-0.6.2/lib/bcat/ansi.rb
./usr/lib64/ruby/gems/2.5.0/gems/bcat-0.6.2/lib/bcat.rb
./usr/lib64/ruby/gems/2.5.0/gems/bcat-0.6.2/bin/
./usr/lib64/ruby/gems/2.5.0/gems/bcat-0.6.2/bin/bcat
./usr/lib64/ruby/gems/2.5.0/gems/bcat-0.6.2/bin/a2h
./usr/lib64/ruby/gems/2.5.0/gems/bcat-0.6.2/bin/btee
>>> Done.
 * checking 26 files for package collisions
>>> Merging dev-ruby/bcat-0.6.2-r3 to /
 * removing unneeded *.la files
--- /usr/
--- /usr/lib64/
--- /usr/lib64/ruby/
--- /usr/lib64/ruby/gems/
--- /usr/lib64/ruby/gems/2.5.0/
--- /usr/lib64/ruby/gems/2.5.0/gems/
>>> /usr/lib64/ruby/gems/2.5.0/gems/bcat-0.6.2/
>>> /usr/lib64/ruby/gems/2.5.0/gems/bcat-0.6.2/bin/
>>> /usr/lib64/ruby/gems/2.5.0/gems/bcat-0.6.2/bin/btee
>>> /usr/lib64/ruby/gems/2.5.0/gems/bcat-0.6.2/bin/a2h
>>> /usr/lib64/ruby/gems/2.5.0/gems/bcat-0.6.2/bin/bcat
>>> /usr/lib64/ruby/gems/2.5.0/gems/bcat-0.6.2/lib/
>>> /usr/lib64/ruby/gems/2.5.0/gems/bcat-0.6.2/lib/bcat.rb
>>> /usr/lib64/ruby/gems/2.5.0/gems/bcat-0.6.2/lib/bcat/
>>> /usr/lib64/ruby/gems/2.5.0/gems/bcat-0.6.2/lib/bcat/ansi.rb
>>> /usr/lib64/ruby/gems/2.5.0/gems/bcat-0.6.2/lib/bcat/browser.rb
>>> /usr/lib64/ruby/gems/2.5.0/gems/bcat-0.6.2/lib/bcat/server.rb
>>> /usr/lib64/ruby/gems/2.5.0/gems/bcat-0.6.2/lib/bcat/html.rb
>>> /usr/lib64/ruby/gems/2.5.0/gems/bcat-0.6.2/lib/bcat/reader.rb
--- /usr/lib64/ruby/gems/2.5.0/specifications/
>>> /usr/lib64/ruby/gems/2.5.0/specifications/bcat-0.6.2.gemspec
--- /usr/lib64/ruby/gems/2.6.0/
--- /usr/lib64/ruby/gems/2.6.0/gems/
--- /usr/lib64/ruby/gems/2.6.0/gems/bcat-0.6.2/
--- /usr/lib64/ruby/gems/2.6.0/gems/bcat-0.6.2/bin/
>>> /usr/lib64/ruby/gems/2.6.0/gems/bcat-0.6.2/bin/btee
>>> /usr/lib64/ruby/gems/2.6.0/gems/bcat-0.6.2/bin/a2h
>>> /usr/lib64/ruby/gems/2.6.0/gems/bcat-0.6.2/bin/bcat
--- /usr/lib64/ruby/gems/2.6.0/gems/bcat-0.6.2/lib/
>>> /usr/lib64/ruby/gems/2.6.0/gems/bcat-0.6.2/lib/bcat.rb
--- /usr/lib64/ruby/gems/2.6.0/gems/bcat-0.6.2/lib/bcat/
>>> /usr/lib64/ruby/gems/2.6.0/gems/bcat-0.6.2/lib/bcat/ansi.rb
>>> /usr/lib64/ruby/gems/2.6.0/gems/bcat-0.6.2/lib/bcat/browser.rb
>>> /usr/lib64/ruby/gems/2.6.0/gems/bcat-0.6.2/lib/bcat/server.rb
>>> /usr/lib64/ruby/gems/2.6.0/gems/bcat-0.6.2/lib/bcat/html.rb
>>> /usr/lib64/ruby/gems/2.6.0/gems/bcat-0.6.2/lib/bcat/reader.rb
--- /usr/lib64/ruby/gems/2.6.0/specifications/
>>> /usr/lib64/ruby/gems/2.6.0/specifications/bcat-0.6.2.gemspec
--- /usr/share/
--- /usr/share/man/
--- /usr/share/man/man1/
>>> /usr/share/man/man1/bcat.1.bz2
>>> /usr/share/man/man1/a2h.1.bz2
>>> /usr/share/man/man1/btee.1.bz2
--- /usr/bin/
>>> /usr/bin/btee
>>> /usr/bin/a2h
>>> /usr/bin/bcat
>>> Safely unmerging already-installed instance...
>>> Original instance of package unmerged safely.
>>> dev-ruby/bcat-0.6.2-r3 merged.
