No package files given... Grabbing a set.
<<<          obj /usr/lib64/perl5/vendor_perl/5.30.3/x86_64-linux-thread-multi/auto/File/Which/.packlist
<<<          obj /usr/lib64/perl5/vendor_perl/5.30.3/File/Which.pm
<<<          dir /usr/lib64/perl5/vendor_perl/5.30.3/x86_64-linux-thread-multi/auto/File/Which
--- !empty   dir /usr/lib64/perl5/vendor_perl/5.30.3/x86_64-linux-thread-multi/auto/File
--- !empty   dir /usr/lib64/perl5/vendor_perl/5.30.3/x86_64-linux-thread-multi/auto
--- !empty   dir /usr/lib64/perl5/vendor_perl/5.30.3/x86_64-linux-thread-multi
--- !empty   dir /usr/lib64/perl5/vendor_perl/5.30.3/File
--- !empty   dir /usr/lib64/perl5/vendor_perl/5.30.3
--- !empty   dir /usr/lib64/perl5/vendor_perl
--- !empty   dir /usr/lib64/perl5
--- !empty   dir /usr/lib64
--- !empty   dir /usr
