 * Package:    dev-util/cram-0.7
 * Repository: gentoo
 * Maintainer: rafaelmartins@gentoo.org
 * USE:        abi_x86_64 amd64 elibc_glibc kernel_linux python_targets_pypy3 python_targets_python3_7 python_targets_python3_8 userland_GNU
 * FEATURES:   network-sandbox preserve-libs sandbox userpriv usersandbox
 * FEATURES='assume-digests binpkg-docompress binpkg-dostrip binpkg-logs binpkg-multi-instance buildpkg cgroup compress-index config-protect-if-modified distlocks downgrade-backup fixlafiles ipc-sandbox merge-sync multilib-strict network-sandbox news nodoc parallel-fetch parallel-install pid-sandbox preserve-libs qa-unresolved-soname-deps sandbox sfperms strict strict-keepdir unknown-features-warn unmerge-backup unmerge-logs unmerge-orphans userfetch userpriv usersandbox usersync xattr'
 * CFLAGS='-march=native -O3 -fgraphite-identity -floop-nest-optimize -fdevirtualize-at-ltrans -fipa-pta -fno-semantic-interposition -flto=12 -fno-plt -fno-math-errno -fno-trapping-math -fuse-linker-plugin -pipe -g0 -falign-functions=32 -fno-stack-protector -fno-stack-clash-protection -fstack-check=no -fno-stack-check -Wl,-O4 -Wl,--hash-style=gnu,--sort-common,--as-needed,-lgomp,-lpthread,-z,relro,-z,now'
 * CXXFLAGS='-march=native -O3 -fgraphite-identity -floop-nest-optimize -fdevirtualize-at-ltrans -fipa-pta -fno-semantic-interposition -flto=12 -fno-plt -fno-math-errno -fno-trapping-math -fuse-linker-plugin -pipe -g0 -falign-functions=32 -fno-stack-protector -fno-stack-clash-protection -fstack-check=no -fno-stack-check -Wl,-O4 -Wl,--hash-style=gnu,--sort-common,--as-needed,-lgomp,-lpthread,-z,relro,-z,now'
 * FFLAGS='-march=native -O3 -fgraphite-identity -floop-nest-optimize -fdevirtualize-at-ltrans -fipa-pta -fno-semantic-interposition -flto=12 -fno-plt -fno-math-errno -fno-trapping-math -fuse-linker-plugin -pipe -g0 -falign-functions=32 -fno-stack-protector -fno-stack-clash-protection -fstack-check=no -fno-stack-check -Wl,-O4 -Wl,--hash-style=gnu,--sort-common,--as-needed,-lgomp,-lpthread,-z,relro,-z,now'
 * FCFLAGS='-march=native -O3 -fgraphite-identity -floop-nest-optimize -fdevirtualize-at-ltrans -fipa-pta -fno-semantic-interposition -flto=12 -fno-plt -fno-math-errno -fno-trapping-math -fuse-linker-plugin -pipe -g0 -falign-functions=32 -fno-stack-protector -fno-stack-clash-protection -fstack-check=no -fno-stack-check -Wl,-O4 -Wl,--hash-style=gnu,--sort-common,--as-needed,-lgomp,-lpthread,-z,relro,-z,now'
 * F77FLAGS='-march=native -O3 -fgraphite-identity -floop-nest-optimize -fdevirtualize-at-ltrans -fipa-pta -fno-semantic-interposition -flto=12 -fno-plt -fno-math-errno -fno-trapping-math -fuse-linker-plugin -pipe -g0 -falign-functions=32 -fno-stack-protector -fno-stack-clash-protection -fstack-check=no -fno-stack-check -Wl,-O4 -Wl,--hash-style=gnu,--sort-common,--as-needed,-lgomp,-lpthread,-z,relro,-z,now'
 * LDFLAGS='-Wl,-O4 -Wl,--hash-style=gnu,--sort-common,--as-needed,-lgomp,-lpthread,-z,relro,-z,now -march=native -O3 -fgraphite-identity -floop-nest-optimize -fdevirtualize-at-ltrans -fipa-pta -fno-semantic-interposition -flto=12 -fno-plt -fno-math-errno -fno-trapping-math -fuse-linker-plugin -pipe -g0 -falign-functions=32 -fno-stack-protector -fno-stack-clash-protection -fstack-check=no -fno-stack-check'
 * MAKEOPTS='-j12 -l12'
 * gcc () 11.0.0 20200526 (experimental)
 * g++ () 11.0.0 20200526 (experimental)
 * GNU ld (Gentoo 2.34 p4) 2.34.0
 * Linux ryzen.gnum.org 5.4.36 #1 SMP Thu Apr 30 04:38:28 UTC 2020 x86_64 AMD Ryzen 5 3600 6-Core Processor AuthenticAMD GNU/Linux
]0;emerge 04:51:41 57|320 cram (root@ryzen.gnum.org)kemerge 04:51:41 57|320 cram (root@ryzen.gnum.org)\>>> Unpacking source...
>>> Unpacking cram-0.7.tar.gz to /tmp/portage/dev-util/cram-0.7/work
>>> Source unpacked in /tmp/portage/dev-util/cram-0.7/work
>>> Preparing source in /tmp/portage/dev-util/cram-0.7/work/cram-0.7 ...
>>> Source prepared.
>>> Configuring source in /tmp/portage/dev-util/cram-0.7/work/cram-0.7 ...
>>> Source configured.
>>> Compiling source in /tmp/portage/dev-util/cram-0.7/work/cram-0.7 ...
 * pypy3: running distutils-r1_run_phase distutils-r1_python_compile
 * DISTUTILS_USE_SETUPTOOLS value is probably incorrect
 *   value:    DISTUTILS_USE_SETUPTOOLS=bdepend (default?)
 *   expected: DISTUTILS_USE_SETUPTOOLS=no
pypy3 setup.py build -j 12
running build
running build_py
creating /tmp/portage/dev-util/cram-0.7/work/cram-0.7-pypy3/lib/cram
copying cram/_encoding.py -> /tmp/portage/dev-util/cram-0.7/work/cram-0.7-pypy3/lib/cram
copying cram/_main.py -> /tmp/portage/dev-util/cram-0.7/work/cram-0.7-pypy3/lib/cram
copying cram/_process.py -> /tmp/portage/dev-util/cram-0.7/work/cram-0.7-pypy3/lib/cram
copying cram/_xunit.py -> /tmp/portage/dev-util/cram-0.7/work/cram-0.7-pypy3/lib/cram
copying cram/__init__.py -> /tmp/portage/dev-util/cram-0.7/work/cram-0.7-pypy3/lib/cram
copying cram/_cli.py -> /tmp/portage/dev-util/cram-0.7/work/cram-0.7-pypy3/lib/cram
copying cram/_diff.py -> /tmp/portage/dev-util/cram-0.7/work/cram-0.7-pypy3/lib/cram
copying cram/_run.py -> /tmp/portage/dev-util/cram-0.7/work/cram-0.7-pypy3/lib/cram
copying cram/__main__.py -> /tmp/portage/dev-util/cram-0.7/work/cram-0.7-pypy3/lib/cram
copying cram/_test.py -> /tmp/portage/dev-util/cram-0.7/work/cram-0.7-pypy3/lib/cram
warning: build_py: byte-compiling is disabled, skipping.

running build_scripts
creating /tmp/portage/dev-util/cram-0.7/work/cram-0.7-pypy3/scripts
copying and adjusting scripts/cram -> /tmp/portage/dev-util/cram-0.7/work/cram-0.7-pypy3/scripts
changing mode of /tmp/portage/dev-util/cram-0.7/work/cram-0.7-pypy3/scripts/cram from 644 to 755
 * python3_7: running distutils-r1_run_phase distutils-r1_python_compile
python3.7 setup.py build -j 12
running build
running build_py
creating /tmp/portage/dev-util/cram-0.7/work/cram-0.7-python3_7/lib/cram
copying cram/_encoding.py -> /tmp/portage/dev-util/cram-0.7/work/cram-0.7-python3_7/lib/cram
copying cram/_main.py -> /tmp/portage/dev-util/cram-0.7/work/cram-0.7-python3_7/lib/cram
copying cram/_process.py -> /tmp/portage/dev-util/cram-0.7/work/cram-0.7-python3_7/lib/cram
copying cram/_xunit.py -> /tmp/portage/dev-util/cram-0.7/work/cram-0.7-python3_7/lib/cram
copying cram/__init__.py -> /tmp/portage/dev-util/cram-0.7/work/cram-0.7-python3_7/lib/cram
copying cram/_cli.py -> /tmp/portage/dev-util/cram-0.7/work/cram-0.7-python3_7/lib/cram
copying cram/_diff.py -> /tmp/portage/dev-util/cram-0.7/work/cram-0.7-python3_7/lib/cram
copying cram/_run.py -> /tmp/portage/dev-util/cram-0.7/work/cram-0.7-python3_7/lib/cram
copying cram/__main__.py -> /tmp/portage/dev-util/cram-0.7/work/cram-0.7-python3_7/lib/cram
copying cram/_test.py -> /tmp/portage/dev-util/cram-0.7/work/cram-0.7-python3_7/lib/cram
warning: build_py: byte-compiling is disabled, skipping.

running build_scripts
creating /tmp/portage/dev-util/cram-0.7/work/cram-0.7-python3_7/scripts
copying and adjusting scripts/cram -> /tmp/portage/dev-util/cram-0.7/work/cram-0.7-python3_7/scripts
changing mode of /tmp/portage/dev-util/cram-0.7/work/cram-0.7-python3_7/scripts/cram from 644 to 755
 * python3_8: running distutils-r1_run_phase distutils-r1_python_compile
python3.8 setup.py build -j 12
running build
running build_py
creating /tmp/portage/dev-util/cram-0.7/work/cram-0.7-python3_8/lib/cram
copying cram/_encoding.py -> /tmp/portage/dev-util/cram-0.7/work/cram-0.7-python3_8/lib/cram
copying cram/_main.py -> /tmp/portage/dev-util/cram-0.7/work/cram-0.7-python3_8/lib/cram
copying cram/_process.py -> /tmp/portage/dev-util/cram-0.7/work/cram-0.7-python3_8/lib/cram
copying cram/_xunit.py -> /tmp/portage/dev-util/cram-0.7/work/cram-0.7-python3_8/lib/cram
copying cram/__init__.py -> /tmp/portage/dev-util/cram-0.7/work/cram-0.7-python3_8/lib/cram
copying cram/_cli.py -> /tmp/portage/dev-util/cram-0.7/work/cram-0.7-python3_8/lib/cram
copying cram/_diff.py -> /tmp/portage/dev-util/cram-0.7/work/cram-0.7-python3_8/lib/cram
copying cram/_run.py -> /tmp/portage/dev-util/cram-0.7/work/cram-0.7-python3_8/lib/cram
copying cram/__main__.py -> /tmp/portage/dev-util/cram-0.7/work/cram-0.7-python3_8/lib/cram
copying cram/_test.py -> /tmp/portage/dev-util/cram-0.7/work/cram-0.7-python3_8/lib/cram
warning: build_py: byte-compiling is disabled, skipping.

running build_scripts
creating /tmp/portage/dev-util/cram-0.7/work/cram-0.7-python3_8/scripts
copying and adjusting scripts/cram -> /tmp/portage/dev-util/cram-0.7/work/cram-0.7-python3_8/scripts
changing mode of /tmp/portage/dev-util/cram-0.7/work/cram-0.7-python3_8/scripts/cram from 644 to 755
>>> Source compiled.
>>> Test phase [not enabled]: dev-util/cram-0.7

>>> Install dev-util/cram-0.7 into /tmp/portage/dev-util/cram-0.7/image
 * pypy3: running distutils-r1_run_phase distutils-r1_python_install
pypy3 setup.py install --skip-build --root=/tmp/portage/dev-util/cram-0.7/image/_pypy3
running install
running install_lib
creating /tmp/portage/dev-util/cram-0.7/image/_pypy3
creating /tmp/portage/dev-util/cram-0.7/image/_pypy3/usr
creating /tmp/portage/dev-util/cram-0.7/image/_pypy3/usr/lib
creating /tmp/portage/dev-util/cram-0.7/image/_pypy3/usr/lib/pypy3.6
creating /tmp/portage/dev-util/cram-0.7/image/_pypy3/usr/lib/pypy3.6/site-packages
creating /tmp/portage/dev-util/cram-0.7/image/_pypy3/usr/lib/pypy3.6/site-packages/cram
copying /tmp/portage/dev-util/cram-0.7/work/cram-0.7-pypy3/lib/cram/_encoding.py -> /tmp/portage/dev-util/cram-0.7/image/_pypy3/usr/lib/pypy3.6/site-packages/cram
copying /tmp/portage/dev-util/cram-0.7/work/cram-0.7-pypy3/lib/cram/_main.py -> /tmp/portage/dev-util/cram-0.7/image/_pypy3/usr/lib/pypy3.6/site-packages/cram
copying /tmp/portage/dev-util/cram-0.7/work/cram-0.7-pypy3/lib/cram/_process.py -> /tmp/portage/dev-util/cram-0.7/image/_pypy3/usr/lib/pypy3.6/site-packages/cram
copying /tmp/portage/dev-util/cram-0.7/work/cram-0.7-pypy3/lib/cram/_xunit.py -> /tmp/portage/dev-util/cram-0.7/image/_pypy3/usr/lib/pypy3.6/site-packages/cram
copying /tmp/portage/dev-util/cram-0.7/work/cram-0.7-pypy3/lib/cram/__init__.py -> /tmp/portage/dev-util/cram-0.7/image/_pypy3/usr/lib/pypy3.6/site-packages/cram
copying /tmp/portage/dev-util/cram-0.7/work/cram-0.7-pypy3/lib/cram/_cli.py -> /tmp/portage/dev-util/cram-0.7/image/_pypy3/usr/lib/pypy3.6/site-packages/cram
copying /tmp/portage/dev-util/cram-0.7/work/cram-0.7-pypy3/lib/cram/_diff.py -> /tmp/portage/dev-util/cram-0.7/image/_pypy3/usr/lib/pypy3.6/site-packages/cram
copying /tmp/portage/dev-util/cram-0.7/work/cram-0.7-pypy3/lib/cram/_run.py -> /tmp/portage/dev-util/cram-0.7/image/_pypy3/usr/lib/pypy3.6/site-packages/cram
copying /tmp/portage/dev-util/cram-0.7/work/cram-0.7-pypy3/lib/cram/__main__.py -> /tmp/portage/dev-util/cram-0.7/image/_pypy3/usr/lib/pypy3.6/site-packages/cram
copying /tmp/portage/dev-util/cram-0.7/work/cram-0.7-pypy3/lib/cram/_test.py -> /tmp/portage/dev-util/cram-0.7/image/_pypy3/usr/lib/pypy3.6/site-packages/cram
byte-compiling /tmp/portage/dev-util/cram-0.7/image/_pypy3/usr/lib/pypy3.6/site-packages/cram/_encoding.py to _encoding.pypy36.pyc
byte-compiling /tmp/portage/dev-util/cram-0.7/image/_pypy3/usr/lib/pypy3.6/site-packages/cram/_main.py to _main.pypy36.pyc
byte-compiling /tmp/portage/dev-util/cram-0.7/image/_pypy3/usr/lib/pypy3.6/site-packages/cram/_process.py to _process.pypy36.pyc
byte-compiling /tmp/portage/dev-util/cram-0.7/image/_pypy3/usr/lib/pypy3.6/site-packages/cram/_xunit.py to _xunit.pypy36.pyc
byte-compiling /tmp/portage/dev-util/cram-0.7/image/_pypy3/usr/lib/pypy3.6/site-packages/cram/__init__.py to __init__.pypy36.pyc
byte-compiling /tmp/portage/dev-util/cram-0.7/image/_pypy3/usr/lib/pypy3.6/site-packages/cram/_cli.py to _cli.pypy36.pyc
byte-compiling /tmp/portage/dev-util/cram-0.7/image/_pypy3/usr/lib/pypy3.6/site-packages/cram/_diff.py to _diff.pypy36.pyc
byte-compiling /tmp/portage/dev-util/cram-0.7/image/_pypy3/usr/lib/pypy3.6/site-packages/cram/_run.py to _run.pypy36.pyc
byte-compiling /tmp/portage/dev-util/cram-0.7/image/_pypy3/usr/lib/pypy3.6/site-packages/cram/__main__.py to __main__.pypy36.pyc
byte-compiling /tmp/portage/dev-util/cram-0.7/image/_pypy3/usr/lib/pypy3.6/site-packages/cram/_test.py to _test.pypy36.pyc
writing byte-compilation script '/tmp/portage/dev-util/cram-0.7/temp/tmp1x63sn3d.py'
/usr/bin/pypy3 /tmp/portage/dev-util/cram-0.7/temp/tmp1x63sn3d.py
removing /tmp/portage/dev-util/cram-0.7/temp/tmp1x63sn3d.py
writing byte-compilation script '/tmp/portage/dev-util/cram-0.7/temp/tmpzru0y6v6.py'
/usr/bin/pypy3 /tmp/portage/dev-util/cram-0.7/temp/tmpzru0y6v6.py
removing /tmp/portage/dev-util/cram-0.7/temp/tmpzru0y6v6.py
running install_scripts
creating /tmp/portage/dev-util/cram-0.7/image/_pypy3/usr/lib/python-exec
creating /tmp/portage/dev-util/cram-0.7/image/_pypy3/usr/lib/python-exec/pypy3
copying /tmp/portage/dev-util/cram-0.7/work/cram-0.7-pypy3/scripts/cram -> /tmp/portage/dev-util/cram-0.7/image/_pypy3/usr/lib/python-exec/pypy3
changing mode of /tmp/portage/dev-util/cram-0.7/image/_pypy3/usr/lib/python-exec/pypy3/cram to 755
running install_egg_info
Writing /tmp/portage/dev-util/cram-0.7/image/_pypy3/usr/lib/pypy3.6/site-packages/cram-0.7-py3.6.egg-info
 * python3_7: running distutils-r1_run_phase distutils-r1_python_install
python3.7 setup.py install --skip-build --root=/tmp/portage/dev-util/cram-0.7/image/_python3.7
running install
running install_lib
creating /tmp/portage/dev-util/cram-0.7/image/_python3.7
creating /tmp/portage/dev-util/cram-0.7/image/_python3.7/usr
creating /tmp/portage/dev-util/cram-0.7/image/_python3.7/usr/lib
creating /tmp/portage/dev-util/cram-0.7/image/_python3.7/usr/lib/python3.7
creating /tmp/portage/dev-util/cram-0.7/image/_python3.7/usr/lib/python3.7/site-packages
creating /tmp/portage/dev-util/cram-0.7/image/_python3.7/usr/lib/python3.7/site-packages/cram
copying /tmp/portage/dev-util/cram-0.7/work/cram-0.7-python3_7/lib/cram/_encoding.py -> /tmp/portage/dev-util/cram-0.7/image/_python3.7/usr/lib/python3.7/site-packages/cram
copying /tmp/portage/dev-util/cram-0.7/work/cram-0.7-python3_7/lib/cram/_main.py -> /tmp/portage/dev-util/cram-0.7/image/_python3.7/usr/lib/python3.7/site-packages/cram
copying /tmp/portage/dev-util/cram-0.7/work/cram-0.7-python3_7/lib/cram/_process.py -> /tmp/portage/dev-util/cram-0.7/image/_python3.7/usr/lib/python3.7/site-packages/cram
copying /tmp/portage/dev-util/cram-0.7/work/cram-0.7-python3_7/lib/cram/_xunit.py -> /tmp/portage/dev-util/cram-0.7/image/_python3.7/usr/lib/python3.7/site-packages/cram
copying /tmp/portage/dev-util/cram-0.7/work/cram-0.7-python3_7/lib/cram/__init__.py -> /tmp/portage/dev-util/cram-0.7/image/_python3.7/usr/lib/python3.7/site-packages/cram
copying /tmp/portage/dev-util/cram-0.7/work/cram-0.7-python3_7/lib/cram/_cli.py -> /tmp/portage/dev-util/cram-0.7/image/_python3.7/usr/lib/python3.7/site-packages/cram
copying /tmp/portage/dev-util/cram-0.7/work/cram-0.7-python3_7/lib/cram/_diff.py -> /tmp/portage/dev-util/cram-0.7/image/_python3.7/usr/lib/python3.7/site-packages/cram
copying /tmp/portage/dev-util/cram-0.7/work/cram-0.7-python3_7/lib/cram/_run.py -> /tmp/portage/dev-util/cram-0.7/image/_python3.7/usr/lib/python3.7/site-packages/cram
copying /tmp/portage/dev-util/cram-0.7/work/cram-0.7-python3_7/lib/cram/__main__.py -> /tmp/portage/dev-util/cram-0.7/image/_python3.7/usr/lib/python3.7/site-packages/cram
copying /tmp/portage/dev-util/cram-0.7/work/cram-0.7-python3_7/lib/cram/_test.py -> /tmp/portage/dev-util/cram-0.7/image/_python3.7/usr/lib/python3.7/site-packages/cram
byte-compiling /tmp/portage/dev-util/cram-0.7/image/_python3.7/usr/lib/python3.7/site-packages/cram/_encoding.py to _encoding.cpython-37.pyc
byte-compiling /tmp/portage/dev-util/cram-0.7/image/_python3.7/usr/lib/python3.7/site-packages/cram/_main.py to _main.cpython-37.pyc
byte-compiling /tmp/portage/dev-util/cram-0.7/image/_python3.7/usr/lib/python3.7/site-packages/cram/_process.py to _process.cpython-37.pyc
byte-compiling /tmp/portage/dev-util/cram-0.7/image/_python3.7/usr/lib/python3.7/site-packages/cram/_xunit.py to _xunit.cpython-37.pyc
byte-compiling /tmp/portage/dev-util/cram-0.7/image/_python3.7/usr/lib/python3.7/site-packages/cram/__init__.py to __init__.cpython-37.pyc
byte-compiling /tmp/portage/dev-util/cram-0.7/image/_python3.7/usr/lib/python3.7/site-packages/cram/_cli.py to _cli.cpython-37.pyc
byte-compiling /tmp/portage/dev-util/cram-0.7/image/_python3.7/usr/lib/python3.7/site-packages/cram/_diff.py to _diff.cpython-37.pyc
byte-compiling /tmp/portage/dev-util/cram-0.7/image/_python3.7/usr/lib/python3.7/site-packages/cram/_run.py to _run.cpython-37.pyc
byte-compiling /tmp/portage/dev-util/cram-0.7/image/_python3.7/usr/lib/python3.7/site-packages/cram/__main__.py to __main__.cpython-37.pyc
byte-compiling /tmp/portage/dev-util/cram-0.7/image/_python3.7/usr/lib/python3.7/site-packages/cram/_test.py to _test.cpython-37.pyc
writing byte-compilation script '/tmp/portage/dev-util/cram-0.7/temp/tmptj_78wsx.py'
/usr/bin/python3.7 /tmp/portage/dev-util/cram-0.7/temp/tmptj_78wsx.py
removing /tmp/portage/dev-util/cram-0.7/temp/tmptj_78wsx.py
writing byte-compilation script '/tmp/portage/dev-util/cram-0.7/temp/tmpgg9sythw.py'
/usr/bin/python3.7 /tmp/portage/dev-util/cram-0.7/temp/tmpgg9sythw.py
removing /tmp/portage/dev-util/cram-0.7/temp/tmpgg9sythw.py
running install_scripts
creating /tmp/portage/dev-util/cram-0.7/image/_python3.7/usr/lib/python-exec
creating /tmp/portage/dev-util/cram-0.7/image/_python3.7/usr/lib/python-exec/python3.7
copying /tmp/portage/dev-util/cram-0.7/work/cram-0.7-python3_7/scripts/cram -> /tmp/portage/dev-util/cram-0.7/image/_python3.7/usr/lib/python-exec/python3.7
changing mode of /tmp/portage/dev-util/cram-0.7/image/_python3.7/usr/lib/python-exec/python3.7/cram to 755
running install_egg_info
Writing /tmp/portage/dev-util/cram-0.7/image/_python3.7/usr/lib/python3.7/site-packages/cram-0.7-py3.7.egg-info
 * python3_8: running distutils-r1_run_phase distutils-r1_python_install
python3.8 setup.py install --skip-build --root=/tmp/portage/dev-util/cram-0.7/image/_python3.8
running install
running install_lib
creating /tmp/portage/dev-util/cram-0.7/image/_python3.8
creating /tmp/portage/dev-util/cram-0.7/image/_python3.8/usr
creating /tmp/portage/dev-util/cram-0.7/image/_python3.8/usr/lib
creating /tmp/portage/dev-util/cram-0.7/image/_python3.8/usr/lib/python3.8
creating /tmp/portage/dev-util/cram-0.7/image/_python3.8/usr/lib/python3.8/site-packages
creating /tmp/portage/dev-util/cram-0.7/image/_python3.8/usr/lib/python3.8/site-packages/cram
copying /tmp/portage/dev-util/cram-0.7/work/cram-0.7-python3_8/lib/cram/_encoding.py -> /tmp/portage/dev-util/cram-0.7/image/_python3.8/usr/lib/python3.8/site-packages/cram
copying /tmp/portage/dev-util/cram-0.7/work/cram-0.7-python3_8/lib/cram/_main.py -> /tmp/portage/dev-util/cram-0.7/image/_python3.8/usr/lib/python3.8/site-packages/cram
copying /tmp/portage/dev-util/cram-0.7/work/cram-0.7-python3_8/lib/cram/_process.py -> /tmp/portage/dev-util/cram-0.7/image/_python3.8/usr/lib/python3.8/site-packages/cram
copying /tmp/portage/dev-util/cram-0.7/work/cram-0.7-python3_8/lib/cram/_xunit.py -> /tmp/portage/dev-util/cram-0.7/image/_python3.8/usr/lib/python3.8/site-packages/cram
copying /tmp/portage/dev-util/cram-0.7/work/cram-0.7-python3_8/lib/cram/__init__.py -> /tmp/portage/dev-util/cram-0.7/image/_python3.8/usr/lib/python3.8/site-packages/cram
copying /tmp/portage/dev-util/cram-0.7/work/cram-0.7-python3_8/lib/cram/_cli.py -> /tmp/portage/dev-util/cram-0.7/image/_python3.8/usr/lib/python3.8/site-packages/cram
copying /tmp/portage/dev-util/cram-0.7/work/cram-0.7-python3_8/lib/cram/_diff.py -> /tmp/portage/dev-util/cram-0.7/image/_python3.8/usr/lib/python3.8/site-packages/cram
copying /tmp/portage/dev-util/cram-0.7/work/cram-0.7-python3_8/lib/cram/_run.py -> /tmp/portage/dev-util/cram-0.7/image/_python3.8/usr/lib/python3.8/site-packages/cram
copying /tmp/portage/dev-util/cram-0.7/work/cram-0.7-python3_8/lib/cram/__main__.py -> /tmp/portage/dev-util/cram-0.7/image/_python3.8/usr/lib/python3.8/site-packages/cram
copying /tmp/portage/dev-util/cram-0.7/work/cram-0.7-python3_8/lib/cram/_test.py -> /tmp/portage/dev-util/cram-0.7/image/_python3.8/usr/lib/python3.8/site-packages/cram
byte-compiling /tmp/portage/dev-util/cram-0.7/image/_python3.8/usr/lib/python3.8/site-packages/cram/_encoding.py to _encoding.cpython-38.pyc
byte-compiling /tmp/portage/dev-util/cram-0.7/image/_python3.8/usr/lib/python3.8/site-packages/cram/_main.py to _main.cpython-38.pyc
byte-compiling /tmp/portage/dev-util/cram-0.7/image/_python3.8/usr/lib/python3.8/site-packages/cram/_process.py to _process.cpython-38.pyc
byte-compiling /tmp/portage/dev-util/cram-0.7/image/_python3.8/usr/lib/python3.8/site-packages/cram/_xunit.py to _xunit.cpython-38.pyc
byte-compiling /tmp/portage/dev-util/cram-0.7/image/_python3.8/usr/lib/python3.8/site-packages/cram/__init__.py to __init__.cpython-38.pyc
byte-compiling /tmp/portage/dev-util/cram-0.7/image/_python3.8/usr/lib/python3.8/site-packages/cram/_cli.py to _cli.cpython-38.pyc
byte-compiling /tmp/portage/dev-util/cram-0.7/image/_python3.8/usr/lib/python3.8/site-packages/cram/_diff.py to _diff.cpython-38.pyc
byte-compiling /tmp/portage/dev-util/cram-0.7/image/_python3.8/usr/lib/python3.8/site-packages/cram/_run.py to _run.cpython-38.pyc
byte-compiling /tmp/portage/dev-util/cram-0.7/image/_python3.8/usr/lib/python3.8/site-packages/cram/__main__.py to __main__.cpython-38.pyc
byte-compiling /tmp/portage/dev-util/cram-0.7/image/_python3.8/usr/lib/python3.8/site-packages/cram/_test.py to _test.cpython-38.pyc
writing byte-compilation script '/tmp/portage/dev-util/cram-0.7/temp/tmp1goz7lw4.py'
/usr/bin/python3.8 /tmp/portage/dev-util/cram-0.7/temp/tmp1goz7lw4.py
removing /tmp/portage/dev-util/cram-0.7/temp/tmp1goz7lw4.py
writing byte-compilation script '/tmp/portage/dev-util/cram-0.7/temp/tmpc07p307i.py'
/usr/bin/python3.8 /tmp/portage/dev-util/cram-0.7/temp/tmpc07p307i.py
removing /tmp/portage/dev-util/cram-0.7/temp/tmpc07p307i.py
running install_scripts
creating /tmp/portage/dev-util/cram-0.7/image/_python3.8/usr/lib/python-exec
creating /tmp/portage/dev-util/cram-0.7/image/_python3.8/usr/lib/python-exec/python3.8
copying /tmp/portage/dev-util/cram-0.7/work/cram-0.7-python3_8/scripts/cram -> /tmp/portage/dev-util/cram-0.7/image/_python3.8/usr/lib/python-exec/python3.8
changing mode of /tmp/portage/dev-util/cram-0.7/image/_python3.8/usr/lib/python-exec/python3.8/cram to 755
running install_egg_info
Writing /tmp/portage/dev-util/cram-0.7/image/_python3.8/usr/lib/python3.8/site-packages/cram-0.7-py3.8.egg-info
 * Using python3.8 in global scope
 * python3_8: running distutils-r1_run_phase distutils-r1_python_install_all
>>> Completed installing dev-util/cram-0.7 into /tmp/portage/dev-util/cram-0.7/image

 * Final size of build directory: 512 KiB
 * Final size of installed tree:  844 KiB

 * Verifying compiled files in /usr/lib/pypy3.6/site-packages
 * Verifying compiled files in /usr/lib/python3.7/site-packages
 * Verifying compiled files in /usr/lib/python3.8/site-packages
./
./usr/
./usr/lib/
./usr/lib/python3.8/
./usr/lib/python3.8/site-packages/
./usr/lib/python3.8/site-packages/cram-0.7-py3.8.egg-info
./usr/lib/python3.8/site-packages/cram/
./usr/lib/python3.8/site-packages/cram/_encoding.py
./usr/lib/python3.8/site-packages/cram/_main.py
./usr/lib/python3.8/site-packages/cram/_process.py
./usr/lib/python3.8/site-packages/cram/_xunit.py
./usr/lib/python3.8/site-packages/cram/__init__.py
./usr/lib/python3.8/site-packages/cram/_cli.py
./usr/lib/python3.8/site-packages/cram/_diff.py
./usr/lib/python3.8/site-packages/cram/__pycache__/
./usr/lib/python3.8/site-packages/cram/__pycache__/__main__.cpython-38.pyc
./usr/lib/python3.8/site-packages/cram/__pycache__/_test.cpython-38.opt-2.pyc
./usr/lib/python3.8/site-packages/cram/__pycache__/_diff.cpython-38.opt-1.pyc
./usr/lib/python3.8/site-packages/cram/__pycache__/_process.cpython-38.opt-1.pyc
./usr/lib/python3.8/site-packages/cram/__pycache__/_cli.cpython-38.opt-2.pyc
./usr/lib/python3.8/site-packages/cram/__pycache__/__main__.cpython-38.opt-1.pyc
./usr/lib/python3.8/site-packages/cram/__pycache__/_cli.cpython-38.pyc
./usr/lib/python3.8/site-packages/cram/__pycache__/__init__.cpython-38.opt-1.pyc
./usr/lib/python3.8/site-packages/cram/__pycache__/__init__.cpython-38.pyc
./usr/lib/python3.8/site-packages/cram/__pycache__/_test.cpython-38.pyc
./usr/lib/python3.8/site-packages/cram/__pycache__/__init__.cpython-38.opt-2.pyc
./usr/lib/python3.8/site-packages/cram/__pycache__/_process.cpython-38.pyc
./usr/lib/python3.8/site-packages/cram/__pycache__/_xunit.cpython-38.pyc
./usr/lib/python3.8/site-packages/cram/__pycache__/_diff.cpython-38.opt-2.pyc
./usr/lib/python3.8/site-packages/cram/__pycache__/_run.cpython-38.opt-2.pyc
./usr/lib/python3.8/site-packages/cram/__pycache__/_encoding.cpython-38.opt-1.pyc
./usr/lib/python3.8/site-packages/cram/__pycache__/_run.cpython-38.pyc
./usr/lib/python3.8/site-packages/cram/__pycache__/_main.cpython-38.pyc
./usr/lib/python3.8/site-packages/cram/__pycache__/_main.cpython-38.opt-2.pyc
./usr/lib/python3.8/site-packages/cram/__pycache__/__main__.cpython-38.opt-2.pyc
./usr/lib/python3.8/site-packages/cram/__pycache__/_main.cpython-38.opt-1.pyc
./usr/lib/python3.8/site-packages/cram/__pycache__/_process.cpython-38.opt-2.pyc
./usr/lib/python3.8/site-packages/cram/__pycache__/_cli.cpython-38.opt-1.pyc
./usr/lib/python3.8/site-packages/cram/__pycache__/_run.cpython-38.opt-1.pyc
./usr/lib/python3.8/site-packages/cram/__pycache__/_diff.cpython-38.pyc
./usr/lib/python3.8/site-packages/cram/__pycache__/_xunit.cpython-38.opt-2.pyc
./usr/lib/python3.8/site-packages/cram/__pycache__/_encoding.cpython-38.opt-2.pyc
./usr/lib/python3.8/site-packages/cram/__pycache__/_encoding.cpython-38.pyc
./usr/lib/python3.8/site-packages/cram/__pycache__/_test.cpython-38.opt-1.pyc
./usr/lib/python3.8/site-packages/cram/__pycache__/_xunit.cpython-38.opt-1.pyc
./usr/lib/python3.8/site-packages/cram/_run.py
./usr/lib/python3.8/site-packages/cram/__main__.py
./usr/lib/python3.8/site-packages/cram/_test.py
./usr/lib/python3.7/
./usr/lib/python3.7/site-packages/
./usr/lib/python3.7/site-packages/cram/
./usr/lib/python3.7/site-packages/cram/_encoding.py
./usr/lib/python3.7/site-packages/cram/_main.py
./usr/lib/python3.7/site-packages/cram/_process.py
./usr/lib/python3.7/site-packages/cram/_xunit.py
./usr/lib/python3.7/site-packages/cram/__init__.py
./usr/lib/python3.7/site-packages/cram/_cli.py
./usr/lib/python3.7/site-packages/cram/_diff.py
./usr/lib/python3.7/site-packages/cram/__pycache__/
./usr/lib/python3.7/site-packages/cram/__pycache__/_main.cpython-37.pyc
./usr/lib/python3.7/site-packages/cram/__pycache__/_encoding.cpython-37.opt-1.pyc
./usr/lib/python3.7/site-packages/cram/__pycache__/_xunit.cpython-37.opt-1.pyc
./usr/lib/python3.7/site-packages/cram/__pycache__/_xunit.cpython-37.pyc
./usr/lib/python3.7/site-packages/cram/__pycache__/_cli.cpython-37.pyc
./usr/lib/python3.7/site-packages/cram/__pycache__/_encoding.cpython-37.opt-2.pyc
./usr/lib/python3.7/site-packages/cram/__pycache__/_process.cpython-37.opt-1.pyc
./usr/lib/python3.7/site-packages/cram/__pycache__/_cli.cpython-37.opt-2.pyc
./usr/lib/python3.7/site-packages/cram/__pycache__/_main.cpython-37.opt-2.pyc
./usr/lib/python3.7/site-packages/cram/__pycache__/_test.cpython-37.opt-1.pyc
./usr/lib/python3.7/site-packages/cram/__pycache__/__main__.cpython-37.opt-1.pyc
./usr/lib/python3.7/site-packages/cram/__pycache__/_test.cpython-37.pyc
./usr/lib/python3.7/site-packages/cram/__pycache__/_run.cpython-37.opt-1.pyc
./usr/lib/python3.7/site-packages/cram/__pycache__/_main.cpython-37.opt-1.pyc
./usr/lib/python3.7/site-packages/cram/__pycache__/__init__.cpython-37.opt-1.pyc
./usr/lib/python3.7/site-packages/cram/__pycache__/_diff.cpython-37.opt-2.pyc
./usr/lib/python3.7/site-packages/cram/__pycache__/_cli.cpython-37.opt-1.pyc
./usr/lib/python3.7/site-packages/cram/__pycache__/__init__.cpython-37.opt-2.pyc
./usr/lib/python3.7/site-packages/cram/__pycache__/_test.cpython-37.opt-2.pyc
./usr/lib/python3.7/site-packages/cram/__pycache__/_xunit.cpython-37.opt-2.pyc
./usr/lib/python3.7/site-packages/cram/__pycache__/_process.cpython-37.opt-2.pyc
./usr/lib/python3.7/site-packages/cram/__pycache__/__main__.cpython-37.pyc
./usr/lib/python3.7/site-packages/cram/__pycache__/__init__.cpython-37.pyc
./usr/lib/python3.7/site-packages/cram/__pycache__/_process.cpython-37.pyc
./usr/lib/python3.7/site-packages/cram/__pycache__/_run.cpython-37.opt-2.pyc
./usr/lib/python3.7/site-packages/cram/__pycache__/_encoding.cpython-37.pyc
./usr/lib/python3.7/site-packages/cram/__pycache__/__main__.cpython-37.opt-2.pyc
./usr/lib/python3.7/site-packages/cram/__pycache__/_diff.cpython-37.pyc
./usr/lib/python3.7/site-packages/cram/__pycache__/_run.cpython-37.pyc
./usr/lib/python3.7/site-packages/cram/__pycache__/_diff.cpython-37.opt-1.pyc
./usr/lib/python3.7/site-packages/cram/_run.py
./usr/lib/python3.7/site-packages/cram/__main__.py
./usr/lib/python3.7/site-packages/cram/_test.py
./usr/lib/python3.7/site-packages/cram-0.7-py3.7.egg-info
./usr/lib/pypy3.6/
./usr/lib/pypy3.6/site-packages/
./usr/lib/pypy3.6/site-packages/cram/
./usr/lib/pypy3.6/site-packages/cram/_encoding.py
./usr/lib/pypy3.6/site-packages/cram/_main.py
./usr/lib/pypy3.6/site-packages/cram/_process.py
./usr/lib/pypy3.6/site-packages/cram/_xunit.py
./usr/lib/pypy3.6/site-packages/cram/__init__.py
./usr/lib/pypy3.6/site-packages/cram/_cli.py
./usr/lib/pypy3.6/site-packages/cram/_diff.py
./usr/lib/pypy3.6/site-packages/cram/__pycache__/
./usr/lib/pypy3.6/site-packages/cram/__pycache__/_process.pypy36.opt-2.pyc
./usr/lib/pypy3.6/site-packages/cram/__pycache__/_process.pypy36.opt-1.pyc
./usr/lib/pypy3.6/site-packages/cram/__pycache__/_cli.pypy36.pyc
./usr/lib/pypy3.6/site-packages/cram/__pycache__/_diff.pypy36.opt-1.pyc
./usr/lib/pypy3.6/site-packages/cram/__pycache__/_encoding.pypy36.pyc
./usr/lib/pypy3.6/site-packages/cram/__pycache__/_encoding.pypy36.opt-2.pyc
./usr/lib/pypy3.6/site-packages/cram/__pycache__/_encoding.pypy36.opt-1.pyc
./usr/lib/pypy3.6/site-packages/cram/__pycache__/__main__.pypy36.opt-2.pyc
./usr/lib/pypy3.6/site-packages/cram/__pycache__/_cli.pypy36.opt-2.pyc
./usr/lib/pypy3.6/site-packages/cram/__pycache__/_xunit.pypy36.opt-1.pyc
./usr/lib/pypy3.6/site-packages/cram/__pycache__/_run.pypy36.opt-1.pyc
./usr/lib/pypy3.6/site-packages/cram/__pycache__/_run.pypy36.opt-2.pyc
./usr/lib/pypy3.6/site-packages/cram/__pycache__/_diff.pypy36.opt-2.pyc
./usr/lib/pypy3.6/site-packages/cram/__pycache__/_test.pypy36.opt-2.pyc
./usr/lib/pypy3.6/site-packages/cram/__pycache__/_diff.pypy36.pyc
./usr/lib/pypy3.6/site-packages/cram/__pycache__/__main__.pypy36.opt-1.pyc
./usr/lib/pypy3.6/site-packages/cram/__pycache__/_process.pypy36.pyc
./usr/lib/pypy3.6/site-packages/cram/__pycache__/_run.pypy36.pyc
./usr/lib/pypy3.6/site-packages/cram/__pycache__/_main.pypy36.opt-2.pyc
./usr/lib/pypy3.6/site-packages/cram/__pycache__/_main.pypy36.pyc
./usr/lib/pypy3.6/site-packages/cram/__pycache__/__init__.pypy36.pyc
./usr/lib/pypy3.6/site-packages/cram/__pycache__/_cli.pypy36.opt-1.pyc
./usr/lib/pypy3.6/site-packages/cram/__pycache__/__main__.pypy36.pyc
./usr/lib/pypy3.6/site-packages/cram/__pycache__/_xunit.pypy36.opt-2.pyc
./usr/lib/pypy3.6/site-packages/cram/__pycache__/__init__.pypy36.opt-2.pyc
./usr/lib/pypy3.6/site-packages/cram/__pycache__/_main.pypy36.opt-1.pyc
./usr/lib/pypy3.6/site-packages/cram/__pycache__/_xunit.pypy36.pyc
./usr/lib/pypy3.6/site-packages/cram/__pycache__/_test.pypy36.opt-1.pyc
./usr/lib/pypy3.6/site-packages/cram/__pycache__/__init__.pypy36.opt-1.pyc
./usr/lib/pypy3.6/site-packages/cram/__pycache__/_test.pypy36.pyc
./usr/lib/pypy3.6/site-packages/cram/_run.py
./usr/lib/pypy3.6/site-packages/cram/__main__.py
./usr/lib/pypy3.6/site-packages/cram/_test.py
./usr/lib/pypy3.6/site-packages/cram-0.7-py3.6.egg-info
./usr/lib/python-exec/
./usr/lib/python-exec/python3.8/
./usr/lib/python-exec/python3.8/cram
./usr/lib/python-exec/pypy3/
./usr/lib/python-exec/pypy3/cram
./usr/lib/python-exec/python3.7/
./usr/lib/python-exec/python3.7/cram
./usr/bin/
./usr/bin/cram
./usr/share/
./usr/share/doc/
./usr/share/doc/cram-0.7/
./usr/share/doc/cram-0.7/README.rst.bz2
>>> Done.
 * checking 127 files for package collisions
>>> Merging dev-util/cram-0.7 to /
 * removing unneeded *.la files
--- /usr/
--- /usr/bin/
>>> /usr/bin/cram -> ../lib/python-exec/python-exec2
--- /usr/lib/
--- /usr/lib/python-exec/
--- /usr/lib/python-exec/python3.7/
>>> /usr/lib/python-exec/python3.7/cram
--- /usr/lib/python-exec/pypy3/
>>> /usr/lib/python-exec/pypy3/cram
--- /usr/lib/python-exec/python3.8/
>>> /usr/lib/python-exec/python3.8/cram
--- /usr/lib/pypy3.6/
--- /usr/lib/pypy3.6/site-packages/
>>> /usr/lib/pypy3.6/site-packages/cram-0.7-py3.6.egg-info
>>> /usr/lib/pypy3.6/site-packages/cram/
>>> /usr/lib/pypy3.6/site-packages/cram/_test.py
>>> /usr/lib/pypy3.6/site-packages/cram/__main__.py
>>> /usr/lib/pypy3.6/site-packages/cram/_run.py
>>> /usr/lib/pypy3.6/site-packages/cram/__pycache__/
>>> /usr/lib/pypy3.6/site-packages/cram/__pycache__/_test.pypy36.pyc
>>> /usr/lib/pypy3.6/site-packages/cram/__pycache__/__init__.pypy36.opt-1.pyc
>>> /usr/lib/pypy3.6/site-packages/cram/__pycache__/_test.pypy36.opt-1.pyc
>>> /usr/lib/pypy3.6/site-packages/cram/__pycache__/_xunit.pypy36.pyc
>>> /usr/lib/pypy3.6/site-packages/cram/__pycache__/_main.pypy36.opt-1.pyc
>>> /usr/lib/pypy3.6/site-packages/cram/__pycache__/__init__.pypy36.opt-2.pyc
>>> /usr/lib/pypy3.6/site-packages/cram/__pycache__/_xunit.pypy36.opt-2.pyc
>>> /usr/lib/pypy3.6/site-packages/cram/__pycache__/__main__.pypy36.pyc
>>> /usr/lib/pypy3.6/site-packages/cram/__pycache__/_cli.pypy36.opt-1.pyc
>>> /usr/lib/pypy3.6/site-packages/cram/__pycache__/__init__.pypy36.pyc
>>> /usr/lib/pypy3.6/site-packages/cram/__pycache__/_main.pypy36.pyc
>>> /usr/lib/pypy3.6/site-packages/cram/__pycache__/_main.pypy36.opt-2.pyc
>>> /usr/lib/pypy3.6/site-packages/cram/__pycache__/_run.pypy36.pyc
>>> /usr/lib/pypy3.6/site-packages/cram/__pycache__/_process.pypy36.pyc
>>> /usr/lib/pypy3.6/site-packages/cram/__pycache__/__main__.pypy36.opt-1.pyc
>>> /usr/lib/pypy3.6/site-packages/cram/__pycache__/_diff.pypy36.pyc
>>> /usr/lib/pypy3.6/site-packages/cram/__pycache__/_test.pypy36.opt-2.pyc
>>> /usr/lib/pypy3.6/site-packages/cram/__pycache__/_diff.pypy36.opt-2.pyc
>>> /usr/lib/pypy3.6/site-packages/cram/__pycache__/_run.pypy36.opt-2.pyc
>>> /usr/lib/pypy3.6/site-packages/cram/__pycache__/_run.pypy36.opt-1.pyc
>>> /usr/lib/pypy3.6/site-packages/cram/__pycache__/_xunit.pypy36.opt-1.pyc
>>> /usr/lib/pypy3.6/site-packages/cram/__pycache__/_cli.pypy36.opt-2.pyc
>>> /usr/lib/pypy3.6/site-packages/cram/__pycache__/__main__.pypy36.opt-2.pyc
>>> /usr/lib/pypy3.6/site-packages/cram/__pycache__/_encoding.pypy36.opt-1.pyc
>>> /usr/lib/pypy3.6/site-packages/cram/__pycache__/_encoding.pypy36.opt-2.pyc
>>> /usr/lib/pypy3.6/site-packages/cram/__pycache__/_encoding.pypy36.pyc
>>> /usr/lib/pypy3.6/site-packages/cram/__pycache__/_diff.pypy36.opt-1.pyc
>>> /usr/lib/pypy3.6/site-packages/cram/__pycache__/_cli.pypy36.pyc
>>> /usr/lib/pypy3.6/site-packages/cram/__pycache__/_process.pypy36.opt-1.pyc
>>> /usr/lib/pypy3.6/site-packages/cram/__pycache__/_process.pypy36.opt-2.pyc
>>> /usr/lib/pypy3.6/site-packages/cram/_diff.py
>>> /usr/lib/pypy3.6/site-packages/cram/_cli.py
>>> /usr/lib/pypy3.6/site-packages/cram/__init__.py
>>> /usr/lib/pypy3.6/site-packages/cram/_xunit.py
>>> /usr/lib/pypy3.6/site-packages/cram/_process.py
>>> /usr/lib/pypy3.6/site-packages/cram/_main.py
>>> /usr/lib/pypy3.6/site-packages/cram/_encoding.py
--- /usr/lib/python3.7/
--- /usr/lib/python3.7/site-packages/
>>> /usr/lib/python3.7/site-packages/cram-0.7-py3.7.egg-info
>>> /usr/lib/python3.7/site-packages/cram/
>>> /usr/lib/python3.7/site-packages/cram/_test.py
>>> /usr/lib/python3.7/site-packages/cram/__main__.py
>>> /usr/lib/python3.7/site-packages/cram/_run.py
>>> /usr/lib/python3.7/site-packages/cram/__pycache__/
>>> /usr/lib/python3.7/site-packages/cram/__pycache__/_diff.cpython-37.opt-1.pyc
>>> /usr/lib/python3.7/site-packages/cram/__pycache__/_run.cpython-37.pyc
>>> /usr/lib/python3.7/site-packages/cram/__pycache__/_diff.cpython-37.pyc
>>> /usr/lib/python3.7/site-packages/cram/__pycache__/__main__.cpython-37.opt-2.pyc
>>> /usr/lib/python3.7/site-packages/cram/__pycache__/_encoding.cpython-37.pyc
>>> /usr/lib/python3.7/site-packages/cram/__pycache__/_run.cpython-37.opt-2.pyc
>>> /usr/lib/python3.7/site-packages/cram/__pycache__/_process.cpython-37.pyc
>>> /usr/lib/python3.7/site-packages/cram/__pycache__/__init__.cpython-37.pyc
>>> /usr/lib/python3.7/site-packages/cram/__pycache__/__main__.cpython-37.pyc
>>> /usr/lib/python3.7/site-packages/cram/__pycache__/_process.cpython-37.opt-2.pyc
>>> /usr/lib/python3.7/site-packages/cram/__pycache__/_xunit.cpython-37.opt-2.pyc
>>> /usr/lib/python3.7/site-packages/cram/__pycache__/_test.cpython-37.opt-2.pyc
>>> /usr/lib/python3.7/site-packages/cram/__pycache__/__init__.cpython-37.opt-2.pyc
>>> /usr/lib/python3.7/site-packages/cram/__pycache__/_cli.cpython-37.opt-1.pyc
>>> /usr/lib/python3.7/site-packages/cram/__pycache__/_diff.cpython-37.opt-2.pyc
>>> /usr/lib/python3.7/site-packages/cram/__pycache__/__init__.cpython-37.opt-1.pyc
>>> /usr/lib/python3.7/site-packages/cram/__pycache__/_main.cpython-37.opt-1.pyc
>>> /usr/lib/python3.7/site-packages/cram/__pycache__/_run.cpython-37.opt-1.pyc
>>> /usr/lib/python3.7/site-packages/cram/__pycache__/_test.cpython-37.pyc
>>> /usr/lib/python3.7/site-packages/cram/__pycache__/__main__.cpython-37.opt-1.pyc
>>> /usr/lib/python3.7/site-packages/cram/__pycache__/_test.cpython-37.opt-1.pyc
>>> /usr/lib/python3.7/site-packages/cram/__pycache__/_main.cpython-37.opt-2.pyc
>>> /usr/lib/python3.7/site-packages/cram/__pycache__/_cli.cpython-37.opt-2.pyc
>>> /usr/lib/python3.7/site-packages/cram/__pycache__/_process.cpython-37.opt-1.pyc
>>> /usr/lib/python3.7/site-packages/cram/__pycache__/_encoding.cpython-37.opt-2.pyc
>>> /usr/lib/python3.7/site-packages/cram/__pycache__/_cli.cpython-37.pyc
>>> /usr/lib/python3.7/site-packages/cram/__pycache__/_xunit.cpython-37.pyc
>>> /usr/lib/python3.7/site-packages/cram/__pycache__/_xunit.cpython-37.opt-1.pyc
>>> /usr/lib/python3.7/site-packages/cram/__pycache__/_encoding.cpython-37.opt-1.pyc
>>> /usr/lib/python3.7/site-packages/cram/__pycache__/_main.cpython-37.pyc
>>> /usr/lib/python3.7/site-packages/cram/_diff.py
>>> /usr/lib/python3.7/site-packages/cram/_cli.py
>>> /usr/lib/python3.7/site-packages/cram/__init__.py
>>> /usr/lib/python3.7/site-packages/cram/_xunit.py
>>> /usr/lib/python3.7/site-packages/cram/_process.py
>>> /usr/lib/python3.7/site-packages/cram/_main.py
>>> /usr/lib/python3.7/site-packages/cram/_encoding.py
--- /usr/lib/python3.8/
--- /usr/lib/python3.8/site-packages/
>>> /usr/lib/python3.8/site-packages/cram/
>>> /usr/lib/python3.8/site-packages/cram/_test.py
>>> /usr/lib/python3.8/site-packages/cram/__main__.py
>>> /usr/lib/python3.8/site-packages/cram/_run.py
>>> /usr/lib/python3.8/site-packages/cram/__pycache__/
>>> /usr/lib/python3.8/site-packages/cram/__pycache__/_xunit.cpython-38.opt-1.pyc
>>> /usr/lib/python3.8/site-packages/cram/__pycache__/_test.cpython-38.opt-1.pyc
>>> /usr/lib/python3.8/site-packages/cram/__pycache__/_encoding.cpython-38.pyc
>>> /usr/lib/python3.8/site-packages/cram/__pycache__/_encoding.cpython-38.opt-2.pyc
>>> /usr/lib/python3.8/site-packages/cram/__pycache__/_xunit.cpython-38.opt-2.pyc
>>> /usr/lib/python3.8/site-packages/cram/__pycache__/_diff.cpython-38.pyc
>>> /usr/lib/python3.8/site-packages/cram/__pycache__/_run.cpython-38.opt-1.pyc
>>> /usr/lib/python3.8/site-packages/cram/__pycache__/_cli.cpython-38.opt-1.pyc
>>> /usr/lib/python3.8/site-packages/cram/__pycache__/_process.cpython-38.opt-2.pyc
>>> /usr/lib/python3.8/site-packages/cram/__pycache__/_main.cpython-38.opt-1.pyc
>>> /usr/lib/python3.8/site-packages/cram/__pycache__/__main__.cpython-38.opt-2.pyc
>>> /usr/lib/python3.8/site-packages/cram/__pycache__/_main.cpython-38.opt-2.pyc
>>> /usr/lib/python3.8/site-packages/cram/__pycache__/_main.cpython-38.pyc
>>> /usr/lib/python3.8/site-packages/cram/__pycache__/_run.cpython-38.pyc
>>> /usr/lib/python3.8/site-packages/cram/__pycache__/_encoding.cpython-38.opt-1.pyc
>>> /usr/lib/python3.8/site-packages/cram/__pycache__/_run.cpython-38.opt-2.pyc
>>> /usr/lib/python3.8/site-packages/cram/__pycache__/_diff.cpython-38.opt-2.pyc
>>> /usr/lib/python3.8/site-packages/cram/__pycache__/_xunit.cpython-38.pyc
>>> /usr/lib/python3.8/site-packages/cram/__pycache__/_process.cpython-38.pyc
>>> /usr/lib/python3.8/site-packages/cram/__pycache__/__init__.cpython-38.opt-2.pyc
>>> /usr/lib/python3.8/site-packages/cram/__pycache__/_test.cpython-38.pyc
>>> /usr/lib/python3.8/site-packages/cram/__pycache__/__init__.cpython-38.pyc
>>> /usr/lib/python3.8/site-packages/cram/__pycache__/__init__.cpython-38.opt-1.pyc
>>> /usr/lib/python3.8/site-packages/cram/__pycache__/_cli.cpython-38.pyc
>>> /usr/lib/python3.8/site-packages/cram/__pycache__/__main__.cpython-38.opt-1.pyc
>>> /usr/lib/python3.8/site-packages/cram/__pycache__/_cli.cpython-38.opt-2.pyc
>>> /usr/lib/python3.8/site-packages/cram/__pycache__/_process.cpython-38.opt-1.pyc
>>> /usr/lib/python3.8/site-packages/cram/__pycache__/_diff.cpython-38.opt-1.pyc
>>> /usr/lib/python3.8/site-packages/cram/__pycache__/_test.cpython-38.opt-2.pyc
>>> /usr/lib/python3.8/site-packages/cram/__pycache__/__main__.cpython-38.pyc
>>> /usr/lib/python3.8/site-packages/cram/_diff.py
>>> /usr/lib/python3.8/site-packages/cram/_cli.py
>>> /usr/lib/python3.8/site-packages/cram/__init__.py
>>> /usr/lib/python3.8/site-packages/cram/_xunit.py
>>> /usr/lib/python3.8/site-packages/cram/_process.py
>>> /usr/lib/python3.8/site-packages/cram/_main.py
>>> /usr/lib/python3.8/site-packages/cram/_encoding.py
>>> /usr/lib/python3.8/site-packages/cram-0.7-py3.8.egg-info
>>> dev-util/cram-0.7 merged.
>>> Regenerating /etc/ld.so.cache...
