[32;01m * [39;49;00mPackage:    dev-lang/mono-6.6.0.161
[32;01m * [39;49;00mRepository: gentoo
[32;01m * [39;49;00mMaintainer: dotnet@gentoo.org
[32;01m * [39;49;00mUSE:        abi_x86_64 amd64 elibc_glibc kernel_linux minimal userland_GNU
[32;01m * [39;49;00mFEATURES:   network-sandbox preserve-libs sandbox userpriv usersandbox
 [32;01m*[0m Determining the location of the kernel source code
 [32;01m*[0m Found kernel source directory:
 [32;01m*[0m     /usr/src/linux
 [32;01m*[0m Found sources for kernel version:
 [32;01m*[0m     5.6.12-xanmod1gnum.org
