>>> Extracting info
 * Package:    dev-util/vulkan-headers-1.2.137
 * Repository: gentoo
 * USE:        elibc_glibc amd64 userland_GNU kernel_linux abi_x86_64
 * FEATURES:   preserve-libs
 * /etc/portage/package.cflags/ltoworkarounds.conf -> */*: *FLAGS+=-Wl,-O4 *FLAGS-=-Wl,-O1
 * FEATURES='assume-digests binpkg-dostrip binpkg-logs buildpkg config-protect-if-modified distlocks ebuild-locks fixlafiles merge-sync multilib-strict news nodoc parallel-fetch preserve-libs qa-unresolved-soname-deps sfperms strict strict-keepdir unknown-features-warn unmerge-logs unmerge-orphans xattr'
 * CFLAGS='-march=znver2 -O2 -pipe -g0 -fno-semantic-interposition -fno-plt -falign-functions=32 -fno-stack-protector -fno-stack-clash-protection -fstack-check=no -fno-stack-check -Wl,-O4 -Wl,-O4,--sort-common,--as-needed,-z,norelro,-z,now,-lgomp,-lpthread'
 * CXXFLAGS='-march=znver2 -O2 -pipe -g0 -fno-semantic-interposition -fno-plt -falign-functions=32 -fno-stack-protector -fno-stack-clash-protection -fstack-check=no -fno-stack-check -Wl,-O4 -Wl,-O4,--sort-common,--as-needed,-z,norelro,-z,now,-lgomp,-lpthread'
 * FFLAGS='-march=znver2 -O2 -pipe -g0 -fno-semantic-interposition -fno-plt -falign-functions=32 -fno-stack-protector -fno-stack-clash-protection -fstack-check=no -fno-stack-check -Wl,-O4 -Wl,-O4,--sort-common,--as-needed,-z,norelro,-z,now,-lgomp,-lpthread'
 * FCFLAGS='-march=znver2 -O2 -pipe -g0 -fno-semantic-interposition -fno-plt -falign-functions=32 -fno-stack-protector -fno-stack-clash-protection -fstack-check=no -fno-stack-check -Wl,-O4 -Wl,-O4,--sort-common,--as-needed,-z,norelro,-z,now,-lgomp,-lpthread'
 * F77FLAGS='-march=znver2 -O2 -pipe -g0 -fno-semantic-interposition -fno-plt -falign-functions=32 -fno-stack-protector -fno-stack-clash-protection -fstack-check=no -fno-stack-check -Wl,-O4 -Wl,-O4,--sort-common,--as-needed,-z,norelro,-z,now,-lgomp,-lpthread'
 * LDFLAGS='-march=znver2 -O2 -pipe -g0 -fno-semantic-interposition -fno-plt -falign-functions=32 -fno-stack-protector -fno-stack-clash-protection -fstack-check=no -fno-stack-check -Wl,-O4,--sort-common,--as-needed,-z,norelro,-z,now,-lgomp,-lpthread'
 * MAKEOPTS='-j12 -l12'
 * gcc () 11.0.0 20200606 (experimental)
 * g++ () 11.0.0 20200606 (experimental)
 * GNU ld (Gentoo 2.34 p4) 2.34.0
 * Linux rescue 5.4.36 #1 SMP Thu Apr 30 04:38:28 UTC 2020 x86_64 AMD Ryzen 5 3600 6-Core Processor AuthenticAMD GNU/Linux
]0;emerge 01:32:54 126|626 vulkan-headers (root@rescue)>>> Extracting dev-util/vulkan-headers-1.2.137
 * checking 29 files for package collisions
>>> Merging dev-util/vulkan-headers-1.2.137 to /
 * removing unneeded *.la files
--- /usr/
--- /usr/include/
>>> /usr/include/vulkan/
>>> /usr/include/vulkan/vk_icd.h
>>> /usr/include/vulkan/vk_layer.h
>>> /usr/include/vulkan/vk_platform.h
>>> /usr/include/vulkan/vk_sdk_platform.h
>>> /usr/include/vulkan/vulkan.h
>>> /usr/include/vulkan/vulkan.hpp
>>> /usr/include/vulkan/vulkan_android.h
>>> /usr/include/vulkan/vulkan_beta.h
>>> /usr/include/vulkan/vulkan_core.h
>>> /usr/include/vulkan/vulkan_fuchsia.h
>>> /usr/include/vulkan/vulkan_ggp.h
>>> /usr/include/vulkan/vulkan_ios.h
>>> /usr/include/vulkan/vulkan_macos.h
>>> /usr/include/vulkan/vulkan_metal.h
>>> /usr/include/vulkan/vulkan_vi.h
>>> /usr/include/vulkan/vulkan_wayland.h
>>> /usr/include/vulkan/vulkan_win32.h
>>> /usr/include/vulkan/vulkan_xcb.h
>>> /usr/include/vulkan/vulkan_xlib.h
>>> /usr/include/vulkan/vulkan_xlib_xrandr.h
--- /usr/share/
>>> /usr/share/vulkan/
>>> /usr/share/vulkan/registry/
>>> /usr/share/vulkan/registry/cgenerator.py
>>> /usr/share/vulkan/registry/conventions.py
>>> /usr/share/vulkan/registry/generator.py
>>> /usr/share/vulkan/registry/genvk.py
>>> /usr/share/vulkan/registry/reg.py
>>> /usr/share/vulkan/registry/spec_tools/
>>> /usr/share/vulkan/registry/spec_tools/util.py
>>> /usr/share/vulkan/registry/validusage.json
>>> /usr/share/vulkan/registry/vk.xml
>>> /usr/share/vulkan/registry/vkconventions.py
>>> dev-util/vulkan-headers-1.2.137 merged.
>>> Regenerating /etc/ld.so.cache...
