>>> Extracting info
 * Package:    dev-libs/libnatspec-0.3.0
 * Repository: gentoo
 * USE:        amd64 python userland_GNU python_single_target_python2_7 abi_x86_64 elibc_glibc kernel_linux
 * FEATURES:   ccache preserve-libs userpriv
 * FEATURES='assume-digests binpkg-docompress binpkg-dostrip binpkg-logs buildpkg ccache cgroup compress-index config-protect-if-modified distlocks ebuild-locks fixlafiles merge-sync multilib-strict news nodoc parallel-fetch preserve-libs qa-unresolved-soname-deps sfperms strict strict-keepdir unknown-features-warn unmerge-logs unmerge-orphans userfetch userpriv usersync xattr'
 * CFLAGS='-march=znver2 -O2 -pipe -g0 -fno-semantic-interposition -fno-plt -falign-functions=32 -fno-stack-protector -fno-stack-clash-protection -fstack-check=no -fno-stack-check -Wl,-O4 -Wl,-O4,--sort-common,--as-needed,-z,norelro,-z,now,-lgomp,-lpthread'
 * CXXFLAGS='-march=znver2 -O2 -pipe -g0 -fno-semantic-interposition -fno-plt -falign-functions=32 -fno-stack-protector -fno-stack-clash-protection -fstack-check=no -fno-stack-check -Wl,-O4 -Wl,-O4,--sort-common,--as-needed,-z,norelro,-z,now,-lgomp,-lpthread'
 * FFLAGS='-march=znver2 -O2 -pipe -g0 -fno-semantic-interposition -fno-plt -falign-functions=32 -fno-stack-protector -fno-stack-clash-protection -fstack-check=no -fno-stack-check -Wl,-O4 -Wl,-O4,--sort-common,--as-needed,-z,norelro,-z,now,-lgomp,-lpthread'
 * FCFLAGS='-march=znver2 -O2 -pipe -g0 -fno-semantic-interposition -fno-plt -falign-functions=32 -fno-stack-protector -fno-stack-clash-protection -fstack-check=no -fno-stack-check -Wl,-O4 -Wl,-O4,--sort-common,--as-needed,-z,norelro,-z,now,-lgomp,-lpthread'
 * F77FLAGS='-march=znver2 -O2 -pipe -g0 -fno-semantic-interposition -fno-plt -falign-functions=32 -fno-stack-protector -fno-stack-clash-protection -fstack-check=no -fno-stack-check -Wl,-O4 -Wl,-O4,--sort-common,--as-needed,-z,norelro,-z,now,-lgomp,-lpthread'
 * LDFLAGS='-march=znver2 -O2 -pipe -g0 -fno-semantic-interposition -fno-plt -falign-functions=32 -fno-stack-protector -fno-stack-clash-protection -fstack-check=no -fno-stack-check -Wl,-O4,--sort-common,--as-needed,-z,norelro,-z,now,-lgomp,-lpthread'
 * MAKEOPTS='-j12 -l12'
 * gcc (Gentoo 11.0.0_pre9999 p1, commit 184c21bf1cd04a108ed9bd04635e7d57ac39f616) 11.0.0 20200611 (experimental)
 * g++ (Gentoo 11.0.0_pre9999 p1, commit 184c21bf1cd04a108ed9bd04635e7d57ac39f616) 11.0.0 20200611 (experimental)
 * GNU ld (Gentoo 2.34 p4) 2.34.0
 * Linux rescue 5.4.36 #1 SMP Thu Apr 30 04:38:28 UTC 2020 x86_64 AMD Ryzen 5 3600 6-Core Processor AuthenticAMD GNU/Linux
dev-libs/libnatspec: 16 seconds average for 12 merges
2020-05-15T04:16:24 >>> dev-libs/libnatspec: 17 seconds
2020-05-16T15:50:52 >>> dev-libs/libnatspec: 19 seconds
2020-05-20T02:14:32 >>> dev-libs/libnatspec: 5 seconds
2020-05-25T23:11:31 >>> dev-libs/libnatspec: 25 seconds
2020-05-26T14:38:56 >>> dev-libs/libnatspec: 7 seconds
2020-05-27T02:14:44 >>> dev-libs/libnatspec: 6 seconds
2020-05-28T02:58:10 >>> dev-libs/libnatspec: 25 seconds
2020-05-28T14:32:19 >>> dev-libs/libnatspec: 6 seconds
2020-05-29T02:24:13 >>> dev-libs/libnatspec: 28 seconds
2020-05-31T23:40:37 >>> dev-libs/libnatspec: 30 seconds
2020-06-01T05:18:25 >>> dev-libs/libnatspec: 26 seconds
2020-06-12T02:05:06 >>> dev-libs/libnatspec: 5 seconds
]0;emerge 20:43:38 606|882 libnatspec 00:20 (root@rescue)>>> Extracting dev-libs/libnatspec-0.3.0
 * checking 11 files for package collisions
>>> Merging dev-libs/libnatspec-0.3.0 to /
 * removing unneeded *.la files
--- /usr/
--- /usr/lib64/
--- /usr/lib64/pkgconfig/
>>> /usr/lib64/pkgconfig/libnatspec.pc
>>> /usr/lib64/libnatspec.so -> libnatspec.so.0.0.0
--- /usr/lib64/python2.7/
--- /usr/lib64/python2.7/site-packages/
>>> /usr/lib64/python2.7/site-packages/_natspec.la
>>> /usr/lib64/python2.7/site-packages/_natspec.so
>>> /usr/lib64/python2.7/site-packages/natspec.py
>>> /usr/lib64/libnatspec.so.0.0.0
>>> /usr/lib64/libnatspec.so.0 -> libnatspec.so.0.0.0
--- /usr/share/
--- /usr/share/aclocal/
>>> /usr/share/aclocal/natspec.m4
--- /usr/share/man/
--- /usr/share/man/man1/
>>> /usr/share/man/man1/natspec.1.bz2
--- /usr/include/
>>> /usr/include/natspec.h
--- /usr/bin/
>>> /usr/bin/natspec
>>> Safely unmerging already-installed instance...
>>> Original instance of package unmerged safely.
>>> dev-libs/libnatspec-0.3.0 merged.
>>> Regenerating /etc/ld.so.cache...
