No package files given... Grabbing a set.
--- replaced obj /usr/share/snes9x/cheats.bml
--- replaced dir /usr/share/snes9x
--- replaced obj /usr/share/locale/sr@latin/LC_MESSAGES/snes9x-gtk.mo
--- replaced dir /usr/share/locale/sr@latin/LC_MESSAGES
--- replaced dir /usr/share/locale/sr@latin
--- replaced obj /usr/share/locale/ru/LC_MESSAGES/snes9x-gtk.mo
--- replaced dir /usr/share/locale/ru/LC_MESSAGES
--- replaced dir /usr/share/locale/ru
--- replaced obj /usr/share/locale/pt_BR/LC_MESSAGES/snes9x-gtk.mo
--- replaced dir /usr/share/locale/pt_BR/LC_MESSAGES
--- replaced dir /usr/share/locale/pt_BR
--- replaced obj /usr/share/locale/ja/LC_MESSAGES/snes9x-gtk.mo
--- replaced dir /usr/share/locale/ja/LC_MESSAGES
--- replaced dir /usr/share/locale/ja
--- replaced obj /usr/share/locale/fr_FR/LC_MESSAGES/snes9x-gtk.mo
--- replaced dir /usr/share/locale/fr_FR/LC_MESSAGES
--- replaced dir /usr/share/locale/fr_FR
--- replaced obj /usr/share/locale/es/LC_MESSAGES/snes9x-gtk.mo
--- replaced dir /usr/share/locale/es/LC_MESSAGES
--- replaced dir /usr/share/locale/es
--- replaced dir /usr/share/locale
--- replaced obj /usr/share/icons/hicolor/64x64/apps/snes9x.png
--- replaced dir /usr/share/icons/hicolor/64x64/apps
--- replaced dir /usr/share/icons/hicolor/64x64
--- replaced obj /usr/share/icons/hicolor/32x32/apps/snes9x.png
--- replaced dir /usr/share/icons/hicolor/32x32/apps
--- replaced dir /usr/share/icons/hicolor/32x32
--- replaced obj /usr/share/icons/hicolor/256x256/apps/snes9x.png
--- replaced dir /usr/share/icons/hicolor/256x256/apps
--- replaced dir /usr/share/icons/hicolor/256x256
--- replaced obj /usr/share/icons/hicolor/24x24/apps/snes9x.png
--- replaced dir /usr/share/icons/hicolor/24x24/apps
--- replaced dir /usr/share/icons/hicolor/24x24
--- replaced obj /usr/share/icons/hicolor/16x16/apps/snes9x.png
--- replaced dir /usr/share/icons/hicolor/16x16/apps
--- replaced dir /usr/share/icons/hicolor/16x16
--- replaced obj /usr/share/icons/hicolor/128x128/apps/snes9x.png
--- replaced dir /usr/share/icons/hicolor/128x128/apps
--- replaced dir /usr/share/icons/hicolor/128x128
--- replaced dir /usr/share/icons/hicolor
--- replaced dir /usr/share/icons
--- replaced obj /usr/share/applications/snes9x-gtk.desktop
--- replaced dir /usr/share/applications
--- replaced dir /usr/share
--- replaced obj /usr/bin/snes9x-gtk
--- replaced obj /usr/bin/snes9x
--- replaced dir /usr/bin
--- replaced dir /usr
 * Updating .desktop files database ...
 [ ok ]
 * Updating icons cache ...
 [ ok ]
>>> Regenerating /etc/ld.so.cache...
