No package files given... Grabbing a set.
<<<          obj /usr/share/metainfo/org.gnome.ColorProfileViewer.appdata.xml
<<<          obj /usr/share/man/man1/gcm-viewer.1.bz2
<<<          obj /usr/share/man/man1/gcm-picker.1.bz2
<<<          obj /usr/share/man/man1/gcm-inspect.1.bz2
<<<          obj /usr/share/man/man1/gcm-import.1.bz2
<<<          obj /usr/share/man/man1/gcm-calibrate.1.bz2
<<<          obj /usr/share/locale/zh_TW/LC_MESSAGES/gnome-color-manager.mo
<<<          obj /usr/share/locale/zh_HK/LC_MESSAGES/gnome-color-manager.mo
<<<          obj /usr/share/locale/zh_CN/LC_MESSAGES/gnome-color-manager.mo
<<<          obj /usr/share/locale/vi/LC_MESSAGES/gnome-color-manager.mo
<<<          obj /usr/share/locale/uk/LC_MESSAGES/gnome-color-manager.mo
<<<          obj /usr/share/locale/ug/LC_MESSAGES/gnome-color-manager.mo
<<<          obj /usr/share/locale/tr/LC_MESSAGES/gnome-color-manager.mo
<<<          obj /usr/share/locale/th/LC_MESSAGES/gnome-color-manager.mo
<<<          obj /usr/share/locale/tg/LC_MESSAGES/gnome-color-manager.mo
<<<          obj /usr/share/locale/te/LC_MESSAGES/gnome-color-manager.mo
<<<          obj /usr/share/locale/ta/LC_MESSAGES/gnome-color-manager.mo
<<<          obj /usr/share/locale/sv/LC_MESSAGES/gnome-color-manager.mo
<<<          obj /usr/share/locale/sr@latin/LC_MESSAGES/gnome-color-manager.mo
<<<          obj /usr/share/locale/sr/LC_MESSAGES/gnome-color-manager.mo
<<<          obj /usr/share/locale/sl/LC_MESSAGES/gnome-color-manager.mo
<<<          obj /usr/share/locale/sk/LC_MESSAGES/gnome-color-manager.mo
<<<          obj /usr/share/locale/ru/LC_MESSAGES/gnome-color-manager.mo
<<<          obj /usr/share/locale/ro/LC_MESSAGES/gnome-color-manager.mo
<<<          obj /usr/share/locale/pt_BR/LC_MESSAGES/gnome-color-manager.mo
<<<          obj /usr/share/locale/pt/LC_MESSAGES/gnome-color-manager.mo
<<<          obj /usr/share/locale/pl/LC_MESSAGES/gnome-color-manager.mo
<<<          obj /usr/share/locale/pa/LC_MESSAGES/gnome-color-manager.mo
<<<          obj /usr/share/locale/or/LC_MESSAGES/gnome-color-manager.mo
<<<          obj /usr/share/locale/oc/LC_MESSAGES/gnome-color-manager.mo
<<<          obj /usr/share/locale/nl/LC_MESSAGES/gnome-color-manager.mo
<<<          obj /usr/share/locale/ne/LC_MESSAGES/gnome-color-manager.mo
<<<          obj /usr/share/locale/nb/LC_MESSAGES/gnome-color-manager.mo
<<<          obj /usr/share/locale/mr/LC_MESSAGES/gnome-color-manager.mo
<<<          obj /usr/share/locale/ml/LC_MESSAGES/gnome-color-manager.mo
<<<          obj /usr/share/locale/lv/LC_MESSAGES/gnome-color-manager.mo
<<<          obj /usr/share/locale/lt/LC_MESSAGES/gnome-color-manager.mo
<<<          obj /usr/share/locale/ko/LC_MESSAGES/gnome-color-manager.mo
<<<          obj /usr/share/locale/kn/LC_MESSAGES/gnome-color-manager.mo
<<<          obj /usr/share/locale/kk/LC_MESSAGES/gnome-color-manager.mo
<<<          obj /usr/share/locale/ja/LC_MESSAGES/gnome-color-manager.mo
<<<          obj /usr/share/locale/it/LC_MESSAGES/gnome-color-manager.mo
<<<          obj /usr/share/locale/is/LC_MESSAGES/gnome-color-manager.mo
<<<          obj /usr/share/locale/id/LC_MESSAGES/gnome-color-manager.mo
<<<          obj /usr/share/locale/hu/LC_MESSAGES/gnome-color-manager.mo
<<<          obj /usr/share/locale/hr/LC_MESSAGES/gnome-color-manager.mo
<<<          obj /usr/share/locale/hi/LC_MESSAGES/gnome-color-manager.mo
<<<          obj /usr/share/locale/he/LC_MESSAGES/gnome-color-manager.mo
<<<          obj /usr/share/locale/gu/LC_MESSAGES/gnome-color-manager.mo
<<<          obj /usr/share/locale/gl/LC_MESSAGES/gnome-color-manager.mo
<<<          obj /usr/share/locale/gd/LC_MESSAGES/gnome-color-manager.mo
<<<          obj /usr/share/locale/fur/LC_MESSAGES/gnome-color-manager.mo
<<<          obj /usr/share/locale/fr/LC_MESSAGES/gnome-color-manager.mo
<<<          obj /usr/share/locale/fi/LC_MESSAGES/gnome-color-manager.mo
<<<          obj /usr/share/locale/fa/LC_MESSAGES/gnome-color-manager.mo
<<<          obj /usr/share/locale/eu/LC_MESSAGES/gnome-color-manager.mo
<<<          obj /usr/share/locale/et/LC_MESSAGES/gnome-color-manager.mo
<<<          obj /usr/share/locale/es/LC_MESSAGES/gnome-color-manager.mo
<<<          obj /usr/share/locale/eo/LC_MESSAGES/gnome-color-manager.mo
<<<          obj /usr/share/locale/en_GB/LC_MESSAGES/gnome-color-manager.mo
<<<          obj /usr/share/locale/el/LC_MESSAGES/gnome-color-manager.mo
<<<          obj /usr/share/locale/de/LC_MESSAGES/gnome-color-manager.mo
<<<          obj /usr/share/locale/da/LC_MESSAGES/gnome-color-manager.mo
<<<          obj /usr/share/locale/cs/LC_MESSAGES/gnome-color-manager.mo
<<<          obj /usr/share/locale/ca@valencia/LC_MESSAGES/gnome-color-manager.mo
<<<          obj /usr/share/locale/ca/LC_MESSAGES/gnome-color-manager.mo
<<<          obj /usr/share/locale/bs/LC_MESSAGES/gnome-color-manager.mo
<<<          obj /usr/share/locale/bn_IN/LC_MESSAGES/gnome-color-manager.mo
<<<          obj /usr/share/locale/bg/LC_MESSAGES/gnome-color-manager.mo
<<<          obj /usr/share/locale/as/LC_MESSAGES/gnome-color-manager.mo
<<<          obj /usr/share/locale/ar/LC_MESSAGES/gnome-color-manager.mo
<<<          obj /usr/share/icons/hicolor/scalable/apps/gnome-color-manager.svg
<<<          obj /usr/share/icons/hicolor/64x64/apps/gnome-color-manager.png
<<<          obj /usr/share/icons/hicolor/48x48/apps/gnome-color-manager.png
<<<          obj /usr/share/icons/hicolor/32x32/apps/gnome-color-manager.png
<<<          obj /usr/share/icons/hicolor/256x256/apps/gnome-color-manager.png
<<<          obj /usr/share/icons/hicolor/24x24/apps/gnome-color-manager.png
<<<          obj /usr/share/icons/hicolor/22x22/apps/gnome-color-manager.png
<<<          obj /usr/share/icons/hicolor/16x16/apps/gnome-color-manager.png
<<<          obj /usr/share/help/zh_TW/gnome-color-manager/legal.xml
<<<          obj /usr/share/help/zh_TW/gnome-color-manager/color-import-windows.page
<<<          obj /usr/share/help/zh_TW/gnome-color-manager/color-import-osx.page
<<<          obj /usr/share/help/zh_TW/gnome-color-manager/color-import-linux.page
<<<          obj /usr/share/help/zh_HK/gnome-color-manager/legal.xml
<<<          obj /usr/share/help/zh_HK/gnome-color-manager/color-import-windows.page
<<<          obj /usr/share/help/zh_HK/gnome-color-manager/color-import-osx.page
<<<          obj /usr/share/help/zh_HK/gnome-color-manager/color-import-linux.page
<<<          obj /usr/share/help/zh_CN/gnome-color-manager/legal.xml
<<<          obj /usr/share/help/zh_CN/gnome-color-manager/color-import-windows.page
<<<          obj /usr/share/help/zh_CN/gnome-color-manager/color-import-osx.page
<<<          obj /usr/share/help/zh_CN/gnome-color-manager/color-import-linux.page
<<<          obj /usr/share/help/sv/gnome-color-manager/legal.xml
<<<          obj /usr/share/help/sv/gnome-color-manager/color-import-windows.page
<<<          obj /usr/share/help/sv/gnome-color-manager/color-import-osx.page
<<<          obj /usr/share/help/sv/gnome-color-manager/color-import-linux.page
<<<          obj /usr/share/help/pt_BR/gnome-color-manager/legal.xml
<<<          obj /usr/share/help/pt_BR/gnome-color-manager/color-import-windows.page
<<<          obj /usr/share/help/pt_BR/gnome-color-manager/color-import-osx.page
<<<          obj /usr/share/help/pt_BR/gnome-color-manager/color-import-linux.page
<<<          obj /usr/share/help/pl/gnome-color-manager/legal.xml
<<<          obj /usr/share/help/pl/gnome-color-manager/color-import-windows.page
<<<          obj /usr/share/help/pl/gnome-color-manager/color-import-osx.page
<<<          obj /usr/share/help/pl/gnome-color-manager/color-import-linux.page
<<<          obj /usr/share/help/ml/gnome-color-manager/legal.xml
<<<          obj /usr/share/help/ml/gnome-color-manager/color-import-windows.page
<<<          obj /usr/share/help/ml/gnome-color-manager/color-import-osx.page
<<<          obj /usr/share/help/ml/gnome-color-manager/color-import-linux.page
<<<          obj /usr/share/help/ko/gnome-color-manager/legal.xml
<<<          obj /usr/share/help/ko/gnome-color-manager/color-import-windows.page
<<<          obj /usr/share/help/ko/gnome-color-manager/color-import-osx.page
<<<          obj /usr/share/help/ko/gnome-color-manager/color-import-linux.page
<<<          obj /usr/share/help/it/gnome-color-manager/legal.xml
<<<          obj /usr/share/help/it/gnome-color-manager/color-import-windows.page
<<<          obj /usr/share/help/it/gnome-color-manager/color-import-osx.page
<<<          obj /usr/share/help/it/gnome-color-manager/color-import-linux.page
<<<          obj /usr/share/help/hu/gnome-color-manager/legal.xml
<<<          obj /usr/share/help/hu/gnome-color-manager/color-import-windows.page
<<<          obj /usr/share/help/hu/gnome-color-manager/color-import-osx.page
<<<          obj /usr/share/help/hu/gnome-color-manager/color-import-linux.page
<<<          obj /usr/share/help/hr/gnome-color-manager/legal.xml
<<<          obj /usr/share/help/hr/gnome-color-manager/color-import-windows.page
<<<          obj /usr/share/help/hr/gnome-color-manager/color-import-osx.page
<<<          obj /usr/share/help/hr/gnome-color-manager/color-import-linux.page
<<<          obj /usr/share/help/gl/gnome-color-manager/legal.xml
<<<          obj /usr/share/help/gl/gnome-color-manager/color-import-windows.page
<<<          obj /usr/share/help/gl/gnome-color-manager/color-import-osx.page
<<<          obj /usr/share/help/gl/gnome-color-manager/color-import-linux.page
<<<          obj /usr/share/help/fr/gnome-color-manager/legal.xml
<<<          obj /usr/share/help/fr/gnome-color-manager/color-import-windows.page
<<<          obj /usr/share/help/fr/gnome-color-manager/color-import-osx.page
<<<          obj /usr/share/help/fr/gnome-color-manager/color-import-linux.page
<<<          obj /usr/share/help/fi/gnome-color-manager/legal.xml
<<<          obj /usr/share/help/fi/gnome-color-manager/color-import-windows.page
<<<          obj /usr/share/help/fi/gnome-color-manager/color-import-osx.page
<<<          obj /usr/share/help/fi/gnome-color-manager/color-import-linux.page
<<<          obj /usr/share/help/es/gnome-color-manager/legal.xml
<<<          obj /usr/share/help/es/gnome-color-manager/color-import-windows.page
<<<          obj /usr/share/help/es/gnome-color-manager/color-import-osx.page
<<<          obj /usr/share/help/es/gnome-color-manager/color-import-linux.page
<<<          obj /usr/share/help/el/gnome-color-manager/legal.xml
<<<          obj /usr/share/help/el/gnome-color-manager/color-import-windows.page
<<<          obj /usr/share/help/el/gnome-color-manager/color-import-osx.page
<<<          obj /usr/share/help/el/gnome-color-manager/color-import-linux.page
<<<          obj /usr/share/help/de/gnome-color-manager/legal.xml
<<<          obj /usr/share/help/de/gnome-color-manager/color-import-windows.page
<<<          obj /usr/share/help/de/gnome-color-manager/color-import-osx.page
<<<          obj /usr/share/help/de/gnome-color-manager/color-import-linux.page
<<<          obj /usr/share/help/da/gnome-color-manager/legal.xml
<<<          obj /usr/share/help/da/gnome-color-manager/color-import-windows.page
<<<          obj /usr/share/help/da/gnome-color-manager/color-import-osx.page
<<<          obj /usr/share/help/da/gnome-color-manager/color-import-linux.page
<<<          obj /usr/share/help/cs/gnome-color-manager/legal.xml
<<<          obj /usr/share/help/cs/gnome-color-manager/color-import-windows.page
<<<          obj /usr/share/help/cs/gnome-color-manager/color-import-osx.page
<<<          obj /usr/share/help/cs/gnome-color-manager/color-import-linux.page
<<<          obj /usr/share/help/ca/gnome-color-manager/legal.xml
<<<          obj /usr/share/help/ca/gnome-color-manager/color-import-windows.page
<<<          obj /usr/share/help/ca/gnome-color-manager/color-import-osx.page
<<<          obj /usr/share/help/ca/gnome-color-manager/color-import-linux.page
<<<          obj /usr/share/help/C/gnome-color-manager/legal.xml
<<<          obj /usr/share/help/C/gnome-color-manager/color-import-windows.page
<<<          obj /usr/share/help/C/gnome-color-manager/color-import-osx.page
<<<          obj /usr/share/help/C/gnome-color-manager/color-import-linux.page
<<<          obj /usr/share/gnome-color-manager/ti1/printer-short.ti1
<<<          obj /usr/share/gnome-color-manager/ti1/printer-normal.ti1
<<<          obj /usr/share/gnome-color-manager/ti1/printer-long.ti1
<<<          obj /usr/share/gnome-color-manager/ti1/display-short.ti1
<<<          obj /usr/share/gnome-color-manager/ti1/display-normal.ti1
<<<          obj /usr/share/gnome-color-manager/ti1/display-long.ti1
<<<          obj /usr/share/gnome-color-manager/targets/unknown.png
<<<          obj /usr/share/gnome-color-manager/targets/i1_RGB_Scan_14.png
<<<          obj /usr/share/gnome-color-manager/targets/QPcard_202.png
<<<          obj /usr/share/gnome-color-manager/targets/QPcard_201.png
<<<          obj /usr/share/gnome-color-manager/targets/LaserSoftDCPro.png
<<<          obj /usr/share/gnome-color-manager/targets/IT872.png
<<<          obj /usr/share/gnome-color-manager/targets/ColorCheckerSG.png
<<<          obj /usr/share/gnome-color-manager/targets/ColorCheckerDC.png
<<<          obj /usr/share/gnome-color-manager/targets/ColorChecker24.png
<<<          obj /usr/share/gnome-color-manager/targets/CMP_DT_003.png
<<<          obj /usr/share/gnome-color-manager/targets/CMP-DigitalTarget3.png
<<<          obj /usr/share/gnome-color-manager/icons/scan-target.svg
<<<          obj /usr/share/gnome-color-manager/icons/scan-target-good.svg
<<<          obj /usr/share/gnome-color-manager/icons/scan-target-bad.svg
<<<          obj /usr/share/gnome-color-manager/icons/icons/projector.svg
<<<          obj /usr/share/gnome-color-manager/icons/icons/lcd.svg
<<<          obj /usr/share/gnome-color-manager/icons/icons/crt.svg
<<<          obj /usr/share/gnome-color-manager/icons/clock.svg
<<<          obj /usr/share/gnome-color-manager/icons/calibration-short.svg
<<<          obj /usr/share/gnome-color-manager/icons/calibration-normal.svg
<<<          obj /usr/share/gnome-color-manager/icons/calibration-long.svg
<<<          obj /usr/share/gnome-color-manager/figures/viewer-example-03.png
<<<          obj /usr/share/gnome-color-manager/figures/viewer-example-02.png
<<<          obj /usr/share/gnome-color-manager/figures/viewer-example-01.png
<<<          obj /usr/share/gnome-color-manager/figures/viewer-example-00.png
<<<          obj /usr/share/applications/org.gnome.ColorProfileViewer.desktop
<<<          obj /usr/share/applications/gcm-picker.desktop
<<<          obj /usr/share/applications/gcm-import.desktop
<<<          obj /usr/share/applications/gcm-calibrate.desktop
<<<          obj /usr/bin/gcm-viewer
<<<          obj /usr/bin/gcm-picker
<<<          obj /usr/bin/gcm-inspect
<<<          obj /usr/bin/gcm-import
<<<          obj /usr/bin/gcm-calibrate
--- !empty   dir /usr/share/metainfo
--- !empty   dir /usr/share/man/man1
--- !empty   dir /usr/share/man
--- !empty   dir /usr/share/locale/zh_TW/LC_MESSAGES
--- !empty   dir /usr/share/locale/zh_TW
--- !empty   dir /usr/share/locale/zh_HK/LC_MESSAGES
--- !empty   dir /usr/share/locale/zh_HK
--- !empty   dir /usr/share/locale/zh_CN/LC_MESSAGES
--- !empty   dir /usr/share/locale/zh_CN
--- !empty   dir /usr/share/locale/vi/LC_MESSAGES
--- !empty   dir /usr/share/locale/vi
--- !empty   dir /usr/share/locale/uk/LC_MESSAGES
--- !empty   dir /usr/share/locale/uk
--- !empty   dir /usr/share/locale/ug/LC_MESSAGES
--- !empty   dir /usr/share/locale/ug
--- !empty   dir /usr/share/locale/tr/LC_MESSAGES
--- !empty   dir /usr/share/locale/tr
--- !empty   dir /usr/share/locale/th/LC_MESSAGES
--- !empty   dir /usr/share/locale/th
--- !empty   dir /usr/share/locale/tg/LC_MESSAGES
--- !empty   dir /usr/share/locale/tg
--- !empty   dir /usr/share/locale/te/LC_MESSAGES
--- !empty   dir /usr/share/locale/te
--- !empty   dir /usr/share/locale/ta/LC_MESSAGES
--- !empty   dir /usr/share/locale/ta
--- !empty   dir /usr/share/locale/sv/LC_MESSAGES
--- !empty   dir /usr/share/locale/sv
--- !empty   dir /usr/share/locale/sr@latin/LC_MESSAGES
--- !empty   dir /usr/share/locale/sr@latin
--- !empty   dir /usr/share/locale/sr/LC_MESSAGES
--- !empty   dir /usr/share/locale/sr
--- !empty   dir /usr/share/locale/sl/LC_MESSAGES
--- !empty   dir /usr/share/locale/sl
--- !empty   dir /usr/share/locale/sk/LC_MESSAGES
--- !empty   dir /usr/share/locale/sk
--- !empty   dir /usr/share/locale/ru/LC_MESSAGES
--- !empty   dir /usr/share/locale/ru
--- !empty   dir /usr/share/locale/ro/LC_MESSAGES
--- !empty   dir /usr/share/locale/ro
--- !empty   dir /usr/share/locale/pt_BR/LC_MESSAGES
--- !empty   dir /usr/share/locale/pt_BR
--- !empty   dir /usr/share/locale/pt/LC_MESSAGES
--- !empty   dir /usr/share/locale/pt
--- !empty   dir /usr/share/locale/pl/LC_MESSAGES
--- !empty   dir /usr/share/locale/pl
--- !empty   dir /usr/share/locale/pa/LC_MESSAGES
--- !empty   dir /usr/share/locale/pa
--- !empty   dir /usr/share/locale/or/LC_MESSAGES
--- !empty   dir /usr/share/locale/or
--- !empty   dir /usr/share/locale/oc/LC_MESSAGES
--- !empty   dir /usr/share/locale/oc
--- !empty   dir /usr/share/locale/nl/LC_MESSAGES
--- !empty   dir /usr/share/locale/nl
--- !empty   dir /usr/share/locale/ne/LC_MESSAGES
--- !empty   dir /usr/share/locale/ne
--- !empty   dir /usr/share/locale/nb/LC_MESSAGES
--- !empty   dir /usr/share/locale/nb
--- !empty   dir /usr/share/locale/mr/LC_MESSAGES
--- !empty   dir /usr/share/locale/mr
--- !empty   dir /usr/share/locale/ml/LC_MESSAGES
--- !empty   dir /usr/share/locale/ml
--- !empty   dir /usr/share/locale/lv/LC_MESSAGES
--- !empty   dir /usr/share/locale/lv
--- !empty   dir /usr/share/locale/lt/LC_MESSAGES
--- !empty   dir /usr/share/locale/lt
--- !empty   dir /usr/share/locale/ko/LC_MESSAGES
--- !empty   dir /usr/share/locale/ko
--- !empty   dir /usr/share/locale/kn/LC_MESSAGES
--- !empty   dir /usr/share/locale/kn
--- !empty   dir /usr/share/locale/kk/LC_MESSAGES
--- !empty   dir /usr/share/locale/kk
--- !empty   dir /usr/share/locale/ja/LC_MESSAGES
--- !empty   dir /usr/share/locale/ja
--- !empty   dir /usr/share/locale/it/LC_MESSAGES
--- !empty   dir /usr/share/locale/it
--- !empty   dir /usr/share/locale/is/LC_MESSAGES
--- !empty   dir /usr/share/locale/is
--- !empty   dir /usr/share/locale/id/LC_MESSAGES
--- !empty   dir /usr/share/locale/id
--- !empty   dir /usr/share/locale/hu/LC_MESSAGES
--- !empty   dir /usr/share/locale/hu
--- !empty   dir /usr/share/locale/hr/LC_MESSAGES
--- !empty   dir /usr/share/locale/hr
--- !empty   dir /usr/share/locale/hi/LC_MESSAGES
--- !empty   dir /usr/share/locale/hi
--- !empty   dir /usr/share/locale/he/LC_MESSAGES
--- !empty   dir /usr/share/locale/he
--- !empty   dir /usr/share/locale/gu/LC_MESSAGES
--- !empty   dir /usr/share/locale/gu
--- !empty   dir /usr/share/locale/gl/LC_MESSAGES
--- !empty   dir /usr/share/locale/gl
--- !empty   dir /usr/share/locale/gd/LC_MESSAGES
--- !empty   dir /usr/share/locale/gd
--- !empty   dir /usr/share/locale/fur/LC_MESSAGES
--- !empty   dir /usr/share/locale/fur
--- !empty   dir /usr/share/locale/fr/LC_MESSAGES
--- !empty   dir /usr/share/locale/fr
--- !empty   dir /usr/share/locale/fi/LC_MESSAGES
--- !empty   dir /usr/share/locale/fi
--- !empty   dir /usr/share/locale/fa/LC_MESSAGES
--- !empty   dir /usr/share/locale/fa
--- !empty   dir /usr/share/locale/eu/LC_MESSAGES
--- !empty   dir /usr/share/locale/eu
--- !empty   dir /usr/share/locale/et/LC_MESSAGES
--- !empty   dir /usr/share/locale/et
--- !empty   dir /usr/share/locale/es/LC_MESSAGES
--- !empty   dir /usr/share/locale/es
--- !empty   dir /usr/share/locale/eo/LC_MESSAGES
--- !empty   dir /usr/share/locale/eo
--- !empty   dir /usr/share/locale/en_GB/LC_MESSAGES
--- !empty   dir /usr/share/locale/en_GB
--- !empty   dir /usr/share/locale/el/LC_MESSAGES
--- !empty   dir /usr/share/locale/el
--- !empty   dir /usr/share/locale/de/LC_MESSAGES
--- !empty   dir /usr/share/locale/de
--- !empty   dir /usr/share/locale/da/LC_MESSAGES
--- !empty   dir /usr/share/locale/da
--- !empty   dir /usr/share/locale/cs/LC_MESSAGES
--- !empty   dir /usr/share/locale/cs
--- !empty   dir /usr/share/locale/ca@valencia/LC_MESSAGES
--- !empty   dir /usr/share/locale/ca@valencia
--- !empty   dir /usr/share/locale/ca/LC_MESSAGES
--- !empty   dir /usr/share/locale/ca
--- !empty   dir /usr/share/locale/bs/LC_MESSAGES
--- !empty   dir /usr/share/locale/bs
--- !empty   dir /usr/share/locale/bn_IN/LC_MESSAGES
--- !empty   dir /usr/share/locale/bn_IN
--- !empty   dir /usr/share/locale/bg/LC_MESSAGES
--- !empty   dir /usr/share/locale/bg
--- !empty   dir /usr/share/locale/as/LC_MESSAGES
--- !empty   dir /usr/share/locale/as
--- !empty   dir /usr/share/locale/ar/LC_MESSAGES
--- !empty   dir /usr/share/locale/ar
--- !empty   dir /usr/share/locale
--- !empty   dir /usr/share/icons/hicolor/scalable/apps
--- !empty   dir /usr/share/icons/hicolor/scalable
--- !empty   dir /usr/share/icons/hicolor/64x64/apps
--- !empty   dir /usr/share/icons/hicolor/64x64
--- !empty   dir /usr/share/icons/hicolor/48x48/apps
--- !empty   dir /usr/share/icons/hicolor/48x48
--- !empty   dir /usr/share/icons/hicolor/32x32/apps
--- !empty   dir /usr/share/icons/hicolor/32x32
--- !empty   dir /usr/share/icons/hicolor/256x256/apps
--- !empty   dir /usr/share/icons/hicolor/256x256
--- !empty   dir /usr/share/icons/hicolor/24x24/apps
--- !empty   dir /usr/share/icons/hicolor/24x24
--- !empty   dir /usr/share/icons/hicolor/22x22/apps
--- !empty   dir /usr/share/icons/hicolor/22x22
--- !empty   dir /usr/share/icons/hicolor/16x16/apps
--- !empty   dir /usr/share/icons/hicolor/16x16
--- !empty   dir /usr/share/icons/hicolor
--- !empty   dir /usr/share/icons
<<<          dir /usr/share/help/zh_TW/gnome-color-manager
<<<          dir /usr/share/help/zh_TW
<<<          dir /usr/share/help/zh_HK/gnome-color-manager
<<<          dir /usr/share/help/zh_HK
<<<          dir /usr/share/help/zh_CN/gnome-color-manager
--- !empty   dir /usr/share/help/zh_CN
<<<          dir /usr/share/help/sv/gnome-color-manager
--- !empty   dir /usr/share/help/sv
<<<          dir /usr/share/help/pt_BR/gnome-color-manager
--- !empty   dir /usr/share/help/pt_BR
<<<          dir /usr/share/help/pl/gnome-color-manager
--- !empty   dir /usr/share/help/pl
<<<          dir /usr/share/help/ml/gnome-color-manager
<<<          dir /usr/share/help/ml
<<<          dir /usr/share/help/ko/gnome-color-manager
--- !empty   dir /usr/share/help/ko
<<<          dir /usr/share/help/it/gnome-color-manager
--- !empty   dir /usr/share/help/it
<<<          dir /usr/share/help/hu/gnome-color-manager
--- !empty   dir /usr/share/help/hu
<<<          dir /usr/share/help/hr/gnome-color-manager
<<<          dir /usr/share/help/hr
<<<          dir /usr/share/help/gl/gnome-color-manager
--- !empty   dir /usr/share/help/gl
<<<          dir /usr/share/help/fr/gnome-color-manager
--- !empty   dir /usr/share/help/fr
<<<          dir /usr/share/help/fi/gnome-color-manager
--- !empty   dir /usr/share/help/fi
<<<          dir /usr/share/help/es/gnome-color-manager
--- !empty   dir /usr/share/help/es
<<<          dir /usr/share/help/el/gnome-color-manager
--- !empty   dir /usr/share/help/el
<<<          dir /usr/share/help/de/gnome-color-manager
--- !empty   dir /usr/share/help/de
<<<          dir /usr/share/help/da/gnome-color-manager
--- !empty   dir /usr/share/help/da
<<<          dir /usr/share/help/cs/gnome-color-manager
--- !empty   dir /usr/share/help/cs
<<<          dir /usr/share/help/ca/gnome-color-manager
--- !empty   dir /usr/share/help/ca
<<<          dir /usr/share/help/C/gnome-color-manager
--- !empty   dir /usr/share/help/C
--- !empty   dir /usr/share/help
<<<          dir /usr/share/gnome-color-manager/ti1
<<<          dir /usr/share/gnome-color-manager/targets
<<<          dir /usr/share/gnome-color-manager/icons/icons
<<<          dir /usr/share/gnome-color-manager/icons
<<<          dir /usr/share/gnome-color-manager/figures
<<<          dir /usr/share/gnome-color-manager
--- !empty   dir /usr/share/applications
--- !empty   dir /usr/share
--- !empty   dir /usr/bin
--- !empty   dir /usr
 * Updating .desktop files database ...
 [ ok ]
 * Updating icons cache ...
 [ ok ]
