No package files given... Grabbing a set.
--- replaced obj /usr/share/pkgconfig/gsettings-desktop-schemas.pc
--- replaced dir /usr/share/pkgconfig
--- replaced obj /usr/share/locale/zh_TW/LC_MESSAGES/gsettings-desktop-schemas.mo
--- replaced dir /usr/share/locale/zh_TW/LC_MESSAGES
--- replaced dir /usr/share/locale/zh_TW
--- replaced obj /usr/share/locale/zh_HK/LC_MESSAGES/gsettings-desktop-schemas.mo
--- replaced dir /usr/share/locale/zh_HK/LC_MESSAGES
--- replaced dir /usr/share/locale/zh_HK
--- replaced obj /usr/share/locale/zh_CN/LC_MESSAGES/gsettings-desktop-schemas.mo
--- replaced dir /usr/share/locale/zh_CN/LC_MESSAGES
--- replaced dir /usr/share/locale/zh_CN
--- replaced obj /usr/share/locale/vi/LC_MESSAGES/gsettings-desktop-schemas.mo
--- replaced dir /usr/share/locale/vi/LC_MESSAGES
--- replaced dir /usr/share/locale/vi
--- replaced obj /usr/share/locale/uk/LC_MESSAGES/gsettings-desktop-schemas.mo
--- replaced dir /usr/share/locale/uk/LC_MESSAGES
--- replaced dir /usr/share/locale/uk
--- replaced obj /usr/share/locale/ug/LC_MESSAGES/gsettings-desktop-schemas.mo
--- replaced dir /usr/share/locale/ug/LC_MESSAGES
--- replaced dir /usr/share/locale/ug
--- replaced obj /usr/share/locale/tr/LC_MESSAGES/gsettings-desktop-schemas.mo
--- replaced dir /usr/share/locale/tr/LC_MESSAGES
--- replaced dir /usr/share/locale/tr
--- replaced obj /usr/share/locale/tg/LC_MESSAGES/gsettings-desktop-schemas.mo
--- replaced dir /usr/share/locale/tg/LC_MESSAGES
--- replaced dir /usr/share/locale/tg
--- replaced obj /usr/share/locale/sv/LC_MESSAGES/gsettings-desktop-schemas.mo
--- replaced dir /usr/share/locale/sv/LC_MESSAGES
--- replaced dir /usr/share/locale/sv
--- replaced obj /usr/share/locale/sr@latin/LC_MESSAGES/gsettings-desktop-schemas.mo
--- replaced dir /usr/share/locale/sr@latin/LC_MESSAGES
--- replaced dir /usr/share/locale/sr@latin
--- replaced obj /usr/share/locale/sr/LC_MESSAGES/gsettings-desktop-schemas.mo
--- replaced dir /usr/share/locale/sr/LC_MESSAGES
--- replaced dir /usr/share/locale/sr
--- replaced obj /usr/share/locale/sl/LC_MESSAGES/gsettings-desktop-schemas.mo
--- replaced dir /usr/share/locale/sl/LC_MESSAGES
--- replaced dir /usr/share/locale/sl
--- replaced obj /usr/share/locale/sk/LC_MESSAGES/gsettings-desktop-schemas.mo
--- replaced dir /usr/share/locale/sk/LC_MESSAGES
--- replaced dir /usr/share/locale/sk
--- replaced obj /usr/share/locale/ru/LC_MESSAGES/gsettings-desktop-schemas.mo
--- replaced dir /usr/share/locale/ru/LC_MESSAGES
--- replaced dir /usr/share/locale/ru
--- replaced obj /usr/share/locale/ro/LC_MESSAGES/gsettings-desktop-schemas.mo
--- replaced dir /usr/share/locale/ro/LC_MESSAGES
--- replaced dir /usr/share/locale/ro
--- replaced obj /usr/share/locale/pt_BR/LC_MESSAGES/gsettings-desktop-schemas.mo
--- replaced dir /usr/share/locale/pt_BR/LC_MESSAGES
--- replaced dir /usr/share/locale/pt_BR
--- replaced obj /usr/share/locale/pt/LC_MESSAGES/gsettings-desktop-schemas.mo
--- replaced dir /usr/share/locale/pt/LC_MESSAGES
--- replaced dir /usr/share/locale/pt
--- replaced obj /usr/share/locale/pl/LC_MESSAGES/gsettings-desktop-schemas.mo
--- replaced dir /usr/share/locale/pl/LC_MESSAGES
--- replaced dir /usr/share/locale/pl
--- replaced obj /usr/share/locale/pa/LC_MESSAGES/gsettings-desktop-schemas.mo
--- replaced dir /usr/share/locale/pa/LC_MESSAGES
--- replaced dir /usr/share/locale/pa
--- replaced obj /usr/share/locale/or/LC_MESSAGES/gsettings-desktop-schemas.mo
--- replaced dir /usr/share/locale/or/LC_MESSAGES
--- replaced dir /usr/share/locale/or
--- replaced obj /usr/share/locale/oc/LC_MESSAGES/gsettings-desktop-schemas.mo
--- replaced dir /usr/share/locale/oc/LC_MESSAGES
--- replaced dir /usr/share/locale/oc
--- replaced obj /usr/share/locale/nl/LC_MESSAGES/gsettings-desktop-schemas.mo
--- replaced dir /usr/share/locale/nl/LC_MESSAGES
--- replaced dir /usr/share/locale/nl
--- replaced obj /usr/share/locale/ne/LC_MESSAGES/gsettings-desktop-schemas.mo
--- replaced dir /usr/share/locale/ne/LC_MESSAGES
--- replaced dir /usr/share/locale/ne
--- replaced obj /usr/share/locale/nb/LC_MESSAGES/gsettings-desktop-schemas.mo
--- replaced dir /usr/share/locale/nb/LC_MESSAGES
--- replaced dir /usr/share/locale/nb
--- replaced obj /usr/share/locale/ml/LC_MESSAGES/gsettings-desktop-schemas.mo
--- replaced dir /usr/share/locale/ml/LC_MESSAGES
--- replaced dir /usr/share/locale/ml
--- replaced obj /usr/share/locale/lv/LC_MESSAGES/gsettings-desktop-schemas.mo
--- replaced dir /usr/share/locale/lv/LC_MESSAGES
--- replaced dir /usr/share/locale/lv
--- replaced obj /usr/share/locale/lt/LC_MESSAGES/gsettings-desktop-schemas.mo
--- replaced dir /usr/share/locale/lt/LC_MESSAGES
--- replaced dir /usr/share/locale/lt
--- replaced obj /usr/share/locale/kk/LC_MESSAGES/gsettings-desktop-schemas.mo
--- replaced dir /usr/share/locale/kk/LC_MESSAGES
--- replaced dir /usr/share/locale/kk
--- replaced obj /usr/share/locale/ja/LC_MESSAGES/gsettings-desktop-schemas.mo
--- replaced dir /usr/share/locale/ja/LC_MESSAGES
--- replaced dir /usr/share/locale/ja
--- replaced obj /usr/share/locale/it/LC_MESSAGES/gsettings-desktop-schemas.mo
--- replaced dir /usr/share/locale/it/LC_MESSAGES
--- replaced dir /usr/share/locale/it
--- replaced obj /usr/share/locale/is/LC_MESSAGES/gsettings-desktop-schemas.mo
--- replaced dir /usr/share/locale/is/LC_MESSAGES
--- replaced dir /usr/share/locale/is
--- replaced obj /usr/share/locale/id/LC_MESSAGES/gsettings-desktop-schemas.mo
--- replaced dir /usr/share/locale/id/LC_MESSAGES
--- replaced dir /usr/share/locale/id
--- replaced obj /usr/share/locale/hu/LC_MESSAGES/gsettings-desktop-schemas.mo
--- replaced dir /usr/share/locale/hu/LC_MESSAGES
--- replaced dir /usr/share/locale/hu
--- replaced obj /usr/share/locale/hr/LC_MESSAGES/gsettings-desktop-schemas.mo
--- replaced dir /usr/share/locale/hr/LC_MESSAGES
--- replaced dir /usr/share/locale/hr
--- replaced obj /usr/share/locale/hi/LC_MESSAGES/gsettings-desktop-schemas.mo
--- replaced dir /usr/share/locale/hi/LC_MESSAGES
--- replaced dir /usr/share/locale/hi
--- replaced obj /usr/share/locale/he/LC_MESSAGES/gsettings-desktop-schemas.mo
--- replaced dir /usr/share/locale/he/LC_MESSAGES
--- replaced dir /usr/share/locale/he
--- replaced obj /usr/share/locale/gu/LC_MESSAGES/gsettings-desktop-schemas.mo
--- replaced dir /usr/share/locale/gu/LC_MESSAGES
--- replaced dir /usr/share/locale/gu
--- replaced obj /usr/share/locale/gl/LC_MESSAGES/gsettings-desktop-schemas.mo
--- replaced dir /usr/share/locale/gl/LC_MESSAGES
--- replaced dir /usr/share/locale/gl
--- replaced obj /usr/share/locale/fur/LC_MESSAGES/gsettings-desktop-schemas.mo
--- replaced dir /usr/share/locale/fur/LC_MESSAGES
--- replaced dir /usr/share/locale/fur
--- replaced obj /usr/share/locale/fr/LC_MESSAGES/gsettings-desktop-schemas.mo
--- replaced dir /usr/share/locale/fr/LC_MESSAGES
--- replaced dir /usr/share/locale/fr
--- replaced obj /usr/share/locale/fi/LC_MESSAGES/gsettings-desktop-schemas.mo
--- replaced dir /usr/share/locale/fi/LC_MESSAGES
--- replaced dir /usr/share/locale/fi
--- replaced obj /usr/share/locale/eu/LC_MESSAGES/gsettings-desktop-schemas.mo
--- replaced dir /usr/share/locale/eu/LC_MESSAGES
--- replaced dir /usr/share/locale/eu
--- replaced obj /usr/share/locale/es/LC_MESSAGES/gsettings-desktop-schemas.mo
--- replaced dir /usr/share/locale/es/LC_MESSAGES
--- replaced dir /usr/share/locale/es
--- replaced obj /usr/share/locale/eo/LC_MESSAGES/gsettings-desktop-schemas.mo
--- replaced dir /usr/share/locale/eo/LC_MESSAGES
--- replaced dir /usr/share/locale/eo
--- replaced obj /usr/share/locale/en_GB/LC_MESSAGES/gsettings-desktop-schemas.mo
--- replaced dir /usr/share/locale/en_GB/LC_MESSAGES
--- replaced dir /usr/share/locale/en_GB
--- replaced obj /usr/share/locale/el/LC_MESSAGES/gsettings-desktop-schemas.mo
--- replaced dir /usr/share/locale/el/LC_MESSAGES
--- replaced dir /usr/share/locale/el
--- replaced obj /usr/share/locale/de/LC_MESSAGES/gsettings-desktop-schemas.mo
--- replaced dir /usr/share/locale/de/LC_MESSAGES
--- replaced dir /usr/share/locale/de
--- replaced obj /usr/share/locale/da/LC_MESSAGES/gsettings-desktop-schemas.mo
--- replaced dir /usr/share/locale/da/LC_MESSAGES
--- replaced dir /usr/share/locale/da
--- replaced obj /usr/share/locale/cs/LC_MESSAGES/gsettings-desktop-schemas.mo
--- replaced dir /usr/share/locale/cs/LC_MESSAGES
--- replaced dir /usr/share/locale/cs
--- replaced obj /usr/share/locale/ca@valencia/LC_MESSAGES/gsettings-desktop-schemas.mo
--- replaced dir /usr/share/locale/ca@valencia/LC_MESSAGES
--- replaced dir /usr/share/locale/ca@valencia
--- replaced obj /usr/share/locale/ca/LC_MESSAGES/gsettings-desktop-schemas.mo
--- replaced dir /usr/share/locale/ca/LC_MESSAGES
--- replaced dir /usr/share/locale/ca
--- replaced obj /usr/share/locale/bs/LC_MESSAGES/gsettings-desktop-schemas.mo
--- replaced dir /usr/share/locale/bs/LC_MESSAGES
--- replaced dir /usr/share/locale/bs
--- replaced obj /usr/share/locale/bg/LC_MESSAGES/gsettings-desktop-schemas.mo
--- replaced dir /usr/share/locale/bg/LC_MESSAGES
--- replaced dir /usr/share/locale/bg
--- replaced obj /usr/share/locale/as/LC_MESSAGES/gsettings-desktop-schemas.mo
--- replaced dir /usr/share/locale/as/LC_MESSAGES
--- replaced dir /usr/share/locale/as
--- replaced dir /usr/share/locale
--- replaced obj /usr/share/glib-2.0/schemas/org.gnome.system.proxy.gschema.xml
--- replaced obj /usr/share/glib-2.0/schemas/org.gnome.system.location.gschema.xml
--- replaced obj /usr/share/glib-2.0/schemas/org.gnome.system.locale.gschema.xml
--- replaced obj /usr/share/glib-2.0/schemas/org.gnome.desktop.wm.preferences.gschema.xml
--- replaced obj /usr/share/glib-2.0/schemas/org.gnome.desktop.wm.keybindings.gschema.xml
--- replaced obj /usr/share/glib-2.0/schemas/org.gnome.desktop.thumbnailers.gschema.xml
--- replaced obj /usr/share/glib-2.0/schemas/org.gnome.desktop.thumbnail-cache.gschema.xml
--- replaced obj /usr/share/glib-2.0/schemas/org.gnome.desktop.sound.gschema.xml
--- replaced obj /usr/share/glib-2.0/schemas/org.gnome.desktop.session.gschema.xml
--- replaced obj /usr/share/glib-2.0/schemas/org.gnome.desktop.search-providers.gschema.xml
--- replaced obj /usr/share/glib-2.0/schemas/org.gnome.desktop.screensaver.gschema.xml
--- replaced obj /usr/share/glib-2.0/schemas/org.gnome.desktop.privacy.gschema.xml
--- replaced obj /usr/share/glib-2.0/schemas/org.gnome.desktop.peripherals.gschema.xml
--- replaced obj /usr/share/glib-2.0/schemas/org.gnome.desktop.notifications.gschema.xml
--- replaced obj /usr/share/glib-2.0/schemas/org.gnome.desktop.media-handling.gschema.xml
--- replaced obj /usr/share/glib-2.0/schemas/org.gnome.desktop.lockdown.gschema.xml
--- replaced obj /usr/share/glib-2.0/schemas/org.gnome.desktop.interface.gschema.xml
--- replaced obj /usr/share/glib-2.0/schemas/org.gnome.desktop.input-sources.gschema.xml
--- replaced obj /usr/share/glib-2.0/schemas/org.gnome.desktop.enums.xml
--- replaced obj /usr/share/glib-2.0/schemas/org.gnome.desktop.default-applications.gschema.xml
--- replaced obj /usr/share/glib-2.0/schemas/org.gnome.desktop.datetime.gschema.xml
--- replaced obj /usr/share/glib-2.0/schemas/org.gnome.desktop.calendar.gschema.xml
--- replaced obj /usr/share/glib-2.0/schemas/org.gnome.desktop.background.gschema.xml
--- replaced obj /usr/share/glib-2.0/schemas/org.gnome.desktop.app-folders.gschema.xml
--- replaced obj /usr/share/glib-2.0/schemas/org.gnome.desktop.a11y.mouse.gschema.xml
--- replaced obj /usr/share/glib-2.0/schemas/org.gnome.desktop.a11y.magnifier.gschema.xml
--- replaced obj /usr/share/glib-2.0/schemas/org.gnome.desktop.a11y.keyboard.gschema.xml
--- replaced obj /usr/share/glib-2.0/schemas/org.gnome.desktop.a11y.gschema.xml
--- replaced obj /usr/share/glib-2.0/schemas/org.gnome.desktop.a11y.applications.gschema.xml
--- replaced dir /usr/share/glib-2.0/schemas
--- replaced dir /usr/share/glib-2.0
--- replaced obj /usr/share/gir-1.0/GDesktopEnums-3.0.gir
--- replaced dir /usr/share/gir-1.0
--- replaced obj /usr/share/GConf/gsettings/wm-schemas.convert
--- replaced obj /usr/share/GConf/gsettings/gsettings-desktop-schemas.convert
--- replaced dir /usr/share/GConf/gsettings
--- replaced dir /usr/share/GConf
--- replaced dir /usr/share
--- replaced obj /usr/lib64/girepository-1.0/GDesktopEnums-3.0.typelib
--- replaced dir /usr/lib64/girepository-1.0
--- replaced dir /usr/lib64
--- replaced obj /usr/include/gsettings-desktop-schemas/gdesktop-enums.h
--- replaced dir /usr/include/gsettings-desktop-schemas
--- replaced dir /usr/include
--- replaced dir /usr
 [32;01m*[0m Updating GSettings schemas ...
[A[263C [34;01m[ [32;01mok[34;01m ][0m
>>> Regenerating /etc/ld.so.cache...
