No package files given... Grabbing a set.
--- replaced obj /usr/share/vala/vapi/dconf.vapi
--- replaced obj /usr/share/vala/vapi/dconf.deps
--- replaced dir /usr/share/vala/vapi
--- replaced dir /usr/share/vala
--- replaced obj /usr/share/man/man7/dconf.7.bz2
--- replaced dir /usr/share/man/man7
--- replaced obj /usr/share/man/man1/dconf.1.bz2
--- replaced obj /usr/share/man/man1/dconf-service.1.bz2
--- replaced dir /usr/share/man/man1
--- replaced dir /usr/share/man
--- replaced obj /usr/share/dbus-1/services/ca.desrt.dconf.service
--- replaced dir /usr/share/dbus-1/services
--- replaced dir /usr/share/dbus-1
--- replaced obj /usr/share/bash-completion/completions/dconf
--- replaced dir /usr/share/bash-completion/completions
--- replaced dir /usr/share/bash-completion
--- replaced dir /usr/share
--- replaced obj /usr/libexec/dconf-service
--- replaced dir /usr/libexec
--- replaced obj /usr/lib64/pkgconfig/dconf.pc
--- replaced dir /usr/lib64/pkgconfig
--- replaced obj /usr/lib64/libdconf.so.1.0.0
--- replaced sym /usr/lib64/libdconf.so.1
--- replaced sym /usr/lib64/libdconf.so
--- replaced obj /usr/lib64/gio/modules/libdconfsettings.so
--- replaced dir /usr/lib64/gio/modules
--- replaced dir /usr/lib64/gio
--- replaced dir /usr/lib64
--- replaced obj /usr/include/dconf/dconf.h
--- replaced obj /usr/include/dconf/common/dconf-paths.h
--- replaced obj /usr/include/dconf/common/dconf-enums.h
--- replaced obj /usr/include/dconf/common/dconf-changeset.h
--- replaced dir /usr/include/dconf/common
--- replaced obj /usr/include/dconf/client/dconf-client.h
--- replaced dir /usr/include/dconf/client
--- replaced dir /usr/include/dconf
--- replaced dir /usr/include
--- replaced obj /usr/bin/dconf
--- replaced dir /usr/bin
--- replaced dir /usr
--- replaced obj /etc/env.d/51dconf
--- replaced dir /etc/env.d
--- replaced dir /etc
 * Updating GIO modules cache ...
 [ ok ]
>>> Regenerating /etc/ld.so.cache...
