No package files given... Grabbing a set.
--- replaced obj /usr/share/kf5/kcharselect/kcharselect-data
--- replaced dir /usr/share/kf5/kcharselect
--- replaced dir /usr/share/kf5
--- replaced dir /usr/share
--- replaced obj /usr/lib64/qt5/mkspecs/modules/qt_KWidgetsAddons.pri
--- replaced dir /usr/lib64/qt5/mkspecs/modules
--- replaced dir /usr/lib64/qt5/mkspecs
--- replaced dir /usr/lib64/qt5
--- replaced obj /usr/lib64/libKF5WidgetsAddons.so.5.70.0
--- replaced sym /usr/lib64/libKF5WidgetsAddons.so.5
--- replaced sym /usr/lib64/libKF5WidgetsAddons.so
--- replaced obj /usr/lib64/cmake/KF5WidgetsAddons/KF5WidgetsAddonsTargets.cmake
--- replaced obj /usr/lib64/cmake/KF5WidgetsAddons/KF5WidgetsAddonsTargets-gentoo.cmake
--- replaced obj /usr/lib64/cmake/KF5WidgetsAddons/KF5WidgetsAddonsConfigVersion.cmake
--- replaced obj /usr/lib64/cmake/KF5WidgetsAddons/KF5WidgetsAddonsConfig.cmake
--- replaced dir /usr/lib64/cmake/KF5WidgetsAddons
--- replaced dir /usr/lib64/cmake
--- replaced dir /usr/lib64
--- replaced obj /usr/include/KF5/kwidgetsaddons_version.h
--- replaced obj /usr/include/KF5/KWidgetsAddons/lineediturldropeventfilter.h
--- replaced obj /usr/include/KF5/KWidgetsAddons/kxyselector.h
--- replaced obj /usr/include/KF5/KWidgetsAddons/kwidgetsaddons_export.h
--- replaced obj /usr/include/KF5/KWidgetsAddons/kviewstateserializer.h
--- replaced obj /usr/include/KF5/KWidgetsAddons/kviewstatemaintainerbase.h
--- replaced obj /usr/include/KF5/KWidgetsAddons/kurllabel.h
--- replaced obj /usr/include/KF5/KWidgetsAddons/ktooltipwidget.h
--- replaced obj /usr/include/KF5/KWidgetsAddons/ktoolbarspaceraction.h
--- replaced obj /usr/include/KF5/KWidgetsAddons/ktoolbarpopupaction.h
--- replaced obj /usr/include/KF5/KWidgetsAddons/ktoolbarlabelaction.h
--- replaced obj /usr/include/KF5/KWidgetsAddons/ktogglefullscreenaction.h
--- replaced obj /usr/include/KF5/KWidgetsAddons/ktoggleaction.h
--- replaced obj /usr/include/KF5/KWidgetsAddons/ktitlewidget.h
--- replaced obj /usr/include/KF5/KWidgetsAddons/ktimecombobox.h
--- replaced obj /usr/include/KF5/KWidgetsAddons/kstyleextensions.h
--- replaced obj /usr/include/KF5/KWidgetsAddons/kstandardguiitem.h
--- replaced obj /usr/include/KF5/KWidgetsAddons/ksqueezedtextlabel.h
--- replaced obj /usr/include/KF5/KWidgetsAddons/ksplittercollapserbutton.h
--- replaced obj /usr/include/KF5/KWidgetsAddons/kseparator.h
--- replaced obj /usr/include/KF5/KWidgetsAddons/kselector.h
--- replaced obj /usr/include/KF5/KWidgetsAddons/kselectaction.h
--- replaced obj /usr/include/KF5/KWidgetsAddons/kruler.h
--- replaced obj /usr/include/KF5/KWidgetsAddons/kratingwidget.h
--- replaced obj /usr/include/KF5/KWidgetsAddons/kratingpainter.h
--- replaced obj /usr/include/KF5/KWidgetsAddons/kpopupframe.h
--- replaced obj /usr/include/KF5/KWidgetsAddons/kpixmapsequencewidget.h
--- replaced obj /usr/include/KF5/KWidgetsAddons/kpixmapsequenceoverlaypainter.h
--- replaced obj /usr/include/KF5/KWidgetsAddons/kpixmapsequence.h
--- replaced obj /usr/include/KF5/KWidgetsAddons/kpixmapregionselectorwidget.h
--- replaced obj /usr/include/KF5/KWidgetsAddons/kpixmapregionselectordialog.h
--- replaced obj /usr/include/KF5/KWidgetsAddons/kpasswordlineedit.h
--- replaced obj /usr/include/KF5/KWidgetsAddons/kpassworddialog.h
--- replaced obj /usr/include/KF5/KWidgetsAddons/kpagewidgetmodel.h
--- replaced obj /usr/include/KF5/KWidgetsAddons/kpagewidget.h
--- replaced obj /usr/include/KF5/KWidgetsAddons/kpageview.h
--- replaced obj /usr/include/KF5/KWidgetsAddons/kpagemodel.h
--- replaced obj /usr/include/KF5/KWidgetsAddons/kpagedialog.h
--- replaced obj /usr/include/KF5/KWidgetsAddons/knewpasswordwidget.h
--- replaced obj /usr/include/KF5/KWidgetsAddons/knewpassworddialog.h
--- replaced obj /usr/include/KF5/KWidgetsAddons/kmultitabbar.h
--- replaced obj /usr/include/KF5/KWidgetsAddons/kmimetypeeditor.h
--- replaced obj /usr/include/KF5/KWidgetsAddons/kmimetypechooser.h
--- replaced obj /usr/include/KF5/KWidgetsAddons/kmessagewidget.h
--- replaced obj /usr/include/KF5/KWidgetsAddons/kmessageboxnotifyinterface.h
--- replaced obj /usr/include/KF5/KWidgetsAddons/kmessageboxdontaskagaininterface.h
--- replaced obj /usr/include/KF5/KWidgetsAddons/kmessagebox.h
--- replaced obj /usr/include/KF5/KWidgetsAddons/kled.h
--- replaced obj /usr/include/KF5/KWidgetsAddons/kguiitem.h
--- replaced obj /usr/include/KF5/KWidgetsAddons/kfontsizeaction.h
--- replaced obj /usr/include/KF5/KWidgetsAddons/kfontrequester.h
--- replaced obj /usr/include/KF5/KWidgetsAddons/kfontchooserdialog.h
--- replaced obj /usr/include/KF5/KWidgetsAddons/kfontchooser.h
--- replaced obj /usr/include/KF5/KWidgetsAddons/kfontaction.h
--- replaced obj /usr/include/KF5/KWidgetsAddons/keditlistwidget.h
--- replaced obj /usr/include/KF5/KWidgetsAddons/kdualaction.h
--- replaced obj /usr/include/KF5/KWidgetsAddons/kdragwidgetdecorator.h
--- replaced obj /usr/include/KF5/KWidgetsAddons/kdatetimeedit.h
--- replaced obj /usr/include/KF5/KWidgetsAddons/kdatepicker.h
--- replaced obj /usr/include/KF5/KWidgetsAddons/kdatecombobox.h
--- replaced obj /usr/include/KF5/KWidgetsAddons/kcursor.h
--- replaced obj /usr/include/KF5/KWidgetsAddons/kcolumnresizer.h
--- replaced obj /usr/include/KF5/KWidgetsAddons/kcolorcombo.h
--- replaced obj /usr/include/KF5/KWidgetsAddons/kcolorbutton.h
--- replaced obj /usr/include/KF5/KWidgetsAddons/kcollapsiblegroupbox.h
--- replaced obj /usr/include/KF5/KWidgetsAddons/kcharselect.h
--- replaced obj /usr/include/KF5/KWidgetsAddons/kcapacitybar.h
--- replaced obj /usr/include/KF5/KWidgetsAddons/kbusyindicatorwidget.h
--- replaced obj /usr/include/KF5/KWidgetsAddons/kassistantdialog.h
--- replaced obj /usr/include/KF5/KWidgetsAddons/kanimatedbutton.h
--- replaced obj /usr/include/KF5/KWidgetsAddons/kactionselector.h
--- replaced obj /usr/include/KF5/KWidgetsAddons/kactionmenu.h
--- replaced obj /usr/include/KF5/KWidgetsAddons/kacceleratormanager.h
--- replaced obj /usr/include/KF5/KWidgetsAddons/LineEditUrlDropEventFilter
--- replaced obj /usr/include/KF5/KWidgetsAddons/KXYSelector
--- replaced obj /usr/include/KF5/KWidgetsAddons/KViewStateSerializer
--- replaced obj /usr/include/KF5/KWidgetsAddons/KViewStateMaintainerBase
--- replaced obj /usr/include/KF5/KWidgetsAddons/KUrlLabel
--- replaced obj /usr/include/KF5/KWidgetsAddons/KToolTipWidget
--- replaced obj /usr/include/KF5/KWidgetsAddons/KToolBarSpacerAction
--- replaced obj /usr/include/KF5/KWidgetsAddons/KToolBarPopupAction
--- replaced obj /usr/include/KF5/KWidgetsAddons/KToolBarLabelAction
--- replaced obj /usr/include/KF5/KWidgetsAddons/KToggleFullScreenAction
--- replaced obj /usr/include/KF5/KWidgetsAddons/KToggleAction
--- replaced obj /usr/include/KF5/KWidgetsAddons/KTitleWidget
--- replaced obj /usr/include/KF5/KWidgetsAddons/KTimeComboBox
--- replaced obj /usr/include/KF5/KWidgetsAddons/KStyleExtensions
--- replaced obj /usr/include/KF5/KWidgetsAddons/KStandardGuiItem
--- replaced obj /usr/include/KF5/KWidgetsAddons/KSqueezedTextLabel
--- replaced obj /usr/include/KF5/KWidgetsAddons/KSplitterCollapserButton
--- replaced obj /usr/include/KF5/KWidgetsAddons/KSeparator
--- replaced obj /usr/include/KF5/KWidgetsAddons/KSelector
--- replaced obj /usr/include/KF5/KWidgetsAddons/KSelectAction
--- replaced obj /usr/include/KF5/KWidgetsAddons/KRuler
--- replaced obj /usr/include/KF5/KWidgetsAddons/KRatingWidget
--- replaced obj /usr/include/KF5/KWidgetsAddons/KRatingPainter
--- replaced obj /usr/include/KF5/KWidgetsAddons/KPopupFrame
--- replaced obj /usr/include/KF5/KWidgetsAddons/KPixmapSequenceWidget
--- replaced obj /usr/include/KF5/KWidgetsAddons/KPixmapSequenceOverlayPainter
--- replaced obj /usr/include/KF5/KWidgetsAddons/KPixmapSequence
--- replaced obj /usr/include/KF5/KWidgetsAddons/KPixmapRegionSelectorWidget
--- replaced obj /usr/include/KF5/KWidgetsAddons/KPixmapRegionSelectorDialog
--- replaced obj /usr/include/KF5/KWidgetsAddons/KPasswordLineEdit
--- replaced obj /usr/include/KF5/KWidgetsAddons/KPasswordDialog
--- replaced obj /usr/include/KF5/KWidgetsAddons/KPageWidgetModel
--- replaced obj /usr/include/KF5/KWidgetsAddons/KPageWidgetItem
--- replaced obj /usr/include/KF5/KWidgetsAddons/KPageWidget
--- replaced obj /usr/include/KF5/KWidgetsAddons/KPageView
--- replaced obj /usr/include/KF5/KWidgetsAddons/KPageModel
--- replaced obj /usr/include/KF5/KWidgetsAddons/KPageDialog
--- replaced obj /usr/include/KF5/KWidgetsAddons/KNewPasswordWidget
--- replaced obj /usr/include/KF5/KWidgetsAddons/KNewPasswordDialog
--- replaced obj /usr/include/KF5/KWidgetsAddons/KMultiTabBarTab
--- replaced obj /usr/include/KF5/KWidgetsAddons/KMultiTabBarButton
--- replaced obj /usr/include/KF5/KWidgetsAddons/KMultiTabBar
--- replaced obj /usr/include/KF5/KWidgetsAddons/KMimeTypeEditor
--- replaced obj /usr/include/KF5/KWidgetsAddons/KMimeTypeChooserDialog
--- replaced obj /usr/include/KF5/KWidgetsAddons/KMimeTypeChooser
--- replaced obj /usr/include/KF5/KWidgetsAddons/KMessageWidget
--- replaced obj /usr/include/KF5/KWidgetsAddons/KMessageBoxNotifyInterface
--- replaced obj /usr/include/KF5/KWidgetsAddons/KMessageBoxDontAskAgainInterface
--- replaced obj /usr/include/KF5/KWidgetsAddons/KMessageBox
--- replaced obj /usr/include/KF5/KWidgetsAddons/KLed
--- replaced obj /usr/include/KF5/KWidgetsAddons/KGuiItem
--- replaced obj /usr/include/KF5/KWidgetsAddons/KGradientSelector
--- replaced obj /usr/include/KF5/KWidgetsAddons/KFontSizeAction
--- replaced obj /usr/include/KF5/KWidgetsAddons/KFontRequester
--- replaced obj /usr/include/KF5/KWidgetsAddons/KFontChooserDialog
--- replaced obj /usr/include/KF5/KWidgetsAddons/KFontChooser
--- replaced obj /usr/include/KF5/KWidgetsAddons/KFontAction
--- replaced obj /usr/include/KF5/KWidgetsAddons/KEditListWidget
--- replaced obj /usr/include/KF5/KWidgetsAddons/KDualAction
--- replaced obj /usr/include/KF5/KWidgetsAddons/KDragWidgetDecorator
--- replaced obj /usr/include/KF5/KWidgetsAddons/KDateTimeEdit
--- replaced obj /usr/include/KF5/KWidgetsAddons/KDatePicker
--- replaced obj /usr/include/KF5/KWidgetsAddons/KDateComboBox
--- replaced obj /usr/include/KF5/KWidgetsAddons/KCursor
--- replaced obj /usr/include/KF5/KWidgetsAddons/KColumnResizer
--- replaced obj /usr/include/KF5/KWidgetsAddons/KColorCombo
--- replaced obj /usr/include/KF5/KWidgetsAddons/KColorButton
--- replaced obj /usr/include/KF5/KWidgetsAddons/KCollapsibleGroupBox
--- replaced obj /usr/include/KF5/KWidgetsAddons/KCharSelect
--- replaced obj /usr/include/KF5/KWidgetsAddons/KCapacityBar
--- replaced obj /usr/include/KF5/KWidgetsAddons/KBusyIndicatorWidget
--- replaced obj /usr/include/KF5/KWidgetsAddons/KAssistantDialog
--- replaced obj /usr/include/KF5/KWidgetsAddons/KAnimatedButton
--- replaced obj /usr/include/KF5/KWidgetsAddons/KActionSelector
--- replaced obj /usr/include/KF5/KWidgetsAddons/KActionMenu
--- replaced obj /usr/include/KF5/KWidgetsAddons/KAcceleratorManager
--- replaced dir /usr/include/KF5/KWidgetsAddons
--- replaced dir /usr/include/KF5
--- replaced dir /usr/include
--- replaced dir /usr
>>> Regenerating /etc/ld.so.cache...
