 * Package:    kde-frameworks/kcompletion-5.70.0
 * Repository: gentoo
 * Maintainer: kde@gentoo.org
 * USE:        abi_x86_64 amd64 elibc_glibc kernel_linux test userland_GNU
 * FEATURES:   network-sandbox preserve-libs sandbox userpriv usersandbox
 * FEATURES='assume-digests binpkg-docompress binpkg-dostrip binpkg-logs binpkg-multi-instance buildpkg cgroup compress-index config-protect-if-modified distlocks downgrade-backup fixlafiles ipc-sandbox merge-sync multilib-strict network-sandbox news nodoc parallel-fetch parallel-install pid-sandbox preserve-libs qa-unresolved-soname-deps sandbox sfperms strict strict-keepdir unknown-features-warn unmerge-backup unmerge-logs unmerge-orphans userfetch userpriv usersandbox usersync xattr'
 * CFLAGS='-march=native -O3 -fgraphite-identity -floop-nest-optimize -fdevirtualize-at-ltrans -fipa-pta -fno-semantic-interposition -flto=12 -fno-plt -fno-math-errno -fno-trapping-math -fuse-linker-plugin -pipe -g0 -falign-functions=32 -fno-stack-protector -fno-stack-clash-protection -fstack-check=no -fno-stack-check -Wl,-O4 -Wl,--hash-style=gnu,--sort-common,--as-needed,-lgomp,-lpthread,-z,relro,-z,now'
 * CXXFLAGS='-march=native -O3 -fgraphite-identity -floop-nest-optimize -fdevirtualize-at-ltrans -fipa-pta -fno-semantic-interposition -flto=12 -fno-plt -fno-math-errno -fno-trapping-math -fuse-linker-plugin -pipe -g0 -falign-functions=32 -fno-stack-protector -fno-stack-clash-protection -fstack-check=no -fno-stack-check -Wl,-O4 -Wl,--hash-style=gnu,--sort-common,--as-needed,-lgomp,-lpthread,-z,relro,-z,now'
 * FFLAGS='-march=native -O3 -fgraphite-identity -floop-nest-optimize -fdevirtualize-at-ltrans -fipa-pta -fno-semantic-interposition -flto=12 -fno-plt -fno-math-errno -fno-trapping-math -fuse-linker-plugin -pipe -g0 -falign-functions=32 -fno-stack-protector -fno-stack-clash-protection -fstack-check=no -fno-stack-check -Wl,-O4 -Wl,--hash-style=gnu,--sort-common,--as-needed,-lgomp,-lpthread,-z,relro,-z,now'
 * FCFLAGS='-march=native -O3 -fgraphite-identity -floop-nest-optimize -fdevirtualize-at-ltrans -fipa-pta -fno-semantic-interposition -flto=12 -fno-plt -fno-math-errno -fno-trapping-math -fuse-linker-plugin -pipe -g0 -falign-functions=32 -fno-stack-protector -fno-stack-clash-protection -fstack-check=no -fno-stack-check -Wl,-O4 -Wl,--hash-style=gnu,--sort-common,--as-needed,-lgomp,-lpthread,-z,relro,-z,now'
 * F77FLAGS='-march=native -O3 -fgraphite-identity -floop-nest-optimize -fdevirtualize-at-ltrans -fipa-pta -fno-semantic-interposition -flto=12 -fno-plt -fno-math-errno -fno-trapping-math -fuse-linker-plugin -pipe -g0 -falign-functions=32 -fno-stack-protector -fno-stack-clash-protection -fstack-check=no -fno-stack-check -Wl,-O4 -Wl,--hash-style=gnu,--sort-common,--as-needed,-lgomp,-lpthread,-z,relro,-z,now'
 * LDFLAGS='-Wl,-O4 -Wl,--hash-style=gnu,--sort-common,--as-needed,-lgomp,-lpthread,-z,relro,-z,now -march=native -O3 -fgraphite-identity -floop-nest-optimize -fdevirtualize-at-ltrans -fipa-pta -fno-semantic-interposition -flto=12 -fno-plt -fno-math-errno -fno-trapping-math -fuse-linker-plugin -pipe -g0 -falign-functions=32 -fno-stack-protector -fno-stack-clash-protection -fstack-check=no -fno-stack-check'
 * MAKEOPTS='-j12 -l12'
 * gcc () 11.0.0 20200526 (experimental)
 * g++ () 11.0.0 20200526 (experimental)
 * GNU ld (Gentoo 2.34 p4) 2.34.0
 * Linux ryzen.gnum.org 5.4.36 #1 SMP Thu Apr 30 04:38:28 UTC 2020 x86_64 AMD Ryzen 5 3600 6-Core Processor AuthenticAMD GNU/Linux
kde-frameworks/kcompletion: 19 seconds average for 1 merge
2020-05-20T06:08:34 >>> kde-frameworks/kcompletion: 19 seconds
]0;emerge 04:45:46 48|320 kcompletion 00:19 (root@ryzen.gnum.org)kemerge 04:45:46 48|320 kcompletion 00:19 (root@ryzen.gnum.org)\>>> Unpacking source...
>>> Unpacking kcompletion-5.70.0.tar.xz to /tmp/portage/kde-frameworks/kcompletion-5.70.0/work
>>> Source unpacked in /tmp/portage/kde-frameworks/kcompletion-5.70.0/work
>>> Preparing source in /tmp/portage/kde-frameworks/kcompletion-5.70.0/work/kcompletion-5.70.0 ...
 * Working in BUILD_DIR: "/tmp/portage/kde-frameworks/kcompletion-5.70.0/work/kcompletion-5.70.0_build"
>>> Source prepared.
>>> Configuring source in /tmp/portage/kde-frameworks/kcompletion-5.70.0/work/kcompletion-5.70.0 ...
 * Working in BUILD_DIR: "/tmp/portage/kde-frameworks/kcompletion-5.70.0/work/kcompletion-5.70.0_build"
cmake -C /tmp/portage/kde-frameworks/kcompletion-5.70.0/work/kcompletion-5.70.0_build/gentoo_common_config.cmake -G Ninja -DCMAKE_INSTALL_PREFIX=/usr -DBUILD_DESIGNERPLUGIN=no -DBUILD_QCH=no -DKDE_INSTALL_USE_QT_SYS_PATHS=ON -DKDE_INSTALL_DOCBUNDLEDIR=/usr/share/help -DCMAKE_BUILD_TYPE=Gentoo -DCMAKE_TOOLCHAIN_FILE=/tmp/portage/kde-frameworks/kcompletion-5.70.0/work/kcompletion-5.70.0_build/gentoo_toolchain.cmake  /tmp/portage/kde-frameworks/kcompletion-5.70.0/work/kcompletion-5.70.0
loading initial cache file /tmp/portage/kde-frameworks/kcompletion-5.70.0/work/kcompletion-5.70.0_build/gentoo_common_config.cmake
-- The C compiler identification is GNU 11.0.0
-- The CXX compiler identification is GNU 11.0.0
-- Check for working C compiler: /usr/bin/x86_64-pc-linux-gnu-gcc
-- Check for working C compiler: /usr/bin/x86_64-pc-linux-gnu-gcc - works
-- Detecting C compiler ABI info
-- Detecting C compiler ABI info - done
-- Detecting C compile features
-- Detecting C compile features - done
-- Check for working CXX compiler: /usr/bin/x86_64-pc-linux-gnu-g++
-- Check for working CXX compiler: /usr/bin/x86_64-pc-linux-gnu-g++ - works
-- Detecting CXX compiler ABI info
-- Detecting CXX compiler ABI info - done
-- Detecting CXX compile features
-- Detecting CXX compile features - done
-- 

-- Could not set up the appstream test. appstreamcli is missing.
-- Looking for __GLIBC__
-- Looking for __GLIBC__ - found
-- Performing Test _OFFT_IS_64BIT
-- Performing Test _OFFT_IS_64BIT - Success
-- Performing Test HAVE_DATE_TIME
-- Performing Test HAVE_DATE_TIME - Success
-- Performing Test COMPILER_HAS_HIDDEN_VISIBILITY
-- Performing Test COMPILER_HAS_HIDDEN_VISIBILITY - Success
-- Performing Test COMPILER_HAS_HIDDEN_INLINE_VISIBILITY
-- Performing Test COMPILER_HAS_HIDDEN_INLINE_VISIBILITY - Success
-- Performing Test COMPILER_HAS_DEPRECATED_ATTR
-- Performing Test COMPILER_HAS_DEPRECATED_ATTR - Success
-- At least one python version must be available to use PythonModuleGeneration.
-- The following REQUIRED packages have been found:

 * ECM (required version >= 5.70.0), Extra CMake Modules., <https://commits.kde.org/extra-cmake-modules>
 * Qt5Gui (required version >= 5.15.0)
 * Qt5 (required version >= 5.12.0)
 * KF5Config (required version >= 5.70.0)
 * Qt5Widgets (required version >= 5.12.0)
 * KF5WidgetsAddons (required version >= 5.70.0)

-- The following features have been disabled:

 * QCH, API documentation in QCH format (for e.g. Qt Assistant, Qt Creator & KDevelop)
 * DESIGNERPLUGIN, Build plugin for Qt Designer

-- The following OPTIONAL packages have not been found:

 * PythonModuleGeneration

-- <<< Gentoo configuration >>>
Build type      Gentoo
Install path    /usr
Compiler flags:
C               -march=native -O3 -fgraphite-identity -floop-nest-optimize -fdevirtualize-at-ltrans -fipa-pta -fno-semantic-interposition -flto=12 -fno-plt -fno-math-errno -fno-trapping-math -fuse-linker-plugin -pipe -g0 -falign-functions=32 -fno-stack-protector -fno-stack-clash-protection -fstack-check=no -fno-stack-check -Wl,-O4 -Wl,--hash-style=gnu,--sort-common,--as-needed,-lgomp,-lpthread,-z,relro,-z,now -fno-common -Wall -Wextra -Wcast-align -Wchar-subscripts -Wformat-security -Wno-long-long -Wpointer-arith -Wundef -Wmissing-format-attribute -Wwrite-strings -Werror=implicit-function-declaration
C++             -march=native -O3 -fgraphite-identity -floop-nest-optimize -fdevirtualize-at-ltrans -fipa-pta -fno-semantic-interposition -flto=12 -fno-plt -fno-math-errno -fno-trapping-math -fuse-linker-plugin -pipe -g0 -falign-functions=32 -fno-stack-protector -fno-stack-clash-protection -fstack-check=no -fno-stack-check -Wl,-O4 -Wl,--hash-style=gnu,--sort-common,--as-needed,-lgomp,-lpthread,-z,relro,-z,now -fno-operator-names -fno-exceptions -Wall -Wextra -Wcast-align -Wchar-subscripts -Wformat-security -Wno-long-long -Wpointer-arith -Wundef -Wnon-virtual-dtor -Woverloaded-virtual -Werror=return-type -Wvla -Wdate-time -Wsuggest-override -Wlogical-op -fdiagnostics-color=always -pedantic -Wzero-as-null-pointer-constant
Linker flags:
Executable      -Wl,--enable-new-dtags -Wl,-O4 -Wl,--hash-style=gnu,--sort-common,--as-needed,-lgomp,-lpthread,-z,relro,-z,now -march=native -O3 -fgraphite-identity -floop-nest-optimize -fdevirtualize-at-ltrans -fipa-pta -fno-semantic-interposition -flto=12 -fno-plt -fno-math-errno -fno-trapping-math -fuse-linker-plugin -pipe -g0 -falign-functions=32 -fno-stack-protector -fno-stack-clash-protection -fstack-check=no -fno-stack-check
Module          -Wl,--no-undefined -Wl,--enable-new-dtags -Wl,-O4 -Wl,--hash-style=gnu,--sort-common,--as-needed,-lgomp,-lpthread,-z,relro,-z,now -march=native -O3 -fgraphite-identity -floop-nest-optimize -fdevirtualize-at-ltrans -fipa-pta -fno-semantic-interposition -flto=12 -fno-plt -fno-math-errno -fno-trapping-math -fuse-linker-plugin -pipe -g0 -falign-functions=32 -fno-stack-protector -fno-stack-clash-protection -fstack-check=no -fno-stack-check
Shared          -Wl,--no-undefined -Wl,--enable-new-dtags -Wl,-O4 -Wl,--hash-style=gnu,--sort-common,--as-needed,-lgomp,-lpthread,-z,relro,-z,now -march=native -O3 -fgraphite-identity -floop-nest-optimize -fdevirtualize-at-ltrans -fipa-pta -fno-semantic-interposition -flto=12 -fno-plt -fno-math-errno -fno-trapping-math -fuse-linker-plugin -pipe -g0 -falign-functions=32 -fno-stack-protector -fno-stack-clash-protection -fstack-check=no -fno-stack-check

-- Configuring done
-- Generating done
-- Build files have been written to: /tmp/portage/kde-frameworks/kcompletion-5.70.0/work/kcompletion-5.70.0_build
>>> Source configured.
>>> Compiling source in /tmp/portage/kde-frameworks/kcompletion-5.70.0/work/kcompletion-5.70.0 ...
 * Working in BUILD_DIR: "/tmp/portage/kde-frameworks/kcompletion-5.70.0/work/kcompletion-5.70.0_build"
ninja -v -j12 -l12
[1/30] cd /tmp/portage/kde-frameworks/kcompletion-5.70.0/work/kcompletion-5.70.0_build/src && /usr/bin/cmake -E cmake_autogen /tmp/portage/kde-frameworks/kcompletion-5.70.0/work/kcompletion-5.70.0_build/src/CMakeFiles/KF5Completion_autogen.dir/AutogenInfo.json Gentoo && /usr/bin/cmake -E touch /tmp/portage/kde-frameworks/kcompletion-5.70.0/work/kcompletion-5.70.0_build/src/KF5Completion_autogen/timestamp
[2/30] /usr/bin/x86_64-pc-linux-gnu-g++ -DKCOMPLETION_DEPRECATED_WARNINGS_SINCE=0x0 -DKCOMPLETION_DISABLE_DEPRECATED_BEFORE_AND_AT=0x0 -DKF5Completion_EXPORTS -DKF_DEPRECATED_WARNINGS_SINCE=0x060000 -DKF_DISABLE_DEPRECATED_BEFORE_AND_AT=0x054400 -DQT_CORE_LIB -DQT_DEPRECATED_WARNINGS_SINCE=0x060000 -DQT_DISABLE_DEPRECATED_BEFORE=0x050d00 -DQT_GUI_LIB -DQT_NO_CAST_FROM_ASCII -DQT_NO_CAST_FROM_BYTEARRAY -DQT_NO_CAST_TO_ASCII -DQT_NO_DEBUG -DQT_NO_FOREACH -DQT_NO_NARROWING_CONVERSIONS_IN_CONNECT -DQT_NO_SIGNALS_SLOTS_KEYWORDS -DQT_NO_URL_CAST_FROM_STRING -DQT_STRICT_ITERATORS -DQT_USE_QSTRINGBUILDER -DQT_WIDGETS_LIB -DQT_XML_LIB -D_GNU_SOURCE -D_LARGEFILE64_SOURCE -Isrc -I/tmp/portage/kde-frameworks/kcompletion-5.70.0/work/kcompletion-5.70.0/src -Isrc/KF5Completion_autogen/include -isystem /usr/include/qt5 -isystem /usr/include/qt5/QtWidgets -isystem /usr/include/qt5/QtGui -isystem /usr/include/qt5/QtCore -isystem /usr/lib64/qt5/mkspecs/linux-g++ -isystem /usr/include/KF5/KConfigCore -isystem /usr/include/KF5 -isystem /usr/include/KF5/KConfigGui -isystem /usr/include/qt5/QtXml -isystem /usr/include/KF5/KWidgetsAddons  -DQT_NO_DEBUG -march=native -O3 -fgraphite-identity -floop-nest-optimize -fdevirtualize-at-ltrans -fipa-pta -fno-semantic-interposition -flto=12 -fno-plt -fno-math-errno -fno-trapping-math -fuse-linker-plugin -pipe -g0 -falign-functions=32 -fno-stack-protector -fno-stack-clash-protection -fstack-check=no -fno-stack-check -Wl,-O4 -Wl,--hash-style=gnu,--sort-common,--as-needed,-lgomp,-lpthread,-z,relro,-z,now -fno-operator-names -fno-exceptions -Wall -Wextra -Wcast-align -Wchar-subscripts -Wformat-security -Wno-long-long -Wpointer-arith -Wundef -Wnon-virtual-dtor -Woverloaded-virtual -Werror=return-type -Wvla -Wdate-time -Wsuggest-override -Wlogical-op -fdiagnostics-color=always -pedantic -Wzero-as-null-pointer-constant -fPIC -fvisibility=hidden -fvisibility-inlines-hidden   -fPIC -std=gnu++11 -MD -MT src/CMakeFiles/KF5Completion.dir/KF5Completion_autogen/mocs_compilation.cpp.o -MF src/CMakeFiles/KF5Completion.dir/KF5Completion_autogen/mocs_compilation.cpp.o.d -o src/CMakeFiles/KF5Completion.dir/KF5Completion_autogen/mocs_compilation.cpp.o -c src/KF5Completion_autogen/mocs_compilation.cpp
[3/30] /usr/bin/x86_64-pc-linux-gnu-g++ -DKCOMPLETION_DEPRECATED_WARNINGS_SINCE=0x0 -DKCOMPLETION_DISABLE_DEPRECATED_BEFORE_AND_AT=0x0 -DKF5Completion_EXPORTS -DKF_DEPRECATED_WARNINGS_SINCE=0x060000 -DKF_DISABLE_DEPRECATED_BEFORE_AND_AT=0x054400 -DQT_CORE_LIB -DQT_DEPRECATED_WARNINGS_SINCE=0x060000 -DQT_DISABLE_DEPRECATED_BEFORE=0x050d00 -DQT_GUI_LIB -DQT_NO_CAST_FROM_ASCII -DQT_NO_CAST_FROM_BYTEARRAY -DQT_NO_CAST_TO_ASCII -DQT_NO_DEBUG -DQT_NO_FOREACH -DQT_NO_NARROWING_CONVERSIONS_IN_CONNECT -DQT_NO_SIGNALS_SLOTS_KEYWORDS -DQT_NO_URL_CAST_FROM_STRING -DQT_STRICT_ITERATORS -DQT_USE_QSTRINGBUILDER -DQT_WIDGETS_LIB -DQT_XML_LIB -D_GNU_SOURCE -D_LARGEFILE64_SOURCE -Isrc -I/tmp/portage/kde-frameworks/kcompletion-5.70.0/work/kcompletion-5.70.0/src -Isrc/KF5Completion_autogen/include -isystem /usr/include/qt5 -isystem /usr/include/qt5/QtWidgets -isystem /usr/include/qt5/QtGui -isystem /usr/include/qt5/QtCore -isystem /usr/lib64/qt5/mkspecs/linux-g++ -isystem /usr/include/KF5/KConfigCore -isystem /usr/include/KF5 -isystem /usr/include/KF5/KConfigGui -isystem /usr/include/qt5/QtXml -isystem /usr/include/KF5/KWidgetsAddons  -DQT_NO_DEBUG -march=native -O3 -fgraphite-identity -floop-nest-optimize -fdevirtualize-at-ltrans -fipa-pta -fno-semantic-interposition -flto=12 -fno-plt -fno-math-errno -fno-trapping-math -fuse-linker-plugin -pipe -g0 -falign-functions=32 -fno-stack-protector -fno-stack-clash-protection -fstack-check=no -fno-stack-check -Wl,-O4 -Wl,--hash-style=gnu,--sort-common,--as-needed,-lgomp,-lpthread,-z,relro,-z,now -fno-operator-names -fno-exceptions -Wall -Wextra -Wcast-align -Wchar-subscripts -Wformat-security -Wno-long-long -Wpointer-arith -Wundef -Wnon-virtual-dtor -Woverloaded-virtual -Werror=return-type -Wvla -Wdate-time -Wsuggest-override -Wlogical-op -fdiagnostics-color=always -pedantic -Wzero-as-null-pointer-constant -fPIC -fvisibility=hidden -fvisibility-inlines-hidden   -fPIC -std=gnu++11 -MD -MT src/CMakeFiles/KF5Completion.dir/kzoneallocator.cpp.o -MF src/CMakeFiles/KF5Completion.dir/kzoneallocator.cpp.o.d -o src/CMakeFiles/KF5Completion.dir/kzoneallocator.cpp.o -c /tmp/portage/kde-frameworks/kcompletion-5.70.0/work/kcompletion-5.70.0/src/kzoneallocator.cpp
[4/30] /usr/bin/x86_64-pc-linux-gnu-g++ -DKCOMPLETION_DEPRECATED_WARNINGS_SINCE=0x0 -DKCOMPLETION_DISABLE_DEPRECATED_BEFORE_AND_AT=0x0 -DKF5Completion_EXPORTS -DKF_DEPRECATED_WARNINGS_SINCE=0x060000 -DKF_DISABLE_DEPRECATED_BEFORE_AND_AT=0x054400 -DQT_CORE_LIB -DQT_DEPRECATED_WARNINGS_SINCE=0x060000 -DQT_DISABLE_DEPRECATED_BEFORE=0x050d00 -DQT_GUI_LIB -DQT_NO_CAST_FROM_ASCII -DQT_NO_CAST_FROM_BYTEARRAY -DQT_NO_CAST_TO_ASCII -DQT_NO_DEBUG -DQT_NO_FOREACH -DQT_NO_NARROWING_CONVERSIONS_IN_CONNECT -DQT_NO_SIGNALS_SLOTS_KEYWORDS -DQT_NO_URL_CAST_FROM_STRING -DQT_STRICT_ITERATORS -DQT_USE_QSTRINGBUILDER -DQT_WIDGETS_LIB -DQT_XML_LIB -D_GNU_SOURCE -D_LARGEFILE64_SOURCE -Isrc -I/tmp/portage/kde-frameworks/kcompletion-5.70.0/work/kcompletion-5.70.0/src -Isrc/KF5Completion_autogen/include -isystem /usr/include/qt5 -isystem /usr/include/qt5/QtWidgets -isystem /usr/include/qt5/QtGui -isystem /usr/include/qt5/QtCore -isystem /usr/lib64/qt5/mkspecs/linux-g++ -isystem /usr/include/KF5/KConfigCore -isystem /usr/include/KF5 -isystem /usr/include/KF5/KConfigGui -isystem /usr/include/qt5/QtXml -isystem /usr/include/KF5/KWidgetsAddons  -DQT_NO_DEBUG -march=native -O3 -fgraphite-identity -floop-nest-optimize -fdevirtualize-at-ltrans -fipa-pta -fno-semantic-interposition -flto=12 -fno-plt -fno-math-errno -fno-trapping-math -fuse-linker-plugin -pipe -g0 -falign-functions=32 -fno-stack-protector -fno-stack-clash-protection -fstack-check=no -fno-stack-check -Wl,-O4 -Wl,--hash-style=gnu,--sort-common,--as-needed,-lgomp,-lpthread,-z,relro,-z,now -fno-operator-names -fno-exceptions -Wall -Wextra -Wcast-align -Wchar-subscripts -Wformat-security -Wno-long-long -Wpointer-arith -Wundef -Wnon-virtual-dtor -Woverloaded-virtual -Werror=return-type -Wvla -Wdate-time -Wsuggest-override -Wlogical-op -fdiagnostics-color=always -pedantic -Wzero-as-null-pointer-constant -fPIC -fvisibility=hidden -fvisibility-inlines-hidden   -fPIC -std=gnu++11 -MD -MT src/CMakeFiles/KF5Completion.dir/kcompletionmatches.cpp.o -MF src/CMakeFiles/KF5Completion.dir/kcompletionmatches.cpp.o.d -o src/CMakeFiles/KF5Completion.dir/kcompletionmatches.cpp.o -c /tmp/portage/kde-frameworks/kcompletion-5.70.0/work/kcompletion-5.70.0/src/kcompletionmatches.cpp
[5/30] /usr/bin/x86_64-pc-linux-gnu-g++ -DKCOMPLETION_DEPRECATED_WARNINGS_SINCE=0x0 -DKCOMPLETION_DISABLE_DEPRECATED_BEFORE_AND_AT=0x0 -DKF5Completion_EXPORTS -DKF_DEPRECATED_WARNINGS_SINCE=0x060000 -DKF_DISABLE_DEPRECATED_BEFORE_AND_AT=0x054400 -DQT_CORE_LIB -DQT_DEPRECATED_WARNINGS_SINCE=0x060000 -DQT_DISABLE_DEPRECATED_BEFORE=0x050d00 -DQT_GUI_LIB -DQT_NO_CAST_FROM_ASCII -DQT_NO_CAST_FROM_BYTEARRAY -DQT_NO_CAST_TO_ASCII -DQT_NO_DEBUG -DQT_NO_FOREACH -DQT_NO_NARROWING_CONVERSIONS_IN_CONNECT -DQT_NO_SIGNALS_SLOTS_KEYWORDS -DQT_NO_URL_CAST_FROM_STRING -DQT_STRICT_ITERATORS -DQT_USE_QSTRINGBUILDER -DQT_WIDGETS_LIB -DQT_XML_LIB -D_GNU_SOURCE -D_LARGEFILE64_SOURCE -Isrc -I/tmp/portage/kde-frameworks/kcompletion-5.70.0/work/kcompletion-5.70.0/src -Isrc/KF5Completion_autogen/include -isystem /usr/include/qt5 -isystem /usr/include/qt5/QtWidgets -isystem /usr/include/qt5/QtGui -isystem /usr/include/qt5/QtCore -isystem /usr/lib64/qt5/mkspecs/linux-g++ -isystem /usr/include/KF5/KConfigCore -isystem /usr/include/KF5 -isystem /usr/include/KF5/KConfigGui -isystem /usr/include/qt5/QtXml -isystem /usr/include/KF5/KWidgetsAddons  -DQT_NO_DEBUG -march=native -O3 -fgraphite-identity -floop-nest-optimize -fdevirtualize-at-ltrans -fipa-pta -fno-semantic-interposition -flto=12 -fno-plt -fno-math-errno -fno-trapping-math -fuse-linker-plugin -pipe -g0 -falign-functions=32 -fno-stack-protector -fno-stack-clash-protection -fstack-check=no -fno-stack-check -Wl,-O4 -Wl,--hash-style=gnu,--sort-common,--as-needed,-lgomp,-lpthread,-z,relro,-z,now -fno-operator-names -fno-exceptions -Wall -Wextra -Wcast-align -Wchar-subscripts -Wformat-security -Wno-long-long -Wpointer-arith -Wundef -Wnon-virtual-dtor -Woverloaded-virtual -Werror=return-type -Wvla -Wdate-time -Wsuggest-override -Wlogical-op -fdiagnostics-color=always -pedantic -Wzero-as-null-pointer-constant -fPIC -fvisibility=hidden -fvisibility-inlines-hidden   -fPIC -std=gnu++11 -MD -MT src/CMakeFiles/KF5Completion.dir/kcompletionbase.cpp.o -MF src/CMakeFiles/KF5Completion.dir/kcompletionbase.cpp.o.d -o src/CMakeFiles/KF5Completion.dir/kcompletionbase.cpp.o -c /tmp/portage/kde-frameworks/kcompletion-5.70.0/work/kcompletion-5.70.0/src/kcompletionbase.cpp
[6/30] /usr/bin/x86_64-pc-linux-gnu-g++ -DKCOMPLETION_DEPRECATED_WARNINGS_SINCE=0x0 -DKCOMPLETION_DISABLE_DEPRECATED_BEFORE_AND_AT=0x0 -DKF5Completion_EXPORTS -DKF_DEPRECATED_WARNINGS_SINCE=0x060000 -DKF_DISABLE_DEPRECATED_BEFORE_AND_AT=0x054400 -DQT_CORE_LIB -DQT_DEPRECATED_WARNINGS_SINCE=0x060000 -DQT_DISABLE_DEPRECATED_BEFORE=0x050d00 -DQT_GUI_LIB -DQT_NO_CAST_FROM_ASCII -DQT_NO_CAST_FROM_BYTEARRAY -DQT_NO_CAST_TO_ASCII -DQT_NO_DEBUG -DQT_NO_FOREACH -DQT_NO_NARROWING_CONVERSIONS_IN_CONNECT -DQT_NO_SIGNALS_SLOTS_KEYWORDS -DQT_NO_URL_CAST_FROM_STRING -DQT_STRICT_ITERATORS -DQT_USE_QSTRINGBUILDER -DQT_WIDGETS_LIB -DQT_XML_LIB -D_GNU_SOURCE -D_LARGEFILE64_SOURCE -Isrc -I/tmp/portage/kde-frameworks/kcompletion-5.70.0/work/kcompletion-5.70.0/src -Isrc/KF5Completion_autogen/include -isystem /usr/include/qt5 -isystem /usr/include/qt5/QtWidgets -isystem /usr/include/qt5/QtGui -isystem /usr/include/qt5/QtCore -isystem /usr/lib64/qt5/mkspecs/linux-g++ -isystem /usr/include/KF5/KConfigCore -isystem /usr/include/KF5 -isystem /usr/include/KF5/KConfigGui -isystem /usr/include/qt5/QtXml -isystem /usr/include/KF5/KWidgetsAddons  -DQT_NO_DEBUG -march=native -O3 -fgraphite-identity -floop-nest-optimize -fdevirtualize-at-ltrans -fipa-pta -fno-semantic-interposition -flto=12 -fno-plt -fno-math-errno -fno-trapping-math -fuse-linker-plugin -pipe -g0 -falign-functions=32 -fno-stack-protector -fno-stack-clash-protection -fstack-check=no -fno-stack-check -Wl,-O4 -Wl,--hash-style=gnu,--sort-common,--as-needed,-lgomp,-lpthread,-z,relro,-z,now -fno-operator-names -fno-exceptions -Wall -Wextra -Wcast-align -Wchar-subscripts -Wformat-security -Wno-long-long -Wpointer-arith -Wundef -Wnon-virtual-dtor -Woverloaded-virtual -Werror=return-type -Wvla -Wdate-time -Wsuggest-override -Wlogical-op -fdiagnostics-color=always -pedantic -Wzero-as-null-pointer-constant -fPIC -fvisibility=hidden -fvisibility-inlines-hidden   -fPIC -std=gnu++11 -MD -MT src/CMakeFiles/KF5Completion.dir/ECMQmLoader-kcompletion5_qt.cpp.o -MF src/CMakeFiles/KF5Completion.dir/ECMQmLoader-kcompletion5_qt.cpp.o.d -o src/CMakeFiles/KF5Completion.dir/ECMQmLoader-kcompletion5_qt.cpp.o -c src/ECMQmLoader-kcompletion5_qt.cpp
[7/30] /usr/bin/x86_64-pc-linux-gnu-g++ -DKCOMPLETION_DEPRECATED_WARNINGS_SINCE=0x0 -DKCOMPLETION_DISABLE_DEPRECATED_BEFORE_AND_AT=0x0 -DKF5Completion_EXPORTS -DKF_DEPRECATED_WARNINGS_SINCE=0x060000 -DKF_DISABLE_DEPRECATED_BEFORE_AND_AT=0x054400 -DQT_CORE_LIB -DQT_DEPRECATED_WARNINGS_SINCE=0x060000 -DQT_DISABLE_DEPRECATED_BEFORE=0x050d00 -DQT_GUI_LIB -DQT_NO_CAST_FROM_ASCII -DQT_NO_CAST_FROM_BYTEARRAY -DQT_NO_CAST_TO_ASCII -DQT_NO_DEBUG -DQT_NO_FOREACH -DQT_NO_NARROWING_CONVERSIONS_IN_CONNECT -DQT_NO_SIGNALS_SLOTS_KEYWORDS -DQT_NO_URL_CAST_FROM_STRING -DQT_STRICT_ITERATORS -DQT_USE_QSTRINGBUILDER -DQT_WIDGETS_LIB -DQT_XML_LIB -D_GNU_SOURCE -D_LARGEFILE64_SOURCE -Isrc -I/tmp/portage/kde-frameworks/kcompletion-5.70.0/work/kcompletion-5.70.0/src -Isrc/KF5Completion_autogen/include -isystem /usr/include/qt5 -isystem /usr/include/qt5/QtWidgets -isystem /usr/include/qt5/QtGui -isystem /usr/include/qt5/QtCore -isystem /usr/lib64/qt5/mkspecs/linux-g++ -isystem /usr/include/KF5/KConfigCore -isystem /usr/include/KF5 -isystem /usr/include/KF5/KConfigGui -isystem /usr/include/qt5/QtXml -isystem /usr/include/KF5/KWidgetsAddons  -DQT_NO_DEBUG -march=native -O3 -fgraphite-identity -floop-nest-optimize -fdevirtualize-at-ltrans -fipa-pta -fno-semantic-interposition -flto=12 -fno-plt -fno-math-errno -fno-trapping-math -fuse-linker-plugin -pipe -g0 -falign-functions=32 -fno-stack-protector -fno-stack-clash-protection -fstack-check=no -fno-stack-check -Wl,-O4 -Wl,--hash-style=gnu,--sort-common,--as-needed,-lgomp,-lpthread,-z,relro,-z,now -fno-operator-names -fno-exceptions -Wall -Wextra -Wcast-align -Wchar-subscripts -Wformat-security -Wno-long-long -Wpointer-arith -Wundef -Wnon-virtual-dtor -Woverloaded-virtual -Werror=return-type -Wvla -Wdate-time -Wsuggest-override -Wlogical-op -fdiagnostics-color=always -pedantic -Wzero-as-null-pointer-constant -fPIC -fvisibility=hidden -fvisibility-inlines-hidden   -fPIC -std=gnu++11 -MD -MT src/CMakeFiles/KF5Completion.dir/kpixmapprovider.cpp.o -MF src/CMakeFiles/KF5Completion.dir/kpixmapprovider.cpp.o.d -o src/CMakeFiles/KF5Completion.dir/kpixmapprovider.cpp.o -c /tmp/portage/kde-frameworks/kcompletion-5.70.0/work/kcompletion-5.70.0/src/kpixmapprovider.cpp
[8/30] /usr/bin/x86_64-pc-linux-gnu-g++ -DKCOMPLETION_DEPRECATED_WARNINGS_SINCE=0x0 -DKCOMPLETION_DISABLE_DEPRECATED_BEFORE_AND_AT=0x0 -DKF5Completion_EXPORTS -DKF_DEPRECATED_WARNINGS_SINCE=0x060000 -DKF_DISABLE_DEPRECATED_BEFORE_AND_AT=0x054400 -DQT_CORE_LIB -DQT_DEPRECATED_WARNINGS_SINCE=0x060000 -DQT_DISABLE_DEPRECATED_BEFORE=0x050d00 -DQT_GUI_LIB -DQT_NO_CAST_FROM_ASCII -DQT_NO_CAST_FROM_BYTEARRAY -DQT_NO_CAST_TO_ASCII -DQT_NO_DEBUG -DQT_NO_FOREACH -DQT_NO_NARROWING_CONVERSIONS_IN_CONNECT -DQT_NO_SIGNALS_SLOTS_KEYWORDS -DQT_NO_URL_CAST_FROM_STRING -DQT_STRICT_ITERATORS -DQT_USE_QSTRINGBUILDER -DQT_WIDGETS_LIB -DQT_XML_LIB -D_GNU_SOURCE -D_LARGEFILE64_SOURCE -Isrc -I/tmp/portage/kde-frameworks/kcompletion-5.70.0/work/kcompletion-5.70.0/src -Isrc/KF5Completion_autogen/include -isystem /usr/include/qt5 -isystem /usr/include/qt5/QtWidgets -isystem /usr/include/qt5/QtGui -isystem /usr/include/qt5/QtCore -isystem /usr/lib64/qt5/mkspecs/linux-g++ -isystem /usr/include/KF5/KConfigCore -isystem /usr/include/KF5 -isystem /usr/include/KF5/KConfigGui -isystem /usr/include/qt5/QtXml -isystem /usr/include/KF5/KWidgetsAddons  -DQT_NO_DEBUG -march=native -O3 -fgraphite-identity -floop-nest-optimize -fdevirtualize-at-ltrans -fipa-pta -fno-semantic-interposition -flto=12 -fno-plt -fno-math-errno -fno-trapping-math -fuse-linker-plugin -pipe -g0 -falign-functions=32 -fno-stack-protector -fno-stack-clash-protection -fstack-check=no -fno-stack-check -Wl,-O4 -Wl,--hash-style=gnu,--sort-common,--as-needed,-lgomp,-lpthread,-z,relro,-z,now -fno-operator-names -fno-exceptions -Wall -Wextra -Wcast-align -Wchar-subscripts -Wformat-security -Wno-long-long -Wpointer-arith -Wundef -Wnon-virtual-dtor -Woverloaded-virtual -Werror=return-type -Wvla -Wdate-time -Wsuggest-override -Wlogical-op -fdiagnostics-color=always -pedantic -Wzero-as-null-pointer-constant -fPIC -fvisibility=hidden -fvisibility-inlines-hidden   -fPIC -std=gnu++11 -MD -MT src/CMakeFiles/KF5Completion.dir/kcompletion.cpp.o -MF src/CMakeFiles/KF5Completion.dir/kcompletion.cpp.o.d -o src/CMakeFiles/KF5Completion.dir/kcompletion.cpp.o -c /tmp/portage/kde-frameworks/kcompletion-5.70.0/work/kcompletion-5.70.0/src/kcompletion.cpp
[9/30] /usr/bin/x86_64-pc-linux-gnu-g++ -DKCOMPLETION_DEPRECATED_WARNINGS_SINCE=0x0 -DKCOMPLETION_DISABLE_DEPRECATED_BEFORE_AND_AT=0x0 -DKF5Completion_EXPORTS -DKF_DEPRECATED_WARNINGS_SINCE=0x060000 -DKF_DISABLE_DEPRECATED_BEFORE_AND_AT=0x054400 -DQT_CORE_LIB -DQT_DEPRECATED_WARNINGS_SINCE=0x060000 -DQT_DISABLE_DEPRECATED_BEFORE=0x050d00 -DQT_GUI_LIB -DQT_NO_CAST_FROM_ASCII -DQT_NO_CAST_FROM_BYTEARRAY -DQT_NO_CAST_TO_ASCII -DQT_NO_DEBUG -DQT_NO_FOREACH -DQT_NO_NARROWING_CONVERSIONS_IN_CONNECT -DQT_NO_SIGNALS_SLOTS_KEYWORDS -DQT_NO_URL_CAST_FROM_STRING -DQT_STRICT_ITERATORS -DQT_USE_QSTRINGBUILDER -DQT_WIDGETS_LIB -DQT_XML_LIB -D_GNU_SOURCE -D_LARGEFILE64_SOURCE -Isrc -I/tmp/portage/kde-frameworks/kcompletion-5.70.0/work/kcompletion-5.70.0/src -Isrc/KF5Completion_autogen/include -isystem /usr/include/qt5 -isystem /usr/include/qt5/QtWidgets -isystem /usr/include/qt5/QtGui -isystem /usr/include/qt5/QtCore -isystem /usr/lib64/qt5/mkspecs/linux-g++ -isystem /usr/include/KF5/KConfigCore -isystem /usr/include/KF5 -isystem /usr/include/KF5/KConfigGui -isystem /usr/include/qt5/QtXml -isystem /usr/include/KF5/KWidgetsAddons  -DQT_NO_DEBUG -march=native -O3 -fgraphite-identity -floop-nest-optimize -fdevirtualize-at-ltrans -fipa-pta -fno-semantic-interposition -flto=12 -fno-plt -fno-math-errno -fno-trapping-math -fuse-linker-plugin -pipe -g0 -falign-functions=32 -fno-stack-protector -fno-stack-clash-protection -fstack-check=no -fno-stack-check -Wl,-O4 -Wl,--hash-style=gnu,--sort-common,--as-needed,-lgomp,-lpthread,-z,relro,-z,now -fno-operator-names -fno-exceptions -Wall -Wextra -Wcast-align -Wchar-subscripts -Wformat-security -Wno-long-long -Wpointer-arith -Wundef -Wnon-virtual-dtor -Woverloaded-virtual -Werror=return-type -Wvla -Wdate-time -Wsuggest-override -Wlogical-op -fdiagnostics-color=always -pedantic -Wzero-as-null-pointer-constant -fPIC -fvisibility=hidden -fvisibility-inlines-hidden   -fPIC -std=gnu++11 -MD -MT src/CMakeFiles/KF5Completion.dir/kcombobox.cpp.o -MF src/CMakeFiles/KF5Completion.dir/kcombobox.cpp.o.d -o src/CMakeFiles/KF5Completion.dir/kcombobox.cpp.o -c /tmp/portage/kde-frameworks/kcompletion-5.70.0/work/kcompletion-5.70.0/src/kcombobox.cpp
[01m[K/tmp/portage/kde-frameworks/kcompletion-5.70.0/work/kcompletion-5.70.0/src/kcombobox.cpp:[m[K In member function '[01m[Kvirtual void KComboBox::setLineEdit(QLineEdit*)[m[K':
[01m[K/tmp/portage/kde-frameworks/kcompletion-5.70.0/work/kcompletion-5.70.0/src/kcombobox.cpp:357:74:[m[K [01;35m[Kwarning: [m[K'[01m[Kvoid QComboBox::activated(const QString&)[m[K' is deprecated: Use textActivated() instead [[01;35m[K-Wdeprecated-declarations[m[K]
  357 |                 this, QOverload<const QString&>::of(&QComboBox::activated[01;35m[K)[m[K);
      |                                                                          [01;35m[K^[m[K
In file included from [01m[K/usr/include/qt5/QtWidgets/QComboBox:1[m[K,
                 from [01m[K/tmp/portage/kde-frameworks/kcompletion-5.70.0/work/kcompletion-5.70.0/src/kcombobox.h:30[m[K,
                 from [01m[K/tmp/portage/kde-frameworks/kcompletion-5.70.0/work/kcompletion-5.70.0/src/kcombobox.cpp:23[m[K:
[01m[K/usr/include/qt5/QtWidgets/qcombobox.h:245:10:[m[K [01;36m[Knote: [m[Kdeclared here
  245 |     void [01;36m[Kactivated[m[K(const QString &);
      |          [01;36m[K^~~~~~~~~[m[K
[01m[K/tmp/portage/kde-frameworks/kcompletion-5.70.0/work/kcompletion-5.70.0/src/kcombobox.cpp:357:74:[m[K [01;35m[Kwarning: [m[K'[01m[Kvoid QComboBox::activated(const QString&)[m[K' is deprecated: Use textActivated() instead [[01;35m[K-Wdeprecated-declarations[m[K]
  357 |                 this, QOverload<const QString&>::of(&QComboBox::activated[01;35m[K)[m[K);
      |                                                                          [01;35m[K^[m[K
In file included from [01m[K/usr/include/qt5/QtWidgets/QComboBox:1[m[K,
                 from [01m[K/tmp/portage/kde-frameworks/kcompletion-5.70.0/work/kcompletion-5.70.0/src/kcombobox.h:30[m[K,
                 from [01m[K/tmp/portage/kde-frameworks/kcompletion-5.70.0/work/kcompletion-5.70.0/src/kcombobox.cpp:23[m[K:
[01m[K/usr/include/qt5/QtWidgets/qcombobox.h:245:10:[m[K [01;36m[Knote: [m[Kdeclared here
  245 |     void [01;36m[Kactivated[m[K(const QString &);
      |          [01;36m[K^~~~~~~~~[m[K
[10/30] /usr/bin/x86_64-pc-linux-gnu-g++ -DKCOMPLETION_DEPRECATED_WARNINGS_SINCE=0x0 -DKCOMPLETION_DISABLE_DEPRECATED_BEFORE_AND_AT=0x0 -DKF5Completion_EXPORTS -DKF_DEPRECATED_WARNINGS_SINCE=0x060000 -DKF_DISABLE_DEPRECATED_BEFORE_AND_AT=0x054400 -DQT_CORE_LIB -DQT_DEPRECATED_WARNINGS_SINCE=0x060000 -DQT_DISABLE_DEPRECATED_BEFORE=0x050d00 -DQT_GUI_LIB -DQT_NO_CAST_FROM_ASCII -DQT_NO_CAST_FROM_BYTEARRAY -DQT_NO_CAST_TO_ASCII -DQT_NO_DEBUG -DQT_NO_FOREACH -DQT_NO_NARROWING_CONVERSIONS_IN_CONNECT -DQT_NO_SIGNALS_SLOTS_KEYWORDS -DQT_NO_URL_CAST_FROM_STRING -DQT_STRICT_ITERATORS -DQT_USE_QSTRINGBUILDER -DQT_WIDGETS_LIB -DQT_XML_LIB -D_GNU_SOURCE -D_LARGEFILE64_SOURCE -Isrc -I/tmp/portage/kde-frameworks/kcompletion-5.70.0/work/kcompletion-5.70.0/src -Isrc/KF5Completion_autogen/include -isystem /usr/include/qt5 -isystem /usr/include/qt5/QtWidgets -isystem /usr/include/qt5/QtGui -isystem /usr/include/qt5/QtCore -isystem /usr/lib64/qt5/mkspecs/linux-g++ -isystem /usr/include/KF5/KConfigCore -isystem /usr/include/KF5 -isystem /usr/include/KF5/KConfigGui -isystem /usr/include/qt5/QtXml -isystem /usr/include/KF5/KWidgetsAddons  -DQT_NO_DEBUG -march=native -O3 -fgraphite-identity -floop-nest-optimize -fdevirtualize-at-ltrans -fipa-pta -fno-semantic-interposition -flto=12 -fno-plt -fno-math-errno -fno-trapping-math -fuse-linker-plugin -pipe -g0 -falign-functions=32 -fno-stack-protector -fno-stack-clash-protection -fstack-check=no -fno-stack-check -Wl,-O4 -Wl,--hash-style=gnu,--sort-common,--as-needed,-lgomp,-lpthread,-z,relro,-z,now -fno-operator-names -fno-exceptions -Wall -Wextra -Wcast-align -Wchar-subscripts -Wformat-security -Wno-long-long -Wpointer-arith -Wundef -Wnon-virtual-dtor -Woverloaded-virtual -Werror=return-type -Wvla -Wdate-time -Wsuggest-override -Wlogical-op -fdiagnostics-color=always -pedantic -Wzero-as-null-pointer-constant -fPIC -fvisibility=hidden -fvisibility-inlines-hidden   -fPIC -std=gnu++11 -MD -MT src/CMakeFiles/KF5Completion.dir/khistorycombobox.cpp.o -MF src/CMakeFiles/KF5Completion.dir/khistorycombobox.cpp.o.d -o src/CMakeFiles/KF5Completion.dir/khistorycombobox.cpp.o -c /tmp/portage/kde-frameworks/kcompletion-5.70.0/work/kcompletion-5.70.0/src/khistorycombobox.cpp
[01m[K/tmp/portage/kde-frameworks/kcompletion-5.70.0/work/kcompletion-5.70.0/src/khistorycombobox.cpp:[m[K In member function '[01m[Kvoid KHistoryComboBoxPrivate::_k_simulateActivated(const QString&)[m[K':
[01m[K/tmp/portage/kde-frameworks/kcompletion-5.70.0/work/kcompletion-5.70.0/src/khistorycombobox.cpp:478:31:[m[K [01;35m[Kwarning: [m[K'[01m[Kvoid QComboBox::activated(const QString&)[m[K' is deprecated: Use textActivated() instead [[01;35m[K-Wdeprecated-declarations[m[K]
  478 |         emit q->activated(text[01;35m[K)[m[K;
      |                               [01;35m[K^[m[K
In file included from [01m[K/usr/include/qt5/QtWidgets/QComboBox:1[m[K,
                 from [01m[K/tmp/portage/kde-frameworks/kcompletion-5.70.0/work/kcompletion-5.70.0/src/kcombobox.h:30[m[K,
                 from [01m[K/tmp/portage/kde-frameworks/kcompletion-5.70.0/work/kcompletion-5.70.0/src/khistorycombobox.h:25[m[K,
                 from [01m[K/tmp/portage/kde-frameworks/kcompletion-5.70.0/work/kcompletion-5.70.0/src/khistorycombobox.cpp:23[m[K:
[01m[K/usr/include/qt5/QtWidgets/qcombobox.h:245:10:[m[K [01;36m[Knote: [m[Kdeclared here
  245 |     void [01;36m[Kactivated[m[K(const QString &);
      |          [01;36m[K^~~~~~~~~[m[K
[01m[K/tmp/portage/kde-frameworks/kcompletion-5.70.0/work/kcompletion-5.70.0/src/khistorycombobox.cpp:491:31:[m[K [01;35m[Kwarning: [m[K'[01m[Kvoid QComboBox::activated(const QString&)[m[K' is deprecated: Use textActivated() instead [[01;35m[K-Wdeprecated-declarations[m[K]
  491 |         emit q->activated(text[01;35m[K)[m[K;
      |                               [01;35m[K^[m[K
In file included from [01m[K/usr/include/qt5/QtWidgets/QComboBox:1[m[K,
                 from [01m[K/tmp/portage/kde-frameworks/kcompletion-5.70.0/work/kcompletion-5.70.0/src/kcombobox.h:30[m[K,
                 from [01m[K/tmp/portage/kde-frameworks/kcompletion-5.70.0/work/kcompletion-5.70.0/src/khistorycombobox.h:25[m[K,
                 from [01m[K/tmp/portage/kde-frameworks/kcompletion-5.70.0/work/kcompletion-5.70.0/src/khistorycombobox.cpp:23[m[K:
[01m[K/usr/include/qt5/QtWidgets/qcombobox.h:245:10:[m[K [01;36m[Knote: [m[Kdeclared here
  245 |     void [01;36m[Kactivated[m[K(const QString &);
      |          [01;36m[K^~~~~~~~~[m[K
[11/30] /usr/bin/x86_64-pc-linux-gnu-g++ -DKCOMPLETION_DEPRECATED_WARNINGS_SINCE=0x0 -DKCOMPLETION_DISABLE_DEPRECATED_BEFORE_AND_AT=0x0 -DKF5Completion_EXPORTS -DKF_DEPRECATED_WARNINGS_SINCE=0x060000 -DKF_DISABLE_DEPRECATED_BEFORE_AND_AT=0x054400 -DQT_CORE_LIB -DQT_DEPRECATED_WARNINGS_SINCE=0x060000 -DQT_DISABLE_DEPRECATED_BEFORE=0x050d00 -DQT_GUI_LIB -DQT_NO_CAST_FROM_ASCII -DQT_NO_CAST_FROM_BYTEARRAY -DQT_NO_CAST_TO_ASCII -DQT_NO_DEBUG -DQT_NO_FOREACH -DQT_NO_NARROWING_CONVERSIONS_IN_CONNECT -DQT_NO_SIGNALS_SLOTS_KEYWORDS -DQT_NO_URL_CAST_FROM_STRING -DQT_STRICT_ITERATORS -DQT_USE_QSTRINGBUILDER -DQT_WIDGETS_LIB -DQT_XML_LIB -D_GNU_SOURCE -D_LARGEFILE64_SOURCE -Isrc -I/tmp/portage/kde-frameworks/kcompletion-5.70.0/work/kcompletion-5.70.0/src -Isrc/KF5Completion_autogen/include -isystem /usr/include/qt5 -isystem /usr/include/qt5/QtWidgets -isystem /usr/include/qt5/QtGui -isystem /usr/include/qt5/QtCore -isystem /usr/lib64/qt5/mkspecs/linux-g++ -isystem /usr/include/KF5/KConfigCore -isystem /usr/include/KF5 -isystem /usr/include/KF5/KConfigGui -isystem /usr/include/qt5/QtXml -isystem /usr/include/KF5/KWidgetsAddons  -DQT_NO_DEBUG -march=native -O3 -fgraphite-identity -floop-nest-optimize -fdevirtualize-at-ltrans -fipa-pta -fno-semantic-interposition -flto=12 -fno-plt -fno-math-errno -fno-trapping-math -fuse-linker-plugin -pipe -g0 -falign-functions=32 -fno-stack-protector -fno-stack-clash-protection -fstack-check=no -fno-stack-check -Wl,-O4 -Wl,--hash-style=gnu,--sort-common,--as-needed,-lgomp,-lpthread,-z,relro,-z,now -fno-operator-names -fno-exceptions -Wall -Wextra -Wcast-align -Wchar-subscripts -Wformat-security -Wno-long-long -Wpointer-arith -Wundef -Wnon-virtual-dtor -Woverloaded-virtual -Werror=return-type -Wvla -Wdate-time -Wsuggest-override -Wlogical-op -fdiagnostics-color=always -pedantic -Wzero-as-null-pointer-constant -fPIC -fvisibility=hidden -fvisibility-inlines-hidden   -fPIC -std=gnu++11 -MD -MT src/CMakeFiles/KF5Completion.dir/kcompletionbox.cpp.o -MF src/CMakeFiles/KF5Completion.dir/kcompletionbox.cpp.o.d -o src/CMakeFiles/KF5Completion.dir/kcompletionbox.cpp.o -c /tmp/portage/kde-frameworks/kcompletion-5.70.0/work/kcompletion-5.70.0/src/kcompletionbox.cpp
[12/30] /usr/bin/x86_64-pc-linux-gnu-g++ -DKCOMPLETION_DEPRECATED_WARNINGS_SINCE=0x0 -DKCOMPLETION_DISABLE_DEPRECATED_BEFORE_AND_AT=0x0 -DKF5Completion_EXPORTS -DKF_DEPRECATED_WARNINGS_SINCE=0x060000 -DKF_DISABLE_DEPRECATED_BEFORE_AND_AT=0x054400 -DQT_CORE_LIB -DQT_DEPRECATED_WARNINGS_SINCE=0x060000 -DQT_DISABLE_DEPRECATED_BEFORE=0x050d00 -DQT_GUI_LIB -DQT_NO_CAST_FROM_ASCII -DQT_NO_CAST_FROM_BYTEARRAY -DQT_NO_CAST_TO_ASCII -DQT_NO_DEBUG -DQT_NO_FOREACH -DQT_NO_NARROWING_CONVERSIONS_IN_CONNECT -DQT_NO_SIGNALS_SLOTS_KEYWORDS -DQT_NO_URL_CAST_FROM_STRING -DQT_STRICT_ITERATORS -DQT_USE_QSTRINGBUILDER -DQT_WIDGETS_LIB -DQT_XML_LIB -D_GNU_SOURCE -D_LARGEFILE64_SOURCE -Isrc -I/tmp/portage/kde-frameworks/kcompletion-5.70.0/work/kcompletion-5.70.0/src -Isrc/KF5Completion_autogen/include -isystem /usr/include/qt5 -isystem /usr/include/qt5/QtWidgets -isystem /usr/include/qt5/QtGui -isystem /usr/include/qt5/QtCore -isystem /usr/lib64/qt5/mkspecs/linux-g++ -isystem /usr/include/KF5/KConfigCore -isystem /usr/include/KF5 -isystem /usr/include/KF5/KConfigGui -isystem /usr/include/qt5/QtXml -isystem /usr/include/KF5/KWidgetsAddons  -DQT_NO_DEBUG -march=native -O3 -fgraphite-identity -floop-nest-optimize -fdevirtualize-at-ltrans -fipa-pta -fno-semantic-interposition -flto=12 -fno-plt -fno-math-errno -fno-trapping-math -fuse-linker-plugin -pipe -g0 -falign-functions=32 -fno-stack-protector -fno-stack-clash-protection -fstack-check=no -fno-stack-check -Wl,-O4 -Wl,--hash-style=gnu,--sort-common,--as-needed,-lgomp,-lpthread,-z,relro,-z,now -fno-operator-names -fno-exceptions -Wall -Wextra -Wcast-align -Wchar-subscripts -Wformat-security -Wno-long-long -Wpointer-arith -Wundef -Wnon-virtual-dtor -Woverloaded-virtual -Werror=return-type -Wvla -Wdate-time -Wsuggest-override -Wlogical-op -fdiagnostics-color=always -pedantic -Wzero-as-null-pointer-constant -fPIC -fvisibility=hidden -fvisibility-inlines-hidden   -fPIC -std=gnu++11 -MD -MT src/CMakeFiles/KF5Completion.dir/klineedit.cpp.o -MF src/CMakeFiles/KF5Completion.dir/klineedit.cpp.o.d -o src/CMakeFiles/KF5Completion.dir/klineedit.cpp.o -c /tmp/portage/kde-frameworks/kcompletion-5.70.0/work/kcompletion-5.70.0/src/klineedit.cpp
[13/30] : && /usr/bin/x86_64-pc-linux-gnu-g++ -fPIC -march=native -O3 -fgraphite-identity -floop-nest-optimize -fdevirtualize-at-ltrans -fipa-pta -fno-semantic-interposition -flto=12 -fno-plt -fno-math-errno -fno-trapping-math -fuse-linker-plugin -pipe -g0 -falign-functions=32 -fno-stack-protector -fno-stack-clash-protection -fstack-check=no -fno-stack-check -Wl,-O4 -Wl,--hash-style=gnu,--sort-common,--as-needed,-lgomp,-lpthread,-z,relro,-z,now -fno-operator-names -fno-exceptions -Wall -Wextra -Wcast-align -Wchar-subscripts -Wformat-security -Wno-long-long -Wpointer-arith -Wundef -Wnon-virtual-dtor -Woverloaded-virtual -Werror=return-type -Wvla -Wdate-time -Wsuggest-override -Wlogical-op -fdiagnostics-color=always -pedantic -Wzero-as-null-pointer-constant  -Wl,--no-undefined -Wl,--enable-new-dtags -Wl,-O4 -Wl,--hash-style=gnu,--sort-common,--as-needed,-lgomp,-lpthread,-z,relro,-z,now -march=native -O3 -fgraphite-identity -floop-nest-optimize -fdevirtualize-at-ltrans -fipa-pta -fno-semantic-interposition -flto=12 -fno-plt -fno-math-errno -fno-trapping-math -fuse-linker-plugin -pipe -g0 -falign-functions=32 -fno-stack-protector -fno-stack-clash-protection -fstack-check=no -fno-stack-check -shared -Wl,-soname,libKF5Completion.so.5 -o bin/libKF5Completion.so.5.70.0 src/CMakeFiles/KF5Completion.dir/KF5Completion_autogen/mocs_compilation.cpp.o src/CMakeFiles/KF5Completion.dir/kcombobox.cpp.o src/CMakeFiles/KF5Completion.dir/kcompletion.cpp.o src/CMakeFiles/KF5Completion.dir/kcompletionbase.cpp.o src/CMakeFiles/KF5Completion.dir/kcompletionbox.cpp.o src/CMakeFiles/KF5Completion.dir/klineedit.cpp.o src/CMakeFiles/KF5Completion.dir/khistorycombobox.cpp.o src/CMakeFiles/KF5Completion.dir/kpixmapprovider.cpp.o src/CMakeFiles/KF5Completion.dir/kzoneallocator.cpp.o src/CMakeFiles/KF5Completion.dir/kcompletionmatches.cpp.o src/CMakeFiles/KF5Completion.dir/ECMQmLoader-kcompletion5_qt.cpp.o  /usr/lib64/libKF5ConfigGui.so.5.70.0  /usr/lib64/libKF5WidgetsAddons.so.5.70.0  /usr/lib64/libKF5ConfigCore.so.5.70.0  /usr/lib64/libQt5Xml.so.5.15.0  /usr/lib64/libQt5Widgets.so.5.15.0  /usr/lib64/libQt5Gui.so.5.15.0  /usr/lib64/libQt5Core.so.5.15.0 && :
[14/30] /usr/bin/cmake -E cmake_symlink_library bin/libKF5Completion.so.5.70.0  bin/libKF5Completion.so.5 bin/libKF5Completion.so && :
[15/30] cd /tmp/portage/kde-frameworks/kcompletion-5.70.0/work/kcompletion-5.70.0_build/autotests && /usr/bin/cmake -E cmake_autogen /tmp/portage/kde-frameworks/kcompletion-5.70.0/work/kcompletion-5.70.0_build/autotests/CMakeFiles/ksortablelisttest_autogen.dir/AutogenInfo.json Gentoo && /usr/bin/cmake -E touch /tmp/portage/kde-frameworks/kcompletion-5.70.0/work/kcompletion-5.70.0_build/autotests/ksortablelisttest_autogen/timestamp
[16/30] /usr/bin/x86_64-pc-linux-gnu-g++ -DKCOMPLETION_DEPRECATED_WARNINGS_SINCE=0x0 -DKCOMPLETION_DISABLE_DEPRECATED_BEFORE_AND_AT=0x0 -DKF_DEPRECATED_WARNINGS_SINCE=0x060000 -DKF_DISABLE_DEPRECATED_BEFORE_AND_AT=0x054400 -DQT_CORE_LIB -DQT_DEPRECATED_WARNINGS_SINCE=0x060000 -DQT_DISABLE_DEPRECATED_BEFORE=0x050d00 -DQT_GUI_LIB -DQT_NO_CAST_FROM_BYTEARRAY -DQT_NO_DEBUG -DQT_NO_FOREACH -DQT_NO_NARROWING_CONVERSIONS_IN_CONNECT -DQT_NO_SIGNALS_SLOTS_KEYWORDS -DQT_NO_URL_CAST_FROM_STRING -DQT_STRICT_ITERATORS -DQT_TESTCASE_BUILDDIR=\"/tmp/portage/kde-frameworks/kcompletion-5.70.0/work/kcompletion-5.70.0_build\" -DQT_TESTLIB_LIB -DQT_USE_QSTRINGBUILDER -DQT_WIDGETS_LIB -D_GNU_SOURCE -D_LARGEFILE64_SOURCE -Iautotests -I/tmp/portage/kde-frameworks/kcompletion-5.70.0/work/kcompletion-5.70.0/autotests -Iautotests/ksortablelisttest_autogen/include -Isrc -I/tmp/portage/kde-frameworks/kcompletion-5.70.0/work/kcompletion-5.70.0/src -isystem /usr/include/qt5 -isystem /usr/include/qt5/QtTest -isystem /usr/include/qt5/QtCore -isystem /usr/lib64/qt5/mkspecs/linux-g++ -isystem /usr/include/qt5/QtWidgets -isystem /usr/include/qt5/QtGui  -DQT_NO_DEBUG -march=native -O3 -fgraphite-identity -floop-nest-optimize -fdevirtualize-at-ltrans -fipa-pta -fno-semantic-interposition -flto=12 -fno-plt -fno-math-errno -fno-trapping-math -fuse-linker-plugin -pipe -g0 -falign-functions=32 -fno-stack-protector -fno-stack-clash-protection -fstack-check=no -fno-stack-check -Wl,-O4 -Wl,--hash-style=gnu,--sort-common,--as-needed,-lgomp,-lpthread,-z,relro,-z,now -fno-operator-names -fno-exceptions -Wall -Wextra -Wcast-align -Wchar-subscripts -Wformat-security -Wno-long-long -Wpointer-arith -Wundef -Wnon-virtual-dtor -Woverloaded-virtual -Werror=return-type -Wvla -Wdate-time -Wsuggest-override -Wlogical-op -fdiagnostics-color=always -pedantic -Wzero-as-null-pointer-constant -fvisibility=hidden -fvisibility-inlines-hidden   -fPIC -std=gnu++11 -MD -MT autotests/CMakeFiles/ksortablelisttest.dir/ksortablelisttest_autogen/mocs_compilation.cpp.o -MF autotests/CMakeFiles/ksortablelisttest.dir/ksortablelisttest_autogen/mocs_compilation.cpp.o.d -o autotests/CMakeFiles/ksortablelisttest.dir/ksortablelisttest_autogen/mocs_compilation.cpp.o -c autotests/ksortablelisttest_autogen/mocs_compilation.cpp
[17/30] cd /tmp/portage/kde-frameworks/kcompletion-5.70.0/work/kcompletion-5.70.0_build/autotests && /usr/bin/cmake -E cmake_autogen /tmp/portage/kde-frameworks/kcompletion-5.70.0/work/kcompletion-5.70.0_build/autotests/CMakeFiles/kcompletioncoretest_autogen.dir/AutogenInfo.json Gentoo && /usr/bin/cmake -E touch /tmp/portage/kde-frameworks/kcompletion-5.70.0/work/kcompletion-5.70.0_build/autotests/kcompletioncoretest_autogen/timestamp
[18/30] cd /tmp/portage/kde-frameworks/kcompletion-5.70.0/work/kcompletion-5.70.0_build/autotests && /usr/bin/cmake -E cmake_autogen /tmp/portage/kde-frameworks/kcompletion-5.70.0/work/kcompletion-5.70.0_build/autotests/CMakeFiles/klineedit_unittest_autogen.dir/AutogenInfo.json Gentoo && /usr/bin/cmake -E touch /tmp/portage/kde-frameworks/kcompletion-5.70.0/work/kcompletion-5.70.0_build/autotests/klineedit_unittest_autogen/timestamp
[19/30] cd /tmp/portage/kde-frameworks/kcompletion-5.70.0/work/kcompletion-5.70.0_build/autotests && /usr/bin/cmake -E cmake_autogen /tmp/portage/kde-frameworks/kcompletion-5.70.0/work/kcompletion-5.70.0_build/autotests/CMakeFiles/kcombobox_unittest_autogen.dir/AutogenInfo.json Gentoo && /usr/bin/cmake -E touch /tmp/portage/kde-frameworks/kcompletion-5.70.0/work/kcompletion-5.70.0_build/autotests/kcombobox_unittest_autogen/timestamp
[20/30] /usr/bin/x86_64-pc-linux-gnu-g++ -DKCOMPLETION_DEPRECATED_WARNINGS_SINCE=0x0 -DKCOMPLETION_DISABLE_DEPRECATED_BEFORE_AND_AT=0x0 -DKF_DEPRECATED_WARNINGS_SINCE=0x060000 -DKF_DISABLE_DEPRECATED_BEFORE_AND_AT=0x054400 -DQT_CORE_LIB -DQT_DEPRECATED_WARNINGS_SINCE=0x060000 -DQT_DISABLE_DEPRECATED_BEFORE=0x050d00 -DQT_GUI_LIB -DQT_NO_CAST_FROM_BYTEARRAY -DQT_NO_DEBUG -DQT_NO_FOREACH -DQT_NO_NARROWING_CONVERSIONS_IN_CONNECT -DQT_NO_SIGNALS_SLOTS_KEYWORDS -DQT_NO_URL_CAST_FROM_STRING -DQT_STRICT_ITERATORS -DQT_TESTCASE_BUILDDIR=\"/tmp/portage/kde-frameworks/kcompletion-5.70.0/work/kcompletion-5.70.0_build\" -DQT_TESTLIB_LIB -DQT_USE_QSTRINGBUILDER -DQT_WIDGETS_LIB -D_GNU_SOURCE -D_LARGEFILE64_SOURCE -Iautotests -I/tmp/portage/kde-frameworks/kcompletion-5.70.0/work/kcompletion-5.70.0/autotests -Iautotests/klineedit_unittest_autogen/include -Isrc -I/tmp/portage/kde-frameworks/kcompletion-5.70.0/work/kcompletion-5.70.0/src -isystem /usr/include/qt5 -isystem /usr/include/qt5/QtTest -isystem /usr/include/qt5/QtCore -isystem /usr/lib64/qt5/mkspecs/linux-g++ -isystem /usr/include/qt5/QtWidgets -isystem /usr/include/qt5/QtGui  -DQT_NO_DEBUG -march=native -O3 -fgraphite-identity -floop-nest-optimize -fdevirtualize-at-ltrans -fipa-pta -fno-semantic-interposition -flto=12 -fno-plt -fno-math-errno -fno-trapping-math -fuse-linker-plugin -pipe -g0 -falign-functions=32 -fno-stack-protector -fno-stack-clash-protection -fstack-check=no -fno-stack-check -Wl,-O4 -Wl,--hash-style=gnu,--sort-common,--as-needed,-lgomp,-lpthread,-z,relro,-z,now -fno-operator-names -fno-exceptions -Wall -Wextra -Wcast-align -Wchar-subscripts -Wformat-security -Wno-long-long -Wpointer-arith -Wundef -Wnon-virtual-dtor -Woverloaded-virtual -Werror=return-type -Wvla -Wdate-time -Wsuggest-override -Wlogical-op -fdiagnostics-color=always -pedantic -Wzero-as-null-pointer-constant -fvisibility=hidden -fvisibility-inlines-hidden   -fPIC -std=gnu++11 -MD -MT autotests/CMakeFiles/klineedit_unittest.dir/klineedit_unittest_autogen/mocs_compilation.cpp.o -MF autotests/CMakeFiles/klineedit_unittest.dir/klineedit_unittest_autogen/mocs_compilation.cpp.o.d -o autotests/CMakeFiles/klineedit_unittest.dir/klineedit_unittest_autogen/mocs_compilation.cpp.o -c autotests/klineedit_unittest_autogen/mocs_compilation.cpp
[21/30] /usr/bin/x86_64-pc-linux-gnu-g++ -DKCOMPLETION_DEPRECATED_WARNINGS_SINCE=0x0 -DKCOMPLETION_DISABLE_DEPRECATED_BEFORE_AND_AT=0x0 -DKF_DEPRECATED_WARNINGS_SINCE=0x060000 -DKF_DISABLE_DEPRECATED_BEFORE_AND_AT=0x054400 -DQT_CORE_LIB -DQT_DEPRECATED_WARNINGS_SINCE=0x060000 -DQT_DISABLE_DEPRECATED_BEFORE=0x050d00 -DQT_GUI_LIB -DQT_NO_CAST_FROM_BYTEARRAY -DQT_NO_DEBUG -DQT_NO_FOREACH -DQT_NO_NARROWING_CONVERSIONS_IN_CONNECT -DQT_NO_SIGNALS_SLOTS_KEYWORDS -DQT_NO_URL_CAST_FROM_STRING -DQT_STRICT_ITERATORS -DQT_TESTCASE_BUILDDIR=\"/tmp/portage/kde-frameworks/kcompletion-5.70.0/work/kcompletion-5.70.0_build\" -DQT_TESTLIB_LIB -DQT_USE_QSTRINGBUILDER -DQT_WIDGETS_LIB -D_GNU_SOURCE -D_LARGEFILE64_SOURCE -Iautotests -I/tmp/portage/kde-frameworks/kcompletion-5.70.0/work/kcompletion-5.70.0/autotests -Iautotests/kcombobox_unittest_autogen/include -Isrc -I/tmp/portage/kde-frameworks/kcompletion-5.70.0/work/kcompletion-5.70.0/src -isystem /usr/include/qt5 -isystem /usr/include/qt5/QtTest -isystem /usr/include/qt5/QtCore -isystem /usr/lib64/qt5/mkspecs/linux-g++ -isystem /usr/include/qt5/QtWidgets -isystem /usr/include/qt5/QtGui  -DQT_NO_DEBUG -march=native -O3 -fgraphite-identity -floop-nest-optimize -fdevirtualize-at-ltrans -fipa-pta -fno-semantic-interposition -flto=12 -fno-plt -fno-math-errno -fno-trapping-math -fuse-linker-plugin -pipe -g0 -falign-functions=32 -fno-stack-protector -fno-stack-clash-protection -fstack-check=no -fno-stack-check -Wl,-O4 -Wl,--hash-style=gnu,--sort-common,--as-needed,-lgomp,-lpthread,-z,relro,-z,now -fno-operator-names -fno-exceptions -Wall -Wextra -Wcast-align -Wchar-subscripts -Wformat-security -Wno-long-long -Wpointer-arith -Wundef -Wnon-virtual-dtor -Woverloaded-virtual -Werror=return-type -Wvla -Wdate-time -Wsuggest-override -Wlogical-op -fdiagnostics-color=always -pedantic -Wzero-as-null-pointer-constant -fvisibility=hidden -fvisibility-inlines-hidden   -fPIC -std=gnu++11 -MD -MT autotests/CMakeFiles/kcombobox_unittest.dir/kcombobox_unittest_autogen/mocs_compilation.cpp.o -MF autotests/CMakeFiles/kcombobox_unittest.dir/kcombobox_unittest_autogen/mocs_compilation.cpp.o.d -o autotests/CMakeFiles/kcombobox_unittest.dir/kcombobox_unittest_autogen/mocs_compilation.cpp.o -c autotests/kcombobox_unittest_autogen/mocs_compilation.cpp
[22/30] /usr/bin/x86_64-pc-linux-gnu-g++ -DKCOMPLETION_DEPRECATED_WARNINGS_SINCE=0x0 -DKCOMPLETION_DISABLE_DEPRECATED_BEFORE_AND_AT=0x0 -DKF_DEPRECATED_WARNINGS_SINCE=0x060000 -DKF_DISABLE_DEPRECATED_BEFORE_AND_AT=0x054400 -DQT_CORE_LIB -DQT_DEPRECATED_WARNINGS_SINCE=0x060000 -DQT_DISABLE_DEPRECATED_BEFORE=0x050d00 -DQT_GUI_LIB -DQT_NO_CAST_FROM_BYTEARRAY -DQT_NO_DEBUG -DQT_NO_FOREACH -DQT_NO_NARROWING_CONVERSIONS_IN_CONNECT -DQT_NO_SIGNALS_SLOTS_KEYWORDS -DQT_NO_URL_CAST_FROM_STRING -DQT_STRICT_ITERATORS -DQT_TESTCASE_BUILDDIR=\"/tmp/portage/kde-frameworks/kcompletion-5.70.0/work/kcompletion-5.70.0_build\" -DQT_TESTLIB_LIB -DQT_USE_QSTRINGBUILDER -DQT_WIDGETS_LIB -D_GNU_SOURCE -D_LARGEFILE64_SOURCE -Iautotests -I/tmp/portage/kde-frameworks/kcompletion-5.70.0/work/kcompletion-5.70.0/autotests -Iautotests/ksortablelisttest_autogen/include -Isrc -I/tmp/portage/kde-frameworks/kcompletion-5.70.0/work/kcompletion-5.70.0/src -isystem /usr/include/qt5 -isystem /usr/include/qt5/QtTest -isystem /usr/include/qt5/QtCore -isystem /usr/lib64/qt5/mkspecs/linux-g++ -isystem /usr/include/qt5/QtWidgets -isystem /usr/include/qt5/QtGui  -DQT_NO_DEBUG -march=native -O3 -fgraphite-identity -floop-nest-optimize -fdevirtualize-at-ltrans -fipa-pta -fno-semantic-interposition -flto=12 -fno-plt -fno-math-errno -fno-trapping-math -fuse-linker-plugin -pipe -g0 -falign-functions=32 -fno-stack-protector -fno-stack-clash-protection -fstack-check=no -fno-stack-check -Wl,-O4 -Wl,--hash-style=gnu,--sort-common,--as-needed,-lgomp,-lpthread,-z,relro,-z,now -fno-operator-names -fno-exceptions -Wall -Wextra -Wcast-align -Wchar-subscripts -Wformat-security -Wno-long-long -Wpointer-arith -Wundef -Wnon-virtual-dtor -Woverloaded-virtual -Werror=return-type -Wvla -Wdate-time -Wsuggest-override -Wlogical-op -fdiagnostics-color=always -pedantic -Wzero-as-null-pointer-constant -fvisibility=hidden -fvisibility-inlines-hidden   -fPIC -std=gnu++11 -MD -MT autotests/CMakeFiles/ksortablelisttest.dir/ksortablelisttest.cpp.o -MF autotests/CMakeFiles/ksortablelisttest.dir/ksortablelisttest.cpp.o.d -o autotests/CMakeFiles/ksortablelisttest.dir/ksortablelisttest.cpp.o -c /tmp/portage/kde-frameworks/kcompletion-5.70.0/work/kcompletion-5.70.0/autotests/ksortablelisttest.cpp
[23/30] /usr/bin/x86_64-pc-linux-gnu-g++ -DKCOMPLETION_DEPRECATED_WARNINGS_SINCE=0x0 -DKCOMPLETION_DISABLE_DEPRECATED_BEFORE_AND_AT=0x0 -DKF_DEPRECATED_WARNINGS_SINCE=0x060000 -DKF_DISABLE_DEPRECATED_BEFORE_AND_AT=0x054400 -DQT_CORE_LIB -DQT_DEPRECATED_WARNINGS_SINCE=0x060000 -DQT_DISABLE_DEPRECATED_BEFORE=0x050d00 -DQT_GUI_LIB -DQT_NO_CAST_FROM_BYTEARRAY -DQT_NO_DEBUG -DQT_NO_FOREACH -DQT_NO_NARROWING_CONVERSIONS_IN_CONNECT -DQT_NO_SIGNALS_SLOTS_KEYWORDS -DQT_NO_URL_CAST_FROM_STRING -DQT_STRICT_ITERATORS -DQT_TESTCASE_BUILDDIR=\"/tmp/portage/kde-frameworks/kcompletion-5.70.0/work/kcompletion-5.70.0_build\" -DQT_TESTLIB_LIB -DQT_USE_QSTRINGBUILDER -DQT_WIDGETS_LIB -D_GNU_SOURCE -D_LARGEFILE64_SOURCE -Iautotests -I/tmp/portage/kde-frameworks/kcompletion-5.70.0/work/kcompletion-5.70.0/autotests -Iautotests/kcompletioncoretest_autogen/include -Isrc -I/tmp/portage/kde-frameworks/kcompletion-5.70.0/work/kcompletion-5.70.0/src -isystem /usr/include/qt5 -isystem /usr/include/qt5/QtTest -isystem /usr/include/qt5/QtCore -isystem /usr/lib64/qt5/mkspecs/linux-g++ -isystem /usr/include/qt5/QtWidgets -isystem /usr/include/qt5/QtGui  -DQT_NO_DEBUG -march=native -O3 -fgraphite-identity -floop-nest-optimize -fdevirtualize-at-ltrans -fipa-pta -fno-semantic-interposition -flto=12 -fno-plt -fno-math-errno -fno-trapping-math -fuse-linker-plugin -pipe -g0 -falign-functions=32 -fno-stack-protector -fno-stack-clash-protection -fstack-check=no -fno-stack-check -Wl,-O4 -Wl,--hash-style=gnu,--sort-common,--as-needed,-lgomp,-lpthread,-z,relro,-z,now -fno-operator-names -fno-exceptions -Wall -Wextra -Wcast-align -Wchar-subscripts -Wformat-security -Wno-long-long -Wpointer-arith -Wundef -Wnon-virtual-dtor -Woverloaded-virtual -Werror=return-type -Wvla -Wdate-time -Wsuggest-override -Wlogical-op -fdiagnostics-color=always -pedantic -Wzero-as-null-pointer-constant -fvisibility=hidden -fvisibility-inlines-hidden   -fPIC -std=gnu++11 -MD -MT autotests/CMakeFiles/kcompletioncoretest.dir/kcompletioncoretest_autogen/mocs_compilation.cpp.o -MF autotests/CMakeFiles/kcompletioncoretest.dir/kcompletioncoretest_autogen/mocs_compilation.cpp.o.d -o autotests/CMakeFiles/kcompletioncoretest.dir/kcompletioncoretest_autogen/mocs_compilation.cpp.o -c autotests/kcompletioncoretest_autogen/mocs_compilation.cpp
[24/30] : && /usr/bin/x86_64-pc-linux-gnu-g++  -march=native -O3 -fgraphite-identity -floop-nest-optimize -fdevirtualize-at-ltrans -fipa-pta -fno-semantic-interposition -flto=12 -fno-plt -fno-math-errno -fno-trapping-math -fuse-linker-plugin -pipe -g0 -falign-functions=32 -fno-stack-protector -fno-stack-clash-protection -fstack-check=no -fno-stack-check -Wl,-O4 -Wl,--hash-style=gnu,--sort-common,--as-needed,-lgomp,-lpthread,-z,relro,-z,now -fno-operator-names -fno-exceptions -Wall -Wextra -Wcast-align -Wchar-subscripts -Wformat-security -Wno-long-long -Wpointer-arith -Wundef -Wnon-virtual-dtor -Woverloaded-virtual -Werror=return-type -Wvla -Wdate-time -Wsuggest-override -Wlogical-op -fdiagnostics-color=always -pedantic -Wzero-as-null-pointer-constant  -Wl,--enable-new-dtags -Wl,-O4 -Wl,--hash-style=gnu,--sort-common,--as-needed,-lgomp,-lpthread,-z,relro,-z,now -march=native -O3 -fgraphite-identity -floop-nest-optimize -fdevirtualize-at-ltrans -fipa-pta -fno-semantic-interposition -flto=12 -fno-plt -fno-math-errno -fno-trapping-math -fuse-linker-plugin -pipe -g0 -falign-functions=32 -fno-stack-protector -fno-stack-clash-protection -fstack-check=no -fno-stack-check autotests/CMakeFiles/ksortablelisttest.dir/ksortablelisttest_autogen/mocs_compilation.cpp.o autotests/CMakeFiles/ksortablelisttest.dir/ksortablelisttest.cpp.o  -o bin/ksortablelisttest  -Wl,-rpath,/tmp/portage/kde-frameworks/kcompletion-5.70.0/work/kcompletion-5.70.0_build/bin  /usr/lib64/libQt5Test.so.5.15.0  bin/libKF5Completion.so.5.70.0  /usr/lib64/libQt5Widgets.so.5.15.0  /usr/lib64/libQt5Gui.so.5.15.0  /usr/lib64/libQt5Core.so.5.15.0 && :
[25/30] /usr/bin/x86_64-pc-linux-gnu-g++ -DKCOMPLETION_DEPRECATED_WARNINGS_SINCE=0x0 -DKCOMPLETION_DISABLE_DEPRECATED_BEFORE_AND_AT=0x0 -DKF_DEPRECATED_WARNINGS_SINCE=0x060000 -DKF_DISABLE_DEPRECATED_BEFORE_AND_AT=0x054400 -DQT_CORE_LIB -DQT_DEPRECATED_WARNINGS_SINCE=0x060000 -DQT_DISABLE_DEPRECATED_BEFORE=0x050d00 -DQT_GUI_LIB -DQT_NO_CAST_FROM_BYTEARRAY -DQT_NO_DEBUG -DQT_NO_FOREACH -DQT_NO_NARROWING_CONVERSIONS_IN_CONNECT -DQT_NO_SIGNALS_SLOTS_KEYWORDS -DQT_NO_URL_CAST_FROM_STRING -DQT_STRICT_ITERATORS -DQT_TESTCASE_BUILDDIR=\"/tmp/portage/kde-frameworks/kcompletion-5.70.0/work/kcompletion-5.70.0_build\" -DQT_TESTLIB_LIB -DQT_USE_QSTRINGBUILDER -DQT_WIDGETS_LIB -D_GNU_SOURCE -D_LARGEFILE64_SOURCE -Iautotests -I/tmp/portage/kde-frameworks/kcompletion-5.70.0/work/kcompletion-5.70.0/autotests -Iautotests/kcompletioncoretest_autogen/include -Isrc -I/tmp/portage/kde-frameworks/kcompletion-5.70.0/work/kcompletion-5.70.0/src -isystem /usr/include/qt5 -isystem /usr/include/qt5/QtTest -isystem /usr/include/qt5/QtCore -isystem /usr/lib64/qt5/mkspecs/linux-g++ -isystem /usr/include/qt5/QtWidgets -isystem /usr/include/qt5/QtGui  -DQT_NO_DEBUG -march=native -O3 -fgraphite-identity -floop-nest-optimize -fdevirtualize-at-ltrans -fipa-pta -fno-semantic-interposition -flto=12 -fno-plt -fno-math-errno -fno-trapping-math -fuse-linker-plugin -pipe -g0 -falign-functions=32 -fno-stack-protector -fno-stack-clash-protection -fstack-check=no -fno-stack-check -Wl,-O4 -Wl,--hash-style=gnu,--sort-common,--as-needed,-lgomp,-lpthread,-z,relro,-z,now -fno-operator-names -fno-exceptions -Wall -Wextra -Wcast-align -Wchar-subscripts -Wformat-security -Wno-long-long -Wpointer-arith -Wundef -Wnon-virtual-dtor -Woverloaded-virtual -Werror=return-type -Wvla -Wdate-time -Wsuggest-override -Wlogical-op -fdiagnostics-color=always -pedantic -Wzero-as-null-pointer-constant -fvisibility=hidden -fvisibility-inlines-hidden   -fPIC -std=gnu++11 -MD -MT autotests/CMakeFiles/kcompletioncoretest.dir/kcompletioncoretest.cpp.o -MF autotests/CMakeFiles/kcompletioncoretest.dir/kcompletioncoretest.cpp.o.d -o autotests/CMakeFiles/kcompletioncoretest.dir/kcompletioncoretest.cpp.o -c /tmp/portage/kde-frameworks/kcompletion-5.70.0/work/kcompletion-5.70.0/autotests/kcompletioncoretest.cpp
[26/30] /usr/bin/x86_64-pc-linux-gnu-g++ -DKCOMPLETION_DEPRECATED_WARNINGS_SINCE=0x0 -DKCOMPLETION_DISABLE_DEPRECATED_BEFORE_AND_AT=0x0 -DKF_DEPRECATED_WARNINGS_SINCE=0x060000 -DKF_DISABLE_DEPRECATED_BEFORE_AND_AT=0x054400 -DQT_CORE_LIB -DQT_DEPRECATED_WARNINGS_SINCE=0x060000 -DQT_DISABLE_DEPRECATED_BEFORE=0x050d00 -DQT_GUI_LIB -DQT_NO_CAST_FROM_BYTEARRAY -DQT_NO_DEBUG -DQT_NO_FOREACH -DQT_NO_NARROWING_CONVERSIONS_IN_CONNECT -DQT_NO_SIGNALS_SLOTS_KEYWORDS -DQT_NO_URL_CAST_FROM_STRING -DQT_STRICT_ITERATORS -DQT_TESTCASE_BUILDDIR=\"/tmp/portage/kde-frameworks/kcompletion-5.70.0/work/kcompletion-5.70.0_build\" -DQT_TESTLIB_LIB -DQT_USE_QSTRINGBUILDER -DQT_WIDGETS_LIB -D_GNU_SOURCE -D_LARGEFILE64_SOURCE -Iautotests -I/tmp/portage/kde-frameworks/kcompletion-5.70.0/work/kcompletion-5.70.0/autotests -Iautotests/kcombobox_unittest_autogen/include -Isrc -I/tmp/portage/kde-frameworks/kcompletion-5.70.0/work/kcompletion-5.70.0/src -isystem /usr/include/qt5 -isystem /usr/include/qt5/QtTest -isystem /usr/include/qt5/QtCore -isystem /usr/lib64/qt5/mkspecs/linux-g++ -isystem /usr/include/qt5/QtWidgets -isystem /usr/include/qt5/QtGui  -DQT_NO_DEBUG -march=native -O3 -fgraphite-identity -floop-nest-optimize -fdevirtualize-at-ltrans -fipa-pta -fno-semantic-interposition -flto=12 -fno-plt -fno-math-errno -fno-trapping-math -fuse-linker-plugin -pipe -g0 -falign-functions=32 -fno-stack-protector -fno-stack-clash-protection -fstack-check=no -fno-stack-check -Wl,-O4 -Wl,--hash-style=gnu,--sort-common,--as-needed,-lgomp,-lpthread,-z,relro,-z,now -fno-operator-names -fno-exceptions -Wall -Wextra -Wcast-align -Wchar-subscripts -Wformat-security -Wno-long-long -Wpointer-arith -Wundef -Wnon-virtual-dtor -Woverloaded-virtual -Werror=return-type -Wvla -Wdate-time -Wsuggest-override -Wlogical-op -fdiagnostics-color=always -pedantic -Wzero-as-null-pointer-constant -fvisibility=hidden -fvisibility-inlines-hidden   -fPIC -std=gnu++11 -MD -MT autotests/CMakeFiles/kcombobox_unittest.dir/kcombobox_unittest.cpp.o -MF autotests/CMakeFiles/kcombobox_unittest.dir/kcombobox_unittest.cpp.o.d -o autotests/CMakeFiles/kcombobox_unittest.dir/kcombobox_unittest.cpp.o -c /tmp/portage/kde-frameworks/kcompletion-5.70.0/work/kcompletion-5.70.0/autotests/kcombobox_unittest.cpp
[27/30] /usr/bin/x86_64-pc-linux-gnu-g++ -DKCOMPLETION_DEPRECATED_WARNINGS_SINCE=0x0 -DKCOMPLETION_DISABLE_DEPRECATED_BEFORE_AND_AT=0x0 -DKF_DEPRECATED_WARNINGS_SINCE=0x060000 -DKF_DISABLE_DEPRECATED_BEFORE_AND_AT=0x054400 -DQT_CORE_LIB -DQT_DEPRECATED_WARNINGS_SINCE=0x060000 -DQT_DISABLE_DEPRECATED_BEFORE=0x050d00 -DQT_GUI_LIB -DQT_NO_CAST_FROM_BYTEARRAY -DQT_NO_DEBUG -DQT_NO_FOREACH -DQT_NO_NARROWING_CONVERSIONS_IN_CONNECT -DQT_NO_SIGNALS_SLOTS_KEYWORDS -DQT_NO_URL_CAST_FROM_STRING -DQT_STRICT_ITERATORS -DQT_TESTCASE_BUILDDIR=\"/tmp/portage/kde-frameworks/kcompletion-5.70.0/work/kcompletion-5.70.0_build\" -DQT_TESTLIB_LIB -DQT_USE_QSTRINGBUILDER -DQT_WIDGETS_LIB -D_GNU_SOURCE -D_LARGEFILE64_SOURCE -Iautotests -I/tmp/portage/kde-frameworks/kcompletion-5.70.0/work/kcompletion-5.70.0/autotests -Iautotests/klineedit_unittest_autogen/include -Isrc -I/tmp/portage/kde-frameworks/kcompletion-5.70.0/work/kcompletion-5.70.0/src -isystem /usr/include/qt5 -isystem /usr/include/qt5/QtTest -isystem /usr/include/qt5/QtCore -isystem /usr/lib64/qt5/mkspecs/linux-g++ -isystem /usr/include/qt5/QtWidgets -isystem /usr/include/qt5/QtGui  -DQT_NO_DEBUG -march=native -O3 -fgraphite-identity -floop-nest-optimize -fdevirtualize-at-ltrans -fipa-pta -fno-semantic-interposition -flto=12 -fno-plt -fno-math-errno -fno-trapping-math -fuse-linker-plugin -pipe -g0 -falign-functions=32 -fno-stack-protector -fno-stack-clash-protection -fstack-check=no -fno-stack-check -Wl,-O4 -Wl,--hash-style=gnu,--sort-common,--as-needed,-lgomp,-lpthread,-z,relro,-z,now -fno-operator-names -fno-exceptions -Wall -Wextra -Wcast-align -Wchar-subscripts -Wformat-security -Wno-long-long -Wpointer-arith -Wundef -Wnon-virtual-dtor -Woverloaded-virtual -Werror=return-type -Wvla -Wdate-time -Wsuggest-override -Wlogical-op -fdiagnostics-color=always -pedantic -Wzero-as-null-pointer-constant -fvisibility=hidden -fvisibility-inlines-hidden   -fPIC -std=gnu++11 -MD -MT autotests/CMakeFiles/klineedit_unittest.dir/klineedit_unittest.cpp.o -MF autotests/CMakeFiles/klineedit_unittest.dir/klineedit_unittest.cpp.o.d -o autotests/CMakeFiles/klineedit_unittest.dir/klineedit_unittest.cpp.o -c /tmp/portage/kde-frameworks/kcompletion-5.70.0/work/kcompletion-5.70.0/autotests/klineedit_unittest.cpp
[28/30] : && /usr/bin/x86_64-pc-linux-gnu-g++  -march=native -O3 -fgraphite-identity -floop-nest-optimize -fdevirtualize-at-ltrans -fipa-pta -fno-semantic-interposition -flto=12 -fno-plt -fno-math-errno -fno-trapping-math -fuse-linker-plugin -pipe -g0 -falign-functions=32 -fno-stack-protector -fno-stack-clash-protection -fstack-check=no -fno-stack-check -Wl,-O4 -Wl,--hash-style=gnu,--sort-common,--as-needed,-lgomp,-lpthread,-z,relro,-z,now -fno-operator-names -fno-exceptions -Wall -Wextra -Wcast-align -Wchar-subscripts -Wformat-security -Wno-long-long -Wpointer-arith -Wundef -Wnon-virtual-dtor -Woverloaded-virtual -Werror=return-type -Wvla -Wdate-time -Wsuggest-override -Wlogical-op -fdiagnostics-color=always -pedantic -Wzero-as-null-pointer-constant  -Wl,--enable-new-dtags -Wl,-O4 -Wl,--hash-style=gnu,--sort-common,--as-needed,-lgomp,-lpthread,-z,relro,-z,now -march=native -O3 -fgraphite-identity -floop-nest-optimize -fdevirtualize-at-ltrans -fipa-pta -fno-semantic-interposition -flto=12 -fno-plt -fno-math-errno -fno-trapping-math -fuse-linker-plugin -pipe -g0 -falign-functions=32 -fno-stack-protector -fno-stack-clash-protection -fstack-check=no -fno-stack-check autotests/CMakeFiles/kcombobox_unittest.dir/kcombobox_unittest_autogen/mocs_compilation.cpp.o autotests/CMakeFiles/kcombobox_unittest.dir/kcombobox_unittest.cpp.o  -o bin/kcombobox_unittest  -Wl,-rpath,/tmp/portage/kde-frameworks/kcompletion-5.70.0/work/kcompletion-5.70.0_build/bin  /usr/lib64/libQt5Test.so.5.15.0  bin/libKF5Completion.so.5.70.0  /usr/lib64/libQt5Widgets.so.5.15.0  /usr/lib64/libQt5Gui.so.5.15.0  /usr/lib64/libQt5Core.so.5.15.0 && :
[29/30] : && /usr/bin/x86_64-pc-linux-gnu-g++  -march=native -O3 -fgraphite-identity -floop-nest-optimize -fdevirtualize-at-ltrans -fipa-pta -fno-semantic-interposition -flto=12 -fno-plt -fno-math-errno -fno-trapping-math -fuse-linker-plugin -pipe -g0 -falign-functions=32 -fno-stack-protector -fno-stack-clash-protection -fstack-check=no -fno-stack-check -Wl,-O4 -Wl,--hash-style=gnu,--sort-common,--as-needed,-lgomp,-lpthread,-z,relro,-z,now -fno-operator-names -fno-exceptions -Wall -Wextra -Wcast-align -Wchar-subscripts -Wformat-security -Wno-long-long -Wpointer-arith -Wundef -Wnon-virtual-dtor -Woverloaded-virtual -Werror=return-type -Wvla -Wdate-time -Wsuggest-override -Wlogical-op -fdiagnostics-color=always -pedantic -Wzero-as-null-pointer-constant  -Wl,--enable-new-dtags -Wl,-O4 -Wl,--hash-style=gnu,--sort-common,--as-needed,-lgomp,-lpthread,-z,relro,-z,now -march=native -O3 -fgraphite-identity -floop-nest-optimize -fdevirtualize-at-ltrans -fipa-pta -fno-semantic-interposition -flto=12 -fno-plt -fno-math-errno -fno-trapping-math -fuse-linker-plugin -pipe -g0 -falign-functions=32 -fno-stack-protector -fno-stack-clash-protection -fstack-check=no -fno-stack-check autotests/CMakeFiles/kcompletioncoretest.dir/kcompletioncoretest_autogen/mocs_compilation.cpp.o autotests/CMakeFiles/kcompletioncoretest.dir/kcompletioncoretest.cpp.o  -o bin/kcompletioncoretest  -Wl,-rpath,/tmp/portage/kde-frameworks/kcompletion-5.70.0/work/kcompletion-5.70.0_build/bin  /usr/lib64/libQt5Test.so.5.15.0  bin/libKF5Completion.so.5.70.0  /usr/lib64/libQt5Widgets.so.5.15.0  /usr/lib64/libQt5Gui.so.5.15.0  /usr/lib64/libQt5Core.so.5.15.0 && :
[30/30] : && /usr/bin/x86_64-pc-linux-gnu-g++  -march=native -O3 -fgraphite-identity -floop-nest-optimize -fdevirtualize-at-ltrans -fipa-pta -fno-semantic-interposition -flto=12 -fno-plt -fno-math-errno -fno-trapping-math -fuse-linker-plugin -pipe -g0 -falign-functions=32 -fno-stack-protector -fno-stack-clash-protection -fstack-check=no -fno-stack-check -Wl,-O4 -Wl,--hash-style=gnu,--sort-common,--as-needed,-lgomp,-lpthread,-z,relro,-z,now -fno-operator-names -fno-exceptions -Wall -Wextra -Wcast-align -Wchar-subscripts -Wformat-security -Wno-long-long -Wpointer-arith -Wundef -Wnon-virtual-dtor -Woverloaded-virtual -Werror=return-type -Wvla -Wdate-time -Wsuggest-override -Wlogical-op -fdiagnostics-color=always -pedantic -Wzero-as-null-pointer-constant  -Wl,--enable-new-dtags -Wl,-O4 -Wl,--hash-style=gnu,--sort-common,--as-needed,-lgomp,-lpthread,-z,relro,-z,now -march=native -O3 -fgraphite-identity -floop-nest-optimize -fdevirtualize-at-ltrans -fipa-pta -fno-semantic-interposition -flto=12 -fno-plt -fno-math-errno -fno-trapping-math -fuse-linker-plugin -pipe -g0 -falign-functions=32 -fno-stack-protector -fno-stack-clash-protection -fstack-check=no -fno-stack-check autotests/CMakeFiles/klineedit_unittest.dir/klineedit_unittest_autogen/mocs_compilation.cpp.o autotests/CMakeFiles/klineedit_unittest.dir/klineedit_unittest.cpp.o  -o bin/klineedit_unittest  -Wl,-rpath,/tmp/portage/kde-frameworks/kcompletion-5.70.0/work/kcompletion-5.70.0_build/bin  /usr/lib64/libQt5Test.so.5.15.0  bin/libKF5Completion.so.5.70.0  /usr/lib64/libQt5Widgets.so.5.15.0  /usr/lib64/libQt5Gui.so.5.15.0  /usr/lib64/libQt5Core.so.5.15.0 && :
>>> Source compiled.
>>> Test phase [not enabled]: kde-frameworks/kcompletion-5.70.0

>>> Install kde-frameworks/kcompletion-5.70.0 into /tmp/portage/kde-frameworks/kcompletion-5.70.0/image
 * Working in BUILD_DIR: "/tmp/portage/kde-frameworks/kcompletion-5.70.0/work/kcompletion-5.70.0_build"
[0/1] Install the project...[K
-- Install configuration: "Gentoo"
-- Installing: /tmp/portage/kde-frameworks/kcompletion-5.70.0/image/usr/lib64/cmake/KF5Completion/KF5CompletionConfig.cmake
-- Installing: /tmp/portage/kde-frameworks/kcompletion-5.70.0/image/usr/lib64/cmake/KF5Completion/KF5CompletionConfigVersion.cmake
-- Installing: /tmp/portage/kde-frameworks/kcompletion-5.70.0/image/usr/lib64/cmake/KF5Completion/KF5CompletionTargets.cmake
-- Installing: /tmp/portage/kde-frameworks/kcompletion-5.70.0/image/usr/lib64/cmake/KF5Completion/KF5CompletionTargets-gentoo.cmake
-- Installing: /tmp/portage/kde-frameworks/kcompletion-5.70.0/image/usr/include/KF5/kcompletion_version.h
-- Installing: /tmp/portage/kde-frameworks/kcompletion-5.70.0/image/usr/lib64/libKF5Completion.so.5.70.0
-- Installing: /tmp/portage/kde-frameworks/kcompletion-5.70.0/image/usr/lib64/libKF5Completion.so.5
-- Installing: /tmp/portage/kde-frameworks/kcompletion-5.70.0/image/usr/lib64/libKF5Completion.so
-- Installing: /tmp/portage/kde-frameworks/kcompletion-5.70.0/image/usr/include/KF5/KCompletion/kcompletion_export.h
-- Installing: /tmp/portage/kde-frameworks/kcompletion-5.70.0/image/usr/include/KF5/KCompletion/KComboBox
-- Installing: /tmp/portage/kde-frameworks/kcompletion-5.70.0/image/usr/include/KF5/KCompletion/KCompletion
-- Installing: /tmp/portage/kde-frameworks/kcompletion-5.70.0/image/usr/include/KF5/KCompletion/KCompletionBase
-- Installing: /tmp/portage/kde-frameworks/kcompletion-5.70.0/image/usr/include/KF5/KCompletion/KCompletionBox
-- Installing: /tmp/portage/kde-frameworks/kcompletion-5.70.0/image/usr/include/KF5/KCompletion/KLineEdit
-- Installing: /tmp/portage/kde-frameworks/kcompletion-5.70.0/image/usr/include/KF5/KCompletion/KHistoryComboBox
-- Installing: /tmp/portage/kde-frameworks/kcompletion-5.70.0/image/usr/include/KF5/KCompletion/KPixmapProvider
-- Installing: /tmp/portage/kde-frameworks/kcompletion-5.70.0/image/usr/include/KF5/KCompletion/KSortableList
-- Installing: /tmp/portage/kde-frameworks/kcompletion-5.70.0/image/usr/include/KF5/KCompletion/KCompletionMatches
-- Installing: /tmp/portage/kde-frameworks/kcompletion-5.70.0/image/usr/include/KF5/KCompletion/kcombobox.h
-- Installing: /tmp/portage/kde-frameworks/kcompletion-5.70.0/image/usr/include/KF5/KCompletion/kcompletion.h
-- Installing: /tmp/portage/kde-frameworks/kcompletion-5.70.0/image/usr/include/KF5/KCompletion/kcompletionbase.h
-- Installing: /tmp/portage/kde-frameworks/kcompletion-5.70.0/image/usr/include/KF5/KCompletion/kcompletionbox.h
-- Installing: /tmp/portage/kde-frameworks/kcompletion-5.70.0/image/usr/include/KF5/KCompletion/klineedit.h
-- Installing: /tmp/portage/kde-frameworks/kcompletion-5.70.0/image/usr/include/KF5/KCompletion/khistorycombobox.h
-- Installing: /tmp/portage/kde-frameworks/kcompletion-5.70.0/image/usr/include/KF5/KCompletion/kpixmapprovider.h
-- Installing: /tmp/portage/kde-frameworks/kcompletion-5.70.0/image/usr/include/KF5/KCompletion/ksortablelist.h
-- Installing: /tmp/portage/kde-frameworks/kcompletion-5.70.0/image/usr/include/KF5/KCompletion/kcompletionmatches.h
-- Installing: /tmp/portage/kde-frameworks/kcompletion-5.70.0/image/usr/lib64/qt5/mkspecs/modules/qt_KCompletion.pri
>>> Completed installing kde-frameworks/kcompletion-5.70.0 into /tmp/portage/kde-frameworks/kcompletion-5.70.0/image

 * Final size of build directory: 4908 KiB (4.7 MiB)
 * Final size of installed tree:   552 KiB

strip: x86_64-pc-linux-gnu-strip --strip-unneeded -N __gentoo_check_ldflags__ -R .comment -R .GCC.command.line -R .note.gnu.gold-version
   /usr/lib64/libKF5Completion.so.5.70.0
./
./usr/
./usr/include/
./usr/include/KF5/
./usr/include/KF5/KCompletion/
./usr/include/KF5/KCompletion/kpixmapprovider.h
./usr/include/KF5/KCompletion/KPixmapProvider
./usr/include/KF5/KCompletion/klineedit.h
./usr/include/KF5/KCompletion/kcompletion_export.h
./usr/include/KF5/KCompletion/kcompletionmatches.h
./usr/include/KF5/KCompletion/KCompletion
./usr/include/KF5/KCompletion/KCompletionMatches
./usr/include/KF5/KCompletion/kcombobox.h
./usr/include/KF5/KCompletion/KHistoryComboBox
./usr/include/KF5/KCompletion/ksortablelist.h
./usr/include/KF5/KCompletion/kcompletionbase.h
./usr/include/KF5/KCompletion/KComboBox
./usr/include/KF5/KCompletion/KSortableList
./usr/include/KF5/KCompletion/KCompletionBase
./usr/include/KF5/KCompletion/kcompletion.h
./usr/include/KF5/KCompletion/khistorycombobox.h
./usr/include/KF5/KCompletion/KLineEdit
./usr/include/KF5/KCompletion/KCompletionBox
./usr/include/KF5/KCompletion/kcompletionbox.h
./usr/include/KF5/kcompletion_version.h
./usr/share/
./usr/share/doc/
./usr/share/doc/kcompletion-5.70.0/
./usr/share/doc/kcompletion-5.70.0/README.md.bz2
./usr/lib64/
./usr/lib64/qt5/
./usr/lib64/qt5/mkspecs/
./usr/lib64/qt5/mkspecs/modules/
./usr/lib64/qt5/mkspecs/modules/qt_KCompletion.pri
./usr/lib64/libKF5Completion.so.5.70.0
./usr/lib64/libKF5Completion.so
./usr/lib64/cmake/
./usr/lib64/cmake/KF5Completion/
./usr/lib64/cmake/KF5Completion/KF5CompletionConfigVersion.cmake
./usr/lib64/cmake/KF5Completion/KF5CompletionConfig.cmake
./usr/lib64/cmake/KF5Completion/KF5CompletionTargets-gentoo.cmake
./usr/lib64/cmake/KF5Completion/KF5CompletionTargets.cmake
./usr/lib64/libKF5Completion.so.5
>>> Done.
 * checking 28 files for package collisions
>>> Merging kde-frameworks/kcompletion-5.70.0 to /
 * removing unneeded *.la files
--- /usr/
--- /usr/lib64/
>>> /usr/lib64/libKF5Completion.so.5 -> libKF5Completion.so.5.70.0
--- /usr/lib64/cmake/
--- /usr/lib64/cmake/KF5Completion/
>>> /usr/lib64/cmake/KF5Completion/KF5CompletionTargets.cmake
>>> /usr/lib64/cmake/KF5Completion/KF5CompletionTargets-gentoo.cmake
>>> /usr/lib64/cmake/KF5Completion/KF5CompletionConfig.cmake
>>> /usr/lib64/cmake/KF5Completion/KF5CompletionConfigVersion.cmake
>>> /usr/lib64/libKF5Completion.so -> libKF5Completion.so.5
>>> /usr/lib64/libKF5Completion.so.5.70.0
--- /usr/lib64/qt5/
--- /usr/lib64/qt5/mkspecs/
--- /usr/lib64/qt5/mkspecs/modules/
>>> /usr/lib64/qt5/mkspecs/modules/qt_KCompletion.pri
--- /usr/include/
--- /usr/include/KF5/
>>> /usr/include/KF5/kcompletion_version.h
--- /usr/include/KF5/KCompletion/
>>> /usr/include/KF5/KCompletion/kcompletionbox.h
>>> /usr/include/KF5/KCompletion/KCompletionBox
>>> /usr/include/KF5/KCompletion/KLineEdit
>>> /usr/include/KF5/KCompletion/khistorycombobox.h
>>> /usr/include/KF5/KCompletion/kcompletion.h
>>> /usr/include/KF5/KCompletion/KCompletionBase
>>> /usr/include/KF5/KCompletion/KSortableList
>>> /usr/include/KF5/KCompletion/KComboBox
>>> /usr/include/KF5/KCompletion/kcompletionbase.h
>>> /usr/include/KF5/KCompletion/ksortablelist.h
>>> /usr/include/KF5/KCompletion/KHistoryComboBox
>>> /usr/include/KF5/KCompletion/kcombobox.h
>>> /usr/include/KF5/KCompletion/KCompletionMatches
>>> /usr/include/KF5/KCompletion/KCompletion
>>> /usr/include/KF5/KCompletion/kcompletionmatches.h
>>> /usr/include/KF5/KCompletion/kcompletion_export.h
>>> /usr/include/KF5/KCompletion/klineedit.h
>>> /usr/include/KF5/KCompletion/KPixmapProvider
>>> /usr/include/KF5/KCompletion/kpixmapprovider.h
>>> Safely unmerging already-installed instance...
>>> Original instance of package unmerged safely.
>>> kde-frameworks/kcompletion-5.70.0 merged.
>>> Regenerating /etc/ld.so.cache...
