>>> Extracting info
 * Package:    kde-frameworks/syntax-highlighting-5.70.0
 * Repository: gentoo
 * USE:        elibc_glibc amd64 test abi_x86_64 kernel_linux userland_GNU
 * FEATURES:   ccache network-sandbox preserve-libs sandbox userpriv usersandbox
 * /etc/portage/package.cflags/ltoworkarounds.conf -> */*: *FLAGS+=-Wl,-O4 *FLAGS-=-Wl,-O1
 * FEATURES='assume-digests binpkg-docompress binpkg-dostrip binpkg-logs binpkg-multi-instance buildpkg ccache cgroup compress-index config-protect-if-modified distlocks fixlafiles ipc-sandbox merge-sync multilib-strict network-sandbox news nodoc parallel-fetch parallel-install pid-sandbox preserve-libs qa-unresolved-soname-deps sandbox sfperms strict strict-keepdir unknown-features-warn unmerge-logs unmerge-orphans userfetch userpriv usersandbox usersync xattr'
 * CFLAGS='-march=znver2 -O3 -fgraphite-identity -floop-nest-optimize -fdevirtualize-at-ltrans -fipa-pta -fno-semantic-interposition -flto=12 -fno-plt -fno-signed-zeros -fno-trapping-math -fassociative-math -freciprocal-math -fno-math-errno -ffinite-math-only -fno-rounding-math -fno-signaling-nans -fcx-limited-range -fexcess-precision=fast -falign-functions=32 -fno-stack-protector -fno-stack-clash-protection -fstack-check=no -fno-stack-check -fuse-linker-plugin -pipe -g0 -Wl,--as-needed -Wl,-z,norelro -Wl,-z,now -Wl,--sort-common -s -Wl,-O4'
 * CXXFLAGS='-march=znver2 -O3 -fgraphite-identity -floop-nest-optimize -fdevirtualize-at-ltrans -fipa-pta -fno-semantic-interposition -flto=12 -fno-plt -fno-signed-zeros -fno-trapping-math -fassociative-math -freciprocal-math -fno-math-errno -ffinite-math-only -fno-rounding-math -fno-signaling-nans -fcx-limited-range -fexcess-precision=fast -falign-functions=32 -fno-stack-protector -fno-stack-clash-protection -fstack-check=no -fno-stack-check -fuse-linker-plugin -pipe -g0 -Wl,--as-needed -Wl,-z,norelro -Wl,-z,now -Wl,--sort-common -s -Wl,-O4'
 * CPPFLAGS='-DQT_NO_DEBUG'
 * FFLAGS='-march=znver2 -O3 -fgraphite-identity -floop-nest-optimize -fdevirtualize-at-ltrans -fipa-pta -fno-semantic-interposition -flto=12 -fno-plt -fno-signed-zeros -fno-trapping-math -fassociative-math -freciprocal-math -fno-math-errno -ffinite-math-only -fno-rounding-math -fno-signaling-nans -fcx-limited-range -fexcess-precision=fast -falign-functions=32 -fno-stack-protector -fno-stack-clash-protection -fstack-check=no -fno-stack-check -fuse-linker-plugin -pipe -g0 -Wl,--as-needed -Wl,-z,norelro -Wl,-z,now -Wl,--sort-common -s -Wl,-O4'
 * FCFLAGS='-march=znver2 -O3 -fgraphite-identity -floop-nest-optimize -fdevirtualize-at-ltrans -fipa-pta -fno-semantic-interposition -flto=12 -fno-plt -fno-signed-zeros -fno-trapping-math -fassociative-math -freciprocal-math -fno-math-errno -ffinite-math-only -fno-rounding-math -fno-signaling-nans -fcx-limited-range -fexcess-precision=fast -falign-functions=32 -fno-stack-protector -fno-stack-clash-protection -fstack-check=no -fno-stack-check -fuse-linker-plugin -pipe -g0 -Wl,--as-needed -Wl,-z,norelro -Wl,-z,now -Wl,--sort-common -s -Wl,-O4'
 * F77FLAGS='-march=znver2 -O3 -fgraphite-identity -floop-nest-optimize -fdevirtualize-at-ltrans -fipa-pta -fno-semantic-interposition -flto=12 -fno-plt -fno-signed-zeros -fno-trapping-math -fassociative-math -freciprocal-math -fno-math-errno -ffinite-math-only -fno-rounding-math -fno-signaling-nans -fcx-limited-range -fexcess-precision=fast -falign-functions=32 -fno-stack-protector -fno-stack-clash-protection -fstack-check=no -fno-stack-check -fuse-linker-plugin -pipe -g0 -Wl,--as-needed -Wl,-z,norelro -Wl,-z,now -Wl,--sort-common -s -Wl,-O4'
 * LDFLAGS='-Wl,--as-needed -Wl,-z,norelro -Wl,-z,now -Wl,--sort-common -s -march=znver2 -O3 -fgraphite-identity -floop-nest-optimize -fdevirtualize-at-ltrans -fipa-pta -fno-semantic-interposition -flto=12 -fno-plt -fno-signed-zeros -fno-trapping-math -fassociative-math -freciprocal-math -fno-math-errno -ffinite-math-only -fno-rounding-math -fno-signaling-nans -fcx-limited-range -fexcess-precision=fast -falign-functions=32 -fno-stack-protector -fno-stack-clash-protection -fstack-check=no -fno-stack-check -fuse-linker-plugin -pipe -g0 -Wl,-O4'
 * MAKEOPTS='-j12 -l12'
 * gcc () 11.0.0 20200601 (experimental)
 * g++ () 11.0.0 20200601 (experimental)
 * GNU ld (Gentoo 2.34 p4) 2.34.0
 * Linux ryzen.gnum.org 5.4.36 #1 SMP Thu Apr 30 04:38:28 UTC 2020 x86_64 AMD Ryzen 5 3600 6-Core Processor AuthenticAMD GNU/Linux
kde-frameworks/syntax-highlighting: 38 seconds average for 6 merges
2020-05-20T06:13:10 >>> kde-frameworks/syntax-highlighting: 33 seconds
2020-05-28T06:06:57 >>> kde-frameworks/syntax-highlighting: 30 seconds
2020-05-29T06:04:13 >>> kde-frameworks/syntax-highlighting: 15 seconds
2020-05-30T05:28:12 >>> kde-frameworks/syntax-highlighting: 37 seconds
2020-05-31T23:38:55 >>> kde-frameworks/syntax-highlighting: 59 seconds
2020-06-01T10:18:13 >>> kde-frameworks/syntax-highlighting: 54 seconds
]0;emerge 02:26:07 42|484 syntax-highlighting 00:50 (root@ryzen.gnum.org)kemerge 02:26:07 42|484 syntax-highlighting 00:50 (root@ryzen.gnum.org)\>>> Extracting kde-frameworks/syntax-highlighting-5.70.0
 * checking 31 files for package collisions
>>> Merging kde-frameworks/syntax-highlighting-5.70.0 to /
 * removing unneeded *.la files
--- /usr/
--- /usr/lib64/
>>> /usr/lib64/libKF5SyntaxHighlighting.so.5.70.0
>>> /usr/lib64/libKF5SyntaxHighlighting.so -> libKF5SyntaxHighlighting.so.5
--- /usr/lib64/cmake/
--- /usr/lib64/cmake/KF5SyntaxHighlighting/
>>> /usr/lib64/cmake/KF5SyntaxHighlighting/KF5SyntaxHighlightingConfig.cmake
>>> /usr/lib64/cmake/KF5SyntaxHighlighting/KF5SyntaxHighlightingConfigVersion.cmake
>>> /usr/lib64/cmake/KF5SyntaxHighlighting/KF5SyntaxHighlightingTargets.cmake
>>> /usr/lib64/cmake/KF5SyntaxHighlighting/KF5SyntaxHighlightingTargets-gentoo.cmake
>>> /usr/lib64/libKF5SyntaxHighlighting.so.5 -> libKF5SyntaxHighlighting.so.5.70.0
--- /usr/lib64/qt5/
--- /usr/lib64/qt5/mkspecs/
--- /usr/lib64/qt5/mkspecs/modules/
>>> /usr/lib64/qt5/mkspecs/modules/qt_KSyntaxHighlighting.pri
--- /usr/share/
--- /usr/share/qlogging-categories5/
>>> /usr/share/qlogging-categories5/ksyntaxhighlighting.categories
--- /usr/include/
--- /usr/include/KF5/
--- /usr/include/KF5/KSyntaxHighlighting/
>>> /usr/include/KF5/KSyntaxHighlighting/State
>>> /usr/include/KF5/KSyntaxHighlighting/definition.h
>>> /usr/include/KF5/KSyntaxHighlighting/abstracthighlighter.h
>>> /usr/include/KF5/KSyntaxHighlighting/state.h
>>> /usr/include/KF5/KSyntaxHighlighting/Definition
>>> /usr/include/KF5/KSyntaxHighlighting/FoldingRegion
>>> /usr/include/KF5/KSyntaxHighlighting/ksyntaxhighlighting_export.h
>>> /usr/include/KF5/KSyntaxHighlighting/Format
>>> /usr/include/KF5/KSyntaxHighlighting/DefinitionDownloader
>>> /usr/include/KF5/KSyntaxHighlighting/definitiondownloader.h
>>> /usr/include/KF5/KSyntaxHighlighting/format.h
>>> /usr/include/KF5/KSyntaxHighlighting/AbstractHighlighter
>>> /usr/include/KF5/KSyntaxHighlighting/SyntaxHighlighter
>>> /usr/include/KF5/KSyntaxHighlighting/syntaxhighlighter.h
>>> /usr/include/KF5/KSyntaxHighlighting/foldingregion.h
>>> /usr/include/KF5/KSyntaxHighlighting/repository.h
>>> /usr/include/KF5/KSyntaxHighlighting/theme.h
>>> /usr/include/KF5/KSyntaxHighlighting/Theme
>>> /usr/include/KF5/KSyntaxHighlighting/Repository
>>> /usr/include/KF5/ksyntaxhighlighting_version.h
--- /usr/bin/
>>> /usr/bin/katehighlightingindexer
>>> /usr/bin/kate-syntax-highlighter
>>> Safely unmerging already-installed instance...
>>> Original instance of package unmerged safely.
>>> kde-frameworks/syntax-highlighting-5.70.0 merged.
>>> Regenerating /etc/ld.so.cache...
