No package files given... Grabbing a set.
--- replaced obj /usr/share/qlogging-categories5/kservice.categories
--- replaced dir /usr/share/qlogging-categories5
--- replaced obj /usr/share/man/man8/kbuildsycoca5.8.bz2
--- replaced obj /usr/share/man/man8/desktoptojson.8.bz2
--- replaced dir /usr/share/man/man8
--- replaced dir /usr/share/man
--- replaced obj /usr/share/kservicetypes5/kplugininfo.desktop
--- replaced obj /usr/share/kservicetypes5/application.desktop
--- replaced dir /usr/share/kservicetypes5
--- replaced dir /usr/share
--- replaced obj /usr/lib64/qt5/mkspecs/modules/qt_KService.pri
--- replaced dir /usr/lib64/qt5/mkspecs/modules
--- replaced dir /usr/lib64/qt5/mkspecs
--- replaced dir /usr/lib64/qt5
--- replaced obj /usr/lib64/libKF5Service.so.5.70.0
--- replaced sym /usr/lib64/libKF5Service.so.5
--- replaced sym /usr/lib64/libKF5Service.so
--- replaced obj /usr/lib64/cmake/KF5Service/KF5ServiceTargets.cmake
--- replaced obj /usr/lib64/cmake/KF5Service/KF5ServiceTargets-gentoo.cmake
--- replaced obj /usr/lib64/cmake/KF5Service/KF5ServiceMacros.cmake
--- replaced obj /usr/lib64/cmake/KF5Service/KF5ServiceConfigVersion.cmake
--- replaced obj /usr/lib64/cmake/KF5Service/KF5ServiceConfig.cmake
--- replaced dir /usr/lib64/cmake/KF5Service
--- replaced dir /usr/lib64/cmake
--- replaced dir /usr/lib64
--- replaced obj /usr/include/KF5/kservice_version.h
--- replaced obj /usr/include/KF5/KService/ktoolinvocation.h
--- replaced obj /usr/include/KF5/KService/ksycocatype.h
--- replaced obj /usr/include/KF5/KService/ksycocaentry.h
--- replaced obj /usr/include/KF5/KService/ksycoca.h
--- replaced obj /usr/include/KF5/KService/kservicetypetrader.h
--- replaced obj /usr/include/KF5/KService/kservicetypeprofile.h
--- replaced obj /usr/include/KF5/KService/kservicetype.h
--- replaced obj /usr/include/KF5/KService/kservicegroup.h
--- replaced obj /usr/include/KF5/KService/kserviceaction.h
--- replaced obj /usr/include/KF5/KService/kservice_export.h
--- replaced obj /usr/include/KF5/KService/kservice.h
--- replaced obj /usr/include/KF5/KService/kplugintrader.h
--- replaced obj /usr/include/KF5/KService/kplugininfo.h
--- replaced obj /usr/include/KF5/KService/kmimetypetrader.h
--- replaced obj /usr/include/KF5/KService/kdbusservicestarter.h
--- replaced obj /usr/include/KF5/KService/kautostart.h
--- replaced obj /usr/include/KF5/KService/kapplicationtrader.h
--- replaced obj /usr/include/KF5/KService/KToolInvocation
--- replaced obj /usr/include/KF5/KService/KSycocaType
--- replaced obj /usr/include/KF5/KService/KSycocaEntry
--- replaced obj /usr/include/KF5/KService/KSycoca
--- replaced obj /usr/include/KF5/KService/KServiceTypeTrader
--- replaced obj /usr/include/KF5/KService/KServiceTypeProfile
--- replaced obj /usr/include/KF5/KService/KServiceType
--- replaced obj /usr/include/KF5/KService/KServiceGroup
--- replaced obj /usr/include/KF5/KService/KServiceAction
--- replaced obj /usr/include/KF5/KService/KService
--- replaced obj /usr/include/KF5/KService/KPluginTrader
--- replaced obj /usr/include/KF5/KService/KPluginInfo
--- replaced obj /usr/include/KF5/KService/KMimeTypeTrader
--- replaced obj /usr/include/KF5/KService/KDBusServiceStarter
--- replaced obj /usr/include/KF5/KService/KAutostart
--- replaced obj /usr/include/KF5/KService/KApplicationTrader
--- replaced dir /usr/include/KF5/KService
--- replaced dir /usr/include/KF5
--- replaced dir /usr/include
--- replaced obj /usr/bin/kbuildsycoca5
--- replaced dir /usr/bin
--- replaced dir /usr
--- replaced obj /etc/xdg/menus/kf5-applications.menu
--- replaced sym /etc/xdg/menus/applications.menu
--- replaced dir /etc/xdg/menus
--- replaced dir /etc/xdg
--- replaced dir /etc
--- !empty   dir /usr/share/locale
>>> Regenerating /etc/ld.so.cache...
