 * Package:    kde-frameworks/knotifyconfig-5.70.0
 * Repository: gentoo
 * Maintainer: kde@gentoo.org
 * USE:        abi_x86_64 amd64 elibc_glibc kernel_linux userland_GNU
 * FEATURES:   ccache network-sandbox preserve-libs sandbox userpriv usersandbox
 * FEATURES='assume-digests binpkg-docompress binpkg-dostrip binpkg-logs binpkg-multi-instance buildpkg ccache cgroup compress-index config-protect-if-modified distlocks downgrade-backup fixlafiles ipc-sandbox merge-sync multilib-strict network-sandbox news nodoc parallel-fetch parallel-install pid-sandbox preserve-libs qa-unresolved-soname-deps sandbox sfperms strict unknown-features-warn unmerge-backup unmerge-logs unmerge-orphans userfetch userpriv usersandbox usersync xattr'
 * CFLAGS='-march=native -O3 -fgraphite-identity -floop-nest-optimize -fdevirtualize-at-ltrans -fipa-pta -fno-semantic-interposition -flto=12 -fno-signed-zeros -fno-trapping-math -fassociative-math -freciprocal-math -fno-math-errno -ffinite-math-only -fno-rounding-math -fno-signaling-nans -fcx-limited-range -fexcess-precision=fast -fno-plt -fno-common -fuse-linker-plugin -pipe -g0 -fno-stack-protector -fno-stack-clash-protection -fstack-check=no -fno-stack-check -Wl,-O4,--hash-style=gnu,--sort-common,--as-needed,-z,relro,-z,now,-lgomp,-lpthread'
 * CXXFLAGS='-march=native -O3 -fgraphite-identity -floop-nest-optimize -fdevirtualize-at-ltrans -fipa-pta -fno-semantic-interposition -flto=12 -fno-signed-zeros -fno-trapping-math -fassociative-math -freciprocal-math -fno-math-errno -ffinite-math-only -fno-rounding-math -fno-signaling-nans -fcx-limited-range -fexcess-precision=fast -fno-plt -fno-common -fuse-linker-plugin -pipe -g0 -fno-stack-protector -fno-stack-clash-protection -fstack-check=no -fno-stack-check -Wl,-O4,--hash-style=gnu,--sort-common,--as-needed,-z,relro,-z,now,-lgomp,-lpthread'
 * FFLAGS='-march=native -O3 -fgraphite-identity -floop-nest-optimize -fdevirtualize-at-ltrans -fipa-pta -fno-semantic-interposition -flto=12 -fno-signed-zeros -fno-trapping-math -fassociative-math -freciprocal-math -fno-math-errno -ffinite-math-only -fno-rounding-math -fno-signaling-nans -fcx-limited-range -fexcess-precision=fast -fno-plt -fno-common -fuse-linker-plugin -pipe -g0 -fno-stack-protector -fno-stack-clash-protection -fstack-check=no -fno-stack-check -Wl,-O4,--hash-style=gnu,--sort-common,--as-needed,-z,relro,-z,now,-lgomp,-lpthread'
 * FCFLAGS='-march=native -O3 -fgraphite-identity -floop-nest-optimize -fdevirtualize-at-ltrans -fipa-pta -fno-semantic-interposition -flto=12 -fno-signed-zeros -fno-trapping-math -fassociative-math -freciprocal-math -fno-math-errno -ffinite-math-only -fno-rounding-math -fno-signaling-nans -fcx-limited-range -fexcess-precision=fast -fno-plt -fno-common -fuse-linker-plugin -pipe -g0 -fno-stack-protector -fno-stack-clash-protection -fstack-check=no -fno-stack-check -Wl,-O4,--hash-style=gnu,--sort-common,--as-needed,-z,relro,-z,now,-lgomp,-lpthread'
 * F77FLAGS='-march=native -O3 -fgraphite-identity -floop-nest-optimize -fdevirtualize-at-ltrans -fipa-pta -fno-semantic-interposition -flto=12 -fno-signed-zeros -fno-trapping-math -fassociative-math -freciprocal-math -fno-math-errno -ffinite-math-only -fno-rounding-math -fno-signaling-nans -fcx-limited-range -fexcess-precision=fast -fno-plt -fno-common -fuse-linker-plugin -pipe -g0 -fno-stack-protector -fno-stack-clash-protection -fstack-check=no -fno-stack-check -Wl,-O4,--hash-style=gnu,--sort-common,--as-needed,-z,relro,-z,now,-lgomp,-lpthread'
 * LDFLAGS='-Wl,-O4,--hash-style=gnu,--sort-common,--as-needed,-z,relro,-z,now,-lgomp,-lpthread -march=native -O3 -fgraphite-identity -floop-nest-optimize -fdevirtualize-at-ltrans -fipa-pta -fno-semantic-interposition -flto=12 -fno-signed-zeros -fno-trapping-math -fassociative-math -freciprocal-math -fno-math-errno -ffinite-math-only -fno-rounding-math -fno-signaling-nans -fcx-limited-range -fexcess-precision=fast -fno-plt -fno-common -fuse-linker-plugin -pipe -g0 -fno-stack-protector -fno-stack-clash-protection -fstack-check=no -fno-stack-check'
 * MAKEOPTS='-j12'
 * gcc (Gentoo 10.1.0 p1) 10.1.0
 * g++ (Gentoo 10.1.0 p1) 10.1.0
 * GNU ld (Gentoo 2.34 p1) 2.34.0
 * Linux ryzen.gnum.org 5.4.36 #1 SMP Thu Apr 30 04:38:28 UTC 2020 x86_64 AMD Ryzen 5 3600 6-Core Processor AuthenticAMD GNU/Linux
]0;emerge 06:17:45 6|24 knotifyconfig (root@ryzen.gnum.org)>>> Unpacking source...
>>> Unpacking knotifyconfig-5.70.0.tar.xz to /tmp/portage/kde-frameworks/knotifyconfig-5.70.0/work
>>> Source unpacked in /tmp/portage/kde-frameworks/knotifyconfig-5.70.0/work
>>> Preparing source in /tmp/portage/kde-frameworks/knotifyconfig-5.70.0/work/knotifyconfig-5.70.0 ...
 * Working in BUILD_DIR: "/tmp/portage/kde-frameworks/knotifyconfig-5.70.0/work/knotifyconfig-5.70.0_build"
>>> Source prepared.
>>> Configuring source in /tmp/portage/kde-frameworks/knotifyconfig-5.70.0/work/knotifyconfig-5.70.0 ...
 * Working in BUILD_DIR: "/tmp/portage/kde-frameworks/knotifyconfig-5.70.0/work/knotifyconfig-5.70.0_build"
cmake -C /tmp/portage/kde-frameworks/knotifyconfig-5.70.0/work/knotifyconfig-5.70.0_build/gentoo_common_config.cmake -G Ninja -DCMAKE_INSTALL_PREFIX=/usr -DBUILD_QCH=no -DKDE_INSTALL_USE_QT_SYS_PATHS=ON -DKDE_INSTALL_DOCBUNDLEDIR=/usr/share/help -DCMAKE_DISABLE_FIND_PACKAGE_Canberra=OFF -DCMAKE_BUILD_TYPE=Gentoo -DCMAKE_TOOLCHAIN_FILE=/tmp/portage/kde-frameworks/knotifyconfig-5.70.0/work/knotifyconfig-5.70.0_build/gentoo_toolchain.cmake  /tmp/portage/kde-frameworks/knotifyconfig-5.70.0/work/knotifyconfig-5.70.0
loading initial cache file /tmp/portage/kde-frameworks/knotifyconfig-5.70.0/work/knotifyconfig-5.70.0_build/gentoo_common_config.cmake
-- The C compiler identification is GNU 10.1.0
-- The CXX compiler identification is GNU 10.1.0
-- Check for working C compiler: /usr/lib/ccache/bin/x86_64-pc-linux-gnu-gcc
-- Check for working C compiler: /usr/lib/ccache/bin/x86_64-pc-linux-gnu-gcc - works
-- Detecting C compiler ABI info
-- Detecting C compiler ABI info - done
-- Detecting C compile features
-- Detecting C compile features - done
-- Check for working CXX compiler: /usr/lib/ccache/bin/x86_64-pc-linux-gnu-g++
-- Check for working CXX compiler: /usr/lib/ccache/bin/x86_64-pc-linux-gnu-g++ - works
-- Detecting CXX compiler ABI info
-- Detecting CXX compiler ABI info - done
-- Detecting CXX compile features
-- Detecting CXX compile features - done
-- 

-- Qt5TextToSpeech not found, speech features will be disabled
-- Looking for __GLIBC__
-- Looking for __GLIBC__ - found
-- Performing Test _OFFT_IS_64BIT
-- Performing Test _OFFT_IS_64BIT - Success
-- Performing Test HAVE_DATE_TIME
-- Performing Test HAVE_DATE_TIME - Success
-- Could not set up the appstream test. appstreamcli is missing.
-- Found Gettext: /usr/bin/msgmerge (found version "0.20.2") 
-- Found Canberra: /usr/lib64/libcanberra.so (found version "0.30") 
-- Performing Test COMPILER_HAS_HIDDEN_VISIBILITY
-- Performing Test COMPILER_HAS_HIDDEN_VISIBILITY - Success
-- Performing Test COMPILER_HAS_HIDDEN_INLINE_VISIBILITY
-- Performing Test COMPILER_HAS_HIDDEN_INLINE_VISIBILITY - Success
-- Performing Test COMPILER_HAS_DEPRECATED_ATTR
-- Performing Test COMPILER_HAS_DEPRECATED_ATTR - Success
-- The following OPTIONAL packages have been found:

 * Canberra, Event sound library, <http://0pointer.de/lennart/projects/libcanberra>
   Needed to preview notification sounds

-- The following REQUIRED packages have been found:

 * ECM (required version >= 5.70.0), Extra CMake Modules., <https://commits.kde.org/extra-cmake-modules>
 * Qt5Gui (required version >= 5.15.0)
 * Qt5 (required version >= 5.12.0)
 * Gettext
 * KF5I18n (required version >= 5.70.0)
 * KF5Service (required version >= 5.70.0)
 * KF5Completion (required version >= 5.70.0)
 * KF5ItemViews (required version >= 5.70.0)
 * KF5JobWidgets (required version >= 5.70.0)
 * KF5Solid (required version >= 5.70.0)
 * KF5CoreAddons (required version >= 5.70.0)
 * KF5Auth (required version >= 5.70.0)
 * KF5Codecs (required version >= 5.70.0)
 * KF5WidgetsAddons (required version >= 5.70.0)
 * KF5ConfigWidgets (required version >= 5.70.0)
 * KF5XmlGui (required version >= 5.70.0)
 * Qt5Widgets (required version >= 5.12.0)
 * KF5WindowSystem (required version >= 5.70.0)
 * Qt5DBus (required version >= 5.12.0)
 * KF5KIO (required version >= 5.70.0)
 * Qt5Core

-- The following features have been disabled:

 * QCH, API documentation in QCH format (for e.g. Qt Assistant, Qt Creator & KDevelop)

-- <<< Gentoo configuration >>>
Build type      Gentoo
Install path    /usr
Compiler flags:
C               -march=native -O3 -fgraphite-identity -floop-nest-optimize -fdevirtualize-at-ltrans -fipa-pta -fno-semantic-interposition -flto=12 -fno-signed-zeros -fno-trapping-math -fassociative-math -freciprocal-math -fno-math-errno -ffinite-math-only -fno-rounding-math -fno-signaling-nans -fcx-limited-range -fexcess-precision=fast -fno-plt -fno-common -fuse-linker-plugin -pipe -g0 -fno-stack-protector -fno-stack-clash-protection -fstack-check=no -fno-stack-check -Wl,-O4,--hash-style=gnu,--sort-common,--as-needed,-z,relro,-z,now,-lgomp,-lpthread -fno-common -Wall -Wextra -Wcast-align -Wchar-subscripts -Wformat-security -Wno-long-long -Wpointer-arith -Wundef -Wmissing-format-attribute -Wwrite-strings -Werror=implicit-function-declaration
C++             -march=native -O3 -fgraphite-identity -floop-nest-optimize -fdevirtualize-at-ltrans -fipa-pta -fno-semantic-interposition -flto=12 -fno-signed-zeros -fno-trapping-math -fassociative-math -freciprocal-math -fno-math-errno -ffinite-math-only -fno-rounding-math -fno-signaling-nans -fcx-limited-range -fexcess-precision=fast -fno-plt -fno-common -fuse-linker-plugin -pipe -g0 -fno-stack-protector -fno-stack-clash-protection -fstack-check=no -fno-stack-check -Wl,-O4,--hash-style=gnu,--sort-common,--as-needed,-z,relro,-z,now,-lgomp,-lpthread -fno-operator-names -fno-exceptions -Wall -Wextra -Wcast-align -Wchar-subscripts -Wformat-security -Wno-long-long -Wpointer-arith -Wundef -Wnon-virtual-dtor -Woverloaded-virtual -Werror=return-type -Wvla -Wdate-time -Wsuggest-override -Wlogical-op -fdiagnostics-color=always -pedantic -Wzero-as-null-pointer-constant
Linker flags:
Executable      -Wl,--enable-new-dtags -Wl,-O4,--hash-style=gnu,--sort-common,--as-needed,-z,relro,-z,now,-lgomp,-lpthread -march=native -O3 -fgraphite-identity -floop-nest-optimize -fdevirtualize-at-ltrans -fipa-pta -fno-semantic-interposition -flto=12 -fno-signed-zeros -fno-trapping-math -fassociative-math -freciprocal-math -fno-math-errno -ffinite-math-only -fno-rounding-math -fno-signaling-nans -fcx-limited-range -fexcess-precision=fast -fno-plt -fno-common -fuse-linker-plugin -pipe -g0 -fno-stack-protector -fno-stack-clash-protection -fstack-check=no -fno-stack-check
Module          -Wl,--no-undefined -Wl,--enable-new-dtags -Wl,-O4,--hash-style=gnu,--sort-common,--as-needed,-z,relro,-z,now,-lgomp,-lpthread -march=native -O3 -fgraphite-identity -floop-nest-optimize -fdevirtualize-at-ltrans -fipa-pta -fno-semantic-interposition -flto=12 -fno-signed-zeros -fno-trapping-math -fassociative-math -freciprocal-math -fno-math-errno -ffinite-math-only -fno-rounding-math -fno-signaling-nans -fcx-limited-range -fexcess-precision=fast -fno-plt -fno-common -fuse-linker-plugin -pipe -g0 -fno-stack-protector -fno-stack-clash-protection -fstack-check=no -fno-stack-check
Shared          -Wl,--no-undefined -Wl,--enable-new-dtags -Wl,-O4,--hash-style=gnu,--sort-common,--as-needed,-z,relro,-z,now,-lgomp,-lpthread -march=native -O3 -fgraphite-identity -floop-nest-optimize -fdevirtualize-at-ltrans -fipa-pta -fno-semantic-interposition -flto=12 -fno-signed-zeros -fno-trapping-math -fassociative-math -freciprocal-math -fno-math-errno -ffinite-math-only -fno-rounding-math -fno-signaling-nans -fcx-limited-range -fexcess-precision=fast -fno-plt -fno-common -fuse-linker-plugin -pipe -g0 -fno-stack-protector -fno-stack-clash-protection -fstack-check=no -fno-stack-check

-- Configuring done
-- Generating done
-- Build files have been written to: /tmp/portage/kde-frameworks/knotifyconfig-5.70.0/work/knotifyconfig-5.70.0_build
>>> Source configured.
>>> Compiling source in /tmp/portage/kde-frameworks/knotifyconfig-5.70.0/work/knotifyconfig-5.70.0 ...
 * Working in BUILD_DIR: "/tmp/portage/kde-frameworks/knotifyconfig-5.70.0/work/knotifyconfig-5.70.0_build"
ninja -v -j12 -l0
[1/11] cd /tmp/portage/kde-frameworks/knotifyconfig-5.70.0/work/knotifyconfig-5.70.0_build && /usr/bin/cmake -DGETTEXT_MSGFMT_EXECUTABLE=/usr/bin/msgfmt -DCOPY_TO=/tmp/portage/kde-frameworks/knotifyconfig-5.70.0/work/knotifyconfig-5.70.0_build/locale -DPO_DIR=/tmp/portage/kde-frameworks/knotifyconfig-5.70.0/work/knotifyconfig-5.70.0/po -P /usr/lib64/cmake/KF5I18n/build-pofiles.cmake
[2/11] cd /tmp/portage/kde-frameworks/knotifyconfig-5.70.0/work/knotifyconfig-5.70.0_build && /usr/bin/cmake -DPYTHON_EXECUTABLE=/usr/bin/python -D_ki18n_pmap_compile_script=/usr/lib64/cmake/KF5I18n/ts-pmap-compile.py -DCOPY_TO=/tmp/portage/kde-frameworks/knotifyconfig-5.70.0/work/knotifyconfig-5.70.0_build/locale -DPO_DIR=/tmp/portage/kde-frameworks/knotifyconfig-5.70.0/work/knotifyconfig-5.70.0/po -P /usr/lib64/cmake/KF5I18n/build-tsfiles.cmake
[3/11] cd /tmp/portage/kde-frameworks/knotifyconfig-5.70.0/work/knotifyconfig-5.70.0_build/src && /usr/bin/cmake -E cmake_autogen /tmp/portage/kde-frameworks/knotifyconfig-5.70.0/work/knotifyconfig-5.70.0_build/src/CMakeFiles/KF5NotifyConfig_autogen.dir/AutogenInfo.json Gentoo && /usr/bin/cmake -E touch /tmp/portage/kde-frameworks/knotifyconfig-5.70.0/work/knotifyconfig-5.70.0_build/src/KF5NotifyConfig_autogen/timestamp
[4/11] cd /tmp/portage/kde-frameworks/knotifyconfig-5.70.0/work/knotifyconfig-5.70.0_build/src && /usr/bin/cmake -DKDE_UIC_EXECUTABLE:FILEPATH=/usr/lib64/qt5/bin/uic -DKDE_UIC_FILE:FILEPATH=/tmp/portage/kde-frameworks/knotifyconfig-5.70.0/work/knotifyconfig-5.70.0/src/knotifyconfigactionswidgetbase.ui -DKDE_UIC_H_FILE:FILEPATH=/tmp/portage/kde-frameworks/knotifyconfig-5.70.0/work/knotifyconfig-5.70.0_build/src/ui_knotifyconfigactionswidgetbase.h -DKDE_UIC_BASENAME:STRING=knotifyconfigactionswidgetbase -P /usr/lib64/cmake/KF5I18n/kf5i18nuic.cmake
[5/11] /usr/lib/ccache/bin/x86_64-pc-linux-gnu-g++ -DKCOREADDONS_LIB -DKF5NotifyConfig_EXPORTS -DKF_DEPRECATED_WARNINGS_SINCE=0x060000 -DKF_DISABLE_DEPRECATED_BEFORE_AND_AT=0x054400 -DQT_CONCURRENT_LIB -DQT_CORE_LIB -DQT_DBUS_LIB -DQT_DEPRECATED_WARNINGS_SINCE=0x060000 -DQT_DISABLE_DEPRECATED_BEFORE=0x050d00 -DQT_GUI_LIB -DQT_NETWORK_LIB -DQT_NO_CAST_FROM_ASCII -DQT_NO_CAST_FROM_BYTEARRAY -DQT_NO_CAST_TO_ASCII -DQT_NO_DEBUG -DQT_NO_NARROWING_CONVERSIONS_IN_CONNECT -DQT_NO_SIGNALS_SLOTS_KEYWORDS -DQT_NO_URL_CAST_FROM_STRING -DQT_STRICT_ITERATORS -DQT_USE_QSTRINGBUILDER -DQT_WIDGETS_LIB -DTRANSLATION_DOMAIN=\"knotifyconfig5\" -D_GNU_SOURCE -D_LARGEFILE64_SOURCE -Isrc -I/tmp/portage/kde-frameworks/knotifyconfig-5.70.0/work/knotifyconfig-5.70.0/src -Isrc/KF5NotifyConfig_autogen/include -isystem /usr/include/qt5 -isystem /usr/include/qt5/QtWidgets -isystem /usr/include/qt5/QtGui -isystem /usr/include/qt5/QtCore -isystem /usr/lib64/qt5/mkspecs/linux-g++ -isystem /usr/include/KF5/KI18n -isystem /usr/include/KF5 -isystem /usr/include/KF5/KIOWidgets -isystem /usr/include/KF5/KIOGui -isystem /usr/include/KF5/KIOCore -isystem /usr/include/KF5/KCoreAddons -isystem /usr/include/KF5/KService -isystem /usr/include/KF5/KConfigCore -isystem /usr/include/qt5/QtNetwork -isystem /usr/include/qt5/QtConcurrent -isystem /usr/include/qt5/QtDBus -isystem /usr/include/KF5/KWindowSystem -isystem /usr/include/KF5/KJobWidgets -isystem /usr/include/KF5/KCompletion -isystem /usr/include/KF5/KWidgetsAddons  -DQT_NO_DEBUG -march=native -O3 -fgraphite-identity -floop-nest-optimize -fdevirtualize-at-ltrans -fipa-pta -fno-semantic-interposition -flto=12 -fno-signed-zeros -fno-trapping-math -fassociative-math -freciprocal-math -fno-math-errno -ffinite-math-only -fno-rounding-math -fno-signaling-nans -fcx-limited-range -fexcess-precision=fast -fno-plt -fno-common -fuse-linker-plugin -pipe -g0 -fno-stack-protector -fno-stack-clash-protection -fstack-check=no -fno-stack-check -Wl,-O4,--hash-style=gnu,--sort-common,--as-needed,-z,relro,-z,now,-lgomp,-lpthread -fno-operator-names -fno-exceptions -Wall -Wextra -Wcast-align -Wchar-subscripts -Wformat-security -Wno-long-long -Wpointer-arith -Wundef -Wnon-virtual-dtor -Woverloaded-virtual -Werror=return-type -Wvla -Wdate-time -Wsuggest-override -Wlogical-op -fdiagnostics-color=always -pedantic -Wzero-as-null-pointer-constant -fPIC -fvisibility=hidden -fvisibility-inlines-hidden   -fPIC -D_REENTRANT -std=gnu++11 -MD -MT src/CMakeFiles/KF5NotifyConfig.dir/knotifyconfigelement.cpp.o -MF src/CMakeFiles/KF5NotifyConfig.dir/knotifyconfigelement.cpp.o.d -o src/CMakeFiles/KF5NotifyConfig.dir/knotifyconfigelement.cpp.o -c /tmp/portage/kde-frameworks/knotifyconfig-5.70.0/work/knotifyconfig-5.70.0/src/knotifyconfigelement.cpp
[6/11] /usr/lib/ccache/bin/x86_64-pc-linux-gnu-g++ -DKCOREADDONS_LIB -DKF5NotifyConfig_EXPORTS -DKF_DEPRECATED_WARNINGS_SINCE=0x060000 -DKF_DISABLE_DEPRECATED_BEFORE_AND_AT=0x054400 -DQT_CONCURRENT_LIB -DQT_CORE_LIB -DQT_DBUS_LIB -DQT_DEPRECATED_WARNINGS_SINCE=0x060000 -DQT_DISABLE_DEPRECATED_BEFORE=0x050d00 -DQT_GUI_LIB -DQT_NETWORK_LIB -DQT_NO_CAST_FROM_ASCII -DQT_NO_CAST_FROM_BYTEARRAY -DQT_NO_CAST_TO_ASCII -DQT_NO_DEBUG -DQT_NO_NARROWING_CONVERSIONS_IN_CONNECT -DQT_NO_SIGNALS_SLOTS_KEYWORDS -DQT_NO_URL_CAST_FROM_STRING -DQT_STRICT_ITERATORS -DQT_USE_QSTRINGBUILDER -DQT_WIDGETS_LIB -DTRANSLATION_DOMAIN=\"knotifyconfig5\" -D_GNU_SOURCE -D_LARGEFILE64_SOURCE -Isrc -I/tmp/portage/kde-frameworks/knotifyconfig-5.70.0/work/knotifyconfig-5.70.0/src -Isrc/KF5NotifyConfig_autogen/include -isystem /usr/include/qt5 -isystem /usr/include/qt5/QtWidgets -isystem /usr/include/qt5/QtGui -isystem /usr/include/qt5/QtCore -isystem /usr/lib64/qt5/mkspecs/linux-g++ -isystem /usr/include/KF5/KI18n -isystem /usr/include/KF5 -isystem /usr/include/KF5/KIOWidgets -isystem /usr/include/KF5/KIOGui -isystem /usr/include/KF5/KIOCore -isystem /usr/include/KF5/KCoreAddons -isystem /usr/include/KF5/KService -isystem /usr/include/KF5/KConfigCore -isystem /usr/include/qt5/QtNetwork -isystem /usr/include/qt5/QtConcurrent -isystem /usr/include/qt5/QtDBus -isystem /usr/include/KF5/KWindowSystem -isystem /usr/include/KF5/KJobWidgets -isystem /usr/include/KF5/KCompletion -isystem /usr/include/KF5/KWidgetsAddons  -DQT_NO_DEBUG -march=native -O3 -fgraphite-identity -floop-nest-optimize -fdevirtualize-at-ltrans -fipa-pta -fno-semantic-interposition -flto=12 -fno-signed-zeros -fno-trapping-math -fassociative-math -freciprocal-math -fno-math-errno -ffinite-math-only -fno-rounding-math -fno-signaling-nans -fcx-limited-range -fexcess-precision=fast -fno-plt -fno-common -fuse-linker-plugin -pipe -g0 -fno-stack-protector -fno-stack-clash-protection -fstack-check=no -fno-stack-check -Wl,-O4,--hash-style=gnu,--sort-common,--as-needed,-z,relro,-z,now,-lgomp,-lpthread -fno-operator-names -fno-exceptions -Wall -Wextra -Wcast-align -Wchar-subscripts -Wformat-security -Wno-long-long -Wpointer-arith -Wundef -Wnon-virtual-dtor -Woverloaded-virtual -Werror=return-type -Wvla -Wdate-time -Wsuggest-override -Wlogical-op -fdiagnostics-color=always -pedantic -Wzero-as-null-pointer-constant -fPIC -fvisibility=hidden -fvisibility-inlines-hidden   -fPIC -D_REENTRANT -std=gnu++11 -MD -MT src/CMakeFiles/KF5NotifyConfig.dir/KF5NotifyConfig_autogen/mocs_compilation.cpp.o -MF src/CMakeFiles/KF5NotifyConfig.dir/KF5NotifyConfig_autogen/mocs_compilation.cpp.o.d -o src/CMakeFiles/KF5NotifyConfig.dir/KF5NotifyConfig_autogen/mocs_compilation.cpp.o -c src/KF5NotifyConfig_autogen/mocs_compilation.cpp
[7/11] /usr/lib/ccache/bin/x86_64-pc-linux-gnu-g++ -DKCOREADDONS_LIB -DKF5NotifyConfig_EXPORTS -DKF_DEPRECATED_WARNINGS_SINCE=0x060000 -DKF_DISABLE_DEPRECATED_BEFORE_AND_AT=0x054400 -DQT_CONCURRENT_LIB -DQT_CORE_LIB -DQT_DBUS_LIB -DQT_DEPRECATED_WARNINGS_SINCE=0x060000 -DQT_DISABLE_DEPRECATED_BEFORE=0x050d00 -DQT_GUI_LIB -DQT_NETWORK_LIB -DQT_NO_CAST_FROM_ASCII -DQT_NO_CAST_FROM_BYTEARRAY -DQT_NO_CAST_TO_ASCII -DQT_NO_DEBUG -DQT_NO_NARROWING_CONVERSIONS_IN_CONNECT -DQT_NO_SIGNALS_SLOTS_KEYWORDS -DQT_NO_URL_CAST_FROM_STRING -DQT_STRICT_ITERATORS -DQT_USE_QSTRINGBUILDER -DQT_WIDGETS_LIB -DTRANSLATION_DOMAIN=\"knotifyconfig5\" -D_GNU_SOURCE -D_LARGEFILE64_SOURCE -Isrc -I/tmp/portage/kde-frameworks/knotifyconfig-5.70.0/work/knotifyconfig-5.70.0/src -Isrc/KF5NotifyConfig_autogen/include -isystem /usr/include/qt5 -isystem /usr/include/qt5/QtWidgets -isystem /usr/include/qt5/QtGui -isystem /usr/include/qt5/QtCore -isystem /usr/lib64/qt5/mkspecs/linux-g++ -isystem /usr/include/KF5/KI18n -isystem /usr/include/KF5 -isystem /usr/include/KF5/KIOWidgets -isystem /usr/include/KF5/KIOGui -isystem /usr/include/KF5/KIOCore -isystem /usr/include/KF5/KCoreAddons -isystem /usr/include/KF5/KService -isystem /usr/include/KF5/KConfigCore -isystem /usr/include/qt5/QtNetwork -isystem /usr/include/qt5/QtConcurrent -isystem /usr/include/qt5/QtDBus -isystem /usr/include/KF5/KWindowSystem -isystem /usr/include/KF5/KJobWidgets -isystem /usr/include/KF5/KCompletion -isystem /usr/include/KF5/KWidgetsAddons  -DQT_NO_DEBUG -march=native -O3 -fgraphite-identity -floop-nest-optimize -fdevirtualize-at-ltrans -fipa-pta -fno-semantic-interposition -flto=12 -fno-signed-zeros -fno-trapping-math -fassociative-math -freciprocal-math -fno-math-errno -ffinite-math-only -fno-rounding-math -fno-signaling-nans -fcx-limited-range -fexcess-precision=fast -fno-plt -fno-common -fuse-linker-plugin -pipe -g0 -fno-stack-protector -fno-stack-clash-protection -fstack-check=no -fno-stack-check -Wl,-O4,--hash-style=gnu,--sort-common,--as-needed,-z,relro,-z,now,-lgomp,-lpthread -fno-operator-names -fno-exceptions -Wall -Wextra -Wcast-align -Wchar-subscripts -Wformat-security -Wno-long-long -Wpointer-arith -Wundef -Wnon-virtual-dtor -Woverloaded-virtual -Werror=return-type -Wvla -Wdate-time -Wsuggest-override -Wlogical-op -fdiagnostics-color=always -pedantic -Wzero-as-null-pointer-constant -fPIC -fvisibility=hidden -fvisibility-inlines-hidden   -fPIC -D_REENTRANT -std=gnu++11 -MD -MT src/CMakeFiles/KF5NotifyConfig.dir/knotifyeventlist.cpp.o -MF src/CMakeFiles/KF5NotifyConfig.dir/knotifyeventlist.cpp.o.d -o src/CMakeFiles/KF5NotifyConfig.dir/knotifyeventlist.cpp.o -c /tmp/portage/kde-frameworks/knotifyconfig-5.70.0/work/knotifyconfig-5.70.0/src/knotifyeventlist.cpp
[8/11] /usr/lib/ccache/bin/x86_64-pc-linux-gnu-g++ -DKCOREADDONS_LIB -DKF5NotifyConfig_EXPORTS -DKF_DEPRECATED_WARNINGS_SINCE=0x060000 -DKF_DISABLE_DEPRECATED_BEFORE_AND_AT=0x054400 -DQT_CONCURRENT_LIB -DQT_CORE_LIB -DQT_DBUS_LIB -DQT_DEPRECATED_WARNINGS_SINCE=0x060000 -DQT_DISABLE_DEPRECATED_BEFORE=0x050d00 -DQT_GUI_LIB -DQT_NETWORK_LIB -DQT_NO_CAST_FROM_ASCII -DQT_NO_CAST_FROM_BYTEARRAY -DQT_NO_CAST_TO_ASCII -DQT_NO_DEBUG -DQT_NO_NARROWING_CONVERSIONS_IN_CONNECT -DQT_NO_SIGNALS_SLOTS_KEYWORDS -DQT_NO_URL_CAST_FROM_STRING -DQT_STRICT_ITERATORS -DQT_USE_QSTRINGBUILDER -DQT_WIDGETS_LIB -DTRANSLATION_DOMAIN=\"knotifyconfig5\" -D_GNU_SOURCE -D_LARGEFILE64_SOURCE -Isrc -I/tmp/portage/kde-frameworks/knotifyconfig-5.70.0/work/knotifyconfig-5.70.0/src -Isrc/KF5NotifyConfig_autogen/include -isystem /usr/include/qt5 -isystem /usr/include/qt5/QtWidgets -isystem /usr/include/qt5/QtGui -isystem /usr/include/qt5/QtCore -isystem /usr/lib64/qt5/mkspecs/linux-g++ -isystem /usr/include/KF5/KI18n -isystem /usr/include/KF5 -isystem /usr/include/KF5/KIOWidgets -isystem /usr/include/KF5/KIOGui -isystem /usr/include/KF5/KIOCore -isystem /usr/include/KF5/KCoreAddons -isystem /usr/include/KF5/KService -isystem /usr/include/KF5/KConfigCore -isystem /usr/include/qt5/QtNetwork -isystem /usr/include/qt5/QtConcurrent -isystem /usr/include/qt5/QtDBus -isystem /usr/include/KF5/KWindowSystem -isystem /usr/include/KF5/KJobWidgets -isystem /usr/include/KF5/KCompletion -isystem /usr/include/KF5/KWidgetsAddons  -DQT_NO_DEBUG -march=native -O3 -fgraphite-identity -floop-nest-optimize -fdevirtualize-at-ltrans -fipa-pta -fno-semantic-interposition -flto=12 -fno-signed-zeros -fno-trapping-math -fassociative-math -freciprocal-math -fno-math-errno -ffinite-math-only -fno-rounding-math -fno-signaling-nans -fcx-limited-range -fexcess-precision=fast -fno-plt -fno-common -fuse-linker-plugin -pipe -g0 -fno-stack-protector -fno-stack-clash-protection -fstack-check=no -fno-stack-check -Wl,-O4,--hash-style=gnu,--sort-common,--as-needed,-z,relro,-z,now,-lgomp,-lpthread -fno-operator-names -fno-exceptions -Wall -Wextra -Wcast-align -Wchar-subscripts -Wformat-security -Wno-long-long -Wpointer-arith -Wundef -Wnon-virtual-dtor -Woverloaded-virtual -Werror=return-type -Wvla -Wdate-time -Wsuggest-override -Wlogical-op -fdiagnostics-color=always -pedantic -Wzero-as-null-pointer-constant -fPIC -fvisibility=hidden -fvisibility-inlines-hidden   -fPIC -D_REENTRANT -std=gnu++11 -MD -MT src/CMakeFiles/KF5NotifyConfig.dir/knotifyconfigwidget.cpp.o -MF src/CMakeFiles/KF5NotifyConfig.dir/knotifyconfigwidget.cpp.o.d -o src/CMakeFiles/KF5NotifyConfig.dir/knotifyconfigwidget.cpp.o -c /tmp/portage/kde-frameworks/knotifyconfig-5.70.0/work/knotifyconfig-5.70.0/src/knotifyconfigwidget.cpp
[9/11] /usr/lib/ccache/bin/x86_64-pc-linux-gnu-g++ -DKCOREADDONS_LIB -DKF5NotifyConfig_EXPORTS -DKF_DEPRECATED_WARNINGS_SINCE=0x060000 -DKF_DISABLE_DEPRECATED_BEFORE_AND_AT=0x054400 -DQT_CONCURRENT_LIB -DQT_CORE_LIB -DQT_DBUS_LIB -DQT_DEPRECATED_WARNINGS_SINCE=0x060000 -DQT_DISABLE_DEPRECATED_BEFORE=0x050d00 -DQT_GUI_LIB -DQT_NETWORK_LIB -DQT_NO_CAST_FROM_ASCII -DQT_NO_CAST_FROM_BYTEARRAY -DQT_NO_CAST_TO_ASCII -DQT_NO_DEBUG -DQT_NO_NARROWING_CONVERSIONS_IN_CONNECT -DQT_NO_SIGNALS_SLOTS_KEYWORDS -DQT_NO_URL_CAST_FROM_STRING -DQT_STRICT_ITERATORS -DQT_USE_QSTRINGBUILDER -DQT_WIDGETS_LIB -DTRANSLATION_DOMAIN=\"knotifyconfig5\" -D_GNU_SOURCE -D_LARGEFILE64_SOURCE -Isrc -I/tmp/portage/kde-frameworks/knotifyconfig-5.70.0/work/knotifyconfig-5.70.0/src -Isrc/KF5NotifyConfig_autogen/include -isystem /usr/include/qt5 -isystem /usr/include/qt5/QtWidgets -isystem /usr/include/qt5/QtGui -isystem /usr/include/qt5/QtCore -isystem /usr/lib64/qt5/mkspecs/linux-g++ -isystem /usr/include/KF5/KI18n -isystem /usr/include/KF5 -isystem /usr/include/KF5/KIOWidgets -isystem /usr/include/KF5/KIOGui -isystem /usr/include/KF5/KIOCore -isystem /usr/include/KF5/KCoreAddons -isystem /usr/include/KF5/KService -isystem /usr/include/KF5/KConfigCore -isystem /usr/include/qt5/QtNetwork -isystem /usr/include/qt5/QtConcurrent -isystem /usr/include/qt5/QtDBus -isystem /usr/include/KF5/KWindowSystem -isystem /usr/include/KF5/KJobWidgets -isystem /usr/include/KF5/KCompletion -isystem /usr/include/KF5/KWidgetsAddons  -DQT_NO_DEBUG -march=native -O3 -fgraphite-identity -floop-nest-optimize -fdevirtualize-at-ltrans -fipa-pta -fno-semantic-interposition -flto=12 -fno-signed-zeros -fno-trapping-math -fassociative-math -freciprocal-math -fno-math-errno -ffinite-math-only -fno-rounding-math -fno-signaling-nans -fcx-limited-range -fexcess-precision=fast -fno-plt -fno-common -fuse-linker-plugin -pipe -g0 -fno-stack-protector -fno-stack-clash-protection -fstack-check=no -fno-stack-check -Wl,-O4,--hash-style=gnu,--sort-common,--as-needed,-z,relro,-z,now,-lgomp,-lpthread -fno-operator-names -fno-exceptions -Wall -Wextra -Wcast-align -Wchar-subscripts -Wformat-security -Wno-long-long -Wpointer-arith -Wundef -Wnon-virtual-dtor -Woverloaded-virtual -Werror=return-type -Wvla -Wdate-time -Wsuggest-override -Wlogical-op -fdiagnostics-color=always -pedantic -Wzero-as-null-pointer-constant -fPIC -fvisibility=hidden -fvisibility-inlines-hidden   -fPIC -D_REENTRANT -std=gnu++11 -MD -MT src/CMakeFiles/KF5NotifyConfig.dir/knotifyconfigactionswidget.cpp.o -MF src/CMakeFiles/KF5NotifyConfig.dir/knotifyconfigactionswidget.cpp.o.d -o src/CMakeFiles/KF5NotifyConfig.dir/knotifyconfigactionswidget.cpp.o -c /tmp/portage/kde-frameworks/knotifyconfig-5.70.0/work/knotifyconfig-5.70.0/src/knotifyconfigactionswidget.cpp
[10/11] : && /usr/lib/ccache/bin/x86_64-pc-linux-gnu-g++ -fPIC -march=native -O3 -fgraphite-identity -floop-nest-optimize -fdevirtualize-at-ltrans -fipa-pta -fno-semantic-interposition -flto=12 -fno-signed-zeros -fno-trapping-math -fassociative-math -freciprocal-math -fno-math-errno -ffinite-math-only -fno-rounding-math -fno-signaling-nans -fcx-limited-range -fexcess-precision=fast -fno-plt -fno-common -fuse-linker-plugin -pipe -g0 -fno-stack-protector -fno-stack-clash-protection -fstack-check=no -fno-stack-check -Wl,-O4,--hash-style=gnu,--sort-common,--as-needed,-z,relro,-z,now,-lgomp,-lpthread -fno-operator-names -fno-exceptions -Wall -Wextra -Wcast-align -Wchar-subscripts -Wformat-security -Wno-long-long -Wpointer-arith -Wundef -Wnon-virtual-dtor -Woverloaded-virtual -Werror=return-type -Wvla -Wdate-time -Wsuggest-override -Wlogical-op -fdiagnostics-color=always -pedantic -Wzero-as-null-pointer-constant  -Wl,--no-undefined -Wl,--enable-new-dtags -Wl,-O4,--hash-style=gnu,--sort-common,--as-needed,-z,relro,-z,now,-lgomp,-lpthread -march=native -O3 -fgraphite-identity -floop-nest-optimize -fdevirtualize-at-ltrans -fipa-pta -fno-semantic-interposition -flto=12 -fno-signed-zeros -fno-trapping-math -fassociative-math -freciprocal-math -fno-math-errno -ffinite-math-only -fno-rounding-math -fno-signaling-nans -fcx-limited-range -fexcess-precision=fast -fno-plt -fno-common -fuse-linker-plugin -pipe -g0 -fno-stack-protector -fno-stack-clash-protection -fstack-check=no -fno-stack-check -shared -Wl,-soname,libKF5NotifyConfig.so.5 -o bin/libKF5NotifyConfig.so.5.70.0 src/CMakeFiles/KF5NotifyConfig.dir/KF5NotifyConfig_autogen/mocs_compilation.cpp.o src/CMakeFiles/KF5NotifyConfig.dir/knotifyconfigactionswidget.cpp.o src/CMakeFiles/KF5NotifyConfig.dir/knotifyconfigelement.cpp.o src/CMakeFiles/KF5NotifyConfig.dir/knotifyeventlist.cpp.o src/CMakeFiles/KF5NotifyConfig.dir/knotifyconfigwidget.cpp.o  /usr/lib64/libKF5KIOWidgets.so.5.70.0  /usr/lib64/libcanberra.so  /usr/lib64/libKF5KIOGui.so.5.70.0  /usr/lib64/libKF5KIOCore.so.5.70.0  /usr/lib64/libKF5JobWidgets.so.5.70.0  /usr/lib64/libKF5Service.so.5.70.0  /usr/lib64/libQt5Network.so.5.15.0  /usr/lib64/libKF5Completion.so.5.70.0  /usr/lib64/libKF5WindowSystem.so.5.70.0  /usr/lib64/libQt5Concurrent.so.5.15.0  /usr/lib64/libKF5I18n.so.5.70.0  /usr/lib64/libKF5WidgetsAddons.so.5.70.0  /usr/lib64/libKF5ConfigCore.so.5.70.0  /usr/lib64/libQt5Widgets.so.5.15.0  /usr/lib64/libQt5Gui.so.5.15.0  /usr/lib64/libQt5DBus.so.5.15.0  /usr/lib64/libKF5CoreAddons.so.5.70.0  /usr/lib64/libQt5Core.so.5.15.0 && :
[11/11] /usr/bin/cmake -E cmake_symlink_library bin/libKF5NotifyConfig.so.5.70.0  bin/libKF5NotifyConfig.so.5 bin/libKF5NotifyConfig.so && :
>>> Source compiled.
>>> Test phase [not enabled]: kde-frameworks/knotifyconfig-5.70.0

>>> Install kde-frameworks/knotifyconfig-5.70.0 into /tmp/portage/kde-frameworks/knotifyconfig-5.70.0/image
 * Working in BUILD_DIR: "/tmp/portage/kde-frameworks/knotifyconfig-5.70.0/work/knotifyconfig-5.70.0_build"
[0/3] Generating mo...[K[0/3] Generating ts...[K[1/3] Generating mo...[K[2/3] Generating ts...[K[2/3] Install the project...[K
-- Install configuration: "Gentoo"
-- Installing: /tmp/portage/kde-frameworks/knotifyconfig-5.70.0/image/usr/share/locale
-- Installing: /tmp/portage/kde-frameworks/knotifyconfig-5.70.0/image/usr/lib64/cmake/KF5NotifyConfig/KF5NotifyConfigConfig.cmake
-- Installing: /tmp/portage/kde-frameworks/knotifyconfig-5.70.0/image/usr/lib64/cmake/KF5NotifyConfig/KF5NotifyConfigConfigVersion.cmake
-- Installing: /tmp/portage/kde-frameworks/knotifyconfig-5.70.0/image/usr/lib64/cmake/KF5NotifyConfig/KF5NotifyConfigTargets.cmake
-- Installing: /tmp/portage/kde-frameworks/knotifyconfig-5.70.0/image/usr/lib64/cmake/KF5NotifyConfig/KF5NotifyConfigTargets-gentoo.cmake
-- Installing: /tmp/portage/kde-frameworks/knotifyconfig-5.70.0/image/usr/include/KF5/knotifyconfig_version.h
-- Installing: /tmp/portage/kde-frameworks/knotifyconfig-5.70.0/image/usr/lib64/libKF5NotifyConfig.so.5.70.0
-- Installing: /tmp/portage/kde-frameworks/knotifyconfig-5.70.0/image/usr/lib64/libKF5NotifyConfig.so.5
-- Installing: /tmp/portage/kde-frameworks/knotifyconfig-5.70.0/image/usr/lib64/libKF5NotifyConfig.so
-- Installing: /tmp/portage/kde-frameworks/knotifyconfig-5.70.0/image/usr/include/KF5/KNotifyConfig/knotifyconfig_export.h
-- Installing: /tmp/portage/kde-frameworks/knotifyconfig-5.70.0/image/usr/include/KF5/KNotifyConfig/KNotifyConfigWidget
-- Installing: /tmp/portage/kde-frameworks/knotifyconfig-5.70.0/image/usr/include/KF5/KNotifyConfig/knotifyconfigwidget.h
-- Installing: /tmp/portage/kde-frameworks/knotifyconfig-5.70.0/image/usr/lib64/qt5/mkspecs/modules/qt_KNotifyConfig.pri
>>> Completed installing kde-frameworks/knotifyconfig-5.70.0 into /tmp/portage/kde-frameworks/knotifyconfig-5.70.0/image

 * Final size of build directory: 1760 KiB (1.7 MiB)
 * Final size of installed tree:   256 KiB

strip: x86_64-pc-linux-gnu-strip --strip-unneeded -N __gentoo_check_ldflags__ -R .comment -R .GCC.command.line -R .note.gnu.gold-version
   /usr/lib64/libKF5NotifyConfig.so.5.70.0
./
./usr/
./usr/include/
./usr/include/KF5/
./usr/include/KF5/knotifyconfig_version.h
./usr/include/KF5/KNotifyConfig/
./usr/include/KF5/KNotifyConfig/knotifyconfig_export.h
./usr/include/KF5/KNotifyConfig/knotifyconfigwidget.h
./usr/include/KF5/KNotifyConfig/KNotifyConfigWidget
./usr/share/
./usr/share/locale/
./usr/share/doc/
./usr/share/doc/knotifyconfig-5.70.0/
./usr/share/doc/knotifyconfig-5.70.0/README.md.bz2
./usr/lib64/
./usr/lib64/qt5/
./usr/lib64/qt5/mkspecs/
./usr/lib64/qt5/mkspecs/modules/
./usr/lib64/qt5/mkspecs/modules/qt_KNotifyConfig.pri
./usr/lib64/libKF5NotifyConfig.so.5.70.0
./usr/lib64/cmake/
./usr/lib64/cmake/KF5NotifyConfig/
./usr/lib64/cmake/KF5NotifyConfig/KF5NotifyConfigConfigVersion.cmake
./usr/lib64/cmake/KF5NotifyConfig/KF5NotifyConfigTargets-gentoo.cmake
./usr/lib64/cmake/KF5NotifyConfig/KF5NotifyConfigConfig.cmake
./usr/lib64/cmake/KF5NotifyConfig/KF5NotifyConfigTargets.cmake
./usr/lib64/libKF5NotifyConfig.so
./usr/lib64/libKF5NotifyConfig.so.5
>>> Done.
 * checking 12 files for package collisions
>>> Merging kde-frameworks/knotifyconfig-5.70.0 to /
 * removing unneeded *.la files
--- /usr/
--- /usr/lib64/
--- /usr/lib64/cmake/
>>> /usr/lib64/cmake/KF5NotifyConfig/
>>> /usr/lib64/cmake/KF5NotifyConfig/KF5NotifyConfigTargets.cmake
>>> /usr/lib64/cmake/KF5NotifyConfig/KF5NotifyConfigConfig.cmake
>>> /usr/lib64/cmake/KF5NotifyConfig/KF5NotifyConfigTargets-gentoo.cmake
>>> /usr/lib64/cmake/KF5NotifyConfig/KF5NotifyConfigConfigVersion.cmake
>>> /usr/lib64/libKF5NotifyConfig.so.5.70.0
--- /usr/lib64/qt5/
--- /usr/lib64/qt5/mkspecs/
--- /usr/lib64/qt5/mkspecs/modules/
>>> /usr/lib64/qt5/mkspecs/modules/qt_KNotifyConfig.pri
--- /usr/share/
--- /usr/share/locale/
--- /usr/include/
--- /usr/include/KF5/
>>> /usr/include/KF5/KNotifyConfig/
>>> /usr/include/KF5/KNotifyConfig/KNotifyConfigWidget
>>> /usr/include/KF5/KNotifyConfig/knotifyconfigwidget.h
>>> /usr/include/KF5/KNotifyConfig/knotifyconfig_export.h
>>> /usr/include/KF5/knotifyconfig_version.h
>>> /usr/lib64/libKF5NotifyConfig.so.5 -> libKF5NotifyConfig.so.5.70.0
>>> /usr/lib64/libKF5NotifyConfig.so -> libKF5NotifyConfig.so.5
>>> kde-frameworks/knotifyconfig-5.70.0 merged.
>>> Regenerating /etc/ld.so.cache...
