 * Package:    kde-frameworks/knotifications-5.70.0
 * Repository: gentoo
 * Maintainer: kde@gentoo.org
 * USE:        X abi_x86_64 amd64 dbus elibc_glibc kernel_linux userland_GNU
 * FEATURES:   ccache network-sandbox preserve-libs sandbox userpriv usersandbox
 * FEATURES='assume-digests binpkg-docompress binpkg-dostrip binpkg-logs binpkg-multi-instance buildpkg ccache cgroup compress-index config-protect-if-modified distlocks downgrade-backup fixlafiles ipc-sandbox merge-sync multilib-strict network-sandbox news nodoc parallel-fetch parallel-install pid-sandbox preserve-libs qa-unresolved-soname-deps sandbox sfperms strict unknown-features-warn unmerge-backup unmerge-logs unmerge-orphans userfetch userpriv usersandbox usersync xattr'
 * CFLAGS='-march=native -O3 -fgraphite-identity -floop-nest-optimize -fdevirtualize-at-ltrans -fipa-pta -fno-semantic-interposition -flto=12 -fno-signed-zeros -fno-trapping-math -fassociative-math -freciprocal-math -fno-math-errno -ffinite-math-only -fno-rounding-math -fno-signaling-nans -fcx-limited-range -fexcess-precision=fast -fno-plt -fno-common -fuse-linker-plugin -pipe -g0 -fno-stack-protector -fno-stack-clash-protection -fstack-check=no -fno-stack-check -Wl,-O4,--hash-style=gnu,--sort-common,--as-needed,-z,relro,-z,now,-lgomp,-lpthread'
 * CXXFLAGS='-march=native -O3 -fgraphite-identity -floop-nest-optimize -fdevirtualize-at-ltrans -fipa-pta -fno-semantic-interposition -flto=12 -fno-signed-zeros -fno-trapping-math -fassociative-math -freciprocal-math -fno-math-errno -ffinite-math-only -fno-rounding-math -fno-signaling-nans -fcx-limited-range -fexcess-precision=fast -fno-plt -fno-common -fuse-linker-plugin -pipe -g0 -fno-stack-protector -fno-stack-clash-protection -fstack-check=no -fno-stack-check -Wl,-O4,--hash-style=gnu,--sort-common,--as-needed,-z,relro,-z,now,-lgomp,-lpthread'
 * FFLAGS='-march=native -O3 -fgraphite-identity -floop-nest-optimize -fdevirtualize-at-ltrans -fipa-pta -fno-semantic-interposition -flto=12 -fno-signed-zeros -fno-trapping-math -fassociative-math -freciprocal-math -fno-math-errno -ffinite-math-only -fno-rounding-math -fno-signaling-nans -fcx-limited-range -fexcess-precision=fast -fno-plt -fno-common -fuse-linker-plugin -pipe -g0 -fno-stack-protector -fno-stack-clash-protection -fstack-check=no -fno-stack-check -Wl,-O4,--hash-style=gnu,--sort-common,--as-needed,-z,relro,-z,now,-lgomp,-lpthread'
 * FCFLAGS='-march=native -O3 -fgraphite-identity -floop-nest-optimize -fdevirtualize-at-ltrans -fipa-pta -fno-semantic-interposition -flto=12 -fno-signed-zeros -fno-trapping-math -fassociative-math -freciprocal-math -fno-math-errno -ffinite-math-only -fno-rounding-math -fno-signaling-nans -fcx-limited-range -fexcess-precision=fast -fno-plt -fno-common -fuse-linker-plugin -pipe -g0 -fno-stack-protector -fno-stack-clash-protection -fstack-check=no -fno-stack-check -Wl,-O4,--hash-style=gnu,--sort-common,--as-needed,-z,relro,-z,now,-lgomp,-lpthread'
 * F77FLAGS='-march=native -O3 -fgraphite-identity -floop-nest-optimize -fdevirtualize-at-ltrans -fipa-pta -fno-semantic-interposition -flto=12 -fno-signed-zeros -fno-trapping-math -fassociative-math -freciprocal-math -fno-math-errno -ffinite-math-only -fno-rounding-math -fno-signaling-nans -fcx-limited-range -fexcess-precision=fast -fno-plt -fno-common -fuse-linker-plugin -pipe -g0 -fno-stack-protector -fno-stack-clash-protection -fstack-check=no -fno-stack-check -Wl,-O4,--hash-style=gnu,--sort-common,--as-needed,-z,relro,-z,now,-lgomp,-lpthread'
 * LDFLAGS='-Wl,-O4,--hash-style=gnu,--sort-common,--as-needed,-z,relro,-z,now,-lgomp,-lpthread -march=native -O3 -fgraphite-identity -floop-nest-optimize -fdevirtualize-at-ltrans -fipa-pta -fno-semantic-interposition -flto=12 -fno-signed-zeros -fno-trapping-math -fassociative-math -freciprocal-math -fno-math-errno -ffinite-math-only -fno-rounding-math -fno-signaling-nans -fcx-limited-range -fexcess-precision=fast -fno-plt -fno-common -fuse-linker-plugin -pipe -g0 -fno-stack-protector -fno-stack-clash-protection -fstack-check=no -fno-stack-check'
 * MAKEOPTS='-j12'
 * gcc (Gentoo 10.1.0 p1) 10.1.0
 * g++ (Gentoo 10.1.0 p1) 10.1.0
 * GNU ld (Gentoo 2.34 p1) 2.34.0
 * Linux ryzen.gnum.org 5.4.36 #1 SMP Thu Apr 30 04:38:28 UTC 2020 x86_64 AMD Ryzen 5 3600 6-Core Processor AuthenticAMD GNU/Linux
]0;emerge 06:14:03 26|67 knotifications (root@ryzen.gnum.org)>>> Unpacking source...
>>> Unpacking knotifications-5.70.0.tar.xz to /tmp/portage/kde-frameworks/knotifications-5.70.0/work
>>> Source unpacked in /tmp/portage/kde-frameworks/knotifications-5.70.0/work
>>> Preparing source in /tmp/portage/kde-frameworks/knotifications-5.70.0/work/knotifications-5.70.0 ...
 * Working in BUILD_DIR: "/tmp/portage/kde-frameworks/knotifications-5.70.0/work/knotifications-5.70.0_build"
>>> Source prepared.
>>> Configuring source in /tmp/portage/kde-frameworks/knotifications-5.70.0/work/knotifications-5.70.0 ...
 * Working in BUILD_DIR: "/tmp/portage/kde-frameworks/knotifications-5.70.0/work/knotifications-5.70.0_build"
cmake -C /tmp/portage/kde-frameworks/knotifications-5.70.0/work/knotifications-5.70.0_build/gentoo_common_config.cmake -G Ninja -DCMAKE_INSTALL_PREFIX=/usr -DBUILD_QCH=no -DKDE_INSTALL_USE_QT_SYS_PATHS=ON -DKDE_INSTALL_DOCBUNDLEDIR=/usr/share/help -DCMAKE_DISABLE_FIND_PACKAGE_dbusmenu-qt5=OFF -DCMAKE_DISABLE_FIND_PACKAGE_Canberra=OFF -DCMAKE_DISABLE_FIND_PACKAGE_Qt5TextToSpeech=ON -DCMAKE_DISABLE_FIND_PACKAGE_X11=OFF -DCMAKE_BUILD_TYPE=Gentoo -DCMAKE_TOOLCHAIN_FILE=/tmp/portage/kde-frameworks/knotifications-5.70.0/work/knotifications-5.70.0_build/gentoo_toolchain.cmake  /tmp/portage/kde-frameworks/knotifications-5.70.0/work/knotifications-5.70.0
loading initial cache file /tmp/portage/kde-frameworks/knotifications-5.70.0/work/knotifications-5.70.0_build/gentoo_common_config.cmake
-- The C compiler identification is GNU 10.1.0
-- The CXX compiler identification is GNU 10.1.0
-- Check for working C compiler: /usr/lib/ccache/bin/x86_64-pc-linux-gnu-gcc
-- Check for working C compiler: /usr/lib/ccache/bin/x86_64-pc-linux-gnu-gcc - works
-- Detecting C compiler ABI info
-- Detecting C compiler ABI info - done
-- Detecting C compile features
-- Detecting C compile features - done
-- Check for working CXX compiler: /usr/lib/ccache/bin/x86_64-pc-linux-gnu-g++
-- Check for working CXX compiler: /usr/lib/ccache/bin/x86_64-pc-linux-gnu-g++ - works
-- Detecting CXX compiler ABI info
-- Detecting CXX compiler ABI info - done
-- Detecting CXX compile features
-- Detecting CXX compile features - done
-- 

-- Looking for __GLIBC__
-- Looking for __GLIBC__ - found
-- Performing Test _OFFT_IS_64BIT
-- Performing Test _OFFT_IS_64BIT - Success
-- Performing Test HAVE_DATE_TIME
-- Performing Test HAVE_DATE_TIME - Success
-- Could not set up the appstream test. appstreamcli is missing.
-- Found X11: /usr/include   
-- Looking for XOpenDisplay in /usr/lib64/libX11.so;/usr/lib64/libXext.so
-- Looking for XOpenDisplay in /usr/lib64/libX11.so;/usr/lib64/libXext.so - found
-- Looking for gethostbyname
-- Looking for gethostbyname - found
-- Looking for connect
-- Looking for connect - found
-- Looking for remove
-- Looking for remove - found
-- Looking for shmat
-- Looking for shmat - found
-- Looking for IceConnectionNumber in ICE
-- Looking for IceConnectionNumber in ICE - found
-- Found Canberra: /usr/lib64/libcanberra.so (found version "0.30") 
dbusmenu-qt5_FOUND
-- Performing Test COMPILER_HAS_HIDDEN_VISIBILITY
-- Performing Test COMPILER_HAS_HIDDEN_VISIBILITY - Success
-- Performing Test COMPILER_HAS_HIDDEN_INLINE_VISIBILITY
-- Performing Test COMPILER_HAS_HIDDEN_INLINE_VISIBILITY - Success
-- Performing Test COMPILER_HAS_DEPRECATED_ATTR
-- Performing Test COMPILER_HAS_DEPRECATED_ATTR - Success
-- The following OPTIONAL packages have been found:

 * Freetype
 * Fontconfig
 * X11
 * PkgConfig
 * Canberra, Event sound library, <http://0pointer.de/lennart/projects/libcanberra>
   Needed to build audio notification support
 * dbusmenu-qt5, DBusMenuQt, <https://launchpad.net/libdbusmenu-qt>
   Support for notification area menus via the DBusMenu protocol

-- The following REQUIRED packages have been found:

 * ECM (required version >= 5.70.0), Extra CMake Modules., <https://commits.kde.org/extra-cmake-modules>
 * Qt5Gui (required version >= 5.15.0)
 * Qt5X11Extras (required version >= 5.12.0)
 * Qt5Widgets (required version >= 5.12.0)
 * KF5WindowSystem (required version >= 5.70.0)
 * KF5Config (required version >= 5.70.0)
 * KF5CoreAddons (required version >= 5.70.0)
 * Qt5DBus
 * Qt5 (required version >= 5.12.0)
 * Qt5Core

-- The following features have been disabled:

 * QCH, API documentation in QCH format (for e.g. Qt Assistant, Qt Creator & KDevelop)

-- <<< Gentoo configuration >>>
Build type      Gentoo
Install path    /usr
Compiler flags:
C               -march=native -O3 -fgraphite-identity -floop-nest-optimize -fdevirtualize-at-ltrans -fipa-pta -fno-semantic-interposition -flto=12 -fno-signed-zeros -fno-trapping-math -fassociative-math -freciprocal-math -fno-math-errno -ffinite-math-only -fno-rounding-math -fno-signaling-nans -fcx-limited-range -fexcess-precision=fast -fno-plt -fno-common -fuse-linker-plugin -pipe -g0 -fno-stack-protector -fno-stack-clash-protection -fstack-check=no -fno-stack-check -Wl,-O4,--hash-style=gnu,--sort-common,--as-needed,-z,relro,-z,now,-lgomp,-lpthread -fno-common -Wall -Wextra -Wcast-align -Wchar-subscripts -Wformat-security -Wno-long-long -Wpointer-arith -Wundef -Wmissing-format-attribute -Wwrite-strings -Werror=implicit-function-declaration
C++             -march=native -O3 -fgraphite-identity -floop-nest-optimize -fdevirtualize-at-ltrans -fipa-pta -fno-semantic-interposition -flto=12 -fno-signed-zeros -fno-trapping-math -fassociative-math -freciprocal-math -fno-math-errno -ffinite-math-only -fno-rounding-math -fno-signaling-nans -fcx-limited-range -fexcess-precision=fast -fno-plt -fno-common -fuse-linker-plugin -pipe -g0 -fno-stack-protector -fno-stack-clash-protection -fstack-check=no -fno-stack-check -Wl,-O4,--hash-style=gnu,--sort-common,--as-needed,-z,relro,-z,now,-lgomp,-lpthread -fno-operator-names -fno-exceptions -Wall -Wextra -Wcast-align -Wchar-subscripts -Wformat-security -Wno-long-long -Wpointer-arith -Wundef -Wnon-virtual-dtor -Woverloaded-virtual -Werror=return-type -Wvla -Wdate-time -Wsuggest-override -Wlogical-op -fdiagnostics-color=always -pedantic -Wzero-as-null-pointer-constant
Linker flags:
Executable      -Wl,--enable-new-dtags -Wl,-O4,--hash-style=gnu,--sort-common,--as-needed,-z,relro,-z,now,-lgomp,-lpthread -march=native -O3 -fgraphite-identity -floop-nest-optimize -fdevirtualize-at-ltrans -fipa-pta -fno-semantic-interposition -flto=12 -fno-signed-zeros -fno-trapping-math -fassociative-math -freciprocal-math -fno-math-errno -ffinite-math-only -fno-rounding-math -fno-signaling-nans -fcx-limited-range -fexcess-precision=fast -fno-plt -fno-common -fuse-linker-plugin -pipe -g0 -fno-stack-protector -fno-stack-clash-protection -fstack-check=no -fno-stack-check
Module          -Wl,--no-undefined -Wl,--enable-new-dtags -Wl,-O4,--hash-style=gnu,--sort-common,--as-needed,-z,relro,-z,now,-lgomp,-lpthread -march=native -O3 -fgraphite-identity -floop-nest-optimize -fdevirtualize-at-ltrans -fipa-pta -fno-semantic-interposition -flto=12 -fno-signed-zeros -fno-trapping-math -fassociative-math -freciprocal-math -fno-math-errno -ffinite-math-only -fno-rounding-math -fno-signaling-nans -fcx-limited-range -fexcess-precision=fast -fno-plt -fno-common -fuse-linker-plugin -pipe -g0 -fno-stack-protector -fno-stack-clash-protection -fstack-check=no -fno-stack-check
Shared          -Wl,--no-undefined -Wl,--enable-new-dtags -Wl,-O4,--hash-style=gnu,--sort-common,--as-needed,-z,relro,-z,now,-lgomp,-lpthread -march=native -O3 -fgraphite-identity -floop-nest-optimize -fdevirtualize-at-ltrans -fipa-pta -fno-semantic-interposition -flto=12 -fno-signed-zeros -fno-trapping-math -fassociative-math -freciprocal-math -fno-math-errno -ffinite-math-only -fno-rounding-math -fno-signaling-nans -fcx-limited-range -fexcess-precision=fast -fno-plt -fno-common -fuse-linker-plugin -pipe -g0 -fno-stack-protector -fno-stack-clash-protection -fstack-check=no -fno-stack-check

-- Configuring done
-- Generating done
-- Build files have been written to: /tmp/portage/kde-frameworks/knotifications-5.70.0/work/knotifications-5.70.0_build
>>> Source configured.
>>> Compiling source in /tmp/portage/kde-frameworks/knotifications-5.70.0/work/knotifications-5.70.0 ...
 * Working in BUILD_DIR: "/tmp/portage/kde-frameworks/knotifications-5.70.0/work/knotifications-5.70.0_build"
ninja -v -j12 -l0
[1/31] cd /tmp/portage/kde-frameworks/knotifications-5.70.0/work/knotifications-5.70.0_build/src && /usr/bin/cmake -E cmake_autogen /tmp/portage/kde-frameworks/knotifications-5.70.0/work/knotifications-5.70.0_build/src/CMakeFiles/KF5Notifications_autogen.dir/AutogenInfo.json Gentoo && /usr/bin/cmake -E touch /tmp/portage/kde-frameworks/knotifications-5.70.0/work/knotifications-5.70.0_build/src/KF5Notifications_autogen/timestamp
AutoMoc warning
---------------
"SRC:/src/knotificationjobuidelegate.cpp"
includes the moc file "knotificationjobuidelegate.moc", but does not contain a Q_OBJECT, Q_GADGET, Q_NAMESPACE, Q_NAMESPACE_EXPORT, K_PLUGIN_FACTORY, K_PLUGIN_FACTORY_WITH_JSON or K_PLUGIN_CLASS_WITH_JSON macro.

AutoMoc: /tmp/portage/kde-frameworks/knotifications-5.70.0/work/knotifications-5.70.0/src/knotificationjobuidelegate.cpp:0: Note: No relevant classes found. No output generated.
[2/31] cd /tmp/portage/kde-frameworks/knotifications-5.70.0/work/knotifications-5.70.0_build/src && /usr/lib64/qt5/bin/qdbusxml2cpp -m -p statusnotifierwatcher_interface /tmp/portage/kde-frameworks/knotifications-5.70.0/work/knotifications-5.70.0/src/org.kde.StatusNotifierWatcher.xml
[3/31] cd /tmp/portage/kde-frameworks/knotifications-5.70.0/work/knotifications-5.70.0_build/src && /usr/lib64/qt5/bin/qdbusxml2cpp -m -p notifications_interface /tmp/portage/kde-frameworks/knotifications-5.70.0/work/knotifications-5.70.0/src/org.freedesktop.Notifications.xml
[4/31] cd /tmp/portage/kde-frameworks/knotifications-5.70.0/work/knotifications-5.70.0_build/src && /usr/lib64/qt5/bin/qdbusxml2cpp -m -a statusnotifieritemadaptor -i kstatusnotifieritemdbus_p.h -l KStatusNotifierItemDBus /tmp/portage/kde-frameworks/knotifications-5.70.0/work/knotifications-5.70.0/src/org.kde.StatusNotifierItem.xml
[5/31] cd /tmp/portage/kde-frameworks/knotifications-5.70.0/work/knotifications-5.70.0_build/src && /usr/lib64/qt5/bin/moc @/tmp/portage/kde-frameworks/knotifications-5.70.0/work/knotifications-5.70.0_build/src/statusnotifieritemadaptor.moc_parameters
[6/31] cd /tmp/portage/kde-frameworks/knotifications-5.70.0/work/knotifications-5.70.0_build/src && /usr/lib64/qt5/bin/moc @/tmp/portage/kde-frameworks/knotifications-5.70.0/work/knotifications-5.70.0_build/src/statusnotifierwatcher_interface.moc_parameters
[7/31] cd /tmp/portage/kde-frameworks/knotifications-5.70.0/work/knotifications-5.70.0_build/src && /usr/lib64/qt5/bin/moc @/tmp/portage/kde-frameworks/knotifications-5.70.0/work/knotifications-5.70.0_build/src/notifications_interface.moc_parameters
[8/31] /usr/lib/ccache/bin/x86_64-pc-linux-gnu-g++ -DHAVE_CANBERRA -DKCOREADDONS_LIB -DKF5Notifications_EXPORTS -DKF_DEPRECATED_WARNINGS_SINCE=0x060000 -DKF_DISABLE_DEPRECATED_BEFORE_AND_AT=0x054400 -DKNOTIFICATIONS_DEPRECATED_WARNINGS_SINCE=0x0 -DKNOTIFICATIONS_DISABLE_DEPRECATED_BEFORE_AND_AT=0x0 -DQT_CORE_LIB -DQT_DBUS_LIB -DQT_DEPRECATED_WARNINGS_SINCE=0x060000 -DQT_DISABLE_DEPRECATED_BEFORE=0x050d00 -DQT_GUI_LIB -DQT_NO_CAST_FROM_ASCII -DQT_NO_CAST_TO_ASCII -DQT_NO_DEBUG -DQT_NO_NARROWING_CONVERSIONS_IN_CONNECT -DQT_NO_SIGNALS_SLOTS_KEYWORDS -DQT_NO_URL_CAST_FROM_STRING -DQT_STRICT_ITERATORS -DQT_USE_QSTRINGBUILDER -DQT_WIDGETS_LIB -DQT_X11EXTRAS_LIB -D_GNU_SOURCE -D_LARGEFILE64_SOURCE -Isrc -I/tmp/portage/kde-frameworks/knotifications-5.70.0/work/knotifications-5.70.0/src -Isrc/KF5Notifications_autogen/include -isystem /usr/include/dbusmenu-qt5 -isystem /usr/include/qt5 -isystem /usr/include/qt5/QtWidgets -isystem /usr/include/qt5/QtGui -isystem /usr/include/qt5/QtCore -isystem /usr/lib64/qt5/mkspecs/linux-g++ -isystem /usr/include/qt5/QtDBus -isystem /usr/include/KF5/KCoreAddons -isystem /usr/include/KF5 -isystem /usr/include/KF5/KConfigCore -isystem /usr/include/KF5/KWindowSystem -isystem /usr/include/qt5/QtX11Extras  -DQT_NO_DEBUG -march=native -O3 -fgraphite-identity -floop-nest-optimize -fdevirtualize-at-ltrans -fipa-pta -fno-semantic-interposition -flto=12 -fno-signed-zeros -fno-trapping-math -fassociative-math -freciprocal-math -fno-math-errno -ffinite-math-only -fno-rounding-math -fno-signaling-nans -fcx-limited-range -fexcess-precision=fast -fno-plt -fno-common -fuse-linker-plugin -pipe -g0 -fno-stack-protector -fno-stack-clash-protection -fstack-check=no -fno-stack-check -Wl,-O4,--hash-style=gnu,--sort-common,--as-needed,-z,relro,-z,now,-lgomp,-lpthread -fno-operator-names -fno-exceptions -Wall -Wextra -Wcast-align -Wchar-subscripts -Wformat-security -Wno-long-long -Wpointer-arith -Wundef -Wnon-virtual-dtor -Woverloaded-virtual -Werror=return-type -Wvla -Wdate-time -Wsuggest-override -Wlogical-op -fdiagnostics-color=always -pedantic -Wzero-as-null-pointer-constant -fPIC -fvisibility=hidden -fvisibility-inlines-hidden   -fPIC -D_REENTRANT -std=gnu++11 -MD -MT src/CMakeFiles/KF5Notifications.dir/knotificationplugin.cpp.o -MF src/CMakeFiles/KF5Notifications.dir/knotificationplugin.cpp.o.d -o src/CMakeFiles/KF5Notifications.dir/knotificationplugin.cpp.o -c /tmp/portage/kde-frameworks/knotifications-5.70.0/work/knotifications-5.70.0/src/knotificationplugin.cpp
[9/31] /usr/lib/ccache/bin/x86_64-pc-linux-gnu-g++ -DHAVE_CANBERRA -DKCOREADDONS_LIB -DKF5Notifications_EXPORTS -DKF_DEPRECATED_WARNINGS_SINCE=0x060000 -DKF_DISABLE_DEPRECATED_BEFORE_AND_AT=0x054400 -DKNOTIFICATIONS_DEPRECATED_WARNINGS_SINCE=0x0 -DKNOTIFICATIONS_DISABLE_DEPRECATED_BEFORE_AND_AT=0x0 -DQT_CORE_LIB -DQT_DBUS_LIB -DQT_DEPRECATED_WARNINGS_SINCE=0x060000 -DQT_DISABLE_DEPRECATED_BEFORE=0x050d00 -DQT_GUI_LIB -DQT_NO_CAST_FROM_ASCII -DQT_NO_CAST_TO_ASCII -DQT_NO_DEBUG -DQT_NO_NARROWING_CONVERSIONS_IN_CONNECT -DQT_NO_SIGNALS_SLOTS_KEYWORDS -DQT_NO_URL_CAST_FROM_STRING -DQT_STRICT_ITERATORS -DQT_USE_QSTRINGBUILDER -DQT_WIDGETS_LIB -DQT_X11EXTRAS_LIB -D_GNU_SOURCE -D_LARGEFILE64_SOURCE -Isrc -I/tmp/portage/kde-frameworks/knotifications-5.70.0/work/knotifications-5.70.0/src -Isrc/KF5Notifications_autogen/include -isystem /usr/include/dbusmenu-qt5 -isystem /usr/include/qt5 -isystem /usr/include/qt5/QtWidgets -isystem /usr/include/qt5/QtGui -isystem /usr/include/qt5/QtCore -isystem /usr/lib64/qt5/mkspecs/linux-g++ -isystem /usr/include/qt5/QtDBus -isystem /usr/include/KF5/KCoreAddons -isystem /usr/include/KF5 -isystem /usr/include/KF5/KConfigCore -isystem /usr/include/KF5/KWindowSystem -isystem /usr/include/qt5/QtX11Extras  -DQT_NO_DEBUG -march=native -O3 -fgraphite-identity -floop-nest-optimize -fdevirtualize-at-ltrans -fipa-pta -fno-semantic-interposition -flto=12 -fno-signed-zeros -fno-trapping-math -fassociative-math -freciprocal-math -fno-math-errno -ffinite-math-only -fno-rounding-math -fno-signaling-nans -fcx-limited-range -fexcess-precision=fast -fno-plt -fno-common -fuse-linker-plugin -pipe -g0 -fno-stack-protector -fno-stack-clash-protection -fstack-check=no -fno-stack-check -Wl,-O4,--hash-style=gnu,--sort-common,--as-needed,-z,relro,-z,now,-lgomp,-lpthread -fno-operator-names -fno-exceptions -Wall -Wextra -Wcast-align -Wchar-subscripts -Wformat-security -Wno-long-long -Wpointer-arith -Wundef -Wnon-virtual-dtor -Woverloaded-virtual -Werror=return-type -Wvla -Wdate-time -Wsuggest-override -Wlogical-op -fdiagnostics-color=always -pedantic -Wzero-as-null-pointer-constant -fPIC -fvisibility=hidden -fvisibility-inlines-hidden   -fPIC -D_REENTRANT -std=gnu++11 -MD -MT src/CMakeFiles/KF5Notifications.dir/ECMQmLoader-knotifications5_qt.cpp.o -MF src/CMakeFiles/KF5Notifications.dir/ECMQmLoader-knotifications5_qt.cpp.o.d -o src/CMakeFiles/KF5Notifications.dir/ECMQmLoader-knotifications5_qt.cpp.o -c src/ECMQmLoader-knotifications5_qt.cpp
[10/31] /usr/lib/ccache/bin/x86_64-pc-linux-gnu-g++ -DHAVE_CANBERRA -DKCOREADDONS_LIB -DKF5Notifications_EXPORTS -DKF_DEPRECATED_WARNINGS_SINCE=0x060000 -DKF_DISABLE_DEPRECATED_BEFORE_AND_AT=0x054400 -DKNOTIFICATIONS_DEPRECATED_WARNINGS_SINCE=0x0 -DKNOTIFICATIONS_DISABLE_DEPRECATED_BEFORE_AND_AT=0x0 -DQT_CORE_LIB -DQT_DBUS_LIB -DQT_DEPRECATED_WARNINGS_SINCE=0x060000 -DQT_DISABLE_DEPRECATED_BEFORE=0x050d00 -DQT_GUI_LIB -DQT_NO_CAST_FROM_ASCII -DQT_NO_CAST_TO_ASCII -DQT_NO_DEBUG -DQT_NO_NARROWING_CONVERSIONS_IN_CONNECT -DQT_NO_SIGNALS_SLOTS_KEYWORDS -DQT_NO_URL_CAST_FROM_STRING -DQT_STRICT_ITERATORS -DQT_USE_QSTRINGBUILDER -DQT_WIDGETS_LIB -DQT_X11EXTRAS_LIB -D_GNU_SOURCE -D_LARGEFILE64_SOURCE -Isrc -I/tmp/portage/kde-frameworks/knotifications-5.70.0/work/knotifications-5.70.0/src -Isrc/KF5Notifications_autogen/include -isystem /usr/include/dbusmenu-qt5 -isystem /usr/include/qt5 -isystem /usr/include/qt5/QtWidgets -isystem /usr/include/qt5/QtGui -isystem /usr/include/qt5/QtCore -isystem /usr/lib64/qt5/mkspecs/linux-g++ -isystem /usr/include/qt5/QtDBus -isystem /usr/include/KF5/KCoreAddons -isystem /usr/include/KF5 -isystem /usr/include/KF5/KConfigCore -isystem /usr/include/KF5/KWindowSystem -isystem /usr/include/qt5/QtX11Extras  -DQT_NO_DEBUG -march=native -O3 -fgraphite-identity -floop-nest-optimize -fdevirtualize-at-ltrans -fipa-pta -fno-semantic-interposition -flto=12 -fno-signed-zeros -fno-trapping-math -fassociative-math -freciprocal-math -fno-math-errno -ffinite-math-only -fno-rounding-math -fno-signaling-nans -fcx-limited-range -fexcess-precision=fast -fno-plt -fno-common -fuse-linker-plugin -pipe -g0 -fno-stack-protector -fno-stack-clash-protection -fstack-check=no -fno-stack-check -Wl,-O4,--hash-style=gnu,--sort-common,--as-needed,-z,relro,-z,now,-lgomp,-lpthread -fno-operator-names -fno-exceptions -Wall -Wextra -Wcast-align -Wchar-subscripts -Wformat-security -Wno-long-long -Wpointer-arith -Wundef -Wnon-virtual-dtor -Woverloaded-virtual -Werror=return-type -Wvla -Wdate-time -Wsuggest-override -Wlogical-op -fdiagnostics-color=always -pedantic -Wzero-as-null-pointer-constant -fPIC -fvisibility=hidden -fvisibility-inlines-hidden   -fPIC -D_REENTRANT -std=gnu++11 -MD -MT src/CMakeFiles/KF5Notifications.dir/knotificationjobuidelegate.cpp.o -MF src/CMakeFiles/KF5Notifications.dir/knotificationjobuidelegate.cpp.o.d -o src/CMakeFiles/KF5Notifications.dir/knotificationjobuidelegate.cpp.o -c /tmp/portage/kde-frameworks/knotifications-5.70.0/work/knotifications-5.70.0/src/knotificationjobuidelegate.cpp
[11/31] /usr/lib/ccache/bin/x86_64-pc-linux-gnu-g++ -DHAVE_CANBERRA -DKCOREADDONS_LIB -DKF5Notifications_EXPORTS -DKF_DEPRECATED_WARNINGS_SINCE=0x060000 -DKF_DISABLE_DEPRECATED_BEFORE_AND_AT=0x054400 -DKNOTIFICATIONS_DEPRECATED_WARNINGS_SINCE=0x0 -DKNOTIFICATIONS_DISABLE_DEPRECATED_BEFORE_AND_AT=0x0 -DQT_CORE_LIB -DQT_DBUS_LIB -DQT_DEPRECATED_WARNINGS_SINCE=0x060000 -DQT_DISABLE_DEPRECATED_BEFORE=0x050d00 -DQT_GUI_LIB -DQT_NO_CAST_FROM_ASCII -DQT_NO_CAST_TO_ASCII -DQT_NO_DEBUG -DQT_NO_NARROWING_CONVERSIONS_IN_CONNECT -DQT_NO_SIGNALS_SLOTS_KEYWORDS -DQT_NO_URL_CAST_FROM_STRING -DQT_STRICT_ITERATORS -DQT_USE_QSTRINGBUILDER -DQT_WIDGETS_LIB -DQT_X11EXTRAS_LIB -D_GNU_SOURCE -D_LARGEFILE64_SOURCE -Isrc -I/tmp/portage/kde-frameworks/knotifications-5.70.0/work/knotifications-5.70.0/src -Isrc/KF5Notifications_autogen/include -isystem /usr/include/dbusmenu-qt5 -isystem /usr/include/qt5 -isystem /usr/include/qt5/QtWidgets -isystem /usr/include/qt5/QtGui -isystem /usr/include/qt5/QtCore -isystem /usr/lib64/qt5/mkspecs/linux-g++ -isystem /usr/include/qt5/QtDBus -isystem /usr/include/KF5/KCoreAddons -isystem /usr/include/KF5 -isystem /usr/include/KF5/KConfigCore -isystem /usr/include/KF5/KWindowSystem -isystem /usr/include/qt5/QtX11Extras  -DQT_NO_DEBUG -march=native -O3 -fgraphite-identity -floop-nest-optimize -fdevirtualize-at-ltrans -fipa-pta -fno-semantic-interposition -flto=12 -fno-signed-zeros -fno-trapping-math -fassociative-math -freciprocal-math -fno-math-errno -ffinite-math-only -fno-rounding-math -fno-signaling-nans -fcx-limited-range -fexcess-precision=fast -fno-plt -fno-common -fuse-linker-plugin -pipe -g0 -fno-stack-protector -fno-stack-clash-protection -fstack-check=no -fno-stack-check -Wl,-O4,--hash-style=gnu,--sort-common,--as-needed,-z,relro,-z,now,-lgomp,-lpthread -fno-operator-names -fno-exceptions -Wall -Wextra -Wcast-align -Wchar-subscripts -Wformat-security -Wno-long-long -Wpointer-arith -Wundef -Wnon-virtual-dtor -Woverloaded-virtual -Werror=return-type -Wvla -Wdate-time -Wsuggest-override -Wlogical-op -fdiagnostics-color=always -pedantic -Wzero-as-null-pointer-constant -fPIC -fvisibility=hidden -fvisibility-inlines-hidden   -fPIC -D_REENTRANT -std=gnu++11 -MD -MT src/CMakeFiles/KF5Notifications.dir/knotifyconfig.cpp.o -MF src/CMakeFiles/KF5Notifications.dir/knotifyconfig.cpp.o.d -o src/CMakeFiles/KF5Notifications.dir/knotifyconfig.cpp.o -c /tmp/portage/kde-frameworks/knotifications-5.70.0/work/knotifications-5.70.0/src/knotifyconfig.cpp
[12/31] /usr/lib/ccache/bin/x86_64-pc-linux-gnu-g++ -DHAVE_CANBERRA -DKCOREADDONS_LIB -DKF5Notifications_EXPORTS -DKF_DEPRECATED_WARNINGS_SINCE=0x060000 -DKF_DISABLE_DEPRECATED_BEFORE_AND_AT=0x054400 -DKNOTIFICATIONS_DEPRECATED_WARNINGS_SINCE=0x0 -DKNOTIFICATIONS_DISABLE_DEPRECATED_BEFORE_AND_AT=0x0 -DQT_CORE_LIB -DQT_DBUS_LIB -DQT_DEPRECATED_WARNINGS_SINCE=0x060000 -DQT_DISABLE_DEPRECATED_BEFORE=0x050d00 -DQT_GUI_LIB -DQT_NO_CAST_FROM_ASCII -DQT_NO_CAST_TO_ASCII -DQT_NO_DEBUG -DQT_NO_NARROWING_CONVERSIONS_IN_CONNECT -DQT_NO_SIGNALS_SLOTS_KEYWORDS -DQT_NO_URL_CAST_FROM_STRING -DQT_STRICT_ITERATORS -DQT_USE_QSTRINGBUILDER -DQT_WIDGETS_LIB -DQT_X11EXTRAS_LIB -D_GNU_SOURCE -D_LARGEFILE64_SOURCE -Isrc -I/tmp/portage/kde-frameworks/knotifications-5.70.0/work/knotifications-5.70.0/src -Isrc/KF5Notifications_autogen/include -isystem /usr/include/dbusmenu-qt5 -isystem /usr/include/qt5 -isystem /usr/include/qt5/QtWidgets -isystem /usr/include/qt5/QtGui -isystem /usr/include/qt5/QtCore -isystem /usr/lib64/qt5/mkspecs/linux-g++ -isystem /usr/include/qt5/QtDBus -isystem /usr/include/KF5/KCoreAddons -isystem /usr/include/KF5 -isystem /usr/include/KF5/KConfigCore -isystem /usr/include/KF5/KWindowSystem -isystem /usr/include/qt5/QtX11Extras  -DQT_NO_DEBUG -march=native -O3 -fgraphite-identity -floop-nest-optimize -fdevirtualize-at-ltrans -fipa-pta -fno-semantic-interposition -flto=12 -fno-signed-zeros -fno-trapping-math -fassociative-math -freciprocal-math -fno-math-errno -ffinite-math-only -fno-rounding-math -fno-signaling-nans -fcx-limited-range -fexcess-precision=fast -fno-plt -fno-common -fuse-linker-plugin -pipe -g0 -fno-stack-protector -fno-stack-clash-protection -fstack-check=no -fno-stack-check -Wl,-O4,--hash-style=gnu,--sort-common,--as-needed,-z,relro,-z,now,-lgomp,-lpthread -fno-operator-names -fno-exceptions -Wall -Wextra -Wcast-align -Wchar-subscripts -Wformat-security -Wno-long-long -Wpointer-arith -Wundef -Wnon-virtual-dtor -Woverloaded-virtual -Werror=return-type -Wvla -Wdate-time -Wsuggest-override -Wlogical-op -fdiagnostics-color=always -pedantic -Wzero-as-null-pointer-constant -fPIC -fvisibility=hidden -fvisibility-inlines-hidden   -fPIC -D_REENTRANT -std=gnu++11 -MD -MT src/CMakeFiles/KF5Notifications.dir/notifybytaskbar.cpp.o -MF src/CMakeFiles/KF5Notifications.dir/notifybytaskbar.cpp.o.d -o src/CMakeFiles/KF5Notifications.dir/notifybytaskbar.cpp.o -c /tmp/portage/kde-frameworks/knotifications-5.70.0/work/knotifications-5.70.0/src/notifybytaskbar.cpp
[13/31] /usr/lib/ccache/bin/x86_64-pc-linux-gnu-g++ -DHAVE_CANBERRA -DKCOREADDONS_LIB -DKF5Notifications_EXPORTS -DKF_DEPRECATED_WARNINGS_SINCE=0x060000 -DKF_DISABLE_DEPRECATED_BEFORE_AND_AT=0x054400 -DKNOTIFICATIONS_DEPRECATED_WARNINGS_SINCE=0x0 -DKNOTIFICATIONS_DISABLE_DEPRECATED_BEFORE_AND_AT=0x0 -DQT_CORE_LIB -DQT_DBUS_LIB -DQT_DEPRECATED_WARNINGS_SINCE=0x060000 -DQT_DISABLE_DEPRECATED_BEFORE=0x050d00 -DQT_GUI_LIB -DQT_NO_CAST_FROM_ASCII -DQT_NO_CAST_TO_ASCII -DQT_NO_DEBUG -DQT_NO_NARROWING_CONVERSIONS_IN_CONNECT -DQT_NO_SIGNALS_SLOTS_KEYWORDS -DQT_NO_URL_CAST_FROM_STRING -DQT_STRICT_ITERATORS -DQT_USE_QSTRINGBUILDER -DQT_WIDGETS_LIB -DQT_X11EXTRAS_LIB -D_GNU_SOURCE -D_LARGEFILE64_SOURCE -Isrc -I/tmp/portage/kde-frameworks/knotifications-5.70.0/work/knotifications-5.70.0/src -Isrc/KF5Notifications_autogen/include -isystem /usr/include/dbusmenu-qt5 -isystem /usr/include/qt5 -isystem /usr/include/qt5/QtWidgets -isystem /usr/include/qt5/QtGui -isystem /usr/include/qt5/QtCore -isystem /usr/lib64/qt5/mkspecs/linux-g++ -isystem /usr/include/qt5/QtDBus -isystem /usr/include/KF5/KCoreAddons -isystem /usr/include/KF5 -isystem /usr/include/KF5/KConfigCore -isystem /usr/include/KF5/KWindowSystem -isystem /usr/include/qt5/QtX11Extras  -DQT_NO_DEBUG -march=native -O3 -fgraphite-identity -floop-nest-optimize -fdevirtualize-at-ltrans -fipa-pta -fno-semantic-interposition -flto=12 -fno-signed-zeros -fno-trapping-math -fassociative-math -freciprocal-math -fno-math-errno -ffinite-math-only -fno-rounding-math -fno-signaling-nans -fcx-limited-range -fexcess-precision=fast -fno-plt -fno-common -fuse-linker-plugin -pipe -g0 -fno-stack-protector -fno-stack-clash-protection -fstack-check=no -fno-stack-check -Wl,-O4,--hash-style=gnu,--sort-common,--as-needed,-z,relro,-z,now,-lgomp,-lpthread -fno-operator-names -fno-exceptions -Wall -Wextra -Wcast-align -Wchar-subscripts -Wformat-security -Wno-long-long -Wpointer-arith -Wundef -Wnon-virtual-dtor -Woverloaded-virtual -Werror=return-type -Wvla -Wdate-time -Wsuggest-override -Wlogical-op -fdiagnostics-color=always -pedantic -Wzero-as-null-pointer-constant -fPIC -fvisibility=hidden -fvisibility-inlines-hidden   -fPIC -D_REENTRANT -std=gnu++11 -MD -MT src/CMakeFiles/KF5Notifications.dir/knotification.cpp.o -MF src/CMakeFiles/KF5Notifications.dir/knotification.cpp.o.d -o src/CMakeFiles/KF5Notifications.dir/knotification.cpp.o -c /tmp/portage/kde-frameworks/knotifications-5.70.0/work/knotifications-5.70.0/src/knotification.cpp
[14/31] /usr/lib/ccache/bin/x86_64-pc-linux-gnu-g++ -DHAVE_CANBERRA -DKCOREADDONS_LIB -DKF5Notifications_EXPORTS -DKF_DEPRECATED_WARNINGS_SINCE=0x060000 -DKF_DISABLE_DEPRECATED_BEFORE_AND_AT=0x054400 -DKNOTIFICATIONS_DEPRECATED_WARNINGS_SINCE=0x0 -DKNOTIFICATIONS_DISABLE_DEPRECATED_BEFORE_AND_AT=0x0 -DQT_CORE_LIB -DQT_DBUS_LIB -DQT_DEPRECATED_WARNINGS_SINCE=0x060000 -DQT_DISABLE_DEPRECATED_BEFORE=0x050d00 -DQT_GUI_LIB -DQT_NO_CAST_FROM_ASCII -DQT_NO_CAST_TO_ASCII -DQT_NO_DEBUG -DQT_NO_NARROWING_CONVERSIONS_IN_CONNECT -DQT_NO_SIGNALS_SLOTS_KEYWORDS -DQT_NO_URL_CAST_FROM_STRING -DQT_STRICT_ITERATORS -DQT_USE_QSTRINGBUILDER -DQT_WIDGETS_LIB -DQT_X11EXTRAS_LIB -D_GNU_SOURCE -D_LARGEFILE64_SOURCE -Isrc -I/tmp/portage/kde-frameworks/knotifications-5.70.0/work/knotifications-5.70.0/src -Isrc/KF5Notifications_autogen/include -isystem /usr/include/dbusmenu-qt5 -isystem /usr/include/qt5 -isystem /usr/include/qt5/QtWidgets -isystem /usr/include/qt5/QtGui -isystem /usr/include/qt5/QtCore -isystem /usr/lib64/qt5/mkspecs/linux-g++ -isystem /usr/include/qt5/QtDBus -isystem /usr/include/KF5/KCoreAddons -isystem /usr/include/KF5 -isystem /usr/include/KF5/KConfigCore -isystem /usr/include/KF5/KWindowSystem -isystem /usr/include/qt5/QtX11Extras  -DQT_NO_DEBUG -march=native -O3 -fgraphite-identity -floop-nest-optimize -fdevirtualize-at-ltrans -fipa-pta -fno-semantic-interposition -flto=12 -fno-signed-zeros -fno-trapping-math -fassociative-math -freciprocal-math -fno-math-errno -ffinite-math-only -fno-rounding-math -fno-signaling-nans -fcx-limited-range -fexcess-precision=fast -fno-plt -fno-common -fuse-linker-plugin -pipe -g0 -fno-stack-protector -fno-stack-clash-protection -fstack-check=no -fno-stack-check -Wl,-O4,--hash-style=gnu,--sort-common,--as-needed,-z,relro,-z,now,-lgomp,-lpthread -fno-operator-names -fno-exceptions -Wall -Wextra -Wcast-align -Wchar-subscripts -Wformat-security -Wno-long-long -Wpointer-arith -Wundef -Wnon-virtual-dtor -Woverloaded-virtual -Werror=return-type -Wvla -Wdate-time -Wsuggest-override -Wlogical-op -fdiagnostics-color=always -pedantic -Wzero-as-null-pointer-constant -fPIC -fvisibility=hidden -fvisibility-inlines-hidden   -fPIC -D_REENTRANT -std=gnu++11 -MD -MT src/CMakeFiles/KF5Notifications.dir/notifybylogfile.cpp.o -MF src/CMakeFiles/KF5Notifications.dir/notifybylogfile.cpp.o.d -o src/CMakeFiles/KF5Notifications.dir/notifybylogfile.cpp.o -c /tmp/portage/kde-frameworks/knotifications-5.70.0/work/knotifications-5.70.0/src/notifybylogfile.cpp
[15/31] /usr/lib/ccache/bin/x86_64-pc-linux-gnu-g++ -DHAVE_CANBERRA -DKCOREADDONS_LIB -DKF5Notifications_EXPORTS -DKF_DEPRECATED_WARNINGS_SINCE=0x060000 -DKF_DISABLE_DEPRECATED_BEFORE_AND_AT=0x054400 -DKNOTIFICATIONS_DEPRECATED_WARNINGS_SINCE=0x0 -DKNOTIFICATIONS_DISABLE_DEPRECATED_BEFORE_AND_AT=0x0 -DQT_CORE_LIB -DQT_DBUS_LIB -DQT_DEPRECATED_WARNINGS_SINCE=0x060000 -DQT_DISABLE_DEPRECATED_BEFORE=0x050d00 -DQT_GUI_LIB -DQT_NO_CAST_FROM_ASCII -DQT_NO_CAST_TO_ASCII -DQT_NO_DEBUG -DQT_NO_NARROWING_CONVERSIONS_IN_CONNECT -DQT_NO_SIGNALS_SLOTS_KEYWORDS -DQT_NO_URL_CAST_FROM_STRING -DQT_STRICT_ITERATORS -DQT_USE_QSTRINGBUILDER -DQT_WIDGETS_LIB -DQT_X11EXTRAS_LIB -D_GNU_SOURCE -D_LARGEFILE64_SOURCE -Isrc -I/tmp/portage/kde-frameworks/knotifications-5.70.0/work/knotifications-5.70.0/src -Isrc/KF5Notifications_autogen/include -isystem /usr/include/dbusmenu-qt5 -isystem /usr/include/qt5 -isystem /usr/include/qt5/QtWidgets -isystem /usr/include/qt5/QtGui -isystem /usr/include/qt5/QtCore -isystem /usr/lib64/qt5/mkspecs/linux-g++ -isystem /usr/include/qt5/QtDBus -isystem /usr/include/KF5/KCoreAddons -isystem /usr/include/KF5 -isystem /usr/include/KF5/KConfigCore -isystem /usr/include/KF5/KWindowSystem -isystem /usr/include/qt5/QtX11Extras  -DQT_NO_DEBUG -march=native -O3 -fgraphite-identity -floop-nest-optimize -fdevirtualize-at-ltrans -fipa-pta -fno-semantic-interposition -flto=12 -fno-signed-zeros -fno-trapping-math -fassociative-math -freciprocal-math -fno-math-errno -ffinite-math-only -fno-rounding-math -fno-signaling-nans -fcx-limited-range -fexcess-precision=fast -fno-plt -fno-common -fuse-linker-plugin -pipe -g0 -fno-stack-protector -fno-stack-clash-protection -fstack-check=no -fno-stack-check -Wl,-O4,--hash-style=gnu,--sort-common,--as-needed,-z,relro,-z,now,-lgomp,-lpthread -fno-operator-names -fno-exceptions -Wall -Wextra -Wcast-align -Wchar-subscripts -Wformat-security -Wno-long-long -Wpointer-arith -Wundef -Wnon-virtual-dtor -Woverloaded-virtual -Werror=return-type -Wvla -Wdate-time -Wsuggest-override -Wlogical-op -fdiagnostics-color=always -pedantic -Wzero-as-null-pointer-constant -fPIC -fvisibility=hidden -fvisibility-inlines-hidden   -fPIC -D_REENTRANT -std=gnu++11 -MD -MT src/CMakeFiles/KF5Notifications.dir/notifybyexecute.cpp.o -MF src/CMakeFiles/KF5Notifications.dir/notifybyexecute.cpp.o.d -o src/CMakeFiles/KF5Notifications.dir/notifybyexecute.cpp.o -c /tmp/portage/kde-frameworks/knotifications-5.70.0/work/knotifications-5.70.0/src/notifybyexecute.cpp
[16/31] /usr/lib/ccache/bin/x86_64-pc-linux-gnu-g++ -DHAVE_CANBERRA -DKCOREADDONS_LIB -DKF5Notifications_EXPORTS -DKF_DEPRECATED_WARNINGS_SINCE=0x060000 -DKF_DISABLE_DEPRECATED_BEFORE_AND_AT=0x054400 -DKNOTIFICATIONS_DEPRECATED_WARNINGS_SINCE=0x0 -DKNOTIFICATIONS_DISABLE_DEPRECATED_BEFORE_AND_AT=0x0 -DQT_CORE_LIB -DQT_DBUS_LIB -DQT_DEPRECATED_WARNINGS_SINCE=0x060000 -DQT_DISABLE_DEPRECATED_BEFORE=0x050d00 -DQT_GUI_LIB -DQT_NO_CAST_FROM_ASCII -DQT_NO_CAST_TO_ASCII -DQT_NO_DEBUG -DQT_NO_NARROWING_CONVERSIONS_IN_CONNECT -DQT_NO_SIGNALS_SLOTS_KEYWORDS -DQT_NO_URL_CAST_FROM_STRING -DQT_STRICT_ITERATORS -DQT_USE_QSTRINGBUILDER -DQT_WIDGETS_LIB -DQT_X11EXTRAS_LIB -D_GNU_SOURCE -D_LARGEFILE64_SOURCE -Isrc -I/tmp/portage/kde-frameworks/knotifications-5.70.0/work/knotifications-5.70.0/src -Isrc/KF5Notifications_autogen/include -isystem /usr/include/dbusmenu-qt5 -isystem /usr/include/qt5 -isystem /usr/include/qt5/QtWidgets -isystem /usr/include/qt5/QtGui -isystem /usr/include/qt5/QtCore -isystem /usr/lib64/qt5/mkspecs/linux-g++ -isystem /usr/include/qt5/QtDBus -isystem /usr/include/KF5/KCoreAddons -isystem /usr/include/KF5 -isystem /usr/include/KF5/KConfigCore -isystem /usr/include/KF5/KWindowSystem -isystem /usr/include/qt5/QtX11Extras  -DQT_NO_DEBUG -march=native -O3 -fgraphite-identity -floop-nest-optimize -fdevirtualize-at-ltrans -fipa-pta -fno-semantic-interposition -flto=12 -fno-signed-zeros -fno-trapping-math -fassociative-math -freciprocal-math -fno-math-errno -ffinite-math-only -fno-rounding-math -fno-signaling-nans -fcx-limited-range -fexcess-precision=fast -fno-plt -fno-common -fuse-linker-plugin -pipe -g0 -fno-stack-protector -fno-stack-clash-protection -fstack-check=no -fno-stack-check -Wl,-O4,--hash-style=gnu,--sort-common,--as-needed,-z,relro,-z,now,-lgomp,-lpthread -fno-operator-names -fno-exceptions -Wall -Wextra -Wcast-align -Wchar-subscripts -Wformat-security -Wno-long-long -Wpointer-arith -Wundef -Wnon-virtual-dtor -Woverloaded-virtual -Werror=return-type -Wvla -Wdate-time -Wsuggest-override -Wlogical-op -fdiagnostics-color=always -pedantic -Wzero-as-null-pointer-constant -fPIC -fvisibility=hidden -fvisibility-inlines-hidden   -fPIC -D_REENTRANT -std=gnu++11 -MD -MT src/CMakeFiles/KF5Notifications.dir/kpassivepopup.cpp.o -MF src/CMakeFiles/KF5Notifications.dir/kpassivepopup.cpp.o.d -o src/CMakeFiles/KF5Notifications.dir/kpassivepopup.cpp.o -c /tmp/portage/kde-frameworks/knotifications-5.70.0/work/knotifications-5.70.0/src/kpassivepopup.cpp
[17/31] /usr/lib/ccache/bin/x86_64-pc-linux-gnu-g++ -DHAVE_CANBERRA -DKCOREADDONS_LIB -DKF5Notifications_EXPORTS -DKF_DEPRECATED_WARNINGS_SINCE=0x060000 -DKF_DISABLE_DEPRECATED_BEFORE_AND_AT=0x054400 -DKNOTIFICATIONS_DEPRECATED_WARNINGS_SINCE=0x0 -DKNOTIFICATIONS_DISABLE_DEPRECATED_BEFORE_AND_AT=0x0 -DQT_CORE_LIB -DQT_DBUS_LIB -DQT_DEPRECATED_WARNINGS_SINCE=0x060000 -DQT_DISABLE_DEPRECATED_BEFORE=0x050d00 -DQT_GUI_LIB -DQT_NO_CAST_FROM_ASCII -DQT_NO_CAST_TO_ASCII -DQT_NO_DEBUG -DQT_NO_NARROWING_CONVERSIONS_IN_CONNECT -DQT_NO_SIGNALS_SLOTS_KEYWORDS -DQT_NO_URL_CAST_FROM_STRING -DQT_STRICT_ITERATORS -DQT_USE_QSTRINGBUILDER -DQT_WIDGETS_LIB -DQT_X11EXTRAS_LIB -D_GNU_SOURCE -D_LARGEFILE64_SOURCE -Isrc -I/tmp/portage/kde-frameworks/knotifications-5.70.0/work/knotifications-5.70.0/src -Isrc/KF5Notifications_autogen/include -isystem /usr/include/dbusmenu-qt5 -isystem /usr/include/qt5 -isystem /usr/include/qt5/QtWidgets -isystem /usr/include/qt5/QtGui -isystem /usr/include/qt5/QtCore -isystem /usr/lib64/qt5/mkspecs/linux-g++ -isystem /usr/include/qt5/QtDBus -isystem /usr/include/KF5/KCoreAddons -isystem /usr/include/KF5 -isystem /usr/include/KF5/KConfigCore -isystem /usr/include/KF5/KWindowSystem -isystem /usr/include/qt5/QtX11Extras  -DQT_NO_DEBUG -march=native -O3 -fgraphite-identity -floop-nest-optimize -fdevirtualize-at-ltrans -fipa-pta -fno-semantic-interposition -flto=12 -fno-signed-zeros -fno-trapping-math -fassociative-math -freciprocal-math -fno-math-errno -ffinite-math-only -fno-rounding-math -fno-signaling-nans -fcx-limited-range -fexcess-precision=fast -fno-plt -fno-common -fuse-linker-plugin -pipe -g0 -fno-stack-protector -fno-stack-clash-protection -fstack-check=no -fno-stack-check -Wl,-O4,--hash-style=gnu,--sort-common,--as-needed,-z,relro,-z,now,-lgomp,-lpthread -fno-operator-names -fno-exceptions -Wall -Wextra -Wcast-align -Wchar-subscripts -Wformat-security -Wno-long-long -Wpointer-arith -Wundef -Wnon-virtual-dtor -Woverloaded-virtual -Werror=return-type -Wvla -Wdate-time -Wsuggest-override -Wlogical-op -fdiagnostics-color=always -pedantic -Wzero-as-null-pointer-constant -fPIC -fvisibility=hidden -fvisibility-inlines-hidden   -fPIC -D_REENTRANT -std=gnu++11 -MD -MT src/CMakeFiles/KF5Notifications.dir/KF5Notifications_autogen/mocs_compilation.cpp.o -MF src/CMakeFiles/KF5Notifications.dir/KF5Notifications_autogen/mocs_compilation.cpp.o.d -o src/CMakeFiles/KF5Notifications.dir/KF5Notifications_autogen/mocs_compilation.cpp.o -c src/KF5Notifications_autogen/mocs_compilation.cpp
[18/31] /usr/lib/ccache/bin/x86_64-pc-linux-gnu-g++ -DHAVE_CANBERRA -DKCOREADDONS_LIB -DKF5Notifications_EXPORTS -DKF_DEPRECATED_WARNINGS_SINCE=0x060000 -DKF_DISABLE_DEPRECATED_BEFORE_AND_AT=0x054400 -DKNOTIFICATIONS_DEPRECATED_WARNINGS_SINCE=0x0 -DKNOTIFICATIONS_DISABLE_DEPRECATED_BEFORE_AND_AT=0x0 -DQT_CORE_LIB -DQT_DBUS_LIB -DQT_DEPRECATED_WARNINGS_SINCE=0x060000 -DQT_DISABLE_DEPRECATED_BEFORE=0x050d00 -DQT_GUI_LIB -DQT_NO_CAST_FROM_ASCII -DQT_NO_CAST_TO_ASCII -DQT_NO_DEBUG -DQT_NO_NARROWING_CONVERSIONS_IN_CONNECT -DQT_NO_SIGNALS_SLOTS_KEYWORDS -DQT_NO_URL_CAST_FROM_STRING -DQT_STRICT_ITERATORS -DQT_USE_QSTRINGBUILDER -DQT_WIDGETS_LIB -DQT_X11EXTRAS_LIB -D_GNU_SOURCE -D_LARGEFILE64_SOURCE -Isrc -I/tmp/portage/kde-frameworks/knotifications-5.70.0/work/knotifications-5.70.0/src -Isrc/KF5Notifications_autogen/include -isystem /usr/include/dbusmenu-qt5 -isystem /usr/include/qt5 -isystem /usr/include/qt5/QtWidgets -isystem /usr/include/qt5/QtGui -isystem /usr/include/qt5/QtCore -isystem /usr/lib64/qt5/mkspecs/linux-g++ -isystem /usr/include/qt5/QtDBus -isystem /usr/include/KF5/KCoreAddons -isystem /usr/include/KF5 -isystem /usr/include/KF5/KConfigCore -isystem /usr/include/KF5/KWindowSystem -isystem /usr/include/qt5/QtX11Extras  -DQT_NO_DEBUG -march=native -O3 -fgraphite-identity -floop-nest-optimize -fdevirtualize-at-ltrans -fipa-pta -fno-semantic-interposition -flto=12 -fno-signed-zeros -fno-trapping-math -fassociative-math -freciprocal-math -fno-math-errno -ffinite-math-only -fno-rounding-math -fno-signaling-nans -fcx-limited-range -fexcess-precision=fast -fno-plt -fno-common -fuse-linker-plugin -pipe -g0 -fno-stack-protector -fno-stack-clash-protection -fstack-check=no -fno-stack-check -Wl,-O4,--hash-style=gnu,--sort-common,--as-needed,-z,relro,-z,now,-lgomp,-lpthread -fno-operator-names -fno-exceptions -Wall -Wextra -Wcast-align -Wchar-subscripts -Wformat-security -Wno-long-long -Wpointer-arith -Wundef -Wnon-virtual-dtor -Woverloaded-virtual -Werror=return-type -Wvla -Wdate-time -Wsuggest-override -Wlogical-op -fdiagnostics-color=always -pedantic -Wzero-as-null-pointer-constant -fPIC -fvisibility=hidden -fvisibility-inlines-hidden   -fPIC -D_REENTRANT -std=gnu++11 -MD -MT src/CMakeFiles/KF5Notifications.dir/knotificationmanager.cpp.o -MF src/CMakeFiles/KF5Notifications.dir/knotificationmanager.cpp.o.d -o src/CMakeFiles/KF5Notifications.dir/knotificationmanager.cpp.o -c /tmp/portage/kde-frameworks/knotifications-5.70.0/work/knotifications-5.70.0/src/knotificationmanager.cpp
[19/31] /usr/lib/ccache/bin/x86_64-pc-linux-gnu-g++ -DHAVE_CANBERRA -DKCOREADDONS_LIB -DKF5Notifications_EXPORTS -DKF_DEPRECATED_WARNINGS_SINCE=0x060000 -DKF_DISABLE_DEPRECATED_BEFORE_AND_AT=0x054400 -DKNOTIFICATIONS_DEPRECATED_WARNINGS_SINCE=0x0 -DKNOTIFICATIONS_DISABLE_DEPRECATED_BEFORE_AND_AT=0x0 -DQT_CORE_LIB -DQT_DBUS_LIB -DQT_DEPRECATED_WARNINGS_SINCE=0x060000 -DQT_DISABLE_DEPRECATED_BEFORE=0x050d00 -DQT_GUI_LIB -DQT_NO_CAST_FROM_ASCII -DQT_NO_CAST_TO_ASCII -DQT_NO_DEBUG -DQT_NO_NARROWING_CONVERSIONS_IN_CONNECT -DQT_NO_SIGNALS_SLOTS_KEYWORDS -DQT_NO_URL_CAST_FROM_STRING -DQT_STRICT_ITERATORS -DQT_USE_QSTRINGBUILDER -DQT_WIDGETS_LIB -DQT_X11EXTRAS_LIB -D_GNU_SOURCE -D_LARGEFILE64_SOURCE -Isrc -I/tmp/portage/kde-frameworks/knotifications-5.70.0/work/knotifications-5.70.0/src -Isrc/KF5Notifications_autogen/include -isystem /usr/include/dbusmenu-qt5 -isystem /usr/include/qt5 -isystem /usr/include/qt5/QtWidgets -isystem /usr/include/qt5/QtGui -isystem /usr/include/qt5/QtCore -isystem /usr/lib64/qt5/mkspecs/linux-g++ -isystem /usr/include/qt5/QtDBus -isystem /usr/include/KF5/KCoreAddons -isystem /usr/include/KF5 -isystem /usr/include/KF5/KConfigCore -isystem /usr/include/KF5/KWindowSystem -isystem /usr/include/qt5/QtX11Extras  -DQT_NO_DEBUG -march=native -O3 -fgraphite-identity -floop-nest-optimize -fdevirtualize-at-ltrans -fipa-pta -fno-semantic-interposition -flto=12 -fno-signed-zeros -fno-trapping-math -fassociative-math -freciprocal-math -fno-math-errno -ffinite-math-only -fno-rounding-math -fno-signaling-nans -fcx-limited-range -fexcess-precision=fast -fno-plt -fno-common -fuse-linker-plugin -pipe -g0 -fno-stack-protector -fno-stack-clash-protection -fstack-check=no -fno-stack-check -Wl,-O4,--hash-style=gnu,--sort-common,--as-needed,-z,relro,-z,now,-lgomp,-lpthread -fno-operator-names -fno-exceptions -Wall -Wextra -Wcast-align -Wchar-subscripts -Wformat-security -Wno-long-long -Wpointer-arith -Wundef -Wnon-virtual-dtor -Woverloaded-virtual -Werror=return-type -Wvla -Wdate-time -Wsuggest-override -Wlogical-op -fdiagnostics-color=always -pedantic -Wzero-as-null-pointer-constant -fPIC -fvisibility=hidden -fvisibility-inlines-hidden   -fPIC -D_REENTRANT -std=gnu++11 -MD -MT src/CMakeFiles/KF5Notifications.dir/imageconverter.cpp.o -MF src/CMakeFiles/KF5Notifications.dir/imageconverter.cpp.o.d -o src/CMakeFiles/KF5Notifications.dir/imageconverter.cpp.o -c /tmp/portage/kde-frameworks/knotifications-5.70.0/work/knotifications-5.70.0/src/imageconverter.cpp
[20/31] /usr/lib/ccache/bin/x86_64-pc-linux-gnu-g++ -DHAVE_CANBERRA -DKCOREADDONS_LIB -DKF5Notifications_EXPORTS -DKF_DEPRECATED_WARNINGS_SINCE=0x060000 -DKF_DISABLE_DEPRECATED_BEFORE_AND_AT=0x054400 -DKNOTIFICATIONS_DEPRECATED_WARNINGS_SINCE=0x0 -DKNOTIFICATIONS_DISABLE_DEPRECATED_BEFORE_AND_AT=0x0 -DQT_CORE_LIB -DQT_DBUS_LIB -DQT_DEPRECATED_WARNINGS_SINCE=0x060000 -DQT_DISABLE_DEPRECATED_BEFORE=0x050d00 -DQT_GUI_LIB -DQT_NO_CAST_FROM_ASCII -DQT_NO_CAST_TO_ASCII -DQT_NO_DEBUG -DQT_NO_NARROWING_CONVERSIONS_IN_CONNECT -DQT_NO_SIGNALS_SLOTS_KEYWORDS -DQT_NO_URL_CAST_FROM_STRING -DQT_STRICT_ITERATORS -DQT_USE_QSTRINGBUILDER -DQT_WIDGETS_LIB -DQT_X11EXTRAS_LIB -D_GNU_SOURCE -D_LARGEFILE64_SOURCE -Isrc -I/tmp/portage/kde-frameworks/knotifications-5.70.0/work/knotifications-5.70.0/src -Isrc/KF5Notifications_autogen/include -isystem /usr/include/dbusmenu-qt5 -isystem /usr/include/qt5 -isystem /usr/include/qt5/QtWidgets -isystem /usr/include/qt5/QtGui -isystem /usr/include/qt5/QtCore -isystem /usr/lib64/qt5/mkspecs/linux-g++ -isystem /usr/include/qt5/QtDBus -isystem /usr/include/KF5/KCoreAddons -isystem /usr/include/KF5 -isystem /usr/include/KF5/KConfigCore -isystem /usr/include/KF5/KWindowSystem -isystem /usr/include/qt5/QtX11Extras  -DQT_NO_DEBUG -march=native -O3 -fgraphite-identity -floop-nest-optimize -fdevirtualize-at-ltrans -fipa-pta -fno-semantic-interposition -flto=12 -fno-signed-zeros -fno-trapping-math -fassociative-math -freciprocal-math -fno-math-errno -ffinite-math-only -fno-rounding-math -fno-signaling-nans -fcx-limited-range -fexcess-precision=fast -fno-plt -fno-common -fuse-linker-plugin -pipe -g0 -fno-stack-protector -fno-stack-clash-protection -fstack-check=no -fno-stack-check -Wl,-O4,--hash-style=gnu,--sort-common,--as-needed,-z,relro,-z,now,-lgomp,-lpthread -fno-operator-names -fno-exceptions -Wall -Wextra -Wcast-align -Wchar-subscripts -Wformat-security -Wno-long-long -Wpointer-arith -Wundef -Wnon-virtual-dtor -Woverloaded-virtual -Werror=return-type -Wvla -Wdate-time -Wsuggest-override -Wlogical-op -fdiagnostics-color=always -pedantic -Wzero-as-null-pointer-constant -fPIC -fvisibility=hidden -fvisibility-inlines-hidden   -fPIC -D_REENTRANT -std=gnu++11 -MD -MT src/CMakeFiles/KF5Notifications.dir/debug_p.cpp.o -MF src/CMakeFiles/KF5Notifications.dir/debug_p.cpp.o.d -o src/CMakeFiles/KF5Notifications.dir/debug_p.cpp.o -c src/debug_p.cpp
[21/31] /usr/lib/ccache/bin/x86_64-pc-linux-gnu-g++ -DHAVE_CANBERRA -DKCOREADDONS_LIB -DKF5Notifications_EXPORTS -DKF_DEPRECATED_WARNINGS_SINCE=0x060000 -DKF_DISABLE_DEPRECATED_BEFORE_AND_AT=0x054400 -DKNOTIFICATIONS_DEPRECATED_WARNINGS_SINCE=0x0 -DKNOTIFICATIONS_DISABLE_DEPRECATED_BEFORE_AND_AT=0x0 -DQT_CORE_LIB -DQT_DBUS_LIB -DQT_DEPRECATED_WARNINGS_SINCE=0x060000 -DQT_DISABLE_DEPRECATED_BEFORE=0x050d00 -DQT_GUI_LIB -DQT_NO_CAST_FROM_ASCII -DQT_NO_CAST_TO_ASCII -DQT_NO_DEBUG -DQT_NO_NARROWING_CONVERSIONS_IN_CONNECT -DQT_NO_SIGNALS_SLOTS_KEYWORDS -DQT_NO_URL_CAST_FROM_STRING -DQT_STRICT_ITERATORS -DQT_USE_QSTRINGBUILDER -DQT_WIDGETS_LIB -DQT_X11EXTRAS_LIB -D_GNU_SOURCE -D_LARGEFILE64_SOURCE -Isrc -I/tmp/portage/kde-frameworks/knotifications-5.70.0/work/knotifications-5.70.0/src -Isrc/KF5Notifications_autogen/include -isystem /usr/include/dbusmenu-qt5 -isystem /usr/include/qt5 -isystem /usr/include/qt5/QtWidgets -isystem /usr/include/qt5/QtGui -isystem /usr/include/qt5/QtCore -isystem /usr/lib64/qt5/mkspecs/linux-g++ -isystem /usr/include/qt5/QtDBus -isystem /usr/include/KF5/KCoreAddons -isystem /usr/include/KF5 -isystem /usr/include/KF5/KConfigCore -isystem /usr/include/KF5/KWindowSystem -isystem /usr/include/qt5/QtX11Extras  -DQT_NO_DEBUG -march=native -O3 -fgraphite-identity -floop-nest-optimize -fdevirtualize-at-ltrans -fipa-pta -fno-semantic-interposition -flto=12 -fno-signed-zeros -fno-trapping-math -fassociative-math -freciprocal-math -fno-math-errno -ffinite-math-only -fno-rounding-math -fno-signaling-nans -fcx-limited-range -fexcess-precision=fast -fno-plt -fno-common -fuse-linker-plugin -pipe -g0 -fno-stack-protector -fno-stack-clash-protection -fstack-check=no -fno-stack-check -Wl,-O4,--hash-style=gnu,--sort-common,--as-needed,-z,relro,-z,now,-lgomp,-lpthread -fno-operator-names -fno-exceptions -Wall -Wextra -Wcast-align -Wchar-subscripts -Wformat-security -Wno-long-long -Wpointer-arith -Wundef -Wnon-virtual-dtor -Woverloaded-virtual -Werror=return-type -Wvla -Wdate-time -Wsuggest-override -Wlogical-op -fdiagnostics-color=always -pedantic -Wzero-as-null-pointer-constant -fPIC -fvisibility=hidden -fvisibility-inlines-hidden   -fPIC -D_REENTRANT -std=gnu++11 -MD -MT src/CMakeFiles/KF5Notifications.dir/knotificationrestrictions.cpp.o -MF src/CMakeFiles/KF5Notifications.dir/knotificationrestrictions.cpp.o.d -o src/CMakeFiles/KF5Notifications.dir/knotificationrestrictions.cpp.o -c /tmp/portage/kde-frameworks/knotifications-5.70.0/work/knotifications-5.70.0/src/knotificationrestrictions.cpp
[22/31] /usr/lib/ccache/bin/x86_64-pc-linux-gnu-g++ -DHAVE_CANBERRA -DKCOREADDONS_LIB -DKF5Notifications_EXPORTS -DKF_DEPRECATED_WARNINGS_SINCE=0x060000 -DKF_DISABLE_DEPRECATED_BEFORE_AND_AT=0x054400 -DKNOTIFICATIONS_DEPRECATED_WARNINGS_SINCE=0x0 -DKNOTIFICATIONS_DISABLE_DEPRECATED_BEFORE_AND_AT=0x0 -DQT_CORE_LIB -DQT_DBUS_LIB -DQT_DEPRECATED_WARNINGS_SINCE=0x060000 -DQT_DISABLE_DEPRECATED_BEFORE=0x050d00 -DQT_GUI_LIB -DQT_NO_CAST_FROM_ASCII -DQT_NO_CAST_TO_ASCII -DQT_NO_DEBUG -DQT_NO_NARROWING_CONVERSIONS_IN_CONNECT -DQT_NO_SIGNALS_SLOTS_KEYWORDS -DQT_NO_URL_CAST_FROM_STRING -DQT_STRICT_ITERATORS -DQT_USE_QSTRINGBUILDER -DQT_WIDGETS_LIB -DQT_X11EXTRAS_LIB -D_GNU_SOURCE -D_LARGEFILE64_SOURCE -Isrc -I/tmp/portage/kde-frameworks/knotifications-5.70.0/work/knotifications-5.70.0/src -Isrc/KF5Notifications_autogen/include -isystem /usr/include/dbusmenu-qt5 -isystem /usr/include/qt5 -isystem /usr/include/qt5/QtWidgets -isystem /usr/include/qt5/QtGui -isystem /usr/include/qt5/QtCore -isystem /usr/lib64/qt5/mkspecs/linux-g++ -isystem /usr/include/qt5/QtDBus -isystem /usr/include/KF5/KCoreAddons -isystem /usr/include/KF5 -isystem /usr/include/KF5/KConfigCore -isystem /usr/include/KF5/KWindowSystem -isystem /usr/include/qt5/QtX11Extras  -DQT_NO_DEBUG -march=native -O3 -fgraphite-identity -floop-nest-optimize -fdevirtualize-at-ltrans -fipa-pta -fno-semantic-interposition -flto=12 -fno-signed-zeros -fno-trapping-math -fassociative-math -freciprocal-math -fno-math-errno -ffinite-math-only -fno-rounding-math -fno-signaling-nans -fcx-limited-range -fexcess-precision=fast -fno-plt -fno-common -fuse-linker-plugin -pipe -g0 -fno-stack-protector -fno-stack-clash-protection -fstack-check=no -fno-stack-check -Wl,-O4,--hash-style=gnu,--sort-common,--as-needed,-z,relro,-z,now,-lgomp,-lpthread -fno-operator-names -fno-exceptions -Wall -Wextra -Wcast-align -Wchar-subscripts -Wformat-security -Wno-long-long -Wpointer-arith -Wundef -Wnon-virtual-dtor -Woverloaded-virtual -Werror=return-type -Wvla -Wdate-time -Wsuggest-override -Wlogical-op -fdiagnostics-color=always -pedantic -Wzero-as-null-pointer-constant -fPIC -fvisibility=hidden -fvisibility-inlines-hidden   -fPIC -D_REENTRANT -std=gnu++11 -MD -MT src/CMakeFiles/KF5Notifications.dir/notifybyaudio_canberra.cpp.o -MF src/CMakeFiles/KF5Notifications.dir/notifybyaudio_canberra.cpp.o.d -o src/CMakeFiles/KF5Notifications.dir/notifybyaudio_canberra.cpp.o -c /tmp/portage/kde-frameworks/knotifications-5.70.0/work/knotifications-5.70.0/src/notifybyaudio_canberra.cpp
[23/31] /usr/lib/ccache/bin/x86_64-pc-linux-gnu-g++ -DHAVE_CANBERRA -DKCOREADDONS_LIB -DKF5Notifications_EXPORTS -DKF_DEPRECATED_WARNINGS_SINCE=0x060000 -DKF_DISABLE_DEPRECATED_BEFORE_AND_AT=0x054400 -DKNOTIFICATIONS_DEPRECATED_WARNINGS_SINCE=0x0 -DKNOTIFICATIONS_DISABLE_DEPRECATED_BEFORE_AND_AT=0x0 -DQT_CORE_LIB -DQT_DBUS_LIB -DQT_DEPRECATED_WARNINGS_SINCE=0x060000 -DQT_DISABLE_DEPRECATED_BEFORE=0x050d00 -DQT_GUI_LIB -DQT_NO_CAST_FROM_ASCII -DQT_NO_CAST_TO_ASCII -DQT_NO_DEBUG -DQT_NO_NARROWING_CONVERSIONS_IN_CONNECT -DQT_NO_SIGNALS_SLOTS_KEYWORDS -DQT_NO_URL_CAST_FROM_STRING -DQT_STRICT_ITERATORS -DQT_USE_QSTRINGBUILDER -DQT_WIDGETS_LIB -DQT_X11EXTRAS_LIB -D_GNU_SOURCE -D_LARGEFILE64_SOURCE -Isrc -I/tmp/portage/kde-frameworks/knotifications-5.70.0/work/knotifications-5.70.0/src -Isrc/KF5Notifications_autogen/include -isystem /usr/include/dbusmenu-qt5 -isystem /usr/include/qt5 -isystem /usr/include/qt5/QtWidgets -isystem /usr/include/qt5/QtGui -isystem /usr/include/qt5/QtCore -isystem /usr/lib64/qt5/mkspecs/linux-g++ -isystem /usr/include/qt5/QtDBus -isystem /usr/include/KF5/KCoreAddons -isystem /usr/include/KF5 -isystem /usr/include/KF5/KConfigCore -isystem /usr/include/KF5/KWindowSystem -isystem /usr/include/qt5/QtX11Extras  -DQT_NO_DEBUG -march=native -O3 -fgraphite-identity -floop-nest-optimize -fdevirtualize-at-ltrans -fipa-pta -fno-semantic-interposition -flto=12 -fno-signed-zeros -fno-trapping-math -fassociative-math -freciprocal-math -fno-math-errno -ffinite-math-only -fno-rounding-math -fno-signaling-nans -fcx-limited-range -fexcess-precision=fast -fno-plt -fno-common -fuse-linker-plugin -pipe -g0 -fno-stack-protector -fno-stack-clash-protection -fstack-check=no -fno-stack-check -Wl,-O4,--hash-style=gnu,--sort-common,--as-needed,-z,relro,-z,now,-lgomp,-lpthread -fno-operator-names -fno-exceptions -Wall -Wextra -Wcast-align -Wchar-subscripts -Wformat-security -Wno-long-long -Wpointer-arith -Wundef -Wnon-virtual-dtor -Woverloaded-virtual -Werror=return-type -Wvla -Wdate-time -Wsuggest-override -Wlogical-op -fdiagnostics-color=always -pedantic -Wzero-as-null-pointer-constant -fPIC -fvisibility=hidden -fvisibility-inlines-hidden   -fPIC -D_REENTRANT -std=gnu++11 -MD -MT src/CMakeFiles/KF5Notifications.dir/notifybyportal.cpp.o -MF src/CMakeFiles/KF5Notifications.dir/notifybyportal.cpp.o.d -o src/CMakeFiles/KF5Notifications.dir/notifybyportal.cpp.o -c /tmp/portage/kde-frameworks/knotifications-5.70.0/work/knotifications-5.70.0/src/notifybyportal.cpp
[24/31] /usr/lib/ccache/bin/x86_64-pc-linux-gnu-g++ -DHAVE_CANBERRA -DKCOREADDONS_LIB -DKF5Notifications_EXPORTS -DKF_DEPRECATED_WARNINGS_SINCE=0x060000 -DKF_DISABLE_DEPRECATED_BEFORE_AND_AT=0x054400 -DKNOTIFICATIONS_DEPRECATED_WARNINGS_SINCE=0x0 -DKNOTIFICATIONS_DISABLE_DEPRECATED_BEFORE_AND_AT=0x0 -DQT_CORE_LIB -DQT_DBUS_LIB -DQT_DEPRECATED_WARNINGS_SINCE=0x060000 -DQT_DISABLE_DEPRECATED_BEFORE=0x050d00 -DQT_GUI_LIB -DQT_NO_CAST_FROM_ASCII -DQT_NO_CAST_TO_ASCII -DQT_NO_DEBUG -DQT_NO_NARROWING_CONVERSIONS_IN_CONNECT -DQT_NO_SIGNALS_SLOTS_KEYWORDS -DQT_NO_URL_CAST_FROM_STRING -DQT_STRICT_ITERATORS -DQT_USE_QSTRINGBUILDER -DQT_WIDGETS_LIB -DQT_X11EXTRAS_LIB -D_GNU_SOURCE -D_LARGEFILE64_SOURCE -Isrc -I/tmp/portage/kde-frameworks/knotifications-5.70.0/work/knotifications-5.70.0/src -Isrc/KF5Notifications_autogen/include -isystem /usr/include/dbusmenu-qt5 -isystem /usr/include/qt5 -isystem /usr/include/qt5/QtWidgets -isystem /usr/include/qt5/QtGui -isystem /usr/include/qt5/QtCore -isystem /usr/lib64/qt5/mkspecs/linux-g++ -isystem /usr/include/qt5/QtDBus -isystem /usr/include/KF5/KCoreAddons -isystem /usr/include/KF5 -isystem /usr/include/KF5/KConfigCore -isystem /usr/include/KF5/KWindowSystem -isystem /usr/include/qt5/QtX11Extras  -DQT_NO_DEBUG -march=native -O3 -fgraphite-identity -floop-nest-optimize -fdevirtualize-at-ltrans -fipa-pta -fno-semantic-interposition -flto=12 -fno-signed-zeros -fno-trapping-math -fassociative-math -freciprocal-math -fno-math-errno -ffinite-math-only -fno-rounding-math -fno-signaling-nans -fcx-limited-range -fexcess-precision=fast -fno-plt -fno-common -fuse-linker-plugin -pipe -g0 -fno-stack-protector -fno-stack-clash-protection -fstack-check=no -fno-stack-check -Wl,-O4,--hash-style=gnu,--sort-common,--as-needed,-z,relro,-z,now,-lgomp,-lpthread -fno-operator-names -fno-exceptions -Wall -Wextra -Wcast-align -Wchar-subscripts -Wformat-security -Wno-long-long -Wpointer-arith -Wundef -Wnon-virtual-dtor -Woverloaded-virtual -Werror=return-type -Wvla -Wdate-time -Wsuggest-override -Wlogical-op -fdiagnostics-color=always -pedantic -Wzero-as-null-pointer-constant -fPIC -fvisibility=hidden -fvisibility-inlines-hidden   -fPIC -D_REENTRANT -std=gnu++11 -MD -MT src/CMakeFiles/KF5Notifications.dir/kstatusnotifieritem.cpp.o -MF src/CMakeFiles/KF5Notifications.dir/kstatusnotifieritem.cpp.o.d -o src/CMakeFiles/KF5Notifications.dir/kstatusnotifieritem.cpp.o -c /tmp/portage/kde-frameworks/knotifications-5.70.0/work/knotifications-5.70.0/src/kstatusnotifieritem.cpp
In file included from [01m[K../knotifications-5.70.0/src/kstatusnotifieritem.cpp:22[m[K:
[01m[K../knotifications-5.70.0/src/kstatusnotifieritemprivate_p.h:[m[K In constructor '[01m[KKStatusNotifierItemPrivate::KStatusNotifierItemPrivate(KStatusNotifierItem*)[m[K':
[01m[K../knotifications-5.70.0/src/kstatusnotifieritemprivate_p.h:177:14:[m[K [01;35m[Kwarning: [m[K'[01m[KKStatusNotifierItemPrivate::titleAction[m[K' will be initialized after [[01;35m[K-Wreorder[m[K]
  177 |     QAction *[01;35m[KtitleAction[m[K;
      |              [01;35m[K^~~~~~~~~~~[m[K
[01m[K../knotifications-5.70.0/src/kstatusnotifieritemprivate_p.h:171:32:[m[K [01;35m[Kwarning: [m[K  '[01m[KKStatusNotifierLegacyIcon* KStatusNotifierItemPrivate::systemTrayIcon[m[K' [[01;35m[K-Wreorder[m[K]
  171 |     KStatusNotifierLegacyIcon *[01;35m[KsystemTrayIcon[m[K;
      |                                [01;35m[K^~~~~~~~~~~~~~[m[K
[01m[K../knotifications-5.70.0/src/kstatusnotifieritem.cpp:801:1:[m[K [01;35m[Kwarning: [m[K  when initialized here [[01;35m[K-Wreorder[m[K]
  801 | [01;35m[KKStatusNotifierItemPrivate[m[K::KStatusNotifierItemPrivate(KStatusNotifierItem *item)
      | [01;35m[K^~~~~~~~~~~~~~~~~~~~~~~~~~[m[K
[25/31] /usr/lib/ccache/bin/x86_64-pc-linux-gnu-g++ -DHAVE_CANBERRA -DKCOREADDONS_LIB -DKF5Notifications_EXPORTS -DKF_DEPRECATED_WARNINGS_SINCE=0x060000 -DKF_DISABLE_DEPRECATED_BEFORE_AND_AT=0x054400 -DKNOTIFICATIONS_DEPRECATED_WARNINGS_SINCE=0x0 -DKNOTIFICATIONS_DISABLE_DEPRECATED_BEFORE_AND_AT=0x0 -DQT_CORE_LIB -DQT_DBUS_LIB -DQT_DEPRECATED_WARNINGS_SINCE=0x060000 -DQT_DISABLE_DEPRECATED_BEFORE=0x050d00 -DQT_GUI_LIB -DQT_NO_CAST_FROM_ASCII -DQT_NO_CAST_TO_ASCII -DQT_NO_DEBUG -DQT_NO_NARROWING_CONVERSIONS_IN_CONNECT -DQT_NO_SIGNALS_SLOTS_KEYWORDS -DQT_NO_URL_CAST_FROM_STRING -DQT_STRICT_ITERATORS -DQT_USE_QSTRINGBUILDER -DQT_WIDGETS_LIB -DQT_X11EXTRAS_LIB -D_GNU_SOURCE -D_LARGEFILE64_SOURCE -Isrc -I/tmp/portage/kde-frameworks/knotifications-5.70.0/work/knotifications-5.70.0/src -Isrc/KF5Notifications_autogen/include -isystem /usr/include/dbusmenu-qt5 -isystem /usr/include/qt5 -isystem /usr/include/qt5/QtWidgets -isystem /usr/include/qt5/QtGui -isystem /usr/include/qt5/QtCore -isystem /usr/lib64/qt5/mkspecs/linux-g++ -isystem /usr/include/qt5/QtDBus -isystem /usr/include/KF5/KCoreAddons -isystem /usr/include/KF5 -isystem /usr/include/KF5/KConfigCore -isystem /usr/include/KF5/KWindowSystem -isystem /usr/include/qt5/QtX11Extras  -DQT_NO_DEBUG -march=native -O3 -fgraphite-identity -floop-nest-optimize -fdevirtualize-at-ltrans -fipa-pta -fno-semantic-interposition -flto=12 -fno-signed-zeros -fno-trapping-math -fassociative-math -freciprocal-math -fno-math-errno -ffinite-math-only -fno-rounding-math -fno-signaling-nans -fcx-limited-range -fexcess-precision=fast -fno-plt -fno-common -fuse-linker-plugin -pipe -g0 -fno-stack-protector -fno-stack-clash-protection -fstack-check=no -fno-stack-check -Wl,-O4,--hash-style=gnu,--sort-common,--as-needed,-z,relro,-z,now,-lgomp,-lpthread -fno-operator-names -fno-exceptions -Wall -Wextra -Wcast-align -Wchar-subscripts -Wformat-security -Wno-long-long -Wpointer-arith -Wundef -Wnon-virtual-dtor -Woverloaded-virtual -Werror=return-type -Wvla -Wdate-time -Wsuggest-override -Wlogical-op -fdiagnostics-color=always -pedantic -Wzero-as-null-pointer-constant -fPIC -fvisibility=hidden -fvisibility-inlines-hidden   -fPIC -D_REENTRANT -std=gnu++11 -MD -MT src/CMakeFiles/KF5Notifications.dir/notifybypopup.cpp.o -MF src/CMakeFiles/KF5Notifications.dir/notifybypopup.cpp.o.d -o src/CMakeFiles/KF5Notifications.dir/notifybypopup.cpp.o -c /tmp/portage/kde-frameworks/knotifications-5.70.0/work/knotifications-5.70.0/src/notifybypopup.cpp
[26/31] /usr/lib/ccache/bin/x86_64-pc-linux-gnu-g++ -DHAVE_CANBERRA -DKCOREADDONS_LIB -DKF5Notifications_EXPORTS -DKF_DEPRECATED_WARNINGS_SINCE=0x060000 -DKF_DISABLE_DEPRECATED_BEFORE_AND_AT=0x054400 -DKNOTIFICATIONS_DEPRECATED_WARNINGS_SINCE=0x0 -DKNOTIFICATIONS_DISABLE_DEPRECATED_BEFORE_AND_AT=0x0 -DQT_CORE_LIB -DQT_DBUS_LIB -DQT_DEPRECATED_WARNINGS_SINCE=0x060000 -DQT_DISABLE_DEPRECATED_BEFORE=0x050d00 -DQT_GUI_LIB -DQT_NO_CAST_FROM_ASCII -DQT_NO_CAST_TO_ASCII -DQT_NO_DEBUG -DQT_NO_NARROWING_CONVERSIONS_IN_CONNECT -DQT_NO_SIGNALS_SLOTS_KEYWORDS -DQT_NO_URL_CAST_FROM_STRING -DQT_STRICT_ITERATORS -DQT_USE_QSTRINGBUILDER -DQT_WIDGETS_LIB -DQT_X11EXTRAS_LIB -D_GNU_SOURCE -D_LARGEFILE64_SOURCE -Isrc -I/tmp/portage/kde-frameworks/knotifications-5.70.0/work/knotifications-5.70.0/src -Isrc/KF5Notifications_autogen/include -isystem /usr/include/dbusmenu-qt5 -isystem /usr/include/qt5 -isystem /usr/include/qt5/QtWidgets -isystem /usr/include/qt5/QtGui -isystem /usr/include/qt5/QtCore -isystem /usr/lib64/qt5/mkspecs/linux-g++ -isystem /usr/include/qt5/QtDBus -isystem /usr/include/KF5/KCoreAddons -isystem /usr/include/KF5 -isystem /usr/include/KF5/KConfigCore -isystem /usr/include/KF5/KWindowSystem -isystem /usr/include/qt5/QtX11Extras  -DQT_NO_DEBUG -march=native -O3 -fgraphite-identity -floop-nest-optimize -fdevirtualize-at-ltrans -fipa-pta -fno-semantic-interposition -flto=12 -fno-signed-zeros -fno-trapping-math -fassociative-math -freciprocal-math -fno-math-errno -ffinite-math-only -fno-rounding-math -fno-signaling-nans -fcx-limited-range -fexcess-precision=fast -fno-plt -fno-common -fuse-linker-plugin -pipe -g0 -fno-stack-protector -fno-stack-clash-protection -fstack-check=no -fno-stack-check -Wl,-O4,--hash-style=gnu,--sort-common,--as-needed,-z,relro,-z,now,-lgomp,-lpthread -fno-operator-names -fno-exceptions -Wall -Wextra -Wcast-align -Wchar-subscripts -Wformat-security -Wno-long-long -Wpointer-arith -Wundef -Wnon-virtual-dtor -Woverloaded-virtual -Werror=return-type -Wvla -Wdate-time -Wsuggest-override -Wlogical-op -fdiagnostics-color=always -pedantic -Wzero-as-null-pointer-constant -fPIC -fvisibility=hidden -fvisibility-inlines-hidden   -fPIC -D_REENTRANT -std=gnu++11 -MD -MT src/CMakeFiles/KF5Notifications.dir/kstatusnotifieritemdbus_p.cpp.o -MF src/CMakeFiles/KF5Notifications.dir/kstatusnotifieritemdbus_p.cpp.o.d -o src/CMakeFiles/KF5Notifications.dir/kstatusnotifieritemdbus_p.cpp.o -c /tmp/portage/kde-frameworks/knotifications-5.70.0/work/knotifications-5.70.0/src/kstatusnotifieritemdbus_p.cpp
[27/31] /usr/lib/ccache/bin/x86_64-pc-linux-gnu-g++ -DHAVE_CANBERRA -DKCOREADDONS_LIB -DKF5Notifications_EXPORTS -DKF_DEPRECATED_WARNINGS_SINCE=0x060000 -DKF_DISABLE_DEPRECATED_BEFORE_AND_AT=0x054400 -DKNOTIFICATIONS_DEPRECATED_WARNINGS_SINCE=0x0 -DKNOTIFICATIONS_DISABLE_DEPRECATED_BEFORE_AND_AT=0x0 -DQT_CORE_LIB -DQT_DBUS_LIB -DQT_DEPRECATED_WARNINGS_SINCE=0x060000 -DQT_DISABLE_DEPRECATED_BEFORE=0x050d00 -DQT_GUI_LIB -DQT_NO_CAST_FROM_ASCII -DQT_NO_CAST_TO_ASCII -DQT_NO_DEBUG -DQT_NO_NARROWING_CONVERSIONS_IN_CONNECT -DQT_NO_SIGNALS_SLOTS_KEYWORDS -DQT_NO_URL_CAST_FROM_STRING -DQT_STRICT_ITERATORS -DQT_USE_QSTRINGBUILDER -DQT_WIDGETS_LIB -DQT_X11EXTRAS_LIB -D_GNU_SOURCE -D_LARGEFILE64_SOURCE -Isrc -I/tmp/portage/kde-frameworks/knotifications-5.70.0/work/knotifications-5.70.0/src -Isrc/KF5Notifications_autogen/include -isystem /usr/include/dbusmenu-qt5 -isystem /usr/include/qt5 -isystem /usr/include/qt5/QtWidgets -isystem /usr/include/qt5/QtGui -isystem /usr/include/qt5/QtCore -isystem /usr/lib64/qt5/mkspecs/linux-g++ -isystem /usr/include/qt5/QtDBus -isystem /usr/include/KF5/KCoreAddons -isystem /usr/include/KF5 -isystem /usr/include/KF5/KConfigCore -isystem /usr/include/KF5/KWindowSystem -isystem /usr/include/qt5/QtX11Extras  -DQT_NO_DEBUG -march=native -O3 -fgraphite-identity -floop-nest-optimize -fdevirtualize-at-ltrans -fipa-pta -fno-semantic-interposition -flto=12 -fno-signed-zeros -fno-trapping-math -fassociative-math -freciprocal-math -fno-math-errno -ffinite-math-only -fno-rounding-math -fno-signaling-nans -fcx-limited-range -fexcess-precision=fast -fno-plt -fno-common -fuse-linker-plugin -pipe -g0 -fno-stack-protector -fno-stack-clash-protection -fstack-check=no -fno-stack-check -Wl,-O4,--hash-style=gnu,--sort-common,--as-needed,-z,relro,-z,now,-lgomp,-lpthread -fno-operator-names -fno-exceptions -Wall -Wextra -Wcast-align -Wchar-subscripts -Wformat-security -Wno-long-long -Wpointer-arith -Wundef -Wnon-virtual-dtor -Woverloaded-virtual -Werror=return-type -Wvla -Wdate-time -Wsuggest-override -Wlogical-op -fdiagnostics-color=always -pedantic -Wzero-as-null-pointer-constant -fPIC -fvisibility=hidden -fvisibility-inlines-hidden   -fPIC -D_REENTRANT -std=gnu++11 -MD -MT src/CMakeFiles/KF5Notifications.dir/statusnotifieritemadaptor.cpp.o -MF src/CMakeFiles/KF5Notifications.dir/statusnotifieritemadaptor.cpp.o.d -o src/CMakeFiles/KF5Notifications.dir/statusnotifieritemadaptor.cpp.o -c src/statusnotifieritemadaptor.cpp
[28/31] /usr/lib/ccache/bin/x86_64-pc-linux-gnu-g++ -DHAVE_CANBERRA -DKCOREADDONS_LIB -DKF5Notifications_EXPORTS -DKF_DEPRECATED_WARNINGS_SINCE=0x060000 -DKF_DISABLE_DEPRECATED_BEFORE_AND_AT=0x054400 -DKNOTIFICATIONS_DEPRECATED_WARNINGS_SINCE=0x0 -DKNOTIFICATIONS_DISABLE_DEPRECATED_BEFORE_AND_AT=0x0 -DQT_CORE_LIB -DQT_DBUS_LIB -DQT_DEPRECATED_WARNINGS_SINCE=0x060000 -DQT_DISABLE_DEPRECATED_BEFORE=0x050d00 -DQT_GUI_LIB -DQT_NO_CAST_FROM_ASCII -DQT_NO_CAST_TO_ASCII -DQT_NO_DEBUG -DQT_NO_NARROWING_CONVERSIONS_IN_CONNECT -DQT_NO_SIGNALS_SLOTS_KEYWORDS -DQT_NO_URL_CAST_FROM_STRING -DQT_STRICT_ITERATORS -DQT_USE_QSTRINGBUILDER -DQT_WIDGETS_LIB -DQT_X11EXTRAS_LIB -D_GNU_SOURCE -D_LARGEFILE64_SOURCE -Isrc -I/tmp/portage/kde-frameworks/knotifications-5.70.0/work/knotifications-5.70.0/src -Isrc/KF5Notifications_autogen/include -isystem /usr/include/dbusmenu-qt5 -isystem /usr/include/qt5 -isystem /usr/include/qt5/QtWidgets -isystem /usr/include/qt5/QtGui -isystem /usr/include/qt5/QtCore -isystem /usr/lib64/qt5/mkspecs/linux-g++ -isystem /usr/include/qt5/QtDBus -isystem /usr/include/KF5/KCoreAddons -isystem /usr/include/KF5 -isystem /usr/include/KF5/KConfigCore -isystem /usr/include/KF5/KWindowSystem -isystem /usr/include/qt5/QtX11Extras  -DQT_NO_DEBUG -march=native -O3 -fgraphite-identity -floop-nest-optimize -fdevirtualize-at-ltrans -fipa-pta -fno-semantic-interposition -flto=12 -fno-signed-zeros -fno-trapping-math -fassociative-math -freciprocal-math -fno-math-errno -ffinite-math-only -fno-rounding-math -fno-signaling-nans -fcx-limited-range -fexcess-precision=fast -fno-plt -fno-common -fuse-linker-plugin -pipe -g0 -fno-stack-protector -fno-stack-clash-protection -fstack-check=no -fno-stack-check -Wl,-O4,--hash-style=gnu,--sort-common,--as-needed,-z,relro,-z,now,-lgomp,-lpthread -fno-operator-names -fno-exceptions -Wall -Wextra -Wcast-align -Wchar-subscripts -Wformat-security -Wno-long-long -Wpointer-arith -Wundef -Wnon-virtual-dtor -Woverloaded-virtual -Werror=return-type -Wvla -Wdate-time -Wsuggest-override -Wlogical-op -fdiagnostics-color=always -pedantic -Wzero-as-null-pointer-constant -fPIC -fvisibility=hidden -fvisibility-inlines-hidden   -fPIC -D_REENTRANT -std=gnu++11 -MD -MT src/CMakeFiles/KF5Notifications.dir/statusnotifierwatcher_interface.cpp.o -MF src/CMakeFiles/KF5Notifications.dir/statusnotifierwatcher_interface.cpp.o.d -o src/CMakeFiles/KF5Notifications.dir/statusnotifierwatcher_interface.cpp.o -c src/statusnotifierwatcher_interface.cpp
[29/31] /usr/lib/ccache/bin/x86_64-pc-linux-gnu-g++ -DHAVE_CANBERRA -DKCOREADDONS_LIB -DKF5Notifications_EXPORTS -DKF_DEPRECATED_WARNINGS_SINCE=0x060000 -DKF_DISABLE_DEPRECATED_BEFORE_AND_AT=0x054400 -DKNOTIFICATIONS_DEPRECATED_WARNINGS_SINCE=0x0 -DKNOTIFICATIONS_DISABLE_DEPRECATED_BEFORE_AND_AT=0x0 -DQT_CORE_LIB -DQT_DBUS_LIB -DQT_DEPRECATED_WARNINGS_SINCE=0x060000 -DQT_DISABLE_DEPRECATED_BEFORE=0x050d00 -DQT_GUI_LIB -DQT_NO_CAST_FROM_ASCII -DQT_NO_CAST_TO_ASCII -DQT_NO_DEBUG -DQT_NO_NARROWING_CONVERSIONS_IN_CONNECT -DQT_NO_SIGNALS_SLOTS_KEYWORDS -DQT_NO_URL_CAST_FROM_STRING -DQT_STRICT_ITERATORS -DQT_USE_QSTRINGBUILDER -DQT_WIDGETS_LIB -DQT_X11EXTRAS_LIB -D_GNU_SOURCE -D_LARGEFILE64_SOURCE -Isrc -I/tmp/portage/kde-frameworks/knotifications-5.70.0/work/knotifications-5.70.0/src -Isrc/KF5Notifications_autogen/include -isystem /usr/include/dbusmenu-qt5 -isystem /usr/include/qt5 -isystem /usr/include/qt5/QtWidgets -isystem /usr/include/qt5/QtGui -isystem /usr/include/qt5/QtCore -isystem /usr/lib64/qt5/mkspecs/linux-g++ -isystem /usr/include/qt5/QtDBus -isystem /usr/include/KF5/KCoreAddons -isystem /usr/include/KF5 -isystem /usr/include/KF5/KConfigCore -isystem /usr/include/KF5/KWindowSystem -isystem /usr/include/qt5/QtX11Extras  -DQT_NO_DEBUG -march=native -O3 -fgraphite-identity -floop-nest-optimize -fdevirtualize-at-ltrans -fipa-pta -fno-semantic-interposition -flto=12 -fno-signed-zeros -fno-trapping-math -fassociative-math -freciprocal-math -fno-math-errno -ffinite-math-only -fno-rounding-math -fno-signaling-nans -fcx-limited-range -fexcess-precision=fast -fno-plt -fno-common -fuse-linker-plugin -pipe -g0 -fno-stack-protector -fno-stack-clash-protection -fstack-check=no -fno-stack-check -Wl,-O4,--hash-style=gnu,--sort-common,--as-needed,-z,relro,-z,now,-lgomp,-lpthread -fno-operator-names -fno-exceptions -Wall -Wextra -Wcast-align -Wchar-subscripts -Wformat-security -Wno-long-long -Wpointer-arith -Wundef -Wnon-virtual-dtor -Woverloaded-virtual -Werror=return-type -Wvla -Wdate-time -Wsuggest-override -Wlogical-op -fdiagnostics-color=always -pedantic -Wzero-as-null-pointer-constant -fPIC -fvisibility=hidden -fvisibility-inlines-hidden   -fPIC -D_REENTRANT -std=gnu++11 -MD -MT src/CMakeFiles/KF5Notifications.dir/notifications_interface.cpp.o -MF src/CMakeFiles/KF5Notifications.dir/notifications_interface.cpp.o.d -o src/CMakeFiles/KF5Notifications.dir/notifications_interface.cpp.o -c src/notifications_interface.cpp
[30/31] : && /usr/lib/ccache/bin/x86_64-pc-linux-gnu-g++ -fPIC -march=native -O3 -fgraphite-identity -floop-nest-optimize -fdevirtualize-at-ltrans -fipa-pta -fno-semantic-interposition -flto=12 -fno-signed-zeros -fno-trapping-math -fassociative-math -freciprocal-math -fno-math-errno -ffinite-math-only -fno-rounding-math -fno-signaling-nans -fcx-limited-range -fexcess-precision=fast -fno-plt -fno-common -fuse-linker-plugin -pipe -g0 -fno-stack-protector -fno-stack-clash-protection -fstack-check=no -fno-stack-check -Wl,-O4,--hash-style=gnu,--sort-common,--as-needed,-z,relro,-z,now,-lgomp,-lpthread -fno-operator-names -fno-exceptions -Wall -Wextra -Wcast-align -Wchar-subscripts -Wformat-security -Wno-long-long -Wpointer-arith -Wundef -Wnon-virtual-dtor -Woverloaded-virtual -Werror=return-type -Wvla -Wdate-time -Wsuggest-override -Wlogical-op -fdiagnostics-color=always -pedantic -Wzero-as-null-pointer-constant  -Wl,--no-undefined -Wl,--enable-new-dtags -Wl,-O4,--hash-style=gnu,--sort-common,--as-needed,-z,relro,-z,now,-lgomp,-lpthread -march=native -O3 -fgraphite-identity -floop-nest-optimize -fdevirtualize-at-ltrans -fipa-pta -fno-semantic-interposition -flto=12 -fno-signed-zeros -fno-trapping-math -fassociative-math -freciprocal-math -fno-math-errno -ffinite-math-only -fno-rounding-math -fno-signaling-nans -fcx-limited-range -fexcess-precision=fast -fno-plt -fno-common -fuse-linker-plugin -pipe -g0 -fno-stack-protector -fno-stack-clash-protection -fstack-check=no -fno-stack-check -shared -Wl,-soname,libKF5Notifications.so.5 -o bin/libKF5Notifications.so.5.70.0 src/CMakeFiles/KF5Notifications.dir/KF5Notifications_autogen/mocs_compilation.cpp.o src/CMakeFiles/KF5Notifications.dir/knotification.cpp.o src/CMakeFiles/KF5Notifications.dir/knotificationmanager.cpp.o src/CMakeFiles/KF5Notifications.dir/kpassivepopup.cpp.o src/CMakeFiles/KF5Notifications.dir/knotifyconfig.cpp.o src/CMakeFiles/KF5Notifications.dir/knotificationplugin.cpp.o src/CMakeFiles/KF5Notifications.dir/knotificationjobuidelegate.cpp.o src/CMakeFiles/KF5Notifications.dir/notifybyexecute.cpp.o src/CMakeFiles/KF5Notifications.dir/notifybylogfile.cpp.o src/CMakeFiles/KF5Notifications.dir/notifybytaskbar.cpp.o src/CMakeFiles/KF5Notifications.dir/ECMQmLoader-knotifications5_qt.cpp.o src/CMakeFiles/KF5Notifications.dir/kstatusnotifieritem.cpp.o src/CMakeFiles/KF5Notifications.dir/kstatusnotifieritemdbus_p.cpp.o src/CMakeFiles/KF5Notifications.dir/knotificationrestrictions.cpp.o src/CMakeFiles/KF5Notifications.dir/imageconverter.cpp.o src/CMakeFiles/KF5Notifications.dir/notifybypopup.cpp.o src/CMakeFiles/KF5Notifications.dir/notifybyportal.cpp.o src/CMakeFiles/KF5Notifications.dir/debug_p.cpp.o src/CMakeFiles/KF5Notifications.dir/notifybyaudio_canberra.cpp.o src/CMakeFiles/KF5Notifications.dir/statusnotifieritemadaptor.cpp.o src/CMakeFiles/KF5Notifications.dir/statusnotifierwatcher_interface.cpp.o src/CMakeFiles/KF5Notifications.dir/notifications_interface.cpp.o  /usr/lib64/libKF5CoreAddons.so.5.70.0  /usr/lib64/libKF5ConfigCore.so.5.70.0  /usr/lib64/libKF5WindowSystem.so.5.70.0  /usr/lib64/libcanberra.so  /usr/lib64/libX11.so  /usr/lib64/libQt5X11Extras.so.5.15.0  /usr/lib64/libXtst.so  /usr/lib64/libdbusmenu-qt5.so.2.6.0  /usr/lib64/libQt5Widgets.so.5.15.0  /usr/lib64/libQt5DBus.so.5.15.0  /usr/lib64/libQt5Gui.so.5.15.0  /usr/lib64/libQt5Core.so.5.15.0 && :
[31/31] /usr/bin/cmake -E cmake_symlink_library bin/libKF5Notifications.so.5.70.0  bin/libKF5Notifications.so.5 bin/libKF5Notifications.so && :
>>> Source compiled.
>>> Test phase [not enabled]: kde-frameworks/knotifications-5.70.0

>>> Install kde-frameworks/knotifications-5.70.0 into /tmp/portage/kde-frameworks/knotifications-5.70.0/image
 * Working in BUILD_DIR: "/tmp/portage/kde-frameworks/knotifications-5.70.0/work/knotifications-5.70.0_build"
[0/1] Install the project...[K
-- Install configuration: "Gentoo"
-- Installing: /tmp/portage/kde-frameworks/knotifications-5.70.0/image/usr/lib64/cmake/KF5Notifications/KF5NotificationsConfig.cmake
-- Installing: /tmp/portage/kde-frameworks/knotifications-5.70.0/image/usr/lib64/cmake/KF5Notifications/KF5NotificationsConfigVersion.cmake
-- Installing: /tmp/portage/kde-frameworks/knotifications-5.70.0/image/usr/lib64/cmake/KF5Notifications/KF5NotificationsTargets.cmake
-- Installing: /tmp/portage/kde-frameworks/knotifications-5.70.0/image/usr/lib64/cmake/KF5Notifications/KF5NotificationsTargets-gentoo.cmake
-- Installing: /tmp/portage/kde-frameworks/knotifications-5.70.0/image/usr/include/KF5/knotifications_version.h
-- Installing: /tmp/portage/kde-frameworks/knotifications-5.70.0/image/usr/lib64/libKF5Notifications.so.5.70.0
-- Installing: /tmp/portage/kde-frameworks/knotifications-5.70.0/image/usr/lib64/libKF5Notifications.so.5
-- Installing: /tmp/portage/kde-frameworks/knotifications-5.70.0/image/usr/lib64/libKF5Notifications.so
-- Installing: /tmp/portage/kde-frameworks/knotifications-5.70.0/image/usr/include/KF5/KNotifications/knotifications_export.h
-- Installing: /tmp/portage/kde-frameworks/knotifications-5.70.0/image/usr/include/KF5/KNotifications/KNotification
-- Installing: /tmp/portage/kde-frameworks/knotifications-5.70.0/image/usr/include/KF5/KNotifications/KPassivePopup
-- Installing: /tmp/portage/kde-frameworks/knotifications-5.70.0/image/usr/include/KF5/KNotifications/KStatusNotifierItem
-- Installing: /tmp/portage/kde-frameworks/knotifications-5.70.0/image/usr/include/KF5/KNotifications/KNotificationJobUiDelegate
-- Installing: /tmp/portage/kde-frameworks/knotifications-5.70.0/image/usr/include/KF5/KNotifications/KNotificationRestrictions
-- Installing: /tmp/portage/kde-frameworks/knotifications-5.70.0/image/usr/include/KF5/KNotifications/KNotificationPlugin
-- Installing: /tmp/portage/kde-frameworks/knotifications-5.70.0/image/usr/include/KF5/KNotifications/KNotifyConfig
-- Installing: /tmp/portage/kde-frameworks/knotifications-5.70.0/image/usr/include/KF5/KNotifications/knotification.h
-- Installing: /tmp/portage/kde-frameworks/knotifications-5.70.0/image/usr/include/KF5/KNotifications/kpassivepopup.h
-- Installing: /tmp/portage/kde-frameworks/knotifications-5.70.0/image/usr/include/KF5/KNotifications/kstatusnotifieritem.h
-- Installing: /tmp/portage/kde-frameworks/knotifications-5.70.0/image/usr/include/KF5/KNotifications/knotificationjobuidelegate.h
-- Installing: /tmp/portage/kde-frameworks/knotifications-5.70.0/image/usr/include/KF5/KNotifications/knotificationrestrictions.h
-- Installing: /tmp/portage/kde-frameworks/knotifications-5.70.0/image/usr/include/KF5/KNotifications/knotificationplugin.h
-- Installing: /tmp/portage/kde-frameworks/knotifications-5.70.0/image/usr/include/KF5/KNotifications/knotifyconfig.h
-- Installing: /tmp/portage/kde-frameworks/knotifications-5.70.0/image/usr/share/qlogging-categories5/knotifications.categories
-- Installing: /tmp/portage/kde-frameworks/knotifications-5.70.0/image/usr/share/dbus-1/interfaces/kf5_org.kde.StatusNotifierItem.xml
-- Installing: /tmp/portage/kde-frameworks/knotifications-5.70.0/image/usr/share/dbus-1/interfaces/kf5_org.kde.StatusNotifierWatcher.xml
-- Installing: /tmp/portage/kde-frameworks/knotifications-5.70.0/image/usr/share/kservicetypes5/knotificationplugin.desktop
-- Installing: /tmp/portage/kde-frameworks/knotifications-5.70.0/image/usr/lib64/qt5/mkspecs/modules/qt_KNotifications.pri
>>> Completed installing kde-frameworks/knotifications-5.70.0 into /tmp/portage/kde-frameworks/knotifications-5.70.0/image

 * Final size of build directory: 6392 KiB (6.2 MiB)
 * Final size of installed tree:   680 KiB

strip: x86_64-pc-linux-gnu-strip --strip-unneeded -N __gentoo_check_ldflags__ -R .comment -R .GCC.command.line -R .note.gnu.gold-version
   /usr/lib64/libKF5Notifications.so.5.70.0
./
./usr/
./usr/include/
./usr/include/KF5/
./usr/include/KF5/knotifications_version.h
./usr/include/KF5/KNotifications/
./usr/include/KF5/KNotifications/knotificationplugin.h
./usr/include/KF5/KNotifications/knotifications_export.h
./usr/include/KF5/KNotifications/knotificationjobuidelegate.h
./usr/include/KF5/KNotifications/KNotificationJobUiDelegate
./usr/include/KF5/KNotifications/KNotification
./usr/include/KF5/KNotifications/KStatusNotifierItem
./usr/include/KF5/KNotifications/knotification.h
./usr/include/KF5/KNotifications/knotificationrestrictions.h
./usr/include/KF5/KNotifications/KNotificationRestrictions
./usr/include/KF5/KNotifications/kpassivepopup.h
./usr/include/KF5/KNotifications/KPassivePopup
./usr/include/KF5/KNotifications/knotifyconfig.h
./usr/include/KF5/KNotifications/KNotificationPlugin
./usr/include/KF5/KNotifications/KNotifyConfig
./usr/include/KF5/KNotifications/kstatusnotifieritem.h
./usr/share/
./usr/share/dbus-1/
./usr/share/dbus-1/interfaces/
./usr/share/dbus-1/interfaces/kf5_org.kde.StatusNotifierWatcher.xml
./usr/share/dbus-1/interfaces/kf5_org.kde.StatusNotifierItem.xml
./usr/share/qlogging-categories5/
./usr/share/qlogging-categories5/knotifications.categories
./usr/share/kservicetypes5/
./usr/share/kservicetypes5/knotificationplugin.desktop
./usr/share/doc/
./usr/share/doc/knotifications-5.70.0/
./usr/share/doc/knotifications-5.70.0/README.md.bz2
./usr/lib64/
./usr/lib64/qt5/
./usr/lib64/qt5/mkspecs/
./usr/lib64/qt5/mkspecs/modules/
./usr/lib64/qt5/mkspecs/modules/qt_KNotifications.pri
./usr/lib64/libKF5Notifications.so.5.70.0
./usr/lib64/cmake/
./usr/lib64/cmake/KF5Notifications/
./usr/lib64/cmake/KF5Notifications/KF5NotificationsConfig.cmake
./usr/lib64/cmake/KF5Notifications/KF5NotificationsTargets.cmake
./usr/lib64/cmake/KF5Notifications/KF5NotificationsTargets-gentoo.cmake
./usr/lib64/cmake/KF5Notifications/KF5NotificationsConfigVersion.cmake
./usr/lib64/libKF5Notifications.so.5
./usr/lib64/libKF5Notifications.so
>>> Done.
 * checking 28 files for package collisions
>>> Merging kde-frameworks/knotifications-5.70.0 to /
 * removing unneeded *.la files
--- /usr/
--- /usr/lib64/
--- /usr/lib64/cmake/
>>> /usr/lib64/cmake/KF5Notifications/
>>> /usr/lib64/cmake/KF5Notifications/KF5NotificationsConfigVersion.cmake
>>> /usr/lib64/cmake/KF5Notifications/KF5NotificationsTargets-gentoo.cmake
>>> /usr/lib64/cmake/KF5Notifications/KF5NotificationsTargets.cmake
>>> /usr/lib64/cmake/KF5Notifications/KF5NotificationsConfig.cmake
>>> /usr/lib64/libKF5Notifications.so.5.70.0
--- /usr/lib64/qt5/
--- /usr/lib64/qt5/mkspecs/
--- /usr/lib64/qt5/mkspecs/modules/
>>> /usr/lib64/qt5/mkspecs/modules/qt_KNotifications.pri
--- /usr/share/
--- /usr/share/kservicetypes5/
>>> /usr/share/kservicetypes5/knotificationplugin.desktop
--- /usr/share/qlogging-categories5/
>>> /usr/share/qlogging-categories5/knotifications.categories
--- /usr/share/dbus-1/
--- /usr/share/dbus-1/interfaces/
>>> /usr/share/dbus-1/interfaces/kf5_org.kde.StatusNotifierItem.xml
>>> /usr/share/dbus-1/interfaces/kf5_org.kde.StatusNotifierWatcher.xml
--- /usr/include/
--- /usr/include/KF5/
>>> /usr/include/KF5/KNotifications/
>>> /usr/include/KF5/KNotifications/kstatusnotifieritem.h
>>> /usr/include/KF5/KNotifications/KNotifyConfig
>>> /usr/include/KF5/KNotifications/KNotificationPlugin
>>> /usr/include/KF5/KNotifications/knotifyconfig.h
>>> /usr/include/KF5/KNotifications/KPassivePopup
>>> /usr/include/KF5/KNotifications/kpassivepopup.h
>>> /usr/include/KF5/KNotifications/KNotificationRestrictions
>>> /usr/include/KF5/KNotifications/knotificationrestrictions.h
>>> /usr/include/KF5/KNotifications/knotification.h
>>> /usr/include/KF5/KNotifications/KStatusNotifierItem
>>> /usr/include/KF5/KNotifications/KNotification
>>> /usr/include/KF5/KNotifications/KNotificationJobUiDelegate
>>> /usr/include/KF5/KNotifications/knotificationjobuidelegate.h
>>> /usr/include/KF5/KNotifications/knotifications_export.h
>>> /usr/include/KF5/KNotifications/knotificationplugin.h
>>> /usr/include/KF5/knotifications_version.h
>>> /usr/lib64/libKF5Notifications.so.5 -> libKF5Notifications.so.5.70.0
>>> /usr/lib64/libKF5Notifications.so -> libKF5Notifications.so.5
>>> kde-frameworks/knotifications-5.70.0 merged.
>>> Regenerating /etc/ld.so.cache...
