>>> Extracting info
 * Package:    kde-frameworks/kwindowsystem-5.70.0
 * Repository: gentoo
 * USE:        elibc_glibc amd64 X userland_GNU kernel_linux abi_x86_64
 * FEATURES:   preserve-libs
 * /etc/portage/package.cflags/ltoworkarounds.conf -> */*: *FLAGS+=-Wl,-O4 *FLAGS-=-Wl,-O1
 * FEATURES='multilib-strict unmerge-logs unmerge-orphans ebuild-locks qa-unresolved-soname-deps merge-sync distlocks news nodoc binpkg-dostrip xattr assume-digests strict unknown-features-warn binpkg-logs config-protect-if-modified parallel-fetch strict-keepdir sfperms buildpkg fixlafiles preserve-libs'
 * CFLAGS='-march=znver2 -O2 -pipe -g0 -fno-semantic-interposition -fno-plt -falign-functions=32 -fno-stack-protector -fno-stack-clash-protection -fstack-check=no -fno-stack-check -Wl,-O4 -Wl,-O4,--sort-common,--as-needed,-z,norelro,-z,now,-lgomp,-lpthread'
 * CXXFLAGS='-march=znver2 -O2 -pipe -g0 -fno-semantic-interposition -fno-plt -falign-functions=32 -fno-stack-protector -fno-stack-clash-protection -fstack-check=no -fno-stack-check -Wl,-O4 -Wl,-O4,--sort-common,--as-needed,-z,norelro,-z,now,-lgomp,-lpthread'
 * CPPFLAGS='-DQT_NO_DEBUG'
 * FFLAGS='-march=znver2 -O2 -pipe -g0 -fno-semantic-interposition -fno-plt -falign-functions=32 -fno-stack-protector -fno-stack-clash-protection -fstack-check=no -fno-stack-check -Wl,-O4 -Wl,-O4,--sort-common,--as-needed,-z,norelro,-z,now,-lgomp,-lpthread'
 * FCFLAGS='-march=znver2 -O2 -pipe -g0 -fno-semantic-interposition -fno-plt -falign-functions=32 -fno-stack-protector -fno-stack-clash-protection -fstack-check=no -fno-stack-check -Wl,-O4 -Wl,-O4,--sort-common,--as-needed,-z,norelro,-z,now,-lgomp,-lpthread'
 * F77FLAGS='-march=znver2 -O2 -pipe -g0 -fno-semantic-interposition -fno-plt -falign-functions=32 -fno-stack-protector -fno-stack-clash-protection -fstack-check=no -fno-stack-check -Wl,-O4 -Wl,-O4,--sort-common,--as-needed,-z,norelro,-z,now,-lgomp,-lpthread'
 * LDFLAGS='-march=znver2 -O2 -pipe -g0 -fno-semantic-interposition -fno-plt -falign-functions=32 -fno-stack-protector -fno-stack-clash-protection -fstack-check=no -fno-stack-check -Wl,-O4,--sort-common,--as-needed,-z,norelro,-z,now,-lgomp,-lpthread'
 * MAKEOPTS='-j12 -l12'
 * gcc (Gentoo 11.0.0_pre9999 p1, commit 184c21bf1cd04a108ed9bd04635e7d57ac39f616) 11.0.0 20200611 (experimental)
 * g++ (Gentoo 11.0.0_pre9999 p1, commit 184c21bf1cd04a108ed9bd04635e7d57ac39f616) 11.0.0 20200611 (experimental)
 * GNU ld (Gentoo 2.34 p4) 2.34.0
 * Linux rescue 5.4.36 #1 SMP Thu Apr 30 04:38:28 UTC 2020 x86_64 AMD Ryzen 5 3600 6-Core Processor AuthenticAMD GNU/Linux
kde-frameworks/kwindowsystem: 34 seconds average for 11 merges
2020-05-16T16:40:47 >>> kde-frameworks/kwindowsystem: 15 seconds
2020-05-20T01:37:00 >>> kde-frameworks/kwindowsystem: 7 seconds
2020-05-25T15:29:08 >>> kde-frameworks/kwindowsystem: 20 seconds
2020-05-26T05:02:00 >>> kde-frameworks/kwindowsystem: 20 seconds
2020-05-27T02:29:41 >>> kde-frameworks/kwindowsystem: 6 seconds
2020-05-28T04:52:23 >>> kde-frameworks/kwindowsystem: 1 minute
2020-05-29T03:20:45 >>> kde-frameworks/kwindowsystem: 10 seconds
2020-05-30T05:25:49 >>> kde-frameworks/kwindowsystem: 1 minute, 13 seconds
2020-05-31T23:38:15 >>> kde-frameworks/kwindowsystem: 1 minute, 17 seconds
2020-06-01T10:15:41 >>> kde-frameworks/kwindowsystem: 1 minute, 20 seconds
2020-06-05T02:05:04 >>> kde-frameworks/kwindowsystem: 6 seconds
]0;emerge 02:11:15 524|626 kwindowsystem 00:54 (root@rescue)>>> Extracting kde-frameworks/kwindowsystem-5.70.0
 * checking 46 files for package collisions
>>> Merging kde-frameworks/kwindowsystem-5.70.0 to /
 * removing unneeded *.la files
--- /usr/
--- /usr/include/
--- /usr/include/KF5/
--- /usr/include/KF5/KWindowSystem/
>>> /usr/include/KF5/KWindowSystem/KKeyServer
>>> /usr/include/KF5/KWindowSystem/KSelectionOwner
>>> /usr/include/KF5/KWindowSystem/KSelectionWatcher
>>> /usr/include/KF5/KWindowSystem/KStartupInfo
>>> /usr/include/KF5/KWindowSystem/KUserTimestamp
>>> /usr/include/KF5/KWindowSystem/KWindowEffects
>>> /usr/include/KF5/KWindowSystem/KWindowInfo
>>> /usr/include/KF5/KWindowSystem/KWindowShadow
>>> /usr/include/KF5/KWindowSystem/KWindowShadowTile
>>> /usr/include/KF5/KWindowSystem/KWindowSystem
>>> /usr/include/KF5/KWindowSystem/KXMessages
>>> /usr/include/KF5/KWindowSystem/NETWM
>>> /usr/include/KF5/KWindowSystem/config-kwindowsystem.h
>>> /usr/include/KF5/KWindowSystem/fixx11h.h
>>> /usr/include/KF5/KWindowSystem/kkeyserver.h
>>> /usr/include/KF5/KWindowSystem/kkeyserver_x11.h
>>> /usr/include/KF5/KWindowSystem/kmanagerselection.h
>>> /usr/include/KF5/KWindowSystem/kselectionowner.h
>>> /usr/include/KF5/KWindowSystem/kselectionwatcher.h
>>> /usr/include/KF5/KWindowSystem/kstartupinfo.h
>>> /usr/include/KF5/KWindowSystem/kusertimestamp.h
>>> /usr/include/KF5/KWindowSystem/kwindoweffects.h
>>> /usr/include/KF5/KWindowSystem/kwindowinfo.h
>>> /usr/include/KF5/KWindowSystem/kwindowshadow.h
>>> /usr/include/KF5/KWindowSystem/kwindowsystem.h
>>> /usr/include/KF5/KWindowSystem/kwindowsystem_export.h
>>> /usr/include/KF5/KWindowSystem/kxmessages.h
>>> /usr/include/KF5/KWindowSystem/netwm.h
>>> /usr/include/KF5/KWindowSystem/netwm_def.h
--- /usr/include/KF5/KWindowSystem/private/
>>> /usr/include/KF5/KWindowSystem/private/kwindoweffects_p.h
>>> /usr/include/KF5/KWindowSystem/private/kwindowinfo_p.h
>>> /usr/include/KF5/KWindowSystem/private/kwindowshadow_p.h
>>> /usr/include/KF5/KWindowSystem/private/kwindowsystem_p.h
>>> /usr/include/KF5/KWindowSystem/private/kwindowsystemplugininterface_p.h
>>> /usr/include/KF5/kwindowsystem_version.h
--- /usr/lib64/
--- /usr/lib64/cmake/
--- /usr/lib64/cmake/KF5WindowSystem/
>>> /usr/lib64/cmake/KF5WindowSystem/KF5WindowSystemConfig.cmake
>>> /usr/lib64/cmake/KF5WindowSystem/KF5WindowSystemConfigVersion.cmake
>>> /usr/lib64/cmake/KF5WindowSystem/KF5WindowSystemTargets-gentoo.cmake
>>> /usr/lib64/cmake/KF5WindowSystem/KF5WindowSystemTargets.cmake
>>> /usr/lib64/libKF5WindowSystem.so -> libKF5WindowSystem.so.5
>>> /usr/lib64/libKF5WindowSystem.so.5 -> libKF5WindowSystem.so.5.70.0
>>> /usr/lib64/libKF5WindowSystem.so.5.70.0
--- /usr/lib64/qt5/
--- /usr/lib64/qt5/mkspecs/
--- /usr/lib64/qt5/mkspecs/modules/
>>> /usr/lib64/qt5/mkspecs/modules/qt_KWindowSystem.pri
--- /usr/lib64/qt5/plugins/
--- /usr/lib64/qt5/plugins/kf5/
--- /usr/lib64/qt5/plugins/kf5/org.kde.kwindowsystem.platforms/
>>> /usr/lib64/qt5/plugins/kf5/org.kde.kwindowsystem.platforms/KF5WindowSystemWaylandPlugin.so
>>> /usr/lib64/qt5/plugins/kf5/org.kde.kwindowsystem.platforms/KF5WindowSystemX11Plugin.so
--- /usr/share/
--- /usr/share/qlogging-categories5/
>>> /usr/share/qlogging-categories5/kwindowsystem.categories
>>> Safely unmerging already-installed instance...
>>> Original instance of package unmerged safely.
>>> kde-frameworks/kwindowsystem-5.70.0 merged.
>>> Regenerating /etc/ld.so.cache...
