>>> Extracting info
 * Package:    kde-frameworks/kpty-5.70.0
 * Repository: gentoo
 * USE:        userland_GNU kernel_linux elibc_glibc amd64 abi_x86_64
 * FEATURES:   ccache network-sandbox preserve-libs sandbox userpriv usersandbox
 * FEATURES='sfperms userpriv news qa-unresolved-soname-deps unmerge-logs usersync binpkg-multi-instance parallel-install fixlafiles unmerge-orphans xattr multilib-strict binpkg-docompress merge-sync binpkg-logs distlocks usersandbox strict downgrade-backup binpkg-dostrip sandbox preserve-libs unmerge-backup compress-index config-protect-if-modified buildpkg network-sandbox nodoc parallel-fetch ipc-sandbox unknown-features-warn assume-digests ccache userfetch pid-sandbox'
 * CFLAGS='-march=native -O3 -fgraphite-identity -floop-nest-optimize -fdevirtualize-at-ltrans -fipa-pta -fno-semantic-interposition -flto=12 -fno-signed-zeros -fno-trapping-math -fassociative-math -freciprocal-math -fno-math-errno -ffinite-math-only -fno-rounding-math -fno-signaling-nans -fcx-limited-range -fexcess-precision=fast -fno-plt -fno-common -fuse-linker-plugin -pipe -g0 -fno-stack-protector -fno-stack-clash-protection -fstack-check=no -fno-stack-check -Wl,-O4,--hash-style=gnu,--sort-common,--as-needed,-z,relro,-z,now,-lgomp,-lpthread'
 * CXXFLAGS='-march=native -O3 -fgraphite-identity -floop-nest-optimize -fdevirtualize-at-ltrans -fipa-pta -fno-semantic-interposition -flto=12 -fno-signed-zeros -fno-trapping-math -fassociative-math -freciprocal-math -fno-math-errno -ffinite-math-only -fno-rounding-math -fno-signaling-nans -fcx-limited-range -fexcess-precision=fast -fno-plt -fno-common -fuse-linker-plugin -pipe -g0 -fno-stack-protector -fno-stack-clash-protection -fstack-check=no -fno-stack-check -Wl,-O4,--hash-style=gnu,--sort-common,--as-needed,-z,relro,-z,now,-lgomp,-lpthread'
 * CPPFLAGS='-DQT_NO_DEBUG'
 * FFLAGS='-march=native -O3 -fgraphite-identity -floop-nest-optimize -fdevirtualize-at-ltrans -fipa-pta -fno-semantic-interposition -flto=12 -fno-signed-zeros -fno-trapping-math -fassociative-math -freciprocal-math -fno-math-errno -ffinite-math-only -fno-rounding-math -fno-signaling-nans -fcx-limited-range -fexcess-precision=fast -fno-plt -fno-common -fuse-linker-plugin -pipe -g0 -fno-stack-protector -fno-stack-clash-protection -fstack-check=no -fno-stack-check -Wl,-O4,--hash-style=gnu,--sort-common,--as-needed,-z,relro,-z,now,-lgomp,-lpthread'
 * FCFLAGS='-march=native -O3 -fgraphite-identity -floop-nest-optimize -fdevirtualize-at-ltrans -fipa-pta -fno-semantic-interposition -flto=12 -fno-signed-zeros -fno-trapping-math -fassociative-math -freciprocal-math -fno-math-errno -ffinite-math-only -fno-rounding-math -fno-signaling-nans -fcx-limited-range -fexcess-precision=fast -fno-plt -fno-common -fuse-linker-plugin -pipe -g0 -fno-stack-protector -fno-stack-clash-protection -fstack-check=no -fno-stack-check -Wl,-O4,--hash-style=gnu,--sort-common,--as-needed,-z,relro,-z,now,-lgomp,-lpthread'
 * F77FLAGS='-march=native -O3 -fgraphite-identity -floop-nest-optimize -fdevirtualize-at-ltrans -fipa-pta -fno-semantic-interposition -flto=12 -fno-signed-zeros -fno-trapping-math -fassociative-math -freciprocal-math -fno-math-errno -ffinite-math-only -fno-rounding-math -fno-signaling-nans -fcx-limited-range -fexcess-precision=fast -fno-plt -fno-common -fuse-linker-plugin -pipe -g0 -fno-stack-protector -fno-stack-clash-protection -fstack-check=no -fno-stack-check -Wl,-O4,--hash-style=gnu,--sort-common,--as-needed,-z,relro,-z,now,-lgomp,-lpthread'
 * LDFLAGS='-Wl,-O4,--hash-style=gnu,--sort-common,--as-needed,-z,relro,-z,now,-lgomp,-lpthread -march=native -O3 -fgraphite-identity -floop-nest-optimize -fdevirtualize-at-ltrans -fipa-pta -fno-semantic-interposition -flto=12 -fno-signed-zeros -fno-trapping-math -fassociative-math -freciprocal-math -fno-math-errno -ffinite-math-only -fno-rounding-math -fno-signaling-nans -fcx-limited-range -fexcess-precision=fast -fno-plt -fno-common -fuse-linker-plugin -pipe -g0 -fno-stack-protector -fno-stack-clash-protection -fstack-check=no -fno-stack-check'
 * MAKEOPTS='-j12'
 * gcc () 11.0.0 20200526 (experimental)
 * g++ () 11.0.0 20200526 (experimental)
 * GNU ld (Gentoo 2.34 p4) 2.34.0
 * Linux ryzen.gnum.org 5.4.36 #1 SMP Thu Apr 30 04:38:28 UTC 2020 x86_64 AMD Ryzen 5 3600 6-Core Processor AuthenticAMD GNU/Linux
kde-frameworks/kpty: 23 seconds average for 2 merges
2020-05-20T02:26:09 >>> kde-frameworks/kpty: 25 seconds
2020-05-28T04:21:02 >>> kde-frameworks/kpty: 21 seconds
]0;emerge 06:18:40 69|82 kpty 00:23 (root@ryzen.gnum.org)kemerge 06:18:40 69|82 kpty 00:23 (root@ryzen.gnum.org)\>>> Extracting kde-frameworks/kpty-5.70.0
 * checking 16 files for package collisions
[32;01m * [39;49;00mBuilding package for kde-frameworks/kpty-5.70.0 ...                   [34;01m[ [39;49;00m[32;01mok[39;49;00m[34;01m ][39;49;00m
[32;01m * [39;49;00mPackages now in '/usr/portage/packages':
[32;01m * [39;49;00mkde-frameworks/kpty-5.70.0: 60.8K

>>> Merging kde-frameworks/kpty-5.70.0 to /
 * removing unneeded *.la files
--- /usr/
--- /usr/lib64/
>>> /usr/lib64/libKF5Pty.so.5.70.0
--- /usr/lib64/cmake/
--- /usr/lib64/cmake/KF5Pty/
>>> /usr/lib64/cmake/KF5Pty/KF5PtyTargets-gentoo.cmake
>>> /usr/lib64/cmake/KF5Pty/KF5PtyConfig.cmake
>>> /usr/lib64/cmake/KF5Pty/KF5PtyTargets.cmake
>>> /usr/lib64/cmake/KF5Pty/KF5PtyConfigVersion.cmake
>>> /usr/lib64/libKF5Pty.so.5 -> libKF5Pty.so.5.70.0
>>> /usr/lib64/libKF5Pty.so -> libKF5Pty.so.5
--- /usr/lib64/qt5/
--- /usr/lib64/qt5/mkspecs/
--- /usr/lib64/qt5/mkspecs/modules/
>>> /usr/lib64/qt5/mkspecs/modules/qt_KPty.pri
--- /usr/share/
--- /usr/share/locale/
--- /usr/include/
--- /usr/include/KF5/
--- /usr/include/KF5/KPty/
>>> /usr/include/KF5/KPty/kptydevice.h
>>> /usr/include/KF5/KPty/kptyprocess.h
>>> /usr/include/KF5/KPty/KPtyProcess
>>> /usr/include/KF5/KPty/kpty.h
>>> /usr/include/KF5/KPty/KPtyDevice
>>> /usr/include/KF5/KPty/KPty
>>> /usr/include/KF5/KPty/kpty_export.h
>>> /usr/include/KF5/kpty_version.h
>>> Safely unmerging already-installed instance...
>>> Original instance of package unmerged safely.
>>> kde-frameworks/kpty-5.70.0 merged.
>>> Regenerating /etc/ld.so.cache...
