 * Package:    kde-frameworks/kbookmarks-5.70.0
 * Repository: gentoo
 * Maintainer: kde@gentoo.org
 * USE:        abi_x86_64 amd64 elibc_glibc kernel_linux test userland_GNU
 * FEATURES:   ccache network-sandbox preserve-libs sandbox userpriv usersandbox
 * FEATURES='assume-digests binpkg-docompress binpkg-dostrip binpkg-logs binpkg-multi-instance buildpkg ccache compress-index config-protect-if-modified distlocks downgrade-backup fixlafiles ipc-sandbox merge-sync multilib-strict network-sandbox news nodoc parallel-fetch parallel-install pid-sandbox preserve-libs qa-unresolved-soname-deps sandbox sfperms strict unknown-features-warn unmerge-backup unmerge-logs unmerge-orphans userfetch userpriv usersandbox usersync xattr'
 * CFLAGS='-march=znver2 -O3 -fgraphite-identity -floop-nest-optimize -fdevirtualize-at-ltrans -fipa-pta -fno-semantic-interposition -flto=12 -fno-plt -fno-signed-zeros -fno-trapping-math -fassociative-math -freciprocal-math -fno-math-errno -ffinite-math-only -fno-rounding-math -fno-signaling-nans -fcx-limited-range -fexcess-precision=fast -falign-functions=32 -fno-stack-protector -fno-stack-clash-protection -fstack-check=no -fno-stack-check -fuse-linker-plugin -pipe -g0 -Wl,-O1 -Wl,--as-needed -Wl,-z,norelro -Wl,-z,now -Wl,--sort-common -s'
 * CXXFLAGS='-march=znver2 -O3 -fgraphite-identity -floop-nest-optimize -fdevirtualize-at-ltrans -fipa-pta -fno-semantic-interposition -flto=12 -fno-plt -fno-signed-zeros -fno-trapping-math -fassociative-math -freciprocal-math -fno-math-errno -ffinite-math-only -fno-rounding-math -fno-signaling-nans -fcx-limited-range -fexcess-precision=fast -falign-functions=32 -fno-stack-protector -fno-stack-clash-protection -fstack-check=no -fno-stack-check -fuse-linker-plugin -pipe -g0 -Wl,-O1 -Wl,--as-needed -Wl,-z,norelro -Wl,-z,now -Wl,--sort-common -s'
 * FFLAGS='-march=znver2 -O3 -fgraphite-identity -floop-nest-optimize -fdevirtualize-at-ltrans -fipa-pta -fno-semantic-interposition -flto=12 -fno-plt -fno-signed-zeros -fno-trapping-math -fassociative-math -freciprocal-math -fno-math-errno -ffinite-math-only -fno-rounding-math -fno-signaling-nans -fcx-limited-range -fexcess-precision=fast -falign-functions=32 -fno-stack-protector -fno-stack-clash-protection -fstack-check=no -fno-stack-check -fuse-linker-plugin -pipe -g0 -Wl,-O1 -Wl,--as-needed -Wl,-z,norelro -Wl,-z,now -Wl,--sort-common -s'
 * FCFLAGS='-march=znver2 -O3 -fgraphite-identity -floop-nest-optimize -fdevirtualize-at-ltrans -fipa-pta -fno-semantic-interposition -flto=12 -fno-plt -fno-signed-zeros -fno-trapping-math -fassociative-math -freciprocal-math -fno-math-errno -ffinite-math-only -fno-rounding-math -fno-signaling-nans -fcx-limited-range -fexcess-precision=fast -falign-functions=32 -fno-stack-protector -fno-stack-clash-protection -fstack-check=no -fno-stack-check -fuse-linker-plugin -pipe -g0 -Wl,-O1 -Wl,--as-needed -Wl,-z,norelro -Wl,-z,now -Wl,--sort-common -s'
 * F77FLAGS='-march=znver2 -O3 -fgraphite-identity -floop-nest-optimize -fdevirtualize-at-ltrans -fipa-pta -fno-semantic-interposition -flto=12 -fno-plt -fno-signed-zeros -fno-trapping-math -fassociative-math -freciprocal-math -fno-math-errno -ffinite-math-only -fno-rounding-math -fno-signaling-nans -fcx-limited-range -fexcess-precision=fast -falign-functions=32 -fno-stack-protector -fno-stack-clash-protection -fstack-check=no -fno-stack-check -fuse-linker-plugin -pipe -g0 -Wl,-O1 -Wl,--as-needed -Wl,-z,norelro -Wl,-z,now -Wl,--sort-common -s'
 * LDFLAGS='-Wl,-O1 -Wl,--as-needed -Wl,-z,norelro -Wl,-z,now -Wl,--sort-common -s -march=znver2 -O3 -fgraphite-identity -floop-nest-optimize -fdevirtualize-at-ltrans -fipa-pta -fno-semantic-interposition -flto=12 -fno-plt -fno-signed-zeros -fno-trapping-math -fassociative-math -freciprocal-math -fno-math-errno -ffinite-math-only -fno-rounding-math -fno-signaling-nans -fcx-limited-range -fexcess-precision=fast -falign-functions=32 -fno-stack-protector -fno-stack-clash-protection -fstack-check=no -fno-stack-check -fuse-linker-plugin -pipe -g0'
 * MAKEOPTS='-j12 -l12'
 * gcc () 11.0.0 20200530 (experimental)
 * g++ () 11.0.0 20200530 (experimental)
 * GNU ld (Gentoo 2.34 p4) 2.34.0
 * Linux ryzen.gnum.org 5.4.36 #1 SMP Thu Apr 30 04:38:28 UTC 2020 x86_64 AMD Ryzen 5 3600 6-Core Processor AuthenticAMD GNU/Linux
kde-frameworks/kbookmarks: 19 seconds average for 3 merges
2020-05-20T06:15:08 >>> kde-frameworks/kbookmarks: 15 seconds
2020-05-28T04:36:01 >>> kde-frameworks/kbookmarks: 27 seconds
2020-05-29T03:22:46 >>> kde-frameworks/kbookmarks: 15 seconds
]0;emerge 05:34:31 61|66 kbookmarks 00:19 (root@ryzen.gnum.org)kemerge 05:34:31 61|66 kbookmarks 00:19 (root@ryzen.gnum.org)\>>> Unpacking source...
>>> Unpacking kbookmarks-5.70.0.tar.xz to /tmp/portage/kde-frameworks/kbookmarks-5.70.0/work
>>> Source unpacked in /tmp/portage/kde-frameworks/kbookmarks-5.70.0/work
>>> Preparing source in /tmp/portage/kde-frameworks/kbookmarks-5.70.0/work/kbookmarks-5.70.0 ...
 * Working in BUILD_DIR: "/tmp/portage/kde-frameworks/kbookmarks-5.70.0/work/kbookmarks-5.70.0_build"
>>> Source prepared.
>>> Configuring source in /tmp/portage/kde-frameworks/kbookmarks-5.70.0/work/kbookmarks-5.70.0 ...
 * Working in BUILD_DIR: "/tmp/portage/kde-frameworks/kbookmarks-5.70.0/work/kbookmarks-5.70.0_build"
cmake -C /tmp/portage/kde-frameworks/kbookmarks-5.70.0/work/kbookmarks-5.70.0_build/gentoo_common_config.cmake -G Ninja -DCMAKE_INSTALL_PREFIX=/usr -DBUILD_QCH=no -DKDE_INSTALL_USE_QT_SYS_PATHS=ON -DKDE_INSTALL_DOCBUNDLEDIR=/usr/share/help -DCMAKE_BUILD_TYPE=Gentoo -DCMAKE_TOOLCHAIN_FILE=/tmp/portage/kde-frameworks/kbookmarks-5.70.0/work/kbookmarks-5.70.0_build/gentoo_toolchain.cmake  /tmp/portage/kde-frameworks/kbookmarks-5.70.0/work/kbookmarks-5.70.0
loading initial cache file /tmp/portage/kde-frameworks/kbookmarks-5.70.0/work/kbookmarks-5.70.0_build/gentoo_common_config.cmake
-- The C compiler identification is GNU 11.0.0
-- The CXX compiler identification is GNU 11.0.0
-- Check for working C compiler: /usr/lib/ccache/bin/x86_64-pc-linux-gnu-gcc
-- Check for working C compiler: /usr/lib/ccache/bin/x86_64-pc-linux-gnu-gcc - works
-- Detecting C compiler ABI info
-- Detecting C compiler ABI info - done
-- Detecting C compile features
-- Detecting C compile features - done
-- Check for working CXX compiler: /usr/lib/ccache/bin/x86_64-pc-linux-gnu-g++
-- Check for working CXX compiler: /usr/lib/ccache/bin/x86_64-pc-linux-gnu-g++ - works
-- Detecting CXX compiler ABI info
-- Detecting CXX compiler ABI info - done
-- Detecting CXX compile features
-- Detecting CXX compile features - done
-- 

-- Looking for __GLIBC__
-- Looking for __GLIBC__ - found
-- Performing Test _OFFT_IS_64BIT
-- Performing Test _OFFT_IS_64BIT - Success
-- Performing Test HAVE_DATE_TIME
-- Performing Test HAVE_DATE_TIME - Success
-- Could not set up the appstream test. appstreamcli is missing.
-- Performing Test COMPILER_HAS_HIDDEN_VISIBILITY
-- Performing Test COMPILER_HAS_HIDDEN_VISIBILITY - Success
-- Performing Test COMPILER_HAS_HIDDEN_INLINE_VISIBILITY
-- Performing Test COMPILER_HAS_HIDDEN_INLINE_VISIBILITY - Success
-- Performing Test COMPILER_HAS_DEPRECATED_ATTR
-- Performing Test COMPILER_HAS_DEPRECATED_ATTR - Success
-- The following REQUIRED packages have been found:

 * ECM (required version >= 5.70.0), Extra CMake Modules., <https://commits.kde.org/extra-cmake-modules>
 * Qt5Gui (required version >= 5.15.0)
 * Qt5 (required version >= 5.12.0)
 * Qt5DBus (required version >= 5.12.0)
 * KF5CoreAddons (required version >= 5.70.0)
 * KF5Auth (required version >= 5.70.0)
 * KF5Codecs (required version >= 5.70.0)
 * Qt5Xml (required version >= 5.12.0)
 * KF5Config (required version >= 5.70.0)
 * Qt5Widgets (required version >= 5.12.0)
 * KF5WidgetsAddons (required version >= 5.70.0)
 * KF5ConfigWidgets (required version >= 5.70.0)
 * KF5XmlGui (required version >= 5.70.0)
 * Qt5Core

-- The following features have been disabled:

 * QCH, API documentation in QCH format (for e.g. Qt Assistant, Qt Creator & KDevelop)

-- <<< Gentoo configuration >>>
Build type      Gentoo
Install path    /usr
Compiler flags:
C               -march=znver2 -O3 -fgraphite-identity -floop-nest-optimize -fdevirtualize-at-ltrans -fipa-pta -fno-semantic-interposition -flto=12 -fno-plt -fno-signed-zeros -fno-trapping-math -fassociative-math -freciprocal-math -fno-math-errno -ffinite-math-only -fno-rounding-math -fno-signaling-nans -fcx-limited-range -fexcess-precision=fast -falign-functions=32 -fno-stack-protector -fno-stack-clash-protection -fstack-check=no -fno-stack-check -fuse-linker-plugin -pipe -g0 -Wl,-O1 -Wl,--as-needed -Wl,-z,norelro -Wl,-z,now -Wl,--sort-common -s -fno-common -Wall -Wextra -Wcast-align -Wchar-subscripts -Wformat-security -Wno-long-long -Wpointer-arith -Wundef -Wmissing-format-attribute -Wwrite-strings -Werror=implicit-function-declaration
C++             -march=znver2 -O3 -fgraphite-identity -floop-nest-optimize -fdevirtualize-at-ltrans -fipa-pta -fno-semantic-interposition -flto=12 -fno-plt -fno-signed-zeros -fno-trapping-math -fassociative-math -freciprocal-math -fno-math-errno -ffinite-math-only -fno-rounding-math -fno-signaling-nans -fcx-limited-range -fexcess-precision=fast -falign-functions=32 -fno-stack-protector -fno-stack-clash-protection -fstack-check=no -fno-stack-check -fuse-linker-plugin -pipe -g0 -Wl,-O1 -Wl,--as-needed -Wl,-z,norelro -Wl,-z,now -Wl,--sort-common -s -fno-operator-names -fno-exceptions -Wall -Wextra -Wcast-align -Wchar-subscripts -Wformat-security -Wno-long-long -Wpointer-arith -Wundef -Wnon-virtual-dtor -Woverloaded-virtual -Werror=return-type -Wvla -Wdate-time -Wsuggest-override -Wlogical-op -fdiagnostics-color=always -pedantic -Wzero-as-null-pointer-constant
Linker flags:
Executable      -Wl,--enable-new-dtags -Wl,-O1 -Wl,--as-needed -Wl,-z,norelro -Wl,-z,now -Wl,--sort-common -s -march=znver2 -O3 -fgraphite-identity -floop-nest-optimize -fdevirtualize-at-ltrans -fipa-pta -fno-semantic-interposition -flto=12 -fno-plt -fno-signed-zeros -fno-trapping-math -fassociative-math -freciprocal-math -fno-math-errno -ffinite-math-only -fno-rounding-math -fno-signaling-nans -fcx-limited-range -fexcess-precision=fast -falign-functions=32 -fno-stack-protector -fno-stack-clash-protection -fstack-check=no -fno-stack-check -fuse-linker-plugin -pipe -g0
Module          -Wl,--no-undefined -Wl,--enable-new-dtags -Wl,-O1 -Wl,--as-needed -Wl,-z,norelro -Wl,-z,now -Wl,--sort-common -s -march=znver2 -O3 -fgraphite-identity -floop-nest-optimize -fdevirtualize-at-ltrans -fipa-pta -fno-semantic-interposition -flto=12 -fno-plt -fno-signed-zeros -fno-trapping-math -fassociative-math -freciprocal-math -fno-math-errno -ffinite-math-only -fno-rounding-math -fno-signaling-nans -fcx-limited-range -fexcess-precision=fast -falign-functions=32 -fno-stack-protector -fno-stack-clash-protection -fstack-check=no -fno-stack-check -fuse-linker-plugin -pipe -g0
Shared          -Wl,--no-undefined -Wl,--enable-new-dtags -Wl,-O1 -Wl,--as-needed -Wl,-z,norelro -Wl,-z,now -Wl,--sort-common -s -march=znver2 -O3 -fgraphite-identity -floop-nest-optimize -fdevirtualize-at-ltrans -fipa-pta -fno-semantic-interposition -flto=12 -fno-plt -fno-signed-zeros -fno-trapping-math -fassociative-math -freciprocal-math -fno-math-errno -ffinite-math-only -fno-rounding-math -fno-signaling-nans -fcx-limited-range -fexcess-precision=fast -falign-functions=32 -fno-stack-protector -fno-stack-clash-protection -fstack-check=no -fno-stack-check -fuse-linker-plugin -pipe -g0

-- Configuring done
-- Generating done
-- Build files have been written to: /tmp/portage/kde-frameworks/kbookmarks-5.70.0/work/kbookmarks-5.70.0_build
>>> Source configured.
>>> Compiling source in /tmp/portage/kde-frameworks/kbookmarks-5.70.0/work/kbookmarks-5.70.0 ...
 * Working in BUILD_DIR: "/tmp/portage/kde-frameworks/kbookmarks-5.70.0/work/kbookmarks-5.70.0_build"
ninja -v -j12 -l12
[1/30] cd /tmp/portage/kde-frameworks/kbookmarks-5.70.0/work/kbookmarks-5.70.0_build/src && /usr/bin/cmake -E cmake_autogen /tmp/portage/kde-frameworks/kbookmarks-5.70.0/work/kbookmarks-5.70.0_build/src/CMakeFiles/KF5Bookmarks_autogen.dir/AutogenInfo.json Gentoo && /usr/bin/cmake -E touch /tmp/portage/kde-frameworks/kbookmarks-5.70.0/work/kbookmarks-5.70.0_build/src/KF5Bookmarks_autogen/timestamp
[2/30] /usr/lib/ccache/bin/x86_64-pc-linux-gnu-g++ -DKBOOKMARKS_DEPRECATED_WARNINGS_SINCE=0x0 -DKBOOKMARKS_DISABLE_DEPRECATED_BEFORE_AND_AT=0x0 -DKCOREADDONS_LIB -DKF5Bookmarks_EXPORTS -DKF_DEPRECATED_WARNINGS_SINCE=0x060000 -DKF_DISABLE_DEPRECATED_BEFORE_AND_AT=0x054400 -DQT_CORE_LIB -DQT_DBUS_LIB -DQT_DEPRECATED_WARNINGS_SINCE=0x060000 -DQT_DISABLE_DEPRECATED_BEFORE=0x050d00 -DQT_GUI_LIB -DQT_NO_CAST_FROM_ASCII -DQT_NO_CAST_FROM_BYTEARRAY -DQT_NO_CAST_TO_ASCII -DQT_NO_DEBUG -DQT_NO_FOREACH -DQT_NO_NARROWING_CONVERSIONS_IN_CONNECT -DQT_NO_SIGNALS_SLOTS_KEYWORDS -DQT_NO_URL_CAST_FROM_STRING -DQT_STRICT_ITERATORS -DQT_USE_QSTRINGBUILDER -DQT_WIDGETS_LIB -DQT_XML_LIB -D_GNU_SOURCE -D_LARGEFILE64_SOURCE -Isrc -I/tmp/portage/kde-frameworks/kbookmarks-5.70.0/work/kbookmarks-5.70.0/src -Isrc/KF5Bookmarks_autogen/include -isystem /usr/include/qt5 -isystem /usr/include/qt5/QtWidgets -isystem /usr/include/qt5/QtGui -isystem /usr/include/qt5/QtCore -isystem /usr/lib64/qt5/mkspecs/linux-g++ -isystem /usr/include/qt5/QtXml -isystem /usr/include/KF5/KWidgetsAddons -isystem /usr/include/KF5 -isystem /usr/include/KF5/KCoreAddons -isystem /usr/include/KF5/KCodecs -isystem /usr/include/KF5/KConfigCore -isystem /usr/include/KF5/KConfigWidgets -isystem /usr/include/KF5/KConfigGui -isystem /usr/include/KF5/KAuth -isystem /usr/include/KF5/KXmlGui -isystem /usr/include/qt5/QtDBus  -DQT_NO_DEBUG -march=znver2 -O3 -fgraphite-identity -floop-nest-optimize -fdevirtualize-at-ltrans -fipa-pta -fno-semantic-interposition -flto=12 -fno-plt -fno-signed-zeros -fno-trapping-math -fassociative-math -freciprocal-math -fno-math-errno -ffinite-math-only -fno-rounding-math -fno-signaling-nans -fcx-limited-range -fexcess-precision=fast -falign-functions=32 -fno-stack-protector -fno-stack-clash-protection -fstack-check=no -fno-stack-check -fuse-linker-plugin -pipe -g0 -Wl,-O1 -Wl,--as-needed -Wl,-z,norelro -Wl,-z,now -Wl,--sort-common -s -fno-operator-names -fno-exceptions -Wall -Wextra -Wcast-align -Wchar-subscripts -Wformat-security -Wno-long-long -Wpointer-arith -Wundef -Wnon-virtual-dtor -Woverloaded-virtual -Werror=return-type -Wvla -Wdate-time -Wsuggest-override -Wlogical-op -fdiagnostics-color=always -pedantic -Wzero-as-null-pointer-constant -fPIC -fvisibility=hidden -fvisibility-inlines-hidden   -fPIC -std=gnu++11 -MD -MT src/CMakeFiles/KF5Bookmarks.dir/kbookmarkactioninterface.cpp.o -MF src/CMakeFiles/KF5Bookmarks.dir/kbookmarkactioninterface.cpp.o.d -o src/CMakeFiles/KF5Bookmarks.dir/kbookmarkactioninterface.cpp.o -c /tmp/portage/kde-frameworks/kbookmarks-5.70.0/work/kbookmarks-5.70.0/src/kbookmarkactioninterface.cpp
[3/30] /usr/lib/ccache/bin/x86_64-pc-linux-gnu-g++ -DKBOOKMARKS_DEPRECATED_WARNINGS_SINCE=0x0 -DKBOOKMARKS_DISABLE_DEPRECATED_BEFORE_AND_AT=0x0 -DKCOREADDONS_LIB -DKF5Bookmarks_EXPORTS -DKF_DEPRECATED_WARNINGS_SINCE=0x060000 -DKF_DISABLE_DEPRECATED_BEFORE_AND_AT=0x054400 -DQT_CORE_LIB -DQT_DBUS_LIB -DQT_DEPRECATED_WARNINGS_SINCE=0x060000 -DQT_DISABLE_DEPRECATED_BEFORE=0x050d00 -DQT_GUI_LIB -DQT_NO_CAST_FROM_ASCII -DQT_NO_CAST_FROM_BYTEARRAY -DQT_NO_CAST_TO_ASCII -DQT_NO_DEBUG -DQT_NO_FOREACH -DQT_NO_NARROWING_CONVERSIONS_IN_CONNECT -DQT_NO_SIGNALS_SLOTS_KEYWORDS -DQT_NO_URL_CAST_FROM_STRING -DQT_STRICT_ITERATORS -DQT_USE_QSTRINGBUILDER -DQT_WIDGETS_LIB -DQT_XML_LIB -D_GNU_SOURCE -D_LARGEFILE64_SOURCE -Isrc -I/tmp/portage/kde-frameworks/kbookmarks-5.70.0/work/kbookmarks-5.70.0/src -Isrc/KF5Bookmarks_autogen/include -isystem /usr/include/qt5 -isystem /usr/include/qt5/QtWidgets -isystem /usr/include/qt5/QtGui -isystem /usr/include/qt5/QtCore -isystem /usr/lib64/qt5/mkspecs/linux-g++ -isystem /usr/include/qt5/QtXml -isystem /usr/include/KF5/KWidgetsAddons -isystem /usr/include/KF5 -isystem /usr/include/KF5/KCoreAddons -isystem /usr/include/KF5/KCodecs -isystem /usr/include/KF5/KConfigCore -isystem /usr/include/KF5/KConfigWidgets -isystem /usr/include/KF5/KConfigGui -isystem /usr/include/KF5/KAuth -isystem /usr/include/KF5/KXmlGui -isystem /usr/include/qt5/QtDBus  -DQT_NO_DEBUG -march=znver2 -O3 -fgraphite-identity -floop-nest-optimize -fdevirtualize-at-ltrans -fipa-pta -fno-semantic-interposition -flto=12 -fno-plt -fno-signed-zeros -fno-trapping-math -fassociative-math -freciprocal-math -fno-math-errno -ffinite-math-only -fno-rounding-math -fno-signaling-nans -fcx-limited-range -fexcess-precision=fast -falign-functions=32 -fno-stack-protector -fno-stack-clash-protection -fstack-check=no -fno-stack-check -fuse-linker-plugin -pipe -g0 -Wl,-O1 -Wl,--as-needed -Wl,-z,norelro -Wl,-z,now -Wl,--sort-common -s -fno-operator-names -fno-exceptions -Wall -Wextra -Wcast-align -Wchar-subscripts -Wformat-security -Wno-long-long -Wpointer-arith -Wundef -Wnon-virtual-dtor -Woverloaded-virtual -Werror=return-type -Wvla -Wdate-time -Wsuggest-override -Wlogical-op -fdiagnostics-color=always -pedantic -Wzero-as-null-pointer-constant -fPIC -fvisibility=hidden -fvisibility-inlines-hidden   -fPIC -std=gnu++11 -MD -MT src/CMakeFiles/KF5Bookmarks.dir/kbookmarkowner.cpp.o -MF src/CMakeFiles/KF5Bookmarks.dir/kbookmarkowner.cpp.o.d -o src/CMakeFiles/KF5Bookmarks.dir/kbookmarkowner.cpp.o -c /tmp/portage/kde-frameworks/kbookmarks-5.70.0/work/kbookmarks-5.70.0/src/kbookmarkowner.cpp
[4/30] /usr/lib/ccache/bin/x86_64-pc-linux-gnu-g++ -DKBOOKMARKS_DEPRECATED_WARNINGS_SINCE=0x0 -DKBOOKMARKS_DISABLE_DEPRECATED_BEFORE_AND_AT=0x0 -DKCOREADDONS_LIB -DKF5Bookmarks_EXPORTS -DKF_DEPRECATED_WARNINGS_SINCE=0x060000 -DKF_DISABLE_DEPRECATED_BEFORE_AND_AT=0x054400 -DQT_CORE_LIB -DQT_DBUS_LIB -DQT_DEPRECATED_WARNINGS_SINCE=0x060000 -DQT_DISABLE_DEPRECATED_BEFORE=0x050d00 -DQT_GUI_LIB -DQT_NO_CAST_FROM_ASCII -DQT_NO_CAST_FROM_BYTEARRAY -DQT_NO_CAST_TO_ASCII -DQT_NO_DEBUG -DQT_NO_FOREACH -DQT_NO_NARROWING_CONVERSIONS_IN_CONNECT -DQT_NO_SIGNALS_SLOTS_KEYWORDS -DQT_NO_URL_CAST_FROM_STRING -DQT_STRICT_ITERATORS -DQT_USE_QSTRINGBUILDER -DQT_WIDGETS_LIB -DQT_XML_LIB -D_GNU_SOURCE -D_LARGEFILE64_SOURCE -Isrc -I/tmp/portage/kde-frameworks/kbookmarks-5.70.0/work/kbookmarks-5.70.0/src -Isrc/KF5Bookmarks_autogen/include -isystem /usr/include/qt5 -isystem /usr/include/qt5/QtWidgets -isystem /usr/include/qt5/QtGui -isystem /usr/include/qt5/QtCore -isystem /usr/lib64/qt5/mkspecs/linux-g++ -isystem /usr/include/qt5/QtXml -isystem /usr/include/KF5/KWidgetsAddons -isystem /usr/include/KF5 -isystem /usr/include/KF5/KCoreAddons -isystem /usr/include/KF5/KCodecs -isystem /usr/include/KF5/KConfigCore -isystem /usr/include/KF5/KConfigWidgets -isystem /usr/include/KF5/KConfigGui -isystem /usr/include/KF5/KAuth -isystem /usr/include/KF5/KXmlGui -isystem /usr/include/qt5/QtDBus  -DQT_NO_DEBUG -march=znver2 -O3 -fgraphite-identity -floop-nest-optimize -fdevirtualize-at-ltrans -fipa-pta -fno-semantic-interposition -flto=12 -fno-plt -fno-signed-zeros -fno-trapping-math -fassociative-math -freciprocal-math -fno-math-errno -ffinite-math-only -fno-rounding-math -fno-signaling-nans -fcx-limited-range -fexcess-precision=fast -falign-functions=32 -fno-stack-protector -fno-stack-clash-protection -fstack-check=no -fno-stack-check -fuse-linker-plugin -pipe -g0 -Wl,-O1 -Wl,--as-needed -Wl,-z,norelro -Wl,-z,now -Wl,--sort-common -s -fno-operator-names -fno-exceptions -Wall -Wextra -Wcast-align -Wchar-subscripts -Wformat-security -Wno-long-long -Wpointer-arith -Wundef -Wnon-virtual-dtor -Woverloaded-virtual -Werror=return-type -Wvla -Wdate-time -Wsuggest-override -Wlogical-op -fdiagnostics-color=always -pedantic -Wzero-as-null-pointer-constant -fPIC -fvisibility=hidden -fvisibility-inlines-hidden   -fPIC -std=gnu++11 -MD -MT src/CMakeFiles/KF5Bookmarks.dir/kbookmarkactionmenu.cpp.o -MF src/CMakeFiles/KF5Bookmarks.dir/kbookmarkactionmenu.cpp.o.d -o src/CMakeFiles/KF5Bookmarks.dir/kbookmarkactionmenu.cpp.o -c /tmp/portage/kde-frameworks/kbookmarks-5.70.0/work/kbookmarks-5.70.0/src/kbookmarkactionmenu.cpp
[5/30] /usr/lib/ccache/bin/x86_64-pc-linux-gnu-g++ -DKBOOKMARKS_DEPRECATED_WARNINGS_SINCE=0x0 -DKBOOKMARKS_DISABLE_DEPRECATED_BEFORE_AND_AT=0x0 -DKCOREADDONS_LIB -DKF5Bookmarks_EXPORTS -DKF_DEPRECATED_WARNINGS_SINCE=0x060000 -DKF_DISABLE_DEPRECATED_BEFORE_AND_AT=0x054400 -DQT_CORE_LIB -DQT_DBUS_LIB -DQT_DEPRECATED_WARNINGS_SINCE=0x060000 -DQT_DISABLE_DEPRECATED_BEFORE=0x050d00 -DQT_GUI_LIB -DQT_NO_CAST_FROM_ASCII -DQT_NO_CAST_FROM_BYTEARRAY -DQT_NO_CAST_TO_ASCII -DQT_NO_DEBUG -DQT_NO_FOREACH -DQT_NO_NARROWING_CONVERSIONS_IN_CONNECT -DQT_NO_SIGNALS_SLOTS_KEYWORDS -DQT_NO_URL_CAST_FROM_STRING -DQT_STRICT_ITERATORS -DQT_USE_QSTRINGBUILDER -DQT_WIDGETS_LIB -DQT_XML_LIB -D_GNU_SOURCE -D_LARGEFILE64_SOURCE -Isrc -I/tmp/portage/kde-frameworks/kbookmarks-5.70.0/work/kbookmarks-5.70.0/src -Isrc/KF5Bookmarks_autogen/include -isystem /usr/include/qt5 -isystem /usr/include/qt5/QtWidgets -isystem /usr/include/qt5/QtGui -isystem /usr/include/qt5/QtCore -isystem /usr/lib64/qt5/mkspecs/linux-g++ -isystem /usr/include/qt5/QtXml -isystem /usr/include/KF5/KWidgetsAddons -isystem /usr/include/KF5 -isystem /usr/include/KF5/KCoreAddons -isystem /usr/include/KF5/KCodecs -isystem /usr/include/KF5/KConfigCore -isystem /usr/include/KF5/KConfigWidgets -isystem /usr/include/KF5/KConfigGui -isystem /usr/include/KF5/KAuth -isystem /usr/include/KF5/KXmlGui -isystem /usr/include/qt5/QtDBus  -DQT_NO_DEBUG -march=znver2 -O3 -fgraphite-identity -floop-nest-optimize -fdevirtualize-at-ltrans -fipa-pta -fno-semantic-interposition -flto=12 -fno-plt -fno-signed-zeros -fno-trapping-math -fassociative-math -freciprocal-math -fno-math-errno -ffinite-math-only -fno-rounding-math -fno-signaling-nans -fcx-limited-range -fexcess-precision=fast -falign-functions=32 -fno-stack-protector -fno-stack-clash-protection -fstack-check=no -fno-stack-check -fuse-linker-plugin -pipe -g0 -Wl,-O1 -Wl,--as-needed -Wl,-z,norelro -Wl,-z,now -Wl,--sort-common -s -fno-operator-names -fno-exceptions -Wall -Wextra -Wcast-align -Wchar-subscripts -Wformat-security -Wno-long-long -Wpointer-arith -Wundef -Wnon-virtual-dtor -Woverloaded-virtual -Werror=return-type -Wvla -Wdate-time -Wsuggest-override -Wlogical-op -fdiagnostics-color=always -pedantic -Wzero-as-null-pointer-constant -fPIC -fvisibility=hidden -fvisibility-inlines-hidden   -fPIC -std=gnu++11 -MD -MT src/CMakeFiles/KF5Bookmarks.dir/kbookmarkcontextmenu.cpp.o -MF src/CMakeFiles/KF5Bookmarks.dir/kbookmarkcontextmenu.cpp.o.d -o src/CMakeFiles/KF5Bookmarks.dir/kbookmarkcontextmenu.cpp.o -c /tmp/portage/kde-frameworks/kbookmarks-5.70.0/work/kbookmarks-5.70.0/src/kbookmarkcontextmenu.cpp
[6/30] /usr/lib/ccache/bin/x86_64-pc-linux-gnu-g++ -DKBOOKMARKS_DEPRECATED_WARNINGS_SINCE=0x0 -DKBOOKMARKS_DISABLE_DEPRECATED_BEFORE_AND_AT=0x0 -DKCOREADDONS_LIB -DKF5Bookmarks_EXPORTS -DKF_DEPRECATED_WARNINGS_SINCE=0x060000 -DKF_DISABLE_DEPRECATED_BEFORE_AND_AT=0x054400 -DQT_CORE_LIB -DQT_DBUS_LIB -DQT_DEPRECATED_WARNINGS_SINCE=0x060000 -DQT_DISABLE_DEPRECATED_BEFORE=0x050d00 -DQT_GUI_LIB -DQT_NO_CAST_FROM_ASCII -DQT_NO_CAST_FROM_BYTEARRAY -DQT_NO_CAST_TO_ASCII -DQT_NO_DEBUG -DQT_NO_FOREACH -DQT_NO_NARROWING_CONVERSIONS_IN_CONNECT -DQT_NO_SIGNALS_SLOTS_KEYWORDS -DQT_NO_URL_CAST_FROM_STRING -DQT_STRICT_ITERATORS -DQT_USE_QSTRINGBUILDER -DQT_WIDGETS_LIB -DQT_XML_LIB -D_GNU_SOURCE -D_LARGEFILE64_SOURCE -Isrc -I/tmp/portage/kde-frameworks/kbookmarks-5.70.0/work/kbookmarks-5.70.0/src -Isrc/KF5Bookmarks_autogen/include -isystem /usr/include/qt5 -isystem /usr/include/qt5/QtWidgets -isystem /usr/include/qt5/QtGui -isystem /usr/include/qt5/QtCore -isystem /usr/lib64/qt5/mkspecs/linux-g++ -isystem /usr/include/qt5/QtXml -isystem /usr/include/KF5/KWidgetsAddons -isystem /usr/include/KF5 -isystem /usr/include/KF5/KCoreAddons -isystem /usr/include/KF5/KCodecs -isystem /usr/include/KF5/KConfigCore -isystem /usr/include/KF5/KConfigWidgets -isystem /usr/include/KF5/KConfigGui -isystem /usr/include/KF5/KAuth -isystem /usr/include/KF5/KXmlGui -isystem /usr/include/qt5/QtDBus  -DQT_NO_DEBUG -march=znver2 -O3 -fgraphite-identity -floop-nest-optimize -fdevirtualize-at-ltrans -fipa-pta -fno-semantic-interposition -flto=12 -fno-plt -fno-signed-zeros -fno-trapping-math -fassociative-math -freciprocal-math -fno-math-errno -ffinite-math-only -fno-rounding-math -fno-signaling-nans -fcx-limited-range -fexcess-precision=fast -falign-functions=32 -fno-stack-protector -fno-stack-clash-protection -fstack-check=no -fno-stack-check -fuse-linker-plugin -pipe -g0 -Wl,-O1 -Wl,--as-needed -Wl,-z,norelro -Wl,-z,now -Wl,--sort-common -s -fno-operator-names -fno-exceptions -Wall -Wextra -Wcast-align -Wchar-subscripts -Wformat-security -Wno-long-long -Wpointer-arith -Wundef -Wnon-virtual-dtor -Woverloaded-virtual -Werror=return-type -Wvla -Wdate-time -Wsuggest-override -Wlogical-op -fdiagnostics-color=always -pedantic -Wzero-as-null-pointer-constant -fPIC -fvisibility=hidden -fvisibility-inlines-hidden   -fPIC -std=gnu++11 -MD -MT src/CMakeFiles/KF5Bookmarks.dir/KF5Bookmarks_autogen/mocs_compilation.cpp.o -MF src/CMakeFiles/KF5Bookmarks.dir/KF5Bookmarks_autogen/mocs_compilation.cpp.o.d -o src/CMakeFiles/KF5Bookmarks.dir/KF5Bookmarks_autogen/mocs_compilation.cpp.o -c src/KF5Bookmarks_autogen/mocs_compilation.cpp
[7/30] /usr/lib/ccache/bin/x86_64-pc-linux-gnu-g++ -DKBOOKMARKS_DEPRECATED_WARNINGS_SINCE=0x0 -DKBOOKMARKS_DISABLE_DEPRECATED_BEFORE_AND_AT=0x0 -DKCOREADDONS_LIB -DKF5Bookmarks_EXPORTS -DKF_DEPRECATED_WARNINGS_SINCE=0x060000 -DKF_DISABLE_DEPRECATED_BEFORE_AND_AT=0x054400 -DQT_CORE_LIB -DQT_DBUS_LIB -DQT_DEPRECATED_WARNINGS_SINCE=0x060000 -DQT_DISABLE_DEPRECATED_BEFORE=0x050d00 -DQT_GUI_LIB -DQT_NO_CAST_FROM_ASCII -DQT_NO_CAST_FROM_BYTEARRAY -DQT_NO_CAST_TO_ASCII -DQT_NO_DEBUG -DQT_NO_FOREACH -DQT_NO_NARROWING_CONVERSIONS_IN_CONNECT -DQT_NO_SIGNALS_SLOTS_KEYWORDS -DQT_NO_URL_CAST_FROM_STRING -DQT_STRICT_ITERATORS -DQT_USE_QSTRINGBUILDER -DQT_WIDGETS_LIB -DQT_XML_LIB -D_GNU_SOURCE -D_LARGEFILE64_SOURCE -Isrc -I/tmp/portage/kde-frameworks/kbookmarks-5.70.0/work/kbookmarks-5.70.0/src -Isrc/KF5Bookmarks_autogen/include -isystem /usr/include/qt5 -isystem /usr/include/qt5/QtWidgets -isystem /usr/include/qt5/QtGui -isystem /usr/include/qt5/QtCore -isystem /usr/lib64/qt5/mkspecs/linux-g++ -isystem /usr/include/qt5/QtXml -isystem /usr/include/KF5/KWidgetsAddons -isystem /usr/include/KF5 -isystem /usr/include/KF5/KCoreAddons -isystem /usr/include/KF5/KCodecs -isystem /usr/include/KF5/KConfigCore -isystem /usr/include/KF5/KConfigWidgets -isystem /usr/include/KF5/KConfigGui -isystem /usr/include/KF5/KAuth -isystem /usr/include/KF5/KXmlGui -isystem /usr/include/qt5/QtDBus  -DQT_NO_DEBUG -march=znver2 -O3 -fgraphite-identity -floop-nest-optimize -fdevirtualize-at-ltrans -fipa-pta -fno-semantic-interposition -flto=12 -fno-plt -fno-signed-zeros -fno-trapping-math -fassociative-math -freciprocal-math -fno-math-errno -ffinite-math-only -fno-rounding-math -fno-signaling-nans -fcx-limited-range -fexcess-precision=fast -falign-functions=32 -fno-stack-protector -fno-stack-clash-protection -fstack-check=no -fno-stack-check -fuse-linker-plugin -pipe -g0 -Wl,-O1 -Wl,--as-needed -Wl,-z,norelro -Wl,-z,now -Wl,--sort-common -s -fno-operator-names -fno-exceptions -Wall -Wextra -Wcast-align -Wchar-subscripts -Wformat-security -Wno-long-long -Wpointer-arith -Wundef -Wnon-virtual-dtor -Woverloaded-virtual -Werror=return-type -Wvla -Wdate-time -Wsuggest-override -Wlogical-op -fdiagnostics-color=always -pedantic -Wzero-as-null-pointer-constant -fPIC -fvisibility=hidden -fvisibility-inlines-hidden   -fPIC -std=gnu++11 -MD -MT src/CMakeFiles/KF5Bookmarks.dir/kbookmarkaction.cpp.o -MF src/CMakeFiles/KF5Bookmarks.dir/kbookmarkaction.cpp.o.d -o src/CMakeFiles/KF5Bookmarks.dir/kbookmarkaction.cpp.o -c /tmp/portage/kde-frameworks/kbookmarks-5.70.0/work/kbookmarks-5.70.0/src/kbookmarkaction.cpp
[8/30] /usr/lib/ccache/bin/x86_64-pc-linux-gnu-g++ -DKBOOKMARKS_DEPRECATED_WARNINGS_SINCE=0x0 -DKBOOKMARKS_DISABLE_DEPRECATED_BEFORE_AND_AT=0x0 -DKCOREADDONS_LIB -DKF5Bookmarks_EXPORTS -DKF_DEPRECATED_WARNINGS_SINCE=0x060000 -DKF_DISABLE_DEPRECATED_BEFORE_AND_AT=0x054400 -DQT_CORE_LIB -DQT_DBUS_LIB -DQT_DEPRECATED_WARNINGS_SINCE=0x060000 -DQT_DISABLE_DEPRECATED_BEFORE=0x050d00 -DQT_GUI_LIB -DQT_NO_CAST_FROM_ASCII -DQT_NO_CAST_FROM_BYTEARRAY -DQT_NO_CAST_TO_ASCII -DQT_NO_DEBUG -DQT_NO_FOREACH -DQT_NO_NARROWING_CONVERSIONS_IN_CONNECT -DQT_NO_SIGNALS_SLOTS_KEYWORDS -DQT_NO_URL_CAST_FROM_STRING -DQT_STRICT_ITERATORS -DQT_USE_QSTRINGBUILDER -DQT_WIDGETS_LIB -DQT_XML_LIB -D_GNU_SOURCE -D_LARGEFILE64_SOURCE -Isrc -I/tmp/portage/kde-frameworks/kbookmarks-5.70.0/work/kbookmarks-5.70.0/src -Isrc/KF5Bookmarks_autogen/include -isystem /usr/include/qt5 -isystem /usr/include/qt5/QtWidgets -isystem /usr/include/qt5/QtGui -isystem /usr/include/qt5/QtCore -isystem /usr/lib64/qt5/mkspecs/linux-g++ -isystem /usr/include/qt5/QtXml -isystem /usr/include/KF5/KWidgetsAddons -isystem /usr/include/KF5 -isystem /usr/include/KF5/KCoreAddons -isystem /usr/include/KF5/KCodecs -isystem /usr/include/KF5/KConfigCore -isystem /usr/include/KF5/KConfigWidgets -isystem /usr/include/KF5/KConfigGui -isystem /usr/include/KF5/KAuth -isystem /usr/include/KF5/KXmlGui -isystem /usr/include/qt5/QtDBus  -DQT_NO_DEBUG -march=znver2 -O3 -fgraphite-identity -floop-nest-optimize -fdevirtualize-at-ltrans -fipa-pta -fno-semantic-interposition -flto=12 -fno-plt -fno-signed-zeros -fno-trapping-math -fassociative-math -freciprocal-math -fno-math-errno -ffinite-math-only -fno-rounding-math -fno-signaling-nans -fcx-limited-range -fexcess-precision=fast -falign-functions=32 -fno-stack-protector -fno-stack-clash-protection -fstack-check=no -fno-stack-check -fuse-linker-plugin -pipe -g0 -Wl,-O1 -Wl,--as-needed -Wl,-z,norelro -Wl,-z,now -Wl,--sort-common -s -fno-operator-names -fno-exceptions -Wall -Wextra -Wcast-align -Wchar-subscripts -Wformat-security -Wno-long-long -Wpointer-arith -Wundef -Wnon-virtual-dtor -Woverloaded-virtual -Werror=return-type -Wvla -Wdate-time -Wsuggest-override -Wlogical-op -fdiagnostics-color=always -pedantic -Wzero-as-null-pointer-constant -fPIC -fvisibility=hidden -fvisibility-inlines-hidden   -fPIC -std=gnu++11 -MD -MT src/CMakeFiles/KF5Bookmarks.dir/kbookmark.cpp.o -MF src/CMakeFiles/KF5Bookmarks.dir/kbookmark.cpp.o.d -o src/CMakeFiles/KF5Bookmarks.dir/kbookmark.cpp.o -c /tmp/portage/kde-frameworks/kbookmarks-5.70.0/work/kbookmarks-5.70.0/src/kbookmark.cpp
[9/30] /usr/lib/ccache/bin/x86_64-pc-linux-gnu-g++ -DKBOOKMARKS_DEPRECATED_WARNINGS_SINCE=0x0 -DKBOOKMARKS_DISABLE_DEPRECATED_BEFORE_AND_AT=0x0 -DKCOREADDONS_LIB -DKF5Bookmarks_EXPORTS -DKF_DEPRECATED_WARNINGS_SINCE=0x060000 -DKF_DISABLE_DEPRECATED_BEFORE_AND_AT=0x054400 -DQT_CORE_LIB -DQT_DBUS_LIB -DQT_DEPRECATED_WARNINGS_SINCE=0x060000 -DQT_DISABLE_DEPRECATED_BEFORE=0x050d00 -DQT_GUI_LIB -DQT_NO_CAST_FROM_ASCII -DQT_NO_CAST_FROM_BYTEARRAY -DQT_NO_CAST_TO_ASCII -DQT_NO_DEBUG -DQT_NO_FOREACH -DQT_NO_NARROWING_CONVERSIONS_IN_CONNECT -DQT_NO_SIGNALS_SLOTS_KEYWORDS -DQT_NO_URL_CAST_FROM_STRING -DQT_STRICT_ITERATORS -DQT_USE_QSTRINGBUILDER -DQT_WIDGETS_LIB -DQT_XML_LIB -D_GNU_SOURCE -D_LARGEFILE64_SOURCE -Isrc -I/tmp/portage/kde-frameworks/kbookmarks-5.70.0/work/kbookmarks-5.70.0/src -Isrc/KF5Bookmarks_autogen/include -isystem /usr/include/qt5 -isystem /usr/include/qt5/QtWidgets -isystem /usr/include/qt5/QtGui -isystem /usr/include/qt5/QtCore -isystem /usr/lib64/qt5/mkspecs/linux-g++ -isystem /usr/include/qt5/QtXml -isystem /usr/include/KF5/KWidgetsAddons -isystem /usr/include/KF5 -isystem /usr/include/KF5/KCoreAddons -isystem /usr/include/KF5/KCodecs -isystem /usr/include/KF5/KConfigCore -isystem /usr/include/KF5/KConfigWidgets -isystem /usr/include/KF5/KConfigGui -isystem /usr/include/KF5/KAuth -isystem /usr/include/KF5/KXmlGui -isystem /usr/include/qt5/QtDBus  -DQT_NO_DEBUG -march=znver2 -O3 -fgraphite-identity -floop-nest-optimize -fdevirtualize-at-ltrans -fipa-pta -fno-semantic-interposition -flto=12 -fno-plt -fno-signed-zeros -fno-trapping-math -fassociative-math -freciprocal-math -fno-math-errno -ffinite-math-only -fno-rounding-math -fno-signaling-nans -fcx-limited-range -fexcess-precision=fast -falign-functions=32 -fno-stack-protector -fno-stack-clash-protection -fstack-check=no -fno-stack-check -fuse-linker-plugin -pipe -g0 -Wl,-O1 -Wl,--as-needed -Wl,-z,norelro -Wl,-z,now -Wl,--sort-common -s -fno-operator-names -fno-exceptions -Wall -Wextra -Wcast-align -Wchar-subscripts -Wformat-security -Wno-long-long -Wpointer-arith -Wundef -Wnon-virtual-dtor -Woverloaded-virtual -Werror=return-type -Wvla -Wdate-time -Wsuggest-override -Wlogical-op -fdiagnostics-color=always -pedantic -Wzero-as-null-pointer-constant -fPIC -fvisibility=hidden -fvisibility-inlines-hidden   -fPIC -std=gnu++11 -MD -MT src/CMakeFiles/KF5Bookmarks.dir/kbookmarkimporter.cpp.o -MF src/CMakeFiles/KF5Bookmarks.dir/kbookmarkimporter.cpp.o.d -o src/CMakeFiles/KF5Bookmarks.dir/kbookmarkimporter.cpp.o -c /tmp/portage/kde-frameworks/kbookmarks-5.70.0/work/kbookmarks-5.70.0/src/kbookmarkimporter.cpp
[10/30] /usr/lib/ccache/bin/x86_64-pc-linux-gnu-g++ -DKBOOKMARKS_DEPRECATED_WARNINGS_SINCE=0x0 -DKBOOKMARKS_DISABLE_DEPRECATED_BEFORE_AND_AT=0x0 -DKCOREADDONS_LIB -DKF5Bookmarks_EXPORTS -DKF_DEPRECATED_WARNINGS_SINCE=0x060000 -DKF_DISABLE_DEPRECATED_BEFORE_AND_AT=0x054400 -DQT_CORE_LIB -DQT_DBUS_LIB -DQT_DEPRECATED_WARNINGS_SINCE=0x060000 -DQT_DISABLE_DEPRECATED_BEFORE=0x050d00 -DQT_GUI_LIB -DQT_NO_CAST_FROM_ASCII -DQT_NO_CAST_FROM_BYTEARRAY -DQT_NO_CAST_TO_ASCII -DQT_NO_DEBUG -DQT_NO_FOREACH -DQT_NO_NARROWING_CONVERSIONS_IN_CONNECT -DQT_NO_SIGNALS_SLOTS_KEYWORDS -DQT_NO_URL_CAST_FROM_STRING -DQT_STRICT_ITERATORS -DQT_USE_QSTRINGBUILDER -DQT_WIDGETS_LIB -DQT_XML_LIB -D_GNU_SOURCE -D_LARGEFILE64_SOURCE -Isrc -I/tmp/portage/kde-frameworks/kbookmarks-5.70.0/work/kbookmarks-5.70.0/src -Isrc/KF5Bookmarks_autogen/include -isystem /usr/include/qt5 -isystem /usr/include/qt5/QtWidgets -isystem /usr/include/qt5/QtGui -isystem /usr/include/qt5/QtCore -isystem /usr/lib64/qt5/mkspecs/linux-g++ -isystem /usr/include/qt5/QtXml -isystem /usr/include/KF5/KWidgetsAddons -isystem /usr/include/KF5 -isystem /usr/include/KF5/KCoreAddons -isystem /usr/include/KF5/KCodecs -isystem /usr/include/KF5/KConfigCore -isystem /usr/include/KF5/KConfigWidgets -isystem /usr/include/KF5/KConfigGui -isystem /usr/include/KF5/KAuth -isystem /usr/include/KF5/KXmlGui -isystem /usr/include/qt5/QtDBus  -DQT_NO_DEBUG -march=znver2 -O3 -fgraphite-identity -floop-nest-optimize -fdevirtualize-at-ltrans -fipa-pta -fno-semantic-interposition -flto=12 -fno-plt -fno-signed-zeros -fno-trapping-math -fassociative-math -freciprocal-math -fno-math-errno -ffinite-math-only -fno-rounding-math -fno-signaling-nans -fcx-limited-range -fexcess-precision=fast -falign-functions=32 -fno-stack-protector -fno-stack-clash-protection -fstack-check=no -fno-stack-check -fuse-linker-plugin -pipe -g0 -Wl,-O1 -Wl,--as-needed -Wl,-z,norelro -Wl,-z,now -Wl,--sort-common -s -fno-operator-names -fno-exceptions -Wall -Wextra -Wcast-align -Wchar-subscripts -Wformat-security -Wno-long-long -Wpointer-arith -Wundef -Wnon-virtual-dtor -Woverloaded-virtual -Werror=return-type -Wvla -Wdate-time -Wsuggest-override -Wlogical-op -fdiagnostics-color=always -pedantic -Wzero-as-null-pointer-constant -fPIC -fvisibility=hidden -fvisibility-inlines-hidden   -fPIC -std=gnu++11 -MD -MT src/CMakeFiles/KF5Bookmarks.dir/konqbookmarkmenu.cpp.o -MF src/CMakeFiles/KF5Bookmarks.dir/konqbookmarkmenu.cpp.o.d -o src/CMakeFiles/KF5Bookmarks.dir/konqbookmarkmenu.cpp.o -c /tmp/portage/kde-frameworks/kbookmarks-5.70.0/work/kbookmarks-5.70.0/src/konqbookmarkmenu.cpp
[11/30] /usr/lib/ccache/bin/x86_64-pc-linux-gnu-g++ -DKBOOKMARKS_DEPRECATED_WARNINGS_SINCE=0x0 -DKBOOKMARKS_DISABLE_DEPRECATED_BEFORE_AND_AT=0x0 -DKCOREADDONS_LIB -DKF5Bookmarks_EXPORTS -DKF_DEPRECATED_WARNINGS_SINCE=0x060000 -DKF_DISABLE_DEPRECATED_BEFORE_AND_AT=0x054400 -DQT_CORE_LIB -DQT_DBUS_LIB -DQT_DEPRECATED_WARNINGS_SINCE=0x060000 -DQT_DISABLE_DEPRECATED_BEFORE=0x050d00 -DQT_GUI_LIB -DQT_NO_CAST_FROM_ASCII -DQT_NO_CAST_FROM_BYTEARRAY -DQT_NO_CAST_TO_ASCII -DQT_NO_DEBUG -DQT_NO_FOREACH -DQT_NO_NARROWING_CONVERSIONS_IN_CONNECT -DQT_NO_SIGNALS_SLOTS_KEYWORDS -DQT_NO_URL_CAST_FROM_STRING -DQT_STRICT_ITERATORS -DQT_USE_QSTRINGBUILDER -DQT_WIDGETS_LIB -DQT_XML_LIB -D_GNU_SOURCE -D_LARGEFILE64_SOURCE -Isrc -I/tmp/portage/kde-frameworks/kbookmarks-5.70.0/work/kbookmarks-5.70.0/src -Isrc/KF5Bookmarks_autogen/include -isystem /usr/include/qt5 -isystem /usr/include/qt5/QtWidgets -isystem /usr/include/qt5/QtGui -isystem /usr/include/qt5/QtCore -isystem /usr/lib64/qt5/mkspecs/linux-g++ -isystem /usr/include/qt5/QtXml -isystem /usr/include/KF5/KWidgetsAddons -isystem /usr/include/KF5 -isystem /usr/include/KF5/KCoreAddons -isystem /usr/include/KF5/KCodecs -isystem /usr/include/KF5/KConfigCore -isystem /usr/include/KF5/KConfigWidgets -isystem /usr/include/KF5/KConfigGui -isystem /usr/include/KF5/KAuth -isystem /usr/include/KF5/KXmlGui -isystem /usr/include/qt5/QtDBus  -DQT_NO_DEBUG -march=znver2 -O3 -fgraphite-identity -floop-nest-optimize -fdevirtualize-at-ltrans -fipa-pta -fno-semantic-interposition -flto=12 -fno-plt -fno-signed-zeros -fno-trapping-math -fassociative-math -freciprocal-math -fno-math-errno -ffinite-math-only -fno-rounding-math -fno-signaling-nans -fcx-limited-range -fexcess-precision=fast -falign-functions=32 -fno-stack-protector -fno-stack-clash-protection -fstack-check=no -fno-stack-check -fuse-linker-plugin -pipe -g0 -Wl,-O1 -Wl,--as-needed -Wl,-z,norelro -Wl,-z,now -Wl,--sort-common -s -fno-operator-names -fno-exceptions -Wall -Wextra -Wcast-align -Wchar-subscripts -Wformat-security -Wno-long-long -Wpointer-arith -Wundef -Wnon-virtual-dtor -Woverloaded-virtual -Werror=return-type -Wvla -Wdate-time -Wsuggest-override -Wlogical-op -fdiagnostics-color=always -pedantic -Wzero-as-null-pointer-constant -fPIC -fvisibility=hidden -fvisibility-inlines-hidden   -fPIC -std=gnu++11 -MD -MT src/CMakeFiles/KF5Bookmarks.dir/kbookmarkimporter_opera.cpp.o -MF src/CMakeFiles/KF5Bookmarks.dir/kbookmarkimporter_opera.cpp.o.d -o src/CMakeFiles/KF5Bookmarks.dir/kbookmarkimporter_opera.cpp.o -c /tmp/portage/kde-frameworks/kbookmarks-5.70.0/work/kbookmarks-5.70.0/src/kbookmarkimporter_opera.cpp
[12/30] /usr/lib/ccache/bin/x86_64-pc-linux-gnu-g++ -DKBOOKMARKS_DEPRECATED_WARNINGS_SINCE=0x0 -DKBOOKMARKS_DISABLE_DEPRECATED_BEFORE_AND_AT=0x0 -DKCOREADDONS_LIB -DKF5Bookmarks_EXPORTS -DKF_DEPRECATED_WARNINGS_SINCE=0x060000 -DKF_DISABLE_DEPRECATED_BEFORE_AND_AT=0x054400 -DQT_CORE_LIB -DQT_DBUS_LIB -DQT_DEPRECATED_WARNINGS_SINCE=0x060000 -DQT_DISABLE_DEPRECATED_BEFORE=0x050d00 -DQT_GUI_LIB -DQT_NO_CAST_FROM_ASCII -DQT_NO_CAST_FROM_BYTEARRAY -DQT_NO_CAST_TO_ASCII -DQT_NO_DEBUG -DQT_NO_FOREACH -DQT_NO_NARROWING_CONVERSIONS_IN_CONNECT -DQT_NO_SIGNALS_SLOTS_KEYWORDS -DQT_NO_URL_CAST_FROM_STRING -DQT_STRICT_ITERATORS -DQT_USE_QSTRINGBUILDER -DQT_WIDGETS_LIB -DQT_XML_LIB -D_GNU_SOURCE -D_LARGEFILE64_SOURCE -Isrc -I/tmp/portage/kde-frameworks/kbookmarks-5.70.0/work/kbookmarks-5.70.0/src -Isrc/KF5Bookmarks_autogen/include -isystem /usr/include/qt5 -isystem /usr/include/qt5/QtWidgets -isystem /usr/include/qt5/QtGui -isystem /usr/include/qt5/QtCore -isystem /usr/lib64/qt5/mkspecs/linux-g++ -isystem /usr/include/qt5/QtXml -isystem /usr/include/KF5/KWidgetsAddons -isystem /usr/include/KF5 -isystem /usr/include/KF5/KCoreAddons -isystem /usr/include/KF5/KCodecs -isystem /usr/include/KF5/KConfigCore -isystem /usr/include/KF5/KConfigWidgets -isystem /usr/include/KF5/KConfigGui -isystem /usr/include/KF5/KAuth -isystem /usr/include/KF5/KXmlGui -isystem /usr/include/qt5/QtDBus  -DQT_NO_DEBUG -march=znver2 -O3 -fgraphite-identity -floop-nest-optimize -fdevirtualize-at-ltrans -fipa-pta -fno-semantic-interposition -flto=12 -fno-plt -fno-signed-zeros -fno-trapping-math -fassociative-math -freciprocal-math -fno-math-errno -ffinite-math-only -fno-rounding-math -fno-signaling-nans -fcx-limited-range -fexcess-precision=fast -falign-functions=32 -fno-stack-protector -fno-stack-clash-protection -fstack-check=no -fno-stack-check -fuse-linker-plugin -pipe -g0 -Wl,-O1 -Wl,--as-needed -Wl,-z,norelro -Wl,-z,now -Wl,--sort-common -s -fno-operator-names -fno-exceptions -Wall -Wextra -Wcast-align -Wchar-subscripts -Wformat-security -Wno-long-long -Wpointer-arith -Wundef -Wnon-virtual-dtor -Woverloaded-virtual -Werror=return-type -Wvla -Wdate-time -Wsuggest-override -Wlogical-op -fdiagnostics-color=always -pedantic -Wzero-as-null-pointer-constant -fPIC -fvisibility=hidden -fvisibility-inlines-hidden   -fPIC -std=gnu++11 -MD -MT src/CMakeFiles/KF5Bookmarks.dir/kbookmarkmanager.cpp.o -MF src/CMakeFiles/KF5Bookmarks.dir/kbookmarkmanager.cpp.o.d -o src/CMakeFiles/KF5Bookmarks.dir/kbookmarkmanager.cpp.o -c /tmp/portage/kde-frameworks/kbookmarks-5.70.0/work/kbookmarks-5.70.0/src/kbookmarkmanager.cpp
[13/30] /usr/lib/ccache/bin/x86_64-pc-linux-gnu-g++ -DKBOOKMARKS_DEPRECATED_WARNINGS_SINCE=0x0 -DKBOOKMARKS_DISABLE_DEPRECATED_BEFORE_AND_AT=0x0 -DKCOREADDONS_LIB -DKF5Bookmarks_EXPORTS -DKF_DEPRECATED_WARNINGS_SINCE=0x060000 -DKF_DISABLE_DEPRECATED_BEFORE_AND_AT=0x054400 -DQT_CORE_LIB -DQT_DBUS_LIB -DQT_DEPRECATED_WARNINGS_SINCE=0x060000 -DQT_DISABLE_DEPRECATED_BEFORE=0x050d00 -DQT_GUI_LIB -DQT_NO_CAST_FROM_ASCII -DQT_NO_CAST_FROM_BYTEARRAY -DQT_NO_CAST_TO_ASCII -DQT_NO_DEBUG -DQT_NO_FOREACH -DQT_NO_NARROWING_CONVERSIONS_IN_CONNECT -DQT_NO_SIGNALS_SLOTS_KEYWORDS -DQT_NO_URL_CAST_FROM_STRING -DQT_STRICT_ITERATORS -DQT_USE_QSTRINGBUILDER -DQT_WIDGETS_LIB -DQT_XML_LIB -D_GNU_SOURCE -D_LARGEFILE64_SOURCE -Isrc -I/tmp/portage/kde-frameworks/kbookmarks-5.70.0/work/kbookmarks-5.70.0/src -Isrc/KF5Bookmarks_autogen/include -isystem /usr/include/qt5 -isystem /usr/include/qt5/QtWidgets -isystem /usr/include/qt5/QtGui -isystem /usr/include/qt5/QtCore -isystem /usr/lib64/qt5/mkspecs/linux-g++ -isystem /usr/include/qt5/QtXml -isystem /usr/include/KF5/KWidgetsAddons -isystem /usr/include/KF5 -isystem /usr/include/KF5/KCoreAddons -isystem /usr/include/KF5/KCodecs -isystem /usr/include/KF5/KConfigCore -isystem /usr/include/KF5/KConfigWidgets -isystem /usr/include/KF5/KConfigGui -isystem /usr/include/KF5/KAuth -isystem /usr/include/KF5/KXmlGui -isystem /usr/include/qt5/QtDBus  -DQT_NO_DEBUG -march=znver2 -O3 -fgraphite-identity -floop-nest-optimize -fdevirtualize-at-ltrans -fipa-pta -fno-semantic-interposition -flto=12 -fno-plt -fno-signed-zeros -fno-trapping-math -fassociative-math -freciprocal-math -fno-math-errno -ffinite-math-only -fno-rounding-math -fno-signaling-nans -fcx-limited-range -fexcess-precision=fast -falign-functions=32 -fno-stack-protector -fno-stack-clash-protection -fstack-check=no -fno-stack-check -fuse-linker-plugin -pipe -g0 -Wl,-O1 -Wl,--as-needed -Wl,-z,norelro -Wl,-z,now -Wl,--sort-common -s -fno-operator-names -fno-exceptions -Wall -Wextra -Wcast-align -Wchar-subscripts -Wformat-security -Wno-long-long -Wpointer-arith -Wundef -Wnon-virtual-dtor -Woverloaded-virtual -Werror=return-type -Wvla -Wdate-time -Wsuggest-override -Wlogical-op -fdiagnostics-color=always -pedantic -Wzero-as-null-pointer-constant -fPIC -fvisibility=hidden -fvisibility-inlines-hidden   -fPIC -std=gnu++11 -MD -MT src/CMakeFiles/KF5Bookmarks.dir/kbookmarkmenu.cpp.o -MF src/CMakeFiles/KF5Bookmarks.dir/kbookmarkmenu.cpp.o.d -o src/CMakeFiles/KF5Bookmarks.dir/kbookmarkmenu.cpp.o -c /tmp/portage/kde-frameworks/kbookmarks-5.70.0/work/kbookmarks-5.70.0/src/kbookmarkmenu.cpp
[14/30] /usr/lib/ccache/bin/x86_64-pc-linux-gnu-g++ -DKBOOKMARKS_DEPRECATED_WARNINGS_SINCE=0x0 -DKBOOKMARKS_DISABLE_DEPRECATED_BEFORE_AND_AT=0x0 -DKCOREADDONS_LIB -DKF5Bookmarks_EXPORTS -DKF_DEPRECATED_WARNINGS_SINCE=0x060000 -DKF_DISABLE_DEPRECATED_BEFORE_AND_AT=0x054400 -DQT_CORE_LIB -DQT_DBUS_LIB -DQT_DEPRECATED_WARNINGS_SINCE=0x060000 -DQT_DISABLE_DEPRECATED_BEFORE=0x050d00 -DQT_GUI_LIB -DQT_NO_CAST_FROM_ASCII -DQT_NO_CAST_FROM_BYTEARRAY -DQT_NO_CAST_TO_ASCII -DQT_NO_DEBUG -DQT_NO_FOREACH -DQT_NO_NARROWING_CONVERSIONS_IN_CONNECT -DQT_NO_SIGNALS_SLOTS_KEYWORDS -DQT_NO_URL_CAST_FROM_STRING -DQT_STRICT_ITERATORS -DQT_USE_QSTRINGBUILDER -DQT_WIDGETS_LIB -DQT_XML_LIB -D_GNU_SOURCE -D_LARGEFILE64_SOURCE -Isrc -I/tmp/portage/kde-frameworks/kbookmarks-5.70.0/work/kbookmarks-5.70.0/src -Isrc/KF5Bookmarks_autogen/include -isystem /usr/include/qt5 -isystem /usr/include/qt5/QtWidgets -isystem /usr/include/qt5/QtGui -isystem /usr/include/qt5/QtCore -isystem /usr/lib64/qt5/mkspecs/linux-g++ -isystem /usr/include/qt5/QtXml -isystem /usr/include/KF5/KWidgetsAddons -isystem /usr/include/KF5 -isystem /usr/include/KF5/KCoreAddons -isystem /usr/include/KF5/KCodecs -isystem /usr/include/KF5/KConfigCore -isystem /usr/include/KF5/KConfigWidgets -isystem /usr/include/KF5/KConfigGui -isystem /usr/include/KF5/KAuth -isystem /usr/include/KF5/KXmlGui -isystem /usr/include/qt5/QtDBus  -DQT_NO_DEBUG -march=znver2 -O3 -fgraphite-identity -floop-nest-optimize -fdevirtualize-at-ltrans -fipa-pta -fno-semantic-interposition -flto=12 -fno-plt -fno-signed-zeros -fno-trapping-math -fassociative-math -freciprocal-math -fno-math-errno -ffinite-math-only -fno-rounding-math -fno-signaling-nans -fcx-limited-range -fexcess-precision=fast -falign-functions=32 -fno-stack-protector -fno-stack-clash-protection -fstack-check=no -fno-stack-check -fuse-linker-plugin -pipe -g0 -Wl,-O1 -Wl,--as-needed -Wl,-z,norelro -Wl,-z,now -Wl,--sort-common -s -fno-operator-names -fno-exceptions -Wall -Wextra -Wcast-align -Wchar-subscripts -Wformat-security -Wno-long-long -Wpointer-arith -Wundef -Wnon-virtual-dtor -Woverloaded-virtual -Werror=return-type -Wvla -Wdate-time -Wsuggest-override -Wlogical-op -fdiagnostics-color=always -pedantic -Wzero-as-null-pointer-constant -fPIC -fvisibility=hidden -fvisibility-inlines-hidden   -fPIC -std=gnu++11 -MD -MT src/CMakeFiles/KF5Bookmarks.dir/kbookmarkdombuilder.cpp.o -MF src/CMakeFiles/KF5Bookmarks.dir/kbookmarkdombuilder.cpp.o.d -o src/CMakeFiles/KF5Bookmarks.dir/kbookmarkdombuilder.cpp.o -c /tmp/portage/kde-frameworks/kbookmarks-5.70.0/work/kbookmarks-5.70.0/src/kbookmarkdombuilder.cpp
[15/30] /usr/lib/ccache/bin/x86_64-pc-linux-gnu-g++ -DKBOOKMARKS_DEPRECATED_WARNINGS_SINCE=0x0 -DKBOOKMARKS_DISABLE_DEPRECATED_BEFORE_AND_AT=0x0 -DKCOREADDONS_LIB -DKF5Bookmarks_EXPORTS -DKF_DEPRECATED_WARNINGS_SINCE=0x060000 -DKF_DISABLE_DEPRECATED_BEFORE_AND_AT=0x054400 -DQT_CORE_LIB -DQT_DBUS_LIB -DQT_DEPRECATED_WARNINGS_SINCE=0x060000 -DQT_DISABLE_DEPRECATED_BEFORE=0x050d00 -DQT_GUI_LIB -DQT_NO_CAST_FROM_ASCII -DQT_NO_CAST_FROM_BYTEARRAY -DQT_NO_CAST_TO_ASCII -DQT_NO_DEBUG -DQT_NO_FOREACH -DQT_NO_NARROWING_CONVERSIONS_IN_CONNECT -DQT_NO_SIGNALS_SLOTS_KEYWORDS -DQT_NO_URL_CAST_FROM_STRING -DQT_STRICT_ITERATORS -DQT_USE_QSTRINGBUILDER -DQT_WIDGETS_LIB -DQT_XML_LIB -D_GNU_SOURCE -D_LARGEFILE64_SOURCE -Isrc -I/tmp/portage/kde-frameworks/kbookmarks-5.70.0/work/kbookmarks-5.70.0/src -Isrc/KF5Bookmarks_autogen/include -isystem /usr/include/qt5 -isystem /usr/include/qt5/QtWidgets -isystem /usr/include/qt5/QtGui -isystem /usr/include/qt5/QtCore -isystem /usr/lib64/qt5/mkspecs/linux-g++ -isystem /usr/include/qt5/QtXml -isystem /usr/include/KF5/KWidgetsAddons -isystem /usr/include/KF5 -isystem /usr/include/KF5/KCoreAddons -isystem /usr/include/KF5/KCodecs -isystem /usr/include/KF5/KConfigCore -isystem /usr/include/KF5/KConfigWidgets -isystem /usr/include/KF5/KConfigGui -isystem /usr/include/KF5/KAuth -isystem /usr/include/KF5/KXmlGui -isystem /usr/include/qt5/QtDBus  -DQT_NO_DEBUG -march=znver2 -O3 -fgraphite-identity -floop-nest-optimize -fdevirtualize-at-ltrans -fipa-pta -fno-semantic-interposition -flto=12 -fno-plt -fno-signed-zeros -fno-trapping-math -fassociative-math -freciprocal-math -fno-math-errno -ffinite-math-only -fno-rounding-math -fno-signaling-nans -fcx-limited-range -fexcess-precision=fast -falign-functions=32 -fno-stack-protector -fno-stack-clash-protection -fstack-check=no -fno-stack-check -fuse-linker-plugin -pipe -g0 -Wl,-O1 -Wl,--as-needed -Wl,-z,norelro -Wl,-z,now -Wl,--sort-common -s -fno-operator-names -fno-exceptions -Wall -Wextra -Wcast-align -Wchar-subscripts -Wformat-security -Wno-long-long -Wpointer-arith -Wundef -Wnon-virtual-dtor -Woverloaded-virtual -Werror=return-type -Wvla -Wdate-time -Wsuggest-override -Wlogical-op -fdiagnostics-color=always -pedantic -Wzero-as-null-pointer-constant -fPIC -fvisibility=hidden -fvisibility-inlines-hidden   -fPIC -std=gnu++11 -MD -MT src/CMakeFiles/KF5Bookmarks.dir/kbookmarks_debug.cpp.o -MF src/CMakeFiles/KF5Bookmarks.dir/kbookmarks_debug.cpp.o.d -o src/CMakeFiles/KF5Bookmarks.dir/kbookmarks_debug.cpp.o -c src/kbookmarks_debug.cpp
[16/30] /usr/lib/ccache/bin/x86_64-pc-linux-gnu-g++ -DKBOOKMARKS_DEPRECATED_WARNINGS_SINCE=0x0 -DKBOOKMARKS_DISABLE_DEPRECATED_BEFORE_AND_AT=0x0 -DKCOREADDONS_LIB -DKF5Bookmarks_EXPORTS -DKF_DEPRECATED_WARNINGS_SINCE=0x060000 -DKF_DISABLE_DEPRECATED_BEFORE_AND_AT=0x054400 -DQT_CORE_LIB -DQT_DBUS_LIB -DQT_DEPRECATED_WARNINGS_SINCE=0x060000 -DQT_DISABLE_DEPRECATED_BEFORE=0x050d00 -DQT_GUI_LIB -DQT_NO_CAST_FROM_ASCII -DQT_NO_CAST_FROM_BYTEARRAY -DQT_NO_CAST_TO_ASCII -DQT_NO_DEBUG -DQT_NO_FOREACH -DQT_NO_NARROWING_CONVERSIONS_IN_CONNECT -DQT_NO_SIGNALS_SLOTS_KEYWORDS -DQT_NO_URL_CAST_FROM_STRING -DQT_STRICT_ITERATORS -DQT_USE_QSTRINGBUILDER -DQT_WIDGETS_LIB -DQT_XML_LIB -D_GNU_SOURCE -D_LARGEFILE64_SOURCE -Isrc -I/tmp/portage/kde-frameworks/kbookmarks-5.70.0/work/kbookmarks-5.70.0/src -Isrc/KF5Bookmarks_autogen/include -isystem /usr/include/qt5 -isystem /usr/include/qt5/QtWidgets -isystem /usr/include/qt5/QtGui -isystem /usr/include/qt5/QtCore -isystem /usr/lib64/qt5/mkspecs/linux-g++ -isystem /usr/include/qt5/QtXml -isystem /usr/include/KF5/KWidgetsAddons -isystem /usr/include/KF5 -isystem /usr/include/KF5/KCoreAddons -isystem /usr/include/KF5/KCodecs -isystem /usr/include/KF5/KConfigCore -isystem /usr/include/KF5/KConfigWidgets -isystem /usr/include/KF5/KConfigGui -isystem /usr/include/KF5/KAuth -isystem /usr/include/KF5/KXmlGui -isystem /usr/include/qt5/QtDBus  -DQT_NO_DEBUG -march=znver2 -O3 -fgraphite-identity -floop-nest-optimize -fdevirtualize-at-ltrans -fipa-pta -fno-semantic-interposition -flto=12 -fno-plt -fno-signed-zeros -fno-trapping-math -fassociative-math -freciprocal-math -fno-math-errno -ffinite-math-only -fno-rounding-math -fno-signaling-nans -fcx-limited-range -fexcess-precision=fast -falign-functions=32 -fno-stack-protector -fno-stack-clash-protection -fstack-check=no -fno-stack-check -fuse-linker-plugin -pipe -g0 -Wl,-O1 -Wl,--as-needed -Wl,-z,norelro -Wl,-z,now -Wl,--sort-common -s -fno-operator-names -fno-exceptions -Wall -Wextra -Wcast-align -Wchar-subscripts -Wformat-security -Wno-long-long -Wpointer-arith -Wundef -Wnon-virtual-dtor -Woverloaded-virtual -Werror=return-type -Wvla -Wdate-time -Wsuggest-override -Wlogical-op -fdiagnostics-color=always -pedantic -Wzero-as-null-pointer-constant -fPIC -fvisibility=hidden -fvisibility-inlines-hidden   -fPIC -std=gnu++11 -MD -MT src/CMakeFiles/KF5Bookmarks.dir/ECMQmLoader-kbookmarks5_qt.cpp.o -MF src/CMakeFiles/KF5Bookmarks.dir/ECMQmLoader-kbookmarks5_qt.cpp.o.d -o src/CMakeFiles/KF5Bookmarks.dir/ECMQmLoader-kbookmarks5_qt.cpp.o -c src/ECMQmLoader-kbookmarks5_qt.cpp
[17/30] /usr/lib/ccache/bin/x86_64-pc-linux-gnu-g++ -DKBOOKMARKS_DEPRECATED_WARNINGS_SINCE=0x0 -DKBOOKMARKS_DISABLE_DEPRECATED_BEFORE_AND_AT=0x0 -DKCOREADDONS_LIB -DKF5Bookmarks_EXPORTS -DKF_DEPRECATED_WARNINGS_SINCE=0x060000 -DKF_DISABLE_DEPRECATED_BEFORE_AND_AT=0x054400 -DQT_CORE_LIB -DQT_DBUS_LIB -DQT_DEPRECATED_WARNINGS_SINCE=0x060000 -DQT_DISABLE_DEPRECATED_BEFORE=0x050d00 -DQT_GUI_LIB -DQT_NO_CAST_FROM_ASCII -DQT_NO_CAST_FROM_BYTEARRAY -DQT_NO_CAST_TO_ASCII -DQT_NO_DEBUG -DQT_NO_FOREACH -DQT_NO_NARROWING_CONVERSIONS_IN_CONNECT -DQT_NO_SIGNALS_SLOTS_KEYWORDS -DQT_NO_URL_CAST_FROM_STRING -DQT_STRICT_ITERATORS -DQT_USE_QSTRINGBUILDER -DQT_WIDGETS_LIB -DQT_XML_LIB -D_GNU_SOURCE -D_LARGEFILE64_SOURCE -Isrc -I/tmp/portage/kde-frameworks/kbookmarks-5.70.0/work/kbookmarks-5.70.0/src -Isrc/KF5Bookmarks_autogen/include -isystem /usr/include/qt5 -isystem /usr/include/qt5/QtWidgets -isystem /usr/include/qt5/QtGui -isystem /usr/include/qt5/QtCore -isystem /usr/lib64/qt5/mkspecs/linux-g++ -isystem /usr/include/qt5/QtXml -isystem /usr/include/KF5/KWidgetsAddons -isystem /usr/include/KF5 -isystem /usr/include/KF5/KCoreAddons -isystem /usr/include/KF5/KCodecs -isystem /usr/include/KF5/KConfigCore -isystem /usr/include/KF5/KConfigWidgets -isystem /usr/include/KF5/KConfigGui -isystem /usr/include/KF5/KAuth -isystem /usr/include/KF5/KXmlGui -isystem /usr/include/qt5/QtDBus  -DQT_NO_DEBUG -march=znver2 -O3 -fgraphite-identity -floop-nest-optimize -fdevirtualize-at-ltrans -fipa-pta -fno-semantic-interposition -flto=12 -fno-plt -fno-signed-zeros -fno-trapping-math -fassociative-math -freciprocal-math -fno-math-errno -ffinite-math-only -fno-rounding-math -fno-signaling-nans -fcx-limited-range -fexcess-precision=fast -falign-functions=32 -fno-stack-protector -fno-stack-clash-protection -fstack-check=no -fno-stack-check -fuse-linker-plugin -pipe -g0 -Wl,-O1 -Wl,--as-needed -Wl,-z,norelro -Wl,-z,now -Wl,--sort-common -s -fno-operator-names -fno-exceptions -Wall -Wextra -Wcast-align -Wchar-subscripts -Wformat-security -Wno-long-long -Wpointer-arith -Wundef -Wnon-virtual-dtor -Woverloaded-virtual -Werror=return-type -Wvla -Wdate-time -Wsuggest-override -Wlogical-op -fdiagnostics-color=always -pedantic -Wzero-as-null-pointer-constant -fPIC -fvisibility=hidden -fvisibility-inlines-hidden   -fPIC -std=gnu++11 -MD -MT src/CMakeFiles/KF5Bookmarks.dir/kbookmarkimporter_ns.cpp.o -MF src/CMakeFiles/KF5Bookmarks.dir/kbookmarkimporter_ns.cpp.o.d -o src/CMakeFiles/KF5Bookmarks.dir/kbookmarkimporter_ns.cpp.o -c /tmp/portage/kde-frameworks/kbookmarks-5.70.0/work/kbookmarks-5.70.0/src/kbookmarkimporter_ns.cpp
[18/30] /usr/lib/ccache/bin/x86_64-pc-linux-gnu-g++ -DKBOOKMARKS_DEPRECATED_WARNINGS_SINCE=0x0 -DKBOOKMARKS_DISABLE_DEPRECATED_BEFORE_AND_AT=0x0 -DKCOREADDONS_LIB -DKF5Bookmarks_EXPORTS -DKF_DEPRECATED_WARNINGS_SINCE=0x060000 -DKF_DISABLE_DEPRECATED_BEFORE_AND_AT=0x054400 -DQT_CORE_LIB -DQT_DBUS_LIB -DQT_DEPRECATED_WARNINGS_SINCE=0x060000 -DQT_DISABLE_DEPRECATED_BEFORE=0x050d00 -DQT_GUI_LIB -DQT_NO_CAST_FROM_ASCII -DQT_NO_CAST_FROM_BYTEARRAY -DQT_NO_CAST_TO_ASCII -DQT_NO_DEBUG -DQT_NO_FOREACH -DQT_NO_NARROWING_CONVERSIONS_IN_CONNECT -DQT_NO_SIGNALS_SLOTS_KEYWORDS -DQT_NO_URL_CAST_FROM_STRING -DQT_STRICT_ITERATORS -DQT_USE_QSTRINGBUILDER -DQT_WIDGETS_LIB -DQT_XML_LIB -D_GNU_SOURCE -D_LARGEFILE64_SOURCE -Isrc -I/tmp/portage/kde-frameworks/kbookmarks-5.70.0/work/kbookmarks-5.70.0/src -Isrc/KF5Bookmarks_autogen/include -isystem /usr/include/qt5 -isystem /usr/include/qt5/QtWidgets -isystem /usr/include/qt5/QtGui -isystem /usr/include/qt5/QtCore -isystem /usr/lib64/qt5/mkspecs/linux-g++ -isystem /usr/include/qt5/QtXml -isystem /usr/include/KF5/KWidgetsAddons -isystem /usr/include/KF5 -isystem /usr/include/KF5/KCoreAddons -isystem /usr/include/KF5/KCodecs -isystem /usr/include/KF5/KConfigCore -isystem /usr/include/KF5/KConfigWidgets -isystem /usr/include/KF5/KConfigGui -isystem /usr/include/KF5/KAuth -isystem /usr/include/KF5/KXmlGui -isystem /usr/include/qt5/QtDBus  -DQT_NO_DEBUG -march=znver2 -O3 -fgraphite-identity -floop-nest-optimize -fdevirtualize-at-ltrans -fipa-pta -fno-semantic-interposition -flto=12 -fno-plt -fno-signed-zeros -fno-trapping-math -fassociative-math -freciprocal-math -fno-math-errno -ffinite-math-only -fno-rounding-math -fno-signaling-nans -fcx-limited-range -fexcess-precision=fast -falign-functions=32 -fno-stack-protector -fno-stack-clash-protection -fstack-check=no -fno-stack-check -fuse-linker-plugin -pipe -g0 -Wl,-O1 -Wl,--as-needed -Wl,-z,norelro -Wl,-z,now -Wl,--sort-common -s -fno-operator-names -fno-exceptions -Wall -Wextra -Wcast-align -Wchar-subscripts -Wformat-security -Wno-long-long -Wpointer-arith -Wundef -Wnon-virtual-dtor -Woverloaded-virtual -Werror=return-type -Wvla -Wdate-time -Wsuggest-override -Wlogical-op -fdiagnostics-color=always -pedantic -Wzero-as-null-pointer-constant -fPIC -fvisibility=hidden -fvisibility-inlines-hidden   -fPIC -std=gnu++11 -MD -MT src/CMakeFiles/KF5Bookmarks.dir/kbookmarkimporter_ie.cpp.o -MF src/CMakeFiles/KF5Bookmarks.dir/kbookmarkimporter_ie.cpp.o.d -o src/CMakeFiles/KF5Bookmarks.dir/kbookmarkimporter_ie.cpp.o -c /tmp/portage/kde-frameworks/kbookmarks-5.70.0/work/kbookmarks-5.70.0/src/kbookmarkimporter_ie.cpp
[19/30] /usr/lib/ccache/bin/x86_64-pc-linux-gnu-g++ -DKBOOKMARKS_DEPRECATED_WARNINGS_SINCE=0x0 -DKBOOKMARKS_DISABLE_DEPRECATED_BEFORE_AND_AT=0x0 -DKCOREADDONS_LIB -DKF5Bookmarks_EXPORTS -DKF_DEPRECATED_WARNINGS_SINCE=0x060000 -DKF_DISABLE_DEPRECATED_BEFORE_AND_AT=0x054400 -DQT_CORE_LIB -DQT_DBUS_LIB -DQT_DEPRECATED_WARNINGS_SINCE=0x060000 -DQT_DISABLE_DEPRECATED_BEFORE=0x050d00 -DQT_GUI_LIB -DQT_NO_CAST_FROM_ASCII -DQT_NO_CAST_FROM_BYTEARRAY -DQT_NO_CAST_TO_ASCII -DQT_NO_DEBUG -DQT_NO_FOREACH -DQT_NO_NARROWING_CONVERSIONS_IN_CONNECT -DQT_NO_SIGNALS_SLOTS_KEYWORDS -DQT_NO_URL_CAST_FROM_STRING -DQT_STRICT_ITERATORS -DQT_USE_QSTRINGBUILDER -DQT_WIDGETS_LIB -DQT_XML_LIB -D_GNU_SOURCE -D_LARGEFILE64_SOURCE -Isrc -I/tmp/portage/kde-frameworks/kbookmarks-5.70.0/work/kbookmarks-5.70.0/src -Isrc/KF5Bookmarks_autogen/include -isystem /usr/include/qt5 -isystem /usr/include/qt5/QtWidgets -isystem /usr/include/qt5/QtGui -isystem /usr/include/qt5/QtCore -isystem /usr/lib64/qt5/mkspecs/linux-g++ -isystem /usr/include/qt5/QtXml -isystem /usr/include/KF5/KWidgetsAddons -isystem /usr/include/KF5 -isystem /usr/include/KF5/KCoreAddons -isystem /usr/include/KF5/KCodecs -isystem /usr/include/KF5/KConfigCore -isystem /usr/include/KF5/KConfigWidgets -isystem /usr/include/KF5/KConfigGui -isystem /usr/include/KF5/KAuth -isystem /usr/include/KF5/KXmlGui -isystem /usr/include/qt5/QtDBus  -DQT_NO_DEBUG -march=znver2 -O3 -fgraphite-identity -floop-nest-optimize -fdevirtualize-at-ltrans -fipa-pta -fno-semantic-interposition -flto=12 -fno-plt -fno-signed-zeros -fno-trapping-math -fassociative-math -freciprocal-math -fno-math-errno -ffinite-math-only -fno-rounding-math -fno-signaling-nans -fcx-limited-range -fexcess-precision=fast -falign-functions=32 -fno-stack-protector -fno-stack-clash-protection -fstack-check=no -fno-stack-check -fuse-linker-plugin -pipe -g0 -Wl,-O1 -Wl,--as-needed -Wl,-z,norelro -Wl,-z,now -Wl,--sort-common -s -fno-operator-names -fno-exceptions -Wall -Wextra -Wcast-align -Wchar-subscripts -Wformat-security -Wno-long-long -Wpointer-arith -Wundef -Wnon-virtual-dtor -Woverloaded-virtual -Werror=return-type -Wvla -Wdate-time -Wsuggest-override -Wlogical-op -fdiagnostics-color=always -pedantic -Wzero-as-null-pointer-constant -fPIC -fvisibility=hidden -fvisibility-inlines-hidden   -fPIC -std=gnu++11 -MD -MT src/CMakeFiles/KF5Bookmarks.dir/kbookmarkmanageradaptor.cpp.o -MF src/CMakeFiles/KF5Bookmarks.dir/kbookmarkmanageradaptor.cpp.o.d -o src/CMakeFiles/KF5Bookmarks.dir/kbookmarkmanageradaptor.cpp.o -c /tmp/portage/kde-frameworks/kbookmarks-5.70.0/work/kbookmarks-5.70.0/src/kbookmarkmanageradaptor.cpp
[20/30] /usr/lib/ccache/bin/x86_64-pc-linux-gnu-g++ -DKBOOKMARKS_DEPRECATED_WARNINGS_SINCE=0x0 -DKBOOKMARKS_DISABLE_DEPRECATED_BEFORE_AND_AT=0x0 -DKCOREADDONS_LIB -DKF5Bookmarks_EXPORTS -DKF_DEPRECATED_WARNINGS_SINCE=0x060000 -DKF_DISABLE_DEPRECATED_BEFORE_AND_AT=0x054400 -DQT_CORE_LIB -DQT_DBUS_LIB -DQT_DEPRECATED_WARNINGS_SINCE=0x060000 -DQT_DISABLE_DEPRECATED_BEFORE=0x050d00 -DQT_GUI_LIB -DQT_NO_CAST_FROM_ASCII -DQT_NO_CAST_FROM_BYTEARRAY -DQT_NO_CAST_TO_ASCII -DQT_NO_DEBUG -DQT_NO_FOREACH -DQT_NO_NARROWING_CONVERSIONS_IN_CONNECT -DQT_NO_SIGNALS_SLOTS_KEYWORDS -DQT_NO_URL_CAST_FROM_STRING -DQT_STRICT_ITERATORS -DQT_USE_QSTRINGBUILDER -DQT_WIDGETS_LIB -DQT_XML_LIB -D_GNU_SOURCE -D_LARGEFILE64_SOURCE -Isrc -I/tmp/portage/kde-frameworks/kbookmarks-5.70.0/work/kbookmarks-5.70.0/src -Isrc/KF5Bookmarks_autogen/include -isystem /usr/include/qt5 -isystem /usr/include/qt5/QtWidgets -isystem /usr/include/qt5/QtGui -isystem /usr/include/qt5/QtCore -isystem /usr/lib64/qt5/mkspecs/linux-g++ -isystem /usr/include/qt5/QtXml -isystem /usr/include/KF5/KWidgetsAddons -isystem /usr/include/KF5 -isystem /usr/include/KF5/KCoreAddons -isystem /usr/include/KF5/KCodecs -isystem /usr/include/KF5/KConfigCore -isystem /usr/include/KF5/KConfigWidgets -isystem /usr/include/KF5/KConfigGui -isystem /usr/include/KF5/KAuth -isystem /usr/include/KF5/KXmlGui -isystem /usr/include/qt5/QtDBus  -DQT_NO_DEBUG -march=znver2 -O3 -fgraphite-identity -floop-nest-optimize -fdevirtualize-at-ltrans -fipa-pta -fno-semantic-interposition -flto=12 -fno-plt -fno-signed-zeros -fno-trapping-math -fassociative-math -freciprocal-math -fno-math-errno -ffinite-math-only -fno-rounding-math -fno-signaling-nans -fcx-limited-range -fexcess-precision=fast -falign-functions=32 -fno-stack-protector -fno-stack-clash-protection -fstack-check=no -fno-stack-check -fuse-linker-plugin -pipe -g0 -Wl,-O1 -Wl,--as-needed -Wl,-z,norelro -Wl,-z,now -Wl,--sort-common -s -fno-operator-names -fno-exceptions -Wall -Wextra -Wcast-align -Wchar-subscripts -Wformat-security -Wno-long-long -Wpointer-arith -Wundef -Wnon-virtual-dtor -Woverloaded-virtual -Werror=return-type -Wvla -Wdate-time -Wsuggest-override -Wlogical-op -fdiagnostics-color=always -pedantic -Wzero-as-null-pointer-constant -fPIC -fvisibility=hidden -fvisibility-inlines-hidden   -fPIC -std=gnu++11 -MD -MT src/CMakeFiles/KF5Bookmarks.dir/kbookmarkdialog.cpp.o -MF src/CMakeFiles/KF5Bookmarks.dir/kbookmarkdialog.cpp.o.d -o src/CMakeFiles/KF5Bookmarks.dir/kbookmarkdialog.cpp.o -c /tmp/portage/kde-frameworks/kbookmarks-5.70.0/work/kbookmarks-5.70.0/src/kbookmarkdialog.cpp
[21/30] : && /usr/lib/ccache/bin/x86_64-pc-linux-gnu-g++ -fPIC -march=znver2 -O3 -fgraphite-identity -floop-nest-optimize -fdevirtualize-at-ltrans -fipa-pta -fno-semantic-interposition -flto=12 -fno-plt -fno-signed-zeros -fno-trapping-math -fassociative-math -freciprocal-math -fno-math-errno -ffinite-math-only -fno-rounding-math -fno-signaling-nans -fcx-limited-range -fexcess-precision=fast -falign-functions=32 -fno-stack-protector -fno-stack-clash-protection -fstack-check=no -fno-stack-check -fuse-linker-plugin -pipe -g0 -Wl,-O1 -Wl,--as-needed -Wl,-z,norelro -Wl,-z,now -Wl,--sort-common -s -fno-operator-names -fno-exceptions -Wall -Wextra -Wcast-align -Wchar-subscripts -Wformat-security -Wno-long-long -Wpointer-arith -Wundef -Wnon-virtual-dtor -Woverloaded-virtual -Werror=return-type -Wvla -Wdate-time -Wsuggest-override -Wlogical-op -fdiagnostics-color=always -pedantic -Wzero-as-null-pointer-constant  -Wl,--no-undefined -Wl,--enable-new-dtags -Wl,-O1 -Wl,--as-needed -Wl,-z,norelro -Wl,-z,now -Wl,--sort-common -s -march=znver2 -O3 -fgraphite-identity -floop-nest-optimize -fdevirtualize-at-ltrans -fipa-pta -fno-semantic-interposition -flto=12 -fno-plt -fno-signed-zeros -fno-trapping-math -fassociative-math -freciprocal-math -fno-math-errno -ffinite-math-only -fno-rounding-math -fno-signaling-nans -fcx-limited-range -fexcess-precision=fast -falign-functions=32 -fno-stack-protector -fno-stack-clash-protection -fstack-check=no -fno-stack-check -fuse-linker-plugin -pipe -g0 -shared -Wl,-soname,libKF5Bookmarks.so.5 -o bin/libKF5Bookmarks.so.5.70.0 src/CMakeFiles/KF5Bookmarks.dir/KF5Bookmarks_autogen/mocs_compilation.cpp.o src/CMakeFiles/KF5Bookmarks.dir/kbookmark.cpp.o src/CMakeFiles/KF5Bookmarks.dir/kbookmarkaction.cpp.o src/CMakeFiles/KF5Bookmarks.dir/kbookmarkactioninterface.cpp.o src/CMakeFiles/KF5Bookmarks.dir/kbookmarkactionmenu.cpp.o src/CMakeFiles/KF5Bookmarks.dir/kbookmarkcontextmenu.cpp.o src/CMakeFiles/KF5Bookmarks.dir/kbookmarkimporter.cpp.o src/CMakeFiles/KF5Bookmarks.dir/kbookmarkmanager.cpp.o src/CMakeFiles/KF5Bookmarks.dir/kbookmarkmenu.cpp.o src/CMakeFiles/KF5Bookmarks.dir/kbookmarkowner.cpp.o src/CMakeFiles/KF5Bookmarks.dir/konqbookmarkmenu.cpp.o src/CMakeFiles/KF5Bookmarks.dir/kbookmarkimporter_opera.cpp.o src/CMakeFiles/KF5Bookmarks.dir/kbookmarkimporter_ie.cpp.o src/CMakeFiles/KF5Bookmarks.dir/kbookmarkimporter_ns.cpp.o src/CMakeFiles/KF5Bookmarks.dir/kbookmarkdombuilder.cpp.o src/CMakeFiles/KF5Bookmarks.dir/kbookmarkdialog.cpp.o src/CMakeFiles/KF5Bookmarks.dir/ECMQmLoader-kbookmarks5_qt.cpp.o src/CMakeFiles/KF5Bookmarks.dir/kbookmarkmanageradaptor.cpp.o src/CMakeFiles/KF5Bookmarks.dir/kbookmarks_debug.cpp.o  /usr/lib64/libKF5XmlGui.so.5.70.0  /usr/lib64/libKF5ConfigWidgets.so.5.70.0  /usr/lib64/libKF5WidgetsAddons.so.5.70.0  /usr/lib64/libKF5Codecs.so.5.70.0  /usr/lib64/libKF5ConfigGui.so.5.70.0  /usr/lib64/libQt5Xml.so.5.15.0  /usr/lib64/libKF5ConfigCore.so.5.70.0  /usr/lib64/libKF5Auth.so.5.70.0  /usr/lib64/libQt5Widgets.so.5.15.0  /usr/lib64/libQt5Gui.so.5.15.0  /usr/lib64/libKF5AuthCore.so.5.70.0  /usr/lib64/libKF5CoreAddons.so.5.70.0  /usr/lib64/libQt5DBus.so.5.15.0  /usr/lib64/libQt5Core.so.5.15.0 && :
[22/30] /usr/bin/cmake -E cmake_symlink_library bin/libKF5Bookmarks.so.5.70.0  bin/libKF5Bookmarks.so.5 bin/libKF5Bookmarks.so && :
[23/30] cd /tmp/portage/kde-frameworks/kbookmarks-5.70.0/work/kbookmarks-5.70.0_build/autotests && /usr/bin/cmake -E cmake_autogen /tmp/portage/kde-frameworks/kbookmarks-5.70.0/work/kbookmarks-5.70.0_build/autotests/CMakeFiles/kbookmarkmenutest_autogen.dir/AutogenInfo.json Gentoo && /usr/bin/cmake -E touch /tmp/portage/kde-frameworks/kbookmarks-5.70.0/work/kbookmarks-5.70.0_build/autotests/kbookmarkmenutest_autogen/timestamp
[24/30] cd /tmp/portage/kde-frameworks/kbookmarks-5.70.0/work/kbookmarks-5.70.0_build/autotests && /usr/bin/cmake -E cmake_autogen /tmp/portage/kde-frameworks/kbookmarks-5.70.0/work/kbookmarks-5.70.0_build/autotests/CMakeFiles/kbookmarktest_autogen.dir/AutogenInfo.json Gentoo && /usr/bin/cmake -E touch /tmp/portage/kde-frameworks/kbookmarks-5.70.0/work/kbookmarks-5.70.0_build/autotests/kbookmarktest_autogen/timestamp
[25/30] /usr/lib/ccache/bin/x86_64-pc-linux-gnu-g++ -DKBOOKMARKS_DEPRECATED_WARNINGS_SINCE=0x0 -DKBOOKMARKS_DISABLE_DEPRECATED_BEFORE_AND_AT=0x0 -DKCOREADDONS_LIB -DKF_DEPRECATED_WARNINGS_SINCE=0x060000 -DKF_DISABLE_DEPRECATED_BEFORE_AND_AT=0x054400 -DQT_CORE_LIB -DQT_DBUS_LIB -DQT_DEPRECATED_WARNINGS_SINCE=0x060000 -DQT_DISABLE_DEPRECATED_BEFORE=0x050d00 -DQT_GUI_LIB -DQT_NO_CAST_FROM_BYTEARRAY -DQT_NO_CAST_TO_ASCII -DQT_NO_DEBUG -DQT_NO_FOREACH -DQT_NO_NARROWING_CONVERSIONS_IN_CONNECT -DQT_NO_SIGNALS_SLOTS_KEYWORDS -DQT_NO_URL_CAST_FROM_STRING -DQT_STRICT_ITERATORS -DQT_TESTCASE_BUILDDIR=\"/tmp/portage/kde-frameworks/kbookmarks-5.70.0/work/kbookmarks-5.70.0_build\" -DQT_TESTLIB_LIB -DQT_USE_QSTRINGBUILDER -DQT_WIDGETS_LIB -DQT_XML_LIB -D_GNU_SOURCE -D_LARGEFILE64_SOURCE -Iautotests -I/tmp/portage/kde-frameworks/kbookmarks-5.70.0/work/kbookmarks-5.70.0/autotests -Iautotests/kbookmarkmenutest_autogen/include -Isrc -I/tmp/portage/kde-frameworks/kbookmarks-5.70.0/work/kbookmarks-5.70.0/src -isystem /usr/include/qt5 -isystem /usr/include/qt5/QtWidgets -isystem /usr/include/qt5/QtGui -isystem /usr/include/qt5/QtCore -isystem /usr/lib64/qt5/mkspecs/linux-g++ -isystem /usr/include/qt5/QtXml -isystem /usr/include/KF5/KWidgetsAddons -isystem /usr/include/KF5 -isystem /usr/include/KF5/KXmlGui -isystem /usr/include/KF5/KConfigCore -isystem /usr/include/KF5/KConfigWidgets -isystem /usr/include/KF5/KCodecs -isystem /usr/include/KF5/KConfigGui -isystem /usr/include/KF5/KAuth -isystem /usr/include/KF5/KCoreAddons -isystem /usr/include/qt5/QtDBus -isystem /usr/include/qt5/QtTest  -DQT_NO_DEBUG -march=znver2 -O3 -fgraphite-identity -floop-nest-optimize -fdevirtualize-at-ltrans -fipa-pta -fno-semantic-interposition -flto=12 -fno-plt -fno-signed-zeros -fno-trapping-math -fassociative-math -freciprocal-math -fno-math-errno -ffinite-math-only -fno-rounding-math -fno-signaling-nans -fcx-limited-range -fexcess-precision=fast -falign-functions=32 -fno-stack-protector -fno-stack-clash-protection -fstack-check=no -fno-stack-check -fuse-linker-plugin -pipe -g0 -Wl,-O1 -Wl,--as-needed -Wl,-z,norelro -Wl,-z,now -Wl,--sort-common -s -fno-operator-names -fno-exceptions -Wall -Wextra -Wcast-align -Wchar-subscripts -Wformat-security -Wno-long-long -Wpointer-arith -Wundef -Wnon-virtual-dtor -Woverloaded-virtual -Werror=return-type -Wvla -Wdate-time -Wsuggest-override -Wlogical-op -fdiagnostics-color=always -pedantic -Wzero-as-null-pointer-constant -fvisibility=hidden -fvisibility-inlines-hidden   -fPIC -std=gnu++11 -MD -MT autotests/CMakeFiles/kbookmarkmenutest.dir/kbookmarkmenutest_autogen/mocs_compilation.cpp.o -MF autotests/CMakeFiles/kbookmarkmenutest.dir/kbookmarkmenutest_autogen/mocs_compilation.cpp.o.d -o autotests/CMakeFiles/kbookmarkmenutest.dir/kbookmarkmenutest_autogen/mocs_compilation.cpp.o -c autotests/kbookmarkmenutest_autogen/mocs_compilation.cpp
[26/30] /usr/lib/ccache/bin/x86_64-pc-linux-gnu-g++ -DKBOOKMARKS_DEPRECATED_WARNINGS_SINCE=0x0 -DKBOOKMARKS_DISABLE_DEPRECATED_BEFORE_AND_AT=0x0 -DKF_DEPRECATED_WARNINGS_SINCE=0x060000 -DKF_DISABLE_DEPRECATED_BEFORE_AND_AT=0x054400 -DQT_CORE_LIB -DQT_DEPRECATED_WARNINGS_SINCE=0x060000 -DQT_DISABLE_DEPRECATED_BEFORE=0x050d00 -DQT_GUI_LIB -DQT_NO_CAST_FROM_BYTEARRAY -DQT_NO_CAST_TO_ASCII -DQT_NO_DEBUG -DQT_NO_FOREACH -DQT_NO_NARROWING_CONVERSIONS_IN_CONNECT -DQT_NO_SIGNALS_SLOTS_KEYWORDS -DQT_NO_URL_CAST_FROM_STRING -DQT_STRICT_ITERATORS -DQT_TESTCASE_BUILDDIR=\"/tmp/portage/kde-frameworks/kbookmarks-5.70.0/work/kbookmarks-5.70.0_build\" -DQT_TESTLIB_LIB -DQT_USE_QSTRINGBUILDER -DQT_WIDGETS_LIB -DQT_XML_LIB -D_GNU_SOURCE -D_LARGEFILE64_SOURCE -Iautotests -I/tmp/portage/kde-frameworks/kbookmarks-5.70.0/work/kbookmarks-5.70.0/autotests -Iautotests/kbookmarktest_autogen/include -Isrc -I/tmp/portage/kde-frameworks/kbookmarks-5.70.0/work/kbookmarks-5.70.0/src -isystem /usr/include/qt5 -isystem /usr/include/qt5/QtWidgets -isystem /usr/include/qt5/QtGui -isystem /usr/include/qt5/QtCore -isystem /usr/lib64/qt5/mkspecs/linux-g++ -isystem /usr/include/qt5/QtXml -isystem /usr/include/KF5/KWidgetsAddons -isystem /usr/include/KF5 -isystem /usr/include/qt5/QtTest  -DQT_NO_DEBUG -march=znver2 -O3 -fgraphite-identity -floop-nest-optimize -fdevirtualize-at-ltrans -fipa-pta -fno-semantic-interposition -flto=12 -fno-plt -fno-signed-zeros -fno-trapping-math -fassociative-math -freciprocal-math -fno-math-errno -ffinite-math-only -fno-rounding-math -fno-signaling-nans -fcx-limited-range -fexcess-precision=fast -falign-functions=32 -fno-stack-protector -fno-stack-clash-protection -fstack-check=no -fno-stack-check -fuse-linker-plugin -pipe -g0 -Wl,-O1 -Wl,--as-needed -Wl,-z,norelro -Wl,-z,now -Wl,--sort-common -s -fno-operator-names -fno-exceptions -Wall -Wextra -Wcast-align -Wchar-subscripts -Wformat-security -Wno-long-long -Wpointer-arith -Wundef -Wnon-virtual-dtor -Woverloaded-virtual -Werror=return-type -Wvla -Wdate-time -Wsuggest-override -Wlogical-op -fdiagnostics-color=always -pedantic -Wzero-as-null-pointer-constant -fvisibility=hidden -fvisibility-inlines-hidden   -fPIC -std=gnu++11 -MD -MT autotests/CMakeFiles/kbookmarktest.dir/kbookmarktest_autogen/mocs_compilation.cpp.o -MF autotests/CMakeFiles/kbookmarktest.dir/kbookmarktest_autogen/mocs_compilation.cpp.o.d -o autotests/CMakeFiles/kbookmarktest.dir/kbookmarktest_autogen/mocs_compilation.cpp.o -c autotests/kbookmarktest_autogen/mocs_compilation.cpp
[27/30] /usr/lib/ccache/bin/x86_64-pc-linux-gnu-g++ -DKBOOKMARKS_DEPRECATED_WARNINGS_SINCE=0x0 -DKBOOKMARKS_DISABLE_DEPRECATED_BEFORE_AND_AT=0x0 -DKF_DEPRECATED_WARNINGS_SINCE=0x060000 -DKF_DISABLE_DEPRECATED_BEFORE_AND_AT=0x054400 -DQT_CORE_LIB -DQT_DEPRECATED_WARNINGS_SINCE=0x060000 -DQT_DISABLE_DEPRECATED_BEFORE=0x050d00 -DQT_GUI_LIB -DQT_NO_CAST_FROM_BYTEARRAY -DQT_NO_CAST_TO_ASCII -DQT_NO_DEBUG -DQT_NO_FOREACH -DQT_NO_NARROWING_CONVERSIONS_IN_CONNECT -DQT_NO_SIGNALS_SLOTS_KEYWORDS -DQT_NO_URL_CAST_FROM_STRING -DQT_STRICT_ITERATORS -DQT_TESTCASE_BUILDDIR=\"/tmp/portage/kde-frameworks/kbookmarks-5.70.0/work/kbookmarks-5.70.0_build\" -DQT_TESTLIB_LIB -DQT_USE_QSTRINGBUILDER -DQT_WIDGETS_LIB -DQT_XML_LIB -D_GNU_SOURCE -D_LARGEFILE64_SOURCE -Iautotests -I/tmp/portage/kde-frameworks/kbookmarks-5.70.0/work/kbookmarks-5.70.0/autotests -Iautotests/kbookmarktest_autogen/include -Isrc -I/tmp/portage/kde-frameworks/kbookmarks-5.70.0/work/kbookmarks-5.70.0/src -isystem /usr/include/qt5 -isystem /usr/include/qt5/QtWidgets -isystem /usr/include/qt5/QtGui -isystem /usr/include/qt5/QtCore -isystem /usr/lib64/qt5/mkspecs/linux-g++ -isystem /usr/include/qt5/QtXml -isystem /usr/include/KF5/KWidgetsAddons -isystem /usr/include/KF5 -isystem /usr/include/qt5/QtTest  -DQT_NO_DEBUG -march=znver2 -O3 -fgraphite-identity -floop-nest-optimize -fdevirtualize-at-ltrans -fipa-pta -fno-semantic-interposition -flto=12 -fno-plt -fno-signed-zeros -fno-trapping-math -fassociative-math -freciprocal-math -fno-math-errno -ffinite-math-only -fno-rounding-math -fno-signaling-nans -fcx-limited-range -fexcess-precision=fast -falign-functions=32 -fno-stack-protector -fno-stack-clash-protection -fstack-check=no -fno-stack-check -fuse-linker-plugin -pipe -g0 -Wl,-O1 -Wl,--as-needed -Wl,-z,norelro -Wl,-z,now -Wl,--sort-common -s -fno-operator-names -fno-exceptions -Wall -Wextra -Wcast-align -Wchar-subscripts -Wformat-security -Wno-long-long -Wpointer-arith -Wundef -Wnon-virtual-dtor -Woverloaded-virtual -Werror=return-type -Wvla -Wdate-time -Wsuggest-override -Wlogical-op -fdiagnostics-color=always -pedantic -Wzero-as-null-pointer-constant -fvisibility=hidden -fvisibility-inlines-hidden   -fPIC -std=gnu++11 -MD -MT autotests/CMakeFiles/kbookmarktest.dir/kbookmarktest.cpp.o -MF autotests/CMakeFiles/kbookmarktest.dir/kbookmarktest.cpp.o.d -o autotests/CMakeFiles/kbookmarktest.dir/kbookmarktest.cpp.o -c /tmp/portage/kde-frameworks/kbookmarks-5.70.0/work/kbookmarks-5.70.0/autotests/kbookmarktest.cpp
[28/30] /usr/lib/ccache/bin/x86_64-pc-linux-gnu-g++ -DKBOOKMARKS_DEPRECATED_WARNINGS_SINCE=0x0 -DKBOOKMARKS_DISABLE_DEPRECATED_BEFORE_AND_AT=0x0 -DKCOREADDONS_LIB -DKF_DEPRECATED_WARNINGS_SINCE=0x060000 -DKF_DISABLE_DEPRECATED_BEFORE_AND_AT=0x054400 -DQT_CORE_LIB -DQT_DBUS_LIB -DQT_DEPRECATED_WARNINGS_SINCE=0x060000 -DQT_DISABLE_DEPRECATED_BEFORE=0x050d00 -DQT_GUI_LIB -DQT_NO_CAST_FROM_BYTEARRAY -DQT_NO_CAST_TO_ASCII -DQT_NO_DEBUG -DQT_NO_FOREACH -DQT_NO_NARROWING_CONVERSIONS_IN_CONNECT -DQT_NO_SIGNALS_SLOTS_KEYWORDS -DQT_NO_URL_CAST_FROM_STRING -DQT_STRICT_ITERATORS -DQT_TESTCASE_BUILDDIR=\"/tmp/portage/kde-frameworks/kbookmarks-5.70.0/work/kbookmarks-5.70.0_build\" -DQT_TESTLIB_LIB -DQT_USE_QSTRINGBUILDER -DQT_WIDGETS_LIB -DQT_XML_LIB -D_GNU_SOURCE -D_LARGEFILE64_SOURCE -Iautotests -I/tmp/portage/kde-frameworks/kbookmarks-5.70.0/work/kbookmarks-5.70.0/autotests -Iautotests/kbookmarkmenutest_autogen/include -Isrc -I/tmp/portage/kde-frameworks/kbookmarks-5.70.0/work/kbookmarks-5.70.0/src -isystem /usr/include/qt5 -isystem /usr/include/qt5/QtWidgets -isystem /usr/include/qt5/QtGui -isystem /usr/include/qt5/QtCore -isystem /usr/lib64/qt5/mkspecs/linux-g++ -isystem /usr/include/qt5/QtXml -isystem /usr/include/KF5/KWidgetsAddons -isystem /usr/include/KF5 -isystem /usr/include/KF5/KXmlGui -isystem /usr/include/KF5/KConfigCore -isystem /usr/include/KF5/KConfigWidgets -isystem /usr/include/KF5/KCodecs -isystem /usr/include/KF5/KConfigGui -isystem /usr/include/KF5/KAuth -isystem /usr/include/KF5/KCoreAddons -isystem /usr/include/qt5/QtDBus -isystem /usr/include/qt5/QtTest  -DQT_NO_DEBUG -march=znver2 -O3 -fgraphite-identity -floop-nest-optimize -fdevirtualize-at-ltrans -fipa-pta -fno-semantic-interposition -flto=12 -fno-plt -fno-signed-zeros -fno-trapping-math -fassociative-math -freciprocal-math -fno-math-errno -ffinite-math-only -fno-rounding-math -fno-signaling-nans -fcx-limited-range -fexcess-precision=fast -falign-functions=32 -fno-stack-protector -fno-stack-clash-protection -fstack-check=no -fno-stack-check -fuse-linker-plugin -pipe -g0 -Wl,-O1 -Wl,--as-needed -Wl,-z,norelro -Wl,-z,now -Wl,--sort-common -s -fno-operator-names -fno-exceptions -Wall -Wextra -Wcast-align -Wchar-subscripts -Wformat-security -Wno-long-long -Wpointer-arith -Wundef -Wnon-virtual-dtor -Woverloaded-virtual -Werror=return-type -Wvla -Wdate-time -Wsuggest-override -Wlogical-op -fdiagnostics-color=always -pedantic -Wzero-as-null-pointer-constant -fvisibility=hidden -fvisibility-inlines-hidden   -fPIC -std=gnu++11 -MD -MT autotests/CMakeFiles/kbookmarkmenutest.dir/kbookmarkmenutest.cpp.o -MF autotests/CMakeFiles/kbookmarkmenutest.dir/kbookmarkmenutest.cpp.o.d -o autotests/CMakeFiles/kbookmarkmenutest.dir/kbookmarkmenutest.cpp.o -c /tmp/portage/kde-frameworks/kbookmarks-5.70.0/work/kbookmarks-5.70.0/autotests/kbookmarkmenutest.cpp
[29/30] : && /usr/lib/ccache/bin/x86_64-pc-linux-gnu-g++  -march=znver2 -O3 -fgraphite-identity -floop-nest-optimize -fdevirtualize-at-ltrans -fipa-pta -fno-semantic-interposition -flto=12 -fno-plt -fno-signed-zeros -fno-trapping-math -fassociative-math -freciprocal-math -fno-math-errno -ffinite-math-only -fno-rounding-math -fno-signaling-nans -fcx-limited-range -fexcess-precision=fast -falign-functions=32 -fno-stack-protector -fno-stack-clash-protection -fstack-check=no -fno-stack-check -fuse-linker-plugin -pipe -g0 -Wl,-O1 -Wl,--as-needed -Wl,-z,norelro -Wl,-z,now -Wl,--sort-common -s -fno-operator-names -fno-exceptions -Wall -Wextra -Wcast-align -Wchar-subscripts -Wformat-security -Wno-long-long -Wpointer-arith -Wundef -Wnon-virtual-dtor -Woverloaded-virtual -Werror=return-type -Wvla -Wdate-time -Wsuggest-override -Wlogical-op -fdiagnostics-color=always -pedantic -Wzero-as-null-pointer-constant  -Wl,--enable-new-dtags -Wl,-O1 -Wl,--as-needed -Wl,-z,norelro -Wl,-z,now -Wl,--sort-common -s -march=znver2 -O3 -fgraphite-identity -floop-nest-optimize -fdevirtualize-at-ltrans -fipa-pta -fno-semantic-interposition -flto=12 -fno-plt -fno-signed-zeros -fno-trapping-math -fassociative-math -freciprocal-math -fno-math-errno -ffinite-math-only -fno-rounding-math -fno-signaling-nans -fcx-limited-range -fexcess-precision=fast -falign-functions=32 -fno-stack-protector -fno-stack-clash-protection -fstack-check=no -fno-stack-check -fuse-linker-plugin -pipe -g0 autotests/CMakeFiles/kbookmarktest.dir/kbookmarktest_autogen/mocs_compilation.cpp.o autotests/CMakeFiles/kbookmarktest.dir/kbookmarktest.cpp.o  -o bin/kbookmarktest  -Wl,-rpath,/tmp/portage/kde-frameworks/kbookmarks-5.70.0/work/kbookmarks-5.70.0_build/bin  bin/libKF5Bookmarks.so.5.70.0  /usr/lib64/libQt5Test.so.5.15.0  /usr/lib64/libKF5WidgetsAddons.so.5.70.0  /usr/lib64/libQt5Xml.so.5.15.0  /usr/lib64/libQt5Widgets.so.5.15.0  /usr/lib64/libQt5Gui.so.5.15.0  /usr/lib64/libQt5Core.so.5.15.0 && :
[30/30] : && /usr/lib/ccache/bin/x86_64-pc-linux-gnu-g++  -march=znver2 -O3 -fgraphite-identity -floop-nest-optimize -fdevirtualize-at-ltrans -fipa-pta -fno-semantic-interposition -flto=12 -fno-plt -fno-signed-zeros -fno-trapping-math -fassociative-math -freciprocal-math -fno-math-errno -ffinite-math-only -fno-rounding-math -fno-signaling-nans -fcx-limited-range -fexcess-precision=fast -falign-functions=32 -fno-stack-protector -fno-stack-clash-protection -fstack-check=no -fno-stack-check -fuse-linker-plugin -pipe -g0 -Wl,-O1 -Wl,--as-needed -Wl,-z,norelro -Wl,-z,now -Wl,--sort-common -s -fno-operator-names -fno-exceptions -Wall -Wextra -Wcast-align -Wchar-subscripts -Wformat-security -Wno-long-long -Wpointer-arith -Wundef -Wnon-virtual-dtor -Woverloaded-virtual -Werror=return-type -Wvla -Wdate-time -Wsuggest-override -Wlogical-op -fdiagnostics-color=always -pedantic -Wzero-as-null-pointer-constant  -Wl,--enable-new-dtags -Wl,-O1 -Wl,--as-needed -Wl,-z,norelro -Wl,-z,now -Wl,--sort-common -s -march=znver2 -O3 -fgraphite-identity -floop-nest-optimize -fdevirtualize-at-ltrans -fipa-pta -fno-semantic-interposition -flto=12 -fno-plt -fno-signed-zeros -fno-trapping-math -fassociative-math -freciprocal-math -fno-math-errno -ffinite-math-only -fno-rounding-math -fno-signaling-nans -fcx-limited-range -fexcess-precision=fast -falign-functions=32 -fno-stack-protector -fno-stack-clash-protection -fstack-check=no -fno-stack-check -fuse-linker-plugin -pipe -g0 autotests/CMakeFiles/kbookmarkmenutest.dir/kbookmarkmenutest_autogen/mocs_compilation.cpp.o autotests/CMakeFiles/kbookmarkmenutest.dir/kbookmarkmenutest.cpp.o  -o bin/kbookmarkmenutest  -Wl,-rpath,/tmp/portage/kde-frameworks/kbookmarks-5.70.0/work/kbookmarks-5.70.0_build/bin  bin/libKF5Bookmarks.so.5.70.0  /usr/lib64/libKF5XmlGui.so.5.70.0  /usr/lib64/libQt5Test.so.5.15.0  /usr/lib64/libKF5ConfigWidgets.so.5.70.0  /usr/lib64/libKF5WidgetsAddons.so.5.70.0  /usr/lib64/libKF5ConfigGui.so.5.70.0  /usr/lib64/libQt5Xml.so.5.15.0  /usr/lib64/libKF5ConfigCore.so.5.70.0  /usr/lib64/libKF5Auth.so.5.70.0  /usr/lib64/libQt5Widgets.so.5.15.0  /usr/lib64/libQt5Gui.so.5.15.0  /usr/lib64/libKF5AuthCore.so.5.70.0  /usr/lib64/libQt5DBus.so.5.15.0  /usr/lib64/libKF5Codecs.so.5.70.0  /usr/lib64/libKF5CoreAddons.so.5.70.0  /usr/lib64/libQt5Core.so.5.15.0 && :
>>> Source compiled.
>>> Test phase [not enabled]: kde-frameworks/kbookmarks-5.70.0

>>> Install kde-frameworks/kbookmarks-5.70.0 into /tmp/portage/kde-frameworks/kbookmarks-5.70.0/image
 * Working in BUILD_DIR: "/tmp/portage/kde-frameworks/kbookmarks-5.70.0/work/kbookmarks-5.70.0_build"
[0/1] Install the project...[K
-- Install configuration: "Gentoo"
-- Installing: /tmp/portage/kde-frameworks/kbookmarks-5.70.0/image/usr/lib64/cmake/KF5Bookmarks/KF5BookmarksConfig.cmake
-- Installing: /tmp/portage/kde-frameworks/kbookmarks-5.70.0/image/usr/lib64/cmake/KF5Bookmarks/KF5BookmarksConfigVersion.cmake
-- Installing: /tmp/portage/kde-frameworks/kbookmarks-5.70.0/image/usr/lib64/cmake/KF5Bookmarks/KF5BookmarksTargets.cmake
-- Installing: /tmp/portage/kde-frameworks/kbookmarks-5.70.0/image/usr/lib64/cmake/KF5Bookmarks/KF5BookmarksTargets-gentoo.cmake
-- Installing: /tmp/portage/kde-frameworks/kbookmarks-5.70.0/image/usr/include/KF5/kbookmarks_version.h
-- Installing: /tmp/portage/kde-frameworks/kbookmarks-5.70.0/image/usr/lib64/libKF5Bookmarks.so.5.70.0
-- Installing: /tmp/portage/kde-frameworks/kbookmarks-5.70.0/image/usr/lib64/libKF5Bookmarks.so.5
-- Installing: /tmp/portage/kde-frameworks/kbookmarks-5.70.0/image/usr/lib64/libKF5Bookmarks.so
-- Installing: /tmp/portage/kde-frameworks/kbookmarks-5.70.0/image/usr/include/KF5/KBookmarks/kbookmarks_export.h
-- Installing: /tmp/portage/kde-frameworks/kbookmarks-5.70.0/image/usr/include/KF5/KBookmarks/KBookmark
-- Installing: /tmp/portage/kde-frameworks/kbookmarks-5.70.0/image/usr/include/KF5/KBookmarks/KBookmarkAction
-- Installing: /tmp/portage/kde-frameworks/kbookmarks-5.70.0/image/usr/include/KF5/KBookmarks/KBookmarkActionInterface
-- Installing: /tmp/portage/kde-frameworks/kbookmarks-5.70.0/image/usr/include/KF5/KBookmarks/KBookmarkActionMenu
-- Installing: /tmp/portage/kde-frameworks/kbookmarks-5.70.0/image/usr/include/KF5/KBookmarks/KBookmarkContextMenu
-- Installing: /tmp/portage/kde-frameworks/kbookmarks-5.70.0/image/usr/include/KF5/KBookmarks/KBookmarkManager
-- Installing: /tmp/portage/kde-frameworks/kbookmarks-5.70.0/image/usr/include/KF5/KBookmarks/KBookmarkMenu
-- Installing: /tmp/portage/kde-frameworks/kbookmarks-5.70.0/image/usr/include/KF5/KBookmarks/KBookmarkOwner
-- Installing: /tmp/portage/kde-frameworks/kbookmarks-5.70.0/image/usr/include/KF5/KBookmarks/KBookmarkDomBuilder
-- Installing: /tmp/portage/kde-frameworks/kbookmarks-5.70.0/image/usr/include/KF5/KBookmarks/KBookmarkDialog
-- Installing: /tmp/portage/kde-frameworks/kbookmarks-5.70.0/image/usr/include/KF5/KBookmarks/KonqBookmarkMenu
-- Installing: /tmp/portage/kde-frameworks/kbookmarks-5.70.0/image/usr/include/KF5/KBookmarks/kbookmark.h
-- Installing: /tmp/portage/kde-frameworks/kbookmarks-5.70.0/image/usr/include/KF5/KBookmarks/kbookmarkaction.h
-- Installing: /tmp/portage/kde-frameworks/kbookmarks-5.70.0/image/usr/include/KF5/KBookmarks/kbookmarkactioninterface.h
-- Installing: /tmp/portage/kde-frameworks/kbookmarks-5.70.0/image/usr/include/KF5/KBookmarks/kbookmarkactionmenu.h
-- Installing: /tmp/portage/kde-frameworks/kbookmarks-5.70.0/image/usr/include/KF5/KBookmarks/kbookmarkcontextmenu.h
-- Installing: /tmp/portage/kde-frameworks/kbookmarks-5.70.0/image/usr/include/KF5/KBookmarks/kbookmarkmanager.h
-- Installing: /tmp/portage/kde-frameworks/kbookmarks-5.70.0/image/usr/include/KF5/KBookmarks/kbookmarkmenu.h
-- Installing: /tmp/portage/kde-frameworks/kbookmarks-5.70.0/image/usr/include/KF5/KBookmarks/kbookmarkowner.h
-- Installing: /tmp/portage/kde-frameworks/kbookmarks-5.70.0/image/usr/include/KF5/KBookmarks/kbookmarkdombuilder.h
-- Installing: /tmp/portage/kde-frameworks/kbookmarks-5.70.0/image/usr/include/KF5/KBookmarks/kbookmarkdialog.h
-- Installing: /tmp/portage/kde-frameworks/kbookmarks-5.70.0/image/usr/include/KF5/KBookmarks/konqbookmarkmenu.h
-- Installing: /tmp/portage/kde-frameworks/kbookmarks-5.70.0/image/usr/include/KF5/KBookmarks/kbookmarkexporter.h
-- Installing: /tmp/portage/kde-frameworks/kbookmarks-5.70.0/image/usr/include/KF5/KBookmarks/kbookmarkimporter.h
-- Installing: /tmp/portage/kde-frameworks/kbookmarks-5.70.0/image/usr/include/KF5/KBookmarks/kbookmarkimporter_opera.h
-- Installing: /tmp/portage/kde-frameworks/kbookmarks-5.70.0/image/usr/include/KF5/KBookmarks/kbookmarkimporter_ie.h
-- Installing: /tmp/portage/kde-frameworks/kbookmarks-5.70.0/image/usr/include/KF5/KBookmarks/kbookmarkimporter_ns.h
-- Installing: /tmp/portage/kde-frameworks/kbookmarks-5.70.0/image/usr/share/qlogging-categories5/kbookmarks.categories
-- Installing: /tmp/portage/kde-frameworks/kbookmarks-5.70.0/image/usr/lib64/qt5/mkspecs/modules/qt_KBookmarks.pri
>>> Completed installing kde-frameworks/kbookmarks-5.70.0 into /tmp/portage/kde-frameworks/kbookmarks-5.70.0/image

 * Final size of build directory: 4608 KiB (4.5 MiB)
 * Final size of installed tree:   532 KiB



 * QA Notice: Pre-stripped files found:
 * /usr/lib64/libKF5Bookmarks.so.5.70.0
./
./usr/
./usr/include/
./usr/include/KF5/
./usr/include/KF5/kbookmarks_version.h
./usr/include/KF5/KBookmarks/
./usr/include/KF5/KBookmarks/kbookmarkactionmenu.h
./usr/include/KF5/KBookmarks/kbookmarkdialog.h
./usr/include/KF5/KBookmarks/konqbookmarkmenu.h
./usr/include/KF5/KBookmarks/KBookmarkDialog
./usr/include/KF5/KBookmarks/kbookmarkmanager.h
./usr/include/KF5/KBookmarks/kbookmarkimporter_ie.h
./usr/include/KF5/KBookmarks/kbookmarkaction.h
./usr/include/KF5/KBookmarks/KBookmark
./usr/include/KF5/KBookmarks/kbookmarkdombuilder.h
./usr/include/KF5/KBookmarks/KBookmarkActionMenu
./usr/include/KF5/KBookmarks/KBookmarkAction
./usr/include/KF5/KBookmarks/kbookmarkimporter_opera.h
./usr/include/KF5/KBookmarks/kbookmarkexporter.h
./usr/include/KF5/KBookmarks/KBookmarkContextMenu
./usr/include/KF5/KBookmarks/KBookmarkOwner
./usr/include/KF5/KBookmarks/kbookmarkimporter.h
./usr/include/KF5/KBookmarks/KonqBookmarkMenu
./usr/include/KF5/KBookmarks/KBookmarkDomBuilder
./usr/include/KF5/KBookmarks/kbookmarkmenu.h
./usr/include/KF5/KBookmarks/kbookmark.h
./usr/include/KF5/KBookmarks/KBookmarkManager
./usr/include/KF5/KBookmarks/kbookmarkimporter_ns.h
./usr/include/KF5/KBookmarks/kbookmarkowner.h
./usr/include/KF5/KBookmarks/kbookmarkactioninterface.h
./usr/include/KF5/KBookmarks/KBookmarkMenu
./usr/include/KF5/KBookmarks/kbookmarks_export.h
./usr/include/KF5/KBookmarks/KBookmarkActionInterface
./usr/include/KF5/KBookmarks/kbookmarkcontextmenu.h
./usr/share/
./usr/share/qlogging-categories5/
./usr/share/qlogging-categories5/kbookmarks.categories
./usr/share/doc/
./usr/share/doc/kbookmarks-5.70.0/
./usr/share/doc/kbookmarks-5.70.0/README.md.bz2
./usr/lib64/
./usr/lib64/qt5/
./usr/lib64/qt5/mkspecs/
./usr/lib64/qt5/mkspecs/modules/
./usr/lib64/qt5/mkspecs/modules/qt_KBookmarks.pri
./usr/lib64/libKF5Bookmarks.so.5.70.0
./usr/lib64/cmake/
./usr/lib64/cmake/KF5Bookmarks/
./usr/lib64/cmake/KF5Bookmarks/KF5BookmarksTargets.cmake
./usr/lib64/cmake/KF5Bookmarks/KF5BookmarksTargets-gentoo.cmake
./usr/lib64/cmake/KF5Bookmarks/KF5BookmarksConfigVersion.cmake
./usr/lib64/cmake/KF5Bookmarks/KF5BookmarksConfig.cmake
./usr/lib64/libKF5Bookmarks.so.5
./usr/lib64/libKF5Bookmarks.so
>>> Done.
 * checking 38 files for package collisions
>>> Merging kde-frameworks/kbookmarks-5.70.0 to /
 * removing unneeded *.la files
--- /usr/
--- /usr/lib64/
>>> /usr/lib64/libKF5Bookmarks.so -> libKF5Bookmarks.so.5
>>> /usr/lib64/libKF5Bookmarks.so.5 -> libKF5Bookmarks.so.5.70.0
--- /usr/lib64/cmake/
--- /usr/lib64/cmake/KF5Bookmarks/
>>> /usr/lib64/cmake/KF5Bookmarks/KF5BookmarksConfig.cmake
>>> /usr/lib64/cmake/KF5Bookmarks/KF5BookmarksConfigVersion.cmake
>>> /usr/lib64/cmake/KF5Bookmarks/KF5BookmarksTargets-gentoo.cmake
>>> /usr/lib64/cmake/KF5Bookmarks/KF5BookmarksTargets.cmake
>>> /usr/lib64/libKF5Bookmarks.so.5.70.0
--- /usr/lib64/qt5/
--- /usr/lib64/qt5/mkspecs/
--- /usr/lib64/qt5/mkspecs/modules/
>>> /usr/lib64/qt5/mkspecs/modules/qt_KBookmarks.pri
--- /usr/share/
--- /usr/share/qlogging-categories5/
>>> /usr/share/qlogging-categories5/kbookmarks.categories
--- /usr/include/
--- /usr/include/KF5/
--- /usr/include/KF5/KBookmarks/
>>> /usr/include/KF5/KBookmarks/kbookmarkcontextmenu.h
>>> /usr/include/KF5/KBookmarks/KBookmarkActionInterface
>>> /usr/include/KF5/KBookmarks/kbookmarks_export.h
>>> /usr/include/KF5/KBookmarks/KBookmarkMenu
>>> /usr/include/KF5/KBookmarks/kbookmarkactioninterface.h
>>> /usr/include/KF5/KBookmarks/kbookmarkowner.h
>>> /usr/include/KF5/KBookmarks/kbookmarkimporter_ns.h
>>> /usr/include/KF5/KBookmarks/KBookmarkManager
>>> /usr/include/KF5/KBookmarks/kbookmark.h
>>> /usr/include/KF5/KBookmarks/kbookmarkmenu.h
>>> /usr/include/KF5/KBookmarks/KBookmarkDomBuilder
>>> /usr/include/KF5/KBookmarks/KonqBookmarkMenu
>>> /usr/include/KF5/KBookmarks/kbookmarkimporter.h
>>> /usr/include/KF5/KBookmarks/KBookmarkOwner
>>> /usr/include/KF5/KBookmarks/KBookmarkContextMenu
>>> /usr/include/KF5/KBookmarks/kbookmarkexporter.h
>>> /usr/include/KF5/KBookmarks/kbookmarkimporter_opera.h
>>> /usr/include/KF5/KBookmarks/KBookmarkAction
>>> /usr/include/KF5/KBookmarks/KBookmarkActionMenu
>>> /usr/include/KF5/KBookmarks/kbookmarkdombuilder.h
>>> /usr/include/KF5/KBookmarks/KBookmark
>>> /usr/include/KF5/KBookmarks/kbookmarkaction.h
>>> /usr/include/KF5/KBookmarks/kbookmarkimporter_ie.h
>>> /usr/include/KF5/KBookmarks/kbookmarkmanager.h
>>> /usr/include/KF5/KBookmarks/KBookmarkDialog
>>> /usr/include/KF5/KBookmarks/konqbookmarkmenu.h
>>> /usr/include/KF5/KBookmarks/kbookmarkdialog.h
>>> /usr/include/KF5/KBookmarks/kbookmarkactionmenu.h
>>> /usr/include/KF5/kbookmarks_version.h
>>> Safely unmerging already-installed instance...
>>> Original instance of package unmerged safely.
>>> kde-frameworks/kbookmarks-5.70.0 merged.
>>> Regenerating /etc/ld.so.cache...
