No package files given... Grabbing a set.
--- replaced obj /usr/share/qlogging-categories5/kbookmarks.categories
--- replaced dir /usr/share/qlogging-categories5
--- replaced dir /usr/share
--- replaced obj /usr/lib64/qt5/mkspecs/modules/qt_KBookmarks.pri
--- replaced dir /usr/lib64/qt5/mkspecs/modules
--- replaced dir /usr/lib64/qt5/mkspecs
--- replaced dir /usr/lib64/qt5
--- replaced obj /usr/lib64/libKF5Bookmarks.so.5.70.0
--- replaced sym /usr/lib64/libKF5Bookmarks.so.5
--- replaced sym /usr/lib64/libKF5Bookmarks.so
--- replaced obj /usr/lib64/cmake/KF5Bookmarks/KF5BookmarksTargets.cmake
--- replaced obj /usr/lib64/cmake/KF5Bookmarks/KF5BookmarksTargets-gentoo.cmake
--- replaced obj /usr/lib64/cmake/KF5Bookmarks/KF5BookmarksConfigVersion.cmake
--- replaced obj /usr/lib64/cmake/KF5Bookmarks/KF5BookmarksConfig.cmake
--- replaced dir /usr/lib64/cmake/KF5Bookmarks
--- replaced dir /usr/lib64/cmake
--- replaced dir /usr/lib64
--- replaced obj /usr/include/KF5/kbookmarks_version.h
--- replaced obj /usr/include/KF5/KBookmarks/konqbookmarkmenu.h
--- replaced obj /usr/include/KF5/KBookmarks/kbookmarks_export.h
--- replaced obj /usr/include/KF5/KBookmarks/kbookmarkowner.h
--- replaced obj /usr/include/KF5/KBookmarks/kbookmarkmenu.h
--- replaced obj /usr/include/KF5/KBookmarks/kbookmarkmanager.h
--- replaced obj /usr/include/KF5/KBookmarks/kbookmarkimporter_opera.h
--- replaced obj /usr/include/KF5/KBookmarks/kbookmarkimporter_ns.h
--- replaced obj /usr/include/KF5/KBookmarks/kbookmarkimporter_ie.h
--- replaced obj /usr/include/KF5/KBookmarks/kbookmarkimporter.h
--- replaced obj /usr/include/KF5/KBookmarks/kbookmarkexporter.h
--- replaced obj /usr/include/KF5/KBookmarks/kbookmarkdombuilder.h
--- replaced obj /usr/include/KF5/KBookmarks/kbookmarkdialog.h
--- replaced obj /usr/include/KF5/KBookmarks/kbookmarkcontextmenu.h
--- replaced obj /usr/include/KF5/KBookmarks/kbookmarkactionmenu.h
--- replaced obj /usr/include/KF5/KBookmarks/kbookmarkactioninterface.h
--- replaced obj /usr/include/KF5/KBookmarks/kbookmarkaction.h
--- replaced obj /usr/include/KF5/KBookmarks/kbookmark.h
--- replaced obj /usr/include/KF5/KBookmarks/KonqBookmarkMenu
--- replaced obj /usr/include/KF5/KBookmarks/KBookmarkOwner
--- replaced obj /usr/include/KF5/KBookmarks/KBookmarkMenu
--- replaced obj /usr/include/KF5/KBookmarks/KBookmarkManager
--- replaced obj /usr/include/KF5/KBookmarks/KBookmarkDomBuilder
--- replaced obj /usr/include/KF5/KBookmarks/KBookmarkDialog
--- replaced obj /usr/include/KF5/KBookmarks/KBookmarkContextMenu
--- replaced obj /usr/include/KF5/KBookmarks/KBookmarkActionMenu
--- replaced obj /usr/include/KF5/KBookmarks/KBookmarkActionInterface
--- replaced obj /usr/include/KF5/KBookmarks/KBookmarkAction
--- replaced obj /usr/include/KF5/KBookmarks/KBookmark
--- replaced dir /usr/include/KF5/KBookmarks
--- replaced dir /usr/include/KF5
--- replaced dir /usr/include
--- replaced dir /usr
>>> Regenerating /etc/ld.so.cache...
