 * Package:    kde-plasma/polkit-kde-agent-5.18.5
 * Repository: gentoo
 * Maintainer: kde@gentoo.org
 * USE:        abi_x86_64 amd64 elibc_glibc kernel_linux userland_GNU
 * FEATURES:   ccache network-sandbox preserve-libs sandbox userpriv usersandbox
 * FEATURES='assume-digests binpkg-docompress binpkg-dostrip binpkg-logs binpkg-multi-instance buildpkg ccache compress-index config-protect-if-modified distlocks downgrade-backup fixlafiles ipc-sandbox merge-sync multilib-strict network-sandbox news nodoc parallel-fetch parallel-install pid-sandbox preserve-libs qa-unresolved-soname-deps sandbox sfperms strict unknown-features-warn unmerge-backup unmerge-logs unmerge-orphans userfetch userpriv usersandbox usersync xattr'
 * CFLAGS='-march=znver2 -O3 -fgraphite-identity -floop-nest-optimize -fdevirtualize-at-ltrans -fipa-pta -fno-semantic-interposition -flto=12 -fno-plt -fno-signed-zeros -fno-trapping-math -fassociative-math -freciprocal-math -fno-math-errno -ffinite-math-only -fno-rounding-math -fno-signaling-nans -fcx-limited-range -fexcess-precision=fast -falign-functions=32 -fno-stack-protector -fno-stack-clash-protection -fstack-check=no -fno-stack-check -fuse-linker-plugin -pipe -g0 -Wl,-O1 -Wl,--as-needed -Wl,-z,norelro -Wl,-z,now -Wl,--sort-common -s'
 * CXXFLAGS='-march=znver2 -O3 -fgraphite-identity -floop-nest-optimize -fdevirtualize-at-ltrans -fipa-pta -fno-semantic-interposition -flto=12 -fno-plt -fno-signed-zeros -fno-trapping-math -fassociative-math -freciprocal-math -fno-math-errno -ffinite-math-only -fno-rounding-math -fno-signaling-nans -fcx-limited-range -fexcess-precision=fast -falign-functions=32 -fno-stack-protector -fno-stack-clash-protection -fstack-check=no -fno-stack-check -fuse-linker-plugin -pipe -g0 -Wl,-O1 -Wl,--as-needed -Wl,-z,norelro -Wl,-z,now -Wl,--sort-common -s'
 * FFLAGS='-march=znver2 -O3 -fgraphite-identity -floop-nest-optimize -fdevirtualize-at-ltrans -fipa-pta -fno-semantic-interposition -flto=12 -fno-plt -fno-signed-zeros -fno-trapping-math -fassociative-math -freciprocal-math -fno-math-errno -ffinite-math-only -fno-rounding-math -fno-signaling-nans -fcx-limited-range -fexcess-precision=fast -falign-functions=32 -fno-stack-protector -fno-stack-clash-protection -fstack-check=no -fno-stack-check -fuse-linker-plugin -pipe -g0 -Wl,-O1 -Wl,--as-needed -Wl,-z,norelro -Wl,-z,now -Wl,--sort-common -s'
 * FCFLAGS='-march=znver2 -O3 -fgraphite-identity -floop-nest-optimize -fdevirtualize-at-ltrans -fipa-pta -fno-semantic-interposition -flto=12 -fno-plt -fno-signed-zeros -fno-trapping-math -fassociative-math -freciprocal-math -fno-math-errno -ffinite-math-only -fno-rounding-math -fno-signaling-nans -fcx-limited-range -fexcess-precision=fast -falign-functions=32 -fno-stack-protector -fno-stack-clash-protection -fstack-check=no -fno-stack-check -fuse-linker-plugin -pipe -g0 -Wl,-O1 -Wl,--as-needed -Wl,-z,norelro -Wl,-z,now -Wl,--sort-common -s'
 * F77FLAGS='-march=znver2 -O3 -fgraphite-identity -floop-nest-optimize -fdevirtualize-at-ltrans -fipa-pta -fno-semantic-interposition -flto=12 -fno-plt -fno-signed-zeros -fno-trapping-math -fassociative-math -freciprocal-math -fno-math-errno -ffinite-math-only -fno-rounding-math -fno-signaling-nans -fcx-limited-range -fexcess-precision=fast -falign-functions=32 -fno-stack-protector -fno-stack-clash-protection -fstack-check=no -fno-stack-check -fuse-linker-plugin -pipe -g0 -Wl,-O1 -Wl,--as-needed -Wl,-z,norelro -Wl,-z,now -Wl,--sort-common -s'
 * LDFLAGS='-Wl,-O1 -Wl,--as-needed -Wl,-z,norelro -Wl,-z,now -Wl,--sort-common -s -march=znver2 -O3 -fgraphite-identity -floop-nest-optimize -fdevirtualize-at-ltrans -fipa-pta -fno-semantic-interposition -flto=12 -fno-plt -fno-signed-zeros -fno-trapping-math -fassociative-math -freciprocal-math -fno-math-errno -ffinite-math-only -fno-rounding-math -fno-signaling-nans -fcx-limited-range -fexcess-precision=fast -falign-functions=32 -fno-stack-protector -fno-stack-clash-protection -fstack-check=no -fno-stack-check -fuse-linker-plugin -pipe -g0'
 * MAKEOPTS='-j12 -l12'
 * gcc () 11.0.0 20200530 (experimental)
 * g++ () 11.0.0 20200530 (experimental)
 * GNU ld (Gentoo 2.34 p4) 2.34.0
 * Linux ryzen.gnum.org 5.4.36 #1 SMP Thu Apr 30 04:38:28 UTC 2020 x86_64 AMD Ryzen 5 3600 6-Core Processor AuthenticAMD GNU/Linux
kde-plasma/polkit-kde-agent: 8 seconds average for 3 merges
2020-05-20T01:29:23 >>> kde-plasma/polkit-kde-agent: 4 seconds
2020-05-26T05:38:54 >>> kde-plasma/polkit-kde-agent: 15 seconds
2020-05-27T02:34:05 >>> kde-plasma/polkit-kde-agent: 6 seconds
]0;emerge 00:22:49 267|337 polkit-kde-agent 00:08 (root@ryzen.gnum.org)kemerge 00:22:49 267|337 polkit-kde-agent 00:08 (root@ryzen.gnum.org)\>>> Unpacking source...
>>> Unpacking polkit-kde-agent-1-5.18.5.tar.xz to /tmp/portage/kde-plasma/polkit-kde-agent-5.18.5/work
>>> Source unpacked in /tmp/portage/kde-plasma/polkit-kde-agent-5.18.5/work
>>> Preparing source in /tmp/portage/kde-plasma/polkit-kde-agent-5.18.5/work/polkit-kde-agent-1-5.18.5 ...
 * Working in BUILD_DIR: "/tmp/portage/kde-plasma/polkit-kde-agent-5.18.5/work/polkit-kde-agent-5.18.5_build"
>>> Source prepared.
>>> Configuring source in /tmp/portage/kde-plasma/polkit-kde-agent-5.18.5/work/polkit-kde-agent-1-5.18.5 ...
 * Working in BUILD_DIR: "/tmp/portage/kde-plasma/polkit-kde-agent-5.18.5/work/polkit-kde-agent-5.18.5_build"
cmake -C /tmp/portage/kde-plasma/polkit-kde-agent-5.18.5/work/polkit-kde-agent-5.18.5_build/gentoo_common_config.cmake -G Ninja -DCMAKE_INSTALL_PREFIX=/usr -DKDE_INSTALL_USE_QT_SYS_PATHS=ON -DKDE_INSTALL_DOCBUNDLEDIR=/usr/share/help -DCMAKE_BUILD_TYPE=Gentoo -DCMAKE_TOOLCHAIN_FILE=/tmp/portage/kde-plasma/polkit-kde-agent-5.18.5/work/polkit-kde-agent-5.18.5_build/gentoo_toolchain.cmake  /tmp/portage/kde-plasma/polkit-kde-agent-5.18.5/work/polkit-kde-agent-1-5.18.5
loading initial cache file /tmp/portage/kde-plasma/polkit-kde-agent-5.18.5/work/polkit-kde-agent-5.18.5_build/gentoo_common_config.cmake
-- The C compiler identification is GNU 11.0.0
-- The CXX compiler identification is GNU 11.0.0
-- Check for working C compiler: /usr/lib/ccache/bin/x86_64-pc-linux-gnu-gcc
-- Check for working C compiler: /usr/lib/ccache/bin/x86_64-pc-linux-gnu-gcc - works
-- Detecting C compiler ABI info
-- Detecting C compiler ABI info - done
-- Detecting C compile features
-- Detecting C compile features - done
-- Check for working CXX compiler: /usr/lib/ccache/bin/x86_64-pc-linux-gnu-g++
-- Check for working CXX compiler: /usr/lib/ccache/bin/x86_64-pc-linux-gnu-g++ - works
-- Detecting CXX compiler ABI info
-- Detecting CXX compiler ABI info - done
-- Detecting CXX compile features
-- Detecting CXX compile features - done
-- Could not set up the appstream test. appstreamcli is missing.
-- Looking for __GLIBC__
-- Looking for __GLIBC__ - found
-- Performing Test _OFFT_IS_64BIT
-- Performing Test _OFFT_IS_64BIT - Success
-- Performing Test HAVE_DATE_TIME
-- Performing Test HAVE_DATE_TIME - Success
-- Found Gettext: /usr/bin/msgmerge (found version "20190915") 
-- Found KF5I18n: /usr/lib64/cmake/KF5I18n/KF5I18nConfig.cmake (found version "5.70.0") 
-- Found KF5WindowSystem: /usr/lib64/cmake/KF5WindowSystem/KF5WindowSystemConfig.cmake (found version "5.70.0") 
-- Found KF5DBusAddons: /usr/lib64/cmake/KF5DBusAddons/KF5DBusAddonsConfig.cmake (found version "5.70.0") 
-- Found KF5WidgetsAddons: /usr/lib64/cmake/KF5WidgetsAddons/KF5WidgetsAddonsConfig.cmake (found version "5.70.0") 
-- Found KF5CoreAddons: /usr/lib64/cmake/KF5CoreAddons/KF5CoreAddonsConfig.cmake (found version "5.70.0") 
-- Found KF5Crash: /usr/lib64/cmake/KF5Crash/KF5CrashConfig.cmake (found version "5.70.0") 
-- Found KF5IconThemes: /usr/lib64/cmake/KF5IconThemes/KF5IconThemesConfig.cmake (found version "5.70.0") 
-- Found KF5: success (found suitable version "5.70.0", minimum required is "5.66.0") found components: I18n WindowSystem DBusAddons WidgetsAddons CoreAddons Crash IconThemes 
-- Looking for sys/prctl.h
-- Looking for sys/prctl.h - found
-- Looking for PR_SET_DUMPABLE
-- Looking for PR_SET_DUMPABLE - found
-- Looking for sys/procctl.h
-- Looking for sys/procctl.h - not found
-- Looking for PROC_TRACE_CTL
-- Looking for PROC_TRACE_CTL - not found
-- The following features have been enabled:

 * prctl/procctl tracing control, Required for disallowing ptrace on polkit agent

-- The following REQUIRED packages have been found:

 * ECM (required version >= 5.66.0)
 * Qt5Gui (required version >= 5.15.0)
 * Qt5 (required version >= 5.12.0)
 * Gettext
 * KF5I18n (required version >= 5.66.0)
 * KF5WindowSystem (required version >= 5.66.0)
 * Qt5DBus (required version >= 5.12.0)
 * KF5DBusAddons (required version >= 5.66.0)
 * KF5WidgetsAddons (required version >= 5.66.0)
 * KF5CoreAddons (required version >= 5.66.0)
 * Qt5Core (required version >= 5.12.0)
 * KF5Crash (required version >= 5.66.0)
 * Qt5Widgets (required version >= 5.12.0)
 * KF5IconThemes (required version >= 5.66.0)
 * KF5 (required version >= 5.66.0)
 * PolkitQt5-1

-- <<< Gentoo configuration >>>
Build type      Gentoo
Install path    /usr
Compiler flags:
C               -march=znver2 -O3 -fgraphite-identity -floop-nest-optimize -fdevirtualize-at-ltrans -fipa-pta -fno-semantic-interposition -flto=12 -fno-plt -fno-signed-zeros -fno-trapping-math -fassociative-math -freciprocal-math -fno-math-errno -ffinite-math-only -fno-rounding-math -fno-signaling-nans -fcx-limited-range -fexcess-precision=fast -falign-functions=32 -fno-stack-protector -fno-stack-clash-protection -fstack-check=no -fno-stack-check -fuse-linker-plugin -pipe -g0 -Wl,-O1 -Wl,--as-needed -Wl,-z,norelro -Wl,-z,now -Wl,--sort-common -s -fno-common -Wall -Wextra -Wcast-align -Wchar-subscripts -Wformat-security -Wno-long-long -Wpointer-arith -Wundef -Wmissing-format-attribute -Wwrite-strings -Werror=implicit-function-declaration
C++             -march=znver2 -O3 -fgraphite-identity -floop-nest-optimize -fdevirtualize-at-ltrans -fipa-pta -fno-semantic-interposition -flto=12 -fno-plt -fno-signed-zeros -fno-trapping-math -fassociative-math -freciprocal-math -fno-math-errno -ffinite-math-only -fno-rounding-math -fno-signaling-nans -fcx-limited-range -fexcess-precision=fast -falign-functions=32 -fno-stack-protector -fno-stack-clash-protection -fstack-check=no -fno-stack-check -fuse-linker-plugin -pipe -g0 -Wl,-O1 -Wl,--as-needed -Wl,-z,norelro -Wl,-z,now -Wl,--sort-common -s -fno-operator-names -fno-exceptions -Wall -Wextra -Wcast-align -Wchar-subscripts -Wformat-security -Wno-long-long -Wpointer-arith -Wundef -Wnon-virtual-dtor -Woverloaded-virtual -Werror=return-type -Wvla -Wdate-time -Wsuggest-override -Wlogical-op -fdiagnostics-color=always
Linker flags:
Executable      -Wl,--enable-new-dtags -Wl,-O1 -Wl,--as-needed -Wl,-z,norelro -Wl,-z,now -Wl,--sort-common -s -march=znver2 -O3 -fgraphite-identity -floop-nest-optimize -fdevirtualize-at-ltrans -fipa-pta -fno-semantic-interposition -flto=12 -fno-plt -fno-signed-zeros -fno-trapping-math -fassociative-math -freciprocal-math -fno-math-errno -ffinite-math-only -fno-rounding-math -fno-signaling-nans -fcx-limited-range -fexcess-precision=fast -falign-functions=32 -fno-stack-protector -fno-stack-clash-protection -fstack-check=no -fno-stack-check -fuse-linker-plugin -pipe -g0
Module          -Wl,--no-undefined -Wl,--enable-new-dtags -Wl,-O1 -Wl,--as-needed -Wl,-z,norelro -Wl,-z,now -Wl,--sort-common -s -march=znver2 -O3 -fgraphite-identity -floop-nest-optimize -fdevirtualize-at-ltrans -fipa-pta -fno-semantic-interposition -flto=12 -fno-plt -fno-signed-zeros -fno-trapping-math -fassociative-math -freciprocal-math -fno-math-errno -ffinite-math-only -fno-rounding-math -fno-signaling-nans -fcx-limited-range -fexcess-precision=fast -falign-functions=32 -fno-stack-protector -fno-stack-clash-protection -fstack-check=no -fno-stack-check -fuse-linker-plugin -pipe -g0
Shared          -Wl,--no-undefined -Wl,--enable-new-dtags -Wl,-O1 -Wl,--as-needed -Wl,-z,norelro -Wl,-z,now -Wl,--sort-common -s -march=znver2 -O3 -fgraphite-identity -floop-nest-optimize -fdevirtualize-at-ltrans -fipa-pta -fno-semantic-interposition -flto=12 -fno-plt -fno-signed-zeros -fno-trapping-math -fassociative-math -freciprocal-math -fno-math-errno -ffinite-math-only -fno-rounding-math -fno-signaling-nans -fcx-limited-range -fexcess-precision=fast -falign-functions=32 -fno-stack-protector -fno-stack-clash-protection -fstack-check=no -fno-stack-check -fuse-linker-plugin -pipe -g0

-- Configuring done
-- Generating done
-- Build files have been written to: /tmp/portage/kde-plasma/polkit-kde-agent-5.18.5/work/polkit-kde-agent-5.18.5_build
>>> Source configured.
>>> Compiling source in /tmp/portage/kde-plasma/polkit-kde-agent-5.18.5/work/polkit-kde-agent-1-5.18.5 ...
 * Working in BUILD_DIR: "/tmp/portage/kde-plasma/polkit-kde-agent-5.18.5/work/polkit-kde-agent-5.18.5_build"
ninja -v -j12 -l12
[1/13] cd /tmp/portage/kde-plasma/polkit-kde-agent-5.18.5/work/polkit-kde-agent-5.18.5_build && /usr/bin/cmake -DPYTHON_EXECUTABLE=/usr/bin/python -D_ki18n_pmap_compile_script=/usr/lib64/cmake/KF5I18n/ts-pmap-compile.py -DCOPY_TO=/tmp/portage/kde-plasma/polkit-kde-agent-5.18.5/work/polkit-kde-agent-5.18.5_build/locale -DPO_DIR=/tmp/portage/kde-plasma/polkit-kde-agent-5.18.5/work/polkit-kde-agent-1-5.18.5/po -P /usr/lib64/cmake/KF5I18n/build-tsfiles.cmake
[2/13] cd /tmp/portage/kde-plasma/polkit-kde-agent-5.18.5/work/polkit-kde-agent-5.18.5_build && /usr/bin/cmake -DGETTEXT_MSGFMT_EXECUTABLE=/usr/bin/msgfmt -DCOPY_TO=/tmp/portage/kde-plasma/polkit-kde-agent-5.18.5/work/polkit-kde-agent-5.18.5_build/locale -DPO_DIR=/tmp/portage/kde-plasma/polkit-kde-agent-5.18.5/work/polkit-kde-agent-1-5.18.5/po -P /usr/lib64/cmake/KF5I18n/build-pofiles.cmake
[3/13] cd /tmp/portage/kde-plasma/polkit-kde-agent-5.18.5/work/polkit-kde-agent-5.18.5_build && /usr/bin/cmake -E cmake_autogen /tmp/portage/kde-plasma/polkit-kde-agent-5.18.5/work/polkit-kde-agent-5.18.5_build/CMakeFiles/polkit-kde-authentication-agent-1_autogen.dir/AutogenInfo.json Gentoo && /usr/bin/cmake -E touch /tmp/portage/kde-plasma/polkit-kde-agent-5.18.5/work/polkit-kde-agent-5.18.5_build/polkit-kde-authentication-agent-1_autogen/timestamp
[4/13] cd /tmp/portage/kde-plasma/polkit-kde-agent-5.18.5/work/polkit-kde-agent-5.18.5_build && /usr/lib64/qt5/bin/qdbusxml2cpp -m -a polkit1authagentadaptor -i policykitlistener.h -l PolicyKitListener /tmp/portage/kde-plasma/polkit-kde-agent-5.18.5/work/polkit-kde-agent-1-5.18.5/org.kde.Polkit1AuthAgent.xml
[5/13] cd /tmp/portage/kde-plasma/polkit-kde-agent-5.18.5/work/polkit-kde-agent-5.18.5_build && /usr/lib64/qt5/bin/moc @/tmp/portage/kde-plasma/polkit-kde-agent-5.18.5/work/polkit-kde-agent-5.18.5_build/polkit1authagentadaptor.moc_parameters
[6/13] cd /tmp/portage/kde-plasma/polkit-kde-agent-5.18.5/work/polkit-kde-agent-5.18.5_build && /usr/bin/cmake -DKDE_UIC_EXECUTABLE:FILEPATH=/usr/lib64/qt5/bin/uic -DKDE_UIC_FILE:FILEPATH=/tmp/portage/kde-plasma/polkit-kde-agent-5.18.5/work/polkit-kde-agent-1-5.18.5/AuthDialog.ui -DKDE_UIC_H_FILE:FILEPATH=/tmp/portage/kde-plasma/polkit-kde-agent-5.18.5/work/polkit-kde-agent-5.18.5_build/ui_AuthDialog.h -DKDE_UIC_BASENAME:STRING=AuthDialog -P /usr/lib64/cmake/KF5I18n/kf5i18nuic.cmake
[7/13] cd /tmp/portage/kde-plasma/polkit-kde-agent-5.18.5/work/polkit-kde-agent-5.18.5_build && /usr/bin/cmake -DKDE_UIC_EXECUTABLE:FILEPATH=/usr/lib64/qt5/bin/uic -DKDE_UIC_FILE:FILEPATH=/tmp/portage/kde-plasma/polkit-kde-agent-5.18.5/work/polkit-kde-agent-1-5.18.5/authdetails.ui -DKDE_UIC_H_FILE:FILEPATH=/tmp/portage/kde-plasma/polkit-kde-agent-5.18.5/work/polkit-kde-agent-5.18.5_build/ui_authdetails.h -DKDE_UIC_BASENAME:STRING=authdetails -P /usr/lib64/cmake/KF5I18n/kf5i18nuic.cmake
[8/13] /usr/lib/ccache/bin/x86_64-pc-linux-gnu-g++ -DKCOREADDONS_LIB -DQT_CORE_LIB -DQT_DBUS_LIB -DQT_GUI_LIB -DQT_NO_DEBUG -DQT_WIDGETS_LIB -D_GNU_SOURCE -D_LARGEFILE64_SOURCE -I. -I/tmp/portage/kde-plasma/polkit-kde-agent-5.18.5/work/polkit-kde-agent-1-5.18.5 -Ipolkit-kde-authentication-agent-1_autogen/include -isystem /usr/include/polkit-qt5-1 -isystem /usr/include/KF5/KDBusAddons -isystem /usr/include/KF5 -isystem /usr/include/qt5 -isystem /usr/include/qt5/QtDBus -isystem /usr/include/qt5/QtCore -isystem /usr/lib64/qt5/mkspecs/linux-g++ -isystem /usr/include/KF5/KWindowSystem -isystem /usr/include/qt5/QtGui -isystem /usr/include/qt5/QtWidgets -isystem /usr/include/KF5/KWidgetsAddons -isystem /usr/include/KF5/KCoreAddons -isystem /usr/include/KF5/KI18n -isystem /usr/include/KF5/KCrash -isystem /usr/include/KF5/KIconThemes  -DQT_NO_DEBUG -march=znver2 -O3 -fgraphite-identity -floop-nest-optimize -fdevirtualize-at-ltrans -fipa-pta -fno-semantic-interposition -flto=12 -fno-plt -fno-signed-zeros -fno-trapping-math -fassociative-math -freciprocal-math -fno-math-errno -ffinite-math-only -fno-rounding-math -fno-signaling-nans -fcx-limited-range -fexcess-precision=fast -falign-functions=32 -fno-stack-protector -fno-stack-clash-protection -fstack-check=no -fno-stack-check -fuse-linker-plugin -pipe -g0 -Wl,-O1 -Wl,--as-needed -Wl,-z,norelro -Wl,-z,now -Wl,--sort-common -s -fno-operator-names -fno-exceptions -Wall -Wextra -Wcast-align -Wchar-subscripts -Wformat-security -Wno-long-long -Wpointer-arith -Wundef -Wnon-virtual-dtor -Woverloaded-virtual -Werror=return-type -Wvla -Wdate-time -Wsuggest-override -Wlogical-op -fdiagnostics-color=always -fvisibility=hidden -fvisibility-inlines-hidden   -fPIC -std=gnu++11 -MD -MT CMakeFiles/polkit-kde-authentication-agent-1.dir/main.cpp.o -MF CMakeFiles/polkit-kde-authentication-agent-1.dir/main.cpp.o.d -o CMakeFiles/polkit-kde-authentication-agent-1.dir/main.cpp.o -c /tmp/portage/kde-plasma/polkit-kde-agent-5.18.5/work/polkit-kde-agent-1-5.18.5/main.cpp
[9/13] /usr/lib/ccache/bin/x86_64-pc-linux-gnu-g++ -DKCOREADDONS_LIB -DQT_CORE_LIB -DQT_DBUS_LIB -DQT_GUI_LIB -DQT_NO_DEBUG -DQT_WIDGETS_LIB -D_GNU_SOURCE -D_LARGEFILE64_SOURCE -I. -I/tmp/portage/kde-plasma/polkit-kde-agent-5.18.5/work/polkit-kde-agent-1-5.18.5 -Ipolkit-kde-authentication-agent-1_autogen/include -isystem /usr/include/polkit-qt5-1 -isystem /usr/include/KF5/KDBusAddons -isystem /usr/include/KF5 -isystem /usr/include/qt5 -isystem /usr/include/qt5/QtDBus -isystem /usr/include/qt5/QtCore -isystem /usr/lib64/qt5/mkspecs/linux-g++ -isystem /usr/include/KF5/KWindowSystem -isystem /usr/include/qt5/QtGui -isystem /usr/include/qt5/QtWidgets -isystem /usr/include/KF5/KWidgetsAddons -isystem /usr/include/KF5/KCoreAddons -isystem /usr/include/KF5/KI18n -isystem /usr/include/KF5/KCrash -isystem /usr/include/KF5/KIconThemes  -DQT_NO_DEBUG -march=znver2 -O3 -fgraphite-identity -floop-nest-optimize -fdevirtualize-at-ltrans -fipa-pta -fno-semantic-interposition -flto=12 -fno-plt -fno-signed-zeros -fno-trapping-math -fassociative-math -freciprocal-math -fno-math-errno -ffinite-math-only -fno-rounding-math -fno-signaling-nans -fcx-limited-range -fexcess-precision=fast -falign-functions=32 -fno-stack-protector -fno-stack-clash-protection -fstack-check=no -fno-stack-check -fuse-linker-plugin -pipe -g0 -Wl,-O1 -Wl,--as-needed -Wl,-z,norelro -Wl,-z,now -Wl,--sort-common -s -fno-operator-names -fno-exceptions -Wall -Wextra -Wcast-align -Wchar-subscripts -Wformat-security -Wno-long-long -Wpointer-arith -Wundef -Wnon-virtual-dtor -Woverloaded-virtual -Werror=return-type -Wvla -Wdate-time -Wsuggest-override -Wlogical-op -fdiagnostics-color=always -fvisibility=hidden -fvisibility-inlines-hidden   -fPIC -std=gnu++11 -MD -MT CMakeFiles/polkit-kde-authentication-agent-1.dir/polkit-kde-authentication-agent-1_autogen/mocs_compilation.cpp.o -MF CMakeFiles/polkit-kde-authentication-agent-1.dir/polkit-kde-authentication-agent-1_autogen/mocs_compilation.cpp.o.d -o CMakeFiles/polkit-kde-authentication-agent-1.dir/polkit-kde-authentication-agent-1_autogen/mocs_compilation.cpp.o -c polkit-kde-authentication-agent-1_autogen/mocs_compilation.cpp
[10/13] /usr/lib/ccache/bin/x86_64-pc-linux-gnu-g++ -DKCOREADDONS_LIB -DQT_CORE_LIB -DQT_DBUS_LIB -DQT_GUI_LIB -DQT_NO_DEBUG -DQT_WIDGETS_LIB -D_GNU_SOURCE -D_LARGEFILE64_SOURCE -I. -I/tmp/portage/kde-plasma/polkit-kde-agent-5.18.5/work/polkit-kde-agent-1-5.18.5 -Ipolkit-kde-authentication-agent-1_autogen/include -isystem /usr/include/polkit-qt5-1 -isystem /usr/include/KF5/KDBusAddons -isystem /usr/include/KF5 -isystem /usr/include/qt5 -isystem /usr/include/qt5/QtDBus -isystem /usr/include/qt5/QtCore -isystem /usr/lib64/qt5/mkspecs/linux-g++ -isystem /usr/include/KF5/KWindowSystem -isystem /usr/include/qt5/QtGui -isystem /usr/include/qt5/QtWidgets -isystem /usr/include/KF5/KWidgetsAddons -isystem /usr/include/KF5/KCoreAddons -isystem /usr/include/KF5/KI18n -isystem /usr/include/KF5/KCrash -isystem /usr/include/KF5/KIconThemes  -DQT_NO_DEBUG -march=znver2 -O3 -fgraphite-identity -floop-nest-optimize -fdevirtualize-at-ltrans -fipa-pta -fno-semantic-interposition -flto=12 -fno-plt -fno-signed-zeros -fno-trapping-math -fassociative-math -freciprocal-math -fno-math-errno -ffinite-math-only -fno-rounding-math -fno-signaling-nans -fcx-limited-range -fexcess-precision=fast -falign-functions=32 -fno-stack-protector -fno-stack-clash-protection -fstack-check=no -fno-stack-check -fuse-linker-plugin -pipe -g0 -Wl,-O1 -Wl,--as-needed -Wl,-z,norelro -Wl,-z,now -Wl,--sort-common -s -fno-operator-names -fno-exceptions -Wall -Wextra -Wcast-align -Wchar-subscripts -Wformat-security -Wno-long-long -Wpointer-arith -Wundef -Wnon-virtual-dtor -Woverloaded-virtual -Werror=return-type -Wvla -Wdate-time -Wsuggest-override -Wlogical-op -fdiagnostics-color=always -fvisibility=hidden -fvisibility-inlines-hidden   -fPIC -std=gnu++11 -MD -MT CMakeFiles/polkit-kde-authentication-agent-1.dir/AuthDialog.cpp.o -MF CMakeFiles/polkit-kde-authentication-agent-1.dir/AuthDialog.cpp.o.d -o CMakeFiles/polkit-kde-authentication-agent-1.dir/AuthDialog.cpp.o -c /tmp/portage/kde-plasma/polkit-kde-agent-5.18.5/work/polkit-kde-agent-1-5.18.5/AuthDialog.cpp
[11/13] /usr/lib/ccache/bin/x86_64-pc-linux-gnu-g++ -DKCOREADDONS_LIB -DQT_CORE_LIB -DQT_DBUS_LIB -DQT_GUI_LIB -DQT_NO_DEBUG -DQT_WIDGETS_LIB -D_GNU_SOURCE -D_LARGEFILE64_SOURCE -I. -I/tmp/portage/kde-plasma/polkit-kde-agent-5.18.5/work/polkit-kde-agent-1-5.18.5 -Ipolkit-kde-authentication-agent-1_autogen/include -isystem /usr/include/polkit-qt5-1 -isystem /usr/include/KF5/KDBusAddons -isystem /usr/include/KF5 -isystem /usr/include/qt5 -isystem /usr/include/qt5/QtDBus -isystem /usr/include/qt5/QtCore -isystem /usr/lib64/qt5/mkspecs/linux-g++ -isystem /usr/include/KF5/KWindowSystem -isystem /usr/include/qt5/QtGui -isystem /usr/include/qt5/QtWidgets -isystem /usr/include/KF5/KWidgetsAddons -isystem /usr/include/KF5/KCoreAddons -isystem /usr/include/KF5/KI18n -isystem /usr/include/KF5/KCrash -isystem /usr/include/KF5/KIconThemes  -DQT_NO_DEBUG -march=znver2 -O3 -fgraphite-identity -floop-nest-optimize -fdevirtualize-at-ltrans -fipa-pta -fno-semantic-interposition -flto=12 -fno-plt -fno-signed-zeros -fno-trapping-math -fassociative-math -freciprocal-math -fno-math-errno -ffinite-math-only -fno-rounding-math -fno-signaling-nans -fcx-limited-range -fexcess-precision=fast -falign-functions=32 -fno-stack-protector -fno-stack-clash-protection -fstack-check=no -fno-stack-check -fuse-linker-plugin -pipe -g0 -Wl,-O1 -Wl,--as-needed -Wl,-z,norelro -Wl,-z,now -Wl,--sort-common -s -fno-operator-names -fno-exceptions -Wall -Wextra -Wcast-align -Wchar-subscripts -Wformat-security -Wno-long-long -Wpointer-arith -Wundef -Wnon-virtual-dtor -Woverloaded-virtual -Werror=return-type -Wvla -Wdate-time -Wsuggest-override -Wlogical-op -fdiagnostics-color=always -fvisibility=hidden -fvisibility-inlines-hidden   -fPIC -std=gnu++11 -MD -MT CMakeFiles/polkit-kde-authentication-agent-1.dir/polkit1authagentadaptor.cpp.o -MF CMakeFiles/polkit-kde-authentication-agent-1.dir/polkit1authagentadaptor.cpp.o.d -o CMakeFiles/polkit-kde-authentication-agent-1.dir/polkit1authagentadaptor.cpp.o -c polkit1authagentadaptor.cpp
[12/13] /usr/lib/ccache/bin/x86_64-pc-linux-gnu-g++ -DKCOREADDONS_LIB -DQT_CORE_LIB -DQT_DBUS_LIB -DQT_GUI_LIB -DQT_NO_DEBUG -DQT_WIDGETS_LIB -D_GNU_SOURCE -D_LARGEFILE64_SOURCE -I. -I/tmp/portage/kde-plasma/polkit-kde-agent-5.18.5/work/polkit-kde-agent-1-5.18.5 -Ipolkit-kde-authentication-agent-1_autogen/include -isystem /usr/include/polkit-qt5-1 -isystem /usr/include/KF5/KDBusAddons -isystem /usr/include/KF5 -isystem /usr/include/qt5 -isystem /usr/include/qt5/QtDBus -isystem /usr/include/qt5/QtCore -isystem /usr/lib64/qt5/mkspecs/linux-g++ -isystem /usr/include/KF5/KWindowSystem -isystem /usr/include/qt5/QtGui -isystem /usr/include/qt5/QtWidgets -isystem /usr/include/KF5/KWidgetsAddons -isystem /usr/include/KF5/KCoreAddons -isystem /usr/include/KF5/KI18n -isystem /usr/include/KF5/KCrash -isystem /usr/include/KF5/KIconThemes  -DQT_NO_DEBUG -march=znver2 -O3 -fgraphite-identity -floop-nest-optimize -fdevirtualize-at-ltrans -fipa-pta -fno-semantic-interposition -flto=12 -fno-plt -fno-signed-zeros -fno-trapping-math -fassociative-math -freciprocal-math -fno-math-errno -ffinite-math-only -fno-rounding-math -fno-signaling-nans -fcx-limited-range -fexcess-precision=fast -falign-functions=32 -fno-stack-protector -fno-stack-clash-protection -fstack-check=no -fno-stack-check -fuse-linker-plugin -pipe -g0 -Wl,-O1 -Wl,--as-needed -Wl,-z,norelro -Wl,-z,now -Wl,--sort-common -s -fno-operator-names -fno-exceptions -Wall -Wextra -Wcast-align -Wchar-subscripts -Wformat-security -Wno-long-long -Wpointer-arith -Wundef -Wnon-virtual-dtor -Woverloaded-virtual -Werror=return-type -Wvla -Wdate-time -Wsuggest-override -Wlogical-op -fdiagnostics-color=always -fvisibility=hidden -fvisibility-inlines-hidden   -fPIC -std=gnu++11 -MD -MT CMakeFiles/polkit-kde-authentication-agent-1.dir/policykitlistener.cpp.o -MF CMakeFiles/polkit-kde-authentication-agent-1.dir/policykitlistener.cpp.o.d -o CMakeFiles/polkit-kde-authentication-agent-1.dir/policykitlistener.cpp.o -c /tmp/portage/kde-plasma/polkit-kde-agent-5.18.5/work/polkit-kde-agent-1-5.18.5/policykitlistener.cpp
[13/13] : && /usr/lib/ccache/bin/x86_64-pc-linux-gnu-g++  -march=znver2 -O3 -fgraphite-identity -floop-nest-optimize -fdevirtualize-at-ltrans -fipa-pta -fno-semantic-interposition -flto=12 -fno-plt -fno-signed-zeros -fno-trapping-math -fassociative-math -freciprocal-math -fno-math-errno -ffinite-math-only -fno-rounding-math -fno-signaling-nans -fcx-limited-range -fexcess-precision=fast -falign-functions=32 -fno-stack-protector -fno-stack-clash-protection -fstack-check=no -fno-stack-check -fuse-linker-plugin -pipe -g0 -Wl,-O1 -Wl,--as-needed -Wl,-z,norelro -Wl,-z,now -Wl,--sort-common -s -fno-operator-names -fno-exceptions -Wall -Wextra -Wcast-align -Wchar-subscripts -Wformat-security -Wno-long-long -Wpointer-arith -Wundef -Wnon-virtual-dtor -Woverloaded-virtual -Werror=return-type -Wvla -Wdate-time -Wsuggest-override -Wlogical-op -fdiagnostics-color=always  -Wl,--enable-new-dtags -Wl,-O1 -Wl,--as-needed -Wl,-z,norelro -Wl,-z,now -Wl,--sort-common -s -march=znver2 -O3 -fgraphite-identity -floop-nest-optimize -fdevirtualize-at-ltrans -fipa-pta -fno-semantic-interposition -flto=12 -fno-plt -fno-signed-zeros -fno-trapping-math -fassociative-math -freciprocal-math -fno-math-errno -ffinite-math-only -fno-rounding-math -fno-signaling-nans -fcx-limited-range -fexcess-precision=fast -falign-functions=32 -fno-stack-protector -fno-stack-clash-protection -fstack-check=no -fno-stack-check -fuse-linker-plugin -pipe -g0    -rdynamic CMakeFiles/polkit-kde-authentication-agent-1.dir/polkit-kde-authentication-agent-1_autogen/mocs_compilation.cpp.o CMakeFiles/polkit-kde-authentication-agent-1.dir/polkit1authagentadaptor.cpp.o CMakeFiles/polkit-kde-authentication-agent-1.dir/policykitlistener.cpp.o CMakeFiles/polkit-kde-authentication-agent-1.dir/main.cpp.o CMakeFiles/polkit-kde-authentication-agent-1.dir/AuthDialog.cpp.o  -o bin/polkit-kde-authentication-agent-1  /usr/lib64/libKF5DBusAddons.so.5.70.0  /usr/lib64/libKF5Crash.so.5.70.0  /usr/lib64/libKF5IconThemes.so.5.70.0  /usr/lib64/libpolkit-qt5-gui-1.so.1.113.0  /usr/lib64/libpolkit-qt5-agent-1.so.1.113.0  /usr/lib64/libKF5WindowSystem.so.5.70.0  /usr/lib64/libKF5WidgetsAddons.so.5.70.0  /usr/lib64/libKF5CoreAddons.so.5.70.0  /usr/lib64/libKF5I18n.so.5.70.0  /usr/lib64/libQt5Widgets.so.5.15.0  /usr/lib64/libQt5Gui.so.5.15.0  /usr/lib64/libpolkit-qt5-core-1.so.1.113.0  /usr/lib64/libQt5DBus.so.5.15.0  /usr/lib64/libQt5Core.so.5.15.0 && :
>>> Source compiled.
>>> Test phase [not enabled]: kde-plasma/polkit-kde-agent-5.18.5

>>> Install kde-plasma/polkit-kde-agent-5.18.5 into /tmp/portage/kde-plasma/polkit-kde-agent-5.18.5/image
 * Working in BUILD_DIR: "/tmp/portage/kde-plasma/polkit-kde-agent-5.18.5/work/polkit-kde-agent-5.18.5_build"
[1/3] Generating ts...
[2/3] Generating mo...
[2/3] Install the project...
-- Install configuration: "Gentoo"
-- Installing: /tmp/portage/kde-plasma/polkit-kde-agent-5.18.5/image/usr/lib64/libexec/polkit-kde-authentication-agent-1
-- Installing: /tmp/portage/kde-plasma/polkit-kde-agent-5.18.5/image/etc/xdg/autostart/polkit-kde-authentication-agent-1.desktop
-- Installing: /tmp/portage/kde-plasma/polkit-kde-agent-5.18.5/image/usr/share/applications/org.kde.polkit-kde-authentication-agent-1.desktop
-- Installing: /tmp/portage/kde-plasma/polkit-kde-agent-5.18.5/image/usr/share/knotifications5/policykit1-kde.notifyrc
-- Installing: /tmp/portage/kde-plasma/polkit-kde-agent-5.18.5/image/usr/share/locale
>>> Completed installing kde-plasma/polkit-kde-agent-5.18.5 into /tmp/portage/kde-plasma/polkit-kde-agent-5.18.5/image

 * Final size of build directory: 1296 KiB (1.2 MiB)
 * Final size of installed tree:   148 KiB



 * QA Notice: Pre-stripped files found:
 * /usr/lib64/libexec/polkit-kde-authentication-agent-1
./
./usr/
./usr/share/
./usr/share/locale/
./usr/share/knotifications5/
./usr/share/knotifications5/policykit1-kde.notifyrc
./usr/share/applications/
./usr/share/applications/org.kde.polkit-kde-authentication-agent-1.desktop
./usr/lib64/
./usr/lib64/libexec/
./usr/lib64/libexec/polkit-kde-authentication-agent-1
./etc/
./etc/xdg/
./etc/xdg/autostart/
./etc/xdg/autostart/polkit-kde-authentication-agent-1.desktop
>>> Done.
 * checking 4 files for package collisions
[32;01m * [39;49;00mBuilding package for kde-plasma/polkit-kde-agent-5.18.5 ...           [34;01m[ [39;49;00m[32;01mok[39;49;00m[34;01m ][39;49;00m
[33;01m * [39;49;00mExcluded config: '/etc/xdg/autostart/polkit-kde-authentication-agent-1.desktop'
[32;01m * [39;49;00mPackages now in '/usr/portage/packages':
[32;01m * [39;49;00mkde-plasma/polkit-kde-agent-5.18.5: 67.2K
[33;01m * [39;49;00mExcluded config files: 1
[33;01m * [39;49;00mSee --help if you would like to include config files.


>>> Merging kde-plasma/polkit-kde-agent-5.18.5 to /
 * removing unneeded *.la files
--- /etc/
--- /etc/xdg/
--- /etc/xdg/autostart/
>>> /etc/xdg/autostart/polkit-kde-authentication-agent-1.desktop
--- /usr/
--- /usr/lib64/
--- /usr/lib64/libexec/
>>> /usr/lib64/libexec/polkit-kde-authentication-agent-1
--- /usr/share/
--- /usr/share/applications/
>>> /usr/share/applications/org.kde.polkit-kde-authentication-agent-1.desktop
--- /usr/share/knotifications5/
>>> /usr/share/knotifications5/policykit1-kde.notifyrc
--- /usr/share/locale/
>>> Safely unmerging already-installed instance...
>>> Original instance of package unmerged safely.
 * Updating .desktop files database ...
 [ ok ]
>>> kde-plasma/polkit-kde-agent-5.18.5 merged.
