No package files given... Grabbing a set.
--- replaced obj /usr/share/aclocal/ogg.m4
--- replaced dir /usr/share/aclocal
--- replaced dir /usr/share
--- replaced obj /usr/lib64/pkgconfig/ogg.pc
--- replaced dir /usr/lib64/pkgconfig
--- replaced obj /usr/lib64/libogg.so.0.8.4
--- replaced sym /usr/lib64/libogg.so.0
--- replaced sym /usr/lib64/libogg.so
--- replaced dir /usr/lib64
--- replaced obj /usr/include/x86_64-pc-linux-gnu/ogg/config_types.h
--- replaced dir /usr/include/x86_64-pc-linux-gnu/ogg
--- replaced dir /usr/include/x86_64-pc-linux-gnu
--- replaced obj /usr/include/ogg/os_types.h
--- replaced obj /usr/include/ogg/ogg.h
--- replaced obj /usr/include/ogg/config_types.h
--- replaced dir /usr/include/ogg
--- replaced dir /usr/include
--- replaced dir /usr
>>> Regenerating /etc/ld.so.cache...
