No package files given... Grabbing a set.
--- replaced obj /usr/lib64/pkgconfig/vpx.pc
--- replaced dir /usr/lib64/pkgconfig
--- replaced obj /usr/lib64/libvpx.so.6.2.0
--- replaced sym /usr/lib64/libvpx.so.6.2
--- replaced sym /usr/lib64/libvpx.so.6
--- replaced sym /usr/lib64/libvpx.so
--- replaced dir /usr/lib64
--- replaced obj /usr/include/vpx/vpx_integer.h
--- replaced obj /usr/include/vpx/vpx_image.h
--- replaced obj /usr/include/vpx/vpx_frame_buffer.h
--- replaced obj /usr/include/vpx/vpx_encoder.h
--- replaced obj /usr/include/vpx/vpx_decoder.h
--- replaced obj /usr/include/vpx/vpx_codec.h
--- replaced obj /usr/include/vpx/vp8dx.h
--- replaced obj /usr/include/vpx/vp8cx.h
--- replaced obj /usr/include/vpx/vp8.h
--- replaced dir /usr/include/vpx
--- replaced dir /usr/include
--- replaced obj /usr/bin/vpxenc
--- replaced obj /usr/bin/vpxdec
--- replaced dir /usr/bin
--- replaced dir /usr
>>> Regenerating /etc/ld.so.cache...
