No package files given... Grabbing a set.
--- replaced obj /usr/bin/vppsharpness
--- replaced obj /usr/bin/vppscaling_n_out_usrptr
--- replaced obj /usr/bin/vppscaling_csc
--- replaced obj /usr/bin/vppdenoise
--- replaced obj /usr/bin/vppchromasitting
--- replaced obj /usr/bin/vppblending
--- replaced obj /usr/bin/vp9enc
--- replaced obj /usr/bin/vp8enc
--- replaced obj /usr/bin/vavpp
--- replaced obj /usr/bin/vainfo
<<<          obj /usr/bin/test_va_api
--- replaced obj /usr/bin/sfcsample
--- replaced obj /usr/bin/putsurface
--- replaced obj /usr/bin/mpeg2vldemo
--- replaced obj /usr/bin/mpeg2vaenc
--- replaced obj /usr/bin/loadjpeg
--- replaced obj /usr/bin/jpegenc
--- replaced obj /usr/bin/hevcencode
--- replaced obj /usr/bin/h264encode
--- replaced obj /usr/bin/avcstreamoutdemo
--- replaced obj /usr/bin/avcenc
--- replaced dir /usr/bin
--- replaced dir /usr
>>> Regenerating /etc/ld.so.cache...
