No package files given... Grabbing a set.
<<<          obj /usr/share/gtk-doc/html/clutter/using-cairo.html
<<<          obj /usr/share/gtk-doc/html/clutter/up.png
<<<          obj /usr/share/gtk-doc/html/clutter/up-insensitive.png
<<<          obj /usr/share/gtk-doc/html/clutter/table-layout.png
<<<          obj /usr/share/gtk-doc/html/clutter/style.css
<<<          obj /usr/share/gtk-doc/html/clutter/running-clutter.html
<<<          obj /usr/share/gtk-doc/html/clutter/right.png
<<<          obj /usr/share/gtk-doc/html/clutter/right-insensitive.png
<<<          obj /usr/share/gtk-doc/html/clutter/pt10.html
<<<          obj /usr/share/gtk-doc/html/clutter/path-alpha-func.png
<<<          obj /usr/share/gtk-doc/html/clutter/offscreen-redirect.png
<<<          obj /usr/share/gtk-doc/html/clutter/migration.html
<<<          obj /usr/share/gtk-doc/html/clutter/migrating-ClutterPath.html
<<<          obj /usr/share/gtk-doc/html/clutter/migrating-ClutterEffect.html
<<<          obj /usr/share/gtk-doc/html/clutter/migrating-ClutterBehaviour.html
<<<          obj /usr/share/gtk-doc/html/clutter/migrating-ClutterAnimation.html
<<<          obj /usr/share/gtk-doc/html/clutter/license.html
<<<          obj /usr/share/gtk-doc/html/clutter/left.png
<<<          obj /usr/share/gtk-doc/html/clutter/left-insensitive.png
<<<          obj /usr/share/gtk-doc/html/clutter/ix01.html
<<<          obj /usr/share/gtk-doc/html/clutter/iterating-paths.html
<<<          obj /usr/share/gtk-doc/html/clutter/index.html
<<<          obj /usr/share/gtk-doc/html/clutter/home.png
<<<          obj /usr/share/gtk-doc/html/clutter/go01.html
<<<          obj /usr/share/gtk-doc/html/clutter/flow-layout.png
<<<          obj /usr/share/gtk-doc/html/clutter/event-flow.png
<<<          obj /usr/share/gtk-doc/html/clutter/easing-modes.png
<<<          obj /usr/share/gtk-doc/html/clutter/deprecated.html
<<<          obj /usr/share/gtk-doc/html/clutter/constraints-example.png
<<<          obj /usr/share/gtk-doc/html/clutter/cluttertools.html
<<<          obj /usr/share/gtk-doc/html/clutter/clutterobjects.html
<<<          obj /usr/share/gtk-doc/html/clutter/clutterobjectindex.html
<<<          obj /usr/share/gtk-doc/html/clutter/clutterobjecthierarchy.html
<<<          obj /usr/share/gtk-doc/html/clutter/clutterglossary.html
<<<          obj /usr/share/gtk-doc/html/clutter/clutterbase.html
<<<          obj /usr/share/gtk-doc/html/clutter/clutterbackends.html
<<<          obj /usr/share/gtk-doc/html/clutter/clutteranimation.html
<<<          obj /usr/share/gtk-doc/html/clutter/clutter.devhelp2
<<<          obj /usr/share/gtk-doc/html/clutter/clutter-overview.html
<<<          obj /usr/share/gtk-doc/html/clutter/clutter-clutter-mir.html
<<<          obj /usr/share/gtk-doc/html/clutter/clutter-X11-Specific-Support.html
<<<          obj /usr/share/gtk-doc/html/clutter/clutter-Win32-Specific-Support.html
<<<          obj /usr/share/gtk-doc/html/clutter/clutter-Wayland-specific-support.html
<<<          obj /usr/share/gtk-doc/html/clutter/clutter-Wayland-compositor-specific-support.html
<<<          obj /usr/share/gtk-doc/html/clutter/clutter-Versioning-Macros.html
<<<          obj /usr/share/gtk-doc/html/clutter/clutter-Value-intervals.html
<<<          obj /usr/share/gtk-doc/html/clutter/clutter-Utilities.html
<<<          obj /usr/share/gtk-doc/html/clutter/clutter-Unit-conversion.html
<<<          obj /usr/share/gtk-doc/html/clutter/clutter-Stage-Manager.html
<<<          obj /usr/share/gtk-doc/html/clutter/clutter-Shaders.html
<<<          obj /usr/share/gtk-doc/html/clutter/clutter-Paint-Nodes.html
<<<          obj /usr/share/gtk-doc/html/clutter/clutter-Key-Bindings.html
<<<          obj /usr/share/gtk-doc/html/clutter/clutter-Intel-CE3100-CE4100-Specific-Support.html
<<<          obj /usr/share/gtk-doc/html/clutter/clutter-Implicit-Animations.html
<<<          obj /usr/share/gtk-doc/html/clutter/clutter-General.html
<<<          obj /usr/share/gtk-doc/html/clutter/clutter-General-API.html
<<<          obj /usr/share/gtk-doc/html/clutter/clutter-GDK-Specific-Support.html
<<<          obj /usr/share/gtk-doc/html/clutter/clutter-Features.html
<<<          obj /usr/share/gtk-doc/html/clutter/clutter-Events.html
<<<          obj /usr/share/gtk-doc/html/clutter/clutter-EGL-Specific-Support.html
<<<          obj /usr/share/gtk-doc/html/clutter/clutter-Colors.html
<<<          obj /usr/share/gtk-doc/html/clutter/clutter-ClutterWaylandSurface.html
<<<          obj /usr/share/gtk-doc/html/clutter/clutter-Cairo-integration.html
<<<          obj /usr/share/gtk-doc/html/clutter/clutter-Base-geometric-types.html
<<<          obj /usr/share/gtk-doc/html/clutter/ch14.html
<<<          obj /usr/share/gtk-doc/html/clutter/ch13.html
<<<          obj /usr/share/gtk-doc/html/clutter/ch12.html
<<<          obj /usr/share/gtk-doc/html/clutter/ch11.html
<<<          obj /usr/share/gtk-doc/html/clutter/ch10.html
<<<          obj /usr/share/gtk-doc/html/clutter/ch09.html
<<<          obj /usr/share/gtk-doc/html/clutter/ch08.html
<<<          obj /usr/share/gtk-doc/html/clutter/ch07.html
<<<          obj /usr/share/gtk-doc/html/clutter/ch06.html
<<<          obj /usr/share/gtk-doc/html/clutter/ch05.html
<<<          obj /usr/share/gtk-doc/html/clutter/ch04.html
<<<          obj /usr/share/gtk-doc/html/clutter/ch03.html
<<<          obj /usr/share/gtk-doc/html/clutter/ch02.html
<<<          obj /usr/share/gtk-doc/html/clutter/ch01.html
<<<          obj /usr/share/gtk-doc/html/clutter/cally.html
<<<          obj /usr/share/gtk-doc/html/clutter/building-clutter.html
<<<          obj /usr/share/gtk-doc/html/clutter/box-layout.png
<<<          obj /usr/share/gtk-doc/html/clutter/bin-layout.png
<<<          obj /usr/share/gtk-doc/html/clutter/annotation-glossary.html
<<<          obj /usr/share/gtk-doc/html/clutter/animator-key-frames.png
<<<          obj /usr/share/gtk-doc/html/clutter/actor-example.png
<<<          obj /usr/share/gtk-doc/html/clutter/actor-box.png
<<<          obj /usr/share/gtk-doc/html/clutter/ClutterZoomAction.html
<<<          obj /usr/share/gtk-doc/html/clutter/ClutterX11TexturePixmap.html
<<<          obj /usr/share/gtk-doc/html/clutter/ClutterTransitionGroup.html
<<<          obj /usr/share/gtk-doc/html/clutter/ClutterTransition.html
<<<          obj /usr/share/gtk-doc/html/clutter/ClutterTimeline.html
<<<          obj /usr/share/gtk-doc/html/clutter/ClutterTexture.html
<<<          obj /usr/share/gtk-doc/html/clutter/ClutterTextBuffer.html
<<<          obj /usr/share/gtk-doc/html/clutter/ClutterText.html
<<<          obj /usr/share/gtk-doc/html/clutter/ClutterTapAction.html
<<<          obj /usr/share/gtk-doc/html/clutter/ClutterTableLayout.html
<<<          obj /usr/share/gtk-doc/html/clutter/ClutterSwipeAction.html
<<<          obj /usr/share/gtk-doc/html/clutter/ClutterState.html
<<<          obj /usr/share/gtk-doc/html/clutter/ClutterStage.html
<<<          obj /usr/share/gtk-doc/html/clutter/ClutterSnapConstraint.html
<<<          obj /usr/share/gtk-doc/html/clutter/ClutterShaderEffect.html
<<<          obj /usr/share/gtk-doc/html/clutter/ClutterSettings.html
<<<          obj /usr/share/gtk-doc/html/clutter/ClutterScrollActor.html
<<<          obj /usr/share/gtk-doc/html/clutter/ClutterScriptable.html
<<<          obj /usr/share/gtk-doc/html/clutter/ClutterScript.html
<<<          obj /usr/share/gtk-doc/html/clutter/ClutterScore.html
<<<          obj /usr/share/gtk-doc/html/clutter/ClutterRotateAction.html
<<<          obj /usr/share/gtk-doc/html/clutter/ClutterRectangle.html
<<<          obj /usr/share/gtk-doc/html/clutter/ClutterPropertyTransition.html
<<<          obj /usr/share/gtk-doc/html/clutter/ClutterPathConstraint.html
<<<          obj /usr/share/gtk-doc/html/clutter/ClutterPath.html
<<<          obj /usr/share/gtk-doc/html/clutter/ClutterPanAction.html
<<<          obj /usr/share/gtk-doc/html/clutter/ClutterPaintNode.html
<<<          obj /usr/share/gtk-doc/html/clutter/ClutterPageTurnEffect.html
<<<          obj /usr/share/gtk-doc/html/clutter/ClutterOffscreenEffect.html
<<<          obj /usr/share/gtk-doc/html/clutter/ClutterModelIter.html
<<<          obj /usr/share/gtk-doc/html/clutter/ClutterModel.html
<<<          obj /usr/share/gtk-doc/html/clutter/ClutterMedia.html
<<<          obj /usr/share/gtk-doc/html/clutter/ClutterListModel.html
<<<          obj /usr/share/gtk-doc/html/clutter/ClutterLayoutMeta.html
<<<          obj /usr/share/gtk-doc/html/clutter/ClutterLayoutManager.html
<<<          obj /usr/share/gtk-doc/html/clutter/ClutterKeyframeTransition.html
<<<          obj /usr/share/gtk-doc/html/clutter/ClutterInputDevice.html
<<<          obj /usr/share/gtk-doc/html/clutter/ClutterImage.html
<<<          obj /usr/share/gtk-doc/html/clutter/ClutterGroup.html
<<<          obj /usr/share/gtk-doc/html/clutter/ClutterGridLayout.html
<<<          obj /usr/share/gtk-doc/html/clutter/ClutterGestureAction.html
<<<          obj /usr/share/gtk-doc/html/clutter/ClutterGLXTexturePixmap.html
<<<          obj /usr/share/gtk-doc/html/clutter/ClutterFlowLayout.html
<<<          obj /usr/share/gtk-doc/html/clutter/ClutterFixedLayout.html
<<<          obj /usr/share/gtk-doc/html/clutter/ClutterEffect.html
<<<          obj /usr/share/gtk-doc/html/clutter/ClutterDropAction.html
<<<          obj /usr/share/gtk-doc/html/clutter/ClutterDragAction.html
<<<          obj /usr/share/gtk-doc/html/clutter/ClutterDeviceManager.html
<<<          obj /usr/share/gtk-doc/html/clutter/ClutterDesaturateEffect.html
<<<          obj /usr/share/gtk-doc/html/clutter/ClutterDeformEffect.html
<<<          obj /usr/share/gtk-doc/html/clutter/ClutterContent.html
<<<          obj /usr/share/gtk-doc/html/clutter/ClutterContainer.html
<<<          obj /usr/share/gtk-doc/html/clutter/ClutterConstraint.html
<<<          obj /usr/share/gtk-doc/html/clutter/ClutterColorizeEffect.html
<<<          obj /usr/share/gtk-doc/html/clutter/ClutterClone.html
<<<          obj /usr/share/gtk-doc/html/clutter/ClutterClickAction.html
<<<          obj /usr/share/gtk-doc/html/clutter/ClutterChildMeta.html
<<<          obj /usr/share/gtk-doc/html/clutter/ClutterCanvas.html
<<<          obj /usr/share/gtk-doc/html/clutter/ClutterCairoTexture.html
<<<          obj /usr/share/gtk-doc/html/clutter/ClutterBrightnessContrastEffect.html
<<<          obj /usr/share/gtk-doc/html/clutter/ClutterBoxLayout.html
<<<          obj /usr/share/gtk-doc/html/clutter/ClutterBox.html
<<<          obj /usr/share/gtk-doc/html/clutter/ClutterBlurEffect.html
<<<          obj /usr/share/gtk-doc/html/clutter/ClutterBindConstraint.html
<<<          obj /usr/share/gtk-doc/html/clutter/ClutterBinLayout.html
<<<          obj /usr/share/gtk-doc/html/clutter/ClutterBehaviourScale.html
<<<          obj /usr/share/gtk-doc/html/clutter/ClutterBehaviourRotate.html
<<<          obj /usr/share/gtk-doc/html/clutter/ClutterBehaviourPath.html
<<<          obj /usr/share/gtk-doc/html/clutter/ClutterBehaviourOpacity.html
<<<          obj /usr/share/gtk-doc/html/clutter/ClutterBehaviourEllipse.html
<<<          obj /usr/share/gtk-doc/html/clutter/ClutterBehaviourDepth.html
<<<          obj /usr/share/gtk-doc/html/clutter/ClutterBehaviour.html
<<<          obj /usr/share/gtk-doc/html/clutter/ClutterBackend.html
<<<          obj /usr/share/gtk-doc/html/clutter/ClutterAnimator.html
<<<          obj /usr/share/gtk-doc/html/clutter/ClutterAnimatable.html
<<<          obj /usr/share/gtk-doc/html/clutter/ClutterAlpha.html
<<<          obj /usr/share/gtk-doc/html/clutter/ClutterAlignConstraint.html
<<<          obj /usr/share/gtk-doc/html/clutter/ClutterActorMeta.html
<<<          obj /usr/share/gtk-doc/html/clutter/ClutterActor.html
<<<          obj /usr/share/gtk-doc/html/clutter/ClutterAction.html
<<<          obj /usr/share/gtk-doc/html/clutter/CallyUtil.html
<<<          obj /usr/share/gtk-doc/html/clutter/CallyTexture.html
<<<          obj /usr/share/gtk-doc/html/clutter/CallyText.html
<<<          obj /usr/share/gtk-doc/html/clutter/CallyStage.html
<<<          obj /usr/share/gtk-doc/html/clutter/CallyRoot.html
<<<          obj /usr/share/gtk-doc/html/clutter/CallyRectangle.html
<<<          obj /usr/share/gtk-doc/html/clutter/CallyGroup.html
<<<          obj /usr/share/gtk-doc/html/clutter/CallyClone.html
<<<          obj /usr/share/gtk-doc/html/clutter/CallyActor.html
<<<          obj /usr/share/gir-1.0/ClutterX11-1.0.gir
<<<          obj /usr/share/gir-1.0/ClutterGdk-1.0.gir
<<<          obj /usr/share/gir-1.0/Clutter-1.0.gir
<<<          obj /usr/share/gir-1.0/Cally-1.0.gir
<<<          obj /usr/share/clutter-1.0/valgrind/clutter.supp
<<<          obj /usr/lib64/pkgconfig/clutter-x11-1.0.pc
<<<          obj /usr/lib64/pkgconfig/clutter-wayland-compositor-1.0.pc
<<<          obj /usr/lib64/pkgconfig/clutter-wayland-1.0.pc
<<<          obj /usr/lib64/pkgconfig/clutter-glx-1.0.pc
<<<          obj /usr/lib64/pkgconfig/clutter-gdk-1.0.pc
<<<          obj /usr/lib64/pkgconfig/clutter-egl-1.0.pc
<<<          obj /usr/lib64/pkgconfig/clutter-cogl-1.0.pc
<<<          obj /usr/lib64/pkgconfig/clutter-1.0.pc
<<<          obj /usr/lib64/pkgconfig/cally-1.0.pc
<<<          sym /usr/lib64/libclutter-glx-1.0.so.0
<<<          sym /usr/lib64/libclutter-glx-1.0.so
<<<          obj /usr/lib64/libclutter-1.0.so.0.2600.4
<<<          sym /usr/lib64/libclutter-1.0.so.0
<<<          sym /usr/lib64/libclutter-1.0.so
<<<          obj /usr/lib64/girepository-1.0/ClutterX11-1.0.typelib
<<<          obj /usr/lib64/girepository-1.0/ClutterGdk-1.0.typelib
<<<          obj /usr/lib64/girepository-1.0/Clutter-1.0.typelib
<<<          obj /usr/lib64/girepository-1.0/Cally-1.0.typelib
<<<          obj /usr/include/clutter-1.0/clutter/x11/clutter-x11.h
<<<          obj /usr/include/clutter-1.0/clutter/x11/clutter-x11-texture-pixmap.h
<<<          obj /usr/include/clutter-1.0/clutter/wayland/clutter-wayland.h
<<<          obj /usr/include/clutter-1.0/clutter/wayland/clutter-wayland-surface.h
<<<          obj /usr/include/clutter-1.0/clutter/wayland/clutter-wayland-compositor.h
<<<          obj /usr/include/clutter-1.0/clutter/glx/clutter-glx.h
<<<          obj /usr/include/clutter-1.0/clutter/glx/clutter-glx-texture-pixmap.h
<<<          obj /usr/include/clutter-1.0/clutter/gdk/clutter-gdk.h
<<<          obj /usr/include/clutter-1.0/clutter/evdev/clutter-evdev.h
<<<          obj /usr/include/clutter-1.0/clutter/egl/clutter-egl.h
<<<          obj /usr/include/clutter-1.0/clutter/egl/clutter-egl-headers.h
<<<          obj /usr/include/clutter-1.0/clutter/deprecated/clutter-util.h
<<<          obj /usr/include/clutter-1.0/clutter/deprecated/clutter-timeout-pool.h
<<<          obj /usr/include/clutter-1.0/clutter/deprecated/clutter-timeline.h
<<<          obj /usr/include/clutter-1.0/clutter/deprecated/clutter-texture.h
<<<          obj /usr/include/clutter-1.0/clutter/deprecated/clutter-table-layout.h
<<<          obj /usr/include/clutter-1.0/clutter/deprecated/clutter-state.h
<<<          obj /usr/include/clutter-1.0/clutter/deprecated/clutter-stage.h
<<<          obj /usr/include/clutter-1.0/clutter/deprecated/clutter-stage-manager.h
<<<          obj /usr/include/clutter-1.0/clutter/deprecated/clutter-shader.h
<<<          obj /usr/include/clutter-1.0/clutter/deprecated/clutter-score.h
<<<          obj /usr/include/clutter-1.0/clutter/deprecated/clutter-rectangle.h
<<<          obj /usr/include/clutter-1.0/clutter/deprecated/clutter-model.h
<<<          obj /usr/include/clutter-1.0/clutter/deprecated/clutter-media.h
<<<          obj /usr/include/clutter-1.0/clutter/deprecated/clutter-main.h
<<<          obj /usr/include/clutter-1.0/clutter/deprecated/clutter-list-model.h
<<<          obj /usr/include/clutter-1.0/clutter/deprecated/clutter-keysyms.h
<<<          obj /usr/include/clutter-1.0/clutter/deprecated/clutter-input-device.h
<<<          obj /usr/include/clutter-1.0/clutter/deprecated/clutter-group.h
<<<          obj /usr/include/clutter-1.0/clutter/deprecated/clutter-frame-source.h
<<<          obj /usr/include/clutter-1.0/clutter/deprecated/clutter-fixed.h
<<<          obj /usr/include/clutter-1.0/clutter/deprecated/clutter-container.h
<<<          obj /usr/include/clutter-1.0/clutter/deprecated/clutter-cairo-texture.h
<<<          obj /usr/include/clutter-1.0/clutter/deprecated/clutter-box.h
<<<          obj /usr/include/clutter-1.0/clutter/deprecated/clutter-bin-layout.h
<<<          obj /usr/include/clutter-1.0/clutter/deprecated/clutter-behaviour.h
<<<          obj /usr/include/clutter-1.0/clutter/deprecated/clutter-behaviour-scale.h
<<<          obj /usr/include/clutter-1.0/clutter/deprecated/clutter-behaviour-rotate.h
<<<          obj /usr/include/clutter-1.0/clutter/deprecated/clutter-behaviour-path.h
<<<          obj /usr/include/clutter-1.0/clutter/deprecated/clutter-behaviour-opacity.h
<<<          obj /usr/include/clutter-1.0/clutter/deprecated/clutter-behaviour-ellipse.h
<<<          obj /usr/include/clutter-1.0/clutter/deprecated/clutter-behaviour-depth.h
<<<          obj /usr/include/clutter-1.0/clutter/deprecated/clutter-backend.h
<<<          obj /usr/include/clutter-1.0/clutter/deprecated/clutter-animator.h
<<<          obj /usr/include/clutter-1.0/clutter/deprecated/clutter-animation.h
<<<          obj /usr/include/clutter-1.0/clutter/deprecated/clutter-animatable.h
<<<          obj /usr/include/clutter-1.0/clutter/deprecated/clutter-alpha.h
<<<          obj /usr/include/clutter-1.0/clutter/deprecated/clutter-actor.h
<<<          obj /usr/include/clutter-1.0/clutter/clutter.h
<<<          obj /usr/include/clutter-1.0/clutter/clutter-zoom-action.h
<<<          obj /usr/include/clutter-1.0/clutter/clutter-version.h
<<<          obj /usr/include/clutter-1.0/clutter/clutter-units.h
<<<          obj /usr/include/clutter-1.0/clutter/clutter-types.h
<<<          obj /usr/include/clutter-1.0/clutter/clutter-transition.h
<<<          obj /usr/include/clutter-1.0/clutter/clutter-transition-group.h
<<<          obj /usr/include/clutter-1.0/clutter/clutter-timeline.h
<<<          obj /usr/include/clutter-1.0/clutter/clutter-texture.h
<<<          obj /usr/include/clutter-1.0/clutter/clutter-text.h
<<<          obj /usr/include/clutter-1.0/clutter/clutter-text-buffer.h
<<<          obj /usr/include/clutter-1.0/clutter/clutter-test-utils.h
<<<          obj /usr/include/clutter-1.0/clutter/clutter-tap-action.h
<<<          obj /usr/include/clutter-1.0/clutter/clutter-swipe-action.h
<<<          obj /usr/include/clutter-1.0/clutter/clutter-stage.h
<<<          obj /usr/include/clutter-1.0/clutter/clutter-stage-manager.h
<<<          obj /usr/include/clutter-1.0/clutter/clutter-snap-constraint.h
<<<          obj /usr/include/clutter-1.0/clutter/clutter-shader-types.h
<<<          obj /usr/include/clutter-1.0/clutter/clutter-shader-effect.h
<<<          obj /usr/include/clutter-1.0/clutter/clutter-settings.h
<<<          obj /usr/include/clutter-1.0/clutter/clutter-scroll-actor.h
<<<          obj /usr/include/clutter-1.0/clutter/clutter-scriptable.h
<<<          obj /usr/include/clutter-1.0/clutter/clutter-script.h
<<<          obj /usr/include/clutter-1.0/clutter/clutter-rotate-action.h
<<<          obj /usr/include/clutter-1.0/clutter/clutter-property-transition.h
<<<          obj /usr/include/clutter-1.0/clutter/clutter-path.h
<<<          obj /usr/include/clutter-1.0/clutter/clutter-path-constraint.h
<<<          obj /usr/include/clutter-1.0/clutter/clutter-pan-action.h
<<<          obj /usr/include/clutter-1.0/clutter/clutter-paint-nodes.h
<<<          obj /usr/include/clutter-1.0/clutter/clutter-paint-node.h
<<<          obj /usr/include/clutter-1.0/clutter/clutter-page-turn-effect.h
<<<          obj /usr/include/clutter-1.0/clutter/clutter-offscreen-effect.h
<<<          obj /usr/include/clutter-1.0/clutter/clutter-marshal.h
<<<          obj /usr/include/clutter-1.0/clutter/clutter-main.h
<<<          obj /usr/include/clutter-1.0/clutter/clutter-macros.h
<<<          obj /usr/include/clutter-1.0/clutter/clutter-layout-meta.h
<<<          obj /usr/include/clutter-1.0/clutter/clutter-layout-manager.h
<<<          obj /usr/include/clutter-1.0/clutter/clutter-keysyms.h
<<<          obj /usr/include/clutter-1.0/clutter/clutter-keyframe-transition.h
<<<          obj /usr/include/clutter-1.0/clutter/clutter-interval.h
<<<          obj /usr/include/clutter-1.0/clutter/clutter-input-device.h
<<<          obj /usr/include/clutter-1.0/clutter/clutter-image.h
<<<          obj /usr/include/clutter-1.0/clutter/clutter-group.h
<<<          obj /usr/include/clutter-1.0/clutter/clutter-grid-layout.h
<<<          obj /usr/include/clutter-1.0/clutter/clutter-gesture-action.h
<<<          obj /usr/include/clutter-1.0/clutter/clutter-flow-layout.h
<<<          obj /usr/include/clutter-1.0/clutter/clutter-fixed-layout.h
<<<          obj /usr/include/clutter-1.0/clutter/clutter-feature.h
<<<          obj /usr/include/clutter-1.0/clutter/clutter-event.h
<<<          obj /usr/include/clutter-1.0/clutter/clutter-enums.h
<<<          obj /usr/include/clutter-1.0/clutter/clutter-enum-types.h
<<<          obj /usr/include/clutter-1.0/clutter/clutter-effect.h
<<<          obj /usr/include/clutter-1.0/clutter/clutter-drop-action.h
<<<          obj /usr/include/clutter-1.0/clutter/clutter-drag-action.h
<<<          obj /usr/include/clutter-1.0/clutter/clutter-device-manager.h
<<<          obj /usr/include/clutter-1.0/clutter/clutter-desaturate-effect.h
<<<          obj /usr/include/clutter-1.0/clutter/clutter-deprecated.h
<<<          obj /usr/include/clutter-1.0/clutter/clutter-deform-effect.h
<<<          obj /usr/include/clutter-1.0/clutter/clutter-content.h
<<<          obj /usr/include/clutter-1.0/clutter/clutter-container.h
<<<          obj /usr/include/clutter-1.0/clutter/clutter-constraint.h
<<<          obj /usr/include/clutter-1.0/clutter/clutter-config.h
<<<          obj /usr/include/clutter-1.0/clutter/clutter-colorize-effect.h
<<<          obj /usr/include/clutter-1.0/clutter/clutter-color.h
<<<          obj /usr/include/clutter-1.0/clutter/clutter-color-static.h
<<<          obj /usr/include/clutter-1.0/clutter/clutter-cogl-compat.h
<<<          obj /usr/include/clutter-1.0/clutter/clutter-clone.h
<<<          obj /usr/include/clutter-1.0/clutter/clutter-click-action.h
<<<          obj /usr/include/clutter-1.0/clutter/clutter-child-meta.h
<<<          obj /usr/include/clutter-1.0/clutter/clutter-canvas.h
<<<          obj /usr/include/clutter-1.0/clutter/clutter-cairo.h
<<<          obj /usr/include/clutter-1.0/clutter/clutter-brightness-contrast-effect.h
<<<          obj /usr/include/clutter-1.0/clutter/clutter-box-layout.h
<<<          obj /usr/include/clutter-1.0/clutter/clutter-blur-effect.h
<<<          obj /usr/include/clutter-1.0/clutter/clutter-binding-pool.h
<<<          obj /usr/include/clutter-1.0/clutter/clutter-bind-constraint.h
<<<          obj /usr/include/clutter-1.0/clutter/clutter-bin-layout.h
<<<          obj /usr/include/clutter-1.0/clutter/clutter-backend.h
<<<          obj /usr/include/clutter-1.0/clutter/clutter-autocleanups.h
<<<          obj /usr/include/clutter-1.0/clutter/clutter-animatable.h
<<<          obj /usr/include/clutter-1.0/clutter/clutter-align-constraint.h
<<<          obj /usr/include/clutter-1.0/clutter/clutter-actor.h
<<<          obj /usr/include/clutter-1.0/clutter/clutter-actor-meta.h
<<<          obj /usr/include/clutter-1.0/clutter/clutter-action.h
<<<          obj /usr/include/clutter-1.0/cally/cally.h
<<<          obj /usr/include/clutter-1.0/cally/cally-util.h
<<<          obj /usr/include/clutter-1.0/cally/cally-texture.h
<<<          obj /usr/include/clutter-1.0/cally/cally-text.h
<<<          obj /usr/include/clutter-1.0/cally/cally-stage.h
<<<          obj /usr/include/clutter-1.0/cally/cally-root.h
<<<          obj /usr/include/clutter-1.0/cally/cally-rectangle.h
<<<          obj /usr/include/clutter-1.0/cally/cally-main.h
<<<          obj /usr/include/clutter-1.0/cally/cally-group.h
<<<          obj /usr/include/clutter-1.0/cally/cally-factory.h
<<<          obj /usr/include/clutter-1.0/cally/cally-clone.h
<<<          obj /usr/include/clutter-1.0/cally/cally-actor.h
<<<          dir /usr/share/gtk-doc/html/clutter
--- !empty   dir /usr/share/gtk-doc/html
--- !empty   dir /usr/share/gtk-doc
--- !empty   dir /usr/share/gir-1.0
<<<          dir /usr/share/clutter-1.0/valgrind
<<<          dir /usr/share/clutter-1.0
--- !empty   dir /usr/share
--- !empty   dir /usr/lib64/pkgconfig
--- !empty   dir /usr/lib64/girepository-1.0
--- !empty   dir /usr/lib64
<<<          dir /usr/include/clutter-1.0/clutter/x11
<<<          dir /usr/include/clutter-1.0/clutter/wayland
<<<          dir /usr/include/clutter-1.0/clutter/glx
<<<          dir /usr/include/clutter-1.0/clutter/gdk
<<<          dir /usr/include/clutter-1.0/clutter/evdev
<<<          dir /usr/include/clutter-1.0/clutter/egl
<<<          dir /usr/include/clutter-1.0/clutter/deprecated
<<<          dir /usr/include/clutter-1.0/clutter
<<<          dir /usr/include/clutter-1.0/cally
<<<          dir /usr/include/clutter-1.0
--- !empty   dir /usr/include
--- !empty   dir /usr
>>> Regenerating /etc/ld.so.cache...
