No package files given... Grabbing a set.
--- replaced obj /usr/lib64/libxvidcore.so.4.3
--- replaced sym /usr/lib64/libxvidcore.so.4
--- replaced sym /usr/lib64/libxvidcore.so
--- replaced dir /usr/lib64
--- replaced obj /usr/include/xvid.h
--- replaced dir /usr/include
--- replaced dir /usr
>>> Regenerating /etc/ld.so.cache...
