No package files given... Grabbing a set.
--- replaced obj /usr/share/fonts/misc/fonts.alias
--- replaced dir /usr/share/fonts/misc
--- replaced obj /usr/share/fonts/cyrillic/fonts.alias
--- replaced dir /usr/share/fonts/cyrillic
--- replaced obj /usr/share/fonts/75dpi/fonts.alias
--- replaced dir /usr/share/fonts/75dpi
--- replaced obj /usr/share/fonts/100dpi/fonts.alias
--- replaced dir /usr/share/fonts/100dpi
--- replaced dir /usr/share/fonts
--- replaced dir /usr/share
--- replaced dir /usr
>>> Regenerating /etc/ld.so.cache...
