No package files given... Grabbing a set.
--- replaced obj /usr/share/openal/presets/square.ambdec
--- replaced obj /usr/share/openal/presets/rectangle.ambdec
--- replaced obj /usr/share/openal/presets/presets.txt
--- replaced obj /usr/share/openal/presets/itu5.1.ambdec
--- replaced obj /usr/share/openal/presets/itu5.1-nocenter.ambdec
--- replaced obj /usr/share/openal/presets/hexagon.ambdec
--- replaced obj /usr/share/openal/presets/3D7.1.ambdec
--- replaced dir /usr/share/openal/presets
--- replaced obj /usr/share/openal/hrtf/Default HRTF.mhr
--- replaced dir /usr/share/openal/hrtf
--- replaced obj /usr/share/openal/alsoftrc.sample
--- replaced dir /usr/share/openal
--- replaced dir /usr/share
--- replaced obj /usr/lib64/pkgconfig/openal.pc
--- replaced dir /usr/lib64/pkgconfig
--- replaced obj /usr/lib64/libopenal.so.1.20.1
--- replaced sym /usr/lib64/libopenal.so.1
--- replaced sym /usr/lib64/libopenal.so
--- replaced obj /usr/lib64/cmake/OpenAL/OpenALConfig.cmake
--- replaced obj /usr/lib64/cmake/OpenAL/OpenALConfig-gentoo.cmake
--- replaced dir /usr/lib64/cmake/OpenAL
--- replaced dir /usr/lib64/cmake
--- replaced dir /usr/lib64
--- replaced obj /usr/include/AL/efx.h
--- replaced obj /usr/include/AL/efx-presets.h
--- replaced obj /usr/include/AL/efx-creative.h
--- replaced obj /usr/include/AL/alext.h
--- replaced obj /usr/include/AL/alc.h
--- replaced obj /usr/include/AL/al.h
--- replaced dir /usr/include/AL
--- replaced dir /usr/include
--- replaced obj /usr/bin/openal-info
--- replaced obj /usr/bin/altonegen
--- replaced dir /usr/bin
--- replaced dir /usr
>>> Regenerating /etc/ld.so.cache...
