 * Package:    media-plugins/gst-plugins-lame-1.16.2
 * Repository: gentoo
 * Maintainer: gstreamer@gentoo.org
 * USE:        abi_x86_64 amd64 elibc_glibc kernel_linux userland_GNU
 * FEATURES:   ccache network-sandbox preserve-libs userpriv
 * /etc/portage/package.cflags/ltoworkarounds.conf -> */*: *FLAGS+=-Wl,-O4 *FLAGS-=-Wl,-O1
 * FEATURES='assume-digests binpkg-docompress binpkg-dostrip binpkg-logs buildpkg ccache cgroup compress-index config-protect-if-modified distlocks ebuild-locks fixlafiles merge-sync multilib-strict network-sandbox news nodoc parallel-fetch preserve-libs qa-unresolved-soname-deps sfperms strict strict-keepdir unknown-features-warn unmerge-logs unmerge-orphans userfetch userpriv usersync xattr'
 * CFLAGS='-march=znver2 -Ofast -pipe -g0 -fgraphite-identity -floop-interchange -floop-nest-optimize -floop-parallelize-all -ftree-parallelize-loops=12 -ftree-vectorize -fdevirtualize-at-ltrans -fipa-pta -fno-semantic-interposition -flto=12 -fno-plt -falign-functions=32 -fno-stack-protector -fno-stack-clash-protection -fstack-check=no -fno-stack-check -fuse-linker-plugin -Wl,-O4 -Wl,-O4,--sort-common,--as-needed,-z,norelro,-z,now'
 * CXXFLAGS='-march=znver2 -Ofast -pipe -g0 -fgraphite-identity -floop-interchange -floop-nest-optimize -floop-parallelize-all -ftree-parallelize-loops=12 -ftree-vectorize -fdevirtualize-at-ltrans -fipa-pta -fno-semantic-interposition -flto=12 -fno-plt -falign-functions=32 -fno-stack-protector -fno-stack-clash-protection -fstack-check=no -fno-stack-check -fuse-linker-plugin -Wl,-O4 -Wl,-O4,--sort-common,--as-needed,-z,norelro,-z,now'
 * FFLAGS='-march=znver2 -Ofast -pipe -g0 -fgraphite-identity -floop-interchange -floop-nest-optimize -floop-parallelize-all -ftree-parallelize-loops=12 -ftree-vectorize -fdevirtualize-at-ltrans -fipa-pta -fno-semantic-interposition -flto=12 -fno-plt -falign-functions=32 -fno-stack-protector -fno-stack-clash-protection -fstack-check=no -fno-stack-check -fuse-linker-plugin -Wl,-O4 -Wl,-O4,--sort-common,--as-needed,-z,norelro,-z,now'
 * FCFLAGS='-march=znver2 -Ofast -pipe -g0 -fgraphite-identity -floop-interchange -floop-nest-optimize -floop-parallelize-all -ftree-parallelize-loops=12 -ftree-vectorize -fdevirtualize-at-ltrans -fipa-pta -fno-semantic-interposition -flto=12 -fno-plt -falign-functions=32 -fno-stack-protector -fno-stack-clash-protection -fstack-check=no -fno-stack-check -fuse-linker-plugin -Wl,-O4 -Wl,-O4,--sort-common,--as-needed,-z,norelro,-z,now'
 * F77FLAGS='-march=znver2 -Ofast -pipe -g0 -fgraphite-identity -floop-interchange -floop-nest-optimize -floop-parallelize-all -ftree-parallelize-loops=12 -ftree-vectorize -fdevirtualize-at-ltrans -fipa-pta -fno-semantic-interposition -flto=12 -fno-plt -falign-functions=32 -fno-stack-protector -fno-stack-clash-protection -fstack-check=no -fno-stack-check -fuse-linker-plugin -Wl,-O4 -Wl,-O4,--sort-common,--as-needed,-z,norelro,-z,now'
 * LDFLAGS='-Wl,-O4,--sort-common,--as-needed,-z,norelro,-z,now -march=znver2 -Ofast -pipe -g0 -fgraphite-identity -floop-interchange -floop-nest-optimize -floop-parallelize-all -ftree-parallelize-loops=12 -ftree-vectorize -fdevirtualize-at-ltrans -fipa-pta -fno-semantic-interposition -flto=12 -fno-plt -falign-functions=32 -fno-stack-protector -fno-stack-clash-protection -fstack-check=no -fno-stack-check -fuse-linker-plugin -Wl,-O4'
 * MAKEOPTS='-j12 -l12'
 * gcc (Gentoo 11.0.0_pre9999 p1, commit 184c21bf1cd04a108ed9bd04635e7d57ac39f616) 11.0.0 20200611 (experimental)
 * g++ (Gentoo 11.0.0_pre9999 p1, commit 184c21bf1cd04a108ed9bd04635e7d57ac39f616) 11.0.0 20200611 (experimental)
 * GNU ld (Gentoo 2.34 p4) 2.34.0
 * Linux rescue 5.4.36 #1 SMP Thu Apr 30 04:38:28 UTC 2020 x86_64 AMD Ryzen 5 3600 6-Core Processor AuthenticAMD GNU/Linux
]0;emerge 12:07:51 23|173 gst-plugins-lame (root@rescue)>>> Unpacking source...
>>> Unpacking gst-plugins-good-1.16.2.tar.xz to /tmp/portage/media-plugins/gst-plugins-lame-1.16.2/work
>>> Source unpacked in /tmp/portage/media-plugins/gst-plugins-lame-1.16.2/work
>>> Preparing source in /tmp/portage/media-plugins/gst-plugins-lame-1.16.2/work/gst-plugins-good-1.16.2 ...
>>> Source prepared.
>>> Configuring source in /tmp/portage/media-plugins/gst-plugins-lame-1.16.2/work/gst-plugins-good-1.16.2 ...
 * abi_x86_64.amd64: running multilib-minimal_abi_src_configure
 * Configuring to build lame plugin(s) ...
 * econf: updating gst-plugins-good-1.16.2/config.guess with /usr/share/gnuconfig/config.guess
 * econf: updating gst-plugins-good-1.16.2/config.sub with /usr/share/gnuconfig/config.sub
/tmp/portage/media-plugins/gst-plugins-lame-1.16.2/work/gst-plugins-good-1.16.2/configure --prefix=/usr --build=x86_64-pc-linux-gnu --host=x86_64-pc-linux-gnu --mandir=/usr/share/man --infodir=/usr/share/info --datadir=/usr/share --sysconfdir=/etc --localstatedir=/var/lib --disable-dependency-tracking --disable-silent-rules --docdir=/usr/share/doc/gst-plugins-lame-1.16.2 --htmldir=/usr/share/doc/gst-plugins-lame-1.16.2/html --libdir=/usr/lib64 --with-package-name=Gentoo GStreamer ebuild --with-package-origin=https://www.gentoo.org --disable-directsound --disable-waveform --disable-oss --disable-oss4 --disable-osx_audio --disable-osx_video --disable-gst_v4l2 --disable-x --disable-aalib --disable-cairo --disable-flac --disable-gdk_pixbuf --disable-gtk3 --disable-jack --disable-jpeg --enable-lame --disable-libcaca --disable-libdv --disable-libpng --disable-mpg123 --disable-pulse --disable-dv1394 --disable-qt --disable-shout2 --disable-soup --disable-speex --disable-taglib --disable-twolame --disable-vpx --disable-wavpack --disable-zlib --disable-bz2 --disable-orc --disable-maintainer-mode
checking build system type... x86_64-pc-linux-gnu
checking host system type... x86_64-pc-linux-gnu
checking target system type... x86_64-pc-linux-gnu
checking for a BSD-compatible install... /tmp/portage/._portage_reinstall_.6v605k_b/bin/ebuild-helpers/xattr/install -c
checking whether build environment is sane... yes
checking for a thread-safe mkdir -p... /bin/mkdir -p
checking for gawk... gawk
checking whether make sets $(MAKE)... yes
checking whether make supports nested variables... yes
checking whether UID '250' is supported by ustar format... yes
checking whether GID '250' is supported by ustar format... yes
checking how to create a ustar tar archive... gnutar
checking nano version... 0 (release)
checking whether to enable maintainer-specific portions of Makefiles... no
checking whether make supports nested variables... (cached) yes
checking how to print strings... printf
checking whether make supports the include directive... yes (GNU style)
checking for x86_64-pc-linux-gnu-gcc... x86_64-pc-linux-gnu-gcc
checking whether the C compiler works... yes
checking for C compiler default output file name... a.out
checking for suffix of executables... 
checking whether we are cross compiling... no
checking for suffix of object files... o
checking whether we are using the GNU C compiler... yes
checking whether x86_64-pc-linux-gnu-gcc accepts -g... yes
checking for x86_64-pc-linux-gnu-gcc option to accept ISO C89... none needed
checking whether x86_64-pc-linux-gnu-gcc understands -c and -o together... yes
checking dependency style of x86_64-pc-linux-gnu-gcc... none
checking for a sed that does not truncate output... /bin/sed
checking for grep that handles long lines and -e... /bin/grep
checking for egrep... /bin/grep -E
checking for fgrep... /bin/grep -F
checking for ld used by x86_64-pc-linux-gnu-gcc... /usr/x86_64-pc-linux-gnu/bin/ld
checking if the linker (/usr/x86_64-pc-linux-gnu/bin/ld) is GNU ld... yes
checking for BSD- or MS-compatible name lister (nm)... /usr/bin/x86_64-pc-linux-gnu-nm -B
checking the name lister (/usr/bin/x86_64-pc-linux-gnu-nm -B) interface... BSD nm
checking whether ln -s works... yes
checking the maximum length of command line arguments... 1572864
checking how to convert x86_64-pc-linux-gnu file names to x86_64-pc-linux-gnu format... func_convert_file_noop
checking how to convert x86_64-pc-linux-gnu file names to toolchain format... func_convert_file_noop
checking for /usr/x86_64-pc-linux-gnu/bin/ld option to reload object files... -r
checking for x86_64-pc-linux-gnu-objdump... x86_64-pc-linux-gnu-objdump
checking how to recognize dependent libraries... pass_all
checking for x86_64-pc-linux-gnu-dlltool... x86_64-pc-linux-gnu-dlltool
checking how to associate runtime and link libraries... printf %s\n
checking for x86_64-pc-linux-gnu-ar... x86_64-pc-linux-gnu-ar
checking for archiver @FILE support... @
checking for x86_64-pc-linux-gnu-strip... x86_64-pc-linux-gnu-strip
checking for x86_64-pc-linux-gnu-ranlib... x86_64-pc-linux-gnu-ranlib
checking command to parse /usr/bin/x86_64-pc-linux-gnu-nm -B output from x86_64-pc-linux-gnu-gcc object... ok
checking for sysroot... no
checking for a working dd... /bin/dd
checking how to truncate binary pipes... /bin/dd bs=4096 count=1
checking for x86_64-pc-linux-gnu-mt... no
checking for mt... no
checking if : is a manifest tool... no
checking how to run the C preprocessor... x86_64-pc-linux-gnu-gcc -E
checking for ANSI C header files... yes
checking for sys/types.h... yes
checking for sys/stat.h... yes
checking for stdlib.h... yes
checking for string.h... yes
checking for memory.h... yes
checking for strings.h... yes
checking for inttypes.h... yes
checking for stdint.h... yes
checking for unistd.h... yes
checking for dlfcn.h... yes
checking for objdir... .libs
checking if x86_64-pc-linux-gnu-gcc supports -fno-rtti -fno-exceptions... no
checking for x86_64-pc-linux-gnu-gcc option to produce PIC... -fPIC -DPIC
checking if x86_64-pc-linux-gnu-gcc PIC flag -fPIC -DPIC works... yes
checking if x86_64-pc-linux-gnu-gcc static flag -static works... yes
checking if x86_64-pc-linux-gnu-gcc supports -c -o file.o... yes
checking if x86_64-pc-linux-gnu-gcc supports -c -o file.o... (cached) yes
checking whether the x86_64-pc-linux-gnu-gcc linker (/usr/x86_64-pc-linux-gnu/bin/ld -m elf_x86_64) supports shared libraries... yes
checking whether -lc should be explicitly linked in... no
checking dynamic linker characteristics... GNU/Linux ld.so
checking how to hardcode library paths into programs... immediate
checking for shl_load... no
checking for shl_load in -ldld... no
checking for dlopen... no
checking for dlopen in -ldl... yes
checking whether a program can dlopen itself... yes
checking whether a statically linked program can dlopen itself... no
checking whether stripping libraries is possible... yes
checking if libtool supports shared libraries... yes
checking whether to build shared libraries... yes
checking whether to build static libraries... no
checking whether NLS is requested... yes
checking for msgfmt... /usr/bin/msgfmt
checking for gmsgfmt... /usr/bin/gmsgfmt
checking for xgettext... /usr/bin/xgettext
checking for msgmerge... /usr/bin/msgmerge
checking for ld used by GCC... /usr/x86_64-pc-linux-gnu/bin/ld -m elf_x86_64
checking if the linker (/usr/x86_64-pc-linux-gnu/bin/ld -m elf_x86_64) is GNU ld... yes
checking for shared library run path origin... done
checking for CFPreferencesCopyAppValue... no
checking for CFLocaleCopyCurrent... no
checking for GNU gettext in libc... yes
checking whether to use NLS... yes
checking where the gettext function comes from... libc
DOMAIN = gst-plugins-good-1.0
checking for x86_64-pc-linux-gnu-pkg-config... /usr/bin/x86_64-pc-linux-gnu-pkg-config
checking pkg-config is at least version 0.9.0... yes
checking for VALGRIND... no
configure: Using Gentoo GStreamer ebuild as package name
configure: Using https://www.gentoo.org as package origin

configure: *** checking feature: building of plug-ins with external deps ***
configure: building external plug-ins

configure: *** checking feature: building of experimental plug-ins ***
configure: not building experimental plug-ins
configure: Using GST_PKG_CONFIG_PATH = $(top_builddir)/pkgconfig
checking whether byte ordering is bigendian... no
checking whether byte ordering is bigendian... (cached) no
checking for special C compiler options needed for large files... no
checking for _FILE_OFFSET_BITS value needed for large files... no
checking for x86_64-pc-linux-gnu-gcc... (cached) x86_64-pc-linux-gnu-gcc
checking whether we are using the GNU C compiler... (cached) yes
checking whether x86_64-pc-linux-gnu-gcc accepts -g... (cached) yes
checking for x86_64-pc-linux-gnu-gcc option to accept ISO C89... (cached) none needed
checking whether x86_64-pc-linux-gnu-gcc understands -c and -o together... (cached) yes
checking dependency style of x86_64-pc-linux-gnu-gcc... (cached) none
checking for x86_64-pc-linux-gnu-gcc option to accept ISO C99... none needed
checking for x86_64-pc-linux-gnu-gcc option to accept ISO Standard C... (cached) none needed
checking for x86_64-pc-linux-gnu-g++... x86_64-pc-linux-gnu-g++
checking whether we are using the GNU C++ compiler... yes
checking whether x86_64-pc-linux-gnu-g++ accepts -g... yes
checking dependency style of x86_64-pc-linux-gnu-g++... none
checking how to run the C++ preprocessor... x86_64-pc-linux-gnu-g++ -E
checking for ld used by x86_64-pc-linux-gnu-g++... /usr/x86_64-pc-linux-gnu/bin/ld -m elf_x86_64
checking if the linker (/usr/x86_64-pc-linux-gnu/bin/ld -m elf_x86_64) is GNU ld... yes
checking whether the x86_64-pc-linux-gnu-g++ linker (/usr/x86_64-pc-linux-gnu/bin/ld -m elf_x86_64) supports shared libraries... yes
checking for x86_64-pc-linux-gnu-g++ option to produce PIC... -fPIC -DPIC
checking if x86_64-pc-linux-gnu-g++ PIC flag -fPIC -DPIC works... yes
checking if x86_64-pc-linux-gnu-g++ static flag -static works... yes
checking if x86_64-pc-linux-gnu-g++ supports -c -o file.o... yes
checking if x86_64-pc-linux-gnu-g++ supports -c -o file.o... (cached) yes
checking whether the x86_64-pc-linux-gnu-g++ linker (/usr/x86_64-pc-linux-gnu/bin/ld -m elf_x86_64) supports shared libraries... yes
checking dynamic linker characteristics... (cached) GNU/Linux ld.so
checking how to hardcode library paths into programs... immediate
checking for x86_64-pc-linux-gnu-g++... yes
checking how to run the C++ preprocessor... x86_64-pc-linux-gnu-g++ -E
checking for x86_64-pc-linux-gnu-gcc... x86_64-pc-linux-gnu-gcc
checking whether we are using the GNU Objective C compiler... no
checking whether x86_64-pc-linux-gnu-gcc accepts -g... no
checking dependency style of x86_64-pc-linux-gnu-gcc... none
checking dependency style of x86_64-pc-linux-gnu-gcc... none
checking for working do while(0) macros... yes
checking for valgrind... no
checking for gtkdoc-check... no
checking for gtkdoc-rebase... no
checking for gtkdoc-mkpdf... no
checking whether to build gtk-doc documentation... no
checking for python... /usr/bin/python
checking for python version... 3.8
checking for python platform... linux
checking for python script directory... ${prefix}/lib/python3.8/site-packages
checking for python extension module directory... ${exec_prefix}/lib/python3.8/site-packages
checking whether to build plugin documentation... no (gtk-doc disabled or not available)
checking for cos in -lm... yes
checking for clock_gettime... yes
checking whether x86_64-pc-linux-gnu-gcc is Clang... no
checking whether pthreads work with -pthread... yes
checking for joinable pthread attribute... PTHREAD_CREATE_JOINABLE
checking whether more special flags are required for pthreads... no
checking for PTHREAD_PRIO_INHERIT... yes
checking for ANSI C header files... (cached) yes
checking for stdint types... stdint.h (shortcircuit)
make use of stdint.h in _stdint.h (assuming C99 compatible system)
checking sys/time.h usability... yes
checking sys/time.h presence... yes
checking for sys/time.h... yes
checking sys/socket.h usability... yes
checking sys/socket.h presence... yes
checking for sys/socket.h... yes
checking for FIONREAD in sys/ioctl.h... yes
checking if compiler supports gcc-style inline assembly... yes
checking for rint... yes
checking for sinh... yes
checking for cosh... yes
checking for asinh... yes
checking for fpclass... no
checking for isinf... yes
checking for stdlib.h... (cached) yes
checking for unistd.h... (cached) yes
checking for sys/param.h... yes
checking for getpagesize... yes
checking for working mmap... yes
checking size of off_t... 8
checking for struct ip_mreqn... yes
checking for GLIB... yes
checking for glib-genmarshal... /usr/bin/glib-genmarshal (from pkg-config path)
checking for glib-mkenums... /usr/bin/glib-mkenums
checking for GIO... yes
checking for GST... yes
configure: using GStreamer tools in /usr/bin
configure: using GStreamer plug-ins in /usr/lib64/gstreamer-1.0
checking for GST_BASE... yes
checking for GST_CONTROLLER... yes
checking for GST_NET... yes
checking for GST_CHECK... yes
checking for GST_PLUGINS_BASE... yes
configure: using GStreamer Base Plugins in /usr/lib64/gstreamer-1.0
configure: Using GStreamer Core Plugins in /usr/lib64/gstreamer-1.0
configure: Using GStreamer Base Plugins in /usr/lib64/gstreamer-1.0
checking for GST_GL... yes
checking GStreamer OpenGL window systems ...... gbm x11
checking GStreamer OpenGL platforms ...... glx egl
checking GStreamer OpenGL apis ...... gl
checking for GTK... yes
checking for GTK_X11... yes
checking for -Bsymbolic-functions linker flag... yes
configure: Using /usr/lib64/gstreamer-1.0 as the plugin install location
configure: Setting GST_PACKAGE_RELEASE_DATETIME to 2019-12-03
checking whether the GStreamer debugging system is enabled... yes
checking to see if compiler understands -Wall... yes
checking to see if compiler understands -Wdeclaration-after-statement... yes
checking to see if compiler understands -Wvla... yes
checking to see if compiler understands -Wpointer-arith... yes
checking to see if compiler understands -Wmissing-declarations... yes
checking to see if compiler understands -Wmissing-prototypes... yes
checking to see if compiler understands -Wredundant-decls... yes
checking to see if compiler understands -Wwrite-strings... yes
checking to see if compiler understands -Wold-style-definition... yes
checking to see if compiler understands -Waggregate-return... yes
checking to see if compiler understands -Winit-self... yes
checking to see if compiler understands -Wmissing-include-dirs... yes
checking to see if compiler understands -Waddress... yes
checking to see if compiler understands -Wno-multichar... yes
checking to see if compiler understands -Wnested-externs... yes
configure: set WARNING_CFLAGS to  -Wall -Wdeclaration-after-statement -Wvla -Wpointer-arith -Wmissing-declarations -Wmissing-prototypes -Wredundant-decls -Wwrite-strings -Wold-style-definition -Waggregate-return -Winit-self -Wmissing-include-dirs -Waddress -Wno-multichar -Wnested-externs
configure: set ERROR_CFLAGS to 
checking to see if c++ compiler understands ... yes
checking to see if c++ compiler understands -Wall... yes
checking to see if c++ compiler understands -Wmissing-declarations... yes
checking to see if c++ compiler understands -Wredundant-decls... yes
checking to see if c++ compiler understands -Wwrite-strings... yes
checking to see if c++ compiler understands -Winit-self... yes
checking to see if c++ compiler understands -Wmissing-include-dirs... yes
checking to see if c++ compiler understands -Waddress... yes
checking to see if c++ compiler understands -Wno-multichar... yes
configure: set WARNING_CXXFLAGS to  -Wall -Wmissing-declarations -Wredundant-decls -Wwrite-strings -Winit-self -Wmissing-include-dirs -Waddress -Wno-multichar
configure: set ERROR_CXXFLAGS to 
checking to see if Objective C compiler understands ... no
checking to see if Objective C compiler understands -Wall... no
checking to see if Objective C compiler understands -Wmissing-declarations... no
checking to see if Objective C compiler understands -Wmissing-prototypes... no
checking to see if Objective C compiler understands -Wredundant-decls... no
checking to see if Objective C compiler understands -Wwrite-strings... no
checking to see if Objective C compiler understands -Wold-style-definition... no
checking to see if Objective C compiler understands -Winit-self... no
checking to see if Objective C compiler understands -Wmissing-include-dirs... no
checking to see if Objective C compiler understands -Wno-multichar... no
checking to see if Objective C compiler understands -Wnested-externs... no
configure: unsupported compiler flags:  -Wmissing-declarations -Wmissing-prototypes -Wredundant-decls -Wwrite-strings -Wold-style-definition -Winit-self -Wmissing-include-dirs -Wno-multichar -Wnested-externs
configure: set WARNING_OBJCFLAGS to 
configure: set ERROR_OBJCFLAGS to 
configure: Using autoaudiosink as default audio sink
configure: Using alsasrc as default audio source
configure: Using autovideosink as default video sink
configure: Using v4l2src as default video source
configure: Using goom as default visualizer

configure: Checking libraries for plugins in sys/


configure: *** checking feature: DirectSound plug-in ***
configure: *** for plug-ins: directsoundsink ***
configure: *** These plugins will not be built: directsoundsink

configure: *** checking feature: Win32 WaveForm ***
configure: *** for plug-ins: waveformsink ***
configure: *** These plugins will not be built: waveformsink

configure: *** checking feature: OSS audio ***
configure: *** for plug-ins: ossaudio ***
configure: *** These plugins will not be built: ossaudio

configure: *** checking feature: Open Sound System 4 ***
configure: *** for plug-ins: oss4 ***
configure: *** These plugins will not be built: oss4

configure: *** checking feature: OSX audio ***
configure: *** for plug-ins: osxaudio ***
configure: *** These plugins will not be built: osxaudio

configure: *** checking feature: OSX video ***
configure: *** for plug-ins: osxvideosink ***
configure: *** These plugins will not be built: osxvideosink

configure: *** checking feature: Video 4 Linux 2 ***
configure: *** for plug-ins: video4linux2 ***
configure: *** These plugins will not be built: video4linux2

configure: *** checking feature: X libraries and plugins ***
configure: *** for plug-ins: ximagesrc ***
configure: *** These plugins will not be built: ximagesrc

configure: Checking libraries for plugins in ext/


configure: *** checking feature: aalib ASCII Art library ***
configure: *** for plug-ins: aasink ***
configure: *** These plugins will not be built: aasink

configure: *** checking feature: Cairo graphics rendering and gobject bindings ***
configure: *** for plug-ins: cairo ***
configure: *** These plugins will not be built: cairo

configure: *** checking feature: FLAC lossless audio ***
configure: *** for plug-ins: flac ***
configure: *** These plugins will not be built: flac

configure: *** checking feature: GDK pixbuf ***
configure: *** for plug-ins: gdkpixbuf ***
configure: *** These plugins will not be built: gdkpixbuf

configure: *** checking feature: Gtk+ elements ***
configure: *** for plug-ins: gtk ***
configure: *** These plugins will not be built: gtk

configure: *** checking feature: Jack ***
configure: *** for plug-ins: jack ***
configure: *** These plugins will not be built: jack

configure: *** checking feature: jpeg library ***
configure: *** for plug-ins: jpeg ***
configure: *** These plugins will not be built: jpeg

configure: *** checking feature: lame mp3 encoder library ***
configure: *** for plug-ins: lame ***
checking for lame_init in -lmp3lame... yes
checking lame/lame.h usability... yes
checking lame/lame.h presence... yes
checking for lame/lame.h... yes
configure: *** These plugins will be built: lame

configure: *** checking feature: libcaca coloured ASCII art ***
configure: *** for plug-ins: cacasink ***
configure: *** These plugins will not be built: cacasink

configure: *** checking feature: libdv DV demuxer/decoder ***
configure: *** for plug-ins: dv ***
configure: *** These plugins will not be built: dv

configure: *** checking feature: Portable Network Graphics library ***
configure: *** for plug-ins: png ***
configure: *** These plugins will not be built: png

configure: *** checking feature: mpg123 audio decoder ***
configure: *** for plug-ins: mpg123 ***
configure: *** These plugins will not be built: mpg123

configure: *** checking feature: pulseaudio plug-in ***
configure: *** for plug-ins: pulseaudio ***
configure: *** These plugins will not be built: pulseaudio

configure: *** checking feature: raw1394 and avc1394 library ***
configure: *** for plug-ins: 1394 ***
configure: *** These plugins will not be built: 1394

configure: *** checking feature: Qt elements ***
configure: *** for plug-ins: qt ***
configure: *** These plugins will not be built: qt

configure: *** checking feature: Shoutcast/Icecast client library ***
configure: *** for plug-ins: shout2 ***
configure: *** These plugins will not be built: shout2

configure: *** checking feature: soup http client plugin (2.4) ***
configure: *** for plug-ins: souphttpsrc ***
configure: *** These plugins will not be built: souphttpsrc

configure: *** checking feature: speex speech codec ***
configure: *** for plug-ins: speex ***
configure: *** These plugins will not be built: speex

configure: *** checking feature: taglib tagging library ***
configure: *** for plug-ins: taglib ***
configure: *** These plugins will not be built: taglib

configure: *** checking feature: twolame ***
configure: *** for plug-ins: twolame ***
configure: *** These plugins will not be built: twolame

configure: *** checking feature: VPX decoder ***
configure: *** for plug-ins: vpx ***
configure: *** These plugins will not be built: vpx

configure: *** checking feature: wavpack plug-in ***
configure: *** for plug-ins: wavpack ***
configure: *** These plugins will not be built: wavpack

configure: *** checking feature: zlib support for qtdemux/matroska ***

configure: *** checking feature: bz2 library for matroska  ***
checking to see if compiler understands -fvisibility=hidden... yes
checking to see if c++ compiler understands -fvisibility=hidden... yes
checking to see if compiler understands -fno-strict-aliasing... yes
checking that generated files are newer than configure... done
configure: creating ./config.status
config.status: creating Makefile
config.status: creating gst/Makefile
config.status: creating gst/alpha/Makefile
config.status: creating gst/apetag/Makefile
config.status: creating gst/audiofx/Makefile
config.status: creating gst/audioparsers/Makefile
config.status: creating gst/auparse/Makefile
config.status: creating gst/autodetect/Makefile
config.status: creating gst/avi/Makefile
config.status: creating gst/cutter/Makefile
config.status: creating gst/deinterlace/Makefile
config.status: creating gst/dtmf/Makefile
config.status: creating gst/debugutils/Makefile
config.status: creating gst/effectv/Makefile
config.status: creating gst/equalizer/Makefile
config.status: creating gst/flv/Makefile
config.status: creating gst/goom/Makefile
config.status: creating gst/goom2k1/Makefile
config.status: creating gst/id3demux/Makefile
config.status: creating gst/icydemux/Makefile
config.status: creating gst/imagefreeze/Makefile
config.status: creating gst/interleave/Makefile
config.status: creating gst/isomp4/Makefile
config.status: creating gst/law/Makefile
config.status: creating gst/level/Makefile
config.status: creating gst/matroska/Makefile
config.status: creating gst/monoscope/Makefile
config.status: creating gst/multifile/Makefile
config.status: creating gst/multipart/Makefile
config.status: creating gst/replaygain/Makefile
config.status: creating gst/rtp/Makefile
config.status: creating gst/rtpmanager/Makefile
config.status: creating gst/rtsp/Makefile
config.status: creating gst/shapewipe/Makefile
config.status: creating gst/smpte/Makefile
config.status: creating gst/spectrum/Makefile
config.status: creating gst/udp/Makefile
config.status: creating gst/videobox/Makefile
config.status: creating gst/videocrop/Makefile
config.status: creating gst/videofilter/Makefile
config.status: creating gst/videomixer/Makefile
config.status: creating gst/wavenc/Makefile
config.status: creating gst/wavparse/Makefile
config.status: creating gst/flx/Makefile
config.status: creating gst/y4m/Makefile
config.status: creating ext/Makefile
config.status: creating ext/aalib/Makefile
config.status: creating ext/cairo/Makefile
config.status: creating ext/dv/Makefile
config.status: creating ext/flac/Makefile
config.status: creating ext/gdk_pixbuf/Makefile
config.status: creating ext/gtk/Makefile
config.status: creating ext/jack/Makefile
config.status: creating ext/jpeg/Makefile
config.status: creating ext/lame/Makefile
config.status: creating ext/libcaca/Makefile
config.status: creating ext/libpng/Makefile
config.status: creating ext/mpg123/Makefile
config.status: creating ext/pulse/Makefile
config.status: creating ext/qt/Makefile
config.status: creating ext/raw1394/Makefile
config.status: creating ext/shout2/Makefile
config.status: creating ext/soup/Makefile
config.status: creating ext/speex/Makefile
config.status: creating ext/taglib/Makefile
config.status: creating ext/twolame/Makefile
config.status: creating ext/vpx/Makefile
config.status: creating ext/wavpack/Makefile
config.status: creating sys/Makefile
config.status: creating sys/directsound/Makefile
config.status: creating sys/oss/Makefile
config.status: creating sys/oss4/Makefile
config.status: creating sys/osxaudio/Makefile
config.status: creating sys/osxvideo/Makefile
config.status: creating sys/v4l2/Makefile
config.status: creating sys/waveform/Makefile
config.status: creating sys/ximage/Makefile
config.status: creating po/Makefile.in
config.status: creating tests/Makefile
config.status: creating tests/check/Makefile
config.status: creating tests/examples/Makefile
config.status: creating tests/examples/audiofx/Makefile
config.status: creating tests/examples/cairo/Makefile
config.status: creating tests/examples/equalizer/Makefile
config.status: creating tests/examples/gtk/Makefile
config.status: creating tests/examples/jack/Makefile
config.status: creating tests/examples/level/Makefile
config.status: creating tests/examples/rtp/Makefile
config.status: creating tests/examples/rtsp/Makefile
config.status: creating tests/examples/shapewipe/Makefile
config.status: creating tests/examples/spectrum/Makefile
config.status: creating tests/examples/v4l2/Makefile
config.status: creating tests/files/Makefile
config.status: creating tests/icles/Makefile
config.status: creating common/Makefile
config.status: creating common/m4/Makefile
config.status: creating m4/Makefile
config.status: creating docs/Makefile
config.status: creating docs/plugins/Makefile
config.status: creating docs/version.entities
config.status: creating pkgconfig/Makefile
config.status: creating pkgconfig/gstreamer-plugins-good-uninstalled.pc
config.status: creating config.h
config.status: executing depfiles commands
config.status: executing libtool commands
config.status: executing po-directories commands
config.status: creating po/POTFILES
config.status: creating po/Makefile
config.status: executing _stdint.h commands
config.status: creating _stdint.h : _GST_PLUGINS_GOOD__STDINT_H
configure: *** Plug-ins without external dependencies that will be built:
	alpha
	apetag
	audiofx
	audioparsers
	auparse
	autodetect
	avi
	cutter
	debugutils
	deinterlace
	dtmf
	effectv
	equalizer
	flv
	flx
	goom
	goom2k1
	icydemux
	id3demux
	imagefreeze
	interleave
	isomp4
	law
	level
	matroska
	multifile
	multipart
	replaygain
	rtp
	rtpmanager
	rtsp
	shapewipe
	smpte
	spectrum
	udp
	videobox
	videocrop
	videofilter
	videomixer
	wavenc
	wavparse
	y4m

configure: *** Plug-ins without external dependencies that will NOT be built:
	monoscope

configure: *** Plug-ins that have NOT been ported:

configure: *** Plug-ins with dependencies that will be built:
	lame

configure: *** Plug-ins with dependencies that will NOT be built:
	1394
	aasink
	cacasink
	cairo
	directsoundsink
	dv
	flac
	gdkpixbuf
	gtk
	jack
	jpeg
	mpg123
	oss4
	ossaudio
	osxaudio
	osxvideosink
	png
	pulseaudio
	qt
	shout2
	souphttpsrc
	speex
	taglib
	twolame
	video4linux2
	vpx
	waveformsink
	wavpack
	ximagesrc

configure: *** Orc acceleration disabled by --disable-orc.  Slower code paths
               will be used.

>>> Source configured.
>>> Compiling source in /tmp/portage/media-plugins/gst-plugins-lame-1.16.2/work/gst-plugins-good-1.16.2 ...
 * abi_x86_64.amd64: running multilib-minimal_abi_src_compile
 * Building external plugin in lame...
make -j12 -l12 -C ext/lame 
make: Entering directory '/tmp/portage/media-plugins/gst-plugins-lame-1.16.2/work/gst-plugins-good-1.16.2-abi_x86_64.amd64/ext/lame'
/bin/sh ../../libtool  --tag=CC   --mode=compile x86_64-pc-linux-gnu-gcc -DHAVE_CONFIG_H -I. -I/tmp/portage/media-plugins/gst-plugins-lame-1.16.2/work/gst-plugins-good-1.16.2/ext/lame -I../..    -pthread -I/usr/include/gstreamer-1.0 -I/usr/lib64/libffi/include -I/usr/include/glib-2.0 -I/usr/lib64/glib-2.0/include -pthread -I/usr/include/gstreamer-1.0 -I/usr/lib64/libffi/include -I/usr/include/glib-2.0 -I/usr/lib64/glib-2.0/include -I/tmp/portage/media-plugins/gst-plugins-lame-1.16.2/work/gst-plugins-good-1.16.2/gst-libs -pthread -I/usr/include/gstreamer-1.0 -I/usr/lib64/libffi/include -I/usr/include/glib-2.0 -I/usr/lib64/glib-2.0/include -DGST_USE_UNSTABLE_API -fno-strict-aliasing  -DG_THREADS_MANDATORY -DG_DISABLE_CAST_CHECKS -Wall -Wdeclaration-after-statement -Wvla -Wpointer-arith -Wmissing-declarations -Wmissing-prototypes -Wredundant-decls -Wwrite-strings -Wold-style-definition -Waggregate-return -Winit-self -Wmissing-include-dirs -Waddress -Wno-multichar -Wnested-externs   -g    -fvisibility=hidden -DGSTLAME_PRESET -DHAVE_LAME_SET_VBR_QUALITY -march=znver2 -Ofast -pipe -g0 -fgraphite-identity -floop-interchange -floop-nest-optimize -floop-parallelize-all -ftree-parallelize-loops=12 -ftree-vectorize -fdevirtualize-at-ltrans -fipa-pta -fno-semantic-interposition -flto=12 -fno-plt -falign-functions=32 -fno-stack-protector -fno-stack-clash-protection -fstack-check=no -fno-stack-check -fuse-linker-plugin -Wl,-O4 -Wl,-O4,--sort-common,--as-needed,-z,norelro,-z,now -c -o libgstlame_la-gstlamemp3enc.lo `test -f 'gstlamemp3enc.c' || echo '/tmp/portage/media-plugins/gst-plugins-lame-1.16.2/work/gst-plugins-good-1.16.2/ext/lame/'`gstlamemp3enc.c
/bin/sh ../../libtool  --tag=CC   --mode=compile x86_64-pc-linux-gnu-gcc -DHAVE_CONFIG_H -I. -I/tmp/portage/media-plugins/gst-plugins-lame-1.16.2/work/gst-plugins-good-1.16.2/ext/lame -I../..    -pthread -I/usr/include/gstreamer-1.0 -I/usr/lib64/libffi/include -I/usr/include/glib-2.0 -I/usr/lib64/glib-2.0/include -pthread -I/usr/include/gstreamer-1.0 -I/usr/lib64/libffi/include -I/usr/include/glib-2.0 -I/usr/lib64/glib-2.0/include -I/tmp/portage/media-plugins/gst-plugins-lame-1.16.2/work/gst-plugins-good-1.16.2/gst-libs -pthread -I/usr/include/gstreamer-1.0 -I/usr/lib64/libffi/include -I/usr/include/glib-2.0 -I/usr/lib64/glib-2.0/include -DGST_USE_UNSTABLE_API -fno-strict-aliasing  -DG_THREADS_MANDATORY -DG_DISABLE_CAST_CHECKS -Wall -Wdeclaration-after-statement -Wvla -Wpointer-arith -Wmissing-declarations -Wmissing-prototypes -Wredundant-decls -Wwrite-strings -Wold-style-definition -Waggregate-return -Winit-self -Wmissing-include-dirs -Waddress -Wno-multichar -Wnested-externs   -g    -fvisibility=hidden -DGSTLAME_PRESET -DHAVE_LAME_SET_VBR_QUALITY -march=znver2 -Ofast -pipe -g0 -fgraphite-identity -floop-interchange -floop-nest-optimize -floop-parallelize-all -ftree-parallelize-loops=12 -ftree-vectorize -fdevirtualize-at-ltrans -fipa-pta -fno-semantic-interposition -flto=12 -fno-plt -falign-functions=32 -fno-stack-protector -fno-stack-clash-protection -fstack-check=no -fno-stack-check -fuse-linker-plugin -Wl,-O4 -Wl,-O4,--sort-common,--as-needed,-z,norelro,-z,now -c -o libgstlame_la-plugin.lo `test -f 'plugin.c' || echo '/tmp/portage/media-plugins/gst-plugins-lame-1.16.2/work/gst-plugins-good-1.16.2/ext/lame/'`plugin.c
libtool: compile:  x86_64-pc-linux-gnu-gcc -DHAVE_CONFIG_H -I. -I/tmp/portage/media-plugins/gst-plugins-lame-1.16.2/work/gst-plugins-good-1.16.2/ext/lame -I../.. -pthread -I/usr/include/gstreamer-1.0 -I/usr/lib64/libffi/include -I/usr/include/glib-2.0 -I/usr/lib64/glib-2.0/include -pthread -I/usr/include/gstreamer-1.0 -I/usr/lib64/libffi/include -I/usr/include/glib-2.0 -I/usr/lib64/glib-2.0/include -I/tmp/portage/media-plugins/gst-plugins-lame-1.16.2/work/gst-plugins-good-1.16.2/gst-libs -pthread -I/usr/include/gstreamer-1.0 -I/usr/lib64/libffi/include -I/usr/include/glib-2.0 -I/usr/lib64/glib-2.0/include -DGST_USE_UNSTABLE_API -fno-strict-aliasing -DG_THREADS_MANDATORY -DG_DISABLE_CAST_CHECKS -Wall -Wdeclaration-after-statement -Wvla -Wpointer-arith -Wmissing-declarations -Wmissing-prototypes -Wredundant-decls -Wwrite-strings -Wold-style-definition -Waggregate-return -Winit-self -Wmissing-include-dirs -Waddress -Wno-multichar -Wnested-externs -g -fvisibility=hidden -DGSTLAME_PRESET -DHAVE_LAME_SET_VBR_QUALITY -march=znver2 -Ofast -pipe -g0 -fgraphite-identity -floop-interchange -floop-nest-optimize -floop-parallelize-all -ftree-parallelize-loops=12 -ftree-vectorize -fdevirtualize-at-ltrans -fipa-pta -fno-semantic-interposition -flto=12 -fno-plt -falign-functions=32 -fno-stack-protector -fno-stack-clash-protection -fstack-check=no -fno-stack-check -fuse-linker-plugin -Wl,-O4 -Wl,-O4,--sort-common,--as-needed,-z,norelro,-z,now -c /tmp/portage/media-plugins/gst-plugins-lame-1.16.2/work/gst-plugins-good-1.16.2/ext/lame/plugin.c  -fPIC -DPIC -o .libs/libgstlame_la-plugin.o
libtool: compile:  x86_64-pc-linux-gnu-gcc -DHAVE_CONFIG_H -I. -I/tmp/portage/media-plugins/gst-plugins-lame-1.16.2/work/gst-plugins-good-1.16.2/ext/lame -I../.. -pthread -I/usr/include/gstreamer-1.0 -I/usr/lib64/libffi/include -I/usr/include/glib-2.0 -I/usr/lib64/glib-2.0/include -pthread -I/usr/include/gstreamer-1.0 -I/usr/lib64/libffi/include -I/usr/include/glib-2.0 -I/usr/lib64/glib-2.0/include -I/tmp/portage/media-plugins/gst-plugins-lame-1.16.2/work/gst-plugins-good-1.16.2/gst-libs -pthread -I/usr/include/gstreamer-1.0 -I/usr/lib64/libffi/include -I/usr/include/glib-2.0 -I/usr/lib64/glib-2.0/include -DGST_USE_UNSTABLE_API -fno-strict-aliasing -DG_THREADS_MANDATORY -DG_DISABLE_CAST_CHECKS -Wall -Wdeclaration-after-statement -Wvla -Wpointer-arith -Wmissing-declarations -Wmissing-prototypes -Wredundant-decls -Wwrite-strings -Wold-style-definition -Waggregate-return -Winit-self -Wmissing-include-dirs -Waddress -Wno-multichar -Wnested-externs -g -fvisibility=hidden -DGSTLAME_PRESET -DHAVE_LAME_SET_VBR_QUALITY -march=znver2 -Ofast -pipe -g0 -fgraphite-identity -floop-interchange -floop-nest-optimize -floop-parallelize-all -ftree-parallelize-loops=12 -ftree-vectorize -fdevirtualize-at-ltrans -fipa-pta -fno-semantic-interposition -flto=12 -fno-plt -falign-functions=32 -fno-stack-protector -fno-stack-clash-protection -fstack-check=no -fno-stack-check -fuse-linker-plugin -Wl,-O4 -Wl,-O4,--sort-common,--as-needed,-z,norelro,-z,now -c /tmp/portage/media-plugins/gst-plugins-lame-1.16.2/work/gst-plugins-good-1.16.2/ext/lame/gstlamemp3enc.c  -fPIC -DPIC -o .libs/libgstlame_la-gstlamemp3enc.o
/bin/sh ../../libtool  --tag=CC   --mode=link x86_64-pc-linux-gnu-gcc -pthread -I/usr/include/gstreamer-1.0 -I/usr/lib64/libffi/include -I/usr/include/glib-2.0 -I/usr/lib64/glib-2.0/include -pthread -I/usr/include/gstreamer-1.0 -I/usr/lib64/libffi/include -I/usr/include/glib-2.0 -I/usr/lib64/glib-2.0/include -I/tmp/portage/media-plugins/gst-plugins-lame-1.16.2/work/gst-plugins-good-1.16.2/gst-libs -pthread -I/usr/include/gstreamer-1.0 -I/usr/lib64/libffi/include -I/usr/include/glib-2.0 -I/usr/lib64/glib-2.0/include -DGST_USE_UNSTABLE_API -fno-strict-aliasing  -DG_THREADS_MANDATORY -DG_DISABLE_CAST_CHECKS -Wall -Wdeclaration-after-statement -Wvla -Wpointer-arith -Wmissing-declarations -Wmissing-prototypes -Wredundant-decls -Wwrite-strings -Wold-style-definition -Waggregate-return -Winit-self -Wmissing-include-dirs -Waddress -Wno-multichar -Wnested-externs   -g    -fvisibility=hidden -DGSTLAME_PRESET -DHAVE_LAME_SET_VBR_QUALITY -march=znver2 -Ofast -pipe -g0 -fgraphite-identity -floop-interchange -floop-nest-optimize -floop-parallelize-all -ftree-parallelize-loops=12 -ftree-vectorize -fdevirtualize-at-ltrans -fipa-pta -fno-semantic-interposition -flto=12 -fno-plt -falign-functions=32 -fno-stack-protector -fno-stack-clash-protection -fstack-check=no -fno-stack-check -fuse-linker-plugin -Wl,-O4 -Wl,-O4,--sort-common,--as-needed,-z,norelro,-z,now -module -avoid-version -no-undefined -Wl,-Bsymbolic-functions -Wl,-O4,--sort-common,--as-needed,-z,norelro,-z,now -march=znver2 -Ofast -pipe -g0 -fgraphite-identity -floop-interchange -floop-nest-optimize -floop-parallelize-all -ftree-parallelize-loops=12 -ftree-vectorize -fdevirtualize-at-ltrans -fipa-pta -fno-semantic-interposition -flto=12 -fno-plt -falign-functions=32 -fno-stack-protector -fno-stack-clash-protection -fstack-check=no -fno-stack-check -fuse-linker-plugin -Wl,-O4 -o libgstlame.la -rpath /usr/lib64/gstreamer-1.0 libgstlame_la-gstlamemp3enc.lo libgstlame_la-plugin.lo -lgstreamer-1.0 -lgobject-2.0 -lglib-2.0 -lgstaudio-1.0 -lgstbase-1.0 -lgstreamer-1.0 -lgobject-2.0 -lglib-2.0 -lgstreamer-1.0 -lgobject-2.0 -lglib-2.0 -lmp3lame -lm 
libtool: link: x86_64-pc-linux-gnu-gcc -shared  -fPIC -DPIC  .libs/libgstlame_la-gstlamemp3enc.o .libs/libgstlame_la-plugin.o   -lgstaudio-1.0 -lgstbase-1.0 -lgstreamer-1.0 -lgobject-2.0 -lglib-2.0 -lmp3lame -lm  -pthread -pthread -pthread -g -march=znver2 -Ofast -g0 -flto=12 -fuse-linker-plugin -Wl,-O4 -Wl,-O4 -Wl,--sort-common -Wl,--as-needed -Wl,-z -Wl,norelro -Wl,-z -Wl,now -Wl,-Bsymbolic-functions -Wl,-O4 -Wl,--sort-common -Wl,--as-needed -Wl,-z -Wl,norelro -Wl,-z -Wl,now -march=znver2 -Ofast -g0 -flto=12 -fuse-linker-plugin -Wl,-O4   -pthread -Wl,-soname -Wl,libgstlame.so -o .libs/libgstlame.so
libtool: link: ( cd ".libs" && rm -f "libgstlame.la" && ln -s "../libgstlame.la" "libgstlame.la" )
make: Leaving directory '/tmp/portage/media-plugins/gst-plugins-lame-1.16.2/work/gst-plugins-good-1.16.2-abi_x86_64.amd64/ext/lame'
>>> Source compiled.
 * Skipping make test/check due to ebuild restriction.
>>> Test phase [disabled because of RESTRICT=test]: media-plugins/gst-plugins-lame-1.16.2

>>> Install media-plugins/gst-plugins-lame-1.16.2 into /tmp/portage/media-plugins/gst-plugins-lame-1.16.2/image/
 * abi_x86_64.amd64: running multilib-minimal_abi_src_install
 * Building external plugin in lame...
make -j12 -l12 -C ext/lame DESTDIR=/tmp/portage/media-plugins/gst-plugins-lame-1.16.2/image/ install 
make: Entering directory '/tmp/portage/media-plugins/gst-plugins-lame-1.16.2/work/gst-plugins-good-1.16.2-abi_x86_64.amd64/ext/lame'
make[1]: Entering directory '/tmp/portage/media-plugins/gst-plugins-lame-1.16.2/work/gst-plugins-good-1.16.2-abi_x86_64.amd64/ext/lame'
make[1]: Nothing to be done for 'install-exec-am'.
 /bin/mkdir -p '/tmp/portage/media-plugins/gst-plugins-lame-1.16.2/image//usr/lib64/gstreamer-1.0'
 /bin/sh ../../libtool   --mode=install /tmp/portage/._portage_reinstall_.6v605k_b/bin/ebuild-helpers/xattr/install -c   libgstlame.la '/tmp/portage/media-plugins/gst-plugins-lame-1.16.2/image//usr/lib64/gstreamer-1.0'
libtool: install: /tmp/portage/._portage_reinstall_.6v605k_b/bin/ebuild-helpers/xattr/install -c .libs/libgstlame.so /tmp/portage/media-plugins/gst-plugins-lame-1.16.2/image//usr/lib64/gstreamer-1.0/libgstlame.so
libtool: install: /tmp/portage/._portage_reinstall_.6v605k_b/bin/ebuild-helpers/xattr/install -c .libs/libgstlame.lai /tmp/portage/media-plugins/gst-plugins-lame-1.16.2/image//usr/lib64/gstreamer-1.0/libgstlame.la
libtool: warning: remember to run 'libtool --finish /usr/lib64/gstreamer-1.0'
make[1]: Leaving directory '/tmp/portage/media-plugins/gst-plugins-lame-1.16.2/work/gst-plugins-good-1.16.2-abi_x86_64.amd64/ext/lame'
make: Leaving directory '/tmp/portage/media-plugins/gst-plugins-lame-1.16.2/work/gst-plugins-good-1.16.2-abi_x86_64.amd64/ext/lame'
 * Building external plugin in lame...
 * Removing unnecessary /usr/lib64/gstreamer-1.0/libgstlame.la (module)
>>> Completed installing media-plugins/gst-plugins-lame-1.16.2 into /tmp/portage/media-plugins/gst-plugins-lame-1.16.2/image/

 * Final size of build directory: 44804 KiB (43.7 MiB)
 * Final size of installed tree:     56 KiB

strip: x86_64-pc-linux-gnu-strip --strip-unneeded -N __gentoo_check_ldflags__ -R .comment -R .GCC.command.line -R .note.gnu.gold-version
   /usr/lib64/gstreamer-1.0/libgstlame.so
./
./usr/
./usr/lib64/
./usr/lib64/gstreamer-1.0/
./usr/lib64/gstreamer-1.0/libgstlame.so
>>> Done.
 * checking 1 files for package collisions
>>> Merging media-plugins/gst-plugins-lame-1.16.2 to /
 * removing unneeded *.la files
--- /usr/
--- /usr/lib64/
--- /usr/lib64/gstreamer-1.0/
>>> /usr/lib64/gstreamer-1.0/libgstlame.so
>>> media-plugins/gst-plugins-lame-1.16.2 merged.
>>> Regenerating /etc/ld.so.cache...
