 * Package:    media-sound/cdparanoia-3.10.2-r7
 * Repository: gentoo
 * Maintainer: sound@gentoo.org
 * USE:        abi_x86_64 amd64 elibc_glibc kernel_linux userland_GNU
 * FEATURES:   ccache network-sandbox preserve-libs sandbox userpriv usersandbox
 * /etc/portage/package.cflags/ltoworkarounds.conf -> */*: *FLAGS+=-Wl,-O4 *FLAGS-=-Wl,-O1
 * FEATURES='assume-digests binpkg-docompress binpkg-dostrip binpkg-logs binpkg-multi-instance buildpkg ccache cgroup compress-index config-protect-if-modified distlocks fixlafiles ipc-sandbox merge-sync multilib-strict network-sandbox news nodoc parallel-fetch parallel-install pid-sandbox preserve-libs qa-unresolved-soname-deps sandbox sfperms strict strict-keepdir unknown-features-warn unmerge-logs unmerge-orphans userfetch userpriv usersandbox usersync xattr'
 * CFLAGS='-march=znver2 -pipe -g0 -O3 -fgraphite-identity -floop-nest-optimize -fdevirtualize-at-ltrans -fipa-pta -fno-semantic-interposition -flto=12 -fno-plt -fno-signed-zeros -fno-trapping-math -fassociative-math -freciprocal-math -fno-math-errno -ffinite-math-only -fno-rounding-math -fno-signaling-nans -fcx-limited-range -fexcess-precision=fast -falign-functions=32 -fno-stack-protector -fno-stack-clash-protection -fstack-check=no -fno-stack-check -fuse-linker-plugin -Wl,-O4 -Wl,--as-needed -Wl,-lpthread -Wl,-lgomp -Wl,-z,norelro -Wl,-z,now -Wl,--sort-common -s'
 * CXXFLAGS='-march=znver2 -pipe -g0 -O3 -fgraphite-identity -floop-nest-optimize -fdevirtualize-at-ltrans -fipa-pta -fno-semantic-interposition -flto=12 -fno-plt -fno-signed-zeros -fno-trapping-math -fassociative-math -freciprocal-math -fno-math-errno -ffinite-math-only -fno-rounding-math -fno-signaling-nans -fcx-limited-range -fexcess-precision=fast -falign-functions=32 -fno-stack-protector -fno-stack-clash-protection -fstack-check=no -fno-stack-check -fuse-linker-plugin -Wl,-O4 -Wl,--as-needed -Wl,-lpthread -Wl,-lgomp -Wl,-z,norelro -Wl,-z,now -Wl,--sort-common -s'
 * FFLAGS='-march=znver2 -pipe -g0 -O3 -fgraphite-identity -floop-nest-optimize -fdevirtualize-at-ltrans -fipa-pta -fno-semantic-interposition -flto=12 -fno-plt -fno-signed-zeros -fno-trapping-math -fassociative-math -freciprocal-math -fno-math-errno -ffinite-math-only -fno-rounding-math -fno-signaling-nans -fcx-limited-range -fexcess-precision=fast -falign-functions=32 -fno-stack-protector -fno-stack-clash-protection -fstack-check=no -fno-stack-check -fuse-linker-plugin -Wl,-O4 -Wl,--as-needed -Wl,-lpthread -Wl,-lgomp -Wl,-z,norelro -Wl,-z,now -Wl,--sort-common -s'
 * FCFLAGS='-march=znver2 -pipe -g0 -O3 -fgraphite-identity -floop-nest-optimize -fdevirtualize-at-ltrans -fipa-pta -fno-semantic-interposition -flto=12 -fno-plt -fno-signed-zeros -fno-trapping-math -fassociative-math -freciprocal-math -fno-math-errno -ffinite-math-only -fno-rounding-math -fno-signaling-nans -fcx-limited-range -fexcess-precision=fast -falign-functions=32 -fno-stack-protector -fno-stack-clash-protection -fstack-check=no -fno-stack-check -fuse-linker-plugin -Wl,-O4 -Wl,--as-needed -Wl,-lpthread -Wl,-lgomp -Wl,-z,norelro -Wl,-z,now -Wl,--sort-common -s'
 * F77FLAGS='-march=znver2 -pipe -g0 -O3 -fgraphite-identity -floop-nest-optimize -fdevirtualize-at-ltrans -fipa-pta -fno-semantic-interposition -flto=12 -fno-plt -fno-signed-zeros -fno-trapping-math -fassociative-math -freciprocal-math -fno-math-errno -ffinite-math-only -fno-rounding-math -fno-signaling-nans -fcx-limited-range -fexcess-precision=fast -falign-functions=32 -fno-stack-protector -fno-stack-clash-protection -fstack-check=no -fno-stack-check -fuse-linker-plugin -Wl,-O4 -Wl,--as-needed -Wl,-lpthread -Wl,-lgomp -Wl,-z,norelro -Wl,-z,now -Wl,--sort-common -s'
 * LDFLAGS='-march=znver2 -pipe -g0 -O3 -fgraphite-identity -floop-nest-optimize -fdevirtualize-at-ltrans -fipa-pta -fno-semantic-interposition -flto=12 -fno-plt -fno-signed-zeros -fno-trapping-math -fassociative-math -freciprocal-math -fno-math-errno -ffinite-math-only -fno-rounding-math -fno-signaling-nans -fcx-limited-range -fexcess-precision=fast -falign-functions=32 -fno-stack-protector -fno-stack-clash-protection -fstack-check=no -fno-stack-check -fuse-linker-plugin -Wl,-O4 -Wl,--as-needed -Wl,-lpthread -Wl,-lgomp -Wl,-z,norelro -Wl,-z,now -Wl,--sort-common -s'
 * MAKEOPTS='-j12 -l12'
 * gcc () 11.0.0 20200601 (experimental)
 * g++ () 11.0.0 20200601 (experimental)
 * GNU ld (Gentoo 2.34 p4) 2.34.0
 * Linux ryzen.gnum.org 5.4.36 #1 SMP Thu Apr 30 04:38:28 UTC 2020 x86_64 AMD Ryzen 5 3600 6-Core Processor AuthenticAMD GNU/Linux
media-sound/cdparanoia: 4 seconds average for 1 merge
2020-05-20T01:38:17 >>> media-sound/cdparanoia: 4 seconds
]0;emerge 14:36:00 80|586 cdparanoia 00:04 (root@ryzen.gnum.org)kemerge 14:36:00 80|586 cdparanoia 00:04 (root@ryzen.gnum.org)\>>> Unpacking source...
>>> Unpacking cdparanoia-III-10.2.src.tgz to /tmp/portage/media-sound/cdparanoia-3.10.2-r7/work
>>> Unpacking cdparanoia-3.10.2-patches.tar.xz to /tmp/portage/media-sound/cdparanoia-3.10.2-r7/work
>>> Source unpacked in /tmp/portage/media-sound/cdparanoia-3.10.2-r7/work
>>> Preparing source in /tmp/portage/media-sound/cdparanoia-3.10.2-r7/work/cdparanoia-III-10.2 ...
 * Applying 010_all_build_system.patch ...
 [ ok ]
 * Applying 020_all_include_cdda_interface_h.patch ...
 [ ok ]
 * Applying 030_all_big_endian.patch ...
 [ ok ]
 * Applying 040_all_gcc43.patch ...
 [ ok ]
 * Applying 050_all_build_only_shared_libraries.patch ...
 [ ok ]
 * Applying 060_format-security.patch ...
 [ ok ]
 * Applying 061_typos-and-spelling.patch ...
 [ ok ]
 * Applying 062_ide-devices.patch ...
 [ ok ]
 * Applying 063_jpmanfix.patch ...
 [ ok ]
 * Applying 064_force-progress-bar.patch ...
 [ ok ]
 * Applying cdparanoia-missing-sys_types_h.patch ...
 [ ok ]
 * Running autoconf ...
 [ ok ]
 * Running elibtoolize in: cdparanoia-III-10.2/
 * Will copy sources from /tmp/portage/media-sound/cdparanoia-3.10.2-r7/work/cdparanoia-III-10.2
 * abi_x86_64.amd64: copying to /tmp/portage/media-sound/cdparanoia-3.10.2-r7/work/cdparanoia-III-10.2-abi_x86_64.amd64
>>> Source prepared.
>>> Configuring source in /tmp/portage/media-sound/cdparanoia-3.10.2-r7/work/cdparanoia-III-10.2 ...
 * abi_x86_64.amd64: running multilib-minimal_abi_src_configure
 * econf: updating cdparanoia-III-10.2/config.guess with /usr/share/gnuconfig/config.guess
 * econf: updating cdparanoia-III-10.2/config.sub with /usr/share/gnuconfig/config.sub
 * econf: updating cdparanoia-III-10.2-abi_x86_64.amd64/config.guess with /usr/share/gnuconfig/config.guess
 * econf: updating cdparanoia-III-10.2-abi_x86_64.amd64/config.sub with /usr/share/gnuconfig/config.sub
./configure --prefix=/usr --build=x86_64-pc-linux-gnu --host=x86_64-pc-linux-gnu --mandir=/usr/share/man --infodir=/usr/share/info --datadir=/usr/share --sysconfdir=/etc --localstatedir=/var/lib --docdir=/usr/share/doc/cdparanoia-3.10.2-r7 --htmldir=/usr/share/doc/cdparanoia-3.10.2-r7/html --libdir=/usr/lib64
checking build system type... x86_64-pc-linux-gnu
checking host system type... x86_64-pc-linux-gnu
checking for x86_64-pc-linux-gnu-ranlib... x86_64-pc-linux-gnu-ranlib
checking for ar... x86_64-pc-linux-gnu-ar
checking for install... install
checking how to run the C preprocessor... x86_64-pc-linux-gnu-gcc -E
checking for grep that handles long lines and -e... /bin/grep
checking for egrep... /bin/grep -E
checking for ANSI C header files... no
checking for sys/types.h... no
checking for sys/stat.h... no
checking for stdlib.h... no
checking for string.h... no
checking for memory.h... no
checking for strings.h... no
checking for inttypes.h... no
checking for stdint.h... no
checking for unistd.h... no
checking size of short... 2
checking size of int... 4
checking size of long... 8
checking size of long long... 8
checking for int16_t... no
checking for int32_t... no
checking linux/sbpcd.h usability... no
checking linux/sbpcd.h presence... no
checking for linux/sbpcd.h... no
checking linux/ucdrom.h usability... no
checking linux/ucdrom.h presence... no
checking for linux/ucdrom.h... no
checking whether make sets $(MAKE)... yes
checking for an ANSI C-conforming const... no
configure: creating ./config.status
config.status: creating Makefile
config.status: WARNING:  'Makefile.in' seems to ignore the --datarootdir setting
config.status: creating interface/Makefile
config.status: creating paranoia/Makefile
>>> Source configured.
>>> Compiling source in /tmp/portage/media-sound/cdparanoia-3.10.2-r7/work/cdparanoia-III-10.2 ...
 * abi_x86_64.amd64: running multilib-minimal_abi_src_compile
make -j12 -l12 'OPT=-march=znver2 -pipe -g0 -O3 -fgraphite-identity -floop-nest-optimize -fdevirtualize-at-ltrans -fipa-pta -fno-semantic-interposition -flto=12 -fno-plt -fno-signed-zeros -fno-trapping-math -fassociative-math -freciprocal-math -fno-math-errno -ffinite-math-only -fno-rounding-math -fno-signaling-nans -fcx-limited-range -fexcess-precision=fast -falign-functions=32 -fno-stack-protector -fno-stack-clash-protection -fstack-check=no -fno-stack-check -fuse-linker-plugin -Wl,-O4 -Wl,--as-needed -Wl,-lpthread -Wl,-lgomp -Wl,-z,norelro -Wl,-z,now -Wl,--sort-common -s -I/tmp/portage/media-sound/cdparanoia-3.10.2-r7/work/cdparanoia-III-10.2/interface' 
cd interface && make slib
make[1]: Entering directory '/tmp/portage/media-sound/cdparanoia-3.10.2-r7/work/cdparanoia-III-10.2-abi_x86_64.amd64/interface'
make libcdda_interface.so CFLAGS="-march=znver2 -pipe -g0 -O3 -fgraphite-identity -floop-nest-optimize -fdevirtualize-at-ltrans -fipa-pta -fno-semantic-interposition -flto=12 -fno-plt -fno-signed-zeros -fno-trapping-math -fassociative-math -freciprocal-math -fno-math-errno -ffinite-math-only -fno-rounding-math -fno-signaling-nans -fcx-limited-range -fexcess-precision=fast -falign-functions=32 -fno-stack-protector -fno-stack-clash-protection -fstack-check=no -fno-stack-check -fuse-linker-plugin -Wl,-O4 -Wl,--as-needed -Wl,-lpthread -Wl,-lgomp -Wl,-z,norelro -Wl,-z,now -Wl,--sort-common -s -I/tmp/portage/media-sound/cdparanoia-3.10.2-r7/work/cdparanoia-III-10.2/interface" 
make[2]: Entering directory '/tmp/portage/media-sound/cdparanoia-3.10.2-r7/work/cdparanoia-III-10.2-abi_x86_64.amd64/interface'
x86_64-pc-linux-gnu-gcc -march=znver2 -pipe -g0 -O3 -fgraphite-identity -floop-nest-optimize -fdevirtualize-at-ltrans -fipa-pta -fno-semantic-interposition -flto=12 -fno-plt -fno-signed-zeros -fno-trapping-math -fassociative-math -freciprocal-math -fno-math-errno -ffinite-math-only -fno-rounding-math -fno-signaling-nans -fcx-limited-range -fexcess-precision=fast -falign-functions=32 -fno-stack-protector -fno-stack-clash-protection -fstack-check=no -fno-stack-check -fuse-linker-plugin -Wl,-O4 -Wl,--as-needed -Wl,-lpthread -Wl,-lgomp -Wl,-z,norelro -Wl,-z,now -Wl,--sort-common -s -I/tmp/portage/media-sound/cdparanoia-3.10.2-r7/work/cdparanoia-III-10.2/interface -fPIC -c scan_devices.c -o scan_devices.lo
x86_64-pc-linux-gnu-gcc -march=znver2 -pipe -g0 -O3 -fgraphite-identity -floop-nest-optimize -fdevirtualize-at-ltrans -fipa-pta -fno-semantic-interposition -flto=12 -fno-plt -fno-signed-zeros -fno-trapping-math -fassociative-math -freciprocal-math -fno-math-errno -ffinite-math-only -fno-rounding-math -fno-signaling-nans -fcx-limited-range -fexcess-precision=fast -falign-functions=32 -fno-stack-protector -fno-stack-clash-protection -fstack-check=no -fno-stack-check -fuse-linker-plugin -Wl,-O4 -Wl,--as-needed -Wl,-lpthread -Wl,-lgomp -Wl,-z,norelro -Wl,-z,now -Wl,--sort-common -s -I/tmp/portage/media-sound/cdparanoia-3.10.2-r7/work/cdparanoia-III-10.2/interface -fPIC -c common_interface.c -o common_interface.lo
x86_64-pc-linux-gnu-gcc -march=znver2 -pipe -g0 -O3 -fgraphite-identity -floop-nest-optimize -fdevirtualize-at-ltrans -fipa-pta -fno-semantic-interposition -flto=12 -fno-plt -fno-signed-zeros -fno-trapping-math -fassociative-math -freciprocal-math -fno-math-errno -ffinite-math-only -fno-rounding-math -fno-signaling-nans -fcx-limited-range -fexcess-precision=fast -falign-functions=32 -fno-stack-protector -fno-stack-clash-protection -fstack-check=no -fno-stack-check -fuse-linker-plugin -Wl,-O4 -Wl,--as-needed -Wl,-lpthread -Wl,-lgomp -Wl,-z,norelro -Wl,-z,now -Wl,--sort-common -s -I/tmp/portage/media-sound/cdparanoia-3.10.2-r7/work/cdparanoia-III-10.2/interface -fPIC -c cooked_interface.c -o cooked_interface.lo
x86_64-pc-linux-gnu-gcc -march=znver2 -pipe -g0 -O3 -fgraphite-identity -floop-nest-optimize -fdevirtualize-at-ltrans -fipa-pta -fno-semantic-interposition -flto=12 -fno-plt -fno-signed-zeros -fno-trapping-math -fassociative-math -freciprocal-math -fno-math-errno -ffinite-math-only -fno-rounding-math -fno-signaling-nans -fcx-limited-range -fexcess-precision=fast -falign-functions=32 -fno-stack-protector -fno-stack-clash-protection -fstack-check=no -fno-stack-check -fuse-linker-plugin -Wl,-O4 -Wl,--as-needed -Wl,-lpthread -Wl,-lgomp -Wl,-z,norelro -Wl,-z,now -Wl,--sort-common -s -I/tmp/portage/media-sound/cdparanoia-3.10.2-r7/work/cdparanoia-III-10.2/interface -fPIC -c interface.c -o interface.lo
x86_64-pc-linux-gnu-gcc -march=znver2 -pipe -g0 -O3 -fgraphite-identity -floop-nest-optimize -fdevirtualize-at-ltrans -fipa-pta -fno-semantic-interposition -flto=12 -fno-plt -fno-signed-zeros -fno-trapping-math -fassociative-math -freciprocal-math -fno-math-errno -ffinite-math-only -fno-rounding-math -fno-signaling-nans -fcx-limited-range -fexcess-precision=fast -falign-functions=32 -fno-stack-protector -fno-stack-clash-protection -fstack-check=no -fno-stack-check -fuse-linker-plugin -Wl,-O4 -Wl,--as-needed -Wl,-lpthread -Wl,-lgomp -Wl,-z,norelro -Wl,-z,now -Wl,--sort-common -s -I/tmp/portage/media-sound/cdparanoia-3.10.2-r7/work/cdparanoia-III-10.2/interface -fPIC -c scsi_interface.c -o scsi_interface.lo
x86_64-pc-linux-gnu-gcc -march=znver2 -pipe -g0 -O3 -fgraphite-identity -floop-nest-optimize -fdevirtualize-at-ltrans -fipa-pta -fno-semantic-interposition -flto=12 -fno-plt -fno-signed-zeros -fno-trapping-math -fassociative-math -freciprocal-math -fno-math-errno -ffinite-math-only -fno-rounding-math -fno-signaling-nans -fcx-limited-range -fexcess-precision=fast -falign-functions=32 -fno-stack-protector -fno-stack-clash-protection -fstack-check=no -fno-stack-check -fuse-linker-plugin -Wl,-O4 -Wl,--as-needed -Wl,-lpthread -Wl,-lgomp -Wl,-z,norelro -Wl,-z,now -Wl,--sort-common -s -I/tmp/portage/media-sound/cdparanoia-3.10.2-r7/work/cdparanoia-III-10.2/interface -fPIC -c smallft.c -o smallft.lo
x86_64-pc-linux-gnu-gcc -march=znver2 -pipe -g0 -O3 -fgraphite-identity -floop-nest-optimize -fdevirtualize-at-ltrans -fipa-pta -fno-semantic-interposition -flto=12 -fno-plt -fno-signed-zeros -fno-trapping-math -fassociative-math -freciprocal-math -fno-math-errno -ffinite-math-only -fno-rounding-math -fno-signaling-nans -fcx-limited-range -fexcess-precision=fast -falign-functions=32 -fno-stack-protector -fno-stack-clash-protection -fstack-check=no -fno-stack-check -fuse-linker-plugin -Wl,-O4 -Wl,--as-needed -Wl,-lpthread -Wl,-lgomp -Wl,-z,norelro -Wl,-z,now -Wl,--sort-common -s -I/tmp/portage/media-sound/cdparanoia-3.10.2-r7/work/cdparanoia-III-10.2/interface -fPIC -c toc.c -o toc.lo
x86_64-pc-linux-gnu-gcc -march=znver2 -pipe -g0 -O3 -fgraphite-identity -floop-nest-optimize -fdevirtualize-at-ltrans -fipa-pta -fno-semantic-interposition -flto=12 -fno-plt -fno-signed-zeros -fno-trapping-math -fassociative-math -freciprocal-math -fno-math-errno -ffinite-math-only -fno-rounding-math -fno-signaling-nans -fcx-limited-range -fexcess-precision=fast -falign-functions=32 -fno-stack-protector -fno-stack-clash-protection -fstack-check=no -fno-stack-check -fuse-linker-plugin -Wl,-O4 -Wl,--as-needed -Wl,-lpthread -Wl,-lgomp -Wl,-z,norelro -Wl,-z,now -Wl,--sort-common -s -I/tmp/portage/media-sound/cdparanoia-3.10.2-r7/work/cdparanoia-III-10.2/interface -fPIC -c test_interface.c -o test_interface.lo
x86_64-pc-linux-gnu-gcc -march=znver2 -pipe -g0 -O3 -fgraphite-identity -floop-nest-optimize -fdevirtualize-at-ltrans -fipa-pta -fno-semantic-interposition -flto=12 -fno-plt -fno-signed-zeros -fno-trapping-math -fassociative-math -freciprocal-math -fno-math-errno -ffinite-math-only -fno-rounding-math -fno-signaling-nans -fcx-limited-range -fexcess-precision=fast -falign-functions=32 -fno-stack-protector -fno-stack-clash-protection -fstack-check=no -fno-stack-check -fuse-linker-plugin -Wl,-O4 -Wl,--as-needed -Wl,-lpthread -Wl,-lgomp -Wl,-z,norelro -Wl,-z,now -Wl,--sort-common -s -march=znver2 -pipe -g0 -O3 -fgraphite-identity -floop-nest-optimize -fdevirtualize-at-ltrans -fipa-pta -fno-semantic-interposition -flto=12 -fno-plt -fno-signed-zeros -fno-trapping-math -fassociative-math -freciprocal-math -fno-math-errno -ffinite-math-only -fno-rounding-math -fno-signaling-nans -fcx-limited-range -fexcess-precision=fast -falign-functions=32 -fno-stack-protector -fno-stack-clash-protection -fstack-check=no -fno-stack-check -fuse-linker-plugin -Wl,-O4 -Wl,--as-needed -Wl,-lpthread -Wl,-lgomp -Wl,-z,norelro -Wl,-z,now -Wl,--sort-common -s -fPIC -shared -o libcdda_interface.so.0.10.2 -Wl,-soname -Wl,libcdda_interface.so.0 scan_devices.lo common_interface.lo cooked_interface.lo interface.lo scsi_interface.lo smallft.lo toc.lo test_interface.lo -lm -lrt
[ -e libcdda_interface.so.0 ] || ln -s libcdda_interface.so.0.10.2 libcdda_interface.so.0
[ -e libcdda_interface.so ] || ln -s libcdda_interface.so.0.10.2 libcdda_interface.so
make[2]: Leaving directory '/tmp/portage/media-sound/cdparanoia-3.10.2-r7/work/cdparanoia-III-10.2-abi_x86_64.amd64/interface'
[ -e libcdda_interface.so.0 ] || ln -s libcdda_interface.so libcdda_interface.so.0
make[1]: Leaving directory '/tmp/portage/media-sound/cdparanoia-3.10.2-r7/work/cdparanoia-III-10.2-abi_x86_64.amd64/interface'
cd paranoia && make slib
make[1]: Entering directory '/tmp/portage/media-sound/cdparanoia-3.10.2-r7/work/cdparanoia-III-10.2-abi_x86_64.amd64/paranoia'
make libcdda_paranoia.so CFLAGS="-march=znver2 -pipe -g0 -O3 -fgraphite-identity -floop-nest-optimize -fdevirtualize-at-ltrans -fipa-pta -fno-semantic-interposition -flto=12 -fno-plt -fno-signed-zeros -fno-trapping-math -fassociative-math -freciprocal-math -fno-math-errno -ffinite-math-only -fno-rounding-math -fno-signaling-nans -fcx-limited-range -fexcess-precision=fast -falign-functions=32 -fno-stack-protector -fno-stack-clash-protection -fstack-check=no -fno-stack-check -fuse-linker-plugin -Wl,-O4 -Wl,--as-needed -Wl,-lpthread -Wl,-lgomp -Wl,-z,norelro -Wl,-z,now -Wl,--sort-common -s -I/tmp/portage/media-sound/cdparanoia-3.10.2-r7/work/cdparanoia-III-10.2/interface" 
make[2]: Entering directory '/tmp/portage/media-sound/cdparanoia-3.10.2-r7/work/cdparanoia-III-10.2-abi_x86_64.amd64/paranoia'
x86_64-pc-linux-gnu-gcc -march=znver2 -pipe -g0 -O3 -fgraphite-identity -floop-nest-optimize -fdevirtualize-at-ltrans -fipa-pta -fno-semantic-interposition -flto=12 -fno-plt -fno-signed-zeros -fno-trapping-math -fassociative-math -freciprocal-math -fno-math-errno -ffinite-math-only -fno-rounding-math -fno-signaling-nans -fcx-limited-range -fexcess-precision=fast -falign-functions=32 -fno-stack-protector -fno-stack-clash-protection -fstack-check=no -fno-stack-check -fuse-linker-plugin -Wl,-O4 -Wl,--as-needed -Wl,-lpthread -Wl,-lgomp -Wl,-z,norelro -Wl,-z,now -Wl,--sort-common -s -I/tmp/portage/media-sound/cdparanoia-3.10.2-r7/work/cdparanoia-III-10.2/interface -fPIC -c paranoia.c -o paranoia.lo
x86_64-pc-linux-gnu-gcc -march=znver2 -pipe -g0 -O3 -fgraphite-identity -floop-nest-optimize -fdevirtualize-at-ltrans -fipa-pta -fno-semantic-interposition -flto=12 -fno-plt -fno-signed-zeros -fno-trapping-math -fassociative-math -freciprocal-math -fno-math-errno -ffinite-math-only -fno-rounding-math -fno-signaling-nans -fcx-limited-range -fexcess-precision=fast -falign-functions=32 -fno-stack-protector -fno-stack-clash-protection -fstack-check=no -fno-stack-check -fuse-linker-plugin -Wl,-O4 -Wl,--as-needed -Wl,-lpthread -Wl,-lgomp -Wl,-z,norelro -Wl,-z,now -Wl,--sort-common -s -I/tmp/portage/media-sound/cdparanoia-3.10.2-r7/work/cdparanoia-III-10.2/interface -fPIC -c p_block.c -o p_block.lo
x86_64-pc-linux-gnu-gcc -march=znver2 -pipe -g0 -O3 -fgraphite-identity -floop-nest-optimize -fdevirtualize-at-ltrans -fipa-pta -fno-semantic-interposition -flto=12 -fno-plt -fno-signed-zeros -fno-trapping-math -fassociative-math -freciprocal-math -fno-math-errno -ffinite-math-only -fno-rounding-math -fno-signaling-nans -fcx-limited-range -fexcess-precision=fast -falign-functions=32 -fno-stack-protector -fno-stack-clash-protection -fstack-check=no -fno-stack-check -fuse-linker-plugin -Wl,-O4 -Wl,--as-needed -Wl,-lpthread -Wl,-lgomp -Wl,-z,norelro -Wl,-z,now -Wl,--sort-common -s -I/tmp/portage/media-sound/cdparanoia-3.10.2-r7/work/cdparanoia-III-10.2/interface -fPIC -c overlap.c -o overlap.lo
x86_64-pc-linux-gnu-gcc -march=znver2 -pipe -g0 -O3 -fgraphite-identity -floop-nest-optimize -fdevirtualize-at-ltrans -fipa-pta -fno-semantic-interposition -flto=12 -fno-plt -fno-signed-zeros -fno-trapping-math -fassociative-math -freciprocal-math -fno-math-errno -ffinite-math-only -fno-rounding-math -fno-signaling-nans -fcx-limited-range -fexcess-precision=fast -falign-functions=32 -fno-stack-protector -fno-stack-clash-protection -fstack-check=no -fno-stack-check -fuse-linker-plugin -Wl,-O4 -Wl,--as-needed -Wl,-lpthread -Wl,-lgomp -Wl,-z,norelro -Wl,-z,now -Wl,--sort-common -s -I/tmp/portage/media-sound/cdparanoia-3.10.2-r7/work/cdparanoia-III-10.2/interface -fPIC -c gap.c -o gap.lo
x86_64-pc-linux-gnu-gcc -march=znver2 -pipe -g0 -O3 -fgraphite-identity -floop-nest-optimize -fdevirtualize-at-ltrans -fipa-pta -fno-semantic-interposition -flto=12 -fno-plt -fno-signed-zeros -fno-trapping-math -fassociative-math -freciprocal-math -fno-math-errno -ffinite-math-only -fno-rounding-math -fno-signaling-nans -fcx-limited-range -fexcess-precision=fast -falign-functions=32 -fno-stack-protector -fno-stack-clash-protection -fstack-check=no -fno-stack-check -fuse-linker-plugin -Wl,-O4 -Wl,--as-needed -Wl,-lpthread -Wl,-lgomp -Wl,-z,norelro -Wl,-z,now -Wl,--sort-common -s -I/tmp/portage/media-sound/cdparanoia-3.10.2-r7/work/cdparanoia-III-10.2/interface -fPIC -c isort.c -o isort.lo
x86_64-pc-linux-gnu-gcc -march=znver2 -pipe -g0 -O3 -fgraphite-identity -floop-nest-optimize -fdevirtualize-at-ltrans -fipa-pta -fno-semantic-interposition -flto=12 -fno-plt -fno-signed-zeros -fno-trapping-math -fassociative-math -freciprocal-math -fno-math-errno -ffinite-math-only -fno-rounding-math -fno-signaling-nans -fcx-limited-range -fexcess-precision=fast -falign-functions=32 -fno-stack-protector -fno-stack-clash-protection -fstack-check=no -fno-stack-check -fuse-linker-plugin -Wl,-O4 -Wl,--as-needed -Wl,-lpthread -Wl,-lgomp -Wl,-z,norelro -Wl,-z,now -Wl,--sort-common -s -march=znver2 -pipe -g0 -O3 -fgraphite-identity -floop-nest-optimize -fdevirtualize-at-ltrans -fipa-pta -fno-semantic-interposition -flto=12 -fno-plt -fno-signed-zeros -fno-trapping-math -fassociative-math -freciprocal-math -fno-math-errno -ffinite-math-only -fno-rounding-math -fno-signaling-nans -fcx-limited-range -fexcess-precision=fast -falign-functions=32 -fno-stack-protector -fno-stack-clash-protection -fstack-check=no -fno-stack-check -fuse-linker-plugin -Wl,-O4 -Wl,--as-needed -Wl,-lpthread -Wl,-lgomp -Wl,-z,norelro -Wl,-z,now -Wl,--sort-common -s  -shared -o libcdda_paranoia.so.0.10.2 -Wl,-soname -Wl,libcdda_paranoia.so.0 paranoia.lo p_block.lo overlap.lo gap.lo isort.lo  -L ../interface -lcdda_interface
[ -e libcdda_paranoia.so.0 ] || ln -s libcdda_paranoia.so.0.10.2 libcdda_paranoia.so.0
[ -e libcdda_paranoia.so ] || ln -s libcdda_paranoia.so.0.10.2 libcdda_paranoia.so
make[2]: Leaving directory '/tmp/portage/media-sound/cdparanoia-3.10.2-r7/work/cdparanoia-III-10.2-abi_x86_64.amd64/paranoia'
make[1]: Leaving directory '/tmp/portage/media-sound/cdparanoia-3.10.2-r7/work/cdparanoia-III-10.2-abi_x86_64.amd64/paranoia'
make cdparanoia CFLAGS="-march=znver2 -pipe -g0 -O3 -fgraphite-identity -floop-nest-optimize -fdevirtualize-at-ltrans -fipa-pta -fno-semantic-interposition -flto=12 -fno-plt -fno-signed-zeros -fno-trapping-math -fassociative-math -freciprocal-math -fno-math-errno -ffinite-math-only -fno-rounding-math -fno-signaling-nans -fcx-limited-range -fexcess-precision=fast -falign-functions=32 -fno-stack-protector -fno-stack-clash-protection -fstack-check=no -fno-stack-check -fuse-linker-plugin -Wl,-O4 -Wl,--as-needed -Wl,-lpthread -Wl,-lgomp -Wl,-z,norelro -Wl,-z,now -Wl,--sort-common -s -I/tmp/portage/media-sound/cdparanoia-3.10.2-r7/work/cdparanoia-III-10.2/interface" 
make[1]: Entering directory '/tmp/portage/media-sound/cdparanoia-3.10.2-r7/work/cdparanoia-III-10.2-abi_x86_64.amd64'
x86_64-pc-linux-gnu-gcc -march=znver2 -pipe -g0 -O3 -fgraphite-identity -floop-nest-optimize -fdevirtualize-at-ltrans -fipa-pta -fno-semantic-interposition -flto=12 -fno-plt -fno-signed-zeros -fno-trapping-math -fassociative-math -freciprocal-math -fno-math-errno -ffinite-math-only -fno-rounding-math -fno-signaling-nans -fcx-limited-range -fexcess-precision=fast -falign-functions=32 -fno-stack-protector -fno-stack-clash-protection -fstack-check=no -fno-stack-check -fuse-linker-plugin -Wl,-O4 -Wl,--as-needed -Wl,-lpthread -Wl,-lgomp -Wl,-z,norelro -Wl,-z,now -Wl,--sort-common -s -I/tmp/portage/media-sound/cdparanoia-3.10.2-r7/work/cdparanoia-III-10.2/interface -c main.c
x86_64-pc-linux-gnu-gcc -march=znver2 -pipe -g0 -O3 -fgraphite-identity -floop-nest-optimize -fdevirtualize-at-ltrans -fipa-pta -fno-semantic-interposition -flto=12 -fno-plt -fno-signed-zeros -fno-trapping-math -fassociative-math -freciprocal-math -fno-math-errno -ffinite-math-only -fno-rounding-math -fno-signaling-nans -fcx-limited-range -fexcess-precision=fast -falign-functions=32 -fno-stack-protector -fno-stack-clash-protection -fstack-check=no -fno-stack-check -fuse-linker-plugin -Wl,-O4 -Wl,--as-needed -Wl,-lpthread -Wl,-lgomp -Wl,-z,norelro -Wl,-z,now -Wl,--sort-common -s -I/tmp/portage/media-sound/cdparanoia-3.10.2-r7/work/cdparanoia-III-10.2/interface -c report.c
x86_64-pc-linux-gnu-gcc -march=znver2 -pipe -g0 -O3 -fgraphite-identity -floop-nest-optimize -fdevirtualize-at-ltrans -fipa-pta -fno-semantic-interposition -flto=12 -fno-plt -fno-signed-zeros -fno-trapping-math -fassociative-math -freciprocal-math -fno-math-errno -ffinite-math-only -fno-rounding-math -fno-signaling-nans -fcx-limited-range -fexcess-precision=fast -falign-functions=32 -fno-stack-protector -fno-stack-clash-protection -fstack-check=no -fno-stack-check -fuse-linker-plugin -Wl,-O4 -Wl,--as-needed -Wl,-lpthread -Wl,-lgomp -Wl,-z,norelro -Wl,-z,now -Wl,--sort-common -s -I/tmp/portage/media-sound/cdparanoia-3.10.2-r7/work/cdparanoia-III-10.2/interface -c header.c
x86_64-pc-linux-gnu-gcc -march=znver2 -pipe -g0 -O3 -fgraphite-identity -floop-nest-optimize -fdevirtualize-at-ltrans -fipa-pta -fno-semantic-interposition -flto=12 -fno-plt -fno-signed-zeros -fno-trapping-math -fassociative-math -freciprocal-math -fno-math-errno -ffinite-math-only -fno-rounding-math -fno-signaling-nans -fcx-limited-range -fexcess-precision=fast -falign-functions=32 -fno-stack-protector -fno-stack-clash-protection -fstack-check=no -fno-stack-check -fuse-linker-plugin -Wl,-O4 -Wl,--as-needed -Wl,-lpthread -Wl,-lgomp -Wl,-z,norelro -Wl,-z,now -Wl,--sort-common -s -I/tmp/portage/media-sound/cdparanoia-3.10.2-r7/work/cdparanoia-III-10.2/interface -c buffering_write.c
x86_64-pc-linux-gnu-gcc -march=znver2 -pipe -g0 -O3 -fgraphite-identity -floop-nest-optimize -fdevirtualize-at-ltrans -fipa-pta -fno-semantic-interposition -flto=12 -fno-plt -fno-signed-zeros -fno-trapping-math -fassociative-math -freciprocal-math -fno-math-errno -ffinite-math-only -fno-rounding-math -fno-signaling-nans -fcx-limited-range -fexcess-precision=fast -falign-functions=32 -fno-stack-protector -fno-stack-clash-protection -fstack-check=no -fno-stack-check -fuse-linker-plugin -Wl,-O4 -Wl,--as-needed -Wl,-lpthread -Wl,-lgomp -Wl,-z,norelro -Wl,-z,now -Wl,--sort-common -s -I/tmp/portage/media-sound/cdparanoia-3.10.2-r7/work/cdparanoia-III-10.2/interface -c cachetest.c
x86_64-pc-linux-gnu-gcc -march=znver2 -pipe -g0 -O3 -fgraphite-identity -floop-nest-optimize -fdevirtualize-at-ltrans -fipa-pta -fno-semantic-interposition -flto=12 -fno-plt -fno-signed-zeros -fno-trapping-math -fassociative-math -freciprocal-math -fno-math-errno -ffinite-math-only -fno-rounding-math -fno-signaling-nans -fcx-limited-range -fexcess-precision=fast -falign-functions=32 -fno-stack-protector -fno-stack-clash-protection -fstack-check=no -fno-stack-check -fuse-linker-plugin -Wl,-O4 -Wl,--as-needed -Wl,-lpthread -Wl,-lgomp -Wl,-z,norelro -Wl,-z,now -Wl,--sort-common -s -I/tmp/portage/media-sound/cdparanoia-3.10.2-r7/work/cdparanoia-III-10.2/interface -march=znver2 -pipe -g0 -O3 -fgraphite-identity -floop-nest-optimize -fdevirtualize-at-ltrans -fipa-pta -fno-semantic-interposition -flto=12 -fno-plt -fno-signed-zeros -fno-trapping-math -fassociative-math -freciprocal-math -fno-math-errno -ffinite-math-only -fno-rounding-math -fno-signaling-nans -fcx-limited-range -fexcess-precision=fast -falign-functions=32 -fno-stack-protector -fno-stack-clash-protection -fstack-check=no -fno-stack-check -fuse-linker-plugin -Wl,-O4 -Wl,--as-needed -Wl,-lpthread -Wl,-lgomp -Wl,-z,norelro -Wl,-z,now -Wl,--sort-common -s -march=znver2 -pipe -g0 -O3 -fgraphite-identity -floop-nest-optimize -fdevirtualize-at-ltrans -fipa-pta -fno-semantic-interposition -flto=12 -fno-plt -fno-signed-zeros -fno-trapping-math -fassociative-math -freciprocal-math -fno-math-errno -ffinite-math-only -fno-rounding-math -fno-signaling-nans -fcx-limited-range -fexcess-precision=fast -falign-functions=32 -fno-stack-protector -fno-stack-clash-protection -fstack-check=no -fno-stack-check -fuse-linker-plugin -Wl,-O4 -Wl,--as-needed -Wl,-lpthread -Wl,-lgomp -Wl,-z,norelro -Wl,-z,now -Wl,--sort-common -s main.o report.o header.o buffering_write.o cachetest.o \
	-L/tmp/portage/media-sound/cdparanoia-3.10.2-r7/work/cdparanoia-III-10.2-abi_x86_64.amd64/paranoia -L/tmp/portage/media-sound/cdparanoia-3.10.2-r7/work/cdparanoia-III-10.2-abi_x86_64.amd64/interface \
	-o cdparanoia -lcdda_interface -lcdda_paranoia -lm -lrt
make[1]: Leaving directory '/tmp/portage/media-sound/cdparanoia-3.10.2-r7/work/cdparanoia-III-10.2-abi_x86_64.amd64'
>>> Source compiled.
>>> Test phase [not enabled]: media-sound/cdparanoia-3.10.2-r7

>>> Install media-sound/cdparanoia-3.10.2-r7 into /tmp/portage/media-sound/cdparanoia-3.10.2-r7/image
 * abi_x86_64.amd64: running multilib-minimal_abi_src_install
make -j12 -l12 DESTDIR=/tmp/portage/media-sound/cdparanoia-3.10.2-r7/image install 
install -d -m 0755 /tmp/portage/media-sound/cdparanoia-3.10.2-r7/image/usr/bin
install -m 755 ./cdparanoia /tmp/portage/media-sound/cdparanoia-3.10.2-r7/image/usr/bin
install -d -m 0755 /tmp/portage/media-sound/cdparanoia-3.10.2-r7/image/usr/share/man
install -d -m 0755 /tmp/portage/media-sound/cdparanoia-3.10.2-r7/image/usr/share/man/man1
install -m 0644 ./cdparanoia.1 /tmp/portage/media-sound/cdparanoia-3.10.2-r7/image/usr/share/man/man1
install -d -m 0755 /tmp/portage/media-sound/cdparanoia-3.10.2-r7/image/usr/include
install -m 0644 ./paranoia/cdda_paranoia.h /tmp/portage/media-sound/cdparanoia-3.10.2-r7/image/usr/include
install -d -m 0755 /tmp/portage/media-sound/cdparanoia-3.10.2-r7/image/usr/lib64
install -m 0644 ./paranoia/libcdda_paranoia.so.0.10.2 /tmp/portage/media-sound/cdparanoia-3.10.2-r7/image/usr/lib64
install -m 0644 ./paranoia/libcdda_paranoia.a /tmp/portage/media-sound/cdparanoia-3.10.2-r7/image/usr/lib64
/usr/bin/install: cannot stat './paranoia/libcdda_paranoia.a': No such file or directory
install-xattr: failed to stat ./paranoia/libcdda_paranoia.a: No such file or directory
make: [Makefile:75: install] Error 1 (ignored)
install -m 0644 ./interface/cdda_interface.h /tmp/portage/media-sound/cdparanoia-3.10.2-r7/image/usr/include
install -m 0644 ./interface/libcdda_interface.so.0.10.2 /tmp/portage/media-sound/cdparanoia-3.10.2-r7/image/usr/lib64
install -m 0644 ./interface/libcdda_interface.a /tmp/portage/media-sound/cdparanoia-3.10.2-r7/image/usr/lib64
/usr/bin/install: cannot stat './interface/libcdda_interface.a': No such file or directory
install-xattr: failed to stat ./interface/libcdda_interface.a: No such file or directory
make: [Makefile:78: install] Error 1 (ignored)
install -m 0644 ./utils.h /tmp/portage/media-sound/cdparanoia-3.10.2-r7/image/usr/include
ln -fs libcdda_interface.so.0.10.2 \
	/tmp/portage/media-sound/cdparanoia-3.10.2-r7/image/usr/lib64/libcdda_interface.so.0
ln -fs libcdda_interface.so.0.10.2 \
	/tmp/portage/media-sound/cdparanoia-3.10.2-r7/image/usr/lib64/libcdda_interface.so
ln -fs libcdda_paranoia.so.0.10.2 \
	/tmp/portage/media-sound/cdparanoia-3.10.2-r7/image/usr/lib64/libcdda_paranoia.so.0
ln -fs libcdda_paranoia.so.0.10.2 \
	/tmp/portage/media-sound/cdparanoia-3.10.2-r7/image/usr/lib64/libcdda_paranoia.so
>>> Completed installing media-sound/cdparanoia-3.10.2-r7 into /tmp/portage/media-sound/cdparanoia-3.10.2-r7/image

 * Final size of build directory: 3112 KiB (3.0 MiB)
 * Final size of installed tree:   272 KiB

making executable: /usr/lib64/libcdda_interface.so.0.10.2
making executable: /usr/lib64/libcdda_paranoia.so.0.10.2


 * QA Notice: Pre-stripped files found:
 * /usr/bin/cdparanoia-paranoia
 * /usr/lib64/libcdda_interface.so.0.10.2
 * /usr/lib64/libcdda_paranoia.so.0.10.2
./
./usr/
./usr/bin/
./usr/bin/cdparanoia-paranoia
./usr/include/
./usr/include/cdda_interface.h
./usr/include/utils.h
./usr/include/cdda_paranoia.h
./usr/share/
./usr/share/man/
./usr/share/man/man1/
./usr/share/man/man1/cdparanoia.1.bz2
./usr/share/doc/
./usr/share/doc/cdparanoia-3.10.2-r7/
./usr/share/doc/cdparanoia-3.10.2-r7/README.bz2
./usr/lib64/
./usr/lib64/libcdda_interface.so.0
./usr/lib64/libcdda_interface.so.0.10.2
./usr/lib64/libcdda_paranoia.so.0
./usr/lib64/libcdda_paranoia.so
./usr/lib64/libcdda_interface.so
./usr/lib64/libcdda_paranoia.so.0.10.2
>>> Done.
 * checking 11 files for package collisions
>>> Merging media-sound/cdparanoia-3.10.2-r7 to /
 * removing unneeded *.la files
--- /usr/
--- /usr/lib64/
>>> /usr/lib64/libcdda_paranoia.so.0.10.2
>>> /usr/lib64/libcdda_paranoia.so -> libcdda_paranoia.so.0.10.2
>>> /usr/lib64/libcdda_paranoia.so.0 -> libcdda_paranoia.so.0.10.2
>>> /usr/lib64/libcdda_interface.so.0.10.2
>>> /usr/lib64/libcdda_interface.so.0 -> libcdda_interface.so.0.10.2
--- /usr/share/
--- /usr/share/man/
--- /usr/share/man/man1/
>>> /usr/share/man/man1/cdparanoia.1.bz2
--- /usr/include/
>>> /usr/include/cdda_paranoia.h
>>> /usr/include/utils.h
>>> /usr/include/cdda_interface.h
--- /usr/bin/
>>> /usr/bin/cdparanoia-paranoia
>>> /usr/lib64/libcdda_interface.so -> libcdda_interface.so.0.10.2
>>> media-sound/cdparanoia-3.10.2-r7 merged.
>>> Regenerating /etc/ld.so.cache...
