[32;01m * [39;49;00mPackage:    media-gfx/inkscape-1.0
[32;01m * [39;49;00mRepository: gentoo
[32;01m * [39;49;00mMaintainer: zlogene@gentoo.org dilfridge@gentoo.org
[32;01m * [39;49;00mUSE:        abi_x86_64 amd64 cdr dbus elibc_glibc exif imagemagick jemalloc jpeg kernel_linux lcms openmp postscript python_single_target_python3_8 spell svg2 userland_GNU visio
[32;01m * [39;49;00mFEATURES:   ccache network-sandbox preserve-libs sandbox userpriv usersandbox
