No package files given... Grabbing a set.
--- replaced obj /usr/lib64/pkgconfig/glut.pc
--- replaced obj /usr/lib64/pkgconfig/freeglut.pc
--- replaced dir /usr/lib64/pkgconfig
--- replaced obj /usr/lib64/libglut.so.3.11.0
--- replaced sym /usr/lib64/libglut.so.3
--- replaced sym /usr/lib64/libglut.so
--- replaced obj /usr/lib64/cmake/FreeGLUT/FreeGLUTTargets.cmake
--- replaced obj /usr/lib64/cmake/FreeGLUT/FreeGLUTTargets-gentoo.cmake
--- replaced obj /usr/lib64/cmake/FreeGLUT/FreeGLUTConfigVersion.cmake
--- replaced obj /usr/lib64/cmake/FreeGLUT/FreeGLUTConfig.cmake
--- replaced dir /usr/lib64/cmake/FreeGLUT
--- replaced dir /usr/lib64/cmake
--- replaced dir /usr/lib64
--- replaced obj /usr/include/GL/glut.h
--- replaced obj /usr/include/GL/freeglut_ucall.h
--- replaced obj /usr/include/GL/freeglut_std.h
--- replaced obj /usr/include/GL/freeglut_ext.h
--- replaced obj /usr/include/GL/freeglut.h
--- replaced dir /usr/include/GL
--- replaced dir /usr/include
--- replaced dir /usr
>>> Regenerating /etc/ld.so.cache...
