No package files given... Grabbing a set.
<<<          obj /usr/share/man/man3/save_d.3.bz2
<<<          obj /usr/share/man/man3/mem_d.3.bz2
<<<          obj /usr/share/man/man3/aa_uninitmouse.3.bz2
<<<          obj /usr/share/man/man3/aa_uninitkbd.3.bz2
<<<          obj /usr/share/man/man3/aa_text.3.bz2
<<<          obj /usr/share/man/man3/aa_showmouse.3.bz2
<<<          obj /usr/share/man/man3/aa_showcursor.3.bz2
<<<          obj /usr/share/man/man3/aa_setsupported.3.bz2
<<<          obj /usr/share/man/man3/aa_setfont.3.bz2
<<<          obj /usr/share/man/man3/aa_scrwidth.3.bz2
<<<          obj /usr/share/man/man3/aa_scrheight.3.bz2
<<<          obj /usr/share/man/man3/aa_resizehandler.3.bz2
<<<          obj /usr/share/man/man3/aa_resize.3.bz2
<<<          obj /usr/share/man/man3/aa_render.3.bz2
<<<          obj /usr/share/man/man3/aa_registerfont.3.bz2
<<<          obj /usr/share/man/man3/aa_recommendlowmouse.3.bz2
<<<          obj /usr/share/man/man3/aa_recommendlowkbd.3.bz2
<<<          obj /usr/share/man/man3/aa_recommendlowdisplay.3.bz2
<<<          obj /usr/share/man/man3/aa_recommendlow.3.bz2
<<<          obj /usr/share/man/man3/aa_recommendhimouse.3.bz2
<<<          obj /usr/share/man/man3/aa_recommendhikbd.3.bz2
<<<          obj /usr/share/man/man3/aa_recommendhidisplay.3.bz2
<<<          obj /usr/share/man/man3/aa_recommendhi.3.bz2
<<<          obj /usr/share/man/man3/aa_puts.3.bz2
<<<          obj /usr/share/man/man3/aa_putpixel.3.bz2
<<<          obj /usr/share/man/man3/aa_printf.3.bz2
<<<          obj /usr/share/man/man3/aa_parseoptions.3.bz2
<<<          obj /usr/share/man/man3/aa_mouserecommended.3.bz2
<<<          obj /usr/share/man/man3/aa_mousedrivers.3.bz2
<<<          obj /usr/share/man/man3/aa_mmwidth.3.bz2
<<<          obj /usr/share/man/man3/aa_mmheight.3.bz2
<<<          obj /usr/share/man/man3/aa_kbdrecommended.3.bz2
<<<          obj /usr/share/man/man3/aa_kbddrivers.3.bz2
<<<          obj /usr/share/man/man3/aa_initmouse.3.bz2
<<<          obj /usr/share/man/man3/aa_initkbd.3.bz2
<<<          obj /usr/share/man/man3/aa_init.3.bz2
<<<          obj /usr/share/man/man3/aa_imgwidth.3.bz2
<<<          obj /usr/share/man/man3/aa_imgheight.3.bz2
<<<          obj /usr/share/man/man3/aa_image.3.bz2
<<<          obj /usr/share/man/man3/aa_hidemouse.3.bz2
<<<          obj /usr/share/man/man3/aa_hidecursor.3.bz2
<<<          obj /usr/share/man/man3/aa_help.3.bz2
<<<          obj /usr/share/man/man3/aa_gotoxy.3.bz2
<<<          obj /usr/share/man/man3/aa_getmouse.3.bz2
<<<          obj /usr/share/man/man3/aa_getkey.3.bz2
<<<          obj /usr/share/man/man3/aa_getevent.3.bz2
<<<          obj /usr/share/man/man3/aa_formats.3.bz2
<<<          obj /usr/share/man/man3/aa_fonts.3.bz2
<<<          obj /usr/share/man/man3/aa_fastrender.3.bz2
<<<          obj /usr/share/man/man3/aa_editkey.3.bz2
<<<          obj /usr/share/man/man3/aa_edit.3.bz2
<<<          obj /usr/share/man/man3/aa_drivers.3.bz2
<<<          obj /usr/share/man/man3/aa_dithernames.3.bz2
<<<          obj /usr/share/man/man3/aa_displayrecommended.3.bz2
<<<          obj /usr/share/man/man3/aa_defrenderparams.3.bz2
<<<          obj /usr/share/man/man3/aa_defparams.3.bz2
<<<          obj /usr/share/man/man3/aa_currentfont.3.bz2
<<<          obj /usr/share/man/man3/aa_createedit.3.bz2
<<<          obj /usr/share/man/man3/aa_close.3.bz2
<<<          obj /usr/share/man/man3/aa_autoinitmouse.3.bz2
<<<          obj /usr/share/man/man3/aa_autoinitkbd.3.bz2
<<<          obj /usr/share/man/man3/aa_autoinit.3.bz2
<<<          obj /usr/share/man/man3/aa_attrs.3.bz2
<<<          obj /usr/share/man/man1/aafire.1.bz2
<<<          obj /usr/share/info/aalib.info.bz2
<<<          obj /usr/share/info/aalib.info-3.bz2
<<<          obj /usr/share/info/aalib.info-2.bz2
<<<          obj /usr/share/info/aalib.info-1.bz2
<<<          obj /usr/share/aclocal/aalib.m4
<<<          obj /usr/lib64/libaa.so.1.0.4
<<<          sym /usr/lib64/libaa.so.1
<<<          sym /usr/lib64/libaa.so
<<<          obj /usr/include/aalib.h
<<<          obj /usr/bin/aatest
<<<          obj /usr/bin/aasavefont
<<<          obj /usr/bin/aalib-config
<<<          obj /usr/bin/aainfo
<<<          obj /usr/bin/aafire
--- !empty   dir /usr/share/man/man3
--- !empty   dir /usr/share/man/man1
--- !empty   dir /usr/share/man
--- !empty   dir /usr/share/info
--- !empty   dir /usr/share/aclocal
--- !empty   dir /usr/share
--- !empty   dir /usr/lib64
--- !empty   dir /usr/include
--- !empty   dir /usr/bin
--- !empty   dir /usr
>>> Regenerating /etc/ld.so.cache...
