No package files given... Grabbing a set.
--- replaced obj /usr/share/fonts/encodings/viscii1.1-1.enc.gz
--- replaced obj /usr/share/fonts/encodings/tis620-2.enc.gz
--- replaced obj /usr/share/fonts/encodings/tcvn-0.enc.gz
--- replaced obj /usr/share/fonts/encodings/suneu-greek.enc.gz
--- replaced obj /usr/share/fonts/encodings/mulelao-1.enc.gz
--- replaced obj /usr/share/fonts/encodings/mulearabic-2.enc.gz
--- replaced obj /usr/share/fonts/encodings/mulearabic-1.enc.gz
--- replaced obj /usr/share/fonts/encodings/mulearabic-0.enc.gz
--- replaced obj /usr/share/fonts/encodings/microsoft-win3.1.enc.gz
--- replaced obj /usr/share/fonts/encodings/microsoft-cp1258.enc.gz
--- replaced obj /usr/share/fonts/encodings/microsoft-cp1257.enc.gz
--- replaced obj /usr/share/fonts/encodings/microsoft-cp1256.enc.gz
--- replaced obj /usr/share/fonts/encodings/microsoft-cp1255.enc.gz
--- replaced obj /usr/share/fonts/encodings/microsoft-cp1254.enc.gz
--- replaced obj /usr/share/fonts/encodings/microsoft-cp1253.enc.gz
--- replaced obj /usr/share/fonts/encodings/microsoft-cp1252.enc.gz
--- replaced obj /usr/share/fonts/encodings/microsoft-cp1251.enc.gz
--- replaced obj /usr/share/fonts/encodings/microsoft-cp1250.enc.gz
--- replaced obj /usr/share/fonts/encodings/large/sun.unicode.india-0.enc.gz
--- replaced obj /usr/share/fonts/encodings/large/ksc5601.1992-3.enc.gz
--- replaced obj /usr/share/fonts/encodings/large/ksc5601.1987-0.enc.gz
--- replaced obj /usr/share/fonts/encodings/large/jisx0212.1990-0.enc.gz
--- replaced obj /usr/share/fonts/encodings/large/jisx0208.1990-0.enc.gz
--- replaced obj /usr/share/fonts/encodings/large/jisx0201.1976-0.enc.gz
--- replaced obj /usr/share/fonts/encodings/large/gbk-0.enc.gz
--- replaced obj /usr/share/fonts/encodings/large/gb2312.1980-0.enc.gz
--- replaced obj /usr/share/fonts/encodings/large/gb18030.2000-1.enc.gz
--- replaced obj /usr/share/fonts/encodings/large/gb18030.2000-0.enc.gz
--- replaced obj /usr/share/fonts/encodings/large/gb18030-0.enc.gz
--- replaced obj /usr/share/fonts/encodings/large/encodings.dir
--- replaced obj /usr/share/fonts/encodings/large/cns11643-3.enc.gz
--- replaced obj /usr/share/fonts/encodings/large/cns11643-2.enc.gz
--- replaced obj /usr/share/fonts/encodings/large/cns11643-1.enc.gz
--- replaced obj /usr/share/fonts/encodings/large/big5hkscs-0.enc.gz
--- replaced obj /usr/share/fonts/encodings/large/big5.eten-0.enc.gz
--- replaced dir /usr/share/fonts/encodings/large
--- replaced obj /usr/share/fonts/encodings/iso8859-6.8x.enc.gz
--- replaced obj /usr/share/fonts/encodings/iso8859-6.16.enc.gz
--- replaced obj /usr/share/fonts/encodings/iso8859-16.enc.gz
--- replaced obj /usr/share/fonts/encodings/iso8859-13.enc.gz
--- replaced obj /usr/share/fonts/encodings/iso8859-11.enc.gz
--- replaced obj /usr/share/fonts/encodings/ibm-cp866.enc.gz
--- replaced obj /usr/share/fonts/encodings/ibm-cp852.enc.gz
--- replaced obj /usr/share/fonts/encodings/ibm-cp850.enc.gz
--- replaced obj /usr/share/fonts/encodings/ibm-cp437.enc.gz
--- replaced obj /usr/share/fonts/encodings/encodings.dir
--- replaced obj /usr/share/fonts/encodings/dec-special.enc.gz
--- replaced obj /usr/share/fonts/encodings/ascii-0.enc.gz
--- replaced obj /usr/share/fonts/encodings/armscii-8.enc.gz
--- replaced obj /usr/share/fonts/encodings/adobe-symbol.enc.gz
--- replaced obj /usr/share/fonts/encodings/adobe-standard.enc.gz
--- replaced obj /usr/share/fonts/encodings/adobe-dingbats.enc.gz
--- replaced dir /usr/share/fonts/encodings
--- replaced dir /usr/share/fonts
--- replaced dir /usr/share
--- replaced dir /usr
 [32;01m*[0m Cleaning up font directories ...
[A[263C [34;01m[ [32;01mok[34;01m ][0m
 [32;01m*[0m Updating global fontcache ...
Fontconfig error: Cannot scan config file "infinality/conf.d"
[A[263C [34;01m[ [32;01mok[34;01m ][0m
>>> Regenerating /etc/ld.so.cache...
