No package files given... Grabbing a set.
<<<          obj /usr/share/man/man3/Image::Magick::Q16HDRI.3pm.bz2
<<<          obj /usr/share/man/man3/Image::Magick.3pm.bz2
<<<          obj /usr/share/man/man1/stream.1.bz2
<<<          obj /usr/share/man/man1/montage.1.bz2
<<<          obj /usr/share/man/man1/mogrify.1.bz2
<<<          obj /usr/share/man/man1/magick.1.bz2
<<<          obj /usr/share/man/man1/magick-script.1.bz2
<<<          obj /usr/share/man/man1/import.1.bz2
<<<          obj /usr/share/man/man1/identify.1.bz2
<<<          obj /usr/share/man/man1/display.1.bz2
<<<          obj /usr/share/man/man1/convert.1.bz2
<<<          obj /usr/share/man/man1/conjure.1.bz2
<<<          obj /usr/share/man/man1/composite.1.bz2
<<<          obj /usr/share/man/man1/compare.1.bz2
<<<          obj /usr/share/man/man1/animate.1.bz2
<<<          obj /usr/share/man/man1/MagickWand-config.1.bz2
<<<          obj /usr/share/man/man1/MagickCore-config.1.bz2
<<<          obj /usr/share/man/man1/Magick++-config.1.bz2
<<<          obj /usr/share/man/man1/ImageMagick.1.bz2
<<<          obj /usr/share/imagemagick/sRGB.icm
<<<          obj /usr/share/imagemagick/cmyk.icm
<<<          obj /usr/share/ImageMagick-7/locale.xml
<<<          obj /usr/share/ImageMagick-7/francais.xml
<<<          obj /usr/share/ImageMagick-7/english.xml
<<<          obj /usr/lib64/pkgconfig/MagickWand.pc
<<<          obj /usr/lib64/pkgconfig/MagickWand-7.Q16HDRI.pc
<<<          obj /usr/lib64/pkgconfig/MagickCore.pc
<<<          obj /usr/lib64/pkgconfig/MagickCore-7.Q16HDRI.pc
<<<          obj /usr/lib64/pkgconfig/Magick++.pc
<<<          obj /usr/lib64/pkgconfig/Magick++-7.Q16HDRI.pc
<<<          obj /usr/lib64/pkgconfig/ImageMagick.pc
<<<          obj /usr/lib64/pkgconfig/ImageMagick-7.Q16HDRI.pc
<<<          obj /usr/lib64/perl5/vendor_perl/5.30.3/x86_64-linux-thread-multi/auto/Image/Magick/Q16HDRI/autosplit.ix
<<<          obj /usr/lib64/perl5/vendor_perl/5.30.3/x86_64-linux-thread-multi/auto/Image/Magick/Q16HDRI/Q16HDRI.so
<<<          obj /usr/lib64/perl5/vendor_perl/5.30.3/x86_64-linux-thread-multi/auto/Image/Magick/.packlist
<<<          obj /usr/lib64/perl5/vendor_perl/5.30.3/x86_64-linux-thread-multi/Image/Magick/Q16HDRI.pm
<<<          obj /usr/lib64/perl5/vendor_perl/5.30.3/x86_64-linux-thread-multi/Image/Magick.pm
<<<          obj /usr/lib64/libMagickWand-7.Q16HDRI.so.7.0.0
<<<          sym /usr/lib64/libMagickWand-7.Q16HDRI.so.7
<<<          sym /usr/lib64/libMagickWand-7.Q16HDRI.so
<<<          obj /usr/lib64/libMagickCore-7.Q16HDRI.so.7.0.0
<<<          sym /usr/lib64/libMagickCore-7.Q16HDRI.so.7
<<<          sym /usr/lib64/libMagickCore-7.Q16HDRI.so
<<<          obj /usr/lib64/libMagick++-7.Q16HDRI.so.4.0.0
<<<          sym /usr/lib64/libMagick++-7.Q16HDRI.so.4
<<<          sym /usr/lib64/libMagick++-7.Q16HDRI.so
<<<          obj /usr/lib64/ImageMagick-7.0.10/modules-Q16HDRI/filters/analyze.so
<<<          obj /usr/lib64/ImageMagick-7.0.10/modules-Q16HDRI/filters/analyze.la
<<<          obj /usr/lib64/ImageMagick-7.0.10/modules-Q16HDRI/coders/yuv.so
<<<          obj /usr/lib64/ImageMagick-7.0.10/modules-Q16HDRI/coders/yuv.la
<<<          obj /usr/lib64/ImageMagick-7.0.10/modules-Q16HDRI/coders/ycbcr.so
<<<          obj /usr/lib64/ImageMagick-7.0.10/modules-Q16HDRI/coders/ycbcr.la
<<<          obj /usr/lib64/ImageMagick-7.0.10/modules-Q16HDRI/coders/xwd.so
<<<          obj /usr/lib64/ImageMagick-7.0.10/modules-Q16HDRI/coders/xwd.la
<<<          obj /usr/lib64/ImageMagick-7.0.10/modules-Q16HDRI/coders/xtrn.so
<<<          obj /usr/lib64/ImageMagick-7.0.10/modules-Q16HDRI/coders/xtrn.la
<<<          obj /usr/lib64/ImageMagick-7.0.10/modules-Q16HDRI/coders/xps.so
<<<          obj /usr/lib64/ImageMagick-7.0.10/modules-Q16HDRI/coders/xps.la
<<<          obj /usr/lib64/ImageMagick-7.0.10/modules-Q16HDRI/coders/xpm.so
<<<          obj /usr/lib64/ImageMagick-7.0.10/modules-Q16HDRI/coders/xpm.la
<<<          obj /usr/lib64/ImageMagick-7.0.10/modules-Q16HDRI/coders/xcf.so
<<<          obj /usr/lib64/ImageMagick-7.0.10/modules-Q16HDRI/coders/xcf.la
<<<          obj /usr/lib64/ImageMagick-7.0.10/modules-Q16HDRI/coders/xc.so
<<<          obj /usr/lib64/ImageMagick-7.0.10/modules-Q16HDRI/coders/xc.la
<<<          obj /usr/lib64/ImageMagick-7.0.10/modules-Q16HDRI/coders/xbm.so
<<<          obj /usr/lib64/ImageMagick-7.0.10/modules-Q16HDRI/coders/xbm.la
<<<          obj /usr/lib64/ImageMagick-7.0.10/modules-Q16HDRI/coders/x.so
<<<          obj /usr/lib64/ImageMagick-7.0.10/modules-Q16HDRI/coders/x.la
<<<          obj /usr/lib64/ImageMagick-7.0.10/modules-Q16HDRI/coders/wpg.so
<<<          obj /usr/lib64/ImageMagick-7.0.10/modules-Q16HDRI/coders/wpg.la
<<<          obj /usr/lib64/ImageMagick-7.0.10/modules-Q16HDRI/coders/wmf.so
<<<          obj /usr/lib64/ImageMagick-7.0.10/modules-Q16HDRI/coders/wmf.la
<<<          obj /usr/lib64/ImageMagick-7.0.10/modules-Q16HDRI/coders/webp.so
<<<          obj /usr/lib64/ImageMagick-7.0.10/modules-Q16HDRI/coders/webp.la
<<<          obj /usr/lib64/ImageMagick-7.0.10/modules-Q16HDRI/coders/wbmp.so
<<<          obj /usr/lib64/ImageMagick-7.0.10/modules-Q16HDRI/coders/wbmp.la
<<<          obj /usr/lib64/ImageMagick-7.0.10/modules-Q16HDRI/coders/vips.so
<<<          obj /usr/lib64/ImageMagick-7.0.10/modules-Q16HDRI/coders/vips.la
<<<          obj /usr/lib64/ImageMagick-7.0.10/modules-Q16HDRI/coders/viff.so
<<<          obj /usr/lib64/ImageMagick-7.0.10/modules-Q16HDRI/coders/viff.la
<<<          obj /usr/lib64/ImageMagick-7.0.10/modules-Q16HDRI/coders/vid.so
<<<          obj /usr/lib64/ImageMagick-7.0.10/modules-Q16HDRI/coders/vid.la
<<<          obj /usr/lib64/ImageMagick-7.0.10/modules-Q16HDRI/coders/vicar.so
<<<          obj /usr/lib64/ImageMagick-7.0.10/modules-Q16HDRI/coders/vicar.la
<<<          obj /usr/lib64/ImageMagick-7.0.10/modules-Q16HDRI/coders/uyvy.so
<<<          obj /usr/lib64/ImageMagick-7.0.10/modules-Q16HDRI/coders/uyvy.la
<<<          obj /usr/lib64/ImageMagick-7.0.10/modules-Q16HDRI/coders/url.so
<<<          obj /usr/lib64/ImageMagick-7.0.10/modules-Q16HDRI/coders/url.la
<<<          obj /usr/lib64/ImageMagick-7.0.10/modules-Q16HDRI/coders/uil.so
<<<          obj /usr/lib64/ImageMagick-7.0.10/modules-Q16HDRI/coders/uil.la
<<<          obj /usr/lib64/ImageMagick-7.0.10/modules-Q16HDRI/coders/txt.so
<<<          obj /usr/lib64/ImageMagick-7.0.10/modules-Q16HDRI/coders/txt.la
<<<          obj /usr/lib64/ImageMagick-7.0.10/modules-Q16HDRI/coders/ttf.so
<<<          obj /usr/lib64/ImageMagick-7.0.10/modules-Q16HDRI/coders/ttf.la
<<<          obj /usr/lib64/ImageMagick-7.0.10/modules-Q16HDRI/coders/tim2.so
<<<          obj /usr/lib64/ImageMagick-7.0.10/modules-Q16HDRI/coders/tim2.la
<<<          obj /usr/lib64/ImageMagick-7.0.10/modules-Q16HDRI/coders/tim.so
<<<          obj /usr/lib64/ImageMagick-7.0.10/modules-Q16HDRI/coders/tim.la
<<<          obj /usr/lib64/ImageMagick-7.0.10/modules-Q16HDRI/coders/tile.so
<<<          obj /usr/lib64/ImageMagick-7.0.10/modules-Q16HDRI/coders/tile.la
<<<          obj /usr/lib64/ImageMagick-7.0.10/modules-Q16HDRI/coders/tiff.so
<<<          obj /usr/lib64/ImageMagick-7.0.10/modules-Q16HDRI/coders/tiff.la
<<<          obj /usr/lib64/ImageMagick-7.0.10/modules-Q16HDRI/coders/thumbnail.so
<<<          obj /usr/lib64/ImageMagick-7.0.10/modules-Q16HDRI/coders/thumbnail.la
<<<          obj /usr/lib64/ImageMagick-7.0.10/modules-Q16HDRI/coders/tga.so
<<<          obj /usr/lib64/ImageMagick-7.0.10/modules-Q16HDRI/coders/tga.la
<<<          obj /usr/lib64/ImageMagick-7.0.10/modules-Q16HDRI/coders/svg.so
<<<          obj /usr/lib64/ImageMagick-7.0.10/modules-Q16HDRI/coders/svg.la
<<<          obj /usr/lib64/ImageMagick-7.0.10/modules-Q16HDRI/coders/sun.so
<<<          obj /usr/lib64/ImageMagick-7.0.10/modules-Q16HDRI/coders/sun.la
<<<          obj /usr/lib64/ImageMagick-7.0.10/modules-Q16HDRI/coders/stegano.so
<<<          obj /usr/lib64/ImageMagick-7.0.10/modules-Q16HDRI/coders/stegano.la
<<<          obj /usr/lib64/ImageMagick-7.0.10/modules-Q16HDRI/coders/sixel.so
<<<          obj /usr/lib64/ImageMagick-7.0.10/modules-Q16HDRI/coders/sixel.la
<<<          obj /usr/lib64/ImageMagick-7.0.10/modules-Q16HDRI/coders/sgi.so
<<<          obj /usr/lib64/ImageMagick-7.0.10/modules-Q16HDRI/coders/sgi.la
<<<          obj /usr/lib64/ImageMagick-7.0.10/modules-Q16HDRI/coders/sfw.so
<<<          obj /usr/lib64/ImageMagick-7.0.10/modules-Q16HDRI/coders/sfw.la
<<<          obj /usr/lib64/ImageMagick-7.0.10/modules-Q16HDRI/coders/sct.so
<<<          obj /usr/lib64/ImageMagick-7.0.10/modules-Q16HDRI/coders/sct.la
<<<          obj /usr/lib64/ImageMagick-7.0.10/modules-Q16HDRI/coders/scr.so
<<<          obj /usr/lib64/ImageMagick-7.0.10/modules-Q16HDRI/coders/scr.la
<<<          obj /usr/lib64/ImageMagick-7.0.10/modules-Q16HDRI/coders/rle.so
<<<          obj /usr/lib64/ImageMagick-7.0.10/modules-Q16HDRI/coders/rle.la
<<<          obj /usr/lib64/ImageMagick-7.0.10/modules-Q16HDRI/coders/rla.so
<<<          obj /usr/lib64/ImageMagick-7.0.10/modules-Q16HDRI/coders/rla.la
<<<          obj /usr/lib64/ImageMagick-7.0.10/modules-Q16HDRI/coders/rgf.so
<<<          obj /usr/lib64/ImageMagick-7.0.10/modules-Q16HDRI/coders/rgf.la
<<<          obj /usr/lib64/ImageMagick-7.0.10/modules-Q16HDRI/coders/rgb.so
<<<          obj /usr/lib64/ImageMagick-7.0.10/modules-Q16HDRI/coders/rgb.la
<<<          obj /usr/lib64/ImageMagick-7.0.10/modules-Q16HDRI/coders/raw.so
<<<          obj /usr/lib64/ImageMagick-7.0.10/modules-Q16HDRI/coders/raw.la
<<<          obj /usr/lib64/ImageMagick-7.0.10/modules-Q16HDRI/coders/pwp.so
<<<          obj /usr/lib64/ImageMagick-7.0.10/modules-Q16HDRI/coders/pwp.la
<<<          obj /usr/lib64/ImageMagick-7.0.10/modules-Q16HDRI/coders/psd.so
<<<          obj /usr/lib64/ImageMagick-7.0.10/modules-Q16HDRI/coders/psd.la
<<<          obj /usr/lib64/ImageMagick-7.0.10/modules-Q16HDRI/coders/ps3.so
<<<          obj /usr/lib64/ImageMagick-7.0.10/modules-Q16HDRI/coders/ps3.la
<<<          obj /usr/lib64/ImageMagick-7.0.10/modules-Q16HDRI/coders/ps2.so
<<<          obj /usr/lib64/ImageMagick-7.0.10/modules-Q16HDRI/coders/ps2.la
<<<          obj /usr/lib64/ImageMagick-7.0.10/modules-Q16HDRI/coders/ps.so
<<<          obj /usr/lib64/ImageMagick-7.0.10/modules-Q16HDRI/coders/ps.la
<<<          obj /usr/lib64/ImageMagick-7.0.10/modules-Q16HDRI/coders/pnm.so
<<<          obj /usr/lib64/ImageMagick-7.0.10/modules-Q16HDRI/coders/pnm.la
<<<          obj /usr/lib64/ImageMagick-7.0.10/modules-Q16HDRI/coders/png.so
<<<          obj /usr/lib64/ImageMagick-7.0.10/modules-Q16HDRI/coders/png.la
<<<          obj /usr/lib64/ImageMagick-7.0.10/modules-Q16HDRI/coders/plasma.so
<<<          obj /usr/lib64/ImageMagick-7.0.10/modules-Q16HDRI/coders/plasma.la
<<<          obj /usr/lib64/ImageMagick-7.0.10/modules-Q16HDRI/coders/pix.so
<<<          obj /usr/lib64/ImageMagick-7.0.10/modules-Q16HDRI/coders/pix.la
<<<          obj /usr/lib64/ImageMagick-7.0.10/modules-Q16HDRI/coders/pict.so
<<<          obj /usr/lib64/ImageMagick-7.0.10/modules-Q16HDRI/coders/pict.la
<<<          obj /usr/lib64/ImageMagick-7.0.10/modules-Q16HDRI/coders/pgx.so
<<<          obj /usr/lib64/ImageMagick-7.0.10/modules-Q16HDRI/coders/pgx.la
<<<          obj /usr/lib64/ImageMagick-7.0.10/modules-Q16HDRI/coders/pes.so
<<<          obj /usr/lib64/ImageMagick-7.0.10/modules-Q16HDRI/coders/pes.la
<<<          obj /usr/lib64/ImageMagick-7.0.10/modules-Q16HDRI/coders/pdf.so
<<<          obj /usr/lib64/ImageMagick-7.0.10/modules-Q16HDRI/coders/pdf.la
<<<          obj /usr/lib64/ImageMagick-7.0.10/modules-Q16HDRI/coders/pdb.so
<<<          obj /usr/lib64/ImageMagick-7.0.10/modules-Q16HDRI/coders/pdb.la
<<<          obj /usr/lib64/ImageMagick-7.0.10/modules-Q16HDRI/coders/pcx.so
<<<          obj /usr/lib64/ImageMagick-7.0.10/modules-Q16HDRI/coders/pcx.la
<<<          obj /usr/lib64/ImageMagick-7.0.10/modules-Q16HDRI/coders/pcl.so
<<<          obj /usr/lib64/ImageMagick-7.0.10/modules-Q16HDRI/coders/pcl.la
<<<          obj /usr/lib64/ImageMagick-7.0.10/modules-Q16HDRI/coders/pcd.so
<<<          obj /usr/lib64/ImageMagick-7.0.10/modules-Q16HDRI/coders/pcd.la
<<<          obj /usr/lib64/ImageMagick-7.0.10/modules-Q16HDRI/coders/pattern.so
<<<          obj /usr/lib64/ImageMagick-7.0.10/modules-Q16HDRI/coders/pattern.la
<<<          obj /usr/lib64/ImageMagick-7.0.10/modules-Q16HDRI/coders/pango.so
<<<          obj /usr/lib64/ImageMagick-7.0.10/modules-Q16HDRI/coders/pango.la
<<<          obj /usr/lib64/ImageMagick-7.0.10/modules-Q16HDRI/coders/palm.so
<<<          obj /usr/lib64/ImageMagick-7.0.10/modules-Q16HDRI/coders/palm.la
<<<          obj /usr/lib64/ImageMagick-7.0.10/modules-Q16HDRI/coders/otb.so
<<<          obj /usr/lib64/ImageMagick-7.0.10/modules-Q16HDRI/coders/otb.la
<<<          obj /usr/lib64/ImageMagick-7.0.10/modules-Q16HDRI/coders/null.so
<<<          obj /usr/lib64/ImageMagick-7.0.10/modules-Q16HDRI/coders/null.la
<<<          obj /usr/lib64/ImageMagick-7.0.10/modules-Q16HDRI/coders/mvg.so
<<<          obj /usr/lib64/ImageMagick-7.0.10/modules-Q16HDRI/coders/mvg.la
<<<          obj /usr/lib64/ImageMagick-7.0.10/modules-Q16HDRI/coders/mtv.so
<<<          obj /usr/lib64/ImageMagick-7.0.10/modules-Q16HDRI/coders/mtv.la
<<<          obj /usr/lib64/ImageMagick-7.0.10/modules-Q16HDRI/coders/msl.so
<<<          obj /usr/lib64/ImageMagick-7.0.10/modules-Q16HDRI/coders/msl.la
<<<          obj /usr/lib64/ImageMagick-7.0.10/modules-Q16HDRI/coders/mpr.so
<<<          obj /usr/lib64/ImageMagick-7.0.10/modules-Q16HDRI/coders/mpr.la
<<<          obj /usr/lib64/ImageMagick-7.0.10/modules-Q16HDRI/coders/mpeg.so
<<<          obj /usr/lib64/ImageMagick-7.0.10/modules-Q16HDRI/coders/mpeg.la
<<<          obj /usr/lib64/ImageMagick-7.0.10/modules-Q16HDRI/coders/mpc.so
<<<          obj /usr/lib64/ImageMagick-7.0.10/modules-Q16HDRI/coders/mpc.la
<<<          obj /usr/lib64/ImageMagick-7.0.10/modules-Q16HDRI/coders/mono.so
<<<          obj /usr/lib64/ImageMagick-7.0.10/modules-Q16HDRI/coders/mono.la
<<<          obj /usr/lib64/ImageMagick-7.0.10/modules-Q16HDRI/coders/miff.so
<<<          obj /usr/lib64/ImageMagick-7.0.10/modules-Q16HDRI/coders/miff.la
<<<          obj /usr/lib64/ImageMagick-7.0.10/modules-Q16HDRI/coders/meta.so
<<<          obj /usr/lib64/ImageMagick-7.0.10/modules-Q16HDRI/coders/meta.la
<<<          obj /usr/lib64/ImageMagick-7.0.10/modules-Q16HDRI/coders/matte.so
<<<          obj /usr/lib64/ImageMagick-7.0.10/modules-Q16HDRI/coders/matte.la
<<<          obj /usr/lib64/ImageMagick-7.0.10/modules-Q16HDRI/coders/mat.so
<<<          obj /usr/lib64/ImageMagick-7.0.10/modules-Q16HDRI/coders/mat.la
<<<          obj /usr/lib64/ImageMagick-7.0.10/modules-Q16HDRI/coders/mask.so
<<<          obj /usr/lib64/ImageMagick-7.0.10/modules-Q16HDRI/coders/mask.la
<<<          obj /usr/lib64/ImageMagick-7.0.10/modules-Q16HDRI/coders/map.so
<<<          obj /usr/lib64/ImageMagick-7.0.10/modules-Q16HDRI/coders/map.la
<<<          obj /usr/lib64/ImageMagick-7.0.10/modules-Q16HDRI/coders/magick.so
<<<          obj /usr/lib64/ImageMagick-7.0.10/modules-Q16HDRI/coders/magick.la
<<<          obj /usr/lib64/ImageMagick-7.0.10/modules-Q16HDRI/coders/mac.so
<<<          obj /usr/lib64/ImageMagick-7.0.10/modules-Q16HDRI/coders/mac.la
<<<          obj /usr/lib64/ImageMagick-7.0.10/modules-Q16HDRI/coders/label.so
<<<          obj /usr/lib64/ImageMagick-7.0.10/modules-Q16HDRI/coders/label.la
<<<          obj /usr/lib64/ImageMagick-7.0.10/modules-Q16HDRI/coders/json.so
<<<          obj /usr/lib64/ImageMagick-7.0.10/modules-Q16HDRI/coders/json.la
<<<          obj /usr/lib64/ImageMagick-7.0.10/modules-Q16HDRI/coders/jpeg.so
<<<          obj /usr/lib64/ImageMagick-7.0.10/modules-Q16HDRI/coders/jpeg.la
<<<          obj /usr/lib64/ImageMagick-7.0.10/modules-Q16HDRI/coders/jp2.so
<<<          obj /usr/lib64/ImageMagick-7.0.10/modules-Q16HDRI/coders/jp2.la
<<<          obj /usr/lib64/ImageMagick-7.0.10/modules-Q16HDRI/coders/jnx.so
<<<          obj /usr/lib64/ImageMagick-7.0.10/modules-Q16HDRI/coders/jnx.la
<<<          obj /usr/lib64/ImageMagick-7.0.10/modules-Q16HDRI/coders/ipl.so
<<<          obj /usr/lib64/ImageMagick-7.0.10/modules-Q16HDRI/coders/ipl.la
<<<          obj /usr/lib64/ImageMagick-7.0.10/modules-Q16HDRI/coders/inline.so
<<<          obj /usr/lib64/ImageMagick-7.0.10/modules-Q16HDRI/coders/inline.la
<<<          obj /usr/lib64/ImageMagick-7.0.10/modules-Q16HDRI/coders/info.so
<<<          obj /usr/lib64/ImageMagick-7.0.10/modules-Q16HDRI/coders/info.la
<<<          obj /usr/lib64/ImageMagick-7.0.10/modules-Q16HDRI/coders/icon.so
<<<          obj /usr/lib64/ImageMagick-7.0.10/modules-Q16HDRI/coders/icon.la
<<<          obj /usr/lib64/ImageMagick-7.0.10/modules-Q16HDRI/coders/html.so
<<<          obj /usr/lib64/ImageMagick-7.0.10/modules-Q16HDRI/coders/html.la
<<<          obj /usr/lib64/ImageMagick-7.0.10/modules-Q16HDRI/coders/hrz.so
<<<          obj /usr/lib64/ImageMagick-7.0.10/modules-Q16HDRI/coders/hrz.la
<<<          obj /usr/lib64/ImageMagick-7.0.10/modules-Q16HDRI/coders/histogram.so
<<<          obj /usr/lib64/ImageMagick-7.0.10/modules-Q16HDRI/coders/histogram.la
<<<          obj /usr/lib64/ImageMagick-7.0.10/modules-Q16HDRI/coders/hdr.so
<<<          obj /usr/lib64/ImageMagick-7.0.10/modules-Q16HDRI/coders/hdr.la
<<<          obj /usr/lib64/ImageMagick-7.0.10/modules-Q16HDRI/coders/hald.so
<<<          obj /usr/lib64/ImageMagick-7.0.10/modules-Q16HDRI/coders/hald.la
<<<          obj /usr/lib64/ImageMagick-7.0.10/modules-Q16HDRI/coders/gray.so
<<<          obj /usr/lib64/ImageMagick-7.0.10/modules-Q16HDRI/coders/gray.la
<<<          obj /usr/lib64/ImageMagick-7.0.10/modules-Q16HDRI/coders/gradient.so
<<<          obj /usr/lib64/ImageMagick-7.0.10/modules-Q16HDRI/coders/gradient.la
<<<          obj /usr/lib64/ImageMagick-7.0.10/modules-Q16HDRI/coders/gif.so
<<<          obj /usr/lib64/ImageMagick-7.0.10/modules-Q16HDRI/coders/gif.la
<<<          obj /usr/lib64/ImageMagick-7.0.10/modules-Q16HDRI/coders/fits.so
<<<          obj /usr/lib64/ImageMagick-7.0.10/modules-Q16HDRI/coders/fits.la
<<<          obj /usr/lib64/ImageMagick-7.0.10/modules-Q16HDRI/coders/fax.so
<<<          obj /usr/lib64/ImageMagick-7.0.10/modules-Q16HDRI/coders/fax.la
<<<          obj /usr/lib64/ImageMagick-7.0.10/modules-Q16HDRI/coders/ept.so
<<<          obj /usr/lib64/ImageMagick-7.0.10/modules-Q16HDRI/coders/ept.la
<<<          obj /usr/lib64/ImageMagick-7.0.10/modules-Q16HDRI/coders/dpx.so
<<<          obj /usr/lib64/ImageMagick-7.0.10/modules-Q16HDRI/coders/dpx.la
<<<          obj /usr/lib64/ImageMagick-7.0.10/modules-Q16HDRI/coders/dot.so
<<<          obj /usr/lib64/ImageMagick-7.0.10/modules-Q16HDRI/coders/dot.la
<<<          obj /usr/lib64/ImageMagick-7.0.10/modules-Q16HDRI/coders/dng.so
<<<          obj /usr/lib64/ImageMagick-7.0.10/modules-Q16HDRI/coders/dng.la
<<<          obj /usr/lib64/ImageMagick-7.0.10/modules-Q16HDRI/coders/djvu.so
<<<          obj /usr/lib64/ImageMagick-7.0.10/modules-Q16HDRI/coders/djvu.la
<<<          obj /usr/lib64/ImageMagick-7.0.10/modules-Q16HDRI/coders/dib.so
<<<          obj /usr/lib64/ImageMagick-7.0.10/modules-Q16HDRI/coders/dib.la
<<<          obj /usr/lib64/ImageMagick-7.0.10/modules-Q16HDRI/coders/debug.so
<<<          obj /usr/lib64/ImageMagick-7.0.10/modules-Q16HDRI/coders/debug.la
<<<          obj /usr/lib64/ImageMagick-7.0.10/modules-Q16HDRI/coders/dds.so
<<<          obj /usr/lib64/ImageMagick-7.0.10/modules-Q16HDRI/coders/dds.la
<<<          obj /usr/lib64/ImageMagick-7.0.10/modules-Q16HDRI/coders/dcm.so
<<<          obj /usr/lib64/ImageMagick-7.0.10/modules-Q16HDRI/coders/dcm.la
<<<          obj /usr/lib64/ImageMagick-7.0.10/modules-Q16HDRI/coders/cut.so
<<<          obj /usr/lib64/ImageMagick-7.0.10/modules-Q16HDRI/coders/cut.la
<<<          obj /usr/lib64/ImageMagick-7.0.10/modules-Q16HDRI/coders/cube.so
<<<          obj /usr/lib64/ImageMagick-7.0.10/modules-Q16HDRI/coders/cube.la
<<<          obj /usr/lib64/ImageMagick-7.0.10/modules-Q16HDRI/coders/cmyk.so
<<<          obj /usr/lib64/ImageMagick-7.0.10/modules-Q16HDRI/coders/cmyk.la
<<<          obj /usr/lib64/ImageMagick-7.0.10/modules-Q16HDRI/coders/clip.so
<<<          obj /usr/lib64/ImageMagick-7.0.10/modules-Q16HDRI/coders/clip.la
<<<          obj /usr/lib64/ImageMagick-7.0.10/modules-Q16HDRI/coders/cip.so
<<<          obj /usr/lib64/ImageMagick-7.0.10/modules-Q16HDRI/coders/cip.la
<<<          obj /usr/lib64/ImageMagick-7.0.10/modules-Q16HDRI/coders/cin.so
<<<          obj /usr/lib64/ImageMagick-7.0.10/modules-Q16HDRI/coders/cin.la
<<<          obj /usr/lib64/ImageMagick-7.0.10/modules-Q16HDRI/coders/caption.so
<<<          obj /usr/lib64/ImageMagick-7.0.10/modules-Q16HDRI/coders/caption.la
<<<          obj /usr/lib64/ImageMagick-7.0.10/modules-Q16HDRI/coders/cals.so
<<<          obj /usr/lib64/ImageMagick-7.0.10/modules-Q16HDRI/coders/cals.la
<<<          obj /usr/lib64/ImageMagick-7.0.10/modules-Q16HDRI/coders/braille.so
<<<          obj /usr/lib64/ImageMagick-7.0.10/modules-Q16HDRI/coders/braille.la
<<<          obj /usr/lib64/ImageMagick-7.0.10/modules-Q16HDRI/coders/bmp.so
<<<          obj /usr/lib64/ImageMagick-7.0.10/modules-Q16HDRI/coders/bmp.la
<<<          obj /usr/lib64/ImageMagick-7.0.10/modules-Q16HDRI/coders/bgr.so
<<<          obj /usr/lib64/ImageMagick-7.0.10/modules-Q16HDRI/coders/bgr.la
<<<          obj /usr/lib64/ImageMagick-7.0.10/modules-Q16HDRI/coders/avs.so
<<<          obj /usr/lib64/ImageMagick-7.0.10/modules-Q16HDRI/coders/avs.la
<<<          obj /usr/lib64/ImageMagick-7.0.10/modules-Q16HDRI/coders/art.so
<<<          obj /usr/lib64/ImageMagick-7.0.10/modules-Q16HDRI/coders/art.la
<<<          obj /usr/lib64/ImageMagick-7.0.10/modules-Q16HDRI/coders/aai.so
<<<          obj /usr/lib64/ImageMagick-7.0.10/modules-Q16HDRI/coders/aai.la
<<<          obj /usr/lib64/ImageMagick-7.0.10/config-Q16HDRI/configure.xml
<<<          obj /usr/include/ImageMagick-7/MagickWand/wandcli.h
<<<          obj /usr/include/ImageMagick-7/MagickWand/wand-view.h
<<<          obj /usr/include/ImageMagick-7/MagickWand/stream.h
<<<          obj /usr/include/ImageMagick-7/MagickWand/pixel-wand.h
<<<          obj /usr/include/ImageMagick-7/MagickWand/pixel-iterator.h
<<<          obj /usr/include/ImageMagick-7/MagickWand/operation.h
<<<          obj /usr/include/ImageMagick-7/MagickWand/montage.h
<<<          obj /usr/include/ImageMagick-7/MagickWand/mogrify.h
<<<          obj /usr/include/ImageMagick-7/MagickWand/method-attribute.h
<<<          obj /usr/include/ImageMagick-7/MagickWand/magick-property.h
<<<          obj /usr/include/ImageMagick-7/MagickWand/magick-image.h
<<<          obj /usr/include/ImageMagick-7/MagickWand/magick-cli.h
<<<          obj /usr/include/ImageMagick-7/MagickWand/import.h
<<<          obj /usr/include/ImageMagick-7/MagickWand/identify.h
<<<          obj /usr/include/ImageMagick-7/MagickWand/drawing-wand.h
<<<          obj /usr/include/ImageMagick-7/MagickWand/display.h
<<<          obj /usr/include/ImageMagick-7/MagickWand/deprecate.h
<<<          obj /usr/include/ImageMagick-7/MagickWand/convert.h
<<<          obj /usr/include/ImageMagick-7/MagickWand/conjure.h
<<<          obj /usr/include/ImageMagick-7/MagickWand/composite.h
<<<          obj /usr/include/ImageMagick-7/MagickWand/compare.h
<<<          obj /usr/include/ImageMagick-7/MagickWand/animate.h
<<<          obj /usr/include/ImageMagick-7/MagickWand/MagickWand.h
<<<          obj /usr/include/ImageMagick-7/MagickCore/xwindow.h
<<<          obj /usr/include/ImageMagick-7/MagickCore/xml-tree.h
<<<          obj /usr/include/ImageMagick-7/MagickCore/widget.h
<<<          obj /usr/include/ImageMagick-7/MagickCore/visual-effects.h
<<<          obj /usr/include/ImageMagick-7/MagickCore/vision.h
<<<          obj /usr/include/ImageMagick-7/MagickCore/version.h
<<<          obj /usr/include/ImageMagick-7/MagickCore/utility.h
<<<          obj /usr/include/ImageMagick-7/MagickCore/type.h
<<<          obj /usr/include/ImageMagick-7/MagickCore/transform.h
<<<          obj /usr/include/ImageMagick-7/MagickCore/token.h
<<<          obj /usr/include/ImageMagick-7/MagickCore/timer.h
<<<          obj /usr/include/ImageMagick-7/MagickCore/threshold.h
<<<          obj /usr/include/ImageMagick-7/MagickCore/studio.h
<<<          obj /usr/include/ImageMagick-7/MagickCore/string_.h
<<<          obj /usr/include/ImageMagick-7/MagickCore/stream.h
<<<          obj /usr/include/ImageMagick-7/MagickCore/statistic.h
<<<          obj /usr/include/ImageMagick-7/MagickCore/static.h
<<<          obj /usr/include/ImageMagick-7/MagickCore/splay-tree.h
<<<          obj /usr/include/ImageMagick-7/MagickCore/signature.h
<<<          obj /usr/include/ImageMagick-7/MagickCore/shear.h
<<<          obj /usr/include/ImageMagick-7/MagickCore/semaphore.h
<<<          obj /usr/include/ImageMagick-7/MagickCore/segment.h
<<<          obj /usr/include/ImageMagick-7/MagickCore/resource_.h
<<<          obj /usr/include/ImageMagick-7/MagickCore/resize.h
<<<          obj /usr/include/ImageMagick-7/MagickCore/resample.h
<<<          obj /usr/include/ImageMagick-7/MagickCore/registry.h
<<<          obj /usr/include/ImageMagick-7/MagickCore/random_.h
<<<          obj /usr/include/ImageMagick-7/MagickCore/quantum.h
<<<          obj /usr/include/ImageMagick-7/MagickCore/quantize.h
<<<          obj /usr/include/ImageMagick-7/MagickCore/property.h
<<<          obj /usr/include/ImageMagick-7/MagickCore/profile.h
<<<          obj /usr/include/ImageMagick-7/MagickCore/prepress.h
<<<          obj /usr/include/ImageMagick-7/MagickCore/policy.h
<<<          obj /usr/include/ImageMagick-7/MagickCore/pixel.h
<<<          obj /usr/include/ImageMagick-7/MagickCore/pixel-accessor.h
<<<          obj /usr/include/ImageMagick-7/MagickCore/paint.h
<<<          obj /usr/include/ImageMagick-7/MagickCore/option.h
<<<          obj /usr/include/ImageMagick-7/MagickCore/opencl.h
<<<          obj /usr/include/ImageMagick-7/MagickCore/nt-base.h
<<<          obj /usr/include/ImageMagick-7/MagickCore/morphology.h
<<<          obj /usr/include/ImageMagick-7/MagickCore/montage.h
<<<          obj /usr/include/ImageMagick-7/MagickCore/monitor.h
<<<          obj /usr/include/ImageMagick-7/MagickCore/module.h
<<<          obj /usr/include/ImageMagick-7/MagickCore/mime.h
<<<          obj /usr/include/ImageMagick-7/MagickCore/methods.h
<<<          obj /usr/include/ImageMagick-7/MagickCore/method-attribute.h
<<<          obj /usr/include/ImageMagick-7/MagickCore/memory_.h
<<<          obj /usr/include/ImageMagick-7/MagickCore/matrix.h
<<<          obj /usr/include/ImageMagick-7/MagickCore/magick.h
<<<          obj /usr/include/ImageMagick-7/MagickCore/magick-type.h
<<<          obj /usr/include/ImageMagick-7/MagickCore/magick-config.h
<<<          obj /usr/include/ImageMagick-7/MagickCore/magick-baseconfig.h
<<<          obj /usr/include/ImageMagick-7/MagickCore/magic.h
<<<          obj /usr/include/ImageMagick-7/MagickCore/log.h
<<<          obj /usr/include/ImageMagick-7/MagickCore/locale_.h
<<<          obj /usr/include/ImageMagick-7/MagickCore/list.h
<<<          obj /usr/include/ImageMagick-7/MagickCore/linked-list.h
<<<          obj /usr/include/ImageMagick-7/MagickCore/layer.h
<<<          obj /usr/include/ImageMagick-7/MagickCore/image.h
<<<          obj /usr/include/ImageMagick-7/MagickCore/image-view.h
<<<          obj /usr/include/ImageMagick-7/MagickCore/identify.h
<<<          obj /usr/include/ImageMagick-7/MagickCore/histogram.h
<<<          obj /usr/include/ImageMagick-7/MagickCore/geometry.h
<<<          obj /usr/include/ImageMagick-7/MagickCore/gem.h
<<<          obj /usr/include/ImageMagick-7/MagickCore/fx.h
<<<          obj /usr/include/ImageMagick-7/MagickCore/fourier.h
<<<          obj /usr/include/ImageMagick-7/MagickCore/feature.h
<<<          obj /usr/include/ImageMagick-7/MagickCore/exception.h
<<<          obj /usr/include/ImageMagick-7/MagickCore/enhance.h
<<<          obj /usr/include/ImageMagick-7/MagickCore/effect.h
<<<          obj /usr/include/ImageMagick-7/MagickCore/draw.h
<<<          obj /usr/include/ImageMagick-7/MagickCore/distribute-cache.h
<<<          obj /usr/include/ImageMagick-7/MagickCore/distort.h
<<<          obj /usr/include/ImageMagick-7/MagickCore/display.h
<<<          obj /usr/include/ImageMagick-7/MagickCore/deprecate.h
<<<          obj /usr/include/ImageMagick-7/MagickCore/delegate.h
<<<          obj /usr/include/ImageMagick-7/MagickCore/decorate.h
<<<          obj /usr/include/ImageMagick-7/MagickCore/constitute.h
<<<          obj /usr/include/ImageMagick-7/MagickCore/configure.h
<<<          obj /usr/include/ImageMagick-7/MagickCore/compress.h
<<<          obj /usr/include/ImageMagick-7/MagickCore/composite.h
<<<          obj /usr/include/ImageMagick-7/MagickCore/compare.h
<<<          obj /usr/include/ImageMagick-7/MagickCore/colorspace.h
<<<          obj /usr/include/ImageMagick-7/MagickCore/colormap.h
<<<          obj /usr/include/ImageMagick-7/MagickCore/color.h
<<<          obj /usr/include/ImageMagick-7/MagickCore/coder.h
<<<          obj /usr/include/ImageMagick-7/MagickCore/client.h
<<<          obj /usr/include/ImageMagick-7/MagickCore/cipher.h
<<<          obj /usr/include/ImageMagick-7/MagickCore/channel.h
<<<          obj /usr/include/ImageMagick-7/MagickCore/cache.h
<<<          obj /usr/include/ImageMagick-7/MagickCore/cache-view.h
<<<          obj /usr/include/ImageMagick-7/MagickCore/blob.h
<<<          obj /usr/include/ImageMagick-7/MagickCore/attribute.h
<<<          obj /usr/include/ImageMagick-7/MagickCore/artifact.h
<<<          obj /usr/include/ImageMagick-7/MagickCore/annotate.h
<<<          obj /usr/include/ImageMagick-7/MagickCore/animate.h
<<<          obj /usr/include/ImageMagick-7/MagickCore/MagickCore.h
<<<          obj /usr/include/ImageMagick-7/Magick++/TypeMetric.h
<<<          obj /usr/include/ImageMagick-7/Magick++/Statistic.h
<<<          obj /usr/include/ImageMagick-7/Magick++/SecurityPolicy.h
<<<          obj /usr/include/ImageMagick-7/Magick++/STL.h
<<<          obj /usr/include/ImageMagick-7/Magick++/ResourceLimits.h
<<<          obj /usr/include/ImageMagick-7/Magick++/Pixels.h
<<<          obj /usr/include/ImageMagick-7/Magick++/Montage.h
<<<          obj /usr/include/ImageMagick-7/Magick++/Include.h
<<<          obj /usr/include/ImageMagick-7/Magick++/Image.h
<<<          obj /usr/include/ImageMagick-7/Magick++/Geometry.h
<<<          obj /usr/include/ImageMagick-7/Magick++/Functions.h
<<<          obj /usr/include/ImageMagick-7/Magick++/Exception.h
<<<          obj /usr/include/ImageMagick-7/Magick++/Drawable.h
<<<          obj /usr/include/ImageMagick-7/Magick++/Color.h
<<<          obj /usr/include/ImageMagick-7/Magick++/CoderInfo.h
<<<          obj /usr/include/ImageMagick-7/Magick++/Blob.h
<<<          obj /usr/include/ImageMagick-7/Magick++.h
<<<          sym /usr/bin/stream
<<<          sym /usr/bin/montage
<<<          sym /usr/bin/mogrify
<<<          sym /usr/bin/magick-script
<<<          obj /usr/bin/magick
<<<          sym /usr/bin/import
<<<          sym /usr/bin/identify
<<<          sym /usr/bin/display
<<<          sym /usr/bin/convert
<<<          sym /usr/bin/conjure
<<<          sym /usr/bin/composite
<<<          sym /usr/bin/compare
<<<          sym /usr/bin/animate
<<<          obj /usr/bin/MagickWand-config
<<<          obj /usr/bin/MagickCore-config
<<<          obj /usr/bin/Magick++-config
<<<          obj /etc/sandbox.d/99imagemagick
<<<          obj /etc/ImageMagick-7/type.xml
<<<          obj /etc/ImageMagick-7/type-windows.xml
<<<          obj /etc/ImageMagick-7/type-urw-base35.xml
<<<          obj /etc/ImageMagick-7/type-ghostscript.xml
<<<          obj /etc/ImageMagick-7/type-dejavu.xml
<<<          obj /etc/ImageMagick-7/type-apple.xml
<<<          obj /etc/ImageMagick-7/thresholds.xml
<<<          obj /etc/ImageMagick-7/quantization-table.xml
<<<          obj /etc/ImageMagick-7/policy.xml
<<<          obj /etc/ImageMagick-7/mime.xml
<<<          obj /etc/ImageMagick-7/log.xml
<<<          obj /etc/ImageMagick-7/delegates.xml
<<<          obj /etc/ImageMagick-7/colors.xml
--- !empty   dir /usr/share/man/man3
--- !empty   dir /usr/share/man/man1
--- !empty   dir /usr/share/man
<<<          dir /usr/share/imagemagick
<<<          dir /usr/share/ImageMagick-7
--- !empty   dir /usr/share
--- !empty   dir /usr/lib64/pkgconfig
<<<          dir /usr/lib64/perl5/vendor_perl/5.30.3/x86_64-linux-thread-multi/auto/Image/Magick/Q16HDRI
<<<          dir /usr/lib64/perl5/vendor_perl/5.30.3/x86_64-linux-thread-multi/auto/Image/Magick
<<<          dir /usr/lib64/perl5/vendor_perl/5.30.3/x86_64-linux-thread-multi/auto/Image
--- !empty   dir /usr/lib64/perl5/vendor_perl/5.30.3/x86_64-linux-thread-multi/auto
<<<          dir /usr/lib64/perl5/vendor_perl/5.30.3/x86_64-linux-thread-multi/Image/Magick
<<<          dir /usr/lib64/perl5/vendor_perl/5.30.3/x86_64-linux-thread-multi/Image
--- !empty   dir /usr/lib64/perl5/vendor_perl/5.30.3/x86_64-linux-thread-multi
--- !empty   dir /usr/lib64/perl5/vendor_perl/5.30.3
--- !empty   dir /usr/lib64/perl5/vendor_perl
--- !empty   dir /usr/lib64/perl5
<<<          dir /usr/lib64/ImageMagick-7.0.10/modules-Q16HDRI/filters
<<<          dir /usr/lib64/ImageMagick-7.0.10/modules-Q16HDRI/coders
<<<          dir /usr/lib64/ImageMagick-7.0.10/modules-Q16HDRI
<<<          dir /usr/lib64/ImageMagick-7.0.10/config-Q16HDRI
<<<          dir /usr/lib64/ImageMagick-7.0.10
--- !empty   dir /usr/lib64
<<<          dir /usr/include/ImageMagick-7/MagickWand
<<<          dir /usr/include/ImageMagick-7/MagickCore
<<<          dir /usr/include/ImageMagick-7/Magick++
<<<          dir /usr/include/ImageMagick-7
--- !empty   dir /usr/include
--- !empty   dir /usr/bin
--- !empty   dir /usr
--- !empty   dir /etc/sandbox.d
<<<          dir /etc/ImageMagick-7
--- !empty   dir /etc
>>> Regenerating /etc/ld.so.cache...
