>>> Extracting info
 * Package:    media-libs/leptonica-1.79.0-r1
 * Repository: gentoo
 * USE:        amd64 png tiff userland_GNU zlib gif utils abi_x86_64 jpeg webp elibc_glibc kernel_linux jpeg2k
 * FEATURES:   ccache preserve-libs userpriv
 * FEATURES='userpriv ccache distlocks strict fixlafiles nodoc buildpkg config-protect-if-modified xattr strict-keepdir preserve-libs cgroup compress-index qa-unresolved-soname-deps merge-sync binpkg-dostrip multilib-strict news unmerge-orphans assume-digests parallel-fetch sfperms binpkg-logs unmerge-logs ebuild-locks userfetch unknown-features-warn usersync binpkg-docompress'
 * CFLAGS='-O2 -pipe -Wl,-O1,--sort-common,--as-needed,-z,norelro,-z,now'
 * CXXFLAGS='-O2 -pipe -Wl,-O1,--sort-common,--as-needed,-z,norelro,-z,now'
 * FFLAGS='-O2 -pipe -Wl,-O1,--sort-common,--as-needed,-z,norelro,-z,now'
 * FCFLAGS='-O2 -pipe -Wl,-O1,--sort-common,--as-needed,-z,norelro,-z,now'
 * F77FLAGS='-O2 -pipe -Wl,-O1,--sort-common,--as-needed,-z,norelro,-z,now'
 * LDFLAGS='-Wl,-O1,--sort-common,--as-needed,-z,norelro,-z,now'
 * MAKEOPTS='-j12 -l12'
 * gcc (Gentoo 11.0.0_pre9999 p1, commit 184c21bf1cd04a108ed9bd04635e7d57ac39f616) 11.0.0 20200611 (experimental)
 * g++ (Gentoo 11.0.0_pre9999 p1, commit 184c21bf1cd04a108ed9bd04635e7d57ac39f616) 11.0.0 20200611 (experimental)
 * GNU ld (Gentoo 2.34 p4) 2.34.0
 * Linux rescue 5.4.36 #1 SMP Thu Apr 30 04:38:28 UTC 2020 x86_64 AMD Ryzen 5 3600 6-Core Processor AuthenticAMD GNU/Linux
media-libs/leptonica: 44 seconds average for 3 merges
2020-06-04T13:34:37 >>> media-libs/leptonica: 44 seconds
2020-06-06T17:07:42 >>> media-libs/leptonica: 39 seconds
2020-06-12T03:12:26 >>> media-libs/leptonica: 51 seconds
]0;emerge 20:51:27 701|882 leptonica 00:45 (root@rescue)>>> Extracting media-libs/leptonica-1.79.0-r1
 * checking 47 files for package collisions
>>> Merging media-libs/leptonica-1.79.0-r1 to /
 * removing unneeded *.la files
--- /usr/
--- /usr/lib64/
>>> /usr/lib64/liblept.so.5 -> liblept.so.5.0.4
--- /usr/lib64/pkgconfig/
>>> /usr/lib64/pkgconfig/lept.pc
>>> /usr/lib64/liblept.so -> liblept.so.5.0.4
--- /usr/lib64/cmake/
>>> /usr/lib64/cmake/LeptonicaConfig.cmake
>>> /usr/lib64/cmake/LeptonicaConfig-version.cmake
>>> /usr/lib64/liblept.so.5.0.4
--- /usr/include/
--- /usr/include/leptonica/
>>> /usr/include/leptonica/environ.h
>>> /usr/include/leptonica/allheaders.h
>>> /usr/include/leptonica/morph.h
>>> /usr/include/leptonica/bmp.h
>>> /usr/include/leptonica/bilateral.h
>>> /usr/include/leptonica/bmf.h
>>> /usr/include/leptonica/array.h
>>> /usr/include/leptonica/bbuffer.h
>>> /usr/include/leptonica/gplot.h
>>> /usr/include/leptonica/ptra.h
>>> /usr/include/leptonica/jbclass.h
>>> /usr/include/leptonica/bmfdata.h
>>> /usr/include/leptonica/regutils.h
>>> /usr/include/leptonica/endianness.h
>>> /usr/include/leptonica/arrayaccess.h
>>> /usr/include/leptonica/heap.h
>>> /usr/include/leptonica/readbarcode.h
>>> /usr/include/leptonica/imageio.h
>>> /usr/include/leptonica/stringcode.h
>>> /usr/include/leptonica/stack.h
>>> /usr/include/leptonica/pix.h
>>> /usr/include/leptonica/queue.h
>>> /usr/include/leptonica/sudoku.h
>>> /usr/include/leptonica/recog.h
>>> /usr/include/leptonica/list.h
>>> /usr/include/leptonica/alltypes.h
>>> /usr/include/leptonica/ccbord.h
>>> /usr/include/leptonica/leptwin.h
>>> /usr/include/leptonica/watershed.h
>>> /usr/include/leptonica/rbtree.h
>>> /usr/include/leptonica/dewarp.h
--- /usr/bin/
>>> /usr/bin/imagetops
>>> /usr/bin/converttopdf
>>> /usr/bin/convertfilestops
>>> /usr/bin/convertsegfilestops
>>> /usr/bin/convertsegfilestopdf
>>> /usr/bin/xtractprotos
>>> /usr/bin/convertformat
>>> /usr/bin/converttops
>>> /usr/bin/convertfilestopdf
>>> /usr/bin/fileinfo
>>> Safely unmerging already-installed instance...
>>> Original instance of package unmerged safely.
>>> media-libs/leptonica-1.79.0-r1 merged.
>>> Regenerating /etc/ld.so.cache...
