No package files given... Grabbing a set.
--- replaced obj /usr/share/alsa/pcm/surround71.conf
--- replaced obj /usr/share/alsa/pcm/surround51.conf
--- replaced obj /usr/share/alsa/pcm/surround50.conf
--- replaced obj /usr/share/alsa/pcm/surround41.conf
--- replaced obj /usr/share/alsa/pcm/surround40.conf
--- replaced obj /usr/share/alsa/pcm/surround21.conf
--- replaced obj /usr/share/alsa/pcm/side.conf
--- replaced obj /usr/share/alsa/pcm/rear.conf
--- replaced obj /usr/share/alsa/pcm/modem.conf
--- replaced obj /usr/share/alsa/pcm/iec958.conf
--- replaced obj /usr/share/alsa/pcm/hdmi.conf
--- replaced obj /usr/share/alsa/pcm/front.conf
--- replaced obj /usr/share/alsa/pcm/dsnoop.conf
--- replaced obj /usr/share/alsa/pcm/dpl.conf
--- replaced obj /usr/share/alsa/pcm/dmix.conf
--- replaced obj /usr/share/alsa/pcm/default.conf
--- replaced obj /usr/share/alsa/pcm/center_lfe.conf
--- replaced dir /usr/share/alsa/pcm
--- replaced obj /usr/share/alsa/cards/vc4-hdmi.conf
--- replaced obj /usr/share/alsa/cards/pistachio-card.conf
--- replaced obj /usr/share/alsa/cards/aliases.conf
--- replaced obj /usr/share/alsa/cards/YMF744.conf
--- replaced obj /usr/share/alsa/cards/VXPocket440.conf
--- replaced obj /usr/share/alsa/cards/VXPocket.conf
--- replaced obj /usr/share/alsa/cards/VX222.conf
--- replaced obj /usr/share/alsa/cards/VIA8237.conf
--- replaced obj /usr/share/alsa/cards/VIA8233A.conf
--- replaced obj /usr/share/alsa/cards/VIA8233.conf
--- replaced obj /usr/share/alsa/cards/VIA686A.conf
--- replaced obj /usr/share/alsa/cards/USB-Audio.conf
--- replaced obj /usr/share/alsa/cards/TRID4DWAVENX.conf
--- replaced obj /usr/share/alsa/cards/SI7018.conf
--- replaced obj /usr/share/alsa/cards/SB-XFi.conf
--- replaced obj /usr/share/alsa/cards/RME9652.conf
--- replaced obj /usr/share/alsa/cards/RME9636.conf
--- replaced obj /usr/share/alsa/cards/PS3.conf
--- replaced obj /usr/share/alsa/cards/PMacToonie.conf
--- replaced obj /usr/share/alsa/cards/PMac.conf
--- replaced obj /usr/share/alsa/cards/PC-Speaker.conf
--- replaced obj /usr/share/alsa/cards/NFORCE.conf
--- replaced obj /usr/share/alsa/cards/Maestro3.conf
--- replaced obj /usr/share/alsa/cards/Loopback.conf
--- replaced obj /usr/share/alsa/cards/ICH4.conf
--- replaced obj /usr/share/alsa/cards/ICH.conf
--- replaced obj /usr/share/alsa/cards/ICH-MODEM.conf
--- replaced obj /usr/share/alsa/cards/ICE1724.conf
--- replaced obj /usr/share/alsa/cards/ICE1712.conf
--- replaced obj /usr/share/alsa/cards/HdmiLpeAudio.conf
--- replaced obj /usr/share/alsa/cards/HDA-Intel.conf
--- replaced obj /usr/share/alsa/cards/GUS.conf
--- replaced obj /usr/share/alsa/cards/FireWave.conf
--- replaced obj /usr/share/alsa/cards/FWSpeakers.conf
--- replaced obj /usr/share/alsa/cards/FM801.conf
--- replaced obj /usr/share/alsa/cards/Echo_Echo3G.conf
--- replaced obj /usr/share/alsa/cards/ES1968.conf
--- replaced obj /usr/share/alsa/cards/ENS1371.conf
--- replaced obj /usr/share/alsa/cards/ENS1370.conf
--- replaced obj /usr/share/alsa/cards/EMU10K1X.conf
--- replaced obj /usr/share/alsa/cards/EMU10K1.conf
--- replaced obj /usr/share/alsa/cards/CS46xx.conf
--- replaced obj /usr/share/alsa/cards/CMI8788.conf
--- replaced obj /usr/share/alsa/cards/CMI8738-MC8.conf
--- replaced obj /usr/share/alsa/cards/CMI8738-MC6.conf
--- replaced obj /usr/share/alsa/cards/CMI8338.conf
--- replaced obj /usr/share/alsa/cards/CMI8338-SWIEC.conf
--- replaced obj /usr/share/alsa/cards/CA0106.conf
--- replaced obj /usr/share/alsa/cards/Aureon71.conf
--- replaced obj /usr/share/alsa/cards/Aureon51.conf
--- replaced obj /usr/share/alsa/cards/Audigy2.conf
--- replaced obj /usr/share/alsa/cards/Audigy.conf
--- replaced obj /usr/share/alsa/cards/AU8830.conf
--- replaced obj /usr/share/alsa/cards/AU8820.conf
--- replaced obj /usr/share/alsa/cards/AU8810.conf
--- replaced obj /usr/share/alsa/cards/ATIIXP.conf
--- replaced obj /usr/share/alsa/cards/ATIIXP-SPDMA.conf
--- replaced obj /usr/share/alsa/cards/ATIIXP-MODEM.conf
--- replaced obj /usr/share/alsa/cards/AACI.conf
--- replaced dir /usr/share/alsa/cards
--- replaced obj /usr/share/alsa/alsa.conf
--- replaced dir /usr/share/alsa
--- replaced obj /usr/share/aclocal/alsa.m4
--- replaced dir /usr/share/aclocal
--- replaced dir /usr/share
--- replaced obj /usr/lib64/pkgconfig/alsa.pc
--- replaced obj /usr/lib64/pkgconfig/alsa-topology.pc
--- replaced dir /usr/lib64/pkgconfig
--- replaced obj /usr/lib64/libatopology.so.2.0.0
--- replaced sym /usr/lib64/libatopology.so.2
--- replaced sym /usr/lib64/libatopology.so
--- replaced obj /usr/lib64/libasound.so.2.0.0
--- replaced sym /usr/lib64/libasound.so.2
--- replaced sym /usr/lib64/libasound.so
--- replaced dir /usr/lib64
--- replaced obj /usr/include/sys/asoundlib.h
--- replaced dir /usr/include/sys
--- replaced obj /usr/include/asoundlib.h
--- replaced obj /usr/include/alsa/version.h
--- replaced obj /usr/include/alsa/use-case.h
--- replaced obj /usr/include/alsa/topology.h
--- replaced obj /usr/include/alsa/timer.h
--- replaced obj /usr/include/alsa/sound/uapi/tlv.h
--- replaced obj /usr/include/alsa/sound/uapi/sscape_ioctl.h
--- replaced obj /usr/include/alsa/sound/uapi/sb16_csp.h
--- replaced obj /usr/include/alsa/sound/uapi/hdspm.h
--- replaced obj /usr/include/alsa/sound/uapi/hdsp.h
--- replaced obj /usr/include/alsa/sound/uapi/emu10k1.h
--- replaced obj /usr/include/alsa/sound/uapi/asound_fm.h
--- replaced obj /usr/include/alsa/sound/uapi/asoc.h
--- replaced dir /usr/include/alsa/sound/uapi
--- replaced obj /usr/include/alsa/sound/type_compat.h
--- replaced obj /usr/include/alsa/sound/tlv.h
--- replaced obj /usr/include/alsa/sound/sscape_ioctl.h
--- replaced obj /usr/include/alsa/sound/sb16_csp.h
--- replaced obj /usr/include/alsa/sound/hdspm.h
--- replaced obj /usr/include/alsa/sound/hdsp.h
--- replaced obj /usr/include/alsa/sound/emu10k1.h
--- replaced obj /usr/include/alsa/sound/asound_fm.h
--- replaced obj /usr/include/alsa/sound/asoc.h
--- replaced dir /usr/include/alsa/sound
--- replaced obj /usr/include/alsa/seqmid.h
--- replaced obj /usr/include/alsa/seq_midi_event.h
--- replaced obj /usr/include/alsa/seq_event.h
--- replaced obj /usr/include/alsa/seq.h
--- replaced obj /usr/include/alsa/rawmidi.h
--- replaced obj /usr/include/alsa/pcm_rate.h
--- replaced obj /usr/include/alsa/pcm_plugin.h
--- replaced obj /usr/include/alsa/pcm_old.h
--- replaced obj /usr/include/alsa/pcm_ioplug.h
--- replaced obj /usr/include/alsa/pcm_extplug.h
--- replaced obj /usr/include/alsa/pcm_external.h
--- replaced obj /usr/include/alsa/pcm.h
--- replaced obj /usr/include/alsa/output.h
--- replaced obj /usr/include/alsa/mixer_abst.h
--- replaced obj /usr/include/alsa/mixer.h
--- replaced obj /usr/include/alsa/input.h
--- replaced obj /usr/include/alsa/hwdep.h
--- replaced obj /usr/include/alsa/global.h
--- replaced obj /usr/include/alsa/error.h
--- replaced obj /usr/include/alsa/control_external.h
--- replaced obj /usr/include/alsa/control.h
--- replaced obj /usr/include/alsa/conf.h
--- replaced obj /usr/include/alsa/asoundlib.h
--- replaced obj /usr/include/alsa/asoundef.h
--- replaced dir /usr/include/alsa
--- replaced dir /usr/include
--- replaced obj /usr/bin/aserver
--- replaced dir /usr/bin
--- replaced dir /usr
>>> Regenerating /etc/ld.so.cache...
