No package files given... Grabbing a set.
--- replaced sym /var/lib/subsonic/transcode/ffmpeg
--- replaced dir /var/lib/subsonic/transcode
--- replaced obj /var/lib/subsonic/.keep_media-sound_subsonic-bin-0
--- replaced dir /var/lib/subsonic
--- replaced dir /var/lib
--- replaced dir /var
--- replaced obj /usr/libexec/subsonic/subsonic.war
--- replaced obj /usr/libexec/subsonic/subsonic.sh
--- replaced obj /usr/libexec/subsonic/subsonic-booter-jar-with-dependencies.jar
--- replaced dir /usr/libexec/subsonic
--- replaced dir /usr/libexec
--- replaced obj /usr/bin/subsonic
--- replaced dir /usr/bin
--- replaced dir /usr
--- replaced obj /etc/init.d/subsonic
--- replaced dir /etc/init.d
--- replaced obj /etc/conf.d/subsonic
--- replaced dir /etc/conf.d
--- replaced dir /etc
>>> Regenerating /etc/ld.so.cache...
