[32;01m * [39;49;00mPackage:    media-sound/pulseaudio-13.0
[32;01m * [39;49;00mRepository: gentoo
[32;01m * [39;49;00mMaintainer: gnome@gentoo.org
[32;01m * [39;49;00mUSE:        X abi_x86_32 abi_x86_64 alsa alsa-plugin amd64 asyncns caps dbus elibc_glibc gdbm glib gtk kernel_linux libsamplerate orc qt5 sox ssl systemd tcpd udev userland_GNU webrtc-aec zeroconf
[32;01m * [39;49;00mFEATURES:   ccache network-sandbox preserve-libs sandbox userpriv usersandbox
 [32;01m*[0m Determining the location of the kernel source code
 [32;01m*[0m Found kernel source directory:
 [32;01m*[0m     /usr/src/linux
 [32;01m*[0m Found sources for kernel version:
 [32;01m*[0m     5.6.12-xanmod1gnum.org
 [32;01m*[0m Checking for suitable kernel configuration options...
[A[263C [34;01m[ [32;01mok[34;01m ][0m
 [33;01m*[0m A preallocated buffer-size of 2048 (kB) or higher is recommended for the HD-audio driver!
 [33;01m*[0m CONFIG_SND_HDA_PREALLOC_SIZE=0
