 * Package:    media-libs/libmatroska-1.5.2
 * Repository: gentoo
 * Maintainer: media-video@gentoo.org
 * USE:        abi_x86_64 amd64 elibc_glibc kernel_linux userland_GNU
 * FEATURES:   network-sandbox preserve-libs sandbox userpriv usersandbox
 * FEATURES='assume-digests binpkg-docompress binpkg-dostrip binpkg-logs buildpkg cgroup compress-index config-protect-if-modified distlocks ebuild-locks fixlafiles ipc-sandbox merge-sync multilib-strict network-sandbox news nodoc parallel-fetch pid-sandbox preserve-libs qa-unresolved-soname-deps sandbox sfperms strict strict-keepdir unknown-features-warn unmerge-logs unmerge-orphans userfetch userpriv usersandbox usersync xattr'
 * CFLAGS='-march=znver2 -O2 -pipe -fno-stack-protector -fno-stack-clash-protection -fstack-check=no -fno-stack-check -Wl,-O1 -Wl,--as-needed'
 * CXXFLAGS='-march=znver2 -O2 -pipe -fno-stack-protector -fno-stack-clash-protection -fstack-check=no -fno-stack-check -Wl,-O1 -Wl,--as-needed'
 * FFLAGS='-march=znver2 -O2 -pipe -fno-stack-protector -fno-stack-clash-protection -fstack-check=no -fno-stack-check -Wl,-O1 -Wl,--as-needed'
 * FCFLAGS='-march=znver2 -O2 -pipe -fno-stack-protector -fno-stack-clash-protection -fstack-check=no -fno-stack-check -Wl,-O1 -Wl,--as-needed'
 * F77FLAGS='-march=znver2 -O2 -pipe -fno-stack-protector -fno-stack-clash-protection -fstack-check=no -fno-stack-check -Wl,-O1 -Wl,--as-needed'
 * LDFLAGS='-Wl,-O1 -Wl,--as-needed'
 * MAKEOPTS='-j12 -l12'
 * gcc (Gentoo 10.1.0-r1 p2) 10.1.0
 * g++ (Gentoo 10.1.0-r1 p2) 10.1.0
 * GNU gold (Gentoo 2.34 p4 2.34.0) 1.16
 * Linux rescue 5.4.36 #1 SMP Thu Apr 30 04:38:28 UTC 2020 x86_64 AMD Ryzen 5 3600 6-Core Processor AuthenticAMD GNU/Linux
media-libs/libmatroska: 21 seconds average for 8 merges
2020-05-20T01:12:48 >>> media-libs/libmatroska: 6 seconds
2020-05-21T06:09:31 >>> media-libs/libmatroska: 5 seconds
2020-05-23T16:32:42 >>> media-libs/libmatroska: 21 seconds
2020-05-26T14:09:54 >>> media-libs/libmatroska: 9 seconds
2020-05-28T14:34:23 >>> media-libs/libmatroska: 16 seconds
2020-05-31T00:05:49 >>> media-libs/libmatroska: 20 seconds
2020-06-01T10:00:57 >>> media-libs/libmatroska: 23 seconds
2020-06-13T20:18:29 >>> media-libs/libmatroska: 1 minute, 15 seconds
]0;emerge 17:33:58 734|895 libmatroska 00:39 (root@rescue)>>> Unpacking source...
>>> Unpacking libmatroska-1.5.2.tar.xz to /tmp/portage/media-libs/libmatroska-1.5.2/work
>>> Source unpacked in /tmp/portage/media-libs/libmatroska-1.5.2/work
>>> Preparing source in /tmp/portage/media-libs/libmatroska-1.5.2/work/libmatroska-1.5.2 ...
 * Working in BUILD_DIR: "/tmp/portage/media-libs/libmatroska-1.5.2/work/libmatroska-1.5.2_build"
>>> Source prepared.
>>> Configuring source in /tmp/portage/media-libs/libmatroska-1.5.2/work/libmatroska-1.5.2 ...
 * Working in BUILD_DIR: "/tmp/portage/media-libs/libmatroska-1.5.2/work/libmatroska-1.5.2_build"
cmake -C /tmp/portage/media-libs/libmatroska-1.5.2/work/libmatroska-1.5.2_build/gentoo_common_config.cmake -G Ninja -DCMAKE_INSTALL_PREFIX=/usr -DBUILD_SHARED_LIBS=YES -DCMAKE_BUILD_TYPE=Gentoo -DCMAKE_TOOLCHAIN_FILE=/tmp/portage/media-libs/libmatroska-1.5.2/work/libmatroska-1.5.2_build/gentoo_toolchain.cmake  /tmp/portage/media-libs/libmatroska-1.5.2/work/libmatroska-1.5.2
loading initial cache file /tmp/portage/media-libs/libmatroska-1.5.2/work/libmatroska-1.5.2_build/gentoo_common_config.cmake
-- The C compiler identification is GNU 10.1.0
-- The CXX compiler identification is GNU 10.1.0
-- Check for working C compiler: /usr/bin/x86_64-pc-linux-gnu-gcc
-- Check for working C compiler: /usr/bin/x86_64-pc-linux-gnu-gcc - works
-- Detecting C compiler ABI info
-- Detecting C compiler ABI info - done
-- Detecting C compile features
-- Detecting C compile features - done
-- Check for working CXX compiler: /usr/bin/x86_64-pc-linux-gnu-g++
-- Check for working CXX compiler: /usr/bin/x86_64-pc-linux-gnu-g++ - works
-- Detecting CXX compiler ABI info
-- Detecting CXX compiler ABI info - done
-- Detecting CXX compile features
-- Detecting CXX compile features - done
-- <<< Gentoo configuration >>>
Build type      Gentoo
Install path    /usr
Compiler flags:
C               -march=znver2 -O2 -pipe -fno-stack-protector -fno-stack-clash-protection -fstack-check=no -fno-stack-check -Wl,-O1 -Wl,--as-needed
C++             -march=znver2 -O2 -pipe -fno-stack-protector -fno-stack-clash-protection -fstack-check=no -fno-stack-check -Wl,-O1 -Wl,--as-needed
Linker flags:
Executable      -Wl,-O1 -Wl,--as-needed
Module          -Wl,-O1 -Wl,--as-needed
Shared          -Wl,-O1 -Wl,--as-needed

-- Configuring done
-- Generating done
-- Build files have been written to: /tmp/portage/media-libs/libmatroska-1.5.2/work/libmatroska-1.5.2_build
>>> Source configured.
>>> Compiling source in /tmp/portage/media-libs/libmatroska-1.5.2/work/libmatroska-1.5.2 ...
 * Working in BUILD_DIR: "/tmp/portage/media-libs/libmatroska-1.5.2/work/libmatroska-1.5.2_build"
ninja -v -j12 -l12
[1/17] /usr/bin/x86_64-pc-linux-gnu-g++ -DMATROSKA_DLL -DMATROSKA_DLL_EXPORT -I/tmp/portage/media-libs/libmatroska-1.5.2/work/libmatroska-1.5.2  -march=znver2 -O2 -pipe -fno-stack-protector -fno-stack-clash-protection -fstack-check=no -fno-stack-check -Wl,-O1 -Wl,--as-needed -fPIC -MD -MT CMakeFiles/matroska.dir/src/FileKax.cpp.o -MF CMakeFiles/matroska.dir/src/FileKax.cpp.o.d -o CMakeFiles/matroska.dir/src/FileKax.cpp.o -c /tmp/portage/media-libs/libmatroska-1.5.2/work/libmatroska-1.5.2/src/FileKax.cpp
[2/17] /usr/bin/x86_64-pc-linux-gnu-g++ -DMATROSKA_DLL -DMATROSKA_DLL_EXPORT -I/tmp/portage/media-libs/libmatroska-1.5.2/work/libmatroska-1.5.2  -march=znver2 -O2 -pipe -fno-stack-protector -fno-stack-clash-protection -fstack-check=no -fno-stack-check -Wl,-O1 -Wl,--as-needed -fPIC -MD -MT CMakeFiles/matroska.dir/src/KaxAttached.cpp.o -MF CMakeFiles/matroska.dir/src/KaxAttached.cpp.o.d -o CMakeFiles/matroska.dir/src/KaxAttached.cpp.o -c /tmp/portage/media-libs/libmatroska-1.5.2/work/libmatroska-1.5.2/src/KaxAttached.cpp
[3/17] /usr/bin/x86_64-pc-linux-gnu-g++ -DMATROSKA_DLL -DMATROSKA_DLL_EXPORT -I/tmp/portage/media-libs/libmatroska-1.5.2/work/libmatroska-1.5.2  -march=znver2 -O2 -pipe -fno-stack-protector -fno-stack-clash-protection -fstack-check=no -fno-stack-check -Wl,-O1 -Wl,--as-needed -fPIC -MD -MT CMakeFiles/matroska.dir/src/KaxAttachments.cpp.o -MF CMakeFiles/matroska.dir/src/KaxAttachments.cpp.o.d -o CMakeFiles/matroska.dir/src/KaxAttachments.cpp.o -c /tmp/portage/media-libs/libmatroska-1.5.2/work/libmatroska-1.5.2/src/KaxAttachments.cpp
[4/17] /usr/bin/x86_64-pc-linux-gnu-g++ -DMATROSKA_DLL -DMATROSKA_DLL_EXPORT -I/tmp/portage/media-libs/libmatroska-1.5.2/work/libmatroska-1.5.2  -march=znver2 -O2 -pipe -fno-stack-protector -fno-stack-clash-protection -fstack-check=no -fno-stack-check -Wl,-O1 -Wl,--as-needed -fPIC -MD -MT CMakeFiles/matroska.dir/src/KaxBlock.cpp.o -MF CMakeFiles/matroska.dir/src/KaxBlock.cpp.o.d -o CMakeFiles/matroska.dir/src/KaxBlock.cpp.o -c /tmp/portage/media-libs/libmatroska-1.5.2/work/libmatroska-1.5.2/src/KaxBlock.cpp
[5/17] /usr/bin/x86_64-pc-linux-gnu-g++ -DMATROSKA_DLL -DMATROSKA_DLL_EXPORT -I/tmp/portage/media-libs/libmatroska-1.5.2/work/libmatroska-1.5.2  -march=znver2 -O2 -pipe -fno-stack-protector -fno-stack-clash-protection -fstack-check=no -fno-stack-check -Wl,-O1 -Wl,--as-needed -fPIC -MD -MT CMakeFiles/matroska.dir/src/KaxBlockData.cpp.o -MF CMakeFiles/matroska.dir/src/KaxBlockData.cpp.o.d -o CMakeFiles/matroska.dir/src/KaxBlockData.cpp.o -c /tmp/portage/media-libs/libmatroska-1.5.2/work/libmatroska-1.5.2/src/KaxBlockData.cpp
[6/17] /usr/bin/x86_64-pc-linux-gnu-g++ -DMATROSKA_DLL -DMATROSKA_DLL_EXPORT -I/tmp/portage/media-libs/libmatroska-1.5.2/work/libmatroska-1.5.2  -march=znver2 -O2 -pipe -fno-stack-protector -fno-stack-clash-protection -fstack-check=no -fno-stack-check -Wl,-O1 -Wl,--as-needed -fPIC -MD -MT CMakeFiles/matroska.dir/src/KaxCluster.cpp.o -MF CMakeFiles/matroska.dir/src/KaxCluster.cpp.o.d -o CMakeFiles/matroska.dir/src/KaxCluster.cpp.o -c /tmp/portage/media-libs/libmatroska-1.5.2/work/libmatroska-1.5.2/src/KaxCluster.cpp
[7/17] /usr/bin/x86_64-pc-linux-gnu-g++ -DMATROSKA_DLL -DMATROSKA_DLL_EXPORT -I/tmp/portage/media-libs/libmatroska-1.5.2/work/libmatroska-1.5.2  -march=znver2 -O2 -pipe -fno-stack-protector -fno-stack-clash-protection -fstack-check=no -fno-stack-check -Wl,-O1 -Wl,--as-needed -fPIC -MD -MT CMakeFiles/matroska.dir/src/KaxContexts.cpp.o -MF CMakeFiles/matroska.dir/src/KaxContexts.cpp.o.d -o CMakeFiles/matroska.dir/src/KaxContexts.cpp.o -c /tmp/portage/media-libs/libmatroska-1.5.2/work/libmatroska-1.5.2/src/KaxContexts.cpp
[8/17] /usr/bin/x86_64-pc-linux-gnu-g++ -DMATROSKA_DLL -DMATROSKA_DLL_EXPORT -I/tmp/portage/media-libs/libmatroska-1.5.2/work/libmatroska-1.5.2  -march=znver2 -O2 -pipe -fno-stack-protector -fno-stack-clash-protection -fstack-check=no -fno-stack-check -Wl,-O1 -Wl,--as-needed -fPIC -MD -MT CMakeFiles/matroska.dir/src/KaxCues.cpp.o -MF CMakeFiles/matroska.dir/src/KaxCues.cpp.o.d -o CMakeFiles/matroska.dir/src/KaxCues.cpp.o -c /tmp/portage/media-libs/libmatroska-1.5.2/work/libmatroska-1.5.2/src/KaxCues.cpp
[9/17] /usr/bin/x86_64-pc-linux-gnu-g++ -DMATROSKA_DLL -DMATROSKA_DLL_EXPORT -I/tmp/portage/media-libs/libmatroska-1.5.2/work/libmatroska-1.5.2  -march=znver2 -O2 -pipe -fno-stack-protector -fno-stack-clash-protection -fstack-check=no -fno-stack-check -Wl,-O1 -Wl,--as-needed -fPIC -MD -MT CMakeFiles/matroska.dir/src/KaxCuesData.cpp.o -MF CMakeFiles/matroska.dir/src/KaxCuesData.cpp.o.d -o CMakeFiles/matroska.dir/src/KaxCuesData.cpp.o -c /tmp/portage/media-libs/libmatroska-1.5.2/work/libmatroska-1.5.2/src/KaxCuesData.cpp
[10/17] /usr/bin/x86_64-pc-linux-gnu-g++ -DMATROSKA_DLL -DMATROSKA_DLL_EXPORT -I/tmp/portage/media-libs/libmatroska-1.5.2/work/libmatroska-1.5.2  -march=znver2 -O2 -pipe -fno-stack-protector -fno-stack-clash-protection -fstack-check=no -fno-stack-check -Wl,-O1 -Wl,--as-needed -fPIC -MD -MT CMakeFiles/matroska.dir/src/KaxInfoData.cpp.o -MF CMakeFiles/matroska.dir/src/KaxInfoData.cpp.o.d -o CMakeFiles/matroska.dir/src/KaxInfoData.cpp.o -c /tmp/portage/media-libs/libmatroska-1.5.2/work/libmatroska-1.5.2/src/KaxInfoData.cpp
[11/17] /usr/bin/x86_64-pc-linux-gnu-g++ -DMATROSKA_DLL -DMATROSKA_DLL_EXPORT -I/tmp/portage/media-libs/libmatroska-1.5.2/work/libmatroska-1.5.2  -march=znver2 -O2 -pipe -fno-stack-protector -fno-stack-clash-protection -fstack-check=no -fno-stack-check -Wl,-O1 -Wl,--as-needed -fPIC -MD -MT CMakeFiles/matroska.dir/src/KaxSeekHead.cpp.o -MF CMakeFiles/matroska.dir/src/KaxSeekHead.cpp.o.d -o CMakeFiles/matroska.dir/src/KaxSeekHead.cpp.o -c /tmp/portage/media-libs/libmatroska-1.5.2/work/libmatroska-1.5.2/src/KaxSeekHead.cpp
[12/17] /usr/bin/x86_64-pc-linux-gnu-g++ -DMATROSKA_DLL -DMATROSKA_DLL_EXPORT -I/tmp/portage/media-libs/libmatroska-1.5.2/work/libmatroska-1.5.2  -march=znver2 -O2 -pipe -fno-stack-protector -fno-stack-clash-protection -fstack-check=no -fno-stack-check -Wl,-O1 -Wl,--as-needed -fPIC -MD -MT CMakeFiles/matroska.dir/src/KaxSegment.cpp.o -MF CMakeFiles/matroska.dir/src/KaxSegment.cpp.o.d -o CMakeFiles/matroska.dir/src/KaxSegment.cpp.o -c /tmp/portage/media-libs/libmatroska-1.5.2/work/libmatroska-1.5.2/src/KaxSegment.cpp
[13/17] /usr/bin/x86_64-pc-linux-gnu-g++ -DMATROSKA_DLL -DMATROSKA_DLL_EXPORT -I/tmp/portage/media-libs/libmatroska-1.5.2/work/libmatroska-1.5.2  -march=znver2 -O2 -pipe -fno-stack-protector -fno-stack-clash-protection -fstack-check=no -fno-stack-check -Wl,-O1 -Wl,--as-needed -fPIC -MD -MT CMakeFiles/matroska.dir/src/KaxSemantic.cpp.o -MF CMakeFiles/matroska.dir/src/KaxSemantic.cpp.o.d -o CMakeFiles/matroska.dir/src/KaxSemantic.cpp.o -c /tmp/portage/media-libs/libmatroska-1.5.2/work/libmatroska-1.5.2/src/KaxSemantic.cpp
[14/17] /usr/bin/x86_64-pc-linux-gnu-g++ -DMATROSKA_DLL -DMATROSKA_DLL_EXPORT -I/tmp/portage/media-libs/libmatroska-1.5.2/work/libmatroska-1.5.2  -march=znver2 -O2 -pipe -fno-stack-protector -fno-stack-clash-protection -fstack-check=no -fno-stack-check -Wl,-O1 -Wl,--as-needed -fPIC -MD -MT CMakeFiles/matroska.dir/src/KaxTracks.cpp.o -MF CMakeFiles/matroska.dir/src/KaxTracks.cpp.o.d -o CMakeFiles/matroska.dir/src/KaxTracks.cpp.o -c /tmp/portage/media-libs/libmatroska-1.5.2/work/libmatroska-1.5.2/src/KaxTracks.cpp
[15/17] /usr/bin/x86_64-pc-linux-gnu-g++ -DMATROSKA_DLL -DMATROSKA_DLL_EXPORT -I/tmp/portage/media-libs/libmatroska-1.5.2/work/libmatroska-1.5.2  -march=znver2 -O2 -pipe -fno-stack-protector -fno-stack-clash-protection -fstack-check=no -fno-stack-check -Wl,-O1 -Wl,--as-needed -fPIC -MD -MT CMakeFiles/matroska.dir/src/KaxVersion.cpp.o -MF CMakeFiles/matroska.dir/src/KaxVersion.cpp.o.d -o CMakeFiles/matroska.dir/src/KaxVersion.cpp.o -c /tmp/portage/media-libs/libmatroska-1.5.2/work/libmatroska-1.5.2/src/KaxVersion.cpp
[16/17] : && /usr/bin/x86_64-pc-linux-gnu-g++ -fPIC -march=znver2 -O2 -pipe -fno-stack-protector -fno-stack-clash-protection -fstack-check=no -fno-stack-check -Wl,-O1 -Wl,--as-needed  -Wl,-O1 -Wl,--as-needed -shared -Wl,-soname,libmatroska.so.6 -o libmatroska.so.6.0.0 CMakeFiles/matroska.dir/src/FileKax.cpp.o CMakeFiles/matroska.dir/src/KaxAttached.cpp.o CMakeFiles/matroska.dir/src/KaxAttachments.cpp.o CMakeFiles/matroska.dir/src/KaxBlock.cpp.o CMakeFiles/matroska.dir/src/KaxBlockData.cpp.o CMakeFiles/matroska.dir/src/KaxCluster.cpp.o CMakeFiles/matroska.dir/src/KaxContexts.cpp.o CMakeFiles/matroska.dir/src/KaxCues.cpp.o CMakeFiles/matroska.dir/src/KaxCuesData.cpp.o CMakeFiles/matroska.dir/src/KaxInfoData.cpp.o CMakeFiles/matroska.dir/src/KaxSeekHead.cpp.o CMakeFiles/matroska.dir/src/KaxSegment.cpp.o CMakeFiles/matroska.dir/src/KaxSemantic.cpp.o CMakeFiles/matroska.dir/src/KaxTracks.cpp.o CMakeFiles/matroska.dir/src/KaxVersion.cpp.o  /usr/lib64/libebml.so.4.0.0 && :
[17/17] /usr/bin/cmake -E cmake_symlink_library libmatroska.so.6.0.0  libmatroska.so.6 libmatroska.so && :
>>> Source compiled.
>>> Test phase [not enabled]: media-libs/libmatroska-1.5.2

>>> Install media-libs/libmatroska-1.5.2 into /tmp/portage/media-libs/libmatroska-1.5.2/image
 * Working in BUILD_DIR: "/tmp/portage/media-libs/libmatroska-1.5.2/work/libmatroska-1.5.2_build"
[0/1] Install the project...[K
-- Install configuration: "Gentoo"
-- Installing: /tmp/portage/media-libs/libmatroska-1.5.2/image/usr/lib64/libmatroska.so.6.0.0
-- Installing: /tmp/portage/media-libs/libmatroska-1.5.2/image/usr/lib64/libmatroska.so.6
-- Installing: /tmp/portage/media-libs/libmatroska-1.5.2/image/usr/lib64/libmatroska.so
-- Installing: /tmp/portage/media-libs/libmatroska-1.5.2/image/usr/include/matroska/FileKax.h
-- Installing: /tmp/portage/media-libs/libmatroska-1.5.2/image/usr/include/matroska/KaxAttached.h
-- Installing: /tmp/portage/media-libs/libmatroska-1.5.2/image/usr/include/matroska/KaxAttachments.h
-- Installing: /tmp/portage/media-libs/libmatroska-1.5.2/image/usr/include/matroska/KaxBlockData.h
-- Installing: /tmp/portage/media-libs/libmatroska-1.5.2/image/usr/include/matroska/KaxBlock.h
-- Installing: /tmp/portage/media-libs/libmatroska-1.5.2/image/usr/include/matroska/KaxChapters.h
-- Installing: /tmp/portage/media-libs/libmatroska-1.5.2/image/usr/include/matroska/KaxClusterData.h
-- Installing: /tmp/portage/media-libs/libmatroska-1.5.2/image/usr/include/matroska/KaxCluster.h
-- Installing: /tmp/portage/media-libs/libmatroska-1.5.2/image/usr/include/matroska/KaxConfig.h
-- Installing: /tmp/portage/media-libs/libmatroska-1.5.2/image/usr/include/matroska/KaxContentEncoding.h
-- Installing: /tmp/portage/media-libs/libmatroska-1.5.2/image/usr/include/matroska/KaxContexts.h
-- Installing: /tmp/portage/media-libs/libmatroska-1.5.2/image/usr/include/matroska/KaxCuesData.h
-- Installing: /tmp/portage/media-libs/libmatroska-1.5.2/image/usr/include/matroska/KaxCues.h
-- Installing: /tmp/portage/media-libs/libmatroska-1.5.2/image/usr/include/matroska/KaxDefines.h
-- Installing: /tmp/portage/media-libs/libmatroska-1.5.2/image/usr/include/matroska/KaxInfoData.h
-- Installing: /tmp/portage/media-libs/libmatroska-1.5.2/image/usr/include/matroska/KaxInfo.h
-- Installing: /tmp/portage/media-libs/libmatroska-1.5.2/image/usr/include/matroska/KaxSeekHead.h
-- Installing: /tmp/portage/media-libs/libmatroska-1.5.2/image/usr/include/matroska/KaxSegment.h
-- Installing: /tmp/portage/media-libs/libmatroska-1.5.2/image/usr/include/matroska/KaxSemantic.h
-- Installing: /tmp/portage/media-libs/libmatroska-1.5.2/image/usr/include/matroska/KaxTag.h
-- Installing: /tmp/portage/media-libs/libmatroska-1.5.2/image/usr/include/matroska/KaxTags.h
-- Installing: /tmp/portage/media-libs/libmatroska-1.5.2/image/usr/include/matroska/KaxTrackAudio.h
-- Installing: /tmp/portage/media-libs/libmatroska-1.5.2/image/usr/include/matroska/KaxTrackEntryData.h
-- Installing: /tmp/portage/media-libs/libmatroska-1.5.2/image/usr/include/matroska/KaxTracks.h
-- Installing: /tmp/portage/media-libs/libmatroska-1.5.2/image/usr/include/matroska/KaxTrackVideo.h
-- Installing: /tmp/portage/media-libs/libmatroska-1.5.2/image/usr/include/matroska/KaxTypes.h
-- Installing: /tmp/portage/media-libs/libmatroska-1.5.2/image/usr/include/matroska/KaxVersion.h
-- Installing: /tmp/portage/media-libs/libmatroska-1.5.2/image/usr/include/matroska/c/libmatroska.h
-- Installing: /tmp/portage/media-libs/libmatroska-1.5.2/image/usr/include/matroska/c/libmatroska_t.h
-- Installing: /tmp/portage/media-libs/libmatroska-1.5.2/image/usr/lib64/pkgconfig/libmatroska.pc
-- Installing: /tmp/portage/media-libs/libmatroska-1.5.2/image/usr/lib64/cmake/Matroska/MatroskaTargets.cmake
-- Installing: /tmp/portage/media-libs/libmatroska-1.5.2/image/usr/lib64/cmake/Matroska/MatroskaTargets-gentoo.cmake
-- Installing: /tmp/portage/media-libs/libmatroska-1.5.2/image/usr/lib64/cmake/Matroska/MatroskaConfig.cmake
-- Installing: /tmp/portage/media-libs/libmatroska-1.5.2/image/usr/lib64/cmake/Matroska/MatroskaConfigVersion.cmake
>>> Completed installing media-libs/libmatroska-1.5.2 into /tmp/portage/media-libs/libmatroska-1.5.2/image

 * Final size of build directory: 4024 KiB (3.9 MiB)
 * Final size of installed tree:  1448 KiB (1.4 MiB)

Parallel BZIP2 v1.1.13 [Dec 18, 2015]
By: Jeff Gilchrist [http://compression.ca]
Major contributions: Yavor Nikolov [http://javornikolov.wordpress.com]
Uses libbzip2 by Julian Seward

         # CPUs: 1
   Load Average: 12.26
 BWT Block Size: 200 KB
File Block Size: 900 KB
 Maximum Memory: 1024 MB
-------------------------------------------
         File #: 1 of 1
     Input Name: compressme
    Output Name: compressme.bz2

     Input Size: 3895 bytes
Compressing data (no threads)...
Completed: 100%                 Output Size: 918 bytes
-------------------------------------------

     Wall Clock: 0.000760 seconds
Parallel BZIP2 v1.1.13 [Dec 18, 2015]
By: Jeff Gilchrist [http://compression.ca]
Major contributions: Yavor Nikolov [http://javornikolov.wordpress.com]
Uses libbzip2 by Julian Seward

         # CPUs: 1
   Load Average: 12.26
 BWT Block Size: 200 KB
File Block Size: 900 KB
 Maximum Memory: 1024 MB
-------------------------------------------
         File #: 1 of 1
     Input Name: /tmp/portage/media-libs/libmatroska-1.5.2/image/usr/share/doc/libmatroska-1.5.2/README.md
    Output Name: /tmp/portage/media-libs/libmatroska-1.5.2/image/usr/share/doc/libmatroska-1.5.2/README.md.bz2

     Input Size: 1501 bytes
Compressing data (no threads)...
Completed: 100%                 Output Size: 877 bytes
-------------------------------------------

     Wall Clock: 0.000745 seconds
Parallel BZIP2 v1.1.13 [Dec 18, 2015]
By: Jeff Gilchrist [http://compression.ca]
Major contributions: Yavor Nikolov [http://javornikolov.wordpress.com]
Uses libbzip2 by Julian Seward

         # CPUs: 1
   Load Average: 12.26
 BWT Block Size: 200 KB
File Block Size: 900 KB
 Maximum Memory: 1024 MB
-------------------------------------------
         File #: 1 of 1
     Input Name: /tmp/portage/media-libs/libmatroska-1.5.2/image/usr/share/doc/libmatroska-1.5.2/ChangeLog
    Output Name: /tmp/portage/media-libs/libmatroska-1.5.2/image/usr/share/doc/libmatroska-1.5.2/ChangeLog.bz2

     Input Size: 70947 bytes
Compressing data (no threads)...
Completed: 100%                 Output Size: 10636 bytes
-------------------------------------------

     Wall Clock: 0.005718 seconds
strip: x86_64-pc-linux-gnu-strip --strip-unneeded -N __gentoo_check_ldflags__ -R .comment -R .GCC.command.line -R .note.gnu.gold-version
   /usr/lib64/libmatroska.so.6.0.0
./
./usr/
./usr/include/
./usr/include/matroska/
./usr/include/matroska/KaxChapters.h
./usr/include/matroska/KaxTrackEntryData.h
./usr/include/matroska/KaxTrackVideo.h
./usr/include/matroska/KaxTracks.h
./usr/include/matroska/KaxContentEncoding.h
./usr/include/matroska/KaxTags.h
./usr/include/matroska/KaxSemantic.h
./usr/include/matroska/KaxBlock.h
./usr/include/matroska/KaxTag.h
./usr/include/matroska/KaxContexts.h
./usr/include/matroska/KaxInfoData.h
./usr/include/matroska/KaxConfig.h
./usr/include/matroska/KaxAttached.h
./usr/include/matroska/KaxTypes.h
./usr/include/matroska/KaxInfo.h
./usr/include/matroska/KaxClusterData.h
./usr/include/matroska/c/
./usr/include/matroska/c/libmatroska_t.h
./usr/include/matroska/c/libmatroska.h
./usr/include/matroska/KaxCuesData.h
./usr/include/matroska/KaxCluster.h
./usr/include/matroska/KaxVersion.h
./usr/include/matroska/KaxSeekHead.h
./usr/include/matroska/KaxBlockData.h
./usr/include/matroska/KaxAttachments.h
./usr/include/matroska/FileKax.h
./usr/include/matroska/KaxCues.h
./usr/include/matroska/KaxSegment.h
./usr/include/matroska/KaxTrackAudio.h
./usr/include/matroska/KaxDefines.h
./usr/share/
./usr/share/doc/
./usr/share/doc/libmatroska-1.5.2/
./usr/share/doc/libmatroska-1.5.2/ChangeLog
./usr/share/doc/libmatroska-1.5.2/ChangeLog.bz2
./usr/share/doc/libmatroska-1.5.2/README.md.bz2
./usr/share/doc/libmatroska-1.5.2/README.md
./usr/lib64/
./usr/lib64/libmatroska.so.6.0.0
./usr/lib64/libmatroska.so.6
./usr/lib64/libmatroska.so
./usr/lib64/cmake/
./usr/lib64/cmake/Matroska/
./usr/lib64/cmake/Matroska/MatroskaTargets.cmake
./usr/lib64/cmake/Matroska/MatroskaConfig.cmake
./usr/lib64/cmake/Matroska/MatroskaTargets-gentoo.cmake
./usr/lib64/cmake/Matroska/MatroskaConfigVersion.cmake
./usr/lib64/pkgconfig/
./usr/lib64/pkgconfig/libmatroska.pc
>>> Done.
 * checking 37 files for package collisions
>>> Merging media-libs/libmatroska-1.5.2 to /
 * removing unneeded *.la files
--- /usr/
--- /usr/lib64/
--- /usr/lib64/pkgconfig/
>>> /usr/lib64/pkgconfig/libmatroska.pc
--- /usr/lib64/cmake/
--- /usr/lib64/cmake/Matroska/
>>> /usr/lib64/cmake/Matroska/MatroskaConfigVersion.cmake
>>> /usr/lib64/cmake/Matroska/MatroskaTargets-gentoo.cmake
>>> /usr/lib64/cmake/Matroska/MatroskaConfig.cmake
>>> /usr/lib64/cmake/Matroska/MatroskaTargets.cmake
>>> /usr/lib64/libmatroska.so -> libmatroska.so.6
>>> /usr/lib64/libmatroska.so.6 -> libmatroska.so.6.0.0
>>> /usr/lib64/libmatroska.so.6.0.0
--- /usr/include/
--- /usr/include/matroska/
>>> /usr/include/matroska/KaxDefines.h
>>> /usr/include/matroska/KaxTrackAudio.h
>>> /usr/include/matroska/KaxSegment.h
>>> /usr/include/matroska/KaxCues.h
>>> /usr/include/matroska/FileKax.h
>>> /usr/include/matroska/KaxAttachments.h
>>> /usr/include/matroska/KaxBlockData.h
>>> /usr/include/matroska/KaxSeekHead.h
>>> /usr/include/matroska/KaxVersion.h
>>> /usr/include/matroska/KaxCluster.h
>>> /usr/include/matroska/KaxCuesData.h
--- /usr/include/matroska/c/
>>> /usr/include/matroska/c/libmatroska.h
>>> /usr/include/matroska/c/libmatroska_t.h
>>> /usr/include/matroska/KaxClusterData.h
>>> /usr/include/matroska/KaxInfo.h
>>> /usr/include/matroska/KaxTypes.h
>>> /usr/include/matroska/KaxAttached.h
>>> /usr/include/matroska/KaxConfig.h
>>> /usr/include/matroska/KaxInfoData.h
>>> /usr/include/matroska/KaxContexts.h
>>> /usr/include/matroska/KaxTag.h
>>> /usr/include/matroska/KaxBlock.h
>>> /usr/include/matroska/KaxSemantic.h
>>> /usr/include/matroska/KaxTags.h
>>> /usr/include/matroska/KaxContentEncoding.h
>>> /usr/include/matroska/KaxTracks.h
>>> /usr/include/matroska/KaxTrackVideo.h
>>> /usr/include/matroska/KaxTrackEntryData.h
>>> /usr/include/matroska/KaxChapters.h
>>> Safely unmerging already-installed instance...
!!! File Not Found: '/etc/env.d/99lcdfilter'
>>> Original instance of package unmerged safely.
>>> media-libs/libmatroska-1.5.2 merged.
!!! File Not Found: '/etc/env.d/99lcdfilter'
>>> Regenerating /etc/ld.so.cache...
