[32;01m * [39;49;00mPackage:    media-libs/mesa-20.1.0_rc4
[32;01m * [39;49;00mRepository: gentoo
[32;01m * [39;49;00mMaintainer: x11@gentoo.org
[32;01m * [39;49;00mUSE:        X abi_x86_64 amd64 classic dri3 egl elibc_glibc gallium gbm gles2 kernel_linux libglvnd llvm lm-sensors test userland_GNU vdpau video_cards_nouveau zstd
[32;01m * [39;49;00mFEATURES:   network-sandbox preserve-libs sandbox userpriv usersandbox
