>>> Extracting info
 * Package:    media-libs/libjpeg-turbo-2.0.4-r1
 * Repository: gentoo
 * USE:        kernel_linux userland_GNU elibc_glibc amd64 abi_x86_64
 * FEATURES:   network-sandbox preserve-libs sandbox userpriv usersandbox
 * FEATURES='assume-digests binpkg-docompress binpkg-dostrip binpkg-logs buildpkg cgroup compress-index config-protect-if-modified distlocks ebuild-locks fixlafiles ipc-sandbox merge-sync multilib-strict network-sandbox news nodoc parallel-fetch pid-sandbox preserve-libs qa-unresolved-soname-deps sandbox sfperms strict strict-keepdir unknown-features-warn unmerge-logs unmerge-orphans userfetch userpriv usersandbox usersync xattr'
 * CFLAGS='-march=znver2 -O2 -pipe -fno-stack-protector -fno-stack-clash-protection -fstack-check=no -fno-stack-check -Wl,-O1 -Wl,--as-needed'
 * CXXFLAGS='-march=znver2 -O2 -pipe -fno-stack-protector -fno-stack-clash-protection -fstack-check=no -fno-stack-check -Wl,-O1 -Wl,--as-needed'
 * FFLAGS='-march=znver2 -O2 -pipe -fno-stack-protector -fno-stack-clash-protection -fstack-check=no -fno-stack-check -Wl,-O1 -Wl,--as-needed'
 * FCFLAGS='-march=znver2 -O2 -pipe -fno-stack-protector -fno-stack-clash-protection -fstack-check=no -fno-stack-check -Wl,-O1 -Wl,--as-needed'
 * F77FLAGS='-march=znver2 -O2 -pipe -fno-stack-protector -fno-stack-clash-protection -fstack-check=no -fno-stack-check -Wl,-O1 -Wl,--as-needed'
 * LDFLAGS='-Wl,-O1 -Wl,--as-needed'
 * MAKEOPTS='-j12 -l12'
 * gcc (Gentoo 10.1.0-r1 p2) 10.1.0
 * g++ (Gentoo 10.1.0-r1 p2) 10.1.0
 * GNU gold (Gentoo 2.34 p4 2.34.0) 1.16
 * Linux rescue 5.4.36 #1 SMP Thu Apr 30 04:38:28 UTC 2020 x86_64 AMD Ryzen 5 3600 6-Core Processor AuthenticAMD GNU/Linux
media-libs/libjpeg-turbo: 14 seconds average for 22 merges
2020-05-15T13:11:32 >>> media-libs/libjpeg-turbo: 13 seconds
2020-05-16T16:12:44 >>> media-libs/libjpeg-turbo: 16 seconds
2020-05-19T23:39:25 >>> media-libs/libjpeg-turbo: 4 seconds
2020-05-20T01:10:59 >>> media-libs/libjpeg-turbo: 7 seconds
2020-05-21T12:50:37 >>> media-libs/libjpeg-turbo: 5 seconds
2020-05-22T00:28:57 >>> media-libs/libjpeg-turbo: 5 seconds
2020-05-23T23:04:52 >>> media-libs/libjpeg-turbo: 6 seconds
2020-05-23T23:08:58 >>> media-libs/libjpeg-turbo: 7 seconds
2020-05-23T23:12:20 >>> media-libs/libjpeg-turbo: 6 seconds
2020-05-25T01:17:41 >>> media-libs/libjpeg-turbo: 30 seconds
2020-05-25T03:13:36 >>> media-libs/libjpeg-turbo: 7 seconds
2020-05-25T14:45:17 >>> media-libs/libjpeg-turbo: 4 seconds
2020-05-26T04:54:25 >>> media-libs/libjpeg-turbo: 20 seconds
2020-05-26T14:04:59 >>> media-libs/libjpeg-turbo: 7 seconds
2020-05-27T01:43:58 >>> media-libs/libjpeg-turbo: 7 seconds
2020-05-28T14:29:21 >>> media-libs/libjpeg-turbo: 7 seconds
2020-05-29T01:50:31 >>> media-libs/libjpeg-turbo: 6 seconds
2020-05-31T00:02:26 >>> media-libs/libjpeg-turbo: 54 seconds
2020-06-01T09:56:23 >>> media-libs/libjpeg-turbo: 1 minute, 10 seconds
2020-06-12T01:35:13 >>> media-libs/libjpeg-turbo: 6 seconds
2020-06-13T20:13:40 >>> media-libs/libjpeg-turbo: 5 seconds
2020-06-13T21:53:56 >>> media-libs/libjpeg-turbo: 37 seconds
]0;emerge 13:58:23 188|565 libjpeg-turbo 00:16 (root@rescue)>>> Extracting media-libs/libjpeg-turbo-2.0.4-r1
 * checking 36 files for package collisions
>>> Merging media-libs/libjpeg-turbo-2.0.4-r1 to /
 * removing unneeded *.la files
--- /usr/
--- /usr/lib64/
--- /usr/lib64/pkgconfig/
>>> /usr/lib64/pkgconfig/libjpeg.pc
>>> /usr/lib64/pkgconfig/libturbojpeg.pc
>>> /usr/lib64/libturbojpeg.so -> libturbojpeg.so.0
>>> /usr/lib64/libjpeg.so.62.3.0
>>> /usr/lib64/libjpeg.so -> libjpeg.so.62
>>> /usr/lib64/libturbojpeg.so.0 -> libturbojpeg.so.0.2.0
>>> /usr/lib64/libturbojpeg.so.0.2.0
>>> /usr/lib64/libjpeg.so.62 -> libjpeg.so.62.3.0
--- /usr/share/
--- /usr/share/man/
--- /usr/share/man/man1/
>>> /usr/share/man/man1/wrjpgcom.1.bz2
>>> /usr/share/man/man1/exifautotran.1.bz2
>>> /usr/share/man/man1/jpegtran.1
>>> /usr/share/man/man1/jpegexiforient.1.bz2
>>> /usr/share/man/man1/djpeg.1
>>> /usr/share/man/man1/jpegexiforient.1
>>> /usr/share/man/man1/rdjpgcom.1.bz2
>>> /usr/share/man/man1/rdjpgcom.1
>>> /usr/share/man/man1/wrjpgcom.1
>>> /usr/share/man/man1/djpeg.1.bz2
>>> /usr/share/man/man1/cjpeg.1
>>> /usr/share/man/man1/cjpeg.1.bz2
>>> /usr/share/man/man1/jpegtran.1.bz2
>>> /usr/share/man/man1/exifautotran.1
--- /usr/include/
>>> /usr/include/jconfig.h
>>> /usr/include/turbojpeg.h
>>> /usr/include/jerror.h
--- /usr/include/x86_64-pc-linux-gnu/
>>> /usr/include/x86_64-pc-linux-gnu/jconfig.h
>>> /usr/include/jpeglib.h
>>> /usr/include/jmorecfg.h
--- /usr/bin/
>>> /usr/bin/jpegexiforient
>>> /usr/bin/tjbench
>>> /usr/bin/jpegtran
>>> /usr/bin/djpeg
>>> /usr/bin/wrjpgcom
>>> /usr/bin/cjpeg
>>> /usr/bin/rdjpgcom
>>> /usr/bin/exifautotran
>>> Safely unmerging already-installed instance...
!!! File Not Found: '/etc/env.d/99lcdfilter'
>>> Original instance of package unmerged safely.
>>> media-libs/libjpeg-turbo-2.0.4-r1 merged.
!!! File Not Found: '/etc/env.d/99lcdfilter'
>>> Regenerating /etc/ld.so.cache...
