No package files given... Grabbing a set.
--- replaced obj /usr/lib64/pkgconfig/dav1d.pc
--- replaced dir /usr/lib64/pkgconfig
<<<          obj /usr/lib64/libdav1d.so.4.0.0
--- replaced sym /usr/lib64/libdav1d.so.4
--- replaced sym /usr/lib64/libdav1d.so
--- replaced dir /usr/lib64
--- replaced obj /usr/include/dav1d/version.h
--- replaced obj /usr/include/dav1d/picture.h
--- replaced obj /usr/include/dav1d/headers.h
--- replaced obj /usr/include/dav1d/dav1d.h
--- replaced obj /usr/include/dav1d/data.h
--- replaced obj /usr/include/dav1d/common.h
--- replaced dir /usr/include/dav1d
--- replaced dir /usr/include
--- replaced obj /usr/bin/dav1d
--- replaced dir /usr/bin
--- replaced dir /usr
>>> Regenerating /etc/ld.so.cache...
