 * Package:    media-fonts/corefonts-1-r7
 * Repository: gentoo
 * Maintainer: fonts@gentoo.org
 * USE:        X abi_x86_64 amd64 elibc_glibc kernel_linux userland_GNU
 * FEATURES:   ccache network-sandbox preserve-libs sandbox userpriv usersandbox
 * FEATURES='assume-digests binpkg-docompress binpkg-dostrip binpkg-logs binpkg-multi-instance buildpkg ccache compress-index config-protect-if-modified distlocks downgrade-backup fixlafiles ipc-sandbox merge-sync multilib-strict network-sandbox news nodoc parallel-fetch parallel-install pid-sandbox preserve-libs qa-unresolved-soname-deps sandbox sfperms strict unknown-features-warn unmerge-backup unmerge-logs unmerge-orphans userfetch userpriv usersandbox usersync xattr'
 * CFLAGS='-march=znver2 -O3 -fgraphite-identity -floop-nest-optimize -fdevirtualize-at-ltrans -fipa-pta -fno-semantic-interposition -flto=12 -fno-plt -fno-signed-zeros -fno-trapping-math -fassociative-math -freciprocal-math -fno-math-errno -ffinite-math-only -fno-rounding-math -fno-signaling-nans -fcx-limited-range -fexcess-precision=fast -falign-functions=32 -fno-stack-protector -fno-stack-clash-protection -fstack-check=no -fno-stack-check -fuse-linker-plugin -pipe -g0 -Wl,-O1 -Wl,--as-needed -Wl,-z,norelro -Wl,-z,now -Wl,--sort-common -s'
 * CXXFLAGS='-march=znver2 -O3 -fgraphite-identity -floop-nest-optimize -fdevirtualize-at-ltrans -fipa-pta -fno-semantic-interposition -flto=12 -fno-plt -fno-signed-zeros -fno-trapping-math -fassociative-math -freciprocal-math -fno-math-errno -ffinite-math-only -fno-rounding-math -fno-signaling-nans -fcx-limited-range -fexcess-precision=fast -falign-functions=32 -fno-stack-protector -fno-stack-clash-protection -fstack-check=no -fno-stack-check -fuse-linker-plugin -pipe -g0 -Wl,-O1 -Wl,--as-needed -Wl,-z,norelro -Wl,-z,now -Wl,--sort-common -s'
 * FFLAGS='-march=znver2 -O3 -fgraphite-identity -floop-nest-optimize -fdevirtualize-at-ltrans -fipa-pta -fno-semantic-interposition -flto=12 -fno-plt -fno-signed-zeros -fno-trapping-math -fassociative-math -freciprocal-math -fno-math-errno -ffinite-math-only -fno-rounding-math -fno-signaling-nans -fcx-limited-range -fexcess-precision=fast -falign-functions=32 -fno-stack-protector -fno-stack-clash-protection -fstack-check=no -fno-stack-check -fuse-linker-plugin -pipe -g0 -Wl,-O1 -Wl,--as-needed -Wl,-z,norelro -Wl,-z,now -Wl,--sort-common -s'
 * FCFLAGS='-march=znver2 -O3 -fgraphite-identity -floop-nest-optimize -fdevirtualize-at-ltrans -fipa-pta -fno-semantic-interposition -flto=12 -fno-plt -fno-signed-zeros -fno-trapping-math -fassociative-math -freciprocal-math -fno-math-errno -ffinite-math-only -fno-rounding-math -fno-signaling-nans -fcx-limited-range -fexcess-precision=fast -falign-functions=32 -fno-stack-protector -fno-stack-clash-protection -fstack-check=no -fno-stack-check -fuse-linker-plugin -pipe -g0 -Wl,-O1 -Wl,--as-needed -Wl,-z,norelro -Wl,-z,now -Wl,--sort-common -s'
 * F77FLAGS='-march=znver2 -O3 -fgraphite-identity -floop-nest-optimize -fdevirtualize-at-ltrans -fipa-pta -fno-semantic-interposition -flto=12 -fno-plt -fno-signed-zeros -fno-trapping-math -fassociative-math -freciprocal-math -fno-math-errno -ffinite-math-only -fno-rounding-math -fno-signaling-nans -fcx-limited-range -fexcess-precision=fast -falign-functions=32 -fno-stack-protector -fno-stack-clash-protection -fstack-check=no -fno-stack-check -fuse-linker-plugin -pipe -g0 -Wl,-O1 -Wl,--as-needed -Wl,-z,norelro -Wl,-z,now -Wl,--sort-common -s'
 * LDFLAGS='-Wl,-O1 -Wl,--as-needed -Wl,-z,norelro -Wl,-z,now -Wl,--sort-common -s -march=znver2 -O3 -fgraphite-identity -floop-nest-optimize -fdevirtualize-at-ltrans -fipa-pta -fno-semantic-interposition -flto=12 -fno-plt -fno-signed-zeros -fno-trapping-math -fassociative-math -freciprocal-math -fno-math-errno -ffinite-math-only -fno-rounding-math -fno-signaling-nans -fcx-limited-range -fexcess-precision=fast -falign-functions=32 -fno-stack-protector -fno-stack-clash-protection -fstack-check=no -fno-stack-check -fuse-linker-plugin -pipe -g0'
 * MAKEOPTS='-j12 -l12'
 * gcc () 11.0.0 20200530 (experimental)
 * g++ () 11.0.0 20200530 (experimental)
 * GNU ld (Gentoo 2.34 p4) 2.34.0
 * Linux ryzen.gnum.org 5.4.36 #1 SMP Thu Apr 30 04:38:28 UTC 2020 x86_64 AMD Ryzen 5 3600 6-Core Processor AuthenticAMD GNU/Linux
media-fonts/corefonts: 8 seconds average for 3 merges
2020-05-20T07:34:53 >>> media-fonts/corefonts: 7 seconds
2020-05-21T06:14:24 >>> media-fonts/corefonts: 10 seconds
2020-05-28T02:51:52 >>> media-fonts/corefonts: 8 seconds
]0;emerge 14:41:08 496|1110 corefonts 00:08 (root@ryzen.gnum.org)kemerge 14:41:08 496|1110 corefonts 00:08 (root@ryzen.gnum.org)\>>> Unpacking source...
>>> Unpacking EUupdate.EXE to /tmp/portage/media-fonts/corefonts-1-r7/work
>>> Unpacking andale32.exe to /tmp/portage/media-fonts/corefonts-1-r7/work
>>> Unpacking arialb32.exe to /tmp/portage/media-fonts/corefonts-1-r7/work
>>> Unpacking comic32.exe to /tmp/portage/media-fonts/corefonts-1-r7/work
>>> Unpacking courie32.exe to /tmp/portage/media-fonts/corefonts-1-r7/work
>>> Unpacking georgi32.exe to /tmp/portage/media-fonts/corefonts-1-r7/work
>>> Unpacking impact32.exe to /tmp/portage/media-fonts/corefonts-1-r7/work
>>> Unpacking webdin32.exe to /tmp/portage/media-fonts/corefonts-1-r7/work
>>> Unpacking wd97vwr32.exe to /tmp/portage/media-fonts/corefonts-1-r7/work
>>> Source unpacked in /tmp/portage/media-fonts/corefonts-1-r7/work
>>> Preparing source in /tmp/portage/media-fonts/corefonts-1-r7/work ...
>>> Source prepared.
>>> Configuring source in /tmp/portage/media-fonts/corefonts-1-r7/work ...
>>> Source configured.
>>> Compiling source in /tmp/portage/media-fonts/corefonts-1-r7/work ...
>>> Source compiled.
>>> Test phase [not enabled]: media-fonts/corefonts-1-r7

>>> Install media-fonts/corefonts-1-r7 into /tmp/portage/media-fonts/corefonts-1-r7/image/
 * Creating fonts.scale & fonts.dir in corefonts
>>> Completed installing media-fonts/corefonts-1-r7 into /tmp/portage/media-fonts/corefonts-1-r7/image/

 * Final size of build directory: 9944 KiB (9.7 MiB)
 * Final size of installed tree:  6124 KiB (5.9 MiB)

./
./usr/
./usr/share/
./usr/share/fonts/
./usr/share/fonts/corefonts/
./usr/share/fonts/corefonts/trebucit.ttf
./usr/share/fonts/corefonts/georgiai.ttf
./usr/share/fonts/corefonts/verdanab.ttf
./usr/share/fonts/corefonts/cour.ttf
./usr/share/fonts/corefonts/fonts.scale
./usr/share/fonts/corefonts/georgia.ttf
./usr/share/fonts/corefonts/arial.ttf
./usr/share/fonts/corefonts/arialbd.ttf
./usr/share/fonts/corefonts/fonts.dir
./usr/share/fonts/corefonts/webdings.ttf
./usr/share/fonts/corefonts/courbi.ttf
./usr/share/fonts/corefonts/comic.ttf
./usr/share/fonts/corefonts/timesi.ttf
./usr/share/fonts/corefonts/verdanai.ttf
./usr/share/fonts/corefonts/arialbi.ttf
./usr/share/fonts/corefonts/encodings.dir
./usr/share/fonts/corefonts/impact.ttf
./usr/share/fonts/corefonts/trebucbd.ttf
./usr/share/fonts/corefonts/timesbd.ttf
./usr/share/fonts/corefonts/verdanaz.ttf
./usr/share/fonts/corefonts/verdana.ttf
./usr/share/fonts/corefonts/georgiab.ttf
./usr/share/fonts/corefonts/andalemo.ttf
./usr/share/fonts/corefonts/times.ttf
./usr/share/fonts/corefonts/trebucbi.ttf
./usr/share/fonts/corefonts/courbd.ttf
./usr/share/fonts/corefonts/comicbd.ttf
./usr/share/fonts/corefonts/georgiaz.ttf
./usr/share/fonts/corefonts/couri.ttf
./usr/share/fonts/corefonts/ariali.ttf
./usr/share/fonts/corefonts/ariblk.ttf
./usr/share/fonts/corefonts/timesbi.ttf
./usr/share/fonts/corefonts/trebuc.ttf
./usr/share/doc/
./usr/share/doc/corefonts-1-r7/
./usr/share/doc/corefonts-1-r7/license.txt.bz2
>>> Done.
 * checking 33 files for package collisions
>>> Merging media-fonts/corefonts-1-r7 to /
 * removing unneeded *.la files
--- /usr/
--- /usr/share/
--- /usr/share/fonts/
--- /usr/share/fonts/corefonts/
>>> /usr/share/fonts/corefonts/trebuc.ttf
>>> /usr/share/fonts/corefonts/timesbi.ttf
>>> /usr/share/fonts/corefonts/ariblk.ttf
>>> /usr/share/fonts/corefonts/ariali.ttf
>>> /usr/share/fonts/corefonts/couri.ttf
>>> /usr/share/fonts/corefonts/georgiaz.ttf
>>> /usr/share/fonts/corefonts/comicbd.ttf
>>> /usr/share/fonts/corefonts/courbd.ttf
>>> /usr/share/fonts/corefonts/trebucbi.ttf
>>> /usr/share/fonts/corefonts/times.ttf
>>> /usr/share/fonts/corefonts/andalemo.ttf
>>> /usr/share/fonts/corefonts/georgiab.ttf
>>> /usr/share/fonts/corefonts/verdana.ttf
>>> /usr/share/fonts/corefonts/verdanaz.ttf
>>> /usr/share/fonts/corefonts/timesbd.ttf
>>> /usr/share/fonts/corefonts/trebucbd.ttf
>>> /usr/share/fonts/corefonts/impact.ttf
>>> /usr/share/fonts/corefonts/encodings.dir
>>> /usr/share/fonts/corefonts/arialbi.ttf
>>> /usr/share/fonts/corefonts/verdanai.ttf
>>> /usr/share/fonts/corefonts/timesi.ttf
>>> /usr/share/fonts/corefonts/comic.ttf
>>> /usr/share/fonts/corefonts/courbi.ttf
>>> /usr/share/fonts/corefonts/webdings.ttf
>>> /usr/share/fonts/corefonts/fonts.dir
>>> /usr/share/fonts/corefonts/arialbd.ttf
>>> /usr/share/fonts/corefonts/arial.ttf
>>> /usr/share/fonts/corefonts/georgia.ttf
>>> /usr/share/fonts/corefonts/fonts.scale
>>> /usr/share/fonts/corefonts/cour.ttf
>>> /usr/share/fonts/corefonts/verdanab.ttf
>>> /usr/share/fonts/corefonts/georgiai.ttf
>>> /usr/share/fonts/corefonts/trebucit.ttf
>>> Safely unmerging already-installed instance...
>>> Original instance of package unmerged safely.
 * Updating global fontcache ...
 [ ok ]
>>> media-fonts/corefonts-1-r7 merged.
