No package files given... Grabbing a set.
--- replaced obj /usr/share/ladspa/rdf/ladspa-rubberband.rdf
--- replaced dir /usr/share/ladspa/rdf
--- replaced dir /usr/share/ladspa
--- replaced dir /usr/share
--- replaced obj /usr/lib64/vamp/vamp-rubberband.so
--- replaced obj /usr/lib64/vamp/vamp-rubberband.cat
--- replaced dir /usr/lib64/vamp
--- replaced obj /usr/lib64/pkgconfig/rubberband.pc
--- replaced dir /usr/lib64/pkgconfig
--- replaced obj /usr/lib64/librubberband.so.2.1.1
--- replaced sym /usr/lib64/librubberband.so.2
--- replaced sym /usr/lib64/librubberband.so
--- replaced obj /usr/lib64/ladspa/ladspa-rubberband.so
--- replaced obj /usr/lib64/ladspa/ladspa-rubberband.cat
--- replaced dir /usr/lib64/ladspa
--- replaced dir /usr/lib64
--- replaced obj /usr/include/rubberband/rubberband-c.h
--- replaced obj /usr/include/rubberband/RubberBandStretcher.h
--- replaced dir /usr/include/rubberband
--- replaced dir /usr/include
--- replaced obj /usr/bin/rubberband
--- replaced dir /usr/bin
--- replaced dir /usr
>>> Regenerating /etc/ld.so.cache...
