 * Package:    media-gfx/graphite2-1.3.14
 * Repository: gentoo
 * Maintainer: office@gentoo.org
 * USE:        abi_x86_64 amd64 elibc_glibc kernel_linux userland_GNU
 * FEATURES:   ccache network-sandbox preserve-libs sandbox userpriv usersandbox
 * FEATURES='sfperms userpriv news qa-unresolved-soname-deps unmerge-logs usersync binpkg-multi-instance parallel-install fixlafiles unmerge-orphans xattr multilib-strict binpkg-docompress merge-sync binpkg-logs distlocks usersandbox strict downgrade-backup binpkg-dostrip sandbox preserve-libs unmerge-backup compress-index config-protect-if-modified buildpkg network-sandbox nodoc parallel-fetch ipc-sandbox unknown-features-warn assume-digests ccache userfetch pid-sandbox'
 * CFLAGS='-march=znver2 -O3 -fgraphite-identity -floop-nest-optimize -fdevirtualize-at-ltrans -fipa-pta -fno-semantic-interposition -flto=12 -fno-plt -fno-signed-zeros -fno-trapping-math -fassociative-math -freciprocal-math -fno-math-errno -ffinite-math-only -fno-rounding-math -fno-signaling-nans -fcx-limited-range -fexcess-precision=fast -falign-functions=32 -fno-stack-protector -fno-stack-clash-protection -fstack-check=no -fno-stack-check -fuse-linker-plugin -pipe -g0 -Wl,-O1 -Wl,--as-needed -Wl,-z,norelro -Wl,-z,now -Wl,--sort-common -s'
 * CXXFLAGS='-march=znver2 -O3 -fgraphite-identity -floop-nest-optimize -fdevirtualize-at-ltrans -fipa-pta -fno-semantic-interposition -flto=12 -fno-plt -fno-signed-zeros -fno-trapping-math -fassociative-math -freciprocal-math -fno-math-errno -ffinite-math-only -fno-rounding-math -fno-signaling-nans -fcx-limited-range -fexcess-precision=fast -falign-functions=32 -fno-stack-protector -fno-stack-clash-protection -fstack-check=no -fno-stack-check -fuse-linker-plugin -pipe -g0 -Wl,-O1 -Wl,--as-needed -Wl,-z,norelro -Wl,-z,now -Wl,--sort-common -s'
 * FFLAGS='-march=znver2 -O3 -fgraphite-identity -floop-nest-optimize -fdevirtualize-at-ltrans -fipa-pta -fno-semantic-interposition -flto=12 -fno-plt -fno-signed-zeros -fno-trapping-math -fassociative-math -freciprocal-math -fno-math-errno -ffinite-math-only -fno-rounding-math -fno-signaling-nans -fcx-limited-range -fexcess-precision=fast -falign-functions=32 -fno-stack-protector -fno-stack-clash-protection -fstack-check=no -fno-stack-check -fuse-linker-plugin -pipe -g0 -Wl,-O1 -Wl,--as-needed -Wl,-z,norelro -Wl,-z,now -Wl,--sort-common -s'
 * FCFLAGS='-march=znver2 -O3 -fgraphite-identity -floop-nest-optimize -fdevirtualize-at-ltrans -fipa-pta -fno-semantic-interposition -flto=12 -fno-plt -fno-signed-zeros -fno-trapping-math -fassociative-math -freciprocal-math -fno-math-errno -ffinite-math-only -fno-rounding-math -fno-signaling-nans -fcx-limited-range -fexcess-precision=fast -falign-functions=32 -fno-stack-protector -fno-stack-clash-protection -fstack-check=no -fno-stack-check -fuse-linker-plugin -pipe -g0 -Wl,-O1 -Wl,--as-needed -Wl,-z,norelro -Wl,-z,now -Wl,--sort-common -s'
 * F77FLAGS='-march=znver2 -O3 -fgraphite-identity -floop-nest-optimize -fdevirtualize-at-ltrans -fipa-pta -fno-semantic-interposition -flto=12 -fno-plt -fno-signed-zeros -fno-trapping-math -fassociative-math -freciprocal-math -fno-math-errno -ffinite-math-only -fno-rounding-math -fno-signaling-nans -fcx-limited-range -fexcess-precision=fast -falign-functions=32 -fno-stack-protector -fno-stack-clash-protection -fstack-check=no -fno-stack-check -fuse-linker-plugin -pipe -g0 -Wl,-O1 -Wl,--as-needed -Wl,-z,norelro -Wl,-z,now -Wl,--sort-common -s'
 * LDFLAGS='-Wl,-O1 -Wl,--as-needed -Wl,-z,norelro -Wl,-z,now -Wl,--sort-common -s -march=znver2 -O3 -fgraphite-identity -floop-nest-optimize -fdevirtualize-at-ltrans -fipa-pta -fno-semantic-interposition -flto=12 -fno-plt -fno-signed-zeros -fno-trapping-math -fassociative-math -freciprocal-math -fno-math-errno -ffinite-math-only -fno-rounding-math -fno-signaling-nans -fcx-limited-range -fexcess-precision=fast -falign-functions=32 -fno-stack-protector -fno-stack-clash-protection -fstack-check=no -fno-stack-check -fuse-linker-plugin -pipe -g0'
 * MAKEOPTS='-j12 -l12'
 * gcc () 11.0.0 20200526 (experimental)
 * g++ () 11.0.0 20200526 (experimental)
 * GNU ld (Gentoo 2.34 p4) 2.34.0
 * Linux ryzen.gnum.org 5.4.36 #1 SMP Thu Apr 30 04:38:28 UTC 2020 x86_64 AMD Ryzen 5 3600 6-Core Processor AuthenticAMD GNU/Linux
media-gfx/graphite2: 40 seconds average for 8 merges
2020-05-15T13:08:04 >>> media-gfx/graphite2: 10 seconds
2020-05-16T15:53:20 >>> media-gfx/graphite2: 12 seconds
2020-05-20T01:25:32 >>> media-gfx/graphite2: 5 seconds
2020-05-23T16:16:10 >>> media-gfx/graphite2: 17 seconds
2020-05-26T04:02:34 >>> media-gfx/graphite2: 16 seconds
2020-05-26T14:25:40 >>> media-gfx/graphite2: 7 seconds
2020-05-27T02:02:34 >>> media-gfx/graphite2: 6 seconds
2020-05-28T04:47:27 >>> media-gfx/graphite2: 4 minutes, 13 seconds
]0;emerge 05:47:29 16|82 graphite2 01:29 (root@ryzen.gnum.org)kemerge 05:47:29 16|82 graphite2 01:29 (root@ryzen.gnum.org)\>>> Unpacking source...
>>> Unpacking graphite2-1.3.14.tgz to /tmp/portage/media-gfx/graphite2-1.3.14/work
>>> Source unpacked in /tmp/portage/media-gfx/graphite2-1.3.14/work
>>> Preparing source in /tmp/portage/media-gfx/graphite2-1.3.14/work/graphite2-1.3.14 ...
 * Applying graphite2-1.3.5-includes-libs-perl.patch ...
 [ ok ]
 * Working in BUILD_DIR: "/tmp/portage/media-gfx/graphite2-1.3.14/work/graphite2-1.3.14_build"
>>> Source prepared.
>>> Configuring source in /tmp/portage/media-gfx/graphite2-1.3.14/work/graphite2-1.3.14 ...
 * abi_x86_64.amd64: running multilib-minimal_abi_src_configure
 * Working in BUILD_DIR: "/tmp/portage/media-gfx/graphite2-1.3.14/work/graphite2-1.3.14_build-abi_x86_64.amd64"
cmake -C /tmp/portage/media-gfx/graphite2-1.3.14/work/graphite2-1.3.14_build-abi_x86_64.amd64/gentoo_common_config.cmake -G Ninja -DCMAKE_INSTALL_PREFIX=/usr -DGRAPHITE2_VM_TYPE=direct -DCMAKE_BUILD_TYPE=Gentoo -DCMAKE_TOOLCHAIN_FILE=/tmp/portage/media-gfx/graphite2-1.3.14/work/graphite2-1.3.14_build-abi_x86_64.amd64/gentoo_toolchain.cmake  /tmp/portage/media-gfx/graphite2-1.3.14/work/graphite2-1.3.14
loading initial cache file /tmp/portage/media-gfx/graphite2-1.3.14/work/graphite2-1.3.14_build-abi_x86_64.amd64/gentoo_common_config.cmake
-- Found PythonInterp: /usr/bin/python (found suitable version "3.8.2", minimum required is "3.6") 
-- The C compiler identification is GNU 11.0.0
-- The CXX compiler identification is GNU 11.0.0
-- Check for working C compiler: /usr/lib/ccache/bin/x86_64-pc-linux-gnu-gcc
-- Check for working C compiler: /usr/lib/ccache/bin/x86_64-pc-linux-gnu-gcc - works
-- Detecting C compiler ABI info
-- Detecting C compiler ABI info - done
-- Detecting C compile features
-- Detecting C compile features - done
-- Check for working CXX compiler: /usr/lib/ccache/bin/x86_64-pc-linux-gnu-g++
-- Check for working CXX compiler: /usr/lib/ccache/bin/x86_64-pc-linux-gnu-g++ - works
-- Detecting CXX compiler ABI info
-- Detecting CXX compiler ABI info - done
-- Detecting CXX compile features
-- Detecting CXX compile features - done
-- Build: Gentoo
-- Building library: shared
-- File Face support: enabled
-- Tracing support: disabled
-- Using vm machine type: direct
-- Compiler ID is: GNU
-- <<< Gentoo configuration >>>
Build type      Gentoo
Install path    /usr
Compiler flags:
C               -march=znver2 -O3 -fgraphite-identity -floop-nest-optimize -fdevirtualize-at-ltrans -fipa-pta -fno-semantic-interposition -flto=12 -fno-plt -fno-signed-zeros -fno-trapping-math -fassociative-math -freciprocal-math -fno-math-errno -ffinite-math-only -fno-rounding-math -fno-signaling-nans -fcx-limited-range -fexcess-precision=fast -falign-functions=32 -fno-stack-protector -fno-stack-clash-protection -fstack-check=no -fno-stack-check -fuse-linker-plugin -pipe -g0 -Wl,-O1 -Wl,--as-needed -Wl,-z,norelro -Wl,-z,now -Wl,--sort-common -s
C++             -march=znver2 -O3 -fgraphite-identity -floop-nest-optimize -fdevirtualize-at-ltrans -fipa-pta -fno-semantic-interposition -flto=12 -fno-plt -fno-signed-zeros -fno-trapping-math -fassociative-math -freciprocal-math -fno-math-errno -ffinite-math-only -fno-rounding-math -fno-signaling-nans -fcx-limited-range -fexcess-precision=fast -falign-functions=32 -fno-stack-protector -fno-stack-clash-protection -fstack-check=no -fno-stack-check -fuse-linker-plugin -pipe -g0 -Wl,-O1 -Wl,--as-needed -Wl,-z,norelro -Wl,-z,now -Wl,--sort-common -s
Linker flags:
Executable      -Wl,-O1 -Wl,--as-needed -Wl,-z,norelro -Wl,-z,now -Wl,--sort-common -s -march=znver2 -O3 -fgraphite-identity -floop-nest-optimize -fdevirtualize-at-ltrans -fipa-pta -fno-semantic-interposition -flto=12 -fno-plt -fno-signed-zeros -fno-trapping-math -fassociative-math -freciprocal-math -fno-math-errno -ffinite-math-only -fno-rounding-math -fno-signaling-nans -fcx-limited-range -fexcess-precision=fast -falign-functions=32 -fno-stack-protector -fno-stack-clash-protection -fstack-check=no -fno-stack-check -fuse-linker-plugin -pipe -g0
Module          -Wl,-O1 -Wl,--as-needed -Wl,-z,norelro -Wl,-z,now -Wl,--sort-common -s -march=znver2 -O3 -fgraphite-identity -floop-nest-optimize -fdevirtualize-at-ltrans -fipa-pta -fno-semantic-interposition -flto=12 -fno-plt -fno-signed-zeros -fno-trapping-math -fassociative-math -freciprocal-math -fno-math-errno -ffinite-math-only -fno-rounding-math -fno-signaling-nans -fcx-limited-range -fexcess-precision=fast -falign-functions=32 -fno-stack-protector -fno-stack-clash-protection -fstack-check=no -fno-stack-check -fuse-linker-plugin -pipe -g0
Shared          -Wl,-O1 -Wl,--as-needed -Wl,-z,norelro -Wl,-z,now -Wl,--sort-common -s -march=znver2 -O3 -fgraphite-identity -floop-nest-optimize -fdevirtualize-at-ltrans -fipa-pta -fno-semantic-interposition -flto=12 -fno-plt -fno-signed-zeros -fno-trapping-math -fassociative-math -freciprocal-math -fno-math-errno -ffinite-math-only -fno-rounding-math -fno-signaling-nans -fcx-limited-range -fexcess-precision=fast -falign-functions=32 -fno-stack-protector -fno-stack-clash-protection -fstack-check=no -fno-stack-check -fuse-linker-plugin -pipe -g0

-- Configuring done
-- Generating done
-- Build files have been written to: /tmp/portage/media-gfx/graphite2-1.3.14/work/graphite2-1.3.14_build-abi_x86_64.amd64
>>> Source configured.
>>> Compiling source in /tmp/portage/media-gfx/graphite2-1.3.14/work/graphite2-1.3.14 ...
 * abi_x86_64.amd64: running multilib-minimal_abi_src_compile
 * Working in BUILD_DIR: "/tmp/portage/media-gfx/graphite2-1.3.14/work/graphite2-1.3.14_build-abi_x86_64.amd64"
ninja -v -j12 -l12
[1/35] /usr/lib/ccache/bin/x86_64-pc-linux-gnu-g++ -DGRAPHITE2_NTRACING -Dgraphite2_EXPORTS -I/tmp/portage/media-gfx/graphite2-1.3.14/work/graphite2-1.3.14/include -I/tmp/portage/media-gfx/graphite2-1.3.14/work/graphite2-1.3.14/src  -march=znver2 -O3 -fgraphite-identity -floop-nest-optimize -fdevirtualize-at-ltrans -fipa-pta -fno-semantic-interposition -flto=12 -fno-plt -fno-signed-zeros -fno-trapping-math -fassociative-math -freciprocal-math -fno-math-errno -ffinite-math-only -fno-rounding-math -fno-signaling-nans -fcx-limited-range -fexcess-precision=fast -falign-functions=32 -fno-stack-protector -fno-stack-clash-protection -fstack-check=no -fno-stack-check -fuse-linker-plugin -pipe -g0 -Wl,-O1 -Wl,--as-needed -Wl,-z,norelro -Wl,-z,now -Wl,--sort-common -s -fPIC   -mfpmath=sse -msse2 -Wno-class-memaccess -Wdouble-promotion -Wall -Wextra -Wno-unknown-pragmas -Wendif-labels -Wshadow -Wctor-dtor-privacy -Wnon-virtual-dtor -fno-rtti -fno-exceptions -fvisibility=hidden -fvisibility-inlines-hidden -std=gnu++11 -MD -MT src/CMakeFiles/graphite2.dir/gr_char_info.cpp.o -MF src/CMakeFiles/graphite2.dir/gr_char_info.cpp.o.d -o src/CMakeFiles/graphite2.dir/gr_char_info.cpp.o -c /tmp/portage/media-gfx/graphite2-1.3.14/work/graphite2-1.3.14/src/gr_char_info.cpp
[2/35] /usr/lib/ccache/bin/x86_64-pc-linux-gnu-g++ -DGRAPHITE2_NTRACING -Dgraphite2_EXPORTS -I/tmp/portage/media-gfx/graphite2-1.3.14/work/graphite2-1.3.14/include -I/tmp/portage/media-gfx/graphite2-1.3.14/work/graphite2-1.3.14/src  -march=znver2 -O3 -fgraphite-identity -floop-nest-optimize -fdevirtualize-at-ltrans -fipa-pta -fno-semantic-interposition -flto=12 -fno-plt -fno-signed-zeros -fno-trapping-math -fassociative-math -freciprocal-math -fno-math-errno -ffinite-math-only -fno-rounding-math -fno-signaling-nans -fcx-limited-range -fexcess-precision=fast -falign-functions=32 -fno-stack-protector -fno-stack-clash-protection -fstack-check=no -fno-stack-check -fuse-linker-plugin -pipe -g0 -Wl,-O1 -Wl,--as-needed -Wl,-z,norelro -Wl,-z,now -Wl,--sort-common -s -fPIC   -mfpmath=sse -msse2 -Wno-class-memaccess -Wdouble-promotion -Wall -Wextra -Wno-unknown-pragmas -Wendif-labels -Wshadow -Wctor-dtor-privacy -Wnon-virtual-dtor -fno-rtti -fno-exceptions -fvisibility=hidden -fvisibility-inlines-hidden -std=gnu++11 -MD -MT src/CMakeFiles/graphite2.dir/Decompressor.cpp.o -MF src/CMakeFiles/graphite2.dir/Decompressor.cpp.o.d -o src/CMakeFiles/graphite2.dir/Decompressor.cpp.o -c /tmp/portage/media-gfx/graphite2-1.3.14/work/graphite2-1.3.14/src/Decompressor.cpp
[3/35] /usr/lib/ccache/bin/x86_64-pc-linux-gnu-g++ -DGRAPHITE2_NTRACING -Dgraphite2_EXPORTS -I/tmp/portage/media-gfx/graphite2-1.3.14/work/graphite2-1.3.14/include -I/tmp/portage/media-gfx/graphite2-1.3.14/work/graphite2-1.3.14/src  -march=znver2 -O3 -fgraphite-identity -floop-nest-optimize -fdevirtualize-at-ltrans -fipa-pta -fno-semantic-interposition -flto=12 -fno-plt -fno-signed-zeros -fno-trapping-math -fassociative-math -freciprocal-math -fno-math-errno -ffinite-math-only -fno-rounding-math -fno-signaling-nans -fcx-limited-range -fexcess-precision=fast -falign-functions=32 -fno-stack-protector -fno-stack-clash-protection -fstack-check=no -fno-stack-check -fuse-linker-plugin -pipe -g0 -Wl,-O1 -Wl,--as-needed -Wl,-z,norelro -Wl,-z,now -Wl,--sort-common -s -fPIC   -mfpmath=sse -msse2 -Wno-class-memaccess -Wdouble-promotion -Wall -Wextra -Wno-unknown-pragmas -Wendif-labels -Wshadow -Wctor-dtor-privacy -Wnon-virtual-dtor -fno-rtti -fno-exceptions -fvisibility=hidden -fvisibility-inlines-hidden -std=gnu++11 -MD -MT src/CMakeFiles/graphite2.dir/gr_features.cpp.o -MF src/CMakeFiles/graphite2.dir/gr_features.cpp.o.d -o src/CMakeFiles/graphite2.dir/gr_features.cpp.o -c /tmp/portage/media-gfx/graphite2-1.3.14/work/graphite2-1.3.14/src/gr_features.cpp
[4/35] /usr/lib/ccache/bin/x86_64-pc-linux-gnu-g++ -DGRAPHITE2_NTRACING -Dgraphite2_EXPORTS -I/tmp/portage/media-gfx/graphite2-1.3.14/work/graphite2-1.3.14/include -I/tmp/portage/media-gfx/graphite2-1.3.14/work/graphite2-1.3.14/src  -march=znver2 -O3 -fgraphite-identity -floop-nest-optimize -fdevirtualize-at-ltrans -fipa-pta -fno-semantic-interposition -flto=12 -fno-plt -fno-signed-zeros -fno-trapping-math -fassociative-math -freciprocal-math -fno-math-errno -ffinite-math-only -fno-rounding-math -fno-signaling-nans -fcx-limited-range -fexcess-precision=fast -falign-functions=32 -fno-stack-protector -fno-stack-clash-protection -fstack-check=no -fno-stack-check -fuse-linker-plugin -pipe -g0 -Wl,-O1 -Wl,--as-needed -Wl,-z,norelro -Wl,-z,now -Wl,--sort-common -s -fPIC   -mfpmath=sse -msse2 -Wno-class-memaccess -Wdouble-promotion -Wall -Wextra -Wno-unknown-pragmas -Wendif-labels -Wshadow -Wctor-dtor-privacy -Wnon-virtual-dtor -fno-rtti -fno-exceptions -fvisibility=hidden -fvisibility-inlines-hidden -std=gnu++11 -MD -MT src/CMakeFiles/graphite2.dir/gr_font.cpp.o -MF src/CMakeFiles/graphite2.dir/gr_font.cpp.o.d -o src/CMakeFiles/graphite2.dir/gr_font.cpp.o -c /tmp/portage/media-gfx/graphite2-1.3.14/work/graphite2-1.3.14/src/gr_font.cpp
[5/35] /usr/lib/ccache/bin/x86_64-pc-linux-gnu-g++ -DGRAPHITE2_NTRACING -Dgraphite2_EXPORTS -I/tmp/portage/media-gfx/graphite2-1.3.14/work/graphite2-1.3.14/include -I/tmp/portage/media-gfx/graphite2-1.3.14/work/graphite2-1.3.14/src  -march=znver2 -O3 -fgraphite-identity -floop-nest-optimize -fdevirtualize-at-ltrans -fipa-pta -fno-semantic-interposition -flto=12 -fno-plt -fno-signed-zeros -fno-trapping-math -fassociative-math -freciprocal-math -fno-math-errno -ffinite-math-only -fno-rounding-math -fno-signaling-nans -fcx-limited-range -fexcess-precision=fast -falign-functions=32 -fno-stack-protector -fno-stack-clash-protection -fstack-check=no -fno-stack-check -fuse-linker-plugin -pipe -g0 -Wl,-O1 -Wl,--as-needed -Wl,-z,norelro -Wl,-z,now -Wl,--sort-common -s -fPIC   -mfpmath=sse -msse2 -Wno-class-memaccess -Wdouble-promotion -Wall -Wextra -Wno-unknown-pragmas -Wendif-labels -Wshadow -Wctor-dtor-privacy -Wnon-virtual-dtor -fno-rtti -fno-exceptions -fvisibility=hidden -fvisibility-inlines-hidden -std=gnu++11 -MD -MT src/CMakeFiles/graphite2.dir/CmapCache.cpp.o -MF src/CMakeFiles/graphite2.dir/CmapCache.cpp.o.d -o src/CMakeFiles/graphite2.dir/CmapCache.cpp.o -c /tmp/portage/media-gfx/graphite2-1.3.14/work/graphite2-1.3.14/src/CmapCache.cpp
[6/35] /usr/lib/ccache/bin/x86_64-pc-linux-gnu-g++ -DGRAPHITE2_NTRACING -Dgraphite2_EXPORTS -I/tmp/portage/media-gfx/graphite2-1.3.14/work/graphite2-1.3.14/include -I/tmp/portage/media-gfx/graphite2-1.3.14/work/graphite2-1.3.14/src  -march=znver2 -O3 -fgraphite-identity -floop-nest-optimize -fdevirtualize-at-ltrans -fipa-pta -fno-semantic-interposition -flto=12 -fno-plt -fno-signed-zeros -fno-trapping-math -fassociative-math -freciprocal-math -fno-math-errno -ffinite-math-only -fno-rounding-math -fno-signaling-nans -fcx-limited-range -fexcess-precision=fast -falign-functions=32 -fno-stack-protector -fno-stack-clash-protection -fstack-check=no -fno-stack-check -fuse-linker-plugin -pipe -g0 -Wl,-O1 -Wl,--as-needed -Wl,-z,norelro -Wl,-z,now -Wl,--sort-common -s -fPIC   -mfpmath=sse -msse2 -Wno-class-memaccess -Wdouble-promotion -Wall -Wextra -Wno-unknown-pragmas -Wendif-labels -Wshadow -Wctor-dtor-privacy -Wnon-virtual-dtor -fno-rtti -fno-exceptions -fvisibility=hidden -fvisibility-inlines-hidden -std=gnu++11 -MD -MT src/CMakeFiles/graphite2.dir/gr_face.cpp.o -MF src/CMakeFiles/graphite2.dir/gr_face.cpp.o.d -o src/CMakeFiles/graphite2.dir/gr_face.cpp.o -c /tmp/portage/media-gfx/graphite2-1.3.14/work/graphite2-1.3.14/src/gr_face.cpp
[7/35] /usr/lib/ccache/bin/x86_64-pc-linux-gnu-g++ -DGRAPHITE2_NTRACING -Dgraphite2_EXPORTS -I/tmp/portage/media-gfx/graphite2-1.3.14/work/graphite2-1.3.14/include -I/tmp/portage/media-gfx/graphite2-1.3.14/work/graphite2-1.3.14/src  -march=znver2 -O3 -fgraphite-identity -floop-nest-optimize -fdevirtualize-at-ltrans -fipa-pta -fno-semantic-interposition -flto=12 -fno-plt -fno-signed-zeros -fno-trapping-math -fassociative-math -freciprocal-math -fno-math-errno -ffinite-math-only -fno-rounding-math -fno-signaling-nans -fcx-limited-range -fexcess-precision=fast -falign-functions=32 -fno-stack-protector -fno-stack-clash-protection -fstack-check=no -fno-stack-check -fuse-linker-plugin -pipe -g0 -Wl,-O1 -Wl,--as-needed -Wl,-z,norelro -Wl,-z,now -Wl,--sort-common -s -fPIC   -mfpmath=sse -msse2 -Wno-class-memaccess -Wdouble-promotion -Wall -Wextra -Wno-unknown-pragmas -Wendif-labels -Wshadow -Wctor-dtor-privacy -Wnon-virtual-dtor -fno-rtti -fno-exceptions -fvisibility=hidden -fvisibility-inlines-hidden -std=gnu++11 -MD -MT src/CMakeFiles/graphite2.dir/FeatureMap.cpp.o -MF src/CMakeFiles/graphite2.dir/FeatureMap.cpp.o.d -o src/CMakeFiles/graphite2.dir/FeatureMap.cpp.o -c /tmp/portage/media-gfx/graphite2-1.3.14/work/graphite2-1.3.14/src/FeatureMap.cpp
[8/35] /usr/lib/ccache/bin/x86_64-pc-linux-gnu-g++ -DGRAPHITE2_NTRACING -Dgraphite2_EXPORTS -I/tmp/portage/media-gfx/graphite2-1.3.14/work/graphite2-1.3.14/include -I/tmp/portage/media-gfx/graphite2-1.3.14/work/graphite2-1.3.14/src  -march=znver2 -O3 -fgraphite-identity -floop-nest-optimize -fdevirtualize-at-ltrans -fipa-pta -fno-semantic-interposition -flto=12 -fno-plt -fno-signed-zeros -fno-trapping-math -fassociative-math -freciprocal-math -fno-math-errno -ffinite-math-only -fno-rounding-math -fno-signaling-nans -fcx-limited-range -fexcess-precision=fast -falign-functions=32 -fno-stack-protector -fno-stack-clash-protection -fstack-check=no -fno-stack-check -fuse-linker-plugin -pipe -g0 -Wl,-O1 -Wl,--as-needed -Wl,-z,norelro -Wl,-z,now -Wl,--sort-common -s -fPIC   -mfpmath=sse -msse2 -Wno-class-memaccess -Wdouble-promotion -Wall -Wextra -Wno-unknown-pragmas -Wendif-labels -Wshadow -Wctor-dtor-privacy -Wnon-virtual-dtor -fno-rtti -fno-exceptions -fvisibility=hidden -fvisibility-inlines-hidden -std=gnu++11 -MD -MT src/CMakeFiles/graphite2.dir/gr_logging.cpp.o -MF src/CMakeFiles/graphite2.dir/gr_logging.cpp.o.d -o src/CMakeFiles/graphite2.dir/gr_logging.cpp.o -c /tmp/portage/media-gfx/graphite2-1.3.14/work/graphite2-1.3.14/src/gr_logging.cpp
[9/35] /usr/lib/ccache/bin/x86_64-pc-linux-gnu-g++ -DGRAPHITE2_NTRACING -Dgraphite2_EXPORTS -I/tmp/portage/media-gfx/graphite2-1.3.14/work/graphite2-1.3.14/include -I/tmp/portage/media-gfx/graphite2-1.3.14/work/graphite2-1.3.14/src  -march=znver2 -O3 -fgraphite-identity -floop-nest-optimize -fdevirtualize-at-ltrans -fipa-pta -fno-semantic-interposition -flto=12 -fno-plt -fno-signed-zeros -fno-trapping-math -fassociative-math -freciprocal-math -fno-math-errno -ffinite-math-only -fno-rounding-math -fno-signaling-nans -fcx-limited-range -fexcess-precision=fast -falign-functions=32 -fno-stack-protector -fno-stack-clash-protection -fstack-check=no -fno-stack-check -fuse-linker-plugin -pipe -g0 -Wl,-O1 -Wl,--as-needed -Wl,-z,norelro -Wl,-z,now -Wl,--sort-common -s -fPIC   -mfpmath=sse -msse2 -Wno-class-memaccess -Wdouble-promotion -Wall -Wextra -Wno-unknown-pragmas -Wendif-labels -Wshadow -Wctor-dtor-privacy -Wnon-virtual-dtor -fno-rtti -fno-exceptions -fvisibility=hidden -fvisibility-inlines-hidden -std=gnu++11 -MD -MT src/CMakeFiles/graphite2.dir/direct_machine.cpp.o -MF src/CMakeFiles/graphite2.dir/direct_machine.cpp.o.d -o src/CMakeFiles/graphite2.dir/direct_machine.cpp.o -c /tmp/portage/media-gfx/graphite2-1.3.14/work/graphite2-1.3.14/src/direct_machine.cpp
[10/35] /usr/lib/ccache/bin/x86_64-pc-linux-gnu-g++ -DGRAPHITE2_NTRACING -Dgraphite2_EXPORTS -I/tmp/portage/media-gfx/graphite2-1.3.14/work/graphite2-1.3.14/include -I/tmp/portage/media-gfx/graphite2-1.3.14/work/graphite2-1.3.14/src  -march=znver2 -O3 -fgraphite-identity -floop-nest-optimize -fdevirtualize-at-ltrans -fipa-pta -fno-semantic-interposition -flto=12 -fno-plt -fno-signed-zeros -fno-trapping-math -fassociative-math -freciprocal-math -fno-math-errno -ffinite-math-only -fno-rounding-math -fno-signaling-nans -fcx-limited-range -fexcess-precision=fast -falign-functions=32 -fno-stack-protector -fno-stack-clash-protection -fstack-check=no -fno-stack-check -fuse-linker-plugin -pipe -g0 -Wl,-O1 -Wl,--as-needed -Wl,-z,norelro -Wl,-z,now -Wl,--sort-common -s -fPIC   -mfpmath=sse -msse2 -Wno-class-memaccess -Wdouble-promotion -Wall -Wextra -Wno-unknown-pragmas -Wendif-labels -Wshadow -Wctor-dtor-privacy -Wnon-virtual-dtor -fno-rtti -fno-exceptions -fvisibility=hidden -fvisibility-inlines-hidden -std=gnu++11 -MD -MT src/CMakeFiles/graphite2.dir/gr_segment.cpp.o -MF src/CMakeFiles/graphite2.dir/gr_segment.cpp.o.d -o src/CMakeFiles/graphite2.dir/gr_segment.cpp.o -c /tmp/portage/media-gfx/graphite2-1.3.14/work/graphite2-1.3.14/src/gr_segment.cpp
[11/35] /usr/lib/ccache/bin/x86_64-pc-linux-gnu-g++ -DGRAPHITE2_NTRACING -Dgraphite2_EXPORTS -I/tmp/portage/media-gfx/graphite2-1.3.14/work/graphite2-1.3.14/include -I/tmp/portage/media-gfx/graphite2-1.3.14/work/graphite2-1.3.14/src  -march=znver2 -O3 -fgraphite-identity -floop-nest-optimize -fdevirtualize-at-ltrans -fipa-pta -fno-semantic-interposition -flto=12 -fno-plt -fno-signed-zeros -fno-trapping-math -fassociative-math -freciprocal-math -fno-math-errno -ffinite-math-only -fno-rounding-math -fno-signaling-nans -fcx-limited-range -fexcess-precision=fast -falign-functions=32 -fno-stack-protector -fno-stack-clash-protection -fstack-check=no -fno-stack-check -fuse-linker-plugin -pipe -g0 -Wl,-O1 -Wl,--as-needed -Wl,-z,norelro -Wl,-z,now -Wl,--sort-common -s -fPIC   -mfpmath=sse -msse2 -Wno-class-memaccess -Wdouble-promotion -Wall -Wextra -Wno-unknown-pragmas -Wendif-labels -Wshadow -Wctor-dtor-privacy -Wnon-virtual-dtor -fno-rtti -fno-exceptions -fvisibility=hidden -fvisibility-inlines-hidden -std=gnu++11 -MD -MT src/CMakeFiles/graphite2.dir/Code.cpp.o -MF src/CMakeFiles/graphite2.dir/Code.cpp.o.d -o src/CMakeFiles/graphite2.dir/Code.cpp.o -c /tmp/portage/media-gfx/graphite2-1.3.14/work/graphite2-1.3.14/src/Code.cpp
[12/35] /usr/lib/ccache/bin/x86_64-pc-linux-gnu-g++ -DGRAPHITE2_NTRACING -Dgraphite2_EXPORTS -I/tmp/portage/media-gfx/graphite2-1.3.14/work/graphite2-1.3.14/include -I/tmp/portage/media-gfx/graphite2-1.3.14/work/graphite2-1.3.14/src  -march=znver2 -O3 -fgraphite-identity -floop-nest-optimize -fdevirtualize-at-ltrans -fipa-pta -fno-semantic-interposition -flto=12 -fno-plt -fno-signed-zeros -fno-trapping-math -fassociative-math -freciprocal-math -fno-math-errno -ffinite-math-only -fno-rounding-math -fno-signaling-nans -fcx-limited-range -fexcess-precision=fast -falign-functions=32 -fno-stack-protector -fno-stack-clash-protection -fstack-check=no -fno-stack-check -fuse-linker-plugin -pipe -g0 -Wl,-O1 -Wl,--as-needed -Wl,-z,norelro -Wl,-z,now -Wl,--sort-common -s -fPIC   -mfpmath=sse -msse2 -Wno-class-memaccess -Wdouble-promotion -Wall -Wextra -Wno-unknown-pragmas -Wendif-labels -Wshadow -Wctor-dtor-privacy -Wnon-virtual-dtor -fno-rtti -fno-exceptions -fvisibility=hidden -fvisibility-inlines-hidden -std=gnu++11 -MD -MT src/CMakeFiles/graphite2.dir/gr_slot.cpp.o -MF src/CMakeFiles/graphite2.dir/gr_slot.cpp.o.d -o src/CMakeFiles/graphite2.dir/gr_slot.cpp.o -c /tmp/portage/media-gfx/graphite2-1.3.14/work/graphite2-1.3.14/src/gr_slot.cpp
[13/35] /usr/lib/ccache/bin/x86_64-pc-linux-gnu-g++ -DGRAPHITE2_NTRACING -Dgraphite2_EXPORTS -I/tmp/portage/media-gfx/graphite2-1.3.14/work/graphite2-1.3.14/include -I/tmp/portage/media-gfx/graphite2-1.3.14/work/graphite2-1.3.14/src  -march=znver2 -O3 -fgraphite-identity -floop-nest-optimize -fdevirtualize-at-ltrans -fipa-pta -fno-semantic-interposition -flto=12 -fno-plt -fno-signed-zeros -fno-trapping-math -fassociative-math -freciprocal-math -fno-math-errno -ffinite-math-only -fno-rounding-math -fno-signaling-nans -fcx-limited-range -fexcess-precision=fast -falign-functions=32 -fno-stack-protector -fno-stack-clash-protection -fstack-check=no -fno-stack-check -fuse-linker-plugin -pipe -g0 -Wl,-O1 -Wl,--as-needed -Wl,-z,norelro -Wl,-z,now -Wl,--sort-common -s -fPIC   -mfpmath=sse -msse2 -Wno-class-memaccess -Wdouble-promotion -Wall -Wextra -Wno-unknown-pragmas -Wendif-labels -Wshadow -Wctor-dtor-privacy -Wnon-virtual-dtor -fno-rtti -fno-exceptions -fvisibility=hidden -fvisibility-inlines-hidden -std=gnu++11 -MD -MT src/CMakeFiles/graphite2.dir/GlyphFace.cpp.o -MF src/CMakeFiles/graphite2.dir/GlyphFace.cpp.o.d -o src/CMakeFiles/graphite2.dir/GlyphFace.cpp.o -c /tmp/portage/media-gfx/graphite2-1.3.14/work/graphite2-1.3.14/src/GlyphFace.cpp
[14/35] /usr/lib/ccache/bin/x86_64-pc-linux-gnu-g++ -DGRAPHITE2_NTRACING -Dgraphite2_EXPORTS -I/tmp/portage/media-gfx/graphite2-1.3.14/work/graphite2-1.3.14/include -I/tmp/portage/media-gfx/graphite2-1.3.14/work/graphite2-1.3.14/src  -march=znver2 -O3 -fgraphite-identity -floop-nest-optimize -fdevirtualize-at-ltrans -fipa-pta -fno-semantic-interposition -flto=12 -fno-plt -fno-signed-zeros -fno-trapping-math -fassociative-math -freciprocal-math -fno-math-errno -ffinite-math-only -fno-rounding-math -fno-signaling-nans -fcx-limited-range -fexcess-precision=fast -falign-functions=32 -fno-stack-protector -fno-stack-clash-protection -fstack-check=no -fno-stack-check -fuse-linker-plugin -pipe -g0 -Wl,-O1 -Wl,--as-needed -Wl,-z,norelro -Wl,-z,now -Wl,--sort-common -s -fPIC   -mfpmath=sse -msse2 -Wno-class-memaccess -Wdouble-promotion -Wall -Wextra -Wno-unknown-pragmas -Wendif-labels -Wshadow -Wctor-dtor-privacy -Wnon-virtual-dtor -fno-rtti -fno-exceptions -fvisibility=hidden -fvisibility-inlines-hidden -std=gnu++11 -MD -MT src/CMakeFiles/graphite2.dir/Collider.cpp.o -MF src/CMakeFiles/graphite2.dir/Collider.cpp.o.d -o src/CMakeFiles/graphite2.dir/Collider.cpp.o -c /tmp/portage/media-gfx/graphite2-1.3.14/work/graphite2-1.3.14/src/Collider.cpp
[15/35] /usr/lib/ccache/bin/x86_64-pc-linux-gnu-g++ -DGRAPHITE2_NTRACING -Dgraphite2_EXPORTS -I/tmp/portage/media-gfx/graphite2-1.3.14/work/graphite2-1.3.14/include -I/tmp/portage/media-gfx/graphite2-1.3.14/work/graphite2-1.3.14/src  -march=znver2 -O3 -fgraphite-identity -floop-nest-optimize -fdevirtualize-at-ltrans -fipa-pta -fno-semantic-interposition -flto=12 -fno-plt -fno-signed-zeros -fno-trapping-math -fassociative-math -freciprocal-math -fno-math-errno -ffinite-math-only -fno-rounding-math -fno-signaling-nans -fcx-limited-range -fexcess-precision=fast -falign-functions=32 -fno-stack-protector -fno-stack-clash-protection -fstack-check=no -fno-stack-check -fuse-linker-plugin -pipe -g0 -Wl,-O1 -Wl,--as-needed -Wl,-z,norelro -Wl,-z,now -Wl,--sort-common -s -fPIC   -mfpmath=sse -msse2 -Wno-class-memaccess -Wdouble-promotion -Wall -Wextra -Wno-unknown-pragmas -Wendif-labels -Wshadow -Wctor-dtor-privacy -Wnon-virtual-dtor -fno-rtti -fno-exceptions -fvisibility=hidden -fvisibility-inlines-hidden -std=gnu++11 -MD -MT src/CMakeFiles/graphite2.dir/Font.cpp.o -MF src/CMakeFiles/graphite2.dir/Font.cpp.o.d -o src/CMakeFiles/graphite2.dir/Font.cpp.o -c /tmp/portage/media-gfx/graphite2-1.3.14/work/graphite2-1.3.14/src/Font.cpp
[16/35] /usr/lib/ccache/bin/x86_64-pc-linux-gnu-g++ -DGRAPHITE2_NTRACING -Dgraphite2_EXPORTS -I/tmp/portage/media-gfx/graphite2-1.3.14/work/graphite2-1.3.14/include -I/tmp/portage/media-gfx/graphite2-1.3.14/work/graphite2-1.3.14/src  -march=znver2 -O3 -fgraphite-identity -floop-nest-optimize -fdevirtualize-at-ltrans -fipa-pta -fno-semantic-interposition -flto=12 -fno-plt -fno-signed-zeros -fno-trapping-math -fassociative-math -freciprocal-math -fno-math-errno -ffinite-math-only -fno-rounding-math -fno-signaling-nans -fcx-limited-range -fexcess-precision=fast -falign-functions=32 -fno-stack-protector -fno-stack-clash-protection -fstack-check=no -fno-stack-check -fuse-linker-plugin -pipe -g0 -Wl,-O1 -Wl,--as-needed -Wl,-z,norelro -Wl,-z,now -Wl,--sort-common -s -fPIC   -mfpmath=sse -msse2 -Wno-class-memaccess -Wdouble-promotion -Wall -Wextra -Wno-unknown-pragmas -Wendif-labels -Wshadow -Wctor-dtor-privacy -Wnon-virtual-dtor -fno-rtti -fno-exceptions -fvisibility=hidden -fvisibility-inlines-hidden -std=gnu++11 -MD -MT src/CMakeFiles/graphite2.dir/NameTable.cpp.o -MF src/CMakeFiles/graphite2.dir/NameTable.cpp.o.d -o src/CMakeFiles/graphite2.dir/NameTable.cpp.o -c /tmp/portage/media-gfx/graphite2-1.3.14/work/graphite2-1.3.14/src/NameTable.cpp
[17/35] /usr/lib/ccache/bin/x86_64-pc-linux-gnu-g++ -DGRAPHITE2_NTRACING -Dgraphite2_EXPORTS -I/tmp/portage/media-gfx/graphite2-1.3.14/work/graphite2-1.3.14/include -I/tmp/portage/media-gfx/graphite2-1.3.14/work/graphite2-1.3.14/src  -march=znver2 -O3 -fgraphite-identity -floop-nest-optimize -fdevirtualize-at-ltrans -fipa-pta -fno-semantic-interposition -flto=12 -fno-plt -fno-signed-zeros -fno-trapping-math -fassociative-math -freciprocal-math -fno-math-errno -ffinite-math-only -fno-rounding-math -fno-signaling-nans -fcx-limited-range -fexcess-precision=fast -falign-functions=32 -fno-stack-protector -fno-stack-clash-protection -fstack-check=no -fno-stack-check -fuse-linker-plugin -pipe -g0 -Wl,-O1 -Wl,--as-needed -Wl,-z,norelro -Wl,-z,now -Wl,--sort-common -s -fPIC   -mfpmath=sse -msse2 -Wno-class-memaccess -Wdouble-promotion -Wall -Wextra -Wno-unknown-pragmas -Wendif-labels -Wshadow -Wctor-dtor-privacy -Wnon-virtual-dtor -fno-rtti -fno-exceptions -fvisibility=hidden -fvisibility-inlines-hidden -std=gnu++11 -MD -MT src/CMakeFiles/graphite2.dir/Position.cpp.o -MF src/CMakeFiles/graphite2.dir/Position.cpp.o.d -o src/CMakeFiles/graphite2.dir/Position.cpp.o -c /tmp/portage/media-gfx/graphite2-1.3.14/work/graphite2-1.3.14/src/Position.cpp
[18/35] /usr/lib/ccache/bin/x86_64-pc-linux-gnu-g++ -DGRAPHITE2_NTRACING -Dgraphite2_EXPORTS -I/tmp/portage/media-gfx/graphite2-1.3.14/work/graphite2-1.3.14/include -I/tmp/portage/media-gfx/graphite2-1.3.14/work/graphite2-1.3.14/src  -march=znver2 -O3 -fgraphite-identity -floop-nest-optimize -fdevirtualize-at-ltrans -fipa-pta -fno-semantic-interposition -flto=12 -fno-plt -fno-signed-zeros -fno-trapping-math -fassociative-math -freciprocal-math -fno-math-errno -ffinite-math-only -fno-rounding-math -fno-signaling-nans -fcx-limited-range -fexcess-precision=fast -falign-functions=32 -fno-stack-protector -fno-stack-clash-protection -fstack-check=no -fno-stack-check -fuse-linker-plugin -pipe -g0 -Wl,-O1 -Wl,--as-needed -Wl,-z,norelro -Wl,-z,now -Wl,--sort-common -s -fPIC   -mfpmath=sse -msse2 -Wno-class-memaccess -Wdouble-promotion -Wall -Wextra -Wno-unknown-pragmas -Wendif-labels -Wshadow -Wctor-dtor-privacy -Wnon-virtual-dtor -fno-rtti -fno-exceptions -fvisibility=hidden -fvisibility-inlines-hidden -std=gnu++11 -MD -MT src/CMakeFiles/graphite2.dir/Face.cpp.o -MF src/CMakeFiles/graphite2.dir/Face.cpp.o.d -o src/CMakeFiles/graphite2.dir/Face.cpp.o -c /tmp/portage/media-gfx/graphite2-1.3.14/work/graphite2-1.3.14/src/Face.cpp
[19/35] /usr/lib/ccache/bin/x86_64-pc-linux-gnu-g++ -DGRAPHITE2_NTRACING -Dgraphite2_EXPORTS -I/tmp/portage/media-gfx/graphite2-1.3.14/work/graphite2-1.3.14/include -I/tmp/portage/media-gfx/graphite2-1.3.14/work/graphite2-1.3.14/src  -march=znver2 -O3 -fgraphite-identity -floop-nest-optimize -fdevirtualize-at-ltrans -fipa-pta -fno-semantic-interposition -flto=12 -fno-plt -fno-signed-zeros -fno-trapping-math -fassociative-math -freciprocal-math -fno-math-errno -ffinite-math-only -fno-rounding-math -fno-signaling-nans -fcx-limited-range -fexcess-precision=fast -falign-functions=32 -fno-stack-protector -fno-stack-clash-protection -fstack-check=no -fno-stack-check -fuse-linker-plugin -pipe -g0 -Wl,-O1 -Wl,--as-needed -Wl,-z,norelro -Wl,-z,now -Wl,--sort-common -s -fPIC   -mfpmath=sse -msse2 -Wno-class-memaccess -Wdouble-promotion -Wall -Wextra -Wno-unknown-pragmas -Wendif-labels -Wshadow -Wctor-dtor-privacy -Wnon-virtual-dtor -fno-rtti -fno-exceptions -fvisibility=hidden -fvisibility-inlines-hidden -std=gnu++11 -MD -MT src/CMakeFiles/graphite2.dir/GlyphCache.cpp.o -MF src/CMakeFiles/graphite2.dir/GlyphCache.cpp.o.d -o src/CMakeFiles/graphite2.dir/GlyphCache.cpp.o -c /tmp/portage/media-gfx/graphite2-1.3.14/work/graphite2-1.3.14/src/GlyphCache.cpp
[20/35] /usr/lib/ccache/bin/x86_64-pc-linux-gnu-g++ -DGRAPHITE2_NTRACING -Dgraphite2_EXPORTS -I/tmp/portage/media-gfx/graphite2-1.3.14/work/graphite2-1.3.14/include -I/tmp/portage/media-gfx/graphite2-1.3.14/work/graphite2-1.3.14/src  -march=znver2 -O3 -fgraphite-identity -floop-nest-optimize -fdevirtualize-at-ltrans -fipa-pta -fno-semantic-interposition -flto=12 -fno-plt -fno-signed-zeros -fno-trapping-math -fassociative-math -freciprocal-math -fno-math-errno -ffinite-math-only -fno-rounding-math -fno-signaling-nans -fcx-limited-range -fexcess-precision=fast -falign-functions=32 -fno-stack-protector -fno-stack-clash-protection -fstack-check=no -fno-stack-check -fuse-linker-plugin -pipe -g0 -Wl,-O1 -Wl,--as-needed -Wl,-z,norelro -Wl,-z,now -Wl,--sort-common -s -fPIC   -mfpmath=sse -msse2 -Wno-class-memaccess -Wdouble-promotion -Wall -Wextra -Wno-unknown-pragmas -Wendif-labels -Wshadow -Wctor-dtor-privacy -Wnon-virtual-dtor -fno-rtti -fno-exceptions -fvisibility=hidden -fvisibility-inlines-hidden -std=gnu++11 -MD -MT src/CMakeFiles/graphite2.dir/UtfCodec.cpp.o -MF src/CMakeFiles/graphite2.dir/UtfCodec.cpp.o.d -o src/CMakeFiles/graphite2.dir/UtfCodec.cpp.o -c /tmp/portage/media-gfx/graphite2-1.3.14/work/graphite2-1.3.14/src/UtfCodec.cpp
[21/35] /usr/lib/ccache/bin/x86_64-pc-linux-gnu-g++ -DGRAPHITE2_NTRACING -Dgraphite2_EXPORTS -I/tmp/portage/media-gfx/graphite2-1.3.14/work/graphite2-1.3.14/include -I/tmp/portage/media-gfx/graphite2-1.3.14/work/graphite2-1.3.14/src  -march=znver2 -O3 -fgraphite-identity -floop-nest-optimize -fdevirtualize-at-ltrans -fipa-pta -fno-semantic-interposition -flto=12 -fno-plt -fno-signed-zeros -fno-trapping-math -fassociative-math -freciprocal-math -fno-math-errno -ffinite-math-only -fno-rounding-math -fno-signaling-nans -fcx-limited-range -fexcess-precision=fast -falign-functions=32 -fno-stack-protector -fno-stack-clash-protection -fstack-check=no -fno-stack-check -fuse-linker-plugin -pipe -g0 -Wl,-O1 -Wl,--as-needed -Wl,-z,norelro -Wl,-z,now -Wl,--sort-common -s -fPIC   -mfpmath=sse -msse2 -Wno-class-memaccess -Wdouble-promotion -Wall -Wextra -Wno-unknown-pragmas -Wendif-labels -Wshadow -Wctor-dtor-privacy -Wnon-virtual-dtor -fno-rtti -fno-exceptions -fvisibility=hidden -fvisibility-inlines-hidden -std=gnu++11 -MD -MT src/CMakeFiles/graphite2.dir/TtfUtil.cpp.o -MF src/CMakeFiles/graphite2.dir/TtfUtil.cpp.o.d -o src/CMakeFiles/graphite2.dir/TtfUtil.cpp.o -c /tmp/portage/media-gfx/graphite2-1.3.14/work/graphite2-1.3.14/src/TtfUtil.cpp
[22/35] /usr/lib/ccache/bin/x86_64-pc-linux-gnu-g++  -I/tmp/portage/media-gfx/graphite2-1.3.14/work/graphite2-1.3.14/include  -march=znver2 -O3 -fgraphite-identity -floop-nest-optimize -fdevirtualize-at-ltrans -fipa-pta -fno-semantic-interposition -flto=12 -fno-plt -fno-signed-zeros -fno-trapping-math -fassociative-math -freciprocal-math -fno-math-errno -ffinite-math-only -fno-rounding-math -fno-signaling-nans -fcx-limited-range -fexcess-precision=fast -falign-functions=32 -fno-stack-protector -fno-stack-clash-protection -fstack-check=no -fno-stack-check -fuse-linker-plugin -pipe -g0 -Wl,-O1 -Wl,--as-needed -Wl,-z,norelro -Wl,-z,now -Wl,--sort-common -s   -std=gnu++11 -MD -MT gr2fonttest/CMakeFiles/gr2fonttest.dir/UtfCodec.cpp.o -MF gr2fonttest/CMakeFiles/gr2fonttest.dir/UtfCodec.cpp.o.d -o gr2fonttest/CMakeFiles/gr2fonttest.dir/UtfCodec.cpp.o -c /tmp/portage/media-gfx/graphite2-1.3.14/work/graphite2-1.3.14/gr2fonttest/UtfCodec.cpp
[23/35] /usr/lib/ccache/bin/x86_64-pc-linux-gnu-g++ -DGRAPHITE2_NTRACING -Dgraphite2_EXPORTS -I/tmp/portage/media-gfx/graphite2-1.3.14/work/graphite2-1.3.14/include -I/tmp/portage/media-gfx/graphite2-1.3.14/work/graphite2-1.3.14/src  -march=znver2 -O3 -fgraphite-identity -floop-nest-optimize -fdevirtualize-at-ltrans -fipa-pta -fno-semantic-interposition -flto=12 -fno-plt -fno-signed-zeros -fno-trapping-math -fassociative-math -freciprocal-math -fno-math-errno -ffinite-math-only -fno-rounding-math -fno-signaling-nans -fcx-limited-range -fexcess-precision=fast -falign-functions=32 -fno-stack-protector -fno-stack-clash-protection -fstack-check=no -fno-stack-check -fuse-linker-plugin -pipe -g0 -Wl,-O1 -Wl,--as-needed -Wl,-z,norelro -Wl,-z,now -Wl,--sort-common -s -fPIC   -mfpmath=sse -msse2 -Wno-class-memaccess -Wdouble-promotion -Wall -Wextra -Wno-unknown-pragmas -Wendif-labels -Wshadow -Wctor-dtor-privacy -Wnon-virtual-dtor -fno-rtti -fno-exceptions -fvisibility=hidden -fvisibility-inlines-hidden -std=gnu++11 -MD -MT src/CMakeFiles/graphite2.dir/FileFace.cpp.o -MF src/CMakeFiles/graphite2.dir/FileFace.cpp.o.d -o src/CMakeFiles/graphite2.dir/FileFace.cpp.o -c /tmp/portage/media-gfx/graphite2-1.3.14/work/graphite2-1.3.14/src/FileFace.cpp
[24/35] /usr/lib/ccache/bin/x86_64-pc-linux-gnu-g++ -DGRAPHITE2_NTRACING -Dgraphite2_EXPORTS -I/tmp/portage/media-gfx/graphite2-1.3.14/work/graphite2-1.3.14/include -I/tmp/portage/media-gfx/graphite2-1.3.14/work/graphite2-1.3.14/src  -march=znver2 -O3 -fgraphite-identity -floop-nest-optimize -fdevirtualize-at-ltrans -fipa-pta -fno-semantic-interposition -flto=12 -fno-plt -fno-signed-zeros -fno-trapping-math -fassociative-math -freciprocal-math -fno-math-errno -ffinite-math-only -fno-rounding-math -fno-signaling-nans -fcx-limited-range -fexcess-precision=fast -falign-functions=32 -fno-stack-protector -fno-stack-clash-protection -fstack-check=no -fno-stack-check -fuse-linker-plugin -pipe -g0 -Wl,-O1 -Wl,--as-needed -Wl,-z,norelro -Wl,-z,now -Wl,--sort-common -s -fPIC   -mfpmath=sse -msse2 -Wno-class-memaccess -Wdouble-promotion -Wall -Wextra -Wno-unknown-pragmas -Wendif-labels -Wshadow -Wctor-dtor-privacy -Wnon-virtual-dtor -fno-rtti -fno-exceptions -fvisibility=hidden -fvisibility-inlines-hidden -std=gnu++11 -MD -MT src/CMakeFiles/graphite2.dir/Intervals.cpp.o -MF src/CMakeFiles/graphite2.dir/Intervals.cpp.o.d -o src/CMakeFiles/graphite2.dir/Intervals.cpp.o -c /tmp/portage/media-gfx/graphite2-1.3.14/work/graphite2-1.3.14/src/Intervals.cpp
[25/35] /usr/lib/ccache/bin/x86_64-pc-linux-gnu-g++ -DGRAPHITE2_NTRACING -Dgraphite2_EXPORTS -I/tmp/portage/media-gfx/graphite2-1.3.14/work/graphite2-1.3.14/include -I/tmp/portage/media-gfx/graphite2-1.3.14/work/graphite2-1.3.14/src  -march=znver2 -O3 -fgraphite-identity -floop-nest-optimize -fdevirtualize-at-ltrans -fipa-pta -fno-semantic-interposition -flto=12 -fno-plt -fno-signed-zeros -fno-trapping-math -fassociative-math -freciprocal-math -fno-math-errno -ffinite-math-only -fno-rounding-math -fno-signaling-nans -fcx-limited-range -fexcess-precision=fast -falign-functions=32 -fno-stack-protector -fno-stack-clash-protection -fstack-check=no -fno-stack-check -fuse-linker-plugin -pipe -g0 -Wl,-O1 -Wl,--as-needed -Wl,-z,norelro -Wl,-z,now -Wl,--sort-common -s -fPIC   -mfpmath=sse -msse2 -Wno-class-memaccess -Wdouble-promotion -Wall -Wextra -Wno-unknown-pragmas -Wendif-labels -Wshadow -Wctor-dtor-privacy -Wnon-virtual-dtor -fno-rtti -fno-exceptions -fvisibility=hidden -fvisibility-inlines-hidden -std=gnu++11 -MD -MT src/CMakeFiles/graphite2.dir/Justifier.cpp.o -MF src/CMakeFiles/graphite2.dir/Justifier.cpp.o.d -o src/CMakeFiles/graphite2.dir/Justifier.cpp.o -c /tmp/portage/media-gfx/graphite2-1.3.14/work/graphite2-1.3.14/src/Justifier.cpp
[26/35] /usr/lib/ccache/bin/x86_64-pc-linux-gnu-g++ -DGRAPHITE2_NTRACING -Dgraphite2_EXPORTS -I/tmp/portage/media-gfx/graphite2-1.3.14/work/graphite2-1.3.14/include -I/tmp/portage/media-gfx/graphite2-1.3.14/work/graphite2-1.3.14/src  -march=znver2 -O3 -fgraphite-identity -floop-nest-optimize -fdevirtualize-at-ltrans -fipa-pta -fno-semantic-interposition -flto=12 -fno-plt -fno-signed-zeros -fno-trapping-math -fassociative-math -freciprocal-math -fno-math-errno -ffinite-math-only -fno-rounding-math -fno-signaling-nans -fcx-limited-range -fexcess-precision=fast -falign-functions=32 -fno-stack-protector -fno-stack-clash-protection -fstack-check=no -fno-stack-check -fuse-linker-plugin -pipe -g0 -Wl,-O1 -Wl,--as-needed -Wl,-z,norelro -Wl,-z,now -Wl,--sort-common -s -fPIC   -mfpmath=sse -msse2 -Wno-class-memaccess -Wdouble-promotion -Wall -Wextra -Wno-unknown-pragmas -Wendif-labels -Wshadow -Wctor-dtor-privacy -Wnon-virtual-dtor -fno-rtti -fno-exceptions -fvisibility=hidden -fvisibility-inlines-hidden -std=gnu++11 -MD -MT src/CMakeFiles/graphite2.dir/Sparse.cpp.o -MF src/CMakeFiles/graphite2.dir/Sparse.cpp.o.d -o src/CMakeFiles/graphite2.dir/Sparse.cpp.o -c /tmp/portage/media-gfx/graphite2-1.3.14/work/graphite2-1.3.14/src/Sparse.cpp
[27/35] /usr/lib/ccache/bin/x86_64-pc-linux-gnu-g++ -DGRAPHITE2_NTRACING -Dgraphite2_EXPORTS -I/tmp/portage/media-gfx/graphite2-1.3.14/work/graphite2-1.3.14/include -I/tmp/portage/media-gfx/graphite2-1.3.14/work/graphite2-1.3.14/src  -march=znver2 -O3 -fgraphite-identity -floop-nest-optimize -fdevirtualize-at-ltrans -fipa-pta -fno-semantic-interposition -flto=12 -fno-plt -fno-signed-zeros -fno-trapping-math -fassociative-math -freciprocal-math -fno-math-errno -ffinite-math-only -fno-rounding-math -fno-signaling-nans -fcx-limited-range -fexcess-precision=fast -falign-functions=32 -fno-stack-protector -fno-stack-clash-protection -fstack-check=no -fno-stack-check -fuse-linker-plugin -pipe -g0 -Wl,-O1 -Wl,--as-needed -Wl,-z,norelro -Wl,-z,now -Wl,--sort-common -s -fPIC   -mfpmath=sse -msse2 -Wno-class-memaccess -Wdouble-promotion -Wall -Wextra -Wno-unknown-pragmas -Wendif-labels -Wshadow -Wctor-dtor-privacy -Wnon-virtual-dtor -fno-rtti -fno-exceptions -fvisibility=hidden -fvisibility-inlines-hidden -std=gnu++11 -MD -MT src/CMakeFiles/graphite2.dir/Silf.cpp.o -MF src/CMakeFiles/graphite2.dir/Silf.cpp.o.d -o src/CMakeFiles/graphite2.dir/Silf.cpp.o -c /tmp/portage/media-gfx/graphite2-1.3.14/work/graphite2-1.3.14/src/Silf.cpp
[28/35] /usr/lib/ccache/bin/x86_64-pc-linux-gnu-g++ -DGRAPHITE2_NTRACING -Dgraphite2_EXPORTS -I/tmp/portage/media-gfx/graphite2-1.3.14/work/graphite2-1.3.14/include -I/tmp/portage/media-gfx/graphite2-1.3.14/work/graphite2-1.3.14/src  -march=znver2 -O3 -fgraphite-identity -floop-nest-optimize -fdevirtualize-at-ltrans -fipa-pta -fno-semantic-interposition -flto=12 -fno-plt -fno-signed-zeros -fno-trapping-math -fassociative-math -freciprocal-math -fno-math-errno -ffinite-math-only -fno-rounding-math -fno-signaling-nans -fcx-limited-range -fexcess-precision=fast -falign-functions=32 -fno-stack-protector -fno-stack-clash-protection -fstack-check=no -fno-stack-check -fuse-linker-plugin -pipe -g0 -Wl,-O1 -Wl,--as-needed -Wl,-z,norelro -Wl,-z,now -Wl,--sort-common -s -fPIC   -mfpmath=sse -msse2 -Wno-class-memaccess -Wdouble-promotion -Wall -Wextra -Wno-unknown-pragmas -Wendif-labels -Wshadow -Wctor-dtor-privacy -Wnon-virtual-dtor -fno-rtti -fno-exceptions -fvisibility=hidden -fvisibility-inlines-hidden -std=gnu++11 -MD -MT src/CMakeFiles/graphite2.dir/Slot.cpp.o -MF src/CMakeFiles/graphite2.dir/Slot.cpp.o.d -o src/CMakeFiles/graphite2.dir/Slot.cpp.o -c /tmp/portage/media-gfx/graphite2-1.3.14/work/graphite2-1.3.14/src/Slot.cpp
[29/35] /usr/lib/ccache/bin/x86_64-pc-linux-gnu-g++ -DGRAPHITE2_NTRACING -Dgraphite2_EXPORTS -I/tmp/portage/media-gfx/graphite2-1.3.14/work/graphite2-1.3.14/include -I/tmp/portage/media-gfx/graphite2-1.3.14/work/graphite2-1.3.14/src  -march=znver2 -O3 -fgraphite-identity -floop-nest-optimize -fdevirtualize-at-ltrans -fipa-pta -fno-semantic-interposition -flto=12 -fno-plt -fno-signed-zeros -fno-trapping-math -fassociative-math -freciprocal-math -fno-math-errno -ffinite-math-only -fno-rounding-math -fno-signaling-nans -fcx-limited-range -fexcess-precision=fast -falign-functions=32 -fno-stack-protector -fno-stack-clash-protection -fstack-check=no -fno-stack-check -fuse-linker-plugin -pipe -g0 -Wl,-O1 -Wl,--as-needed -Wl,-z,norelro -Wl,-z,now -Wl,--sort-common -s -fPIC   -mfpmath=sse -msse2 -Wno-class-memaccess -Wdouble-promotion -Wall -Wextra -Wno-unknown-pragmas -Wendif-labels -Wshadow -Wctor-dtor-privacy -Wnon-virtual-dtor -fno-rtti -fno-exceptions -fvisibility=hidden -fvisibility-inlines-hidden -std=gnu++11 -MD -MT src/CMakeFiles/graphite2.dir/Segment.cpp.o -MF src/CMakeFiles/graphite2.dir/Segment.cpp.o.d -o src/CMakeFiles/graphite2.dir/Segment.cpp.o -c /tmp/portage/media-gfx/graphite2-1.3.14/work/graphite2-1.3.14/src/Segment.cpp
[30/35] /usr/lib/ccache/bin/x86_64-pc-linux-gnu-g++ -DGRAPHITE2_NTRACING -Dgraphite2_EXPORTS -I/tmp/portage/media-gfx/graphite2-1.3.14/work/graphite2-1.3.14/include -I/tmp/portage/media-gfx/graphite2-1.3.14/work/graphite2-1.3.14/src  -march=znver2 -O3 -fgraphite-identity -floop-nest-optimize -fdevirtualize-at-ltrans -fipa-pta -fno-semantic-interposition -flto=12 -fno-plt -fno-signed-zeros -fno-trapping-math -fassociative-math -freciprocal-math -fno-math-errno -ffinite-math-only -fno-rounding-math -fno-signaling-nans -fcx-limited-range -fexcess-precision=fast -falign-functions=32 -fno-stack-protector -fno-stack-clash-protection -fstack-check=no -fno-stack-check -fuse-linker-plugin -pipe -g0 -Wl,-O1 -Wl,--as-needed -Wl,-z,norelro -Wl,-z,now -Wl,--sort-common -s -fPIC   -mfpmath=sse -msse2 -Wno-class-memaccess -Wdouble-promotion -Wall -Wextra -Wno-unknown-pragmas -Wendif-labels -Wshadow -Wctor-dtor-privacy -Wnon-virtual-dtor -fno-rtti -fno-exceptions -fvisibility=hidden -fvisibility-inlines-hidden -std=gnu++11 -MD -MT src/CMakeFiles/graphite2.dir/Pass.cpp.o -MF src/CMakeFiles/graphite2.dir/Pass.cpp.o.d -o src/CMakeFiles/graphite2.dir/Pass.cpp.o -c /tmp/portage/media-gfx/graphite2-1.3.14/work/graphite2-1.3.14/src/Pass.cpp
[31/35] /usr/lib/ccache/bin/x86_64-pc-linux-gnu-g++  -I/tmp/portage/media-gfx/graphite2-1.3.14/work/graphite2-1.3.14/include  -march=znver2 -O3 -fgraphite-identity -floop-nest-optimize -fdevirtualize-at-ltrans -fipa-pta -fno-semantic-interposition -flto=12 -fno-plt -fno-signed-zeros -fno-trapping-math -fassociative-math -freciprocal-math -fno-math-errno -ffinite-math-only -fno-rounding-math -fno-signaling-nans -fcx-limited-range -fexcess-precision=fast -falign-functions=32 -fno-stack-protector -fno-stack-clash-protection -fstack-check=no -fno-stack-check -fuse-linker-plugin -pipe -g0 -Wl,-O1 -Wl,--as-needed -Wl,-z,norelro -Wl,-z,now -Wl,--sort-common -s   -std=gnu++11 -MD -MT gr2fonttest/CMakeFiles/gr2fonttest.dir/gr2FontTest.cpp.o -MF gr2fonttest/CMakeFiles/gr2fonttest.dir/gr2FontTest.cpp.o.d -o gr2fonttest/CMakeFiles/gr2fonttest.dir/gr2FontTest.cpp.o -c /tmp/portage/media-gfx/graphite2-1.3.14/work/graphite2-1.3.14/gr2fonttest/gr2FontTest.cpp
[32/35] : && /usr/lib/ccache/bin/x86_64-pc-linux-gnu-gcc -fPIC -march=znver2 -O3 -fgraphite-identity -floop-nest-optimize -fdevirtualize-at-ltrans -fipa-pta -fno-semantic-interposition -flto=12 -fno-plt -fno-signed-zeros -fno-trapping-math -fassociative-math -freciprocal-math -fno-math-errno -ffinite-math-only -fno-rounding-math -fno-signaling-nans -fcx-limited-range -fexcess-precision=fast -falign-functions=32 -fno-stack-protector -fno-stack-clash-protection -fstack-check=no -fno-stack-check -fuse-linker-plugin -pipe -g0 -Wl,-O1 -Wl,--as-needed -Wl,-z,norelro -Wl,-z,now -Wl,--sort-common -s  -Wl,-O1 -Wl,--as-needed -Wl,-z,norelro -Wl,-z,now -Wl,--sort-common -s -march=znver2 -O3 -fgraphite-identity -floop-nest-optimize -fdevirtualize-at-ltrans -fipa-pta -fno-semantic-interposition -flto=12 -fno-plt -fno-signed-zeros -fno-trapping-math -fassociative-math -freciprocal-math -fno-math-errno -ffinite-math-only -fno-rounding-math -fno-signaling-nans -fcx-limited-range -fexcess-precision=fast -falign-functions=32 -fno-stack-protector -fno-stack-clash-protection -fstack-check=no -fno-stack-check -fuse-linker-plugin -pipe -g0  -nodefaultlibs -shared -Wl,-soname,libgraphite2.so.3 -o src/libgraphite2.so.3.2.1 src/CMakeFiles/graphite2.dir/direct_machine.cpp.o src/CMakeFiles/graphite2.dir/gr_char_info.cpp.o src/CMakeFiles/graphite2.dir/gr_features.cpp.o src/CMakeFiles/graphite2.dir/gr_face.cpp.o src/CMakeFiles/graphite2.dir/gr_font.cpp.o src/CMakeFiles/graphite2.dir/gr_logging.cpp.o src/CMakeFiles/graphite2.dir/gr_segment.cpp.o src/CMakeFiles/graphite2.dir/gr_slot.cpp.o src/CMakeFiles/graphite2.dir/CmapCache.cpp.o src/CMakeFiles/graphite2.dir/Code.cpp.o src/CMakeFiles/graphite2.dir/Collider.cpp.o src/CMakeFiles/graphite2.dir/Decompressor.cpp.o src/CMakeFiles/graphite2.dir/Face.cpp.o src/CMakeFiles/graphite2.dir/FeatureMap.cpp.o src/CMakeFiles/graphite2.dir/Font.cpp.o src/CMakeFiles/graphite2.dir/GlyphFace.cpp.o src/CMakeFiles/graphite2.dir/GlyphCache.cpp.o src/CMakeFiles/graphite2.dir/Intervals.cpp.o src/CMakeFiles/graphite2.dir/Justifier.cpp.o src/CMakeFiles/graphite2.dir/NameTable.cpp.o src/CMakeFiles/graphite2.dir/Pass.cpp.o src/CMakeFiles/graphite2.dir/Position.cpp.o src/CMakeFiles/graphite2.dir/Segment.cpp.o src/CMakeFiles/graphite2.dir/Silf.cpp.o src/CMakeFiles/graphite2.dir/Slot.cpp.o src/CMakeFiles/graphite2.dir/Sparse.cpp.o src/CMakeFiles/graphite2.dir/TtfUtil.cpp.o src/CMakeFiles/graphite2.dir/UtfCodec.cpp.o src/CMakeFiles/graphite2.dir/FileFace.cpp.o  -lc  -lgcc && :
[33/35] /usr/bin/cmake -E cmake_symlink_library src/libgraphite2.so.3.2.1  src/libgraphite2.so.3 src/libgraphite2.so && :
[34/35] : && /usr/lib/ccache/bin/x86_64-pc-linux-gnu-g++  -march=znver2 -O3 -fgraphite-identity -floop-nest-optimize -fdevirtualize-at-ltrans -fipa-pta -fno-semantic-interposition -flto=12 -fno-plt -fno-signed-zeros -fno-trapping-math -fassociative-math -freciprocal-math -fno-math-errno -ffinite-math-only -fno-rounding-math -fno-signaling-nans -fcx-limited-range -fexcess-precision=fast -falign-functions=32 -fno-stack-protector -fno-stack-clash-protection -fstack-check=no -fno-stack-check -fuse-linker-plugin -pipe -g0 -Wl,-O1 -Wl,--as-needed -Wl,-z,norelro -Wl,-z,now -Wl,--sort-common -s  -Wl,-O1 -Wl,--as-needed -Wl,-z,norelro -Wl,-z,now -Wl,--sort-common -s -march=znver2 -O3 -fgraphite-identity -floop-nest-optimize -fdevirtualize-at-ltrans -fipa-pta -fno-semantic-interposition -flto=12 -fno-plt -fno-signed-zeros -fno-trapping-math -fassociative-math -freciprocal-math -fno-math-errno -ffinite-math-only -fno-rounding-math -fno-signaling-nans -fcx-limited-range -fexcess-precision=fast -falign-functions=32 -fno-stack-protector -fno-stack-clash-protection -fstack-check=no -fno-stack-check -fuse-linker-plugin -pipe -g0    -rdynamic gr2fonttest/CMakeFiles/gr2fonttest.dir/gr2FontTest.cpp.o gr2fonttest/CMakeFiles/gr2fonttest.dir/UtfCodec.cpp.o  -o gr2fonttest/gr2fonttest  -Wl,-rpath,/tmp/portage/media-gfx/graphite2-1.3.14/work/graphite2-1.3.14_build-abi_x86_64.amd64/src:  src/libgraphite2.so.3.2.1  -lc  -lgcc && :
[35/35] cd /tmp/portage/media-gfx/graphite2-1.3.14/work/graphite2-1.3.14_build-abi_x86_64.amd64/gr2fonttest && /usr/bin/cmake -E copy_if_different /tmp/portage/media-gfx/graphite2-1.3.14/work/graphite2-1.3.14_build-abi_x86_64.amd64/src/./libgraphite2.so /tmp/portage/media-gfx/graphite2-1.3.14/work/graphite2-1.3.14_build-abi_x86_64.amd64/gr2fonttest/.
>>> Source compiled.
 * Skipping make test/check due to ebuild restriction.
>>> Test phase [disabled because of RESTRICT=test]: media-gfx/graphite2-1.3.14

>>> Install media-gfx/graphite2-1.3.14 into /tmp/portage/media-gfx/graphite2-1.3.14/image
 * abi_x86_64.amd64: running multilib-minimal_abi_src_install
 * Working in BUILD_DIR: "/tmp/portage/media-gfx/graphite2-1.3.14/work/graphite2-1.3.14_build-abi_x86_64.amd64"
[1/2] cd /tmp/portage/media-gfx/graphite2-1.3.14/work/graphite2-1.3.14_build-abi_x86_64.amd64/gr2fonttest && /usr/bin/cmake -E copy_if_different /tmp/portage/media-gfx/graphite2-1.3.14/work/graphite2-1.3.14_build-abi_x86_64.amd64/src/./libgraphite2.so /tmp/portage/media-gfx/graphite2-1.3.14/work/graphite2-1.3.14_build-abi_x86_64.amd64/gr2fonttest/.
[1/2] Install the project...
-- Install configuration: "Gentoo"
-- Installing: /tmp/portage/media-gfx/graphite2-1.3.14/image/usr/lib64/pkgconfig/graphite2.pc
-- Installing: /tmp/portage/media-gfx/graphite2-1.3.14/image/usr/lib64/libgraphite2.la
-- Installing: /tmp/portage/media-gfx/graphite2-1.3.14/image/usr/lib64/libgraphite2.so.3.2.1
-- Installing: /tmp/portage/media-gfx/graphite2-1.3.14/image/usr/lib64/libgraphite2.so.3
-- Installing: /tmp/portage/media-gfx/graphite2-1.3.14/image/usr/lib64/libgraphite2.so
-- Installing: /tmp/portage/media-gfx/graphite2-1.3.14/image/usr/include/graphite2/Font.h
-- Installing: /tmp/portage/media-gfx/graphite2-1.3.14/image/usr/include/graphite2/Segment.h
-- Installing: /tmp/portage/media-gfx/graphite2-1.3.14/image/usr/include/graphite2/Types.h
-- Installing: /tmp/portage/media-gfx/graphite2-1.3.14/image/usr/include/graphite2/Log.h
-- Installing: /tmp/portage/media-gfx/graphite2-1.3.14/image/usr/share/graphite2/graphite2.cmake
-- Installing: /tmp/portage/media-gfx/graphite2-1.3.14/image/usr/share/graphite2/graphite2-gentoo.cmake
-- Installing: /tmp/portage/media-gfx/graphite2-1.3.14/image/usr/bin/gr2fonttest
-- Set runtime path of "/tmp/portage/media-gfx/graphite2-1.3.14/image/usr/bin/gr2fonttest" to ""
>>> Completed installing media-gfx/graphite2-1.3.14 into /tmp/portage/media-gfx/graphite2-1.3.14/image

 * Final size of build directory: 25304 KiB (24.7 MiB)
 * Final size of installed tree:    316 KiB



 * QA Notice: Pre-stripped files found:
 * /usr/bin/gr2fonttest
 * /usr/lib64/libgraphite2.so.3.2.1
./
./usr/
./usr/bin/
./usr/bin/gr2fonttest
./usr/include/
./usr/include/graphite2/
./usr/include/graphite2/Font.h
./usr/include/graphite2/Log.h
./usr/include/graphite2/Types.h
./usr/include/graphite2/Segment.h
./usr/share/
./usr/share/graphite2/
./usr/share/graphite2/graphite2.cmake
./usr/share/graphite2/graphite2-gentoo.cmake
./usr/share/doc/
./usr/share/doc/graphite2-1.3.14/
./usr/share/doc/graphite2-1.3.14/ChangeLog.bz2
./usr/share/doc/graphite2-1.3.14/README.md.bz2
./usr/lib64/
./usr/lib64/libgraphite2.so.3
./usr/lib64/libgraphite2.so
./usr/lib64/pkgconfig/
./usr/lib64/pkgconfig/graphite2.pc
./usr/lib64/libgraphite2.so.3.2.1
>>> Done.
 * checking 11 files for package collisions
[32;01m * [39;49;00mBuilding package for media-gfx/graphite2-1.3.14 ...                   [34;01m[ [39;49;00m[32;01mok[39;49;00m[34;01m ][39;49;00m
[32;01m * [39;49;00mPackages now in '/usr/portage/packages':
[32;01m * [39;49;00mmedia-gfx/graphite2-1.3.14: 146K

>>> Merging media-gfx/graphite2-1.3.14 to /
 * removing unneeded *.la files
--- /usr/
--- /usr/lib64/
>>> /usr/lib64/libgraphite2.so.3.2.1
--- /usr/lib64/pkgconfig/
>>> /usr/lib64/pkgconfig/graphite2.pc
>>> /usr/lib64/libgraphite2.so -> libgraphite2.so.3
>>> /usr/lib64/libgraphite2.so.3 -> libgraphite2.so.3.2.1
--- /usr/share/
--- /usr/share/graphite2/
>>> /usr/share/graphite2/graphite2-gentoo.cmake
>>> /usr/share/graphite2/graphite2.cmake
--- /usr/include/
--- /usr/include/graphite2/
>>> /usr/include/graphite2/Segment.h
>>> /usr/include/graphite2/Types.h
>>> /usr/include/graphite2/Log.h
>>> /usr/include/graphite2/Font.h
--- /usr/bin/
>>> /usr/bin/gr2fonttest
>>> Safely unmerging already-installed instance...
>>> Original instance of package unmerged safely.
>>> media-gfx/graphite2-1.3.14 merged.
>>> Regenerating /etc/ld.so.cache...
