[32;01m * [39;49;00mPackage:    media-libs/opencv-4.1.2-r3
[32;01m * [39;49;00mRepository: gentoo
[32;01m * [39;49;00mMaintainer: amynka@gentoo.org
[32;01m * [39;49;00mUSE:        abi_x86_64 amd64 contrib cpu_flags_x86_avx cpu_flags_x86_avx2 cpu_flags_x86_fma3 cpu_flags_x86_popcnt cpu_flags_x86_sse cpu_flags_x86_sse2 cpu_flags_x86_sse3 cpu_flags_x86_sse4_1 cpu_flags_x86_sse4_2 cpu_flags_x86_ssse3 download eigen elibc_glibc examples features2d ffmpeg gdal gflags glog gphoto2 gstreamer jpeg jpeg2k kernel_linux opencl opencvapps openexr opengl openmp pch png python python_targets_python3_6 python_targets_python3_7 qt5 tesseract testprograms threads tiff userland_GNU v4l vtk webp xine
[32;01m * [39;49;00mFEATURES:   network-sandbox preserve-libs sandbox userpriv usersandbox
