No package files given... Grabbing a set.
--- replaced obj /usr/share/man/man1/jbig2dec.1.bz2
--- replaced dir /usr/share/man/man1
--- replaced dir /usr/share/man
--- replaced dir /usr/share
--- replaced obj /usr/lib64/pkgconfig/jbig2dec.pc
--- replaced dir /usr/lib64/pkgconfig
--- replaced obj /usr/lib64/libjbig2dec.so.0.0.0
--- replaced sym /usr/lib64/libjbig2dec.so.0
--- replaced sym /usr/lib64/libjbig2dec.so
--- replaced dir /usr/lib64
--- replaced obj /usr/include/jbig2.h
--- replaced dir /usr/include
--- replaced obj /usr/bin/jbig2dec
--- replaced dir /usr/bin
--- replaced dir /usr
>>> Regenerating /etc/ld.so.cache...
