No package files given... Grabbing a set.
--- replaced obj /usr/lib64/pkgconfig/soxr.pc
--- replaced obj /usr/lib64/pkgconfig/soxr-lsr.pc
--- replaced dir /usr/lib64/pkgconfig
--- replaced obj /usr/lib64/libsoxr.so.0.1.2
--- replaced sym /usr/lib64/libsoxr.so.0
--- replaced sym /usr/lib64/libsoxr.so
--- replaced obj /usr/lib64/libsoxr-lsr.so.0.1.9
--- replaced sym /usr/lib64/libsoxr-lsr.so.0
--- replaced sym /usr/lib64/libsoxr-lsr.so
--- replaced dir /usr/lib64
--- replaced obj /usr/include/soxr.h
--- replaced obj /usr/include/soxr-lsr.h
--- replaced dir /usr/include
--- replaced dir /usr
>>> Regenerating /etc/ld.so.cache...
