No package files given... Grabbing a set.
--- replaced obj /usr/share/aclocal/opus.m4
--- replaced dir /usr/share/aclocal
--- replaced dir /usr/share
--- replaced obj /usr/lib64/pkgconfig/opus.pc
--- replaced dir /usr/lib64/pkgconfig
--- replaced obj /usr/lib64/libopus.so.0.8.0
--- replaced sym /usr/lib64/libopus.so.0
--- replaced sym /usr/lib64/libopus.so
--- replaced dir /usr/lib64
--- replaced obj /usr/include/opus/opus_types.h
--- replaced obj /usr/include/opus/opus_projection.h
--- replaced obj /usr/include/opus/opus_multistream.h
--- replaced obj /usr/include/opus/opus_defines.h
--- replaced obj /usr/include/opus/opus.h
--- replaced dir /usr/include/opus
--- replaced dir /usr/include
--- replaced dir /usr
>>> Regenerating /etc/ld.so.cache...
