No package files given... Grabbing a set.
--- replaced obj /usr/share/man/man1/pbmtojbg.1.bz2
--- replaced obj /usr/share/man/man1/jbgtopbm.1.bz2
--- replaced dir /usr/share/man/man1
--- replaced dir /usr/share/man
--- replaced dir /usr/share
--- replaced obj /usr/lib64/libjbig85.so
--- replaced obj /usr/lib64/libjbig.so
--- replaced dir /usr/lib64
--- replaced obj /usr/include/jbig_ar.h
--- replaced obj /usr/include/jbig85.h
--- replaced obj /usr/include/jbig.h
--- replaced dir /usr/include
--- replaced obj /usr/bin/pbmtojbg85
--- replaced obj /usr/bin/pbmtojbg
--- replaced obj /usr/bin/jbgtopbm85
--- replaced obj /usr/bin/jbgtopbm
--- replaced dir /usr/bin
--- replaced dir /usr
>>> Regenerating /etc/ld.so.cache...
