>>> Extracting info
 * Package:    media-fonts/urw-fonts-2.4.9
 * Repository: gentoo
 * USE:        abi_x86_64 elibc_glibc kernel_linux X userland_GNU amd64
 * FEATURES:   network-sandbox preserve-libs sandbox userpriv usersandbox
 * FEATURES='assume-digests binpkg-docompress binpkg-dostrip binpkg-logs binpkg-multi-instance buildpkg cgroup compress-index config-protect-if-modified distlocks downgrade-backup fixlafiles ipc-sandbox merge-sync multilib-strict network-sandbox news nodoc parallel-fetch parallel-install pid-sandbox preserve-libs qa-unresolved-soname-deps sandbox sfperms strict unknown-features-warn unmerge-backup unmerge-logs unmerge-orphans userfetch userpriv usersandbox usersync xattr'
 * CFLAGS='-march=native -O3 -fgraphite-identity -floop-nest-optimize -fdevirtualize-at-ltrans -fipa-pta -fno-semantic-interposition -flto=12 -fno-plt -fno-math-errno -fno-trapping-math -fuse-linker-plugin -pipe -g0 -falign-functions=32 -Wl,-O1 -Wl,--as-needed -Wl,--hash-style=gnu,-z,norelro,--as-needed'
 * CXXFLAGS='-march=native -O3 -fgraphite-identity -floop-nest-optimize -fdevirtualize-at-ltrans -fipa-pta -fno-semantic-interposition -flto=12 -fno-plt -fno-math-errno -fno-trapping-math -fuse-linker-plugin -pipe -g0 -falign-functions=32 -Wl,-O1 -Wl,--as-needed -Wl,--hash-style=gnu,-z,norelro,--as-needed'
 * FFLAGS='-march=native -O3 -fgraphite-identity -floop-nest-optimize -fdevirtualize-at-ltrans -fipa-pta -fno-semantic-interposition -flto=12 -fno-plt -fno-math-errno -fno-trapping-math -fuse-linker-plugin -pipe -g0 -falign-functions=32 -Wl,-O1 -Wl,--as-needed -Wl,--hash-style=gnu,-z,norelro,--as-needed'
 * FCFLAGS='-march=native -O3 -fgraphite-identity -floop-nest-optimize -fdevirtualize-at-ltrans -fipa-pta -fno-semantic-interposition -flto=12 -fno-plt -fno-math-errno -fno-trapping-math -fuse-linker-plugin -pipe -g0 -falign-functions=32 -Wl,-O1 -Wl,--as-needed -Wl,--hash-style=gnu,-z,norelro,--as-needed'
 * F77FLAGS='-march=native -O3 -fgraphite-identity -floop-nest-optimize -fdevirtualize-at-ltrans -fipa-pta -fno-semantic-interposition -flto=12 -fno-plt -fno-math-errno -fno-trapping-math -fuse-linker-plugin -pipe -g0 -falign-functions=32 -Wl,-O1 -Wl,--as-needed -Wl,--hash-style=gnu,-z,norelro,--as-needed'
 * LDFLAGS='-Wl,-O1 -Wl,--as-needed -Wl,--hash-style=gnu,-z,norelro,--as-needed -march=native -O3 -fgraphite-identity -floop-nest-optimize -fdevirtualize-at-ltrans -fipa-pta -fno-semantic-interposition -flto=12 -fno-plt -fno-math-errno -fno-trapping-math -fuse-linker-plugin -pipe -g0 -falign-functions=32'
 * MAKEOPTS='-j12 -l12'
 * gcc () 11.0.0 20200526 (experimental)
 * g++ () 11.0.0 20200526 (experimental)
 * GNU ld (Gentoo 2.34 p4) 2.34.0
 * Linux ryzen.gnum.org 5.4.36 #1 SMP Thu Apr 30 04:38:28 UTC 2020 x86_64 AMD Ryzen 5 3600 6-Core Processor AuthenticAMD GNU/Linux
media-fonts/urw-fonts: 14 seconds average for 5 merges
2020-05-15T07:45:02 >>> media-fonts/urw-fonts: 9 seconds
2020-05-21T06:13:17 >>> media-fonts/urw-fonts: 10 seconds
2020-05-25T23:04:16 >>> media-fonts/urw-fonts: 17 seconds
2020-05-26T14:08:38 >>> media-fonts/urw-fonts: 19 seconds
2020-05-27T01:46:05 >>> media-fonts/urw-fonts: 16 seconds
]0;emerge 14:33:13 259|889 urw-fonts 00:17 (root@ryzen.gnum.org)kemerge 14:33:13 259|889 urw-fonts 00:17 (root@ryzen.gnum.org)\>>> Extracting media-fonts/urw-fonts-2.4.9
 * checking 108 files for package collisions
>>> Merging media-fonts/urw-fonts-2.4.9 to /
 * removing unneeded *.la files
--- /usr/
--- /usr/share/
--- /usr/share/fonts/
--- /usr/share/fonts/urw-fonts/
>>> /usr/share/fonts/urw-fonts/c059016l.afm
>>> /usr/share/fonts/urw-fonts/p052004l.pfb
>>> /usr/share/fonts/urw-fonts/n019063l.pfb
>>> /usr/share/fonts/urw-fonts/n019024l.pfb
>>> /usr/share/fonts/urw-fonts/p052023l.afm
>>> /usr/share/fonts/urw-fonts/a010033l.pfb
>>> /usr/share/fonts/urw-fonts/p052023l.pfb
>>> /usr/share/fonts/urw-fonts/a010033l.afm
>>> /usr/share/fonts/urw-fonts/p052003l.afm
>>> /usr/share/fonts/urw-fonts/n022003l.afm
>>> /usr/share/fonts/urw-fonts/p052004l.pfm
>>> /usr/share/fonts/urw-fonts/c059016l.pfm
>>> /usr/share/fonts/urw-fonts/n019023l.afm
>>> /usr/share/fonts/urw-fonts/n021023l.pfb
>>> /usr/share/fonts/urw-fonts/n019063l.pfm
>>> /usr/share/fonts/urw-fonts/a010035l.pfb
>>> /usr/share/fonts/urw-fonts/c059013l.pfm
>>> /usr/share/fonts/urw-fonts/p052024l.pfb
>>> /usr/share/fonts/urw-fonts/n022023l.afm
>>> /usr/share/fonts/urw-fonts/n021003l.pfb
>>> /usr/share/fonts/urw-fonts/n021024l.afm
>>> /usr/share/fonts/urw-fonts/n021024l.pfb
>>> /usr/share/fonts/urw-fonts/n019024l.pfm
>>> /usr/share/fonts/urw-fonts/n019023l.pfm
>>> /usr/share/fonts/urw-fonts/b018012l.pfm
>>> /usr/share/fonts/urw-fonts/b018032l.afm
>>> /usr/share/fonts/urw-fonts/n019044l.pfb
>>> /usr/share/fonts/urw-fonts/a010013l.afm
>>> /usr/share/fonts/urw-fonts/n022003l.pfb
>>> /usr/share/fonts/urw-fonts/p052003l.pfb
>>> /usr/share/fonts/urw-fonts/b018015l.pfb
>>> /usr/share/fonts/urw-fonts/b018035l.pfb
>>> /usr/share/fonts/urw-fonts/n019024l.afm
>>> /usr/share/fonts/urw-fonts/n019004l.pfb
>>> /usr/share/fonts/urw-fonts/p052024l.pfm
>>> /usr/share/fonts/urw-fonts/p052004l.afm
>>> /usr/share/fonts/urw-fonts/n021004l.pfb
>>> /usr/share/fonts/urw-fonts/n022003l.pfm
>>> /usr/share/fonts/urw-fonts/a010033l.pfm
>>> /usr/share/fonts/urw-fonts/z003034l.pfm
>>> /usr/share/fonts/urw-fonts/c059036l.pfm
>>> /usr/share/fonts/urw-fonts/a010035l.afm
>>> /usr/share/fonts/urw-fonts/b018012l.pfb
>>> /usr/share/fonts/urw-fonts/encodings.dir
>>> /usr/share/fonts/urw-fonts/s050000l.pfm
>>> /usr/share/fonts/urw-fonts/z003034l.pfb
>>> /usr/share/fonts/urw-fonts/n021003l.afm
>>> /usr/share/fonts/urw-fonts/b018035l.pfm
>>> /usr/share/fonts/urw-fonts/n019004l.afm
>>> /usr/share/fonts/urw-fonts/n019003l.afm
>>> /usr/share/fonts/urw-fonts/p052024l.afm
>>> /usr/share/fonts/urw-fonts/n022024l.pfm
>>> /usr/share/fonts/urw-fonts/s050000l.pfb
>>> /usr/share/fonts/urw-fonts/n022024l.pfb
>>> /usr/share/fonts/urw-fonts/n019064l.afm
>>> /usr/share/fonts/urw-fonts/d050000l.pfm
>>> /usr/share/fonts/urw-fonts/n019063l.afm
>>> /usr/share/fonts/urw-fonts/n021004l.afm
>>> /usr/share/fonts/urw-fonts/n021024l.pfm
>>> /usr/share/fonts/urw-fonts/a010015l.afm
>>> /usr/share/fonts/urw-fonts/fonts.dir
>>> /usr/share/fonts/urw-fonts/n019043l.pfm
>>> /usr/share/fonts/urw-fonts/c059033l.pfm
>>> /usr/share/fonts/urw-fonts/c059033l.pfb
>>> /usr/share/fonts/urw-fonts/b018015l.pfm
>>> /usr/share/fonts/urw-fonts/c059036l.pfb
>>> /usr/share/fonts/urw-fonts/a010015l.pfm
>>> /usr/share/fonts/urw-fonts/n019064l.pfb
>>> /usr/share/fonts/urw-fonts/c059013l.afm
>>> /usr/share/fonts/urw-fonts/a010013l.pfb
>>> /usr/share/fonts/urw-fonts/n021003l.pfm
>>> /usr/share/fonts/urw-fonts/p052023l.pfm
>>> /usr/share/fonts/urw-fonts/fonts.scale
>>> /usr/share/fonts/urw-fonts/a010035l.pfm
>>> /usr/share/fonts/urw-fonts/c059016l.pfb
>>> /usr/share/fonts/urw-fonts/n021023l.pfm
>>> /usr/share/fonts/urw-fonts/n019004l.pfm
>>> /usr/share/fonts/urw-fonts/a010015l.pfb
>>> /usr/share/fonts/urw-fonts/b018012l.afm
>>> /usr/share/fonts/urw-fonts/n019023l.pfb
>>> /usr/share/fonts/urw-fonts/n019043l.pfb
>>> /usr/share/fonts/urw-fonts/c059036l.afm
>>> /usr/share/fonts/urw-fonts/d050000l.pfb
>>> /usr/share/fonts/urw-fonts/n019043l.afm
>>> /usr/share/fonts/urw-fonts/b018035l.afm
>>> /usr/share/fonts/urw-fonts/n019003l.pfb
>>> /usr/share/fonts/urw-fonts/z003034l.afm
>>> /usr/share/fonts/urw-fonts/n021004l.pfm
>>> /usr/share/fonts/urw-fonts/d050000l.afm
>>> /usr/share/fonts/urw-fonts/n021023l.afm
>>> /usr/share/fonts/urw-fonts/n022004l.pfm
>>> /usr/share/fonts/urw-fonts/n022023l.pfm
>>> /usr/share/fonts/urw-fonts/n022024l.afm
>>> /usr/share/fonts/urw-fonts/b018032l.pfb
>>> /usr/share/fonts/urw-fonts/n019044l.pfm
>>> /usr/share/fonts/urw-fonts/n019044l.afm
>>> /usr/share/fonts/urw-fonts/p052003l.pfm
>>> /usr/share/fonts/urw-fonts/c059013l.pfb
>>> /usr/share/fonts/urw-fonts/n019064l.pfm
>>> /usr/share/fonts/urw-fonts/b018015l.afm
>>> /usr/share/fonts/urw-fonts/a010013l.pfm
>>> /usr/share/fonts/urw-fonts/n019003l.pfm
>>> /usr/share/fonts/urw-fonts/b018032l.pfm
>>> /usr/share/fonts/urw-fonts/n022004l.afm
>>> /usr/share/fonts/urw-fonts/c059033l.afm
>>> /usr/share/fonts/urw-fonts/n022023l.pfb
>>> /usr/share/fonts/urw-fonts/n022004l.pfb
>>> /usr/share/fonts/urw-fonts/s050000l.afm
>>> Safely unmerging already-installed instance...
>>> Original instance of package unmerged safely.
 * Updating global fontcache ...
Fontconfig error: Cannot scan config file "infinality/conf.d"
 [ ok ]
 * If you upgraded from urw-fonts-2.1-r2 some fonts will look a bit
 * different. Take a look at bug #208990 if interested.
>>> media-fonts/urw-fonts-2.4.9 merged.
