No package files given... Grabbing a set.
--- replaced dir /usr
--- replaced sym /etc/fonts/infinality/styles.conf.avail/winxp/90-reject.conf
--- replaced sym /etc/fonts/infinality/styles.conf.avail/winxp/90-no-synthetic.conf
--- replaced sym /etc/fonts/infinality/styles.conf.avail/winxp/81-final-rendering-inf-7-xp.conf
--- replaced sym /etc/fonts/infinality/styles.conf.avail/winxp/80-selective-rendering-inf-win-lin.conf
--- replaced sym /etc/fonts/infinality/styles.conf.avail/winxp/80-selective-rendering-inf-7-xp.conf
--- replaced sym /etc/fonts/infinality/styles.conf.avail/winxp/70-forced-synthetic.conf
--- replaced sym /etc/fonts/infinality/styles.conf.avail/winxp/65-override.conf
--- replaced sym /etc/fonts/infinality/styles.conf.avail/winxp/62-tt-traced-bitmap-rendering.conf
--- replaced sym /etc/fonts/infinality/styles.conf.avail/winxp/62-tt-monospace-rendering.conf
--- replaced sym /etc/fonts/infinality/styles.conf.avail/winxp/61-group-tt-rendering-inf-7-xp.conf
--- replaced sym /etc/fonts/infinality/styles.conf.avail/winxp/61-group-non-tt-rendering-inf-7-xp-lin.conf
--- replaced sym /etc/fonts/infinality/styles.conf.avail/winxp/60-group-tt-fonts.conf
--- replaced sym /etc/fonts/infinality/styles.conf.avail/winxp/60-group-non-tt-fonts.conf
--- replaced sym /etc/fonts/infinality/styles.conf.avail/winxp/50-base-rendering-win7-winxp.conf
--- replaced sym /etc/fonts/infinality/styles.conf.avail/winxp/44-repl-corrective.conf
--- replaced sym /etc/fonts/infinality/styles.conf.avail/winxp/43-repl-tt-traced-bitmap.conf
--- replaced sym /etc/fonts/infinality/styles.conf.avail/winxp/42-repl-global.conf
--- replaced sym /etc/fonts/infinality/styles.conf.avail/winxp/41-repl-os-win.conf
--- replaced sym /etc/fonts/infinality/styles.conf.avail/winxp/30-non-latin-inf-win.conf
--- replaced sym /etc/fonts/infinality/styles.conf.avail/winxp/21-aliases-wine-winxp.conf
--- replaced sym /etc/fonts/infinality/styles.conf.avail/winxp/20-fix-cantarell.conf
--- replaced sym /etc/fonts/infinality/styles.conf.avail/winxp/20-aliases-default-win.conf
--- replaced dir /etc/fonts/infinality/styles.conf.avail/winxp
--- replaced sym /etc/fonts/infinality/styles.conf.avail/win98/90-reject.conf
--- replaced sym /etc/fonts/infinality/styles.conf.avail/win98/90-no-synthetic.conf
--- replaced sym /etc/fonts/infinality/styles.conf.avail/win98/80-selective-rendering-inf-win-lin.conf
--- replaced sym /etc/fonts/infinality/styles.conf.avail/win98/71-forced-synthetic-win98.conf
--- replaced sym /etc/fonts/infinality/styles.conf.avail/win98/70-forced-synthetic.conf
--- replaced sym /etc/fonts/infinality/styles.conf.avail/win98/65-override.conf
--- replaced sym /etc/fonts/infinality/styles.conf.avail/win98/64-override-win98.conf
--- replaced sym /etc/fonts/infinality/styles.conf.avail/win98/62-tt-traced-bitmap-rendering.conf
--- replaced sym /etc/fonts/infinality/styles.conf.avail/win98/62-tt-monospace-rendering.conf
--- replaced sym /etc/fonts/infinality/styles.conf.avail/win98/61-group-tt-rendering-win98.conf
--- replaced sym /etc/fonts/infinality/styles.conf.avail/win98/61-group-non-tt-rendering-win98.conf
--- replaced sym /etc/fonts/infinality/styles.conf.avail/win98/60-group-tt-fonts.conf
--- replaced sym /etc/fonts/infinality/styles.conf.avail/win98/60-group-non-tt-fonts.conf
--- replaced sym /etc/fonts/infinality/styles.conf.avail/win98/50-base-rendering-win98.conf
--- replaced sym /etc/fonts/infinality/styles.conf.avail/win98/44-repl-corrective.conf
--- replaced sym /etc/fonts/infinality/styles.conf.avail/win98/43-repl-tt-traced-bitmap.conf
--- replaced sym /etc/fonts/infinality/styles.conf.avail/win98/42-repl-global.conf
--- replaced sym /etc/fonts/infinality/styles.conf.avail/win98/41-repl-os-win.conf
--- replaced sym /etc/fonts/infinality/styles.conf.avail/win98/30-non-latin-inf-win.conf
--- replaced sym /etc/fonts/infinality/styles.conf.avail/win98/21-aliases-wine-win98.conf
--- replaced sym /etc/fonts/infinality/styles.conf.avail/win98/20-fix-cantarell.conf
--- replaced sym /etc/fonts/infinality/styles.conf.avail/win98/20-aliases-default-win.conf
--- replaced dir /etc/fonts/infinality/styles.conf.avail/win98
--- replaced sym /etc/fonts/infinality/styles.conf.avail/win7/90-reject.conf
--- replaced sym /etc/fonts/infinality/styles.conf.avail/win7/90-no-synthetic.conf
--- replaced sym /etc/fonts/infinality/styles.conf.avail/win7/81-final-rendering-inf-7-xp.conf
--- replaced sym /etc/fonts/infinality/styles.conf.avail/win7/80-selective-rendering-inf-win-lin.conf
--- replaced sym /etc/fonts/infinality/styles.conf.avail/win7/80-selective-rendering-inf-7-xp.conf
--- replaced sym /etc/fonts/infinality/styles.conf.avail/win7/70-forced-synthetic.conf
--- replaced sym /etc/fonts/infinality/styles.conf.avail/win7/65-override.conf
--- replaced sym /etc/fonts/infinality/styles.conf.avail/win7/62-tt-traced-bitmap-rendering.conf
--- replaced sym /etc/fonts/infinality/styles.conf.avail/win7/62-tt-monospace-rendering.conf
--- replaced sym /etc/fonts/infinality/styles.conf.avail/win7/61-group-tt-rendering-inf-7-xp.conf
--- replaced sym /etc/fonts/infinality/styles.conf.avail/win7/61-group-non-tt-rendering-inf-7-xp-lin.conf
--- replaced sym /etc/fonts/infinality/styles.conf.avail/win7/60-group-tt-fonts.conf
--- replaced sym /etc/fonts/infinality/styles.conf.avail/win7/60-group-non-tt-fonts.conf
--- replaced sym /etc/fonts/infinality/styles.conf.avail/win7/50-base-rendering-win7-winxp.conf
--- replaced sym /etc/fonts/infinality/styles.conf.avail/win7/44-repl-corrective.conf
--- replaced sym /etc/fonts/infinality/styles.conf.avail/win7/43-repl-tt-traced-bitmap.conf
--- replaced sym /etc/fonts/infinality/styles.conf.avail/win7/42-repl-global.conf
--- replaced sym /etc/fonts/infinality/styles.conf.avail/win7/41-repl-os-win.conf
--- replaced sym /etc/fonts/infinality/styles.conf.avail/win7/30-non-latin-inf-win.conf
--- replaced sym /etc/fonts/infinality/styles.conf.avail/win7/21-aliases-wine-win7-inf.conf
--- replaced sym /etc/fonts/infinality/styles.conf.avail/win7/20-fix-cantarell.conf
--- replaced sym /etc/fonts/infinality/styles.conf.avail/win7/20-aliases-default-win.conf
--- replaced dir /etc/fonts/infinality/styles.conf.avail/win7
--- replaced sym /etc/fonts/infinality/styles.conf.avail/osx2/90-no-synthetic.conf
--- replaced sym /etc/fonts/infinality/styles.conf.avail/osx2/70-forced-synthetic.conf
--- replaced sym /etc/fonts/infinality/styles.conf.avail/osx2/65-override.conf
--- replaced sym /etc/fonts/infinality/styles.conf.avail/osx2/62-tt-traced-bitmap-rendering.conf
--- replaced sym /etc/fonts/infinality/styles.conf.avail/osx2/62-tt-monospace-rendering.conf
--- replaced sym /etc/fonts/infinality/styles.conf.avail/osx2/61-group-tt-rendering-osx2.conf
--- replaced sym /etc/fonts/infinality/styles.conf.avail/osx2/60-group-tt-fonts.conf
--- replaced sym /etc/fonts/infinality/styles.conf.avail/osx2/60-group-non-tt-fonts.conf
--- replaced sym /etc/fonts/infinality/styles.conf.avail/osx2/50-base-rendering-osx2.conf
--- replaced sym /etc/fonts/infinality/styles.conf.avail/osx2/44-repl-corrective.conf
--- replaced sym /etc/fonts/infinality/styles.conf.avail/osx2/43-repl-tt-traced-bitmap.conf
--- replaced sym /etc/fonts/infinality/styles.conf.avail/osx2/42-repl-global.conf
--- replaced sym /etc/fonts/infinality/styles.conf.avail/osx2/41-repl-os-osx.conf
--- replaced sym /etc/fonts/infinality/styles.conf.avail/osx2/30-non-latin-osx-lin.conf
--- replaced sym /etc/fonts/infinality/styles.conf.avail/osx2/21-aliases-wine-osx.conf
--- replaced sym /etc/fonts/infinality/styles.conf.avail/osx2/20-fix-cantarell.conf
--- replaced sym /etc/fonts/infinality/styles.conf.avail/osx2/20-aliases-default-osx.conf
--- replaced dir /etc/fonts/infinality/styles.conf.avail/osx2
--- replaced sym /etc/fonts/infinality/styles.conf.avail/osx/90-no-synthetic.conf
--- replaced sym /etc/fonts/infinality/styles.conf.avail/osx/70-forced-synthetic.conf
--- replaced sym /etc/fonts/infinality/styles.conf.avail/osx/65-override.conf
--- replaced sym /etc/fonts/infinality/styles.conf.avail/osx/62-tt-traced-bitmap-rendering.conf
--- replaced sym /etc/fonts/infinality/styles.conf.avail/osx/62-tt-monospace-rendering.conf
--- replaced sym /etc/fonts/infinality/styles.conf.avail/osx/61-group-tt-rendering-osx2.conf
--- replaced sym /etc/fonts/infinality/styles.conf.avail/osx/61-group-tt-rendering-osx.conf
--- replaced sym /etc/fonts/infinality/styles.conf.avail/osx/60-group-tt-fonts.conf
--- replaced sym /etc/fonts/infinality/styles.conf.avail/osx/60-group-non-tt-fonts.conf
--- replaced sym /etc/fonts/infinality/styles.conf.avail/osx/50-base-rendering-osx2.conf
--- replaced sym /etc/fonts/infinality/styles.conf.avail/osx/50-base-rendering-inf-osx-lin.conf
--- replaced sym /etc/fonts/infinality/styles.conf.avail/osx/44-repl-corrective.conf
--- replaced sym /etc/fonts/infinality/styles.conf.avail/osx/43-repl-tt-traced-bitmap.conf
--- replaced sym /etc/fonts/infinality/styles.conf.avail/osx/42-repl-global.conf
--- replaced sym /etc/fonts/infinality/styles.conf.avail/osx/41-repl-os-osx.conf
--- replaced sym /etc/fonts/infinality/styles.conf.avail/osx/30-non-latin-osx-lin.conf
--- replaced sym /etc/fonts/infinality/styles.conf.avail/osx/21-aliases-wine-osx.conf
--- replaced sym /etc/fonts/infinality/styles.conf.avail/osx/20-fix-cantarell.conf
--- replaced sym /etc/fonts/infinality/styles.conf.avail/osx/20-aliases-default-osx.conf
--- replaced dir /etc/fonts/infinality/styles.conf.avail/osx
--- replaced sym /etc/fonts/infinality/styles.conf.avail/nyx/80-selective-rendering-inf-win-lin.conf
--- replaced sym /etc/fonts/infinality/styles.conf.avail/nyx/80-selective-rendering-inf-7-xp.conf
--- replaced sym /etc/fonts/infinality/styles.conf.avail/nyx/65-override.conf
--- replaced sym /etc/fonts/infinality/styles.conf.avail/nyx/64-override-inf.conf
--- replaced sym /etc/fonts/infinality/styles.conf.avail/nyx/60-group-tt-fonts.conf
--- replaced sym /etc/fonts/infinality/styles.conf.avail/nyx/60-group-non-tt-fonts.conf
--- replaced sym /etc/fonts/infinality/styles.conf.avail/nyx/50-base-rendering-inf-osx-lin.conf
--- replaced sym /etc/fonts/infinality/styles.conf.avail/nyx/44-repl-corrective.conf
--- replaced sym /etc/fonts/infinality/styles.conf.avail/nyx/43-repl-tt-traced-bitmap.conf
--- replaced obj /etc/fonts/infinality/styles.conf.avail/nyx/30-non-latin-nyx.conf
--- replaced sym /etc/fonts/infinality/styles.conf.avail/nyx/21-aliases-wine-win7-inf.conf
--- replaced sym /etc/fonts/infinality/styles.conf.avail/nyx/20-fix-cantarell.conf
--- replaced obj /etc/fonts/infinality/styles.conf.avail/nyx/20-aliases-default-nyx.conf
--- replaced dir /etc/fonts/infinality/styles.conf.avail/nyx
--- replaced sym /etc/fonts/infinality/styles.conf.avail/linux/90-reject.conf
--- replaced sym /etc/fonts/infinality/styles.conf.avail/linux/90-no-synthetic.conf
--- replaced sym /etc/fonts/infinality/styles.conf.avail/linux/80-selective-rendering-inf-win-lin.conf
--- replaced sym /etc/fonts/infinality/styles.conf.avail/linux/70-forced-synthetic.conf
--- replaced sym /etc/fonts/infinality/styles.conf.avail/linux/65-override.conf
--- replaced sym /etc/fonts/infinality/styles.conf.avail/linux/62-tt-traced-bitmap-rendering.conf
--- replaced sym /etc/fonts/infinality/styles.conf.avail/linux/62-tt-monospace-rendering.conf
--- replaced sym /etc/fonts/infinality/styles.conf.avail/linux/61-group-tt-rendering-linux.conf
--- replaced sym /etc/fonts/infinality/styles.conf.avail/linux/61-group-non-tt-rendering-inf-7-xp-lin.conf
--- replaced sym /etc/fonts/infinality/styles.conf.avail/linux/60-group-tt-fonts.conf
--- replaced sym /etc/fonts/infinality/styles.conf.avail/linux/60-group-non-tt-fonts.conf
--- replaced sym /etc/fonts/infinality/styles.conf.avail/linux/50-base-rendering-inf-osx-lin.conf
--- replaced sym /etc/fonts/infinality/styles.conf.avail/linux/44-repl-corrective.conf
--- replaced sym /etc/fonts/infinality/styles.conf.avail/linux/43-repl-tt-traced-bitmap.conf
--- replaced sym /etc/fonts/infinality/styles.conf.avail/linux/42-repl-global.conf
--- replaced sym /etc/fonts/infinality/styles.conf.avail/linux/41-repl-os-linux.conf
--- replaced sym /etc/fonts/infinality/styles.conf.avail/linux/30-non-latin-osx-lin.conf
--- replaced sym /etc/fonts/infinality/styles.conf.avail/linux/21-aliases-wine-linux.conf
--- replaced sym /etc/fonts/infinality/styles.conf.avail/linux/20-fix-cantarell.conf
--- replaced sym /etc/fonts/infinality/styles.conf.avail/linux/20-aliases-default-linux.conf
--- replaced dir /etc/fonts/infinality/styles.conf.avail/linux
--- replaced sym /etc/fonts/infinality/styles.conf.avail/infinality/90-reject.conf
--- replaced sym /etc/fonts/infinality/styles.conf.avail/infinality/90-no-synthetic.conf
--- replaced sym /etc/fonts/infinality/styles.conf.avail/infinality/81-final-rendering-inf-7-xp.conf
--- replaced sym /etc/fonts/infinality/styles.conf.avail/infinality/80-selective-rendering-inf-win-lin.conf
--- replaced sym /etc/fonts/infinality/styles.conf.avail/infinality/80-selective-rendering-inf-7-xp.conf
--- replaced sym /etc/fonts/infinality/styles.conf.avail/infinality/70-forced-synthetic.conf
--- replaced sym /etc/fonts/infinality/styles.conf.avail/infinality/65-override.conf
--- replaced sym /etc/fonts/infinality/styles.conf.avail/infinality/64-override-inf.conf
--- replaced sym /etc/fonts/infinality/styles.conf.avail/infinality/62-tt-traced-bitmap-rendering.conf
--- replaced sym /etc/fonts/infinality/styles.conf.avail/infinality/62-tt-monospace-rendering.conf
--- replaced sym /etc/fonts/infinality/styles.conf.avail/infinality/61-group-tt-rendering-inf-7-xp.conf
--- replaced sym /etc/fonts/infinality/styles.conf.avail/infinality/61-group-non-tt-rendering-inf-7-xp-lin.conf
--- replaced sym /etc/fonts/infinality/styles.conf.avail/infinality/60-group-tt-fonts.conf
--- replaced sym /etc/fonts/infinality/styles.conf.avail/infinality/60-group-non-tt-fonts.conf
--- replaced sym /etc/fonts/infinality/styles.conf.avail/infinality/50-base-rendering-inf-osx-lin.conf
--- replaced sym /etc/fonts/infinality/styles.conf.avail/infinality/44-repl-corrective.conf
--- replaced sym /etc/fonts/infinality/styles.conf.avail/infinality/43-repl-tt-traced-bitmap.conf
--- replaced sym /etc/fonts/infinality/styles.conf.avail/infinality/42-repl-global.conf
--- replaced sym /etc/fonts/infinality/styles.conf.avail/infinality/41-repl-os-inf.conf
--- replaced sym /etc/fonts/infinality/styles.conf.avail/infinality/30-non-latin-inf-win.conf
--- replaced sym /etc/fonts/infinality/styles.conf.avail/infinality/21-aliases-wine-win7-inf.conf
--- replaced sym /etc/fonts/infinality/styles.conf.avail/infinality/20-fix-cantarell.conf
--- replaced sym /etc/fonts/infinality/styles.conf.avail/infinality/20-aliases-default-inf.conf
--- replaced dir /etc/fonts/infinality/styles.conf.avail/infinality
--- replaced sym /etc/fonts/infinality/styles.conf.avail/debug/99-debug.conf
--- replaced sym /etc/fonts/infinality/styles.conf.avail/debug/90-no-synthetic.conf
--- replaced sym /etc/fonts/infinality/styles.conf.avail/debug/70-forced-synthetic.conf
--- replaced sym /etc/fonts/infinality/styles.conf.avail/debug/65-override.conf
--- replaced sym /etc/fonts/infinality/styles.conf.avail/debug/62-tt-traced-bitmap-rendering.conf
--- replaced sym /etc/fonts/infinality/styles.conf.avail/debug/62-tt-monospace-rendering.conf
--- replaced sym /etc/fonts/infinality/styles.conf.avail/debug/60-group-tt-fonts.conf
--- replaced sym /etc/fonts/infinality/styles.conf.avail/debug/60-group-non-tt-fonts.conf
--- replaced sym /etc/fonts/infinality/styles.conf.avail/debug/44-repl-corrective.conf
--- replaced sym /etc/fonts/infinality/styles.conf.avail/debug/43-repl-tt-traced-bitmap.conf
--- replaced sym /etc/fonts/infinality/styles.conf.avail/debug/42-repl-global.conf
--- replaced sym /etc/fonts/infinality/styles.conf.avail/debug/20-fix-cantarell.conf
--- replaced dir /etc/fonts/infinality/styles.conf.avail/debug
--- replaced dir /etc/fonts/infinality/styles.conf.avail
--- replaced obj /etc/fonts/infinality/infinality.conf
--- replaced obj /etc/fonts/infinality/conf.src/generate60/generate60.sh
--- replaced obj /etc/fonts/infinality/conf.src/generate60/60-group-tt-fonts.list
--- replaced obj /etc/fonts/infinality/conf.src/generate60/60-group-tt-fonts.conf.awk
--- replaced obj /etc/fonts/infinality/conf.src/generate60/60-group-non-tt-fonts.list
--- replaced obj /etc/fonts/infinality/conf.src/generate60/60-group-non-tt-fonts.conf.awk
--- replaced dir /etc/fonts/infinality/conf.src/generate60
--- replaced obj /etc/fonts/infinality/conf.src/99-debug.conf
--- replaced obj /etc/fonts/infinality/conf.src/90-reject.conf
--- replaced obj /etc/fonts/infinality/conf.src/90-no-synthetic.conf
--- replaced obj /etc/fonts/infinality/conf.src/81-final-rendering-inf-7-xp.conf
--- replaced obj /etc/fonts/infinality/conf.src/80-selective-rendering-inf-win-lin.conf
--- replaced obj /etc/fonts/infinality/conf.src/80-selective-rendering-inf-7-xp.conf
--- replaced obj /etc/fonts/infinality/conf.src/71-forced-synthetic-win98.conf
--- replaced obj /etc/fonts/infinality/conf.src/70-forced-synthetic.conf
--- replaced obj /etc/fonts/infinality/conf.src/65-override.conf
--- replaced obj /etc/fonts/infinality/conf.src/64-override-win98.conf
--- replaced obj /etc/fonts/infinality/conf.src/64-override-inf.conf
--- replaced obj /etc/fonts/infinality/conf.src/62-tt-traced-bitmap-rendering.conf
--- replaced obj /etc/fonts/infinality/conf.src/62-tt-monospace-rendering.conf
--- replaced obj /etc/fonts/infinality/conf.src/61-group-tt-rendering-win98.conf
--- replaced obj /etc/fonts/infinality/conf.src/61-group-tt-rendering-osx2.conf
--- replaced obj /etc/fonts/infinality/conf.src/61-group-tt-rendering-osx.conf
--- replaced obj /etc/fonts/infinality/conf.src/61-group-tt-rendering-linux.conf
--- replaced obj /etc/fonts/infinality/conf.src/61-group-tt-rendering-inf-7-xp.conf
--- replaced obj /etc/fonts/infinality/conf.src/61-group-non-tt-rendering-win98.conf
--- replaced obj /etc/fonts/infinality/conf.src/61-group-non-tt-rendering-inf-7-xp-lin.conf
--- replaced obj /etc/fonts/infinality/conf.src/61-group-non-tt-rendering-default.conf
--- replaced obj /etc/fonts/infinality/conf.src/60-group-tt-fonts.conf
--- replaced obj /etc/fonts/infinality/conf.src/60-group-non-tt-fonts.conf
--- replaced obj /etc/fonts/infinality/conf.src/50-base-rendering-win98.conf
--- replaced obj /etc/fonts/infinality/conf.src/50-base-rendering-win7-winxp.conf
--- replaced obj /etc/fonts/infinality/conf.src/50-base-rendering-osx2.conf
--- replaced obj /etc/fonts/infinality/conf.src/50-base-rendering-inf-osx-lin.conf
--- replaced obj /etc/fonts/infinality/conf.src/44-repl-corrective.conf
--- replaced obj /etc/fonts/infinality/conf.src/43-repl-tt-traced-bitmap.conf
--- replaced obj /etc/fonts/infinality/conf.src/42-repl-global.conf
--- replaced obj /etc/fonts/infinality/conf.src/41-repl-os-win.conf
--- replaced obj /etc/fonts/infinality/conf.src/41-repl-os-osx.conf
--- replaced obj /etc/fonts/infinality/conf.src/41-repl-os-linux.conf
--- replaced obj /etc/fonts/infinality/conf.src/41-repl-os-inf.conf
--- replaced obj /etc/fonts/infinality/conf.src/40-repl-generic.conf
--- replaced obj /etc/fonts/infinality/conf.src/30-non-latin-osx-lin.conf
--- replaced obj /etc/fonts/infinality/conf.src/30-non-latin-inf-win.conf
--- replaced obj /etc/fonts/infinality/conf.src/21-aliases-wine-winxp.conf
--- replaced obj /etc/fonts/infinality/conf.src/21-aliases-wine-win98.conf
--- replaced obj /etc/fonts/infinality/conf.src/21-aliases-wine-win7-inf.conf
--- replaced obj /etc/fonts/infinality/conf.src/21-aliases-wine-osx.conf
--- replaced obj /etc/fonts/infinality/conf.src/21-aliases-wine-linux.conf
--- replaced obj /etc/fonts/infinality/conf.src/20-fix-cantarell.conf
--- replaced obj /etc/fonts/infinality/conf.src/20-aliases-default-win.conf
--- replaced obj /etc/fonts/infinality/conf.src/20-aliases-default-osx.conf
--- replaced obj /etc/fonts/infinality/conf.src/20-aliases-default-linux.conf
--- replaced obj /etc/fonts/infinality/conf.src/20-aliases-default-inf.conf
--- replaced dir /etc/fonts/infinality/conf.src
--- replaced dir /etc/fonts/infinality
--- replaced obj /etc/fonts/conf.avail/52-infinality.conf
--- replaced dir /etc/fonts/conf.avail
--- replaced dir /etc/fonts
--- replaced obj /etc/X11/Xresources
--- replaced dir /etc/X11
--- replaced dir /etc
>>> Regenerating /etc/ld.so.cache...
