 * Package:    media-libs/rubberband-1.8.2
 * Repository: gentoo
 * Maintainer: proaudio@gentoo.org
 * USE:        abi_x86_64 amd64 elibc_glibc kernel_linux userland_GNU
 * FEATURES:   ccache network-sandbox preserve-libs sandbox userpriv usersandbox
 * /etc/portage/package.cflags/ltoworkarounds.conf -> */*: *FLAGS+=-Wl,-O4 *FLAGS-=-Wl,-O1
 * FEATURES='assume-digests binpkg-docompress binpkg-dostrip binpkg-logs binpkg-multi-instance buildpkg ccache cgroup compress-index config-protect-if-modified distlocks fixlafiles ipc-sandbox merge-sync multilib-strict network-sandbox news nodoc parallel-fetch parallel-install pid-sandbox preserve-libs qa-unresolved-soname-deps sandbox sfperms strict strict-keepdir unknown-features-warn unmerge-logs unmerge-orphans userfetch userpriv usersandbox usersync xattr'
 * CFLAGS='-march=znver2 -pipe -g0 -O3 -fgraphite-identity -floop-nest-optimize -fdevirtualize-at-ltrans -fipa-pta -fno-semantic-interposition -flto=12 -fno-plt -fno-signed-zeros -fno-trapping-math -fassociative-math -freciprocal-math -fno-math-errno -ffinite-math-only -fno-rounding-math -fno-signaling-nans -fcx-limited-range -fexcess-precision=fast -falign-functions=32 -fno-stack-protector -fno-stack-clash-protection -fstack-check=no -fno-stack-check -fuse-linker-plugin -Wl,-O4 -Wl,--as-needed -Wl,-lpthread -Wl,-lgomp -Wl,-z,norelro -Wl,-z,now -Wl,--sort-common -s'
 * CXXFLAGS='-march=znver2 -pipe -g0 -O3 -fgraphite-identity -floop-nest-optimize -fdevirtualize-at-ltrans -fipa-pta -fno-semantic-interposition -flto=12 -fno-plt -fno-signed-zeros -fno-trapping-math -fassociative-math -freciprocal-math -fno-math-errno -ffinite-math-only -fno-rounding-math -fno-signaling-nans -fcx-limited-range -fexcess-precision=fast -falign-functions=32 -fno-stack-protector -fno-stack-clash-protection -fstack-check=no -fno-stack-check -fuse-linker-plugin -Wl,-O4 -Wl,--as-needed -Wl,-lpthread -Wl,-lgomp -Wl,-z,norelro -Wl,-z,now -Wl,--sort-common -s'
 * FFLAGS='-march=znver2 -pipe -g0 -O3 -fgraphite-identity -floop-nest-optimize -fdevirtualize-at-ltrans -fipa-pta -fno-semantic-interposition -flto=12 -fno-plt -fno-signed-zeros -fno-trapping-math -fassociative-math -freciprocal-math -fno-math-errno -ffinite-math-only -fno-rounding-math -fno-signaling-nans -fcx-limited-range -fexcess-precision=fast -falign-functions=32 -fno-stack-protector -fno-stack-clash-protection -fstack-check=no -fno-stack-check -fuse-linker-plugin -Wl,-O4 -Wl,--as-needed -Wl,-lpthread -Wl,-lgomp -Wl,-z,norelro -Wl,-z,now -Wl,--sort-common -s'
 * FCFLAGS='-march=znver2 -pipe -g0 -O3 -fgraphite-identity -floop-nest-optimize -fdevirtualize-at-ltrans -fipa-pta -fno-semantic-interposition -flto=12 -fno-plt -fno-signed-zeros -fno-trapping-math -fassociative-math -freciprocal-math -fno-math-errno -ffinite-math-only -fno-rounding-math -fno-signaling-nans -fcx-limited-range -fexcess-precision=fast -falign-functions=32 -fno-stack-protector -fno-stack-clash-protection -fstack-check=no -fno-stack-check -fuse-linker-plugin -Wl,-O4 -Wl,--as-needed -Wl,-lpthread -Wl,-lgomp -Wl,-z,norelro -Wl,-z,now -Wl,--sort-common -s'
 * F77FLAGS='-march=znver2 -pipe -g0 -O3 -fgraphite-identity -floop-nest-optimize -fdevirtualize-at-ltrans -fipa-pta -fno-semantic-interposition -flto=12 -fno-plt -fno-signed-zeros -fno-trapping-math -fassociative-math -freciprocal-math -fno-math-errno -ffinite-math-only -fno-rounding-math -fno-signaling-nans -fcx-limited-range -fexcess-precision=fast -falign-functions=32 -fno-stack-protector -fno-stack-clash-protection -fstack-check=no -fno-stack-check -fuse-linker-plugin -Wl,-O4 -Wl,--as-needed -Wl,-lpthread -Wl,-lgomp -Wl,-z,norelro -Wl,-z,now -Wl,--sort-common -s'
 * LDFLAGS='-march=znver2 -pipe -g0 -O3 -fgraphite-identity -floop-nest-optimize -fdevirtualize-at-ltrans -fipa-pta -fno-semantic-interposition -flto=12 -fno-plt -fno-signed-zeros -fno-trapping-math -fassociative-math -freciprocal-math -fno-math-errno -ffinite-math-only -fno-rounding-math -fno-signaling-nans -fcx-limited-range -fexcess-precision=fast -falign-functions=32 -fno-stack-protector -fno-stack-clash-protection -fstack-check=no -fno-stack-check -fuse-linker-plugin -Wl,-O4 -Wl,--as-needed -Wl,-lpthread -Wl,-lgomp -Wl,-z,norelro -Wl,-z,now -Wl,--sort-common -s'
 * MAKEOPTS='-j12 -l12'
 * gcc () 11.0.0 20200605 (experimental)
 * g++ () 11.0.0 20200605 (experimental)
 * GNU ld (Gentoo 2.34 p4) 2.34.0
 * Linux ryzen.gnum.org 5.4.36 #1 SMP Thu Apr 30 04:38:28 UTC 2020 x86_64 AMD Ryzen 5 3600 6-Core Processor AuthenticAMD GNU/Linux
]0;emerge 02:57:17 147|231 rubberband (root@ryzen.gnum.org)kemerge 02:57:17 147|231 rubberband (root@ryzen.gnum.org)\>>> Unpacking source...
>>> Unpacking rubberband-1.8.2.tar.bz2 to /tmp/portage/media-libs/rubberband-1.8.2/work
>>> Source unpacked in /tmp/portage/media-libs/rubberband-1.8.2/work
>>> Preparing source in /tmp/portage/media-libs/rubberband-1.8.2/work/rubberband-1.8.2 ...
 * Will copy sources from /tmp/portage/media-libs/rubberband-1.8.2/work/rubberband-1.8.2
 * abi_x86_64.amd64: copying to /tmp/portage/media-libs/rubberband-1.8.2/work/rubberband-1.8.2-abi_x86_64.amd64
>>> Source prepared.
>>> Configuring source in /tmp/portage/media-libs/rubberband-1.8.2/work/rubberband-1.8.2 ...
 * abi_x86_64.amd64: running multilib-minimal_abi_src_configure
./configure --prefix=/usr --build=x86_64-pc-linux-gnu --host=x86_64-pc-linux-gnu --mandir=/usr/share/man --infodir=/usr/share/info --datadir=/usr/share --sysconfdir=/etc --localstatedir=/var/lib --docdir=/usr/share/doc/rubberband-1.8.2 --htmldir=/usr/share/doc/rubberband-1.8.2/html --libdir=/usr/lib64
checking for x86_64-pc-linux-gnu-g++... x86_64-pc-linux-gnu-g++
checking whether the C++ compiler works... yes
checking for C++ compiler default output file name... a.out
checking for suffix of executables... 
checking whether we are cross compiling... no
checking for suffix of object files... o
checking whether we are using the GNU C++ compiler... yes
checking whether x86_64-pc-linux-gnu-g++ accepts -g... yes
checking for x86_64-pc-linux-gnu-gcc... x86_64-pc-linux-gnu-gcc
checking whether we are using the GNU C compiler... yes
checking whether x86_64-pc-linux-gnu-gcc accepts -g... yes
checking for x86_64-pc-linux-gnu-gcc option to accept ISO C89... none needed
checking how to run the C preprocessor... x86_64-pc-linux-gnu-gcc -E
checking for grep that handles long lines and -e... /bin/grep
checking for egrep... /bin/grep -E
checking for ANSI C header files... yes
checking for sys/types.h... yes
checking for sys/stat.h... yes
checking for stdlib.h... yes
checking for string.h... yes
checking for memory.h... yes
checking for strings.h... yes
checking for inttypes.h... yes
checking for stdint.h... yes
checking for unistd.h... yes
checking whether byte ordering is bigendian... no
checking for x86_64-pc-linux-gnu-pkg-config... /usr/bin/x86_64-pc-linux-gnu-pkg-config
checking pkg-config is at least version 0.9.0... yes
checking for samplerate... yes
checking for sndfile... yes
checking for fftw3... yes
checking ladspa.h usability... yes
checking ladspa.h presence... yes
checking for ladspa.h... yes
checking pthread.h usability... yes
checking pthread.h presence... yes
checking for pthread.h... yes
checking for vamp-sdk... yes
configure: creating ./config.status
config.status: creating Makefile
>>> Source configured.
>>> Compiling source in /tmp/portage/media-libs/rubberband-1.8.2/work/rubberband-1.8.2 ...
 * abi_x86_64.amd64: running multilib-minimal_abi_src_compile
make -j12 -l12 
mkdir bin
mkdir lib
x86_64-pc-linux-gnu-g++ -DHAVE_LIBSAMPLERATE -DHAVE_FFTW3 -DFFTW_DOUBLE_ONLY -DNO_THREAD_CHECKS -DUSE_PTHREADS -DNO_TIMING -DNDEBUG -I. -Isrc -Irubberband -march=znver2 -pipe -g0 -O3 -fgraphite-identity -floop-nest-optimize -fdevirtualize-at-ltrans -fipa-pta -fno-semantic-interposition -flto=12 -fno-plt -fno-signed-zeros -fno-trapping-math -fassociative-math -freciprocal-math -fno-math-errno -ffinite-math-only -fno-rounding-math -fno-signaling-nans -fcx-limited-range -fexcess-precision=fast -falign-functions=32 -fno-stack-protector -fno-stack-clash-protection -fstack-check=no -fno-stack-check -fuse-linker-plugin -Wl,-O4 -Wl,--as-needed -Wl,-lpthread -Wl,-lgomp -Wl,-z,norelro -Wl,-z,now -Wl,--sort-common -s -fPIC -Wall        -c -o src/rubberband-c.o src/rubberband-c.cpp
x86_64-pc-linux-gnu-g++ -DHAVE_LIBSAMPLERATE -DHAVE_FFTW3 -DFFTW_DOUBLE_ONLY -DNO_THREAD_CHECKS -DUSE_PTHREADS -DNO_TIMING -DNDEBUG -I. -Isrc -Irubberband -march=znver2 -pipe -g0 -O3 -fgraphite-identity -floop-nest-optimize -fdevirtualize-at-ltrans -fipa-pta -fno-semantic-interposition -flto=12 -fno-plt -fno-signed-zeros -fno-trapping-math -fassociative-math -freciprocal-math -fno-math-errno -ffinite-math-only -fno-rounding-math -fno-signaling-nans -fcx-limited-range -fexcess-precision=fast -falign-functions=32 -fno-stack-protector -fno-stack-clash-protection -fstack-check=no -fno-stack-check -fuse-linker-plugin -Wl,-O4 -Wl,--as-needed -Wl,-lpthread -Wl,-lgomp -Wl,-z,norelro -Wl,-z,now -Wl,--sort-common -s -fPIC -Wall        -c -o src/RubberBandStretcher.o src/RubberBandStretcher.cpp
x86_64-pc-linux-gnu-g++ -DHAVE_LIBSAMPLERATE -DHAVE_FFTW3 -DFFTW_DOUBLE_ONLY -DNO_THREAD_CHECKS -DUSE_PTHREADS -DNO_TIMING -DNDEBUG -I. -Isrc -Irubberband -march=znver2 -pipe -g0 -O3 -fgraphite-identity -floop-nest-optimize -fdevirtualize-at-ltrans -fipa-pta -fno-semantic-interposition -flto=12 -fno-plt -fno-signed-zeros -fno-trapping-math -fassociative-math -freciprocal-math -fno-math-errno -ffinite-math-only -fno-rounding-math -fno-signaling-nans -fcx-limited-range -fexcess-precision=fast -falign-functions=32 -fno-stack-protector -fno-stack-clash-protection -fstack-check=no -fno-stack-check -fuse-linker-plugin -Wl,-O4 -Wl,--as-needed -Wl,-lpthread -Wl,-lgomp -Wl,-z,norelro -Wl,-z,now -Wl,--sort-common -s -fPIC -Wall        -c -o src/StretcherProcess.o src/StretcherProcess.cpp
x86_64-pc-linux-gnu-g++ -DHAVE_LIBSAMPLERATE -DHAVE_FFTW3 -DFFTW_DOUBLE_ONLY -DNO_THREAD_CHECKS -DUSE_PTHREADS -DNO_TIMING -DNDEBUG -I. -Isrc -Irubberband -march=znver2 -pipe -g0 -O3 -fgraphite-identity -floop-nest-optimize -fdevirtualize-at-ltrans -fipa-pta -fno-semantic-interposition -flto=12 -fno-plt -fno-signed-zeros -fno-trapping-math -fassociative-math -freciprocal-math -fno-math-errno -ffinite-math-only -fno-rounding-math -fno-signaling-nans -fcx-limited-range -fexcess-precision=fast -falign-functions=32 -fno-stack-protector -fno-stack-clash-protection -fstack-check=no -fno-stack-check -fuse-linker-plugin -Wl,-O4 -Wl,--as-needed -Wl,-lpthread -Wl,-lgomp -Wl,-z,norelro -Wl,-z,now -Wl,--sort-common -s -fPIC -Wall        -c -o src/StretchCalculator.o src/StretchCalculator.cpp
x86_64-pc-linux-gnu-g++ -DHAVE_LIBSAMPLERATE -DHAVE_FFTW3 -DFFTW_DOUBLE_ONLY -DNO_THREAD_CHECKS -DUSE_PTHREADS -DNO_TIMING -DNDEBUG -I. -Isrc -Irubberband -march=znver2 -pipe -g0 -O3 -fgraphite-identity -floop-nest-optimize -fdevirtualize-at-ltrans -fipa-pta -fno-semantic-interposition -flto=12 -fno-plt -fno-signed-zeros -fno-trapping-math -fassociative-math -freciprocal-math -fno-math-errno -ffinite-math-only -fno-rounding-math -fno-signaling-nans -fcx-limited-range -fexcess-precision=fast -falign-functions=32 -fno-stack-protector -fno-stack-clash-protection -fstack-check=no -fno-stack-check -fuse-linker-plugin -Wl,-O4 -Wl,--as-needed -Wl,-lpthread -Wl,-lgomp -Wl,-z,norelro -Wl,-z,now -Wl,--sort-common -s -fPIC -Wall        -c -o src/base/Profiler.o src/base/Profiler.cpp
x86_64-pc-linux-gnu-g++ -DHAVE_LIBSAMPLERATE -DHAVE_FFTW3 -DFFTW_DOUBLE_ONLY -DNO_THREAD_CHECKS -DUSE_PTHREADS -DNO_TIMING -DNDEBUG -I. -Isrc -Irubberband -march=znver2 -pipe -g0 -O3 -fgraphite-identity -floop-nest-optimize -fdevirtualize-at-ltrans -fipa-pta -fno-semantic-interposition -flto=12 -fno-plt -fno-signed-zeros -fno-trapping-math -fassociative-math -freciprocal-math -fno-math-errno -ffinite-math-only -fno-rounding-math -fno-signaling-nans -fcx-limited-range -fexcess-precision=fast -falign-functions=32 -fno-stack-protector -fno-stack-clash-protection -fstack-check=no -fno-stack-check -fuse-linker-plugin -Wl,-O4 -Wl,--as-needed -Wl,-lpthread -Wl,-lgomp -Wl,-z,norelro -Wl,-z,now -Wl,--sort-common -s -fPIC -Wall        -c -o src/dsp/AudioCurveCalculator.o src/dsp/AudioCurveCalculator.cpp
x86_64-pc-linux-gnu-g++ -DHAVE_LIBSAMPLERATE -DHAVE_FFTW3 -DFFTW_DOUBLE_ONLY -DNO_THREAD_CHECKS -DUSE_PTHREADS -DNO_TIMING -DNDEBUG -I. -Isrc -Irubberband -march=znver2 -pipe -g0 -O3 -fgraphite-identity -floop-nest-optimize -fdevirtualize-at-ltrans -fipa-pta -fno-semantic-interposition -flto=12 -fno-plt -fno-signed-zeros -fno-trapping-math -fassociative-math -freciprocal-math -fno-math-errno -ffinite-math-only -fno-rounding-math -fno-signaling-nans -fcx-limited-range -fexcess-precision=fast -falign-functions=32 -fno-stack-protector -fno-stack-clash-protection -fstack-check=no -fno-stack-check -fuse-linker-plugin -Wl,-O4 -Wl,--as-needed -Wl,-lpthread -Wl,-lgomp -Wl,-z,norelro -Wl,-z,now -Wl,--sort-common -s -fPIC -Wall        -c -o src/audiocurves/CompoundAudioCurve.o src/audiocurves/CompoundAudioCurve.cpp
x86_64-pc-linux-gnu-g++ -DHAVE_LIBSAMPLERATE -DHAVE_FFTW3 -DFFTW_DOUBLE_ONLY -DNO_THREAD_CHECKS -DUSE_PTHREADS -DNO_TIMING -DNDEBUG -I. -Isrc -Irubberband -march=znver2 -pipe -g0 -O3 -fgraphite-identity -floop-nest-optimize -fdevirtualize-at-ltrans -fipa-pta -fno-semantic-interposition -flto=12 -fno-plt -fno-signed-zeros -fno-trapping-math -fassociative-math -freciprocal-math -fno-math-errno -ffinite-math-only -fno-rounding-math -fno-signaling-nans -fcx-limited-range -fexcess-precision=fast -falign-functions=32 -fno-stack-protector -fno-stack-clash-protection -fstack-check=no -fno-stack-check -fuse-linker-plugin -Wl,-O4 -Wl,--as-needed -Wl,-lpthread -Wl,-lgomp -Wl,-z,norelro -Wl,-z,now -Wl,--sort-common -s -fPIC -Wall        -c -o src/audiocurves/SpectralDifferenceAudioCurve.o src/audiocurves/SpectralDifferenceAudioCurve.cpp
x86_64-pc-linux-gnu-g++ -DHAVE_LIBSAMPLERATE -DHAVE_FFTW3 -DFFTW_DOUBLE_ONLY -DNO_THREAD_CHECKS -DUSE_PTHREADS -DNO_TIMING -DNDEBUG -I. -Isrc -Irubberband -march=znver2 -pipe -g0 -O3 -fgraphite-identity -floop-nest-optimize -fdevirtualize-at-ltrans -fipa-pta -fno-semantic-interposition -flto=12 -fno-plt -fno-signed-zeros -fno-trapping-math -fassociative-math -freciprocal-math -fno-math-errno -ffinite-math-only -fno-rounding-math -fno-signaling-nans -fcx-limited-range -fexcess-precision=fast -falign-functions=32 -fno-stack-protector -fno-stack-clash-protection -fstack-check=no -fno-stack-check -fuse-linker-plugin -Wl,-O4 -Wl,--as-needed -Wl,-lpthread -Wl,-lgomp -Wl,-z,norelro -Wl,-z,now -Wl,--sort-common -s -fPIC -Wall        -c -o src/audiocurves/HighFrequencyAudioCurve.o src/audiocurves/HighFrequencyAudioCurve.cpp
x86_64-pc-linux-gnu-g++ -DHAVE_LIBSAMPLERATE -DHAVE_FFTW3 -DFFTW_DOUBLE_ONLY -DNO_THREAD_CHECKS -DUSE_PTHREADS -DNO_TIMING -DNDEBUG -I. -Isrc -Irubberband -march=znver2 -pipe -g0 -O3 -fgraphite-identity -floop-nest-optimize -fdevirtualize-at-ltrans -fipa-pta -fno-semantic-interposition -flto=12 -fno-plt -fno-signed-zeros -fno-trapping-math -fassociative-math -freciprocal-math -fno-math-errno -ffinite-math-only -fno-rounding-math -fno-signaling-nans -fcx-limited-range -fexcess-precision=fast -falign-functions=32 -fno-stack-protector -fno-stack-clash-protection -fstack-check=no -fno-stack-check -fuse-linker-plugin -Wl,-O4 -Wl,--as-needed -Wl,-lpthread -Wl,-lgomp -Wl,-z,norelro -Wl,-z,now -Wl,--sort-common -s -fPIC -Wall        -c -o src/audiocurves/SilentAudioCurve.o src/audiocurves/SilentAudioCurve.cpp
x86_64-pc-linux-gnu-g++ -DHAVE_LIBSAMPLERATE -DHAVE_FFTW3 -DFFTW_DOUBLE_ONLY -DNO_THREAD_CHECKS -DUSE_PTHREADS -DNO_TIMING -DNDEBUG -I. -Isrc -Irubberband -march=znver2 -pipe -g0 -O3 -fgraphite-identity -floop-nest-optimize -fdevirtualize-at-ltrans -fipa-pta -fno-semantic-interposition -flto=12 -fno-plt -fno-signed-zeros -fno-trapping-math -fassociative-math -freciprocal-math -fno-math-errno -ffinite-math-only -fno-rounding-math -fno-signaling-nans -fcx-limited-range -fexcess-precision=fast -falign-functions=32 -fno-stack-protector -fno-stack-clash-protection -fstack-check=no -fno-stack-check -fuse-linker-plugin -Wl,-O4 -Wl,--as-needed -Wl,-lpthread -Wl,-lgomp -Wl,-z,norelro -Wl,-z,now -Wl,--sort-common -s -fPIC -Wall        -c -o src/audiocurves/ConstantAudioCurve.o src/audiocurves/ConstantAudioCurve.cpp
x86_64-pc-linux-gnu-g++ -DHAVE_LIBSAMPLERATE -DHAVE_FFTW3 -DFFTW_DOUBLE_ONLY -DNO_THREAD_CHECKS -DUSE_PTHREADS -DNO_TIMING -DNDEBUG -I. -Isrc -Irubberband -march=znver2 -pipe -g0 -O3 -fgraphite-identity -floop-nest-optimize -fdevirtualize-at-ltrans -fipa-pta -fno-semantic-interposition -flto=12 -fno-plt -fno-signed-zeros -fno-trapping-math -fassociative-math -freciprocal-math -fno-math-errno -ffinite-math-only -fno-rounding-math -fno-signaling-nans -fcx-limited-range -fexcess-precision=fast -falign-functions=32 -fno-stack-protector -fno-stack-clash-protection -fstack-check=no -fno-stack-check -fuse-linker-plugin -Wl,-O4 -Wl,--as-needed -Wl,-lpthread -Wl,-lgomp -Wl,-z,norelro -Wl,-z,now -Wl,--sort-common -s -fPIC -Wall        -c -o src/audiocurves/PercussiveAudioCurve.o src/audiocurves/PercussiveAudioCurve.cpp
x86_64-pc-linux-gnu-g++ -DHAVE_LIBSAMPLERATE -DHAVE_FFTW3 -DFFTW_DOUBLE_ONLY -DNO_THREAD_CHECKS -DUSE_PTHREADS -DNO_TIMING -DNDEBUG -I. -Isrc -Irubberband -march=znver2 -pipe -g0 -O3 -fgraphite-identity -floop-nest-optimize -fdevirtualize-at-ltrans -fipa-pta -fno-semantic-interposition -flto=12 -fno-plt -fno-signed-zeros -fno-trapping-math -fassociative-math -freciprocal-math -fno-math-errno -ffinite-math-only -fno-rounding-math -fno-signaling-nans -fcx-limited-range -fexcess-precision=fast -falign-functions=32 -fno-stack-protector -fno-stack-clash-protection -fstack-check=no -fno-stack-check -fuse-linker-plugin -Wl,-O4 -Wl,--as-needed -Wl,-lpthread -Wl,-lgomp -Wl,-z,norelro -Wl,-z,now -Wl,--sort-common -s -fPIC -Wall        -c -o src/dsp/Resampler.o src/dsp/Resampler.cpp
x86_64-pc-linux-gnu-g++ -DHAVE_LIBSAMPLERATE -DHAVE_FFTW3 -DFFTW_DOUBLE_ONLY -DNO_THREAD_CHECKS -DUSE_PTHREADS -DNO_TIMING -DNDEBUG -I. -Isrc -Irubberband -march=znver2 -pipe -g0 -O3 -fgraphite-identity -floop-nest-optimize -fdevirtualize-at-ltrans -fipa-pta -fno-semantic-interposition -flto=12 -fno-plt -fno-signed-zeros -fno-trapping-math -fassociative-math -freciprocal-math -fno-math-errno -ffinite-math-only -fno-rounding-math -fno-signaling-nans -fcx-limited-range -fexcess-precision=fast -falign-functions=32 -fno-stack-protector -fno-stack-clash-protection -fstack-check=no -fno-stack-check -fuse-linker-plugin -Wl,-O4 -Wl,--as-needed -Wl,-lpthread -Wl,-lgomp -Wl,-z,norelro -Wl,-z,now -Wl,--sort-common -s -fPIC -Wall        -c -o src/dsp/FFT.o src/dsp/FFT.cpp
x86_64-pc-linux-gnu-g++ -DHAVE_LIBSAMPLERATE -DHAVE_FFTW3 -DFFTW_DOUBLE_ONLY -DNO_THREAD_CHECKS -DUSE_PTHREADS -DNO_TIMING -DNDEBUG -I. -Isrc -Irubberband -march=znver2 -pipe -g0 -O3 -fgraphite-identity -floop-nest-optimize -fdevirtualize-at-ltrans -fipa-pta -fno-semantic-interposition -flto=12 -fno-plt -fno-signed-zeros -fno-trapping-math -fassociative-math -freciprocal-math -fno-math-errno -ffinite-math-only -fno-rounding-math -fno-signaling-nans -fcx-limited-range -fexcess-precision=fast -falign-functions=32 -fno-stack-protector -fno-stack-clash-protection -fstack-check=no -fno-stack-check -fuse-linker-plugin -Wl,-O4 -Wl,--as-needed -Wl,-lpthread -Wl,-lgomp -Wl,-z,norelro -Wl,-z,now -Wl,--sort-common -s -fPIC -Wall        -c -o src/system/Allocators.o src/system/Allocators.cpp
x86_64-pc-linux-gnu-g++ -DHAVE_LIBSAMPLERATE -DHAVE_FFTW3 -DFFTW_DOUBLE_ONLY -DNO_THREAD_CHECKS -DUSE_PTHREADS -DNO_TIMING -DNDEBUG -I. -Isrc -Irubberband -march=znver2 -pipe -g0 -O3 -fgraphite-identity -floop-nest-optimize -fdevirtualize-at-ltrans -fipa-pta -fno-semantic-interposition -flto=12 -fno-plt -fno-signed-zeros -fno-trapping-math -fassociative-math -freciprocal-math -fno-math-errno -ffinite-math-only -fno-rounding-math -fno-signaling-nans -fcx-limited-range -fexcess-precision=fast -falign-functions=32 -fno-stack-protector -fno-stack-clash-protection -fstack-check=no -fno-stack-check -fuse-linker-plugin -Wl,-O4 -Wl,--as-needed -Wl,-lpthread -Wl,-lgomp -Wl,-z,norelro -Wl,-z,now -Wl,--sort-common -s -fPIC -Wall        -c -o src/system/sysutils.o src/system/sysutils.cpp
x86_64-pc-linux-gnu-g++ -DHAVE_LIBSAMPLERATE -DHAVE_FFTW3 -DFFTW_DOUBLE_ONLY -DNO_THREAD_CHECKS -DUSE_PTHREADS -DNO_TIMING -DNDEBUG -I. -Isrc -Irubberband -march=znver2 -pipe -g0 -O3 -fgraphite-identity -floop-nest-optimize -fdevirtualize-at-ltrans -fipa-pta -fno-semantic-interposition -flto=12 -fno-plt -fno-signed-zeros -fno-trapping-math -fassociative-math -freciprocal-math -fno-math-errno -ffinite-math-only -fno-rounding-math -fno-signaling-nans -fcx-limited-range -fexcess-precision=fast -falign-functions=32 -fno-stack-protector -fno-stack-clash-protection -fstack-check=no -fno-stack-check -fuse-linker-plugin -Wl,-O4 -Wl,--as-needed -Wl,-lpthread -Wl,-lgomp -Wl,-z,norelro -Wl,-z,now -Wl,--sort-common -s -fPIC -Wall        -c -o src/system/Thread.o src/system/Thread.cpp
x86_64-pc-linux-gnu-g++ -DHAVE_LIBSAMPLERATE -DHAVE_FFTW3 -DFFTW_DOUBLE_ONLY -DNO_THREAD_CHECKS -DUSE_PTHREADS -DNO_TIMING -DNDEBUG -I. -Isrc -Irubberband -march=znver2 -pipe -g0 -O3 -fgraphite-identity -floop-nest-optimize -fdevirtualize-at-ltrans -fipa-pta -fno-semantic-interposition -flto=12 -fno-plt -fno-signed-zeros -fno-trapping-math -fassociative-math -freciprocal-math -fno-math-errno -ffinite-math-only -fno-rounding-math -fno-signaling-nans -fcx-limited-range -fexcess-precision=fast -falign-functions=32 -fno-stack-protector -fno-stack-clash-protection -fstack-check=no -fno-stack-check -fuse-linker-plugin -Wl,-O4 -Wl,--as-needed -Wl,-lpthread -Wl,-lgomp -Wl,-z,norelro -Wl,-z,now -Wl,--sort-common -s -fPIC -Wall        -c -o src/StretcherChannelData.o src/StretcherChannelData.cpp
x86_64-pc-linux-gnu-g++ -DHAVE_LIBSAMPLERATE -DHAVE_FFTW3 -DFFTW_DOUBLE_ONLY -DNO_THREAD_CHECKS -DUSE_PTHREADS -DNO_TIMING -DNDEBUG -I. -Isrc -Irubberband -march=znver2 -pipe -g0 -O3 -fgraphite-identity -floop-nest-optimize -fdevirtualize-at-ltrans -fipa-pta -fno-semantic-interposition -flto=12 -fno-plt -fno-signed-zeros -fno-trapping-math -fassociative-math -freciprocal-math -fno-math-errno -ffinite-math-only -fno-rounding-math -fno-signaling-nans -fcx-limited-range -fexcess-precision=fast -falign-functions=32 -fno-stack-protector -fno-stack-clash-protection -fstack-check=no -fno-stack-check -fuse-linker-plugin -Wl,-O4 -Wl,--as-needed -Wl,-lpthread -Wl,-lgomp -Wl,-z,norelro -Wl,-z,now -Wl,--sort-common -s -fPIC -Wall        -c -o src/StretcherImpl.o src/StretcherImpl.cpp
x86_64-pc-linux-gnu-g++ -DHAVE_LIBSAMPLERATE -DHAVE_FFTW3 -DFFTW_DOUBLE_ONLY -DNO_THREAD_CHECKS -DUSE_PTHREADS -DNO_TIMING -DNDEBUG -I. -Isrc -Irubberband -march=znver2 -pipe -g0 -O3 -fgraphite-identity -floop-nest-optimize -fdevirtualize-at-ltrans -fipa-pta -fno-semantic-interposition -flto=12 -fno-plt -fno-signed-zeros -fno-trapping-math -fassociative-math -freciprocal-math -fno-math-errno -ffinite-math-only -fno-rounding-math -fno-signaling-nans -fcx-limited-range -fexcess-precision=fast -falign-functions=32 -fno-stack-protector -fno-stack-clash-protection -fstack-check=no -fno-stack-check -fuse-linker-plugin -Wl,-O4 -Wl,--as-needed -Wl,-lpthread -Wl,-lgomp -Wl,-z,norelro -Wl,-z,now -Wl,--sort-common -s -fPIC -Wall        -c -o main/main.o main/main.cpp
x86_64-pc-linux-gnu-g++ -DHAVE_LIBSAMPLERATE -DHAVE_FFTW3 -DFFTW_DOUBLE_ONLY -DNO_THREAD_CHECKS -DUSE_PTHREADS -DNO_TIMING -DNDEBUG -I. -Isrc -Irubberband -march=znver2 -pipe -g0 -O3 -fgraphite-identity -floop-nest-optimize -fdevirtualize-at-ltrans -fipa-pta -fno-semantic-interposition -flto=12 -fno-plt -fno-signed-zeros -fno-trapping-math -fassociative-math -freciprocal-math -fno-math-errno -ffinite-math-only -fno-rounding-math -fno-signaling-nans -fcx-limited-range -fexcess-precision=fast -falign-functions=32 -fno-stack-protector -fno-stack-clash-protection -fstack-check=no -fno-stack-check -fuse-linker-plugin -Wl,-O4 -Wl,--as-needed -Wl,-lpthread -Wl,-lgomp -Wl,-z,norelro -Wl,-z,now -Wl,--sort-common -s -fPIC -Wall        -c -o vamp/RubberBandVampPlugin.o vamp/RubberBandVampPlugin.cpp
x86_64-pc-linux-gnu-g++ -DHAVE_LIBSAMPLERATE -DHAVE_FFTW3 -DFFTW_DOUBLE_ONLY -DNO_THREAD_CHECKS -DUSE_PTHREADS -DNO_TIMING -DNDEBUG -I. -Isrc -Irubberband -march=znver2 -pipe -g0 -O3 -fgraphite-identity -floop-nest-optimize -fdevirtualize-at-ltrans -fipa-pta -fno-semantic-interposition -flto=12 -fno-plt -fno-signed-zeros -fno-trapping-math -fassociative-math -freciprocal-math -fno-math-errno -ffinite-math-only -fno-rounding-math -fno-signaling-nans -fcx-limited-range -fexcess-precision=fast -falign-functions=32 -fno-stack-protector -fno-stack-clash-protection -fstack-check=no -fno-stack-check -fuse-linker-plugin -Wl,-O4 -Wl,--as-needed -Wl,-lpthread -Wl,-lgomp -Wl,-z,norelro -Wl,-z,now -Wl,--sort-common -s -fPIC -Wall        -c -o vamp/libmain.o vamp/libmain.cpp
x86_64-pc-linux-gnu-g++ -DHAVE_LIBSAMPLERATE -DHAVE_FFTW3 -DFFTW_DOUBLE_ONLY -DNO_THREAD_CHECKS -DUSE_PTHREADS -DNO_TIMING -DNDEBUG -I. -Isrc -Irubberband -march=znver2 -pipe -g0 -O3 -fgraphite-identity -floop-nest-optimize -fdevirtualize-at-ltrans -fipa-pta -fno-semantic-interposition -flto=12 -fno-plt -fno-signed-zeros -fno-trapping-math -fassociative-math -freciprocal-math -fno-math-errno -ffinite-math-only -fno-rounding-math -fno-signaling-nans -fcx-limited-range -fexcess-precision=fast -falign-functions=32 -fno-stack-protector -fno-stack-clash-protection -fstack-check=no -fno-stack-check -fuse-linker-plugin -Wl,-O4 -Wl,--as-needed -Wl,-lpthread -Wl,-lgomp -Wl,-z,norelro -Wl,-z,now -Wl,--sort-common -s -fPIC -Wall        -c -o ladspa/RubberBandPitchShifter.o ladspa/RubberBandPitchShifter.cpp
x86_64-pc-linux-gnu-g++ -DHAVE_LIBSAMPLERATE -DHAVE_FFTW3 -DFFTW_DOUBLE_ONLY -DNO_THREAD_CHECKS -DUSE_PTHREADS -DNO_TIMING -DNDEBUG -I. -Isrc -Irubberband -march=znver2 -pipe -g0 -O3 -fgraphite-identity -floop-nest-optimize -fdevirtualize-at-ltrans -fipa-pta -fno-semantic-interposition -flto=12 -fno-plt -fno-signed-zeros -fno-trapping-math -fassociative-math -freciprocal-math -fno-math-errno -ffinite-math-only -fno-rounding-math -fno-signaling-nans -fcx-limited-range -fexcess-precision=fast -falign-functions=32 -fno-stack-protector -fno-stack-clash-protection -fstack-check=no -fno-stack-check -fuse-linker-plugin -Wl,-O4 -Wl,--as-needed -Wl,-lpthread -Wl,-lgomp -Wl,-z,norelro -Wl,-z,now -Wl,--sort-common -s -fPIC -Wall        -c -o ladspa/libmain.o ladspa/libmain.cpp
x86_64-pc-linux-gnu-g++ -o bin/rubberband src/rubberband-c.o src/RubberBandStretcher.o src/StretcherProcess.o src/StretchCalculator.o src/base/Profiler.o src/dsp/AudioCurveCalculator.o src/audiocurves/CompoundAudioCurve.o src/audiocurves/SpectralDifferenceAudioCurve.o src/audiocurves/HighFrequencyAudioCurve.o src/audiocurves/SilentAudioCurve.o src/audiocurves/ConstantAudioCurve.o src/audiocurves/PercussiveAudioCurve.o src/dsp/Resampler.o src/dsp/FFT.o src/system/Allocators.o src/system/sysutils.o src/system/Thread.o src/StretcherChannelData.o src/StretcherImpl.o main/main.o -lsndfile -lsamplerate -lfftw3  -march=znver2 -pipe -g0 -O3 -fgraphite-identity -floop-nest-optimize -fdevirtualize-at-ltrans -fipa-pta -fno-semantic-interposition -flto=12 -fno-plt -fno-signed-zeros -fno-trapping-math -fassociative-math -freciprocal-math -fno-math-errno -ffinite-math-only -fno-rounding-math -fno-signaling-nans -fcx-limited-range -fexcess-precision=fast -falign-functions=32 -fno-stack-protector -fno-stack-clash-protection -fstack-check=no -fno-stack-check -fuse-linker-plugin -Wl,-O4 -Wl,--as-needed -Wl,-lpthread -Wl,-lgomp -Wl,-z,norelro -Wl,-z,now -Wl,--sort-common -s -lpthread -march=znver2 -pipe -g0 -O3 -fgraphite-identity -floop-nest-optimize -fdevirtualize-at-ltrans -fipa-pta -fno-semantic-interposition -flto=12 -fno-plt -fno-signed-zeros -fno-trapping-math -fassociative-math -freciprocal-math -fno-math-errno -ffinite-math-only -fno-rounding-math -fno-signaling-nans -fcx-limited-range -fexcess-precision=fast -falign-functions=32 -fno-stack-protector -fno-stack-clash-protection -fstack-check=no -fno-stack-check -fuse-linker-plugin -Wl,-O4 -Wl,--as-needed -Wl,-lpthread -Wl,-lgomp -Wl,-z,norelro -Wl,-z,now -Wl,--sort-common -s
x86_64-pc-linux-gnu-g++ -shared -Wl,-Bsymbolic -Wl,-soname=librubberband.so.2 src/rubberband-c.o src/RubberBandStretcher.o src/StretcherProcess.o src/StretchCalculator.o src/base/Profiler.o src/dsp/AudioCurveCalculator.o src/audiocurves/CompoundAudioCurve.o src/audiocurves/SpectralDifferenceAudioCurve.o src/audiocurves/HighFrequencyAudioCurve.o src/audiocurves/SilentAudioCurve.o src/audiocurves/ConstantAudioCurve.o src/audiocurves/PercussiveAudioCurve.o src/dsp/Resampler.o src/dsp/FFT.o src/system/Allocators.o src/system/sysutils.o src/system/Thread.o src/StretcherChannelData.o src/StretcherImpl.o -o lib/librubberband.so -lsamplerate -lfftw3  -march=znver2 -pipe -g0 -O3 -fgraphite-identity -floop-nest-optimize -fdevirtualize-at-ltrans -fipa-pta -fno-semantic-interposition -flto=12 -fno-plt -fno-signed-zeros -fno-trapping-math -fassociative-math -freciprocal-math -fno-math-errno -ffinite-math-only -fno-rounding-math -fno-signaling-nans -fcx-limited-range -fexcess-precision=fast -falign-functions=32 -fno-stack-protector -fno-stack-clash-protection -fstack-check=no -fno-stack-check -fuse-linker-plugin -Wl,-O4 -Wl,--as-needed -Wl,-lpthread -Wl,-lgomp -Wl,-z,norelro -Wl,-z,now -Wl,--sort-common -s -lpthread -march=znver2 -pipe -g0 -O3 -fgraphite-identity -floop-nest-optimize -fdevirtualize-at-ltrans -fipa-pta -fno-semantic-interposition -flto=12 -fno-plt -fno-signed-zeros -fno-trapping-math -fassociative-math -freciprocal-math -fno-math-errno -ffinite-math-only -fno-rounding-math -fno-signaling-nans -fcx-limited-range -fexcess-precision=fast -falign-functions=32 -fno-stack-protector -fno-stack-clash-protection -fstack-check=no -fno-stack-check -fuse-linker-plugin -Wl,-O4 -Wl,--as-needed -Wl,-lpthread -Wl,-lgomp -Wl,-z,norelro -Wl,-z,now -Wl,--sort-common -s
x86_64-pc-linux-gnu-g++ -shared -Wl,-Bsymbolic -Wl,--version-script=vamp/vamp-plugin.map -o lib/vamp-rubberband.so src/rubberband-c.o src/RubberBandStretcher.o src/StretcherProcess.o src/StretchCalculator.o src/base/Profiler.o src/dsp/AudioCurveCalculator.o src/audiocurves/CompoundAudioCurve.o src/audiocurves/SpectralDifferenceAudioCurve.o src/audiocurves/HighFrequencyAudioCurve.o src/audiocurves/SilentAudioCurve.o src/audiocurves/ConstantAudioCurve.o src/audiocurves/PercussiveAudioCurve.o src/dsp/Resampler.o src/dsp/FFT.o src/system/Allocators.o src/system/sysutils.o src/system/Thread.o src/StretcherChannelData.o src/StretcherImpl.o vamp/RubberBandVampPlugin.o vamp/libmain.o -L/usr/lib -lvamp-sdk -lsamplerate -lfftw3  -march=znver2 -pipe -g0 -O3 -fgraphite-identity -floop-nest-optimize -fdevirtualize-at-ltrans -fipa-pta -fno-semantic-interposition -flto=12 -fno-plt -fno-signed-zeros -fno-trapping-math -fassociative-math -freciprocal-math -fno-math-errno -ffinite-math-only -fno-rounding-math -fno-signaling-nans -fcx-limited-range -fexcess-precision=fast -falign-functions=32 -fno-stack-protector -fno-stack-clash-protection -fstack-check=no -fno-stack-check -fuse-linker-plugin -Wl,-O4 -Wl,--as-needed -Wl,-lpthread -Wl,-lgomp -Wl,-z,norelro -Wl,-z,now -Wl,--sort-common -s -lpthread -march=znver2 -pipe -g0 -O3 -fgraphite-identity -floop-nest-optimize -fdevirtualize-at-ltrans -fipa-pta -fno-semantic-interposition -flto=12 -fno-plt -fno-signed-zeros -fno-trapping-math -fassociative-math -freciprocal-math -fno-math-errno -ffinite-math-only -fno-rounding-math -fno-signaling-nans -fcx-limited-range -fexcess-precision=fast -falign-functions=32 -fno-stack-protector -fno-stack-clash-protection -fstack-check=no -fno-stack-check -fuse-linker-plugin -Wl,-O4 -Wl,--as-needed -Wl,-lpthread -Wl,-lgomp -Wl,-z,norelro -Wl,-z,now -Wl,--sort-common -s
x86_64-pc-linux-gnu-g++ -shared -Wl,-Bsymbolic -Wl,--version-script=ladspa/ladspa-plugin.map -o lib/ladspa-rubberband.so src/rubberband-c.o src/RubberBandStretcher.o src/StretcherProcess.o src/StretchCalculator.o src/base/Profiler.o src/dsp/AudioCurveCalculator.o src/audiocurves/CompoundAudioCurve.o src/audiocurves/SpectralDifferenceAudioCurve.o src/audiocurves/HighFrequencyAudioCurve.o src/audiocurves/SilentAudioCurve.o src/audiocurves/ConstantAudioCurve.o src/audiocurves/PercussiveAudioCurve.o src/dsp/Resampler.o src/dsp/FFT.o src/system/Allocators.o src/system/sysutils.o src/system/Thread.o src/StretcherChannelData.o src/StretcherImpl.o ladspa/RubberBandPitchShifter.o ladspa/libmain.o -lsamplerate -lfftw3  -march=znver2 -pipe -g0 -O3 -fgraphite-identity -floop-nest-optimize -fdevirtualize-at-ltrans -fipa-pta -fno-semantic-interposition -flto=12 -fno-plt -fno-signed-zeros -fno-trapping-math -fassociative-math -freciprocal-math -fno-math-errno -ffinite-math-only -fno-rounding-math -fno-signaling-nans -fcx-limited-range -fexcess-precision=fast -falign-functions=32 -fno-stack-protector -fno-stack-clash-protection -fstack-check=no -fno-stack-check -fuse-linker-plugin -Wl,-O4 -Wl,--as-needed -Wl,-lpthread -Wl,-lgomp -Wl,-z,norelro -Wl,-z,now -Wl,--sort-common -s -lpthread -march=znver2 -pipe -g0 -O3 -fgraphite-identity -floop-nest-optimize -fdevirtualize-at-ltrans -fipa-pta -fno-semantic-interposition -flto=12 -fno-plt -fno-signed-zeros -fno-trapping-math -fassociative-math -freciprocal-math -fno-math-errno -ffinite-math-only -fno-rounding-math -fno-signaling-nans -fcx-limited-range -fexcess-precision=fast -falign-functions=32 -fno-stack-protector -fno-stack-clash-protection -fstack-check=no -fno-stack-check -fuse-linker-plugin -Wl,-O4 -Wl,--as-needed -Wl,-lpthread -Wl,-lgomp -Wl,-z,norelro -Wl,-z,now -Wl,--sort-common -s
/usr/lib/gcc/x86_64-pc-linux-gnu/11.0.0/../../../../x86_64-pc-linux-gnu/bin/ld: skipping incompatible /usr/lib/libpthread.so when searching for -lpthread
/usr/lib/gcc/x86_64-pc-linux-gnu/11.0.0/../../../../x86_64-pc-linux-gnu/bin/ld: skipping incompatible /usr/lib/libpthread.a when searching for -lpthread
/usr/lib/gcc/x86_64-pc-linux-gnu/11.0.0/../../../../x86_64-pc-linux-gnu/bin/ld: skipping incompatible /usr/lib/libpthread.so when searching for -lpthread
/usr/lib/gcc/x86_64-pc-linux-gnu/11.0.0/../../../../x86_64-pc-linux-gnu/bin/ld: skipping incompatible /usr/lib/libpthread.a when searching for -lpthread
/usr/lib/gcc/x86_64-pc-linux-gnu/11.0.0/../../../../x86_64-pc-linux-gnu/bin/ld: skipping incompatible /usr/lib/libpthread.so when searching for -lpthread
/usr/lib/gcc/x86_64-pc-linux-gnu/11.0.0/../../../../x86_64-pc-linux-gnu/bin/ld: skipping incompatible /usr/lib/libpthread.a when searching for -lpthread
/usr/lib/gcc/x86_64-pc-linux-gnu/11.0.0/../../../../x86_64-pc-linux-gnu/bin/ld: skipping incompatible /usr/lib/libm.so when searching for -lm
/usr/lib/gcc/x86_64-pc-linux-gnu/11.0.0/../../../../x86_64-pc-linux-gnu/bin/ld: skipping incompatible /usr/lib/libm.a when searching for -lm
/usr/lib/gcc/x86_64-pc-linux-gnu/11.0.0/../../../../x86_64-pc-linux-gnu/bin/ld: skipping incompatible /usr/lib/libc.so when searching for -lc
/usr/lib/gcc/x86_64-pc-linux-gnu/11.0.0/../../../../x86_64-pc-linux-gnu/bin/ld: skipping incompatible /usr/lib/libc.a when searching for -lc
>>> Source compiled.
>>> Test phase [not enabled]: media-libs/rubberband-1.8.2

>>> Install media-libs/rubberband-1.8.2 into /tmp/portage/media-libs/rubberband-1.8.2/image
 * abi_x86_64.amd64: running multilib-minimal_abi_src_install
make -j12 -l12 INSTALL_BINDIR=/tmp/portage/media-libs/rubberband-1.8.2/image/usr/bin INSTALL_INCDIR=/tmp/portage/media-libs/rubberband-1.8.2/image/usr/include/rubberband INSTALL_LIBDIR=/tmp/portage/media-libs/rubberband-1.8.2/image/usr/lib64 INSTALL_VAMPDIR=/tmp/portage/media-libs/rubberband-1.8.2/image/usr/lib64/vamp INSTALL_LADSPADIR=/tmp/portage/media-libs/rubberband-1.8.2/image/usr/lib64/ladspa INSTALL_LRDFDIR=/tmp/portage/media-libs/rubberband-1.8.2/image/usr/share/ladspa/rdf INSTALL_PKGDIR=/tmp/portage/media-libs/rubberband-1.8.2/image/usr/lib64/pkgconfig install 
mkdir -p /tmp/portage/media-libs/rubberband-1.8.2/image/usr/bin
mkdir -p /tmp/portage/media-libs/rubberband-1.8.2/image/usr/include/rubberband
mkdir -p /tmp/portage/media-libs/rubberband-1.8.2/image/usr/lib64
mkdir -p /tmp/portage/media-libs/rubberband-1.8.2/image/usr/lib64/vamp
mkdir -p /tmp/portage/media-libs/rubberband-1.8.2/image/usr/lib64/ladspa
mkdir -p /tmp/portage/media-libs/rubberband-1.8.2/image/usr/share/ladspa/rdf
mkdir -p /tmp/portage/media-libs/rubberband-1.8.2/image/usr/lib64/pkgconfig
cp bin/rubberband /tmp/portage/media-libs/rubberband-1.8.2/image/usr/bin
cp rubberband/rubberband-c.h rubberband/RubberBandStretcher.h /tmp/portage/media-libs/rubberband-1.8.2/image/usr/include/rubberband
rm -f /tmp/portage/media-libs/rubberband-1.8.2/image/usr/lib64/librubberband.so.2
rm -f /tmp/portage/media-libs/rubberband-1.8.2/image/usr/lib64/librubberband.so
rm -f /tmp/portage/media-libs/rubberband-1.8.2/image/usr/lib64/librubberband-jni.so
cp lib/librubberband.so /tmp/portage/media-libs/rubberband-1.8.2/image/usr/lib64/librubberband.so.2.1.1
ln -s librubberband.so.2.1.1 /tmp/portage/media-libs/rubberband-1.8.2/image/usr/lib64/librubberband.so.2
ln -s librubberband.so.2.1.1 /tmp/portage/media-libs/rubberband-1.8.2/image/usr/lib64/librubberband.so
cp lib/vamp-rubberband.so /tmp/portage/media-libs/rubberband-1.8.2/image/usr/lib64/vamp
cp vamp/vamp-rubberband.cat /tmp/portage/media-libs/rubberband-1.8.2/image/usr/lib64/vamp
cp lib/ladspa-rubberband.so /tmp/portage/media-libs/rubberband-1.8.2/image/usr/lib64/ladspa
cp ladspa/ladspa-rubberband.cat /tmp/portage/media-libs/rubberband-1.8.2/image/usr/lib64/ladspa
cp ladspa/ladspa-rubberband.rdf /tmp/portage/media-libs/rubberband-1.8.2/image/usr/share/ladspa/rdf
sed "s,%PREFIX%,/usr," rubberband.pc.in \
  > /tmp/portage/media-libs/rubberband-1.8.2/image/usr/lib64/pkgconfig/rubberband.pc
>>> Completed installing media-libs/rubberband-1.8.2 into /tmp/portage/media-libs/rubberband-1.8.2/image

 * Final size of build directory: 5388 KiB (5.2 MiB)
 * Final size of installed tree:   964 KiB



 * QA Notice: Pre-stripped files found:
 * /usr/bin/rubberband
 * /usr/lib64/ladspa/ladspa-rubberband.so
 * /usr/lib64/vamp/vamp-rubberband.so
 * /usr/lib64/librubberband.so.2.1.1
./
./usr/
./usr/bin/
./usr/bin/rubberband
./usr/include/
./usr/include/rubberband/
./usr/include/rubberband/RubberBandStretcher.h
./usr/include/rubberband/rubberband-c.h
./usr/share/
./usr/share/ladspa/
./usr/share/ladspa/rdf/
./usr/share/ladspa/rdf/ladspa-rubberband.rdf
./usr/share/doc/
./usr/share/doc/rubberband-1.8.2/
./usr/share/doc/rubberband-1.8.2/CHANGELOG.bz2
./usr/share/doc/rubberband-1.8.2/README.txt.bz2
./usr/lib64/
./usr/lib64/ladspa/
./usr/lib64/ladspa/ladspa-rubberband.cat
./usr/lib64/ladspa/ladspa-rubberband.so
./usr/lib64/vamp/
./usr/lib64/vamp/vamp-rubberband.cat
./usr/lib64/vamp/vamp-rubberband.so
./usr/lib64/librubberband.so.2.1.1
./usr/lib64/librubberband.so
./usr/lib64/librubberband.so.2
./usr/lib64/pkgconfig/
./usr/lib64/pkgconfig/rubberband.pc
>>> Done.
 * checking 12 files for package collisions
>>> Merging media-libs/rubberband-1.8.2 to /
 * removing unneeded *.la files
--- /usr/
--- /usr/lib64/
--- /usr/lib64/pkgconfig/
>>> /usr/lib64/pkgconfig/rubberband.pc
>>> /usr/lib64/librubberband.so.2.1.1
--- /usr/lib64/vamp/
>>> /usr/lib64/vamp/vamp-rubberband.so
>>> /usr/lib64/vamp/vamp-rubberband.cat
--- /usr/lib64/ladspa/
>>> /usr/lib64/ladspa/ladspa-rubberband.so
>>> /usr/lib64/ladspa/ladspa-rubberband.cat
--- /usr/share/
>>> /usr/share/ladspa/
>>> /usr/share/ladspa/rdf/
>>> /usr/share/ladspa/rdf/ladspa-rubberband.rdf
--- /usr/include/
>>> /usr/include/rubberband/
>>> /usr/include/rubberband/rubberband-c.h
>>> /usr/include/rubberband/RubberBandStretcher.h
--- /usr/bin/
>>> /usr/bin/rubberband
>>> /usr/lib64/librubberband.so -> librubberband.so.2.1.1
>>> /usr/lib64/librubberband.so.2 -> librubberband.so.2.1.1
>>> media-libs/rubberband-1.8.2 merged.
>>> Regenerating /etc/ld.so.cache...
