No package files given... Grabbing a set.
<<<          obj /usr/share/locale/zh_TW/LC_MESSAGES/phonon_gstreamer_qt.qm
<<<          obj /usr/share/locale/zh_CN/LC_MESSAGES/phonon_gstreamer_qt.qm
<<<          obj /usr/share/locale/uk/LC_MESSAGES/phonon_gstreamer_qt.qm
<<<          obj /usr/share/locale/ug/LC_MESSAGES/phonon_gstreamer_qt.qm
<<<          obj /usr/share/locale/tr/LC_MESSAGES/phonon_gstreamer_qt.qm
<<<          obj /usr/share/locale/th/LC_MESSAGES/phonon_gstreamer_qt.qm
<<<          obj /usr/share/locale/sv/LC_MESSAGES/phonon_gstreamer_qt.qm
<<<          obj /usr/share/locale/sr@latin/LC_MESSAGES/phonon_gstreamer_qt.qm
<<<          obj /usr/share/locale/sr@ijekavianlatin/LC_MESSAGES/phonon_gstreamer_qt.qm
<<<          obj /usr/share/locale/sr@ijekavian/LC_MESSAGES/phonon_gstreamer_qt.qm
<<<          obj /usr/share/locale/sr/LC_MESSAGES/phonon_gstreamer_qt.qm
<<<          obj /usr/share/locale/sq/LC_MESSAGES/phonon_gstreamer_qt.qm
<<<          obj /usr/share/locale/sl/LC_MESSAGES/phonon_gstreamer_qt.qm
<<<          obj /usr/share/locale/sk/LC_MESSAGES/phonon_gstreamer_qt.qm
<<<          obj /usr/share/locale/se/LC_MESSAGES/phonon_gstreamer_qt.qm
<<<          obj /usr/share/locale/ru/LC_MESSAGES/phonon_gstreamer_qt.qm
<<<          obj /usr/share/locale/ro/LC_MESSAGES/phonon_gstreamer_qt.qm
<<<          obj /usr/share/locale/pt_BR/LC_MESSAGES/phonon_gstreamer_qt.qm
<<<          obj /usr/share/locale/pt/LC_MESSAGES/phonon_gstreamer_qt.qm
<<<          obj /usr/share/locale/pl/LC_MESSAGES/phonon_gstreamer_qt.qm
<<<          obj /usr/share/locale/pa/LC_MESSAGES/phonon_gstreamer_qt.qm
<<<          obj /usr/share/locale/nn/LC_MESSAGES/phonon_gstreamer_qt.qm
<<<          obj /usr/share/locale/nl/LC_MESSAGES/phonon_gstreamer_qt.qm
<<<          obj /usr/share/locale/nds/LC_MESSAGES/phonon_gstreamer_qt.qm
<<<          obj /usr/share/locale/nb/LC_MESSAGES/phonon_gstreamer_qt.qm
<<<          obj /usr/share/locale/mr/LC_MESSAGES/phonon_gstreamer_qt.qm
<<<          obj /usr/share/locale/mai/LC_MESSAGES/phonon_gstreamer_qt.qm
<<<          obj /usr/share/locale/lv/LC_MESSAGES/phonon_gstreamer_qt.qm
<<<          obj /usr/share/locale/lt/LC_MESSAGES/phonon_gstreamer_qt.qm
<<<          obj /usr/share/locale/ko/LC_MESSAGES/phonon_gstreamer_qt.qm
<<<          obj /usr/share/locale/kk/LC_MESSAGES/phonon_gstreamer_qt.qm
<<<          obj /usr/share/locale/ja/LC_MESSAGES/phonon_gstreamer_qt.qm
<<<          obj /usr/share/locale/it/LC_MESSAGES/phonon_gstreamer_qt.qm
<<<          obj /usr/share/locale/is/LC_MESSAGES/phonon_gstreamer_qt.qm
<<<          obj /usr/share/locale/id/LC_MESSAGES/phonon_gstreamer_qt.qm
<<<          obj /usr/share/locale/hu/LC_MESSAGES/phonon_gstreamer_qt.qm
<<<          obj /usr/share/locale/hsb/LC_MESSAGES/phonon_gstreamer_qt.qm
<<<          obj /usr/share/locale/hr/LC_MESSAGES/phonon_gstreamer_qt.qm
<<<          obj /usr/share/locale/he/LC_MESSAGES/phonon_gstreamer_qt.qm
<<<          obj /usr/share/locale/gl/LC_MESSAGES/phonon_gstreamer_qt.qm
<<<          obj /usr/share/locale/ga/LC_MESSAGES/phonon_gstreamer_qt.qm
<<<          obj /usr/share/locale/fr/LC_MESSAGES/phonon_gstreamer_qt.qm
<<<          obj /usr/share/locale/fi/LC_MESSAGES/phonon_gstreamer_qt.qm
<<<          obj /usr/share/locale/eu/LC_MESSAGES/phonon_gstreamer_qt.qm
<<<          obj /usr/share/locale/et/LC_MESSAGES/phonon_gstreamer_qt.qm
<<<          obj /usr/share/locale/es/LC_MESSAGES/phonon_gstreamer_qt.qm
<<<          obj /usr/share/locale/eo/LC_MESSAGES/phonon_gstreamer_qt.qm
<<<          obj /usr/share/locale/en_GB/LC_MESSAGES/phonon_gstreamer_qt.qm
<<<          obj /usr/share/locale/el/LC_MESSAGES/phonon_gstreamer_qt.qm
<<<          obj /usr/share/locale/de/LC_MESSAGES/phonon_gstreamer_qt.qm
<<<          obj /usr/share/locale/da/LC_MESSAGES/phonon_gstreamer_qt.qm
<<<          obj /usr/share/locale/cs/LC_MESSAGES/phonon_gstreamer_qt.qm
<<<          obj /usr/share/locale/ca@valencia/LC_MESSAGES/phonon_gstreamer_qt.qm
<<<          obj /usr/share/locale/ca/LC_MESSAGES/phonon_gstreamer_qt.qm
<<<          obj /usr/share/locale/bs/LC_MESSAGES/phonon_gstreamer_qt.qm
<<<          obj /usr/share/locale/bg/LC_MESSAGES/phonon_gstreamer_qt.qm
<<<          obj /usr/share/locale/ast/LC_MESSAGES/phonon_gstreamer_qt.qm
<<<          obj /usr/share/locale/ar/LC_MESSAGES/phonon_gstreamer_qt.qm
<<<          obj /usr/share/icons/hicolor/scalable/apps/phonon-gstreamer.svg
<<<          obj /usr/share/icons/hicolor/64x64/apps/phonon-gstreamer.png
<<<          obj /usr/share/icons/hicolor/48x48/apps/phonon-gstreamer.png
<<<          obj /usr/share/icons/hicolor/22x22/apps/phonon-gstreamer.png
<<<          obj /usr/share/icons/hicolor/16x16/apps/phonon-gstreamer.png
<<<          obj /usr/share/icons/hicolor/128x128/apps/phonon-gstreamer.png
<<<          obj /usr/lib64/qt5/plugins/phonon4qt5_backend/phonon_gstreamer.so
--- !empty   dir /usr/share/locale/zh_TW/LC_MESSAGES
--- !empty   dir /usr/share/locale/zh_TW
--- !empty   dir /usr/share/locale/zh_CN/LC_MESSAGES
--- !empty   dir /usr/share/locale/zh_CN
--- !empty   dir /usr/share/locale/uk/LC_MESSAGES
--- !empty   dir /usr/share/locale/uk
--- !empty   dir /usr/share/locale/ug/LC_MESSAGES
--- !empty   dir /usr/share/locale/ug
--- !empty   dir /usr/share/locale/tr/LC_MESSAGES
--- !empty   dir /usr/share/locale/tr
--- !empty   dir /usr/share/locale/th/LC_MESSAGES
--- !empty   dir /usr/share/locale/th
--- !empty   dir /usr/share/locale/sv/LC_MESSAGES
--- !empty   dir /usr/share/locale/sv
--- !empty   dir /usr/share/locale/sr@latin/LC_MESSAGES
--- !empty   dir /usr/share/locale/sr@latin
--- !empty   dir /usr/share/locale/sr@ijekavianlatin/LC_MESSAGES
--- !empty   dir /usr/share/locale/sr@ijekavianlatin
--- !empty   dir /usr/share/locale/sr@ijekavian/LC_MESSAGES
--- !empty   dir /usr/share/locale/sr@ijekavian
--- !empty   dir /usr/share/locale/sr/LC_MESSAGES
--- !empty   dir /usr/share/locale/sr
--- !empty   dir /usr/share/locale/sq/LC_MESSAGES
--- !empty   dir /usr/share/locale/sq
--- !empty   dir /usr/share/locale/sl/LC_MESSAGES
--- !empty   dir /usr/share/locale/sl
--- !empty   dir /usr/share/locale/sk/LC_MESSAGES
--- !empty   dir /usr/share/locale/sk
--- !empty   dir /usr/share/locale/se/LC_MESSAGES
--- !empty   dir /usr/share/locale/se
--- !empty   dir /usr/share/locale/ru/LC_MESSAGES
--- !empty   dir /usr/share/locale/ru
--- !empty   dir /usr/share/locale/ro/LC_MESSAGES
--- !empty   dir /usr/share/locale/ro
--- !empty   dir /usr/share/locale/pt_BR/LC_MESSAGES
--- !empty   dir /usr/share/locale/pt_BR
--- !empty   dir /usr/share/locale/pt/LC_MESSAGES
--- !empty   dir /usr/share/locale/pt
--- !empty   dir /usr/share/locale/pl/LC_MESSAGES
--- !empty   dir /usr/share/locale/pl
--- !empty   dir /usr/share/locale/pa/LC_MESSAGES
--- !empty   dir /usr/share/locale/pa
--- !empty   dir /usr/share/locale/nn/LC_MESSAGES
--- !empty   dir /usr/share/locale/nn
--- !empty   dir /usr/share/locale/nl/LC_MESSAGES
--- !empty   dir /usr/share/locale/nl
--- !empty   dir /usr/share/locale/nds/LC_MESSAGES
--- !empty   dir /usr/share/locale/nds
--- !empty   dir /usr/share/locale/nb/LC_MESSAGES
--- !empty   dir /usr/share/locale/nb
--- !empty   dir /usr/share/locale/mr/LC_MESSAGES
--- !empty   dir /usr/share/locale/mr
--- !empty   dir /usr/share/locale/mai/LC_MESSAGES
--- !empty   dir /usr/share/locale/mai
--- !empty   dir /usr/share/locale/lv/LC_MESSAGES
--- !empty   dir /usr/share/locale/lv
--- !empty   dir /usr/share/locale/lt/LC_MESSAGES
--- !empty   dir /usr/share/locale/lt
--- !empty   dir /usr/share/locale/ko/LC_MESSAGES
--- !empty   dir /usr/share/locale/ko
--- !empty   dir /usr/share/locale/kk/LC_MESSAGES
--- !empty   dir /usr/share/locale/kk
--- !empty   dir /usr/share/locale/ja/LC_MESSAGES
--- !empty   dir /usr/share/locale/ja
--- !empty   dir /usr/share/locale/it/LC_MESSAGES
--- !empty   dir /usr/share/locale/it
--- !empty   dir /usr/share/locale/is/LC_MESSAGES
--- !empty   dir /usr/share/locale/is
--- !empty   dir /usr/share/locale/id/LC_MESSAGES
--- !empty   dir /usr/share/locale/id
--- !empty   dir /usr/share/locale/hu/LC_MESSAGES
--- !empty   dir /usr/share/locale/hu
--- !empty   dir /usr/share/locale/hsb/LC_MESSAGES
--- !empty   dir /usr/share/locale/hsb
--- !empty   dir /usr/share/locale/hr/LC_MESSAGES
--- !empty   dir /usr/share/locale/hr
--- !empty   dir /usr/share/locale/he/LC_MESSAGES
--- !empty   dir /usr/share/locale/he
--- !empty   dir /usr/share/locale/gl/LC_MESSAGES
--- !empty   dir /usr/share/locale/gl
--- !empty   dir /usr/share/locale/ga/LC_MESSAGES
--- !empty   dir /usr/share/locale/ga
--- !empty   dir /usr/share/locale/fr/LC_MESSAGES
--- !empty   dir /usr/share/locale/fr
--- !empty   dir /usr/share/locale/fi/LC_MESSAGES
--- !empty   dir /usr/share/locale/fi
--- !empty   dir /usr/share/locale/eu/LC_MESSAGES
--- !empty   dir /usr/share/locale/eu
--- !empty   dir /usr/share/locale/et/LC_MESSAGES
--- !empty   dir /usr/share/locale/et
--- !empty   dir /usr/share/locale/es/LC_MESSAGES
--- !empty   dir /usr/share/locale/es
--- !empty   dir /usr/share/locale/eo/LC_MESSAGES
--- !empty   dir /usr/share/locale/eo
--- !empty   dir /usr/share/locale/en_GB/LC_MESSAGES
--- !empty   dir /usr/share/locale/en_GB
--- !empty   dir /usr/share/locale/el/LC_MESSAGES
--- !empty   dir /usr/share/locale/el
--- !empty   dir /usr/share/locale/de/LC_MESSAGES
--- !empty   dir /usr/share/locale/de
--- !empty   dir /usr/share/locale/da/LC_MESSAGES
--- !empty   dir /usr/share/locale/da
--- !empty   dir /usr/share/locale/cs/LC_MESSAGES
--- !empty   dir /usr/share/locale/cs
--- !empty   dir /usr/share/locale/ca@valencia/LC_MESSAGES
--- !empty   dir /usr/share/locale/ca@valencia
--- !empty   dir /usr/share/locale/ca/LC_MESSAGES
--- !empty   dir /usr/share/locale/ca
--- !empty   dir /usr/share/locale/bs/LC_MESSAGES
--- !empty   dir /usr/share/locale/bs
--- !empty   dir /usr/share/locale/bg/LC_MESSAGES
--- !empty   dir /usr/share/locale/bg
--- !empty   dir /usr/share/locale/ast/LC_MESSAGES
--- !empty   dir /usr/share/locale/ast
--- !empty   dir /usr/share/locale/ar/LC_MESSAGES
--- !empty   dir /usr/share/locale/ar
--- !empty   dir /usr/share/locale
--- !empty   dir /usr/share/icons/hicolor/scalable/apps
--- !empty   dir /usr/share/icons/hicolor/scalable
--- !empty   dir /usr/share/icons/hicolor/64x64/apps
--- !empty   dir /usr/share/icons/hicolor/64x64
--- !empty   dir /usr/share/icons/hicolor/48x48/apps
--- !empty   dir /usr/share/icons/hicolor/48x48
--- !empty   dir /usr/share/icons/hicolor/22x22/apps
--- !empty   dir /usr/share/icons/hicolor/22x22
--- !empty   dir /usr/share/icons/hicolor/16x16/apps
--- !empty   dir /usr/share/icons/hicolor/16x16
--- !empty   dir /usr/share/icons/hicolor/128x128/apps
--- !empty   dir /usr/share/icons/hicolor/128x128
--- !empty   dir /usr/share/icons/hicolor
--- !empty   dir /usr/share/icons
--- !empty   dir /usr/share
--- !empty   dir /usr/lib64/qt5/plugins/phonon4qt5_backend
--- !empty   dir /usr/lib64/qt5/plugins
--- !empty   dir /usr/lib64/qt5
--- !empty   dir /usr/lib64
--- !empty   dir /usr
 * Updating icons cache ...
 [ ok ]
