[32;01m * [39;49;00mPackage:    media-libs/libraw-0.19.5
[32;01m * [39;49;00mRepository: gentoo
[32;01m * [39;49;00mMaintainer: graphics@gentoo.org
[32;01m * [39;49;00mUSE:        abi_x86_64 amd64 elibc_glibc examples jpeg kernel_linux lcms openmp userland_GNU
[32;01m * [39;49;00mFEATURES:   network-sandbox preserve-libs sandbox userpriv usersandbox
