>>> Extracting info
 * Package:    media-libs/vidstab-1.1.0-r2
 * Repository: gentoo
 * USE:        amd64 cpu_flags_x86_sse2 openmp userland_GNU abi_x86_64 elibc_glibc kernel_linux
 * FEATURES:   ccache preserve-libs userpriv
 * FEATURES='assume-digests binpkg-docompress binpkg-dostrip binpkg-logs buildpkg ccache cgroup compress-index config-protect-if-modified distlocks ebuild-locks fixlafiles merge-sync multilib-strict news nodoc parallel-fetch preserve-libs qa-unresolved-soname-deps sfperms strict strict-keepdir unknown-features-warn unmerge-logs unmerge-orphans userfetch userpriv usersync xattr'
 * CFLAGS='-O2 -pipe -Wl,-O1,--sort-common,--as-needed,-z,norelro,-z,now'
 * CXXFLAGS='-O2 -pipe -Wl,-O1,--sort-common,--as-needed,-z,norelro,-z,now'
 * FFLAGS='-O2 -pipe -Wl,-O1,--sort-common,--as-needed,-z,norelro,-z,now'
 * FCFLAGS='-O2 -pipe -Wl,-O1,--sort-common,--as-needed,-z,norelro,-z,now'
 * F77FLAGS='-O2 -pipe -Wl,-O1,--sort-common,--as-needed,-z,norelro,-z,now'
 * LDFLAGS='-Wl,-O1,--sort-common,--as-needed,-z,norelro,-z,now'
 * MAKEOPTS='-j12 -l12'
 * gcc (Gentoo 11.0.0_pre9999 p1, commit 184c21bf1cd04a108ed9bd04635e7d57ac39f616) 11.0.0 20200611 (experimental)
 * g++ (Gentoo 11.0.0_pre9999 p1, commit 184c21bf1cd04a108ed9bd04635e7d57ac39f616) 11.0.0 20200611 (experimental)
 * GNU ld (Gentoo 2.34 p4) 2.34.0
 * Linux rescue 5.4.36 #1 SMP Thu Apr 30 04:38:28 UTC 2020 x86_64 AMD Ryzen 5 3600 6-Core Processor AuthenticAMD GNU/Linux
media-libs/vidstab: 13 seconds average for 1 merge
2020-06-05T04:32:35 >>> media-libs/vidstab: 13 seconds
]0;emerge 20:20:23 344|882 vidstab 00:13 (root@rescue)>>> Extracting media-libs/vidstab-1.1.0-r2
 * checking 19 files for package collisions
>>> Merging media-libs/vidstab-1.1.0-r2 to /
 * removing unneeded *.la files
--- /usr/
--- /usr/lib64/
--- /usr/lib64/pkgconfig/
>>> /usr/lib64/pkgconfig/vidstab.pc
>>> /usr/lib64/libvidstab.so -> libvidstab.so.1.1
>>> /usr/lib64/libvidstab.so.1.1
--- /usr/include/
--- /usr/include/vid.stab/
>>> /usr/include/vid.stab/frameinfo.h
>>> /usr/include/vid.stab/serialize.h
>>> /usr/include/vid.stab/localmotion2transform.h
>>> /usr/include/vid.stab/vidstabdefines.h
>>> /usr/include/vid.stab/transformtype_operations.h
>>> /usr/include/vid.stab/transformfloat.h
>>> /usr/include/vid.stab/transform.h
>>> /usr/include/vid.stab/motiondetect.h
>>> /usr/include/vid.stab/vsvector.h
>>> /usr/include/vid.stab/boxblur.h
>>> /usr/include/vid.stab/motiondetect_opt.h
>>> /usr/include/vid.stab/libvidstab.h
>>> /usr/include/vid.stab/motiondetect_internal.h
>>> /usr/include/vid.stab/transform_internal.h
>>> /usr/include/vid.stab/transformtype.h
>>> /usr/include/vid.stab/transformfixedpoint.h
>>> Safely unmerging already-installed instance...
>>> Original instance of package unmerged safely.
>>> media-libs/vidstab-1.1.0-r2 merged.
>>> Regenerating /etc/ld.so.cache...
