[32;01m * [39;49;00mPackage:    net-misc/openssh-8.3_p1-r1
[32;01m * [39;49;00mRepository: gentoo
[32;01m * [39;49;00mMaintainer: base-system@gentoo.org
[32;01m * [39;49;00mUSE:        X abi_x86_64 amd64 elibc_glibc kernel_linux ldns libedit pam sctp ssl test userland_GNU
[32;01m * [39;49;00mFEATURES:   ccache network-sandbox preserve-libs sandbox userpriv usersandbox
