No package files given... Grabbing a set.
--- replaced obj /usr/lib64/pkgconfig/libssh.pc
--- replaced dir /usr/lib64/pkgconfig
--- replaced sym /usr/lib64/libssh_threads.so
--- replaced obj /usr/lib64/libssh.so.4.8.5
--- replaced sym /usr/lib64/libssh.so.4
--- replaced sym /usr/lib64/libssh.so
--- replaced obj /usr/lib64/cmake/libssh/libssh-config.cmake
--- replaced obj /usr/lib64/cmake/libssh/libssh-config-version.cmake
--- replaced obj /usr/lib64/cmake/libssh/libssh-config-gentoo.cmake
--- replaced dir /usr/lib64/cmake/libssh
--- replaced dir /usr/lib64/cmake
--- replaced dir /usr/lib64
--- replaced obj /usr/include/libssh/ssh2.h
--- replaced obj /usr/include/libssh/sftp.h
--- replaced obj /usr/include/libssh/libsshpp.hpp
--- replaced obj /usr/include/libssh/libssh.h
--- replaced obj /usr/include/libssh/legacy.h
--- replaced obj /usr/include/libssh/callbacks.h
--- replaced dir /usr/include/libssh
--- replaced dir /usr/include
--- replaced dir /usr
>>> Regenerating /etc/ld.so.cache...
