No package files given... Grabbing a set.
--- replaced obj /usr/share/man/man1/irssi.1.bz2
--- replaced obj /usr/share/man/man1/irssi.1
--- replaced dir /usr/share/man/man1
--- replaced dir /usr/share/man
--- replaced obj /usr/share/irssi/themes/default.theme
--- replaced obj /usr/share/irssi/themes/colorless.theme
--- replaced dir /usr/share/irssi/themes
--- replaced obj /usr/share/irssi/scripts/usercount.pl
--- replaced obj /usr/share/irssi/scripts/scriptassist.pl
--- replaced obj /usr/share/irssi/scripts/redirect.pl
--- replaced obj /usr/share/irssi/scripts/quitmsg.pl
--- replaced obj /usr/share/irssi/scripts/msg-event.pl
--- replaced obj /usr/share/irssi/scripts/mlock.pl
--- replaced obj /usr/share/irssi/scripts/mail.pl
--- replaced obj /usr/share/irssi/scripts/kills.pl
--- replaced obj /usr/share/irssi/scripts/dns.pl
--- replaced obj /usr/share/irssi/scripts/command.pl
--- replaced obj /usr/share/irssi/scripts/buf.pl
--- replaced obj /usr/share/irssi/scripts/autorejoin.pl
--- replaced obj /usr/share/irssi/scripts/autoop.pl
--- replaced dir /usr/share/irssi/scripts
--- replaced obj /usr/share/irssi/help/window
--- replaced obj /usr/share/irssi/help/whowas
--- replaced obj /usr/share/irssi/help/whois
--- replaced obj /usr/share/irssi/help/who
--- replaced obj /usr/share/irssi/help/wallops
--- replaced obj /usr/share/irssi/help/wall
--- replaced obj /usr/share/irssi/help/wait
--- replaced obj /usr/share/irssi/help/voice
--- replaced obj /usr/share/irssi/help/version
--- replaced obj /usr/share/irssi/help/ver
--- replaced obj /usr/share/irssi/help/userhost
--- replaced obj /usr/share/irssi/help/uptime
--- replaced obj /usr/share/irssi/help/upgrade
--- replaced obj /usr/share/irssi/help/unsilence
--- replaced obj /usr/share/irssi/help/unquery
--- replaced obj /usr/share/irssi/help/unnotify
--- replaced obj /usr/share/irssi/help/unload
--- replaced obj /usr/share/irssi/help/unignore
--- replaced obj /usr/share/irssi/help/unban
--- replaced obj /usr/share/irssi/help/unalias
--- replaced obj /usr/share/irssi/help/ts
--- replaced obj /usr/share/irssi/help/trace
--- replaced obj /usr/share/irssi/help/topic
--- replaced obj /usr/share/irssi/help/toggle
--- replaced obj /usr/share/irssi/help/time
--- replaced obj /usr/share/irssi/help/statusbar
--- replaced obj /usr/share/irssi/help/stats
--- replaced obj /usr/share/irssi/help/squit
--- replaced obj /usr/share/irssi/help/squery
--- replaced obj /usr/share/irssi/help/silence
--- replaced obj /usr/share/irssi/help/set
--- replaced obj /usr/share/irssi/help/servlist
--- replaced obj /usr/share/irssi/help/server
--- replaced obj /usr/share/irssi/help/scrollback
--- replaced obj /usr/share/irssi/help/script
--- replaced obj /usr/share/irssi/help/sconnect
--- replaced obj /usr/share/irssi/help/save
--- replaced obj /usr/share/irssi/help/rmrejoins
--- replaced obj /usr/share/irssi/help/rmreconns
--- replaced obj /usr/share/irssi/help/restart
--- replaced obj /usr/share/irssi/help/reload
--- replaced obj /usr/share/irssi/help/rehash
--- replaced obj /usr/share/irssi/help/reconnect
--- replaced obj /usr/share/irssi/help/recode
--- replaced obj /usr/share/irssi/help/rawlog
--- replaced obj /usr/share/irssi/help/quote
--- replaced obj /usr/share/irssi/help/quit
--- replaced obj /usr/share/irssi/help/query
--- replaced obj /usr/share/irssi/help/ping
--- replaced obj /usr/share/irssi/help/part
--- replaced obj /usr/share/irssi/help/otr
--- replaced obj /usr/share/irssi/help/oper
--- replaced obj /usr/share/irssi/help/op
--- replaced obj /usr/share/irssi/help/notify
--- replaced obj /usr/share/irssi/help/notice
--- replaced obj /usr/share/irssi/help/nick
--- replaced obj /usr/share/irssi/help/network
--- replaced obj /usr/share/irssi/help/netsplit
--- replaced obj /usr/share/irssi/help/nctcp
--- replaced obj /usr/share/irssi/help/names
--- replaced obj /usr/share/irssi/help/msg
--- replaced obj /usr/share/irssi/help/motd
--- replaced obj /usr/share/irssi/help/mode
--- replaced obj /usr/share/irssi/help/mircdcc
--- replaced obj /usr/share/irssi/help/me
--- replaced obj /usr/share/irssi/help/map
--- replaced obj /usr/share/irssi/help/lusers
--- replaced obj /usr/share/irssi/help/log
--- replaced obj /usr/share/irssi/help/load
--- replaced obj /usr/share/irssi/help/list
--- replaced obj /usr/share/irssi/help/links
--- replaced obj /usr/share/irssi/help/levels
--- replaced obj /usr/share/irssi/help/layout
--- replaced obj /usr/share/irssi/help/lastlog
--- replaced obj /usr/share/irssi/help/knockout
--- replaced obj /usr/share/irssi/help/knock
--- replaced obj /usr/share/irssi/help/kill
--- replaced obj /usr/share/irssi/help/kickban
--- replaced obj /usr/share/irssi/help/kick
--- replaced obj /usr/share/irssi/help/join
--- replaced obj /usr/share/irssi/help/ison
--- replaced obj /usr/share/irssi/help/irssiproxy
--- replaced obj /usr/share/irssi/help/invite
--- replaced obj /usr/share/irssi/help/info
--- replaced obj /usr/share/irssi/help/ignore
--- replaced obj /usr/share/irssi/help/hilight
--- replaced obj /usr/share/irssi/help/help
--- replaced obj /usr/share/irssi/help/hash
--- replaced obj /usr/share/irssi/help/format
--- replaced obj /usr/share/irssi/help/flushbuffer
--- replaced obj /usr/share/irssi/help/exec
--- replaced obj /usr/share/irssi/help/eval
--- replaced obj /usr/share/irssi/help/echo
--- replaced obj /usr/share/irssi/help/disconnect
--- replaced obj /usr/share/irssi/help/die
--- replaced obj /usr/share/irssi/help/devoice
--- replaced obj /usr/share/irssi/help/deop
--- replaced obj /usr/share/irssi/help/dehilight
--- replaced obj /usr/share/irssi/help/dcc
--- replaced obj /usr/share/irssi/help/cycle
--- replaced obj /usr/share/irssi/help/ctcp
--- replaced obj /usr/share/irssi/help/connect
--- replaced obj /usr/share/irssi/help/completion
--- replaced obj /usr/share/irssi/help/clear
--- replaced obj /usr/share/irssi/help/channel
--- replaced obj /usr/share/irssi/help/cd
--- replaced obj /usr/share/irssi/help/cat
--- replaced obj /usr/share/irssi/help/bind
--- replaced obj /usr/share/irssi/help/beep
--- replaced obj /usr/share/irssi/help/ban
--- replaced obj /usr/share/irssi/help/away
--- replaced obj /usr/share/irssi/help/alias
--- replaced obj /usr/share/irssi/help/admin
--- replaced obj /usr/share/irssi/help/action
--- replaced obj /usr/share/irssi/help/accept
--- replaced dir /usr/share/irssi/help
--- replaced dir /usr/share/irssi
--- replaced dir /usr/share
--- replaced obj /usr/lib64/perl5/vendor_perl/5.30.3/x86_64-linux-thread-multi/auto/Irssi/UI/UI.so
--- replaced obj /usr/lib64/perl5/vendor_perl/5.30.3/x86_64-linux-thread-multi/auto/Irssi/UI/.packlist
--- replaced dir /usr/lib64/perl5/vendor_perl/5.30.3/x86_64-linux-thread-multi/auto/Irssi/UI
--- replaced obj /usr/lib64/perl5/vendor_perl/5.30.3/x86_64-linux-thread-multi/auto/Irssi/TextUI/TextUI.so
--- replaced obj /usr/lib64/perl5/vendor_perl/5.30.3/x86_64-linux-thread-multi/auto/Irssi/TextUI/.packlist
--- replaced dir /usr/lib64/perl5/vendor_perl/5.30.3/x86_64-linux-thread-multi/auto/Irssi/TextUI
--- replaced obj /usr/lib64/perl5/vendor_perl/5.30.3/x86_64-linux-thread-multi/auto/Irssi/Irssi.so
--- replaced obj /usr/lib64/perl5/vendor_perl/5.30.3/x86_64-linux-thread-multi/auto/Irssi/Irc/Irc.so
--- replaced obj /usr/lib64/perl5/vendor_perl/5.30.3/x86_64-linux-thread-multi/auto/Irssi/Irc/.packlist
--- replaced dir /usr/lib64/perl5/vendor_perl/5.30.3/x86_64-linux-thread-multi/auto/Irssi/Irc
--- replaced obj /usr/lib64/perl5/vendor_perl/5.30.3/x86_64-linux-thread-multi/auto/Irssi/.packlist
--- replaced dir /usr/lib64/perl5/vendor_perl/5.30.3/x86_64-linux-thread-multi/auto/Irssi
--- replaced dir /usr/lib64/perl5/vendor_perl/5.30.3/x86_64-linux-thread-multi/auto
--- replaced obj /usr/lib64/perl5/vendor_perl/5.30.3/x86_64-linux-thread-multi/Irssi/UI.pm
--- replaced obj /usr/lib64/perl5/vendor_perl/5.30.3/x86_64-linux-thread-multi/Irssi/TextUI.pm
--- replaced obj /usr/lib64/perl5/vendor_perl/5.30.3/x86_64-linux-thread-multi/Irssi/Irc.pm
--- replaced obj /usr/lib64/perl5/vendor_perl/5.30.3/x86_64-linux-thread-multi/Irssi.pm
--- replaced dir /usr/lib64/perl5/vendor_perl/5.30.3/x86_64-linux-thread-multi/Irssi
--- replaced dir /usr/lib64/perl5/vendor_perl/5.30.3/x86_64-linux-thread-multi
--- replaced dir /usr/lib64/perl5/vendor_perl/5.30.3
--- replaced dir /usr/lib64/perl5/vendor_perl
--- replaced dir /usr/lib64/perl5
--- replaced obj /usr/lib64/irssi/modules/libirc_proxy.so
--- replaced dir /usr/lib64/irssi/modules
--- replaced dir /usr/lib64/irssi
--- replaced dir /usr/lib64
--- replaced obj /usr/include/irssi/src/lib-config/module.h
--- replaced obj /usr/include/irssi/src/lib-config/iconfig.h
--- replaced dir /usr/include/irssi/src/lib-config
--- replaced obj /usr/include/irssi/src/irc/notifylist/notifylist.h
--- replaced obj /usr/include/irssi/src/irc/notifylist/notify-setup.h
--- replaced obj /usr/include/irssi/src/irc/notifylist/module.h
--- replaced dir /usr/include/irssi/src/irc/notifylist
--- replaced obj /usr/include/irssi/src/irc/flood/module.h
--- replaced dir /usr/include/irssi/src/irc/flood
--- replaced obj /usr/include/irssi/src/irc/dcc/module.h
--- replaced obj /usr/include/irssi/src/irc/dcc/dcc.h
--- replaced obj /usr/include/irssi/src/irc/dcc/dcc-server.h
--- replaced obj /usr/include/irssi/src/irc/dcc/dcc-send.h
--- replaced obj /usr/include/irssi/src/irc/dcc/dcc-rec.h
--- replaced obj /usr/include/irssi/src/irc/dcc/dcc-queue.h
--- replaced obj /usr/include/irssi/src/irc/dcc/dcc-get.h
--- replaced obj /usr/include/irssi/src/irc/dcc/dcc-file.h
--- replaced obj /usr/include/irssi/src/irc/dcc/dcc-file-rec.h
--- replaced obj /usr/include/irssi/src/irc/dcc/dcc-chat.h
--- replaced dir /usr/include/irssi/src/irc/dcc
--- replaced obj /usr/include/irssi/src/irc/core/servers-redirect.h
--- replaced obj /usr/include/irssi/src/irc/core/servers-idle.h
--- replaced obj /usr/include/irssi/src/irc/core/sasl.h
--- replaced obj /usr/include/irssi/src/irc/core/netsplit.h
--- replaced obj /usr/include/irssi/src/irc/core/module.h
--- replaced obj /usr/include/irssi/src/irc/core/modes.h
--- replaced obj /usr/include/irssi/src/irc/core/mode-lists.h
--- replaced obj /usr/include/irssi/src/irc/core/irc.h
--- replaced obj /usr/include/irssi/src/irc/core/irc-servers.h
--- replaced obj /usr/include/irssi/src/irc/core/irc-servers-setup.h
--- replaced obj /usr/include/irssi/src/irc/core/irc-queries.h
--- replaced obj /usr/include/irssi/src/irc/core/irc-nicklist.h
--- replaced obj /usr/include/irssi/src/irc/core/irc-masks.h
--- replaced obj /usr/include/irssi/src/irc/core/irc-commands.h
--- replaced obj /usr/include/irssi/src/irc/core/irc-chatnets.h
--- replaced obj /usr/include/irssi/src/irc/core/irc-channels.h
--- replaced obj /usr/include/irssi/src/irc/core/irc-cap.h
--- replaced obj /usr/include/irssi/src/irc/core/ctcp.h
--- replaced obj /usr/include/irssi/src/irc/core/channel-rejoin.h
--- replaced obj /usr/include/irssi/src/irc/core/channel-events.h
--- replaced obj /usr/include/irssi/src/irc/core/bans.h
--- replaced dir /usr/include/irssi/src/irc/core
--- replaced dir /usr/include/irssi/src/irc
--- replaced obj /usr/include/irssi/src/fe-text/textbuffer.h
--- replaced obj /usr/include/irssi/src/fe-text/textbuffer-view.h
--- replaced obj /usr/include/irssi/src/fe-text/term.h
--- replaced obj /usr/include/irssi/src/fe-text/statusbar.h
--- replaced obj /usr/include/irssi/src/fe-text/statusbar-item.h
--- replaced obj /usr/include/irssi/src/fe-text/mainwindows.h
--- replaced obj /usr/include/irssi/src/fe-text/gui-windows.h
--- replaced obj /usr/include/irssi/src/fe-text/gui-printtext.h
--- replaced dir /usr/include/irssi/src/fe-text
--- replaced obj /usr/include/irssi/src/fe-common/irc/notifylist/module.h
--- replaced obj /usr/include/irssi/src/fe-common/irc/notifylist/module-formats.h
--- replaced dir /usr/include/irssi/src/fe-common/irc/notifylist
--- replaced obj /usr/include/irssi/src/fe-common/irc/module.h
--- replaced obj /usr/include/irssi/src/fe-common/irc/module-formats.h
--- replaced obj /usr/include/irssi/src/fe-common/irc/fe-irc-server.h
--- replaced obj /usr/include/irssi/src/fe-common/irc/fe-irc-channels.h
--- replaced obj /usr/include/irssi/src/fe-common/irc/dcc/module.h
--- replaced obj /usr/include/irssi/src/fe-common/irc/dcc/module-formats.h
--- replaced obj /usr/include/irssi/src/fe-common/irc/dcc/fe-dcc.h
--- replaced dir /usr/include/irssi/src/fe-common/irc/dcc
--- replaced dir /usr/include/irssi/src/fe-common/irc
--- replaced obj /usr/include/irssi/src/fe-common/core/windows-layout.h
--- replaced obj /usr/include/irssi/src/fe-common/core/window-items.h
--- replaced obj /usr/include/irssi/src/fe-common/core/window-activity.h
--- replaced obj /usr/include/irssi/src/fe-common/core/themes.h
--- replaced obj /usr/include/irssi/src/fe-common/core/printtext.h
--- replaced obj /usr/include/irssi/src/fe-common/core/module.h
--- replaced obj /usr/include/irssi/src/fe-common/core/module-formats.h
--- replaced obj /usr/include/irssi/src/fe-common/core/keyboard.h
--- replaced obj /usr/include/irssi/src/fe-common/core/hilight-text.h
--- replaced obj /usr/include/irssi/src/fe-common/core/formats.h
--- replaced obj /usr/include/irssi/src/fe-common/core/fe-windows.h
--- replaced obj /usr/include/irssi/src/fe-common/core/fe-tls.h
--- replaced obj /usr/include/irssi/src/fe-common/core/fe-settings.h
--- replaced obj /usr/include/irssi/src/fe-common/core/fe-recode.h
--- replaced obj /usr/include/irssi/src/fe-common/core/fe-queries.h
--- replaced obj /usr/include/irssi/src/fe-common/core/fe-messages.h
--- replaced obj /usr/include/irssi/src/fe-common/core/fe-exec.h
--- replaced obj /usr/include/irssi/src/fe-common/core/fe-core-commands.h
--- replaced obj /usr/include/irssi/src/fe-common/core/fe-common-core.h
--- replaced obj /usr/include/irssi/src/fe-common/core/fe-channels.h
--- replaced obj /usr/include/irssi/src/fe-common/core/fe-capsicum.h
--- replaced obj /usr/include/irssi/src/fe-common/core/completion.h
--- replaced obj /usr/include/irssi/src/fe-common/core/command-history.h
--- replaced obj /usr/include/irssi/src/fe-common/core/chat-completion.h
--- replaced dir /usr/include/irssi/src/fe-common/core
--- replaced dir /usr/include/irssi/src/fe-common
--- replaced obj /usr/include/irssi/src/core/write-buffer.h
--- replaced obj /usr/include/irssi/src/core/window-item-rec.h
--- replaced obj /usr/include/irssi/src/core/window-item-def.h
--- replaced obj /usr/include/irssi/src/core/utf8.h
--- replaced obj /usr/include/irssi/src/core/tls.h
--- replaced obj /usr/include/irssi/src/core/special-vars.h
--- replaced obj /usr/include/irssi/src/core/signals.h
--- replaced obj /usr/include/irssi/src/core/settings.h
--- replaced obj /usr/include/irssi/src/core/session.h
--- replaced obj /usr/include/irssi/src/core/servers.h
--- replaced obj /usr/include/irssi/src/core/servers-setup.h
--- replaced obj /usr/include/irssi/src/core/servers-reconnect.h
--- replaced obj /usr/include/irssi/src/core/server-setup-rec.h
--- replaced obj /usr/include/irssi/src/core/server-rec.h
--- replaced obj /usr/include/irssi/src/core/server-connect-rec.h
--- replaced obj /usr/include/irssi/src/core/recode.h
--- replaced obj /usr/include/irssi/src/core/rawlog.h
--- replaced obj /usr/include/irssi/src/core/query-rec.h
--- replaced obj /usr/include/irssi/src/core/queries.h
--- replaced obj /usr/include/irssi/src/core/pidwait.h
--- replaced obj /usr/include/irssi/src/core/nickmatch-cache.h
--- replaced obj /usr/include/irssi/src/core/nicklist.h
--- replaced obj /usr/include/irssi/src/core/nick-rec.h
--- replaced obj /usr/include/irssi/src/core/network.h
--- replaced obj /usr/include/irssi/src/core/network-openssl.h
--- replaced obj /usr/include/irssi/src/core/net-sendbuffer.h
--- replaced obj /usr/include/irssi/src/core/net-nonblock.h
--- replaced obj /usr/include/irssi/src/core/net-disconnect.h
--- replaced obj /usr/include/irssi/src/core/modules.h
--- replaced obj /usr/include/irssi/src/core/modules-load.h
--- replaced obj /usr/include/irssi/src/core/module.h
--- replaced obj /usr/include/irssi/src/core/misc.h
--- replaced obj /usr/include/irssi/src/core/masks.h
--- replaced obj /usr/include/irssi/src/core/log.h
--- replaced obj /usr/include/irssi/src/core/line-split.h
--- replaced obj /usr/include/irssi/src/core/levels.h
--- replaced obj /usr/include/irssi/src/core/iregex.h
--- replaced obj /usr/include/irssi/src/core/ignore.h
--- replaced obj /usr/include/irssi/src/core/expandos.h
--- replaced obj /usr/include/irssi/src/core/core.h
--- replaced obj /usr/include/irssi/src/core/commands.h
--- replaced obj /usr/include/irssi/src/core/chatnets.h
--- replaced obj /usr/include/irssi/src/core/chatnet-rec.h
--- replaced obj /usr/include/irssi/src/core/chat-protocols.h
--- replaced obj /usr/include/irssi/src/core/channels.h
--- replaced obj /usr/include/irssi/src/core/channels-setup.h
--- replaced obj /usr/include/irssi/src/core/channel-setup-rec.h
--- replaced obj /usr/include/irssi/src/core/channel-rec.h
--- replaced obj /usr/include/irssi/src/core/capsicum.h
--- replaced obj /usr/include/irssi/src/core/args.h
--- replaced dir /usr/include/irssi/src/core
--- replaced obj /usr/include/irssi/src/common.h
--- replaced dir /usr/include/irssi/src
--- replaced obj /usr/include/irssi/irssi-version.h
--- replaced obj /usr/include/irssi/irssi-config.h
--- replaced dir /usr/include/irssi
--- replaced dir /usr/include
--- replaced obj /usr/bin/irssi
--- replaced dir /usr/bin
--- replaced dir /usr
--- replaced obj /etc/irssi.conf
--- replaced dir /etc
>>> Regenerating /etc/ld.so.cache...
