No package files given... Grabbing a set.
--- replaced obj /var/lib/net-snmp/.keep_net-analyzer_net-snmp-0
--- replaced dir /var/lib/net-snmp
--- replaced dir /var/lib
--- replaced dir /var
--- replaced obj /usr/share/snmp/snmpconf-data/snmptrapd-data/traphandle
--- replaced obj /usr/share/snmp/snmpconf-data/snmptrapd-data/snmpconf-config
--- replaced obj /usr/share/snmp/snmpconf-data/snmptrapd-data/runtime
--- replaced obj /usr/share/snmp/snmpconf-data/snmptrapd-data/logging
--- replaced obj /usr/share/snmp/snmpconf-data/snmptrapd-data/formatting
--- replaced obj /usr/share/snmp/snmpconf-data/snmptrapd-data/authentication
--- replaced dir /usr/share/snmp/snmpconf-data/snmptrapd-data
--- replaced obj /usr/share/snmp/snmpconf-data/snmpd-data/trapsinks
--- replaced obj /usr/share/snmp/snmpconf-data/snmpd-data/system
--- replaced obj /usr/share/snmp/snmpconf-data/snmpd-data/snmpconf-config
--- replaced obj /usr/share/snmp/snmpconf-data/snmpd-data/operation
--- replaced obj /usr/share/snmp/snmpconf-data/snmpd-data/monitor
--- replaced obj /usr/share/snmp/snmpconf-data/snmpd-data/extending
--- replaced obj /usr/share/snmp/snmpconf-data/snmpd-data/basic_setup
--- replaced obj /usr/share/snmp/snmpconf-data/snmpd-data/acl
--- replaced dir /usr/share/snmp/snmpconf-data/snmpd-data
--- replaced obj /usr/share/snmp/snmpconf-data/snmp-data/snmpconf-config
--- replaced obj /usr/share/snmp/snmpconf-data/snmp-data/output
--- replaced obj /usr/share/snmp/snmpconf-data/snmp-data/mibs
--- replaced obj /usr/share/snmp/snmpconf-data/snmp-data/debugging
--- replaced obj /usr/share/snmp/snmpconf-data/snmp-data/authopts
--- replaced dir /usr/share/snmp/snmpconf-data/snmp-data
--- replaced dir /usr/share/snmp/snmpconf-data
--- replaced obj /usr/share/snmp/mibs/UDP-MIB.txt
--- replaced obj /usr/share/snmp/mibs/UCD-SNMP-MIB.txt
--- replaced obj /usr/share/snmp/mibs/UCD-IPFWACC-MIB.txt
--- replaced obj /usr/share/snmp/mibs/UCD-DLMOD-MIB.txt
--- replaced obj /usr/share/snmp/mibs/UCD-DISKIO-MIB.txt
--- replaced obj /usr/share/snmp/mibs/UCD-DEMO-MIB.txt
--- replaced obj /usr/share/snmp/mibs/TUNNEL-MIB.txt
--- replaced obj /usr/share/snmp/mibs/TRANSPORT-ADDRESS-MIB.txt
--- replaced obj /usr/share/snmp/mibs/TCP-MIB.txt
--- replaced obj /usr/share/snmp/mibs/SNMPv2-TM.txt
--- replaced obj /usr/share/snmp/mibs/SNMPv2-TC.txt
--- replaced obj /usr/share/snmp/mibs/SNMPv2-SMI.txt
--- replaced obj /usr/share/snmp/mibs/SNMPv2-MIB.txt
--- replaced obj /usr/share/snmp/mibs/SNMPv2-CONF.txt
--- replaced obj /usr/share/snmp/mibs/SNMP-VIEW-BASED-ACM-MIB.txt
--- replaced obj /usr/share/snmp/mibs/SNMP-USM-HMAC-SHA2-MIB.txt
--- replaced obj /usr/share/snmp/mibs/SNMP-USM-DH-OBJECTS-MIB.txt
--- replaced obj /usr/share/snmp/mibs/SNMP-USM-AES-MIB.txt
--- replaced obj /usr/share/snmp/mibs/SNMP-USER-BASED-SM-MIB.txt
--- replaced obj /usr/share/snmp/mibs/SNMP-TSM-MIB.txt
--- replaced obj /usr/share/snmp/mibs/SNMP-TLS-TM-MIB.txt
--- replaced obj /usr/share/snmp/mibs/SNMP-TARGET-MIB.txt
--- replaced obj /usr/share/snmp/mibs/SNMP-PROXY-MIB.txt
--- replaced obj /usr/share/snmp/mibs/SNMP-NOTIFICATION-MIB.txt
--- replaced obj /usr/share/snmp/mibs/SNMP-MPD-MIB.txt
--- replaced obj /usr/share/snmp/mibs/SNMP-FRAMEWORK-MIB.txt
--- replaced obj /usr/share/snmp/mibs/SNMP-COMMUNITY-MIB.txt
--- replaced obj /usr/share/snmp/mibs/SMUX-MIB.txt
--- replaced obj /usr/share/snmp/mibs/SCTP-MIB.txt
--- replaced obj /usr/share/snmp/mibs/RMON-MIB.txt
--- replaced obj /usr/share/snmp/mibs/RFC1213-MIB.txt
--- replaced obj /usr/share/snmp/mibs/RFC1155-SMI.txt
--- replaced obj /usr/share/snmp/mibs/RFC-1215.txt
--- replaced obj /usr/share/snmp/mibs/NOTIFICATION-LOG-MIB.txt
--- replaced obj /usr/share/snmp/mibs/NETWORK-SERVICES-MIB.txt
--- replaced obj /usr/share/snmp/mibs/NET-SNMP-VACM-MIB.txt
--- replaced obj /usr/share/snmp/mibs/NET-SNMP-TC.txt
--- replaced obj /usr/share/snmp/mibs/NET-SNMP-PASS-MIB.txt
--- replaced obj /usr/share/snmp/mibs/NET-SNMP-MIB.txt
--- replaced obj /usr/share/snmp/mibs/NET-SNMP-EXTEND-MIB.txt
--- replaced obj /usr/share/snmp/mibs/NET-SNMP-EXAMPLES-MIB.txt
--- replaced obj /usr/share/snmp/mibs/NET-SNMP-AGENT-MIB.txt
--- replaced obj /usr/share/snmp/mibs/MTA-MIB.txt
--- replaced obj /usr/share/snmp/mibs/LM-SENSORS-MIB.txt
--- replaced obj /usr/share/snmp/mibs/IPV6-UDP-MIB.txt
--- replaced obj /usr/share/snmp/mibs/IPV6-TCP-MIB.txt
--- replaced obj /usr/share/snmp/mibs/IPV6-TC.txt
--- replaced obj /usr/share/snmp/mibs/IPV6-MIB.txt
--- replaced obj /usr/share/snmp/mibs/IPV6-ICMP-MIB.txt
--- replaced obj /usr/share/snmp/mibs/IPV6-FLOW-LABEL-MIB.txt
--- replaced obj /usr/share/snmp/mibs/IP-MIB.txt
--- replaced obj /usr/share/snmp/mibs/IP-FORWARD-MIB.txt
--- replaced obj /usr/share/snmp/mibs/INET-ADDRESS-MIB.txt
--- replaced obj /usr/share/snmp/mibs/IF-MIB.txt
--- replaced obj /usr/share/snmp/mibs/IF-INVERTED-STACK-MIB.txt
--- replaced obj /usr/share/snmp/mibs/IANAifType-MIB.txt
--- replaced obj /usr/share/snmp/mibs/IANA-RTPROTO-MIB.txt
--- replaced obj /usr/share/snmp/mibs/IANA-LANGUAGE-MIB.txt
--- replaced obj /usr/share/snmp/mibs/IANA-ADDRESS-FAMILY-NUMBERS-MIB.txt
--- replaced obj /usr/share/snmp/mibs/HOST-RESOURCES-TYPES.txt
--- replaced obj /usr/share/snmp/mibs/HOST-RESOURCES-MIB.txt
--- replaced obj /usr/share/snmp/mibs/HCNUM-TC.txt
--- replaced obj /usr/share/snmp/mibs/EtherLike-MIB.txt
--- replaced obj /usr/share/snmp/mibs/DISMAN-SCRIPT-MIB.txt
--- replaced obj /usr/share/snmp/mibs/DISMAN-SCHEDULE-MIB.txt
--- replaced obj /usr/share/snmp/mibs/DISMAN-EVENT-MIB.txt
--- replaced obj /usr/share/snmp/mibs/BRIDGE-MIB.txt
--- replaced obj /usr/share/snmp/mibs/AGENTX-MIB.txt
--- replaced dir /usr/share/snmp/mibs
--- replaced obj /usr/share/snmp/mib2c.table_data.conf
--- replaced obj /usr/share/snmp/mib2c.scalar.conf
--- replaced obj /usr/share/snmp/mib2c.raw-table.conf
--- replaced obj /usr/share/snmp/mib2c.org-mode.conf
--- replaced obj /usr/share/snmp/mib2c.old-api.conf
--- replaced obj /usr/share/snmp/mib2c.notify.conf
--- replaced obj /usr/share/snmp/mib2c.mfd.conf
--- replaced obj /usr/share/snmp/mib2c.iterate_access.conf
--- replaced obj /usr/share/snmp/mib2c.iterate.conf
--- replaced obj /usr/share/snmp/mib2c.int_watch.conf
--- replaced obj /usr/share/snmp/mib2c.genhtml.conf
--- replaced obj /usr/share/snmp/mib2c.create-dataset.conf
--- replaced obj /usr/share/snmp/mib2c.container.conf
--- replaced obj /usr/share/snmp/mib2c.conf
--- replaced obj /usr/share/snmp/mib2c.column_storage.conf
--- replaced obj /usr/share/snmp/mib2c.column_enums.conf
--- replaced obj /usr/share/snmp/mib2c.column_defines.conf
--- replaced obj /usr/share/snmp/mib2c.check_values_local.conf
--- replaced obj /usr/share/snmp/mib2c.check_values.conf
--- replaced obj /usr/share/snmp/mib2c.array-user.conf
--- replaced obj /usr/share/snmp/mib2c.access_functions.conf
--- replaced obj /usr/share/snmp/mib2c-data/syntax-TestAndIncr-get.m2i
--- replaced obj /usr/share/snmp/mib2c-data/syntax-StorageType-dependencies.m2i
--- replaced obj /usr/share/snmp/mib2c-data/syntax-RowStatus-varbind-validate.m2i
--- replaced obj /usr/share/snmp/mib2c-data/syntax-RowStatus-get.m2i
--- replaced obj /usr/share/snmp/mib2c-data/syntax-RowStatus-dependencies.m2i
--- replaced obj /usr/share/snmp/mib2c-data/syntax-InetAddressType-set.m2i
--- replaced obj /usr/share/snmp/mib2c-data/syntax-InetAddressType-get.m2i
--- replaced obj /usr/share/snmp/mib2c-data/syntax-InetAddress-set.m2i
--- replaced obj /usr/share/snmp/mib2c-data/syntax-InetAddress-get.m2i
--- replaced obj /usr/share/snmp/mib2c-data/syntax-DateAndTime-readme.m2i
--- replaced obj /usr/share/snmp/mib2c-data/syntax-DateAndTime-get.m2i
--- replaced obj /usr/share/snmp/mib2c-data/syntax-DateAndTime-get.m2d
--- replaced obj /usr/share/snmp/mib2c-data/syntax-COUNTER64-get.m2i
--- replaced obj /usr/share/snmp/mib2c-data/subagent.m2c
--- replaced obj /usr/share/snmp/mib2c-data/parent-set.m2i
--- replaced obj /usr/share/snmp/mib2c-data/parent-dependencies.m2i
--- replaced obj /usr/share/snmp/mib2c-data/node-varbind-validate.m2i
--- replaced obj /usr/share/snmp/mib2c-data/node-validate.m2i
--- replaced obj /usr/share/snmp/mib2c-data/node-storage.m2i
--- replaced obj /usr/share/snmp/mib2c-data/node-set.m2i
--- replaced obj /usr/share/snmp/mib2c-data/node-get.m2i
--- replaced obj /usr/share/snmp/mib2c-data/mfd-top.m2c
--- replaced obj /usr/share/snmp/mib2c-data/mfd-readme.m2c
--- replaced obj /usr/share/snmp/mib2c-data/mfd-persistence.m2i
--- replaced obj /usr/share/snmp/mib2c-data/mfd-makefile.m2m
--- replaced obj /usr/share/snmp/mib2c-data/mfd-interface.m2c
--- replaced obj /usr/share/snmp/mib2c-data/mfd-interactive-setup.m2c
--- replaced obj /usr/share/snmp/mib2c-data/mfd-doxygen.m2c
--- replaced obj /usr/share/snmp/mib2c-data/mfd-data-set.m2c
--- replaced obj /usr/share/snmp/mib2c-data/mfd-data-get.m2c
--- replaced obj /usr/share/snmp/mib2c-data/mfd-data-access.m2c
--- replaced obj /usr/share/snmp/mib2c-data/mfd-access-unsorted-external-defines.m2i
--- replaced obj /usr/share/snmp/mib2c-data/mfd-access-container-cached-defines.m2i
--- replaced obj /usr/share/snmp/mib2c-data/m2c_table_save_defaults.m2i
--- replaced obj /usr/share/snmp/mib2c-data/m2c_setup_table.m2i
--- replaced obj /usr/share/snmp/mib2c-data/m2c_setup_node.m2i
--- replaced obj /usr/share/snmp/mib2c-data/m2c_setup_enum.m2i
--- replaced obj /usr/share/snmp/mib2c-data/m2c-internal-warning.m2i
--- replaced obj /usr/share/snmp/mib2c-data/generic-value-map.m2i
--- replaced obj /usr/share/snmp/mib2c-data/generic-value-map-reverse.m2i
--- replaced obj /usr/share/snmp/mib2c-data/generic-value-map-func.m2i
--- replaced obj /usr/share/snmp/mib2c-data/generic-table-oids.m2c
--- replaced obj /usr/share/snmp/mib2c-data/generic-table-indexes.m2i
--- replaced obj /usr/share/snmp/mib2c-data/generic-table-indexes-varbind-setup.m2i
--- replaced obj /usr/share/snmp/mib2c-data/generic-table-indexes-to-oid.m2i
--- replaced obj /usr/share/snmp/mib2c-data/generic-table-indexes-set.m2i
--- replaced obj /usr/share/snmp/mib2c-data/generic-table-indexes-from-oid.m2i
--- replaced obj /usr/share/snmp/mib2c-data/generic-table-enums.m2c
--- replaced obj /usr/share/snmp/mib2c-data/generic-table-constants.m2c
--- replaced obj /usr/share/snmp/mib2c-data/generic-source-includes.m2i
--- replaced obj /usr/share/snmp/mib2c-data/generic-header-top.m2i
--- replaced obj /usr/share/snmp/mib2c-data/generic-header-bottom.m2i
--- replaced obj /usr/share/snmp/mib2c-data/generic-get-oid.m2i
--- replaced obj /usr/share/snmp/mib2c-data/generic-get-long.m2i
--- replaced obj /usr/share/snmp/mib2c-data/generic-get-decl.m2i
--- replaced obj /usr/share/snmp/mib2c-data/generic-get-decl-bot.m2i
--- replaced obj /usr/share/snmp/mib2c-data/generic-get-char.m2i
--- replaced obj /usr/share/snmp/mib2c-data/generic-get-U64.m2i
--- replaced obj /usr/share/snmp/mib2c-data/generic-data-context.m2i
--- replaced obj /usr/share/snmp/mib2c-data/generic-data-allocate.m2i
--- replaced obj /usr/share/snmp/mib2c-data/generic-ctx-set.m2i
--- replaced obj /usr/share/snmp/mib2c-data/generic-ctx-get.m2i
--- replaced obj /usr/share/snmp/mib2c-data/generic-ctx-copy.m2i
--- replaced obj /usr/share/snmp/mib2c-data/details-table.m2i
--- replaced obj /usr/share/snmp/mib2c-data/details-node.m2i
--- replaced obj /usr/share/snmp/mib2c-data/details-enums.m2i
--- replaced obj /usr/share/snmp/mib2c-data/default-mfd-top.m2c
--- replaced dir /usr/share/snmp/mib2c-data
--- replaced dir /usr/share/snmp
--- replaced obj /usr/share/man/man8/snmptrapd.8.bz2
--- replaced obj /usr/share/man/man8/snmpd.8.bz2
--- replaced dir /usr/share/man/man8
--- replaced obj /usr/share/man/man5/variables.5.bz2
--- replaced obj /usr/share/man/man5/snmptrapd.conf.5.bz2
--- replaced obj /usr/share/man/man5/snmpd.internal.5.bz2
--- replaced obj /usr/share/man/man5/snmpd.examples.5.bz2
--- replaced obj /usr/share/man/man5/snmpd.conf.5.bz2
--- replaced obj /usr/share/man/man5/snmp_config.5.bz2
--- replaced obj /usr/share/man/man5/snmp.conf.5.bz2
--- replaced obj /usr/share/man/man5/mib2c.conf.5.bz2
--- replaced dir /usr/share/man/man5
--- replaced obj /usr/share/man/man3/unregister_config_handler.3
--- replaced obj /usr/share/man/man3/unregister_app_config_handler.3
--- replaced obj /usr/share/man/man3/unregister_all_config_handlers.3
--- replaced obj /usr/share/man/man3/snprint_variable.3
--- replaced obj /usr/share/man/man3/snprint_value.3
--- replaced obj /usr/share/man/man3/snprint_objid.3
--- replaced obj /usr/share/man/man3/snprint_description.3
--- replaced obj /usr/share/man/man3/snmp_varlist_add_variable.3
--- replaced obj /usr/share/man/man3/snmp_timeout.3
--- replaced obj /usr/share/man/man3/snmp_synch_response.3
--- replaced obj /usr/share/man/man3/snmp_set_var_value.3
--- replaced obj /usr/share/man/man3/snmp_set_var_typed_value.3
--- replaced obj /usr/share/man/man3/snmp_set_var_typed_integer.3
--- replaced obj /usr/share/man/man3/snmp_set_var_objid.3
--- replaced obj /usr/share/man/man3/snmp_set_save_descriptions.3
--- replaced obj /usr/share/man/man3/snmp_set_mib_warnings.3
--- replaced obj /usr/share/man/man3/snmp_set_mib_errors.3
--- replaced obj /usr/share/man/man3/snmp_sess_timeout.3
--- replaced obj /usr/share/man/man3/snmp_sess_synch_response.3
--- replaced obj /usr/share/man/man3/snmp_sess_session.3
--- replaced obj /usr/share/man/man3/snmp_sess_send.3
--- replaced obj /usr/share/man/man3/snmp_sess_select_info.3
--- replaced obj /usr/share/man/man3/snmp_sess_read.3
--- replaced obj /usr/share/man/man3/snmp_sess_perror.3
--- replaced obj /usr/share/man/man3/snmp_sess_open.3
--- replaced obj /usr/share/man/man3/snmp_sess_init.3
--- replaced obj /usr/share/man/man3/snmp_sess_error.3
--- replaced obj /usr/share/man/man3/snmp_sess_close.3
--- replaced obj /usr/share/man/man3/snmp_sess_async_send.3
--- replaced obj /usr/share/man/man3/snmp_send.3
--- replaced obj /usr/share/man/man3/snmp_select_info.3
--- replaced obj /usr/share/man/man3/snmp_read.3
--- replaced obj /usr/share/man/man3/snmp_perror.3
--- replaced obj /usr/share/man/man3/snmp_pdu_create.3
--- replaced obj /usr/share/man/man3/snmp_pdu_add_variable.3
--- replaced obj /usr/share/man/man3/snmp_parse_oid.3
--- replaced obj /usr/share/man/man3/snmp_open.3
--- replaced obj /usr/share/man/man3/snmp_free_varbind.3
--- replaced obj /usr/share/man/man3/snmp_free_var.3
--- replaced obj /usr/share/man/man3/snmp_free_pdu.3
--- replaced obj /usr/share/man/man3/snmp_fix_pdu.3
--- replaced obj /usr/share/man/man3/snmp_error.3
--- replaced obj /usr/share/man/man3/snmp_close.3
--- replaced obj /usr/share/man/man3/snmp_clone_varbind.3
--- replaced obj /usr/share/man/man3/snmp_clone_pdu.3
--- replaced obj /usr/share/man/man3/snmp_async_send.3
--- replaced obj /usr/share/man/man3/snmp_api_errstring.3
--- replaced obj /usr/share/man/man3/snmp_alarm_unregister.3
--- replaced obj /usr/share/man/man3/snmp_alarm_register_hr.3
--- replaced obj /usr/share/man/man3/snmp_alarm_register.3
--- replaced obj /usr/share/man/man3/snmp_alarm.3.bz2
--- replaced obj /usr/share/man/man3/snmp_add_null_var.3
--- replaced obj /usr/share/man/man3/shutdown_mib.3
--- replaced obj /usr/share/man/man3/send_v2trap.3
--- replaced obj /usr/share/man/man3/send_trap_vars.3
--- replaced obj /usr/share/man/man3/send_easy_trap.3
--- replaced obj /usr/share/man/man3/register_prenetsnmp_mib_handler.3
--- replaced obj /usr/share/man/man3/register_mib_handlers.3
--- replaced obj /usr/share/man/man3/register_const_config_handler.3
--- replaced obj /usr/share/man/man3/register_config_handler.3
--- replaced obj /usr/share/man/man3/register_app_prenetsnmp_mib_handler.3
--- replaced obj /usr/share/man/man3/register_app_config_handler.3
--- replaced obj /usr/share/man/man3/read_premib_configs.3
--- replaced obj /usr/share/man/man3/read_objid.3
--- replaced obj /usr/share/man/man3/read_mib.3
--- replaced obj /usr/share/man/man3/read_configs.3
--- replaced obj /usr/share/man/man3/read_config_print_usage.3
--- replaced obj /usr/share/man/man3/read_all_mibs.3
--- replaced obj /usr/share/man/man3/print_variable.3
--- replaced obj /usr/share/man/man3/print_value.3
--- replaced obj /usr/share/man/man3/print_objid.3
--- replaced obj /usr/share/man/man3/print_mib.3
--- replaced obj /usr/share/man/man3/print_description.3
--- replaced obj /usr/share/man/man3/netsnmp_varbind_api.3.bz2
--- replaced obj /usr/share/man/man3/netsnmp_trap_api.3.bz2
--- replaced obj /usr/share/man/man3/netsnmp_session_api.3.bz2
--- replaced obj /usr/share/man/man3/netsnmp_sess_api.3.bz2
--- replaced obj /usr/share/man/man3/netsnmp_read_module.3
--- replaced obj /usr/share/man/man3/netsnmp_pdu_api.3.bz2
--- replaced obj /usr/share/man/man3/netsnmp_mib_api.3.bz2
--- replaced obj /usr/share/man/man3/netsnmp_init_mib.3
--- replaced obj /usr/share/man/man3/netsnmp_config_api.3.bz2
--- replaced obj /usr/share/man/man3/netsnmp_agent_api.3.bz2
--- replaced obj /usr/share/man/man3/get_module_node.3
--- replaced obj /usr/share/man/man3/fprint_variable.3
--- replaced obj /usr/share/man/man3/fprint_value.3
--- replaced obj /usr/share/man/man3/fprint_objid.3
--- replaced obj /usr/share/man/man3/fprint_description.3
--- replaced obj /usr/share/man/man3/default_store.3.bz2
--- replaced obj /usr/share/man/man3/config_pwarn.3
--- replaced obj /usr/share/man/man3/config_perror.3
--- replaced obj /usr/share/man/man3/add_module_replacement.3
--- replaced obj /usr/share/man/man3/add_mibdir.3
--- replaced dir /usr/share/man/man3
--- replaced obj /usr/share/man/man1/traptoemail.1.bz2
--- replaced obj /usr/share/man/man1/tkmib.1.bz2
--- replaced obj /usr/share/man/man1/snmpwalk.1.bz2
--- replaced obj /usr/share/man/man1/snmpvacm.1.bz2
--- replaced obj /usr/share/man/man1/snmpusm.1.bz2
--- replaced obj /usr/share/man/man1/snmptrap.1.bz2
--- replaced obj /usr/share/man/man1/snmptranslate.1.bz2
--- replaced obj /usr/share/man/man1/snmptop.1
--- replaced obj /usr/share/man/man1/snmptest.1.bz2
--- replaced obj /usr/share/man/man1/snmptable.1.bz2
--- replaced obj /usr/share/man/man1/snmpstatus.1.bz2
--- replaced obj /usr/share/man/man1/snmpset.1.bz2
--- replaced obj /usr/share/man/man1/snmpps.1.bz2
--- replaced obj /usr/share/man/man1/snmpnetstat.1.bz2
--- replaced obj /usr/share/man/man1/snmpinform.1
--- replaced obj /usr/share/man/man1/snmpgetnext.1.bz2
--- replaced obj /usr/share/man/man1/snmpget.1.bz2
--- replaced obj /usr/share/man/man1/snmpdf.1.bz2
--- replaced obj /usr/share/man/man1/snmpdelta.1.bz2
--- replaced obj /usr/share/man/man1/snmpconf.1.bz2
--- replaced obj /usr/share/man/man1/snmpcmd.1.bz2
--- replaced obj /usr/share/man/man1/snmpbulkwalk.1.bz2
--- replaced obj /usr/share/man/man1/snmpbulkget.1.bz2
--- replaced obj /usr/share/man/man1/snmp-bridge-mib.1.bz2
--- replaced obj /usr/share/man/man1/net-snmp-create-v3-user.1.bz2
--- replaced obj /usr/share/man/man1/net-snmp-config.1.bz2
--- replaced obj /usr/share/man/man1/mib2c.1.bz2
--- replaced obj /usr/share/man/man1/mib2c-update.1.bz2
--- replaced obj /usr/share/man/man1/fixproc.1.bz2
--- replaced obj /usr/share/man/man1/encode_keychange.1.bz2
--- replaced obj /usr/share/man/man1/agentxtrap.1.bz2
--- replaced dir /usr/share/man/man1
--- replaced dir /usr/share/man
--- replaced dir /usr/share
--- replaced obj /usr/sbin/snmptrapd
--- replaced obj /usr/sbin/snmpd
--- replaced dir /usr/sbin
--- replaced obj /usr/lib64/pkgconfig/netsnmp.pc
--- replaced obj /usr/lib64/pkgconfig/netsnmp-agent.pc
--- replaced dir /usr/lib64/pkgconfig
--- replaced obj /usr/lib64/libnetsnmptrapd.so.35.0.1
--- replaced sym /usr/lib64/libnetsnmptrapd.so.35
--- replaced sym /usr/lib64/libnetsnmptrapd.so
--- replaced obj /usr/lib64/libnetsnmpmibs.so.35.0.1
--- replaced sym /usr/lib64/libnetsnmpmibs.so.35
--- replaced sym /usr/lib64/libnetsnmpmibs.so
--- replaced obj /usr/lib64/libnetsnmphelpers.so.35.0.1
--- replaced sym /usr/lib64/libnetsnmphelpers.so.35
--- replaced sym /usr/lib64/libnetsnmphelpers.so
--- replaced obj /usr/lib64/libnetsnmpagent.so.35.0.1
--- replaced sym /usr/lib64/libnetsnmpagent.so.35
--- replaced sym /usr/lib64/libnetsnmpagent.so
--- replaced obj /usr/lib64/libnetsnmp.so.35.0.1
--- replaced sym /usr/lib64/libnetsnmp.so.35
--- replaced sym /usr/lib64/libnetsnmp.so
--- replaced dir /usr/lib64
--- replaced obj /usr/include/net-snmp/version.h
--- replaced obj /usr/include/net-snmp/varbind_api.h
--- replaced obj /usr/include/net-snmp/utilities.h
--- replaced obj /usr/include/net-snmp/types.h
--- replaced obj /usr/include/net-snmp/system/ultrix4.h
--- replaced obj /usr/include/net-snmp/system/sysv.h
--- replaced obj /usr/include/net-snmp/system/svr5.h
--- replaced obj /usr/include/net-snmp/system/sunos.h
--- replaced obj /usr/include/net-snmp/system/solaris2.6.h
--- replaced obj /usr/include/net-snmp/system/solaris2.5.h
--- replaced obj /usr/include/net-snmp/system/solaris2.4.h
--- replaced obj /usr/include/net-snmp/system/solaris2.3.h
--- replaced obj /usr/include/net-snmp/system/solaris.h
--- replaced obj /usr/include/net-snmp/system/osf5.h
--- replaced obj /usr/include/net-snmp/system/openbsd6.h
--- replaced obj /usr/include/net-snmp/system/openbsd5.h
--- replaced obj /usr/include/net-snmp/system/openbsd4.h
--- replaced obj /usr/include/net-snmp/system/openbsd.h
--- replaced obj /usr/include/net-snmp/system/nto-qnx6.h
--- replaced obj /usr/include/net-snmp/system/netbsd.h
--- replaced obj /usr/include/net-snmp/system/mips.h
--- replaced obj /usr/include/net-snmp/system/mingw32msvc.h
--- replaced obj /usr/include/net-snmp/system/mingw32.h
--- replaced obj /usr/include/net-snmp/system/linux.h
--- replaced obj /usr/include/net-snmp/system/irix.h
--- replaced obj /usr/include/net-snmp/system/hpux.h
--- replaced obj /usr/include/net-snmp/system/generic.h
--- replaced obj /usr/include/net-snmp/system/freebsd9.h
--- replaced obj /usr/include/net-snmp/system/freebsd8.h
--- replaced obj /usr/include/net-snmp/system/freebsd7.h
--- replaced obj /usr/include/net-snmp/system/freebsd6.h
--- replaced obj /usr/include/net-snmp/system/freebsd5.h
--- replaced obj /usr/include/net-snmp/system/freebsd4.h
--- replaced obj /usr/include/net-snmp/system/freebsd3.h
--- replaced obj /usr/include/net-snmp/system/freebsd2.h
--- replaced obj /usr/include/net-snmp/system/freebsd14.h
--- replaced obj /usr/include/net-snmp/system/freebsd13.h
--- replaced obj /usr/include/net-snmp/system/freebsd12.h
--- replaced obj /usr/include/net-snmp/system/freebsd11.h
--- replaced obj /usr/include/net-snmp/system/freebsd10.h
--- replaced obj /usr/include/net-snmp/system/freebsd.h
--- replaced obj /usr/include/net-snmp/system/dynix.h
--- replaced obj /usr/include/net-snmp/system/dragonfly.h
--- replaced obj /usr/include/net-snmp/system/darwin9.h
--- replaced obj /usr/include/net-snmp/system/darwin8.h
--- replaced obj /usr/include/net-snmp/system/darwin7.h
--- replaced obj /usr/include/net-snmp/system/darwin17.h
--- replaced obj /usr/include/net-snmp/system/darwin16.h
--- replaced obj /usr/include/net-snmp/system/darwin15.h
--- replaced obj /usr/include/net-snmp/system/darwin14.h
--- replaced obj /usr/include/net-snmp/system/darwin13.h
--- replaced obj /usr/include/net-snmp/system/darwin12.h
--- replaced obj /usr/include/net-snmp/system/darwin11.h
--- replaced obj /usr/include/net-snmp/system/darwin10.h
--- replaced obj /usr/include/net-snmp/system/darwin.h
--- replaced obj /usr/include/net-snmp/system/cygwin.h
--- replaced obj /usr/include/net-snmp/system/bsdi4.h
--- replaced obj /usr/include/net-snmp/system/bsdi3.h
--- replaced obj /usr/include/net-snmp/system/bsdi.h
--- replaced obj /usr/include/net-snmp/system/bsd.h
--- replaced obj /usr/include/net-snmp/system/aix.h
--- replaced dir /usr/include/net-snmp/system
--- replaced obj /usr/include/net-snmp/snmpv3_api.h
--- replaced obj /usr/include/net-snmp/session_api.h
--- replaced obj /usr/include/net-snmp/pdu_api.h
--- replaced obj /usr/include/net-snmp/output_api.h
--- replaced obj /usr/include/net-snmp/net-snmp-includes.h
--- replaced obj /usr/include/net-snmp/net-snmp-features.h
--- replaced obj /usr/include/net-snmp/net-snmp-config.h
--- replaced obj /usr/include/net-snmp/mib_api.h
--- replaced obj /usr/include/net-snmp/machine/generic.h
--- replaced dir /usr/include/net-snmp/machine
--- replaced obj /usr/include/net-snmp/library/winservice.h
--- replaced obj /usr/include/net-snmp/library/winpipe.h
--- replaced obj /usr/include/net-snmp/library/vacm.h
--- replaced obj /usr/include/net-snmp/library/ucd_compat.h
--- replaced obj /usr/include/net-snmp/library/types.h
--- replaced obj /usr/include/net-snmp/library/transform_oids.h
--- replaced obj /usr/include/net-snmp/library/tools.h
--- replaced obj /usr/include/net-snmp/library/text_utils.h
--- replaced obj /usr/include/net-snmp/library/system.h
--- replaced obj /usr/include/net-snmp/library/snmpv3.h
--- replaced obj /usr/include/net-snmp/library/snmpv3-security-includes.h
--- replaced obj /usr/include/net-snmp/library/snmpusm.h
--- replaced obj /usr/include/net-snmp/library/snmp_transport.h
--- replaced obj /usr/include/net-snmp/library/snmp_service.h
--- replaced obj /usr/include/net-snmp/library/snmp_secmod.h
--- replaced obj /usr/include/net-snmp/library/snmp_parse_args.h
--- replaced obj /usr/include/net-snmp/library/snmp_logging.h
--- replaced obj /usr/include/net-snmp/library/snmp_impl.h
--- replaced obj /usr/include/net-snmp/library/snmp_enum.h
--- replaced obj /usr/include/net-snmp/library/snmp_debug.h
--- replaced obj /usr/include/net-snmp/library/snmp_client.h
--- replaced obj /usr/include/net-snmp/library/snmp_assert.h
--- replaced obj /usr/include/net-snmp/library/snmp_api.h
--- replaced obj /usr/include/net-snmp/library/snmp_alarm.h
--- replaced obj /usr/include/net-snmp/library/snmpUnixDomain.h
--- replaced obj /usr/include/net-snmp/library/snmpUDPIPv4BaseDomain.h
--- replaced obj /usr/include/net-snmp/library/snmpUDPDomain.h
--- replaced obj /usr/include/net-snmp/library/snmpUDPBaseDomain.h
--- replaced obj /usr/include/net-snmp/library/snmpTCPDomain.h
--- replaced obj /usr/include/net-snmp/library/snmpTCPBaseDomain.h
--- replaced obj /usr/include/net-snmp/library/snmpSocketBaseDomain.h
--- replaced obj /usr/include/net-snmp/library/snmpIPv4BaseDomain.h
--- replaced obj /usr/include/net-snmp/library/snmpIPBaseDomain.h
--- replaced obj /usr/include/net-snmp/library/snmpCallbackDomain.h
--- replaced obj /usr/include/net-snmp/library/snmpAliasDomain.h
--- replaced obj /usr/include/net-snmp/library/snmp.h
--- replaced obj /usr/include/net-snmp/library/snmp-tc.h
--- replaced obj /usr/include/net-snmp/library/scapi.h
--- replaced obj /usr/include/net-snmp/library/read_config.h
--- replaced obj /usr/include/net-snmp/library/parse.h
--- replaced obj /usr/include/net-snmp/library/oid_stash.h
--- replaced obj /usr/include/net-snmp/library/oid.h
--- replaced obj /usr/include/net-snmp/library/netsnmp-attribute-format.h
--- replaced obj /usr/include/net-snmp/library/mt_support.h
--- replaced obj /usr/include/net-snmp/library/mib.h
--- replaced obj /usr/include/net-snmp/library/md5.h
--- replaced obj /usr/include/net-snmp/library/lcd_time.h
--- replaced obj /usr/include/net-snmp/library/large_fd_set.h
--- replaced obj /usr/include/net-snmp/library/keytools.h
--- replaced obj /usr/include/net-snmp/library/int64.h
--- replaced obj /usr/include/net-snmp/library/getopt.h
--- replaced obj /usr/include/net-snmp/library/file_utils.h
--- replaced obj /usr/include/net-snmp/library/fd_event_manager.h
--- replaced obj /usr/include/net-snmp/library/factory.h
--- replaced obj /usr/include/net-snmp/library/dir_utils.h
--- replaced obj /usr/include/net-snmp/library/default_store.h
--- replaced obj /usr/include/net-snmp/library/data_list.h
--- replaced obj /usr/include/net-snmp/library/container_null.h
--- replaced obj /usr/include/net-snmp/library/container_list_ssll.h
--- replaced obj /usr/include/net-snmp/library/container_iterator.h
--- replaced obj /usr/include/net-snmp/library/container_binary_array.h
--- replaced obj /usr/include/net-snmp/library/container.h
--- replaced obj /usr/include/net-snmp/library/check_varbind.h
--- replaced obj /usr/include/net-snmp/library/cert_util.h
--- replaced obj /usr/include/net-snmp/library/callback.h
--- replaced obj /usr/include/net-snmp/library/asn1.h
--- replaced obj /usr/include/net-snmp/library/README
--- replaced dir /usr/include/net-snmp/library
--- replaced obj /usr/include/net-snmp/definitions.h
--- replaced obj /usr/include/net-snmp/config_api.h
--- replaced obj /usr/include/net-snmp/agent/watcher.h
--- replaced obj /usr/include/net-snmp/agent/var_struct.h
--- replaced obj /usr/include/net-snmp/agent/util_funcs/header_simple_table.h
--- replaced obj /usr/include/net-snmp/agent/util_funcs/header_generic.h
--- replaced obj /usr/include/net-snmp/agent/util_funcs/MIB_STATS_CACHE_TIMEOUT.h
--- replaced obj /usr/include/net-snmp/agent/util_funcs.h
--- replaced dir /usr/include/net-snmp/agent/util_funcs
--- replaced obj /usr/include/net-snmp/agent/table_tdata.h
--- replaced obj /usr/include/net-snmp/agent/table_iterator.h
--- replaced obj /usr/include/net-snmp/agent/table_dataset.h
--- replaced obj /usr/include/net-snmp/agent/table_data.h
--- replaced obj /usr/include/net-snmp/agent/table_container.h
--- replaced obj /usr/include/net-snmp/agent/table_array.h
--- replaced obj /usr/include/net-snmp/agent/table.h
--- replaced obj /usr/include/net-snmp/agent/sysORTable.h
--- replaced obj /usr/include/net-snmp/agent/struct.h
--- replaced obj /usr/include/net-snmp/agent/stash_to_next.h
--- replaced obj /usr/include/net-snmp/agent/stash_cache.h
--- replaced obj /usr/include/net-snmp/agent/snmp_vars.h
--- replaced obj /usr/include/net-snmp/agent/snmp_get_statistic.h
--- replaced obj /usr/include/net-snmp/agent/snmp_agent.h
--- replaced obj /usr/include/net-snmp/agent/set_helper.h
--- replaced obj /usr/include/net-snmp/agent/serialize.h
--- replaced obj /usr/include/net-snmp/agent/scalar_group.h
--- replaced obj /usr/include/net-snmp/agent/scalar.h
--- replaced obj /usr/include/net-snmp/agent/row_merge.h
--- replaced obj /usr/include/net-snmp/agent/read_only.h
--- replaced obj /usr/include/net-snmp/agent/old_api.h
--- replaced obj /usr/include/net-snmp/agent/null.h
--- replaced obj /usr/include/net-snmp/agent/netsnmp_close_fds.h
--- replaced obj /usr/include/net-snmp/agent/net-snmp-agent-includes.h
--- replaced obj /usr/include/net-snmp/agent/multiplexer.h
--- replaced obj /usr/include/net-snmp/agent/mode_end_call.h
--- replaced obj /usr/include/net-snmp/agent/mib_modules.h
--- replaced obj /usr/include/net-snmp/agent/mib_module_includes.h
--- replaced obj /usr/include/net-snmp/agent/mib_module_config.h
--- replaced obj /usr/include/net-snmp/agent/mfd.h
--- replaced obj /usr/include/net-snmp/agent/instance.h
--- replaced obj /usr/include/net-snmp/agent/ds_agent.h
--- replaced obj /usr/include/net-snmp/agent/debug_handler.h
--- replaced obj /usr/include/net-snmp/agent/cache_handler.h
--- replaced obj /usr/include/net-snmp/agent/bulk_to_next.h
--- replaced obj /usr/include/net-snmp/agent/baby_steps.h
--- replaced obj /usr/include/net-snmp/agent/auto_nlist.h
--- replaced obj /usr/include/net-snmp/agent/all_helpers.h
--- replaced obj /usr/include/net-snmp/agent/agent_trap.h
--- replaced obj /usr/include/net-snmp/agent/agent_sysORTable.h
--- replaced obj /usr/include/net-snmp/agent/agent_registry.h
--- replaced obj /usr/include/net-snmp/agent/agent_read_config.h
--- replaced obj /usr/include/net-snmp/agent/agent_module_config.h
--- replaced obj /usr/include/net-snmp/agent/agent_index.h
--- replaced obj /usr/include/net-snmp/agent/agent_handler.h
--- replaced obj /usr/include/net-snmp/agent/agent_callbacks.h
--- replaced dir /usr/include/net-snmp/agent
--- replaced dir /usr/include/net-snmp
--- replaced dir /usr/include
--- replaced obj /usr/bin/snmpwalk
--- replaced obj /usr/bin/snmpvacm
--- replaced obj /usr/bin/snmpusm
--- replaced obj /usr/bin/snmptrap
--- replaced obj /usr/bin/snmptranslate
--- replaced sym /usr/bin/snmptop
--- replaced obj /usr/bin/snmptest
--- replaced obj /usr/bin/snmptable
--- replaced obj /usr/bin/snmpstatus
--- replaced obj /usr/bin/snmpset
--- replaced obj /usr/bin/snmpps
--- replaced obj /usr/bin/snmpping
--- replaced obj /usr/bin/snmpnetstat
--- replaced sym /usr/bin/snmpinform
--- replaced obj /usr/bin/snmpgetnext
--- replaced obj /usr/bin/snmpget
--- replaced obj /usr/bin/snmpdf
--- replaced obj /usr/bin/snmpdelta
--- replaced obj /usr/bin/snmpbulkwalk
--- replaced obj /usr/bin/snmpbulkget
--- replaced obj /usr/bin/net-snmp-create-v3-user
--- replaced obj /usr/bin/net-snmp-config
--- replaced obj /usr/bin/mib2c-update
--- replaced obj /usr/bin/encode_keychange
--- replaced obj /usr/bin/checkbandwidth
--- replaced obj /usr/bin/agentxtrap
--- replaced dir /usr/bin
--- replaced dir /usr
--- replaced obj /lib/systemd/system/snmptrapd.service
--- replaced obj /lib/systemd/system/snmpd.service
--- replaced dir /lib/systemd/system
--- replaced dir /lib/systemd
--- replaced dir /lib
--- replaced obj /etc/snmp/snmpd.conf.example
--- replaced dir /etc/snmp
--- replaced obj /etc/init.d/snmptrapd
--- replaced obj /etc/init.d/snmpd
--- replaced dir /etc/init.d
--- replaced obj /etc/conf.d/snmptrapd
--- replaced obj /etc/conf.d/snmpd
--- replaced dir /etc/conf.d
--- replaced dir /etc
>>> Regenerating /etc/ld.so.cache...
