[32;01m * [39;49;00mPackage:    net-libs/webkit-gtk-2.28.2
[32;01m * [39;49;00mRepository: gentoo
[32;01m * [39;49;00mMaintainer: gnome@gentoo.org
[32;01m * [39;49;00mUSE:        X abi_x86_64 amd64 egl elibc_glibc geolocation gnome-keyring introspection jpeg2k jumbo-build kernel_linux libnotify opengl seccomp spell userland_GNU wayland
[32;01m * [39;49;00mFEATURES:   network-sandbox preserve-libs sandbox userpriv usersandbox
