No package files given... Grabbing a set.
--- replaced obj /var/lib/ntp/.keep_net-misc_ntp-0
--- replaced dir /var/lib/ntp
--- replaced dir /var/lib
--- replaced dir /var
--- replaced obj /usr/share/ntp/lib/NTP/Util.pm
--- replaced dir /usr/share/ntp/lib/NTP
--- replaced dir /usr/share/ntp/lib
--- replaced dir /usr/share/ntp
--- replaced obj /usr/share/man/man8/tickadj.8.bz2
--- replaced obj /usr/share/man/man8/ntptrace.8.bz2
--- replaced obj /usr/share/man/man8/ntptime.8.bz2
--- replaced obj /usr/share/man/man8/ntpq.8.bz2
--- replaced obj /usr/share/man/man8/ntpdsim.8.bz2
--- replaced obj /usr/share/man/man8/ntpdc.8.bz2
--- replaced obj /usr/share/man/man8/ntpdate.8.bz2
--- replaced obj /usr/share/man/man8/ntpd.8.bz2
--- replaced obj /usr/share/man/man8/keygen.8.bz2
--- replaced dir /usr/share/man/man8
--- replaced obj /usr/share/man/man5/ntp.keys.5.bz2
--- replaced obj /usr/share/man/man5/ntp.conf.5.bz2
--- replaced dir /usr/share/man/man5
--- replaced obj /usr/share/man/man1/update-leap.1.bz2
--- replaced obj /usr/share/man/man1/sntp.1.bz2
--- replaced obj /usr/share/man/man1/ntptrace.1.bz2
--- replaced obj /usr/share/man/man1/ntpq.1.bz2
--- replaced obj /usr/share/man/man1/ntpdc.1.bz2
--- replaced obj /usr/share/man/man1/ntpd.1.bz2
--- replaced obj /usr/share/man/man1/ntp-wait.1.bz2
--- replaced obj /usr/share/man/man1/ntp-keygen.1.bz2
--- replaced obj /usr/share/man/man1/calc_tickadj.1.bz2
--- replaced dir /usr/share/man/man1
--- replaced dir /usr/share/man
--- replaced dir /usr/share
--- replaced obj /usr/sbin/ntpdate
--- replaced obj /usr/sbin/ntpd
--- replaced dir /usr/sbin
--- replaced obj /usr/bin/update-leap
--- replaced obj /usr/bin/tickadj
--- replaced obj /usr/bin/sntp
--- replaced obj /usr/bin/ntptrace
--- replaced obj /usr/bin/ntptime
--- replaced obj /usr/bin/ntpq
--- replaced obj /usr/bin/ntpdc
--- replaced obj /usr/bin/ntp-wait
--- replaced obj /usr/bin/ntp-keygen
--- replaced obj /usr/bin/calc_tickadj
--- replaced dir /usr/bin
--- replaced dir /usr
--- replaced obj /lib/systemd/system/sntp.service
--- replaced obj /lib/systemd/system/ntpdate.service
--- replaced obj /lib/systemd/system/ntpd.service
--- replaced dir /lib/systemd/system
--- replaced obj /lib/systemd/ntp-units.d/60-ntpd.list
--- replaced dir /lib/systemd/ntp-units.d
--- replaced dir /lib/systemd
--- replaced dir /lib
--- replaced obj /etc/systemd/system/sntp.service.d/00gentoo.conf
--- replaced dir /etc/systemd/system/sntp.service.d
--- replaced obj /etc/systemd/system/ntpdate.service.d/00gentoo.conf
--- replaced dir /etc/systemd/system/ntpdate.service.d
--- replaced dir /etc/systemd/system
--- replaced dir /etc/systemd
--- replaced obj /etc/ntp.conf
--- replaced obj /etc/init.d/sntp
--- replaced obj /etc/init.d/ntpd
--- replaced obj /etc/init.d/ntp-client
--- replaced dir /etc/init.d
--- replaced obj /etc/conf.d/sntp
--- replaced obj /etc/conf.d/ntpd
--- replaced obj /etc/conf.d/ntp-client
--- replaced dir /etc/conf.d
--- replaced dir /etc
>>> Regenerating /etc/ld.so.cache...
