No package files given... Grabbing a set.
--- replaced obj /var/lib/openldap-data/DB_CONFIG.example
--- replaced obj /var/lib/openldap-data/.version-tag
--- replaced obj /var/lib/openldap-data/.keep_net-nds_openldap-0
--- replaced dir /var/lib/openldap-data
--- replaced dir /var/lib
--- replaced dir /var
--- replaced obj /usr/share/man/man8/slaptest.8.bz2
--- replaced obj /usr/share/man/man8/slapschema.8.bz2
--- replaced obj /usr/share/man/man8/slappasswd.8.bz2
--- replaced obj /usr/share/man/man8/slapindex.8.bz2
--- replaced obj /usr/share/man/man8/slapdn.8.bz2
--- replaced obj /usr/share/man/man8/slapd.8.bz2
--- replaced obj /usr/share/man/man8/slapcat.8.bz2
--- replaced obj /usr/share/man/man8/slapauth.8.bz2
--- replaced obj /usr/share/man/man8/slapadd.8.bz2
--- replaced obj /usr/share/man/man8/slapacl.8.bz2
--- replaced dir /usr/share/man/man8
--- replaced obj /usr/share/man/man5/slapo-valsort.5.bz2
--- replaced obj /usr/share/man/man5/slapo-unique.5.bz2
--- replaced obj /usr/share/man/man5/slapo-translucent.5.bz2
--- replaced obj /usr/share/man/man5/slapo-syncprov.5.bz2
--- replaced obj /usr/share/man/man5/slapo-sssvlv.5.bz2
--- replaced sym /usr/share/man/man5/slapo-sock.5.bz2
--- replaced obj /usr/share/man/man5/slapo-rwm.5.bz2
--- replaced obj /usr/share/man/man5/slapo-retcode.5.bz2
--- replaced obj /usr/share/man/man5/slapo-refint.5.bz2
--- replaced obj /usr/share/man/man5/slapo-ppolicy.5.bz2
--- replaced obj /usr/share/man/man5/slapo-pcache.5.bz2
--- replaced obj /usr/share/man/man5/slapo-pbind.5.bz2
--- replaced obj /usr/share/man/man5/slapo-nssov.5.bz2
--- replaced obj /usr/share/man/man5/slapo-nops.5.bz2
--- replaced obj /usr/share/man/man5/slapo-memberof.5.bz2
--- replaced obj /usr/share/man/man5/slapo-lastmod.5.bz2
--- replaced obj /usr/share/man/man5/slapo-lastbind.5.bz2
--- replaced obj /usr/share/man/man5/slapo-dynlist.5.bz2
--- replaced obj /usr/share/man/man5/slapo-dyngroup.5.bz2
--- replaced obj /usr/share/man/man5/slapo-dds.5.bz2
--- replaced obj /usr/share/man/man5/slapo-constraint.5.bz2
--- replaced obj /usr/share/man/man5/slapo-collect.5.bz2
--- replaced obj /usr/share/man/man5/slapo-cloak.5.bz2
--- replaced obj /usr/share/man/man5/slapo-chain.5.bz2
--- replaced obj /usr/share/man/man5/slapo-autogroup.5.bz2
--- replaced obj /usr/share/man/man5/slapo-auditlog.5.bz2
--- replaced obj /usr/share/man/man5/slapo-allop.5.bz2
--- replaced obj /usr/share/man/man5/slapo-accesslog.5.bz2
--- replaced obj /usr/share/man/man5/slapd.plugin.5.bz2
--- replaced obj /usr/share/man/man5/slapd.overlays.5.bz2
--- replaced obj /usr/share/man/man5/slapd.conf.5.bz2
--- replaced obj /usr/share/man/man5/slapd.backends.5.bz2
--- replaced obj /usr/share/man/man5/slapd.access.5.bz2
--- replaced obj /usr/share/man/man5/slapd-sql.5.bz2
--- replaced obj /usr/share/man/man5/slapd-sock.5.bz2
--- replaced obj /usr/share/man/man5/slapd-shell.5.bz2
--- replaced obj /usr/share/man/man5/slapd-relay.5.bz2
--- replaced obj /usr/share/man/man5/slapd-perl.5.bz2
--- replaced obj /usr/share/man/man5/slapd-passwd.5.bz2
--- replaced obj /usr/share/man/man5/slapd-null.5.bz2
--- replaced obj /usr/share/man/man5/slapd-ndb.5.bz2
--- replaced obj /usr/share/man/man5/slapd-monitor.5.bz2
--- replaced obj /usr/share/man/man5/slapd-meta.5.bz2
--- replaced obj /usr/share/man/man5/slapd-mdb.5.bz2
--- replaced obj /usr/share/man/man5/slapd-ldif.5.bz2
--- replaced obj /usr/share/man/man5/slapd-ldap.5.bz2
--- replaced sym /usr/share/man/man5/slapd-hdb.5.bz2
--- replaced obj /usr/share/man/man5/slapd-dnssrv.5.bz2
--- replaced obj /usr/share/man/man5/slapd-config.5.bz2
--- replaced obj /usr/share/man/man5/slapd-bdb.5.bz2
--- replaced obj /usr/share/man/man5/ldif.5.bz2
--- replaced obj /usr/share/man/man5/ldap.conf.5.bz2
--- replaced dir /usr/share/man/man5
--- replaced sym /usr/share/man/man3/ldap_value_free_len.3.bz2
--- replaced sym /usr/share/man/man3/ldap_value_free.3.bz2
--- replaced sym /usr/share/man/man3/ldap_url_parse.3.bz2
--- replaced obj /usr/share/man/man3/ldap_url.3.bz2
--- replaced sym /usr/share/man/man3/ldap_unbind_s.3.bz2
--- replaced sym /usr/share/man/man3/ldap_unbind_ext_s.3.bz2
--- replaced sym /usr/share/man/man3/ldap_unbind_ext.3.bz2
--- replaced sym /usr/share/man/man3/ldap_unbind.3.bz2
--- replaced sym /usr/share/man/man3/ldap_tls_inplace.3.bz2
--- replaced obj /usr/share/man/man3/ldap_tls.3.bz2
--- replaced sym /usr/share/man/man3/ldap_syntax_free.3.bz2
--- replaced sym /usr/share/man/man3/ldap_syntax2str.3.bz2
--- replaced sym /usr/share/man/man3/ldap_syntax2name.3.bz2
--- replaced obj /usr/share/man/man3/ldap_sync.3.bz2
--- replaced sym /usr/share/man/man3/ldap_strdup.3.bz2
--- replaced sym /usr/share/man/man3/ldap_str2syntax.3.bz2
--- replaced sym /usr/share/man/man3/ldap_str2objectclass.3.bz2
--- replaced sym /usr/share/man/man3/ldap_str2matchingrule.3.bz2
--- replaced sym /usr/share/man/man3/ldap_str2dn.3.bz2
--- replaced sym /usr/share/man/man3/ldap_str2attributetype.3.bz2
--- replaced sym /usr/share/man/man3/ldap_start_tls_s.3.bz2
--- replaced sym /usr/share/man/man3/ldap_start_tls.3.bz2
--- replaced sym /usr/share/man/man3/ldap_sort_values.3.bz2
--- replaced sym /usr/share/man/man3/ldap_sort_strcasecmp.3.bz2
--- replaced sym /usr/share/man/man3/ldap_sort_entries.3.bz2
--- replaced obj /usr/share/man/man3/ldap_sort.3.bz2
--- replaced sym /usr/share/man/man3/ldap_simple_bind_s.3.bz2
--- replaced sym /usr/share/man/man3/ldap_simple_bind.3.bz2
--- replaced sym /usr/share/man/man3/ldap_set_urllist_proc.3.bz2
--- replaced sym /usr/share/man/man3/ldap_set_rebind_proc.3.bz2
--- replaced sym /usr/share/man/man3/ldap_set_option.3.bz2
--- replaced sym /usr/share/man/man3/ldap_search_st.3.bz2
--- replaced sym /usr/share/man/man3/ldap_search_s.3.bz2
--- replaced sym /usr/share/man/man3/ldap_search_ext_s.3.bz2
--- replaced sym /usr/share/man/man3/ldap_search_ext.3.bz2
--- replaced obj /usr/share/man/man3/ldap_search.3.bz2
--- replaced sym /usr/share/man/man3/ldap_scherr2str.3.bz2
--- replaced obj /usr/share/man/man3/ldap_schema.3.bz2
--- replaced sym /usr/share/man/man3/ldap_sasl_bind_s.3.bz2
--- replaced sym /usr/share/man/man3/ldap_sasl_bind.3.bz2
--- replaced sym /usr/share/man/man3/ldap_result2error.3.bz2
--- replaced obj /usr/share/man/man3/ldap_result.3.bz2
--- replaced sym /usr/share/man/man3/ldap_rename_s.3.bz2
--- replaced obj /usr/share/man/man3/ldap_rename.3.bz2
--- replaced sym /usr/share/man/man3/ldap_perror.3.bz2
--- replaced obj /usr/share/man/man3/ldap_parse_vlv_control.3.bz2
--- replaced obj /usr/share/man/man3/ldap_parse_sort_control.3.bz2
--- replaced sym /usr/share/man/man3/ldap_parse_sasl_bind_result.3.bz2
--- replaced obj /usr/share/man/man3/ldap_parse_result.3.bz2
--- replaced obj /usr/share/man/man3/ldap_parse_reference.3.bz2
--- replaced sym /usr/share/man/man3/ldap_parse_extended_result.3.bz2
--- replaced obj /usr/share/man/man3/ldap_open.3.bz2
--- replaced sym /usr/share/man/man3/ldap_objectclass_free.3.bz2
--- replaced sym /usr/share/man/man3/ldap_objectclass2str.3.bz2
--- replaced sym /usr/share/man/man3/ldap_objectclass2name.3.bz2
--- replaced sym /usr/share/man/man3/ldap_next_reference.3.bz2
--- replaced sym /usr/share/man/man3/ldap_next_message.3.bz2
--- replaced sym /usr/share/man/man3/ldap_next_entry.3.bz2
--- replaced sym /usr/share/man/man3/ldap_next_attribute.3.bz2
--- replaced sym /usr/share/man/man3/ldap_msgtype.3.bz2
--- replaced sym /usr/share/man/man3/ldap_msgid.3.bz2
--- replaced sym /usr/share/man/man3/ldap_msgfree.3.bz2
--- replaced sym /usr/share/man/man3/ldap_mods_free.3.bz2
--- replaced sym /usr/share/man/man3/ldap_modrdn_s.3.bz2
--- replaced sym /usr/share/man/man3/ldap_modrdn2_s.3.bz2
--- replaced sym /usr/share/man/man3/ldap_modrdn2.3.bz2
--- replaced obj /usr/share/man/man3/ldap_modrdn.3.bz2
--- replaced sym /usr/share/man/man3/ldap_modify_s.3.bz2
--- replaced sym /usr/share/man/man3/ldap_modify_ext_s.3.bz2
--- replaced sym /usr/share/man/man3/ldap_modify_ext.3.bz2
--- replaced obj /usr/share/man/man3/ldap_modify.3.bz2
--- replaced sym /usr/share/man/man3/ldap_memvfree.3.bz2
--- replaced sym /usr/share/man/man3/ldap_memrealloc.3.bz2
--- replaced obj /usr/share/man/man3/ldap_memory.3.bz2
--- replaced sym /usr/share/man/man3/ldap_memfree.3.bz2
--- replaced sym /usr/share/man/man3/ldap_memcalloc.3.bz2
--- replaced sym /usr/share/man/man3/ldap_memalloc.3.bz2
--- replaced sym /usr/share/man/man3/ldap_matchingrule_free.3.bz2
--- replaced sym /usr/share/man/man3/ldap_matchingrule2str.3.bz2
--- replaced sym /usr/share/man/man3/ldap_matchingrule2name.3.bz2
--- replaced sym /usr/share/man/man3/ldap_is_ldap_url.3.bz2
--- replaced sym /usr/share/man/man3/ldap_install_tls.3.bz2
--- replaced sym /usr/share/man/man3/ldap_initialize.3.bz2
--- replaced sym /usr/share/man/man3/ldap_init_fd.3.bz2
--- replaced sym /usr/share/man/man3/ldap_init.3.bz2
--- replaced sym /usr/share/man/man3/ldap_get_values_len.3.bz2
--- replaced obj /usr/share/man/man3/ldap_get_values.3.bz2
--- replaced obj /usr/share/man/man3/ldap_get_option.3.bz2
--- replaced obj /usr/share/man/man3/ldap_get_dn.3.bz2
--- replaced sym /usr/share/man/man3/ldap_free_urldesc.3.bz2
--- replaced obj /usr/share/man/man3/ldap_first_reference.3.bz2
--- replaced obj /usr/share/man/man3/ldap_first_message.3.bz2
--- replaced obj /usr/share/man/man3/ldap_first_entry.3.bz2
--- replaced obj /usr/share/man/man3/ldap_first_attribute.3.bz2
--- replaced sym /usr/share/man/man3/ldap_extended_operation_s.3.bz2
--- replaced obj /usr/share/man/man3/ldap_extended_operation.3.bz2
--- replaced sym /usr/share/man/man3/ldap_explode_rdn.3.bz2
--- replaced sym /usr/share/man/man3/ldap_explode_dn.3.bz2
--- replaced obj /usr/share/man/man3/ldap_error.3.bz2
--- replaced sym /usr/share/man/man3/ldap_errlist.3.bz2
--- replaced sym /usr/share/man/man3/ldap_err2string.3.bz2
--- replaced obj /usr/share/man/man3/ldap_dup.3.bz2
--- replaced sym /usr/share/man/man3/ldap_dnfree.3.bz2
--- replaced sym /usr/share/man/man3/ldap_dn2ufn.3.bz2
--- replaced sym /usr/share/man/man3/ldap_dn2str.3.bz2
--- replaced sym /usr/share/man/man3/ldap_dn2dcedn.3.bz2
--- replaced sym /usr/share/man/man3/ldap_dn2ad_canonical.3.bz2
--- replaced sym /usr/share/man/man3/ldap_destroy.3.bz2
--- replaced sym /usr/share/man/man3/ldap_delete_s.3.bz2
--- replaced sym /usr/share/man/man3/ldap_delete_ext_s.3.bz2
--- replaced sym /usr/share/man/man3/ldap_delete_ext.3.bz2
--- replaced obj /usr/share/man/man3/ldap_delete.3.bz2
--- replaced sym /usr/share/man/man3/ldap_dcedn2dn.3.bz2
--- replaced sym /usr/share/man/man3/ldap_count_values_len.3.bz2
--- replaced sym /usr/share/man/man3/ldap_count_values.3.bz2
--- replaced sym /usr/share/man/man3/ldap_count_references.3.bz2
--- replaced sym /usr/share/man/man3/ldap_count_messages.3.bz2
--- replaced sym /usr/share/man/man3/ldap_count_entries.3.bz2
--- replaced sym /usr/share/man/man3/ldap_controls_free.3.bz2
--- replaced sym /usr/share/man/man3/ldap_controls_dup.3.bz2
--- replaced obj /usr/share/man/man3/ldap_controls.3.bz2
--- replaced sym /usr/share/man/man3/ldap_control_free.3.bz2
--- replaced sym /usr/share/man/man3/ldap_control_find.3.bz2
--- replaced sym /usr/share/man/man3/ldap_control_dup.3.bz2
--- replaced sym /usr/share/man/man3/ldap_control_create.3.bz2
--- replaced sym /usr/share/man/man3/ldap_compare_s.3.bz2
--- replaced sym /usr/share/man/man3/ldap_compare_ext_s.3.bz2
--- replaced sym /usr/share/man/man3/ldap_compare_ext.3.bz2
--- replaced obj /usr/share/man/man3/ldap_compare.3.bz2
--- replaced sym /usr/share/man/man3/ldap_bind_s.3.bz2
--- replaced obj /usr/share/man/man3/ldap_bind.3.bz2
--- replaced sym /usr/share/man/man3/ldap_attributetype_free.3.bz2
--- replaced sym /usr/share/man/man3/ldap_attributetype2str.3.bz2
--- replaced sym /usr/share/man/man3/ldap_attributetype2name.3.bz2
--- replaced sym /usr/share/man/man3/ldap_add_s.3.bz2
--- replaced sym /usr/share/man/man3/ldap_add_ext_s.3.bz2
--- replaced sym /usr/share/man/man3/ldap_add_ext.3.bz2
--- replaced obj /usr/share/man/man3/ldap_add.3.bz2
--- replaced sym /usr/share/man/man3/ldap_abandon_ext.3.bz2
--- replaced obj /usr/share/man/man3/ldap_abandon.3.bz2
--- replaced obj /usr/share/man/man3/ldap.3.bz2
--- replaced sym /usr/share/man/man3/ld_errno.3.bz2
--- replaced obj /usr/share/man/man3/lber-types.3.bz2
--- replaced obj /usr/share/man/man3/lber-sockbuf.3.bz2
--- replaced obj /usr/share/man/man3/lber-memory.3.bz2
--- replaced obj /usr/share/man/man3/lber-encode.3.bz2
--- replaced obj /usr/share/man/man3/lber-decode.3.bz2
--- replaced sym /usr/share/man/man3/ber_str2bv.3.bz2
--- replaced sym /usr/share/man/man3/ber_start_set.3.bz2
--- replaced sym /usr/share/man/man3/ber_skip_tag.3.bz2
--- replaced sym /usr/share/man/man3/ber_scanf.3.bz2
--- replaced sym /usr/share/man/man3/ber_put_string.3.bz2
--- replaced sym /usr/share/man/man3/ber_put_set.3.bz2
--- replaced sym /usr/share/man/man3/ber_put_seq.3.bz2
--- replaced sym /usr/share/man/man3/ber_put_ostring.3.bz2
--- replaced sym /usr/share/man/man3/ber_put_null.3.bz2
--- replaced sym /usr/share/man/man3/ber_put_int.3.bz2
--- replaced sym /usr/share/man/man3/ber_put_enum.3.bz2
--- replaced sym /usr/share/man/man3/ber_printf.3.bz2
--- replaced sym /usr/share/man/man3/ber_peek_tag.3.bz2
--- replaced sym /usr/share/man/man3/ber_next_element.3.bz2
--- replaced sym /usr/share/man/man3/ber_get_stringb.3.bz2
--- replaced sym /usr/share/man/man3/ber_get_stringa.3.bz2
--- replaced sym /usr/share/man/man3/ber_get_null.3.bz2
--- replaced sym /usr/share/man/man3/ber_get_next.3.bz2
--- replaced sym /usr/share/man/man3/ber_get_int.3.bz2
--- replaced sym /usr/share/man/man3/ber_get_enum.3.bz2
--- replaced sym /usr/share/man/man3/ber_get_boolean.3.bz2
--- replaced sym /usr/share/man/man3/ber_get_bitstring.3.bz2
--- replaced sym /usr/share/man/man3/ber_free.3.bz2
--- replaced sym /usr/share/man/man3/ber_flush.3.bz2
--- replaced sym /usr/share/man/man3/ber_first_element.3.bz2
--- replaced sym /usr/share/man/man3/ber_dupbv.3.bz2
--- replaced sym /usr/share/man/man3/ber_bvstrdup.3.bz2
--- replaced sym /usr/share/man/man3/ber_bvstr.3.bz2
--- replaced sym /usr/share/man/man3/ber_bvfree.3.bz2
--- replaced sym /usr/share/man/man3/ber_bvecfree.3.bz2
--- replaced sym /usr/share/man/man3/ber_bvecadd.3.bz2
--- replaced sym /usr/share/man/man3/ber_bvdup.3.bz2
--- replaced sym /usr/share/man/man3/ber_bvarray_free.3.bz2
--- replaced sym /usr/share/man/man3/ber_bvarray_add.3.bz2
--- replaced sym /usr/share/man/man3/ber_alloc_t.3.bz2
--- replaced dir /usr/share/man/man3
--- replaced obj /usr/share/man/man1/ldapwhoami.1.bz2
--- replaced obj /usr/share/man/man1/ldapurl.1.bz2
--- replaced obj /usr/share/man/man1/ldapsearch.1.bz2
--- replaced obj /usr/share/man/man1/ldappasswd.1.bz2
--- replaced obj /usr/share/man/man1/ldapmodrdn.1.bz2
--- replaced obj /usr/share/man/man1/ldapmodify.1.bz2
--- replaced obj /usr/share/man/man1/ldapexop.1.bz2
--- replaced obj /usr/share/man/man1/ldapdelete.1.bz2
--- replaced obj /usr/share/man/man1/ldapcompare.1.bz2
--- replaced sym /usr/share/man/man1/ldapadd.1.bz2
--- replaced dir /usr/share/man/man1
--- replaced dir /usr/share/man
--- replaced dir /usr/share
--- replaced obj /usr/sbin/statslog
--- replaced sym /usr/sbin/slaptest
--- replaced sym /usr/sbin/slapschema
--- replaced sym /usr/sbin/slappasswd
--- replaced sym /usr/sbin/slapindex
--- replaced sym /usr/sbin/slapdn
--- replaced sym /usr/sbin/slapcat
--- replaced sym /usr/sbin/slapauth
--- replaced sym /usr/sbin/slapadd
--- replaced sym /usr/sbin/slapacl
--- replaced dir /usr/sbin
--- replaced obj /usr/lib64/openldap/slapd
--- replaced obj /usr/lib64/openldap/openldap/trace.so.0.0.0
--- replaced sym /usr/lib64/openldap/openldap/trace.so.0
--- replaced sym /usr/lib64/openldap/openldap/trace.so
--- replaced obj /usr/lib64/openldap/openldap/pw-netscape.so.0.0.0
--- replaced sym /usr/lib64/openldap/openldap/pw-netscape.so.0
--- replaced sym /usr/lib64/openldap/openldap/pw-netscape.so
--- replaced obj /usr/lib64/openldap/openldap/overlay-allop.so.0.0.0
--- replaced sym /usr/lib64/openldap/openldap/overlay-allop.so.0
--- replaced sym /usr/lib64/openldap/openldap/overlay-allop.so
--- replaced obj /usr/lib64/openldap/openldap/noopsrch.so.0.0.0
--- replaced sym /usr/lib64/openldap/openldap/noopsrch.so.0
--- replaced sym /usr/lib64/openldap/openldap/noopsrch.so
--- replaced obj /usr/lib64/openldap/openldap/libaddrdnvalues-plugin.so
--- replaced obj /usr/lib64/openldap/openldap/lastmod.so.0.0.0
--- replaced sym /usr/lib64/openldap/openldap/lastmod.so.0
--- replaced sym /usr/lib64/openldap/openldap/lastmod.so
--- replaced obj /usr/lib64/openldap/openldap/lastbind.so.0.0.0
--- replaced sym /usr/lib64/openldap/openldap/lastbind.so.0
--- replaced sym /usr/lib64/openldap/openldap/lastbind.so
--- replaced obj /usr/lib64/openldap/openldap/dupent.so.0.0.0
--- replaced sym /usr/lib64/openldap/openldap/dupent.so.0
--- replaced sym /usr/lib64/openldap/openldap/dupent.so
--- replaced obj /usr/lib64/openldap/openldap/dsaschema-plugin.so.0.0.0
--- replaced sym /usr/lib64/openldap/openldap/dsaschema-plugin.so.0
--- replaced sym /usr/lib64/openldap/openldap/dsaschema-plugin.so
--- replaced obj /usr/lib64/openldap/openldap/denyop-overlay.so.0.0.0
--- replaced sym /usr/lib64/openldap/openldap/denyop-overlay.so.0
--- replaced sym /usr/lib64/openldap/openldap/denyop-overlay.so
--- replaced obj /usr/lib64/openldap/openldap/cloak.so.0.0.0
--- replaced sym /usr/lib64/openldap/openldap/cloak.so.0
--- replaced sym /usr/lib64/openldap/openldap/cloak.so
--- replaced sym /usr/lib64/openldap/openldap/back_sock.so
--- replaced obj /usr/lib64/openldap/openldap/back_sock-2.4.so.2.10.13
--- replaced sym /usr/lib64/openldap/openldap/back_sock-2.4.so.2
--- replaced sym /usr/lib64/openldap/openldap/back_shell.so
--- replaced obj /usr/lib64/openldap/openldap/back_shell-2.4.so.2.10.13
--- replaced sym /usr/lib64/openldap/openldap/back_shell-2.4.so.2
--- replaced sym /usr/lib64/openldap/openldap/back_relay.so
--- replaced obj /usr/lib64/openldap/openldap/back_relay-2.4.so.2.10.13
--- replaced sym /usr/lib64/openldap/openldap/back_relay-2.4.so.2
--- replaced sym /usr/lib64/openldap/openldap/back_passwd.so
--- replaced obj /usr/lib64/openldap/openldap/back_passwd-2.4.so.2.10.13
--- replaced sym /usr/lib64/openldap/openldap/back_passwd-2.4.so.2
--- replaced sym /usr/lib64/openldap/openldap/back_null.so
--- replaced obj /usr/lib64/openldap/openldap/back_null-2.4.so.2.10.13
--- replaced sym /usr/lib64/openldap/openldap/back_null-2.4.so.2
--- replaced sym /usr/lib64/openldap/openldap/back_monitor.so
--- replaced obj /usr/lib64/openldap/openldap/back_monitor-2.4.so.2.10.13
--- replaced sym /usr/lib64/openldap/openldap/back_monitor-2.4.so.2
--- replaced sym /usr/lib64/openldap/openldap/back_meta.so
--- replaced obj /usr/lib64/openldap/openldap/back_meta-2.4.so.2.10.13
--- replaced sym /usr/lib64/openldap/openldap/back_meta-2.4.so.2
--- replaced sym /usr/lib64/openldap/openldap/back_mdb.so
--- replaced obj /usr/lib64/openldap/openldap/back_mdb-2.4.so.2.10.13
--- replaced sym /usr/lib64/openldap/openldap/back_mdb-2.4.so.2
--- replaced sym /usr/lib64/openldap/openldap/back_ldap.so
--- replaced obj /usr/lib64/openldap/openldap/back_ldap-2.4.so.2.10.13
--- replaced sym /usr/lib64/openldap/openldap/back_ldap-2.4.so.2
--- replaced sym /usr/lib64/openldap/openldap/back_dnssrv.so
--- replaced obj /usr/lib64/openldap/openldap/back_dnssrv-2.4.so.2.10.13
--- replaced sym /usr/lib64/openldap/openldap/back_dnssrv-2.4.so.2
--- replaced obj /usr/lib64/openldap/openldap/autogroup.so.0.0.0
--- replaced sym /usr/lib64/openldap/openldap/autogroup.so.0
--- replaced sym /usr/lib64/openldap/openldap/autogroup.so
--- replaced obj /usr/lib64/openldap/openldap/allowed.so.0.0.0
--- replaced sym /usr/lib64/openldap/openldap/allowed.so.0
--- replaced sym /usr/lib64/openldap/openldap/allowed.so
--- replaced obj /usr/lib64/openldap/openldap/addpartial-overlay.so.0.0.0
--- replaced sym /usr/lib64/openldap/openldap/addpartial-overlay.so.0
--- replaced sym /usr/lib64/openldap/openldap/addpartial-overlay.so
--- replaced obj /usr/lib64/openldap/openldap/.keep_net-nds_openldap-0
--- replaced dir /usr/lib64/openldap/openldap
--- replaced dir /usr/lib64/openldap
--- replaced sym /usr/lib64/libslapi.so
--- replaced obj /usr/lib64/libslapi-2.4.so.2.10.13
--- replaced sym /usr/lib64/libslapi-2.4.so.2
--- replaced obj /usr/lib64/libldapcpp.so.0.0.0
--- replaced sym /usr/lib64/libldapcpp.so.0
--- replaced sym /usr/lib64/libldapcpp.so
--- replaced sym /usr/lib64/libldap_r.so
--- replaced obj /usr/lib64/libldap_r-2.4.so.2.10.13
--- replaced sym /usr/lib64/libldap_r-2.4.so.2
--- replaced sym /usr/lib64/libldap.so
--- replaced obj /usr/lib64/libldap-2.4.so.2.10.13
--- replaced sym /usr/lib64/libldap-2.4.so.2
--- replaced sym /usr/lib64/liblber.so
--- replaced obj /usr/lib64/liblber-2.4.so.2.10.13
--- replaced sym /usr/lib64/liblber-2.4.so.2
--- replaced dir /usr/lib64
--- replaced obj /usr/lib/tmpfiles.d/slapd.conf
--- replaced dir /usr/lib/tmpfiles.d
--- replaced dir /usr/lib
--- replaced obj /usr/include/x86_64-pc-linux-gnu/TlsOptions.h
--- replaced obj /usr/include/x86_64-pc-linux-gnu/StringList.h
--- replaced obj /usr/include/x86_64-pc-linux-gnu/SaslInteractionHandler.h
--- replaced obj /usr/include/x86_64-pc-linux-gnu/SaslInteraction.h
--- replaced obj /usr/include/x86_64-pc-linux-gnu/LdifWriter.h
--- replaced obj /usr/include/x86_64-pc-linux-gnu/LdifReader.h
--- replaced obj /usr/include/x86_64-pc-linux-gnu/LDAPUrlList.h
--- replaced obj /usr/include/x86_64-pc-linux-gnu/LDAPUrl.h
--- replaced obj /usr/include/x86_64-pc-linux-gnu/LDAPSearchResults.h
--- replaced obj /usr/include/x86_64-pc-linux-gnu/LDAPSearchResult.h
--- replaced obj /usr/include/x86_64-pc-linux-gnu/LDAPSearchReference.h
--- replaced obj /usr/include/x86_64-pc-linux-gnu/LDAPSchema.h
--- replaced obj /usr/include/x86_64-pc-linux-gnu/LDAPSaslBindResult.h
--- replaced obj /usr/include/x86_64-pc-linux-gnu/LDAPResult.h
--- replaced obj /usr/include/x86_64-pc-linux-gnu/LDAPReferenceList.h
--- replaced obj /usr/include/x86_64-pc-linux-gnu/LDAPRebindAuth.h
--- replaced obj /usr/include/x86_64-pc-linux-gnu/LDAPRebind.h
--- replaced obj /usr/include/x86_64-pc-linux-gnu/LDAPObjClass.h
--- replaced obj /usr/include/x86_64-pc-linux-gnu/LDAPModification.h
--- replaced obj /usr/include/x86_64-pc-linux-gnu/LDAPModList.h
--- replaced obj /usr/include/x86_64-pc-linux-gnu/LDAPMessageQueue.h
--- replaced obj /usr/include/x86_64-pc-linux-gnu/LDAPMessage.h
--- replaced obj /usr/include/x86_64-pc-linux-gnu/LDAPExtResult.h
--- replaced obj /usr/include/x86_64-pc-linux-gnu/LDAPException.h
--- replaced obj /usr/include/x86_64-pc-linux-gnu/LDAPEntryList.h
--- replaced obj /usr/include/x86_64-pc-linux-gnu/LDAPEntry.h
--- replaced obj /usr/include/x86_64-pc-linux-gnu/LDAPControlSet.h
--- replaced obj /usr/include/x86_64-pc-linux-gnu/LDAPControl.h
--- replaced obj /usr/include/x86_64-pc-linux-gnu/LDAPConstraints.h
--- replaced obj /usr/include/x86_64-pc-linux-gnu/LDAPConnection.h
--- replaced obj /usr/include/x86_64-pc-linux-gnu/LDAPAttributeList.h
--- replaced obj /usr/include/x86_64-pc-linux-gnu/LDAPAttribute.h
--- replaced obj /usr/include/x86_64-pc-linux-gnu/LDAPAttrType.h
--- replaced obj /usr/include/x86_64-pc-linux-gnu/LDAPAsynConnection.h
--- replaced dir /usr/include/x86_64-pc-linux-gnu
--- replaced obj /usr/include/slapi-plugin.h
--- replaced obj /usr/include/openldap.h
--- replaced obj /usr/include/ldif.h
--- replaced obj /usr/include/ldap_utf8.h
--- replaced obj /usr/include/ldap_schema.h
--- replaced obj /usr/include/ldap_features.h
--- replaced obj /usr/include/ldap_cdefs.h
--- replaced obj /usr/include/ldap.h
--- replaced obj /usr/include/lber_types.h
--- replaced obj /usr/include/lber.h
--- replaced obj /usr/include/TlsOptions.h
--- replaced obj /usr/include/StringList.h
--- replaced obj /usr/include/SaslInteractionHandler.h
--- replaced obj /usr/include/SaslInteraction.h
--- replaced obj /usr/include/LdifWriter.h
--- replaced obj /usr/include/LdifReader.h
--- replaced obj /usr/include/LDAPUrlList.h
--- replaced obj /usr/include/LDAPUrl.h
--- replaced obj /usr/include/LDAPSearchResults.h
--- replaced obj /usr/include/LDAPSearchResult.h
--- replaced obj /usr/include/LDAPSearchReference.h
--- replaced obj /usr/include/LDAPSchema.h
--- replaced obj /usr/include/LDAPSaslBindResult.h
--- replaced obj /usr/include/LDAPResult.h
--- replaced obj /usr/include/LDAPReferenceList.h
--- replaced obj /usr/include/LDAPRebindAuth.h
--- replaced obj /usr/include/LDAPRebind.h
--- replaced obj /usr/include/LDAPObjClass.h
--- replaced obj /usr/include/LDAPModification.h
--- replaced obj /usr/include/LDAPModList.h
--- replaced obj /usr/include/LDAPMessageQueue.h
--- replaced obj /usr/include/LDAPMessage.h
--- replaced obj /usr/include/LDAPExtResult.h
--- replaced obj /usr/include/LDAPException.h
--- replaced obj /usr/include/LDAPEntryList.h
--- replaced obj /usr/include/LDAPEntry.h
--- replaced obj /usr/include/LDAPControlSet.h
--- replaced obj /usr/include/LDAPControl.h
--- replaced obj /usr/include/LDAPConstraints.h
--- replaced obj /usr/include/LDAPConnection.h
--- replaced obj /usr/include/LDAPAttributeList.h
--- replaced obj /usr/include/LDAPAttribute.h
--- replaced obj /usr/include/LDAPAttrType.h
--- replaced obj /usr/include/LDAPAsynConnection.h
--- replaced dir /usr/include
--- replaced obj /usr/bin/ldapwhoami
--- replaced obj /usr/bin/ldapurl
--- replaced obj /usr/bin/ldapsearch
--- replaced obj /usr/bin/ldappasswd
--- replaced obj /usr/bin/ldapmodrdn
--- replaced obj /usr/bin/ldapmodify
--- replaced obj /usr/bin/ldapexop
--- replaced obj /usr/bin/ldapdelete
--- replaced obj /usr/bin/ldapcompare
--- replaced sym /usr/bin/ldapadd
--- replaced dir /usr/bin
--- replaced dir /usr
--- replaced obj /lib/systemd/system/slapd.service
--- replaced dir /lib/systemd/system
--- replaced dir /lib/systemd
--- replaced dir /lib
--- replaced obj /etc/systemd/system/slapd.service.d/00gentoo.conf
--- replaced dir /etc/systemd/system/slapd.service.d
--- replaced dir /etc/systemd/system
--- replaced dir /etc/systemd
--- replaced obj /etc/openldap/slapd.ldif.default
--- replaced obj /etc/openldap/slapd.ldif
--- replaced obj /etc/openldap/slapd.conf.default
--- replaced obj /etc/openldap/slapd.conf
--- replaced obj /etc/openldap/schema/rfc2307bis.schema
--- replaced obj /etc/openldap/schema/ppolicy.schema
--- replaced obj /etc/openldap/schema/ppolicy.ldif
--- replaced obj /etc/openldap/schema/pmi.schema
--- replaced obj /etc/openldap/schema/pmi.ldif
--- replaced obj /etc/openldap/schema/openldap.schema
--- replaced obj /etc/openldap/schema/openldap.ldif
--- replaced obj /etc/openldap/schema/nis.schema
--- replaced obj /etc/openldap/schema/nis.ldif
--- replaced obj /etc/openldap/schema/misc.schema
--- replaced obj /etc/openldap/schema/misc.ldif
--- replaced obj /etc/openldap/schema/java.schema
--- replaced obj /etc/openldap/schema/java.ldif
--- replaced obj /etc/openldap/schema/inetorgperson.schema
--- replaced obj /etc/openldap/schema/inetorgperson.ldif
--- replaced obj /etc/openldap/schema/dyngroup.schema
--- replaced obj /etc/openldap/schema/dyngroup.ldif
--- replaced obj /etc/openldap/schema/duaconf.schema
--- replaced obj /etc/openldap/schema/duaconf.ldif
--- replaced obj /etc/openldap/schema/cosine.schema
--- replaced obj /etc/openldap/schema/cosine.ldif
--- replaced obj /etc/openldap/schema/core.schema
--- replaced obj /etc/openldap/schema/core.ldif
--- replaced obj /etc/openldap/schema/corba.schema
--- replaced obj /etc/openldap/schema/corba.ldif
--- replaced obj /etc/openldap/schema/collective.schema
--- replaced obj /etc/openldap/schema/collective.ldif
--- replaced obj /etc/openldap/schema/README
--- replaced dir /etc/openldap/schema
--- replaced obj /etc/openldap/ldap.conf.default
--- replaced obj /etc/openldap/ldap.conf
--- replaced obj /etc/openldap/DB_CONFIG.example
--- replaced dir /etc/openldap
--- replaced obj /etc/init.d/slapd
--- replaced dir /etc/init.d
--- replaced obj /etc/conf.d/slapd
--- replaced dir /etc/conf.d
--- replaced dir /etc
<<<          dir /var/lib/run
>>> Regenerating /etc/ld.so.cache...
