 * Package:    net-mail/mailbase-1.5-r1
 * Repository: gentoo
 * Maintainer: eras@gentoo.org
 * USE:        abi_x86_64 amd64 elibc_glibc kernel_linux pam userland_GNU
 * FEATURES:   network-sandbox preserve-libs sandbox userpriv usersandbox
 * FEATURES='assume-digests binpkg-docompress binpkg-dostrip binpkg-logs binpkg-multi-instance buildpkg cgroup compress-index config-protect-if-modified distlocks downgrade-backup fixlafiles ipc-sandbox merge-sync multilib-strict network-sandbox news nodoc parallel-fetch parallel-install pid-sandbox preserve-libs qa-unresolved-soname-deps sandbox sfperms strict strict-keepdir unknown-features-warn unmerge-backup unmerge-logs unmerge-orphans userfetch userpriv usersandbox usersync xattr'
 * CFLAGS='-march=native -O3 -fgraphite-identity -floop-nest-optimize -fdevirtualize-at-ltrans -fipa-pta -fno-semantic-interposition -flto=12 -fno-plt -fno-math-errno -fno-trapping-math -fuse-linker-plugin -pipe -g0 -falign-functions=32 -Wl,-O1 -Wl,--as-needed -Wl,--hash-style=gnu,-z,norelro,--as-needed'
 * CXXFLAGS='-march=native -O3 -fgraphite-identity -floop-nest-optimize -fdevirtualize-at-ltrans -fipa-pta -fno-semantic-interposition -flto=12 -fno-plt -fno-math-errno -fno-trapping-math -fuse-linker-plugin -pipe -g0 -falign-functions=32 -Wl,-O1 -Wl,--as-needed -Wl,--hash-style=gnu,-z,norelro,--as-needed'
 * FFLAGS='-march=native -O3 -fgraphite-identity -floop-nest-optimize -fdevirtualize-at-ltrans -fipa-pta -fno-semantic-interposition -flto=12 -fno-plt -fno-math-errno -fno-trapping-math -fuse-linker-plugin -pipe -g0 -falign-functions=32 -Wl,-O1 -Wl,--as-needed -Wl,--hash-style=gnu,-z,norelro,--as-needed'
 * FCFLAGS='-march=native -O3 -fgraphite-identity -floop-nest-optimize -fdevirtualize-at-ltrans -fipa-pta -fno-semantic-interposition -flto=12 -fno-plt -fno-math-errno -fno-trapping-math -fuse-linker-plugin -pipe -g0 -falign-functions=32 -Wl,-O1 -Wl,--as-needed -Wl,--hash-style=gnu,-z,norelro,--as-needed'
 * F77FLAGS='-march=native -O3 -fgraphite-identity -floop-nest-optimize -fdevirtualize-at-ltrans -fipa-pta -fno-semantic-interposition -flto=12 -fno-plt -fno-math-errno -fno-trapping-math -fuse-linker-plugin -pipe -g0 -falign-functions=32 -Wl,-O1 -Wl,--as-needed -Wl,--hash-style=gnu,-z,norelro,--as-needed'
 * LDFLAGS='-Wl,-O1 -Wl,--as-needed -Wl,--hash-style=gnu,-z,norelro,--as-needed -march=native -O3 -fgraphite-identity -floop-nest-optimize -fdevirtualize-at-ltrans -fipa-pta -fno-semantic-interposition -flto=12 -fno-plt -fno-math-errno -fno-trapping-math -fuse-linker-plugin -pipe -g0 -falign-functions=32'
 * MAKEOPTS='-j12 -l12'
 * gcc (Gentoo 11.0.0_pre9999 p1, commit 584d52b088f9fcf78704b504c3f1f07e17c1cded) 11.0.0 20200523 (experimental)
 * g++ (Gentoo 11.0.0_pre9999 p1, commit 584d52b088f9fcf78704b504c3f1f07e17c1cded) 11.0.0 20200523 (experimental)
 * GNU ld (Gentoo 2.34 p4) 2.34.0
 * Linux ryzen.gnum.org 5.4.36 #1 SMP Thu Apr 30 04:38:28 UTC 2020 x86_64 AMD Ryzen 5 3600 6-Core Processor AuthenticAMD GNU/Linux
net-mail/mailbase: 8 seconds average for 7 merges
2020-05-16T15:27:52 >>> net-mail/mailbase: 6 seconds
2020-05-16T20:52:04 >>> net-mail/mailbase: 9 seconds
2020-05-20T01:45:52 >>> net-mail/mailbase: 4 seconds
2020-05-20T08:01:08 >>> net-mail/mailbase: 4 seconds
2020-05-23T11:35:27 >>> net-mail/mailbase: 10 seconds
2020-05-24T23:57:50 >>> net-mail/mailbase: 10 seconds
2020-05-25T18:48:21 >>> net-mail/mailbase: 14 seconds
]0;emerge 20:11:41 155|647 mailbase 00:11 (root@ryzen.gnum.org)kemerge 20:11:41 155|647 mailbase 00:11 (root@ryzen.gnum.org)\>>> Unpacking source...
>>> Source unpacked in /tmp/portage/net-mail/mailbase-1.5-r1/work
>>> Preparing source in /tmp/portage/net-mail/mailbase-1.5-r1/work ...
>>> Source prepared.
>>> Configuring source in /tmp/portage/net-mail/mailbase-1.5-r1/work ...
>>> Source configured.
>>> Compiling source in /tmp/portage/net-mail/mailbase-1.5-r1/work ...
>>> Source compiled.
>>> Test phase [not enabled]: net-mail/mailbase-1.5-r1

>>> Install net-mail/mailbase-1.5-r1 into /tmp/portage/net-mail/mailbase-1.5-r1/image
>>> Completed installing net-mail/mailbase-1.5-r1 into /tmp/portage/net-mail/mailbase-1.5-r1/image

 * Final size of build directory:  4 KiB
 * Final size of installed tree:  64 KiB

./
./usr/
./usr/share/
./usr/share/man/
./usr/share/man/man5/
./usr/share/man/man5/mailcap.5.bz2
./var/
./var/mail
./etc/
./etc/mail/
./etc/mail/aliases
./etc/pam.d/
./etc/pam.d/pops
./etc/pam.d/pop3s
./etc/pam.d/imap
./etc/pam.d/pop3
./etc/pam.d/pop
./etc/pam.d/imaps
./etc/pam.d/imap4
./etc/pam.d/imap4s
./etc/mailcap
>>> Done.
 * checking 12 files for package collisions
>>> Merging net-mail/mailbase-1.5-r1 to /
 * removing unneeded *.la files
--- /etc/
>>> /etc/mailcap
--- /etc/pam.d/
>>> /etc/pam.d/imap4s -> imap
>>> /etc/pam.d/imap4 -> imap
>>> /etc/pam.d/imaps -> imap
>>> /etc/pam.d/pop
>>> /etc/pam.d/pop3 -> pop
>>> /etc/pam.d/imap
>>> /etc/pam.d/pop3s -> pop
>>> /etc/pam.d/pops -> pop
--- /etc/mail/
>>> /etc/mail/aliases
--- /var/
>>> /var/mail -> spool/mail
--- /usr/
--- /usr/share/
--- /usr/share/man/
--- /usr/share/man/man5/
>>> /usr/share/man/man5/mailcap.5.bz2
>>> Safely unmerging already-installed instance...
>>> Original instance of package unmerged safely.
>>> net-mail/mailbase-1.5-r1 merged.
