No package files given... Grabbing a set.
--- replaced obj /usr/share/znc/webskins/ice/tmpl/Header.tmpl
--- replaced obj /usr/share/znc/webskins/ice/tmpl/FooterTag.tmpl
--- replaced dir /usr/share/znc/webskins/ice/tmpl
--- replaced obj /usr/share/znc/webskins/ice/pub/pagebg.gif
--- replaced obj /usr/share/znc/webskins/ice/pub/linkbg.jpg
--- replaced obj /usr/share/znc/webskins/ice/pub/ice.css
--- replaced obj /usr/share/znc/webskins/ice/pub/favicon.ico
--- replaced dir /usr/share/znc/webskins/ice/pub
--- replaced dir /usr/share/znc/webskins/ice
--- replaced obj /usr/share/znc/webskins/forest/tmpl/LowerBanner.tmpl
--- replaced obj /usr/share/znc/webskins/forest/tmpl/Header.tmpl
--- replaced obj /usr/share/znc/webskins/forest/tmpl/FooterTag.tmpl
--- replaced obj /usr/share/znc/webskins/forest/tmpl/Banner.tmpl
--- replaced dir /usr/share/znc/webskins/forest/tmpl
--- replaced obj /usr/share/znc/webskins/forest/pub/forest.css
--- replaced obj /usr/share/znc/webskins/forest/pub/forest-header.png
--- replaced obj /usr/share/znc/webskins/forest/pub/favicon.ico
--- replaced dir /usr/share/znc/webskins/forest/pub
--- replaced dir /usr/share/znc/webskins/forest
--- replaced obj /usr/share/znc/webskins/dark-clouds/tmpl/LowerBanner.tmpl
--- replaced obj /usr/share/znc/webskins/dark-clouds/tmpl/Header.tmpl
--- replaced obj /usr/share/znc/webskins/dark-clouds/tmpl/FooterTag.tmpl
--- replaced obj /usr/share/znc/webskins/dark-clouds/tmpl/Banner.tmpl
--- replaced dir /usr/share/znc/webskins/dark-clouds/tmpl
--- replaced obj /usr/share/znc/webskins/dark-clouds/pub/favicon.ico
--- replaced obj /usr/share/znc/webskins/dark-clouds/pub/dark-clouds.css
--- replaced obj /usr/share/znc/webskins/dark-clouds/pub/clouds-header.jpg
--- replaced dir /usr/share/znc/webskins/dark-clouds/pub
--- replaced dir /usr/share/znc/webskins/dark-clouds
--- replaced obj /usr/share/znc/webskins/_default_/tmpl/index.tmpl
--- replaced obj /usr/share/znc/webskins/_default_/tmpl/_csrf_check.tmpl
--- replaced obj /usr/share/znc/webskins/_default_/tmpl/Options.tmpl
--- replaced obj /usr/share/znc/webskins/_default_/tmpl/MessageBar.tmpl
--- replaced obj /usr/share/znc/webskins/_default_/tmpl/Menu.tmpl
--- replaced obj /usr/share/znc/webskins/_default_/tmpl/LowerBanner.tmpl
--- replaced obj /usr/share/znc/webskins/_default_/tmpl/LoginBar.tmpl
--- replaced obj /usr/share/znc/webskins/_default_/tmpl/InfoBar.tmpl
--- replaced obj /usr/share/znc/webskins/_default_/tmpl/Header.tmpl
--- replaced obj /usr/share/znc/webskins/_default_/tmpl/FooterTag.tmpl
--- replaced obj /usr/share/znc/webskins/_default_/tmpl/Footer.tmpl
--- replaced obj /usr/share/znc/webskins/_default_/tmpl/ExtraHeader.tmpl
--- replaced obj /usr/share/znc/webskins/_default_/tmpl/Error.tmpl
--- replaced obj /usr/share/znc/webskins/_default_/tmpl/DocType.tmpl
--- replaced obj /usr/share/znc/webskins/_default_/tmpl/BreadCrumbs.tmpl
--- replaced obj /usr/share/znc/webskins/_default_/tmpl/BaseHeader.tmpl
--- replaced obj /usr/share/znc/webskins/_default_/tmpl/Banner.tmpl
--- replaced dir /usr/share/znc/webskins/_default_/tmpl
--- replaced obj /usr/share/znc/webskins/_default_/pub/selectize-standalone-0.12.1.min.js
--- replaced obj /usr/share/znc/webskins/_default_/pub/selectize-standalone-0.12.1.js
--- replaced obj /usr/share/znc/webskins/_default_/pub/selectize-0.12.1.css
--- replaced obj /usr/share/znc/webskins/_default_/pub/robots.txt
--- replaced obj /usr/share/znc/webskins/_default_/pub/jquery-ui-sortable.1.11.4.min.js
--- replaced obj /usr/share/znc/webskins/_default_/pub/jquery-ui-sortable.1.11.4.min.css
--- replaced obj /usr/share/znc/webskins/_default_/pub/jquery-ui-sortable.1.11.4.js
--- replaced obj /usr/share/znc/webskins/_default_/pub/jquery-ui-sortable.1.11.4.css
--- replaced obj /usr/share/znc/webskins/_default_/pub/jquery-1.11.2.min.js
--- replaced obj /usr/share/znc/webskins/_default_/pub/jquery-1.11.2.js
--- replaced obj /usr/share/znc/webskins/_default_/pub/global.css
--- replaced obj /usr/share/znc/webskins/_default_/pub/favicon.ico
--- replaced obj /usr/share/znc/webskins/_default_/pub/_default_.css
--- replaced obj /usr/share/znc/webskins/_default_/pub/External.png
--- replaced dir /usr/share/znc/webskins/_default_/pub
--- replaced dir /usr/share/znc/webskins/_default_
--- replaced dir /usr/share/znc/webskins
--- replaced obj /usr/share/znc/translations/ru-RU
--- replaced obj /usr/share/znc/translations/nl-NL
--- replaced obj /usr/share/znc/translations/it-IT
--- replaced obj /usr/share/znc/translations/id-ID
--- replaced obj /usr/share/znc/translations/fr-FR
--- replaced obj /usr/share/znc/translations/es-ES
--- replaced obj /usr/share/znc/translations/de-DE
--- replaced obj /usr/share/znc/translations/bg-BG
--- replaced dir /usr/share/znc/translations
--- replaced obj /usr/share/znc/modules/webadmin/tmpl/traffic.tmpl
--- replaced obj /usr/share/znc/modules/webadmin/tmpl/settings.tmpl
--- replaced obj /usr/share/znc/modules/webadmin/tmpl/listusers.tmpl
--- replaced obj /usr/share/znc/modules/webadmin/tmpl/index.tmpl
--- replaced obj /usr/share/znc/modules/webadmin/tmpl/encoding_settings.tmpl
--- replaced obj /usr/share/znc/modules/webadmin/tmpl/del_user.tmpl
--- replaced obj /usr/share/znc/modules/webadmin/tmpl/del_network.tmpl
--- replaced obj /usr/share/znc/modules/webadmin/tmpl/add_edit_user.tmpl
--- replaced obj /usr/share/znc/modules/webadmin/tmpl/add_edit_network.tmpl
--- replaced obj /usr/share/znc/modules/webadmin/tmpl/add_edit_chan.tmpl
--- replaced dir /usr/share/znc/modules/webadmin/tmpl
--- replaced obj /usr/share/znc/modules/webadmin/files/webadmin.js
--- replaced obj /usr/share/znc/modules/webadmin/files/webadmin.css
--- replaced dir /usr/share/znc/modules/webadmin/files
--- replaced dir /usr/share/znc/modules/webadmin
--- replaced obj /usr/share/znc/modules/stickychan/tmpl/stickychan_WebadminChan.tmpl
--- replaced obj /usr/share/znc/modules/stickychan/tmpl/index.tmpl
--- replaced dir /usr/share/znc/modules/stickychan/tmpl
--- replaced dir /usr/share/znc/modules/stickychan
--- replaced obj /usr/share/znc/modules/send_raw/tmpl/index.tmpl
--- replaced dir /usr/share/znc/modules/send_raw/tmpl
--- replaced obj /usr/share/znc/modules/send_raw/files/select.js
--- replaced dir /usr/share/znc/modules/send_raw/files
--- replaced dir /usr/share/znc/modules/send_raw
--- replaced obj /usr/share/znc/modules/sasl/tmpl/index.tmpl
--- replaced dir /usr/share/znc/modules/sasl/tmpl
--- replaced dir /usr/share/znc/modules/sasl
--- replaced obj /usr/share/znc/modules/samplewebapi/tmpl/index.tmpl
--- replaced dir /usr/share/znc/modules/samplewebapi/tmpl
--- replaced dir /usr/share/znc/modules/samplewebapi
--- replaced obj /usr/share/znc/modules/q/tmpl/index.tmpl
--- replaced dir /usr/share/znc/modules/q/tmpl
--- replaced dir /usr/share/znc/modules/q
--- replaced obj /usr/share/znc/modules/perform/tmpl/index.tmpl
--- replaced dir /usr/share/znc/modules/perform/tmpl
--- replaced dir /usr/share/znc/modules/perform
--- replaced obj /usr/share/znc/modules/notes/tmpl/index.tmpl
--- replaced dir /usr/share/znc/modules/notes/tmpl
--- replaced obj /usr/share/znc/modules/notes/files/trash.gif
--- replaced dir /usr/share/znc/modules/notes/files
--- replaced dir /usr/share/znc/modules/notes
--- replaced obj /usr/share/znc/modules/listsockets/tmpl/index.tmpl
--- replaced dir /usr/share/znc/modules/listsockets/tmpl
--- replaced dir /usr/share/znc/modules/listsockets
--- replaced obj /usr/share/znc/modules/lastseen/tmpl/lastseen_WebadminUser.tmpl
--- replaced obj /usr/share/znc/modules/lastseen/tmpl/index.tmpl
--- replaced dir /usr/share/znc/modules/lastseen/tmpl
--- replaced dir /usr/share/znc/modules/lastseen
--- replaced obj /usr/share/znc/modules/certauth/tmpl/index.tmpl
--- replaced dir /usr/share/znc/modules/certauth/tmpl
--- replaced dir /usr/share/znc/modules/certauth
--- replaced obj /usr/share/znc/modules/cert/tmpl/index.tmpl
--- replaced dir /usr/share/znc/modules/cert/tmpl
--- replaced dir /usr/share/znc/modules/cert
--- replaced obj /usr/share/znc/modules/blockuser/tmpl/blockuser_WebadminUser.tmpl
--- replaced dir /usr/share/znc/modules/blockuser/tmpl
--- replaced dir /usr/share/znc/modules/blockuser
--- replaced dir /usr/share/znc/modules
--- replaced obj /usr/share/znc/cmake/znc_public.cmake
--- replaced obj /usr/share/znc/cmake/znc_internal.cmake
--- replaced obj /usr/share/znc/cmake/znc_internal-gentoo.cmake
--- replaced obj /usr/share/znc/cmake/ZNCConfigVersion.cmake
--- replaced obj /usr/share/znc/cmake/ZNCConfig.cmake
--- replaced dir /usr/share/znc/cmake
--- replaced dir /usr/share/znc
--- replaced obj /usr/share/man/man1/znc.1.bz2
--- replaced obj /usr/share/man/man1/znc-buildmod.1.bz2
--- replaced dir /usr/share/man/man1
--- replaced dir /usr/share/man
--- replaced dir /usr/share
--- replaced obj /usr/lib64/znc/webadmin.so
--- replaced obj /usr/lib64/znc/watch.so
--- replaced obj /usr/lib64/znc/stripcontrols.so
--- replaced obj /usr/lib64/znc/stickychan.so
--- replaced obj /usr/lib64/znc/simple_away.so
--- replaced obj /usr/lib64/znc/shell.so
--- replaced obj /usr/lib64/znc/send_raw.so
--- replaced obj /usr/lib64/znc/schat.so
--- replaced obj /usr/lib64/znc/savebuff.so
--- replaced obj /usr/lib64/znc/sasl.so
--- replaced obj /usr/lib64/znc/samplewebapi.so
--- replaced obj /usr/lib64/znc/sample.so
--- replaced obj /usr/lib64/znc/route_replies.so
--- replaced obj /usr/lib64/znc/raw.so
--- replaced obj /usr/lib64/znc/q.so
--- replaced obj /usr/lib64/znc/perform.so
--- replaced obj /usr/lib64/znc/partyline.so
--- replaced obj /usr/lib64/znc/notify_connect.so
--- replaced obj /usr/lib64/znc/notes.so
--- replaced obj /usr/lib64/znc/nickserv.so
--- replaced obj /usr/lib64/znc/modules_online.so
--- replaced obj /usr/lib64/znc/missingmotd.so
--- replaced obj /usr/lib64/znc/log.so
--- replaced obj /usr/lib64/znc/listsockets.so
--- replaced obj /usr/lib64/znc/lastseen.so
--- replaced obj /usr/lib64/znc/kickrejoin.so
--- replaced obj /usr/lib64/znc/keepnick.so
--- replaced obj /usr/lib64/znc/imapauth.so
--- replaced obj /usr/lib64/znc/identfile.so
--- replaced obj /usr/lib64/znc/flooddetach.so
--- replaced obj /usr/lib64/znc/fail2ban.so
--- replaced obj /usr/lib64/znc/disconkick.so
--- replaced obj /usr/lib64/znc/dcc.so
--- replaced obj /usr/lib64/znc/ctcpflood.so
--- replaced obj /usr/lib64/znc/crypt.so
--- replaced obj /usr/lib64/znc/controlpanel.so
--- replaced obj /usr/lib64/znc/clientnotify.so
--- replaced obj /usr/lib64/znc/clearbufferonmsg.so
--- replaced obj /usr/lib64/znc/chansaver.so
--- replaced obj /usr/lib64/znc/certauth.so
--- replaced obj /usr/lib64/znc/cert.so
--- replaced obj /usr/lib64/znc/buffextras.so
--- replaced obj /usr/lib64/znc/bouncedcc.so
--- replaced obj /usr/lib64/znc/blockuser.so
--- replaced obj /usr/lib64/znc/block_motd.so
--- replaced obj /usr/lib64/znc/awaystore.so
--- replaced obj /usr/lib64/znc/awaynick.so
--- replaced obj /usr/lib64/znc/autovoice.so
--- replaced obj /usr/lib64/znc/autoreply.so
--- replaced obj /usr/lib64/znc/autoop.so
--- replaced obj /usr/lib64/znc/autocycle.so
--- replaced obj /usr/lib64/znc/autoattach.so
--- replaced obj /usr/lib64/znc/alias.so
--- replaced obj /usr/lib64/znc/adminlog.so
--- replaced obj /usr/lib64/znc/admindebug.so
--- replaced dir /usr/lib64/znc
--- replaced obj /usr/lib64/pkgconfig/znc.pc
--- replaced dir /usr/lib64/pkgconfig
--- replaced dir /usr/lib64
--- replaced obj /usr/include/znc/zncconfig.h
--- replaced obj /usr/include/znc/znc_export_lib_export.h
--- replaced obj /usr/include/znc/znc.h
--- replaced obj /usr/include/znc/version.h
--- replaced obj /usr/include/znc/main.h
--- replaced obj /usr/include/znc/defines.h
--- replaced obj /usr/include/znc/ZNCString.h
--- replaced obj /usr/include/znc/ZNCDebug.h
--- replaced obj /usr/include/znc/WebModules.h
--- replaced obj /usr/include/znc/Utils.h
--- replaced obj /usr/include/znc/User.h
--- replaced obj /usr/include/znc/Translation.h
--- replaced obj /usr/include/znc/Threads.h
--- replaced obj /usr/include/znc/Template.h
--- replaced obj /usr/include/znc/Socket.h
--- replaced obj /usr/include/znc/Server.h
--- replaced obj /usr/include/znc/SSLVerifyHost.h
--- replaced obj /usr/include/znc/SHA256.h
--- replaced obj /usr/include/znc/Query.h
--- replaced obj /usr/include/znc/Nick.h
--- replaced obj /usr/include/znc/Modules.h
--- replaced obj /usr/include/znc/Message.h
--- replaced obj /usr/include/znc/MD5.h
--- replaced obj /usr/include/znc/Listener.h
--- replaced obj /usr/include/znc/IRCSock.h
--- replaced obj /usr/include/znc/IRCNetwork.h
--- replaced obj /usr/include/znc/HTTPSock.h
--- replaced obj /usr/include/znc/FileUtils.h
--- replaced obj /usr/include/znc/ExecSock.h
--- replaced obj /usr/include/znc/Csocket.h
--- replaced obj /usr/include/znc/Config.h
--- replaced obj /usr/include/znc/Client.h
--- replaced obj /usr/include/znc/Chan.h
--- replaced obj /usr/include/znc/Buffer.h
--- replaced dir /usr/include/znc
--- replaced dir /usr/include
--- replaced obj /usr/bin/znc-buildmod
--- replaced obj /usr/bin/znc
--- replaced dir /usr/bin
--- replaced dir /usr
--- replaced obj /lib/systemd/system/znc.service
--- replaced dir /lib/systemd/system
--- replaced dir /lib/systemd
--- replaced dir /lib
--- replaced obj /etc/init.d/znc
--- replaced dir /etc/init.d
--- replaced obj /etc/conf.d/znc
--- replaced dir /etc/conf.d
--- replaced dir /etc
>>> Regenerating /etc/ld.so.cache...
