No package files given... Grabbing a set.
--- replaced sym /var/mail
--- replaced dir /var
--- replaced obj /usr/share/man/man5/mailcap.5.bz2
--- replaced dir /usr/share/man/man5
--- replaced dir /usr/share/man
--- replaced dir /usr/share
--- replaced dir /usr
--- replaced sym /etc/pam.d/pops
--- replaced sym /etc/pam.d/pop3s
--- replaced sym /etc/pam.d/pop3
--- replaced obj /etc/pam.d/pop
--- replaced sym /etc/pam.d/imaps
--- replaced sym /etc/pam.d/imap4s
--- replaced sym /etc/pam.d/imap4
--- replaced obj /etc/pam.d/imap
--- replaced dir /etc/pam.d
--- replaced obj /etc/mailcap
--- replaced obj /etc/mail/aliases
--- replaced dir /etc/mail
--- replaced dir /etc
>>> Regenerating /etc/ld.so.cache...
