[32;01m * [39;49;00mPackage:    net-misc/networkmanager-1.18.6
[32;01m * [39;49;00mRepository: FireBurn
[32;01m * [39;49;00mMaintainer: gnome@gentoo.org
[32;01m * [39;49;00mUSE:        abi_x86_64 amd64 audit dhclient dhcpcd elibc_glibc introspection kernel_linux modemmanager ncurses nss policykit ppp systemd userland_GNU vala wext wifi
[32;01m * [39;49;00mFEATURES:   ccache network-sandbox preserve-libs sandbox userpriv usersandbox
 [32;01m*[0m Determining the location of the kernel source code
 [32;01m*[0m Found kernel source directory:
 [32;01m*[0m     /usr/src/linux
 [32;01m*[0m Found sources for kernel version:
 [32;01m*[0m     5.6.12-xanmod1gnum.org
 [32;01m*[0m Checking for SYSFS_DEPRECATED support ...
[A[263C [34;01m[ [32;01mok[34;01m ][0m
