No package files given... Grabbing a set.
--- replaced obj /usr/share/man/man1/wget.1.bz2
--- replaced dir /usr/share/man/man1
--- replaced dir /usr/share/man
--- replaced obj /usr/share/info/wget.info.bz2
--- replaced dir /usr/share/info
--- replaced dir /usr/share
--- replaced obj /usr/bin/wget
--- replaced dir /usr/bin
--- replaced dir /usr
--- replaced obj /etc/wgetrc
--- replaced dir /etc
>>> Regenerating /etc/ld.so.cache...
