[32;01m * [39;49;00mPackage:    net-libs/libpsl-0.21.0
[32;01m * [39;49;00mRepository: gentoo
[32;01m * [39;49;00mMaintainer: polynomial-c@gentoo.org
[32;01m * [39;49;00mUSE:        abi_x86_64 amd64 elibc_glibc icu idn kernel_linux man userland_GNU
[32;01m * [39;49;00mFEATURES:   network-sandbox preserve-libs sandbox userpriv usersandbox
 [33;01m*[0m "icu" and "idn" USE flags are enabled.
 [33;01m*[0m Using "idn".
