>>> Extracting info
 * Package:    net-dns/libidn-1.35
 * Repository: gentoo
 * USE:        abi_x86_64 elibc_glibc kernel_linux userland_GNU amd64
 * FEATURES:   network-sandbox preserve-libs sandbox userpriv usersandbox
 * FEATURES='assume-digests binpkg-docompress binpkg-dostrip binpkg-logs binpkg-multi-instance buildpkg cgroup compress-index config-protect-if-modified distlocks downgrade-backup fixlafiles ipc-sandbox merge-sync multilib-strict network-sandbox news nodoc parallel-fetch parallel-install pid-sandbox preserve-libs qa-unresolved-soname-deps sandbox sfperms strict unknown-features-warn unmerge-backup unmerge-logs unmerge-orphans userfetch userpriv usersandbox usersync xattr'
 * CFLAGS='-march=znver2 -O3 -fgraphite-identity -floop-nest-optimize -fdevirtualize-at-ltrans -fipa-pta -fno-semantic-interposition -flto=12 -fno-plt -fno-signed-zeros -fno-trapping-math -fassociative-math -freciprocal-math -fno-math-errno -ffinite-math-only -fno-rounding-math -fno-signaling-nans -fcx-limited-range -fexcess-precision=fast -falign-functions=32 -fno-stack-protector -fno-stack-clash-protection -fstack-check=no -fno-stack-check -fbranch-target-load-optimize2 -freschedule-modulo-scheduled-loops -fsched-pressure -fsched-spec-load -fsched-stalled-insns=0 -fsched2-use-superblocks -fselective-scheduling -fselective-scheduling2 -fsel-sched-pipelining -fsel-sched-pipelining-outer-loops -fuse-linker-plugin -pipe -g0 -Wl,-O1 -Wl,--as-needed -Wl,--sort-common -s -Wl,-lpthread -Wl,-lgomp -Wl,-z,norelro -Wl,-z,now'
 * CXXFLAGS='-march=znver2 -O3 -fgraphite-identity -floop-nest-optimize -fdevirtualize-at-ltrans -fipa-pta -fno-semantic-interposition -flto=12 -fno-plt -fno-signed-zeros -fno-trapping-math -fassociative-math -freciprocal-math -fno-math-errno -ffinite-math-only -fno-rounding-math -fno-signaling-nans -fcx-limited-range -fexcess-precision=fast -falign-functions=32 -fno-stack-protector -fno-stack-clash-protection -fstack-check=no -fno-stack-check -fbranch-target-load-optimize2 -freschedule-modulo-scheduled-loops -fsched-pressure -fsched-spec-load -fsched-stalled-insns=0 -fsched2-use-superblocks -fselective-scheduling -fselective-scheduling2 -fsel-sched-pipelining -fsel-sched-pipelining-outer-loops -fuse-linker-plugin -pipe -g0 -Wl,-O1 -Wl,--as-needed -Wl,--sort-common -s -Wl,-lpthread -Wl,-lgomp -Wl,-z,norelro -Wl,-z,now'
 * FFLAGS='-march=znver2 -O3 -fgraphite-identity -floop-nest-optimize -fdevirtualize-at-ltrans -fipa-pta -fno-semantic-interposition -flto=12 -fno-plt -fno-signed-zeros -fno-trapping-math -fassociative-math -freciprocal-math -fno-math-errno -ffinite-math-only -fno-rounding-math -fno-signaling-nans -fcx-limited-range -fexcess-precision=fast -falign-functions=32 -fno-stack-protector -fno-stack-clash-protection -fstack-check=no -fno-stack-check -fbranch-target-load-optimize2 -freschedule-modulo-scheduled-loops -fsched-pressure -fsched-spec-load -fsched-stalled-insns=0 -fsched2-use-superblocks -fselective-scheduling -fselective-scheduling2 -fsel-sched-pipelining -fsel-sched-pipelining-outer-loops -fuse-linker-plugin -pipe -g0 -Wl,-O1 -Wl,--as-needed -Wl,--sort-common -s -Wl,-lpthread -Wl,-lgomp -Wl,-z,norelro -Wl,-z,now'
 * FCFLAGS='-march=znver2 -O3 -fgraphite-identity -floop-nest-optimize -fdevirtualize-at-ltrans -fipa-pta -fno-semantic-interposition -flto=12 -fno-plt -fno-signed-zeros -fno-trapping-math -fassociative-math -freciprocal-math -fno-math-errno -ffinite-math-only -fno-rounding-math -fno-signaling-nans -fcx-limited-range -fexcess-precision=fast -falign-functions=32 -fno-stack-protector -fno-stack-clash-protection -fstack-check=no -fno-stack-check -fbranch-target-load-optimize2 -freschedule-modulo-scheduled-loops -fsched-pressure -fsched-spec-load -fsched-stalled-insns=0 -fsched2-use-superblocks -fselective-scheduling -fselective-scheduling2 -fsel-sched-pipelining -fsel-sched-pipelining-outer-loops -fuse-linker-plugin -pipe -g0 -Wl,-O1 -Wl,--as-needed -Wl,--sort-common -s -Wl,-lpthread -Wl,-lgomp -Wl,-z,norelro -Wl,-z,now'
 * F77FLAGS='-march=znver2 -O3 -fgraphite-identity -floop-nest-optimize -fdevirtualize-at-ltrans -fipa-pta -fno-semantic-interposition -flto=12 -fno-plt -fno-signed-zeros -fno-trapping-math -fassociative-math -freciprocal-math -fno-math-errno -ffinite-math-only -fno-rounding-math -fno-signaling-nans -fcx-limited-range -fexcess-precision=fast -falign-functions=32 -fno-stack-protector -fno-stack-clash-protection -fstack-check=no -fno-stack-check -fbranch-target-load-optimize2 -freschedule-modulo-scheduled-loops -fsched-pressure -fsched-spec-load -fsched-stalled-insns=0 -fsched2-use-superblocks -fselective-scheduling -fselective-scheduling2 -fsel-sched-pipelining -fsel-sched-pipelining-outer-loops -fuse-linker-plugin -pipe -g0 -Wl,-O1 -Wl,--as-needed -Wl,--sort-common -s -Wl,-lpthread -Wl,-lgomp -Wl,-z,norelro -Wl,-z,now'
 * LDFLAGS='-Wl,-O1 -Wl,--as-needed -Wl,--sort-common -s -Wl,-lpthread -Wl,-lgomp -Wl,-z,norelro -Wl,-z,now -march=znver2 -O3 -fgraphite-identity -floop-nest-optimize -fdevirtualize-at-ltrans -fipa-pta -fno-semantic-interposition -flto=12 -fno-plt -fno-signed-zeros -fno-trapping-math -fassociative-math -freciprocal-math -fno-math-errno -ffinite-math-only -fno-rounding-math -fno-signaling-nans -fcx-limited-range -fexcess-precision=fast -falign-functions=32 -fno-stack-protector -fno-stack-clash-protection -fstack-check=no -fno-stack-check -fbranch-target-load-optimize2 -freschedule-modulo-scheduled-loops -fsched-pressure -fsched-spec-load -fsched-stalled-insns=0 -fsched2-use-superblocks -fselective-scheduling -fselective-scheduling2 -fsel-sched-pipelining -fsel-sched-pipelining-outer-loops -fuse-linker-plugin -pipe -g0'
 * MAKEOPTS='-j12 -l12'
 * gcc () 11.0.0 20200528 (experimental)
 * g++ () 11.0.0 20200528 (experimental)
 * GNU ld (Gentoo 2.34 p4) 2.34.0
 * Linux ryzen.gnum.org 5.4.36 #1 SMP Thu Apr 30 04:38:28 UTC 2020 x86_64 AMD Ryzen 5 3600 6-Core Processor AuthenticAMD GNU/Linux
net-dns/libidn: 1 minute, 55 seconds average for 12 merges
2020-05-15T03:32:16 >>> net-dns/libidn: 44 seconds
2020-05-20T01:03:22 >>> net-dns/libidn: 33 seconds
2020-05-24T22:43:49 >>> net-dns/libidn: 4 minutes, 25 seconds
2020-05-24T23:39:58 >>> net-dns/libidn: 3 minutes, 5 seconds
2020-05-25T14:41:46 >>> net-dns/libidn: 1 minute, 12 seconds
2020-05-25T18:26:17 >>> net-dns/libidn: 2 minutes, 38 seconds
2020-05-25T19:59:09 >>> net-dns/libidn: 2 minutes, 3 seconds
2020-05-26T12:57:20 >>> net-dns/libidn: 2 minutes, 30 seconds
2020-05-26T13:54:19 >>> net-dns/libidn: 31 seconds
2020-05-27T01:33:55 >>> net-dns/libidn: 44 seconds
2020-05-27T03:13:57 >>> net-dns/libidn: 2 minutes, 14 seconds
2020-05-28T13:34:03 >>> net-dns/libidn: 2 minutes, 22 seconds
]0;emerge 14:19:42 138|889 libidn 01:47 (root@ryzen.gnum.org)kemerge 14:19:42 138|889 libidn 01:47 (root@ryzen.gnum.org)\>>> Extracting net-dns/libidn-1.35
 * checking 62 files for package collisions
>>> Merging net-dns/libidn-1.35 to /
 * removing unneeded *.la files
--- /usr/
--- /usr/lib64/
--- /usr/lib64/pkgconfig/
>>> /usr/lib64/pkgconfig/libidn.pc
>>> /usr/lib64/libidn.so.12.6.0
>>> /usr/lib64/libidn.so.12 -> libidn.so.12.6.0
>>> /usr/lib64/libidn.so -> libidn.so.12.6.0
--- /usr/share/
--- /usr/share/man/
--- /usr/share/man/man3/
>>> /usr/share/man/man3/idna_to_unicode_4z4z.3.bz2
>>> /usr/share/man/man3/idna_to_unicode_44i.3.bz2
>>> /usr/share/man/man3/pr29_4.3.bz2
>>> /usr/share/man/man3/punycode_strerror.3.bz2
>>> /usr/share/man/man3/stringprep.3.bz2
>>> /usr/share/man/man3/idna_to_ascii_4z.3.bz2
>>> /usr/share/man/man3/stringprep_profile.3.bz2
>>> /usr/share/man/man3/stringprep_utf8_to_unichar.3.bz2
>>> /usr/share/man/man3/tld_check_4t.3.bz2
>>> /usr/share/man/man3/stringprep_locale_charset.3.bz2
>>> /usr/share/man/man3/tld_get_z.3.bz2
>>> /usr/share/man/man3/stringprep_4zi.3.bz2
>>> /usr/share/man/man3/tld_check_4z.3.bz2
>>> /usr/share/man/man3/idna_to_unicode_lzlz.3.bz2
>>> /usr/share/man/man3/tld_check_8z.3.bz2
>>> /usr/share/man/man3/idn_free.3.bz2
>>> /usr/share/man/man3/idna_to_ascii_8z.3.bz2
>>> /usr/share/man/man3/tld_get_table.3.bz2
>>> /usr/share/man/man3/idna_to_ascii_lz.3.bz2
>>> /usr/share/man/man3/idna_to_unicode_8z8z.3.bz2
>>> /usr/share/man/man3/stringprep_utf8_nfkc_normalize.3.bz2
>>> /usr/share/man/man3/tld_get_4z.3.bz2
>>> /usr/share/man/man3/stringprep_strerror.3.bz2
>>> /usr/share/man/man3/idna_to_unicode_8z4z.3.bz2
>>> /usr/share/man/man3/pr29_strerror.3.bz2
>>> /usr/share/man/man3/stringprep_check_version.3.bz2
>>> /usr/share/man/man3/idna_to_ascii_4i.3.bz2
>>> /usr/share/man/man3/tld_default_table.3.bz2
>>> /usr/share/man/man3/pr29_4z.3.bz2
>>> /usr/share/man/man3/tld_get_4.3.bz2
>>> /usr/share/man/man3/punycode_encode.3.bz2
>>> /usr/share/man/man3/idna_to_unicode_8zlz.3.bz2
>>> /usr/share/man/man3/stringprep_ucs4_nfkc_normalize.3.bz2
>>> /usr/share/man/man3/stringprep_utf8_to_ucs4.3.bz2
>>> /usr/share/man/man3/stringprep_utf8_to_locale.3.bz2
>>> /usr/share/man/man3/stringprep_locale_to_utf8.3.bz2
>>> /usr/share/man/man3/tld_strerror.3.bz2
>>> /usr/share/man/man3/tld_check_lz.3.bz2
>>> /usr/share/man/man3/stringprep_4i.3.bz2
>>> /usr/share/man/man3/pr29_8z.3.bz2
>>> /usr/share/man/man3/idna_strerror.3.bz2
>>> /usr/share/man/man3/tld_check_4.3.bz2
>>> /usr/share/man/man3/stringprep_ucs4_to_utf8.3.bz2
>>> /usr/share/man/man3/tld_check_4tz.3.bz2
>>> /usr/share/man/man3/stringprep_convert.3.bz2
>>> /usr/share/man/man3/punycode_decode.3.bz2
>>> /usr/share/man/man3/stringprep_unichar_to_utf8.3.bz2
--- /usr/share/man/man1/
>>> /usr/share/man/man1/idn.1.bz2
--- /usr/share/info/
>>> /usr/share/info/libidn-components.png
>>> /usr/share/info/libidn.info.bz2
--- /usr/include/
>>> /usr/include/idn-free.h
>>> /usr/include/idn-int.h
>>> /usr/include/stringprep.h
>>> /usr/include/idna.h
>>> /usr/include/tld.h
>>> /usr/include/pr29.h
>>> /usr/include/punycode.h
--- /usr/bin/
>>> /usr/bin/idn
>>> Safely unmerging already-installed instance...
>>> Original instance of package unmerged safely.
>>> net-dns/libidn-1.35 merged.
>>> Regenerating /etc/ld.so.cache...
