[32;01m * [39;49;00mPackage:    net-misc/openssh-8.2_p1-r6
[32;01m * [39;49;00mRepository: sabayon
[32;01m * [39;49;00mMaintainer: base-system@gentoo.org robbat2@gentoo.org
[32;01m * [39;49;00mUSE:        X abi_x86_64 amd64 elibc_glibc kerberos kernel_linux pam sctp ssl userland_GNU
[32;01m * [39;49;00mFEATURES:   ccache network-sandbox preserve-libs sandbox userpriv usersandbox
