[32;01m * [39;49;00mPackage:    net-libs/nghttp2-1.40.0
[32;01m * [39;49;00mRepository: gentoo
[32;01m * [39;49;00mMaintainer: polynomial-c@gentoo.org
[32;01m * [39;49;00mUSE:        abi_x86_64 amd64 elibc_glibc kernel_linux test threads userland_GNU xml
[32;01m * [39;49;00mFEATURES:   network-sandbox preserve-libs sandbox splitdebug test userpriv usersandbox
>>> Unpacking source...
>>> Unpacking nghttp2-1.40.0.tar.xz to /tmp/portage/net-libs/nghttp2-1.40.0/work
>>> Source unpacked in /tmp/portage/net-libs/nghttp2-1.40.0/work
>>> Preparing source in /tmp/portage/net-libs/nghttp2-1.40.0/work/nghttp2-1.40.0 ...
>>> Source prepared.
>>> Configuring source in /tmp/portage/net-libs/nghttp2-1.40.0/work/nghttp2-1.40.0 ...
 [32;01m*[0m abi_x86_64.amd64: running multilib-minimal_abi_src_configure
 * econf: updating nghttp2-1.40.0/config.guess with /usr/share/gnuconfig/config.guess
 * econf: updating nghttp2-1.40.0/config.sub with /usr/share/gnuconfig/config.sub
/tmp/portage/net-libs/nghttp2-1.40.0/work/nghttp2-1.40.0/configure --prefix=/usr --build=x86_64-pc-linux-gnu --host=x86_64-pc-linux-gnu --mandir=/usr/share/man --infodir=/usr/share/info --datadir=/usr/share --sysconfdir=/etc --localstatedir=/var/lib --disable-dependency-tracking --disable-silent-rules --docdir=/usr/share/doc/nghttp2-1.40.0 --htmldir=/usr/share/doc/nghttp2-1.40.0/html --with-sysroot=/ --libdir=/usr/lib64 --disable-examples --disable-failmalloc --disable-python-bindings --disable-werror --without-cython --disable-asio-lib --disable-debug --disable-hpack-tools --disable-static --enable-threads --disable-app --without-jemalloc --with-libxml2
checking for x86_64-pc-linux-gnu-gcc... x86_64-pc-linux-gnu-gcc
checking whether the C compiler works... yes
checking for C compiler default output file name... a.out
checking for suffix of executables... 
checking whether we are cross compiling... no
checking for suffix of object files... o
checking whether we are using the GNU C compiler... yes
checking whether x86_64-pc-linux-gnu-gcc accepts -g... yes
checking for x86_64-pc-linux-gnu-gcc option to accept ISO C89... none needed
checking whether x86_64-pc-linux-gnu-gcc understands -c and -o together... yes
checking how to run the C preprocessor... x86_64-pc-linux-gnu-gcc -E
checking for grep that handles long lines and -e... /bin/grep
checking for egrep... /bin/grep -E
checking for ANSI C header files... yes
checking for sys/types.h... yes
checking for sys/stat.h... yes
checking for stdlib.h... yes
checking for string.h... yes
checking for memory.h... yes
checking for strings.h... yes
checking for inttypes.h... yes
checking for stdint.h... yes
checking for unistd.h... yes
checking minix/config.h usability... no
checking minix/config.h presence... no
checking for minix/config.h... no
checking whether it is safe to define __EXTENSIONS__... yes
checking build system type... x86_64-pc-linux-gnu
checking host system type... x86_64-pc-linux-gnu
checking how to print strings... printf
checking for a sed that does not truncate output... /bin/sed
checking for fgrep... /bin/grep -F
checking for ld used by x86_64-pc-linux-gnu-gcc... /usr/x86_64-pc-linux-gnu/bin/ld
checking if the linker (/usr/x86_64-pc-linux-gnu/bin/ld) is GNU ld... yes
checking for BSD- or MS-compatible name lister (nm)... /usr/bin/x86_64-pc-linux-gnu-nm -B
checking the name lister (/usr/bin/x86_64-pc-linux-gnu-nm -B) interface... BSD nm
checking whether ln -s works... yes
checking the maximum length of command line arguments... 1572864
checking how to convert x86_64-pc-linux-gnu file names to x86_64-pc-linux-gnu format... func_convert_file_noop
checking how to convert x86_64-pc-linux-gnu file names to toolchain format... func_convert_file_noop
checking for /usr/x86_64-pc-linux-gnu/bin/ld option to reload object files... -r
checking for x86_64-pc-linux-gnu-objdump... x86_64-pc-linux-gnu-objdump
checking how to recognize dependent libraries... pass_all
checking for x86_64-pc-linux-gnu-dlltool... no
checking for dlltool... no
checking how to associate runtime and link libraries... printf %s\n
checking for x86_64-pc-linux-gnu-ar... x86_64-pc-linux-gnu-ar
checking for archiver @FILE support... @
checking for x86_64-pc-linux-gnu-strip... x86_64-pc-linux-gnu-strip
checking for x86_64-pc-linux-gnu-ranlib... x86_64-pc-linux-gnu-ranlib
checking for gawk... gawk
checking command to parse /usr/bin/x86_64-pc-linux-gnu-nm -B output from x86_64-pc-linux-gnu-gcc object... ok
checking for sysroot... /
checking for a working dd... /bin/dd
checking how to truncate binary pipes... /bin/dd bs=4096 count=1
checking for x86_64-pc-linux-gnu-mt... no
checking for mt... no
checking if : is a manifest tool... no
checking for dlfcn.h... yes
checking for objdir... .libs
checking if x86_64-pc-linux-gnu-gcc supports -fno-rtti -fno-exceptions... no
checking for x86_64-pc-linux-gnu-gcc option to produce PIC... -fPIC -DPIC
checking if x86_64-pc-linux-gnu-gcc PIC flag -fPIC -DPIC works... yes
checking if x86_64-pc-linux-gnu-gcc static flag -static works... yes
checking if x86_64-pc-linux-gnu-gcc supports -c -o file.o... yes
checking if x86_64-pc-linux-gnu-gcc supports -c -o file.o... (cached) yes
checking whether the x86_64-pc-linux-gnu-gcc linker (/usr/x86_64-pc-linux-gnu/bin/ld -m elf_x86_64) supports shared libraries... yes
checking whether -lc should be explicitly linked in... no
checking dynamic linker characteristics... GNU/Linux ld.so
checking how to hardcode library paths into programs... immediate
checking whether stripping libraries is possible... yes
checking if libtool supports shared libraries... yes
checking whether to build shared libraries... yes
checking whether to build static libraries... no
checking target system type... x86_64-pc-linux-gnu
checking for a BSD-compatible install... /tmp/portage/._portage_reinstall_.mi8935l4/bin/ebuild-helpers/xattr/install -c
checking whether build environment is sane... yes
checking for a thread-safe mkdir -p... /bin/mkdir -p
checking whether make sets $(MAKE)... yes
checking whether make supports the include directive... yes (GNU style)
checking whether make supports nested variables... yes
checking dependency style of x86_64-pc-linux-gnu-gcc... none
checking whether make supports nested variables... (cached) yes
checking for x86_64-pc-linux-gnu-gcc... (cached) x86_64-pc-linux-gnu-gcc
checking whether we are using the GNU C compiler... (cached) yes
checking whether x86_64-pc-linux-gnu-gcc accepts -g... (cached) yes
checking for x86_64-pc-linux-gnu-gcc option to accept ISO C89... (cached) none needed
checking whether x86_64-pc-linux-gnu-gcc understands -c and -o together... (cached) yes
checking for x86_64-pc-linux-gnu-g++... x86_64-pc-linux-gnu-g++
checking whether we are using the GNU C++ compiler... yes
checking whether x86_64-pc-linux-gnu-g++ accepts -g... yes
checking how to run the C++ preprocessor... x86_64-pc-linux-gnu-g++ -E
checking for ld used by x86_64-pc-linux-gnu-g++... /usr/x86_64-pc-linux-gnu/bin/ld -m elf_x86_64
checking if the linker (/usr/x86_64-pc-linux-gnu/bin/ld -m elf_x86_64) is GNU ld... yes
checking whether the x86_64-pc-linux-gnu-g++ linker (/usr/x86_64-pc-linux-gnu/bin/ld -m elf_x86_64) supports shared libraries... yes
checking for x86_64-pc-linux-gnu-g++ option to produce PIC... -fPIC -DPIC
checking if x86_64-pc-linux-gnu-g++ PIC flag -fPIC -DPIC works... yes
checking if x86_64-pc-linux-gnu-g++ static flag -static works... yes
checking if x86_64-pc-linux-gnu-g++ supports -c -o file.o... yes
checking if x86_64-pc-linux-gnu-g++ supports -c -o file.o... (cached) yes
checking whether the x86_64-pc-linux-gnu-g++ linker (/usr/x86_64-pc-linux-gnu/bin/ld -m elf_x86_64) supports shared libraries... yes
checking dynamic linker characteristics... (cached) GNU/Linux ld.so
checking how to hardcode library paths into programs... immediate
checking dependency style of x86_64-pc-linux-gnu-g++... none
checking how to run the C preprocessor... x86_64-pc-linux-gnu-gcc -E
checking whether ln -s works... yes
checking whether make sets $(MAKE)... (cached) yes
checking for x86_64-pc-linux-gnu-pkg-config... /usr/bin/x86_64-pc-linux-gnu-pkg-config
checking pkg-config is at least version 0.20... yes
checking for a Python interpreter with version >= 2.7... python
checking for python... /usr/bin/python
checking for python version... 3.6
checking for python platform... linux
checking for python script directory... ${prefix}/lib64/python3.6/site-packages
checking for python extension module directory... ${exec_prefix}/lib64/python3.6/site-packages
checking whether x86_64-pc-linux-gnu-g++ supports C++14 features with -std=c++14... yes
checking whether std::future is available... yes
checking whether std::map::emplace is available... yes
checking whether std::atomic_* overloads for std::shared_ptr are available... yes
checking whether thread_local storage class specifier is available.... yes
checking for ZLIB... yes
checking for library containing dlopen... -ldl
checking for CUNIT... yes
checking for ev_time in -lev... no
checking for OPENSSL... yes
checking for LIBCARES... no
configure: No package 'libcares' found
checking for LIBEVENT_OPENSSL... yes
checking for JANSSON... yes
checking for SYSTEMD... no
configure: No package 'libsystemd' found
checking for LIBXML2... yes
checking whether to enable assertions... yes
checking arpa/inet.h usability... yes
checking arpa/inet.h presence... yes
checking for arpa/inet.h... yes
checking fcntl.h usability... yes
checking fcntl.h presence... yes
checking for fcntl.h... yes
checking for inttypes.h... (cached) yes
checking limits.h usability... yes
checking limits.h presence... yes
checking for limits.h... yes
checking netdb.h usability... yes
checking netdb.h presence... yes
checking for netdb.h... yes
checking netinet/in.h usability... yes
checking netinet/in.h presence... yes
checking for netinet/in.h... yes
checking pwd.h usability... yes
checking pwd.h presence... yes
checking for pwd.h... yes
checking stddef.h usability... yes
checking stddef.h presence... yes
checking for stddef.h... yes
checking for stdint.h... (cached) yes
checking for stdlib.h... (cached) yes
checking for string.h... (cached) yes
checking sys/socket.h usability... yes
checking sys/socket.h presence... yes
checking for sys/socket.h... yes
checking sys/time.h usability... yes
checking sys/time.h presence... yes
checking for sys/time.h... yes
checking syslog.h usability... yes
checking syslog.h presence... yes
checking for syslog.h... yes
checking time.h usability... yes
checking time.h presence... yes
checking for time.h... yes
checking for unistd.h... (cached) yes
checking for size_t... yes
checking for ssize_t... yes
checking for uint8_t... yes
checking for uint16_t... yes
checking for uint32_t... yes
checking for uint64_t... yes
checking for int8_t... yes
checking for int16_t... yes
checking for int32_t... yes
checking for int64_t... yes
checking for off_t... yes
checking for pid_t... yes
checking for uid_t in sys/types.h... yes
checking for ptrdiff_t... yes
checking whether byte ordering is bigendian... no
checking for inline... inline
checking for special C compiler options needed for large files... no
checking for _FILE_OFFSET_BITS value needed for large files... no
checking for struct tm.tm_gmtoff... yes
checking for struct sockaddr_in.sin_len... no
checking for struct sockaddr_in6.sin6_len... no
checking size of int *... 8
checking size of time_t... 8
checking for unistd.h... (cached) yes
checking for working chown... yes
checking for error_at_line... yes
checking vfork.h usability... no
checking vfork.h presence... no
checking for vfork.h... no
checking for fork... yes
checking for vfork... yes
checking for working fork... yes
checking for working vfork... (cached) yes
checking whether strerror_r is declared... yes
checking for strerror_r... yes
checking whether strerror_r returns char *... yes
checking for working strnlen... yes
checking for _Exit... yes
checking for accept4... yes
checking for dup2... yes
checking for getcwd... yes
checking for getpwnam... yes
checking for localtime_r... yes
checking for memchr... yes
checking for memmove... yes
checking for memset... yes
checking for mkostemp... yes
checking for socket... yes
checking for sqrt... no
checking for strchr... yes
checking for strdup... yes
checking for strerror... yes
checking for strndup... yes
checking for strstr... yes
checking for strtol... yes
checking for strtoul... yes
checking for timegm... yes
checking for timerfd_create... yes
checking whether initgroups is declared... yes
checking whether C compiler accepts -fvisibility=hidden... yes
checking that generated files are newer than configure... done
configure: creating ./config.status
config.status: creating Makefile
config.status: creating lib/Makefile
config.status: creating lib/libnghttp2.pc
config.status: creating lib/includes/Makefile
config.status: creating lib/includes/nghttp2/nghttp2ver.h
config.status: creating tests/Makefile
config.status: creating tests/testdata/Makefile
config.status: creating third-party/Makefile
config.status: creating src/Makefile
config.status: creating src/includes/Makefile
config.status: creating src/libnghttp2_asio.pc
config.status: creating examples/Makefile
config.status: creating python/Makefile
config.status: creating python/setup.py
config.status: creating integration-tests/Makefile
config.status: creating integration-tests/config.go
config.status: creating integration-tests/setenv
config.status: creating doc/Makefile
config.status: creating doc/conf.py
config.status: creating doc/index.rst
config.status: creating doc/package_README.rst
config.status: creating doc/tutorial-client.rst
config.status: creating doc/tutorial-server.rst
config.status: creating doc/tutorial-hpack.rst
config.status: creating doc/nghttpx-howto.rst
config.status: creating doc/h2load-howto.rst
config.status: creating doc/libnghttp2_asio.rst
config.status: creating doc/python-apiref.rst
config.status: creating doc/building-android-binary.rst
config.status: creating doc/nghttp2.h.rst
config.status: creating doc/nghttp2ver.h.rst
config.status: creating doc/asio_http2.h.rst
config.status: creating doc/asio_http2_server.h.rst
config.status: creating doc/asio_http2_client.h.rst
config.status: creating doc/contribute.rst
config.status: creating contrib/Makefile
config.status: creating script/Makefile
config.status: creating config.h
config.status: executing libtool commands
config.status: executing depfiles commands
configure: summary of build options:

    Package version: 1.40.0
    Library version: 33:0:19
    Install prefix:  /usr
    System types:
      Build:         x86_64-pc-linux-gnu
      Host:          x86_64-pc-linux-gnu
      Target:        x86_64-pc-linux-gnu
    Compiler:
      C compiler:     x86_64-pc-linux-gnu-gcc
      CFLAGS:         -O3 -march=native -pipe -g0 -fno-stack-protector -fno-stack-clash-protection -fstack-check=no -fno-stack-check
      LDFLAGS:        -Wl,-O1 -Wl,--as-needed -Wl,--defsym=__gentoo_check_ldflags__=0 -Wl,--hash-style=gnu -Wl,-z,norelro
      C++ compiler:   x86_64-pc-linux-gnu-g++ -std=c++14
      CXXFLAGS:       -O3 -march=native -pipe -g0 -fno-stack-protector -fno-stack-clash-protection -fstack-check=no -fno-stack-check
      CXXCPP:         x86_64-pc-linux-gnu-g++ -E -std=c++14
      C preprocessor: x86_64-pc-linux-gnu-gcc -E
      CPPFLAGS:       
      WARNCFLAGS:     
      WARNCXXFLAGS:   
      CXX1XCXXFLAGS:  
      EXTRACFLAG:     -fvisibility=hidden
      LIBS:           
    Library:
      Shared:         yes
      Static:         no
    Python:
      Python:         /usr/bin/python
      PYTHON_VERSION: 3.6
      pyexecdir:      ${exec_prefix}/lib64/python3.6/site-packages
      Python-dev:     
      PYTHON_CPPFLAGS:
      PYTHON_LDFLAGS: 
      Cython:         no
    Test:
      CUnit:          yes (CFLAGS='' LIBS='-lcunit')
      Failmalloc:     no
    Libs:
      OpenSSL:        yes (CFLAGS='' LIBS='-lssl -lcrypto')
      Libxml2:        yes (CFLAGS='-I/usr/include/libxml2' LIBS='-lxml2')
      Libev:          no (CFLAGS='' LIBS='')
      Libc-ares:      no (CFLAGS='' LIBS='')
      Libevent(SSL):  yes (CFLAGS='' LIBS='-levent_openssl -levent')
      Jansson:        yes (CFLAGS='' LIBS='-ljansson')
      Jemalloc:       no (LIBS='')
      Zlib:           yes (CFLAGS='' LIBS='-lz')
      Systemd:        no (CFLAGS='' LIBS='')
      Boost CPPFLAGS: 
      Boost LDFLAGS:  
      Boost::ASIO:    
      Boost::System:  
      Boost::Thread:  
    Third-party:
      http-parser:    no
      MRuby:          no (CFLAGS='' LIBS='')
      Neverbleed:     no
    Features:
      Applications:   no
      HPACK tools:    no
      Libnghttp2_asio:no
      Examples:       no
      Python bindings:no
      Threading:      yes

>>> Source configured.
>>> Compiling source in /tmp/portage/net-libs/nghttp2-1.40.0/work/nghttp2-1.40.0 ...
 [32;01m*[0m abi_x86_64.amd64: running multilib-minimal_abi_src_compile
make -j12 
make  all-recursive
make[1]: Entering directory '/tmp/portage/net-libs/nghttp2-1.40.0/work/nghttp2-1.40.0-abi_x86_64.amd64'
Making all in lib
make[2]: Entering directory '/tmp/portage/net-libs/nghttp2-1.40.0/work/nghttp2-1.40.0-abi_x86_64.amd64/lib'
Making all in includes
make[3]: Entering directory '/tmp/portage/net-libs/nghttp2-1.40.0/work/nghttp2-1.40.0-abi_x86_64.amd64/lib/includes'
make[3]: Nothing to be done for 'all'.
make[3]: Leaving directory '/tmp/portage/net-libs/nghttp2-1.40.0/work/nghttp2-1.40.0-abi_x86_64.amd64/lib/includes'
make[3]: Entering directory '/tmp/portage/net-libs/nghttp2-1.40.0/work/nghttp2-1.40.0-abi_x86_64.amd64/lib'
/bin/sh ../libtool  --tag=CC   --mode=compile x86_64-pc-linux-gnu-gcc -DHAVE_CONFIG_H -I. -I/tmp/portage/net-libs/nghttp2-1.40.0/work/nghttp2-1.40.0/lib -I..  -I/tmp/portage/net-libs/nghttp2-1.40.0/work/nghttp2-1.40.0/lib/includes -I./includes -DBUILDING_NGHTTP2 -DHAVE_CONFIG_H   -fvisibility=hidden -O3 -march=native -pipe -g0 -fno-stack-protector -fno-stack-clash-protection -fstack-check=no -fno-stack-check -c -o nghttp2_pq.lo /tmp/portage/net-libs/nghttp2-1.40.0/work/nghttp2-1.40.0/lib/nghttp2_pq.c
/bin/sh ../libtool  --tag=CC   --mode=compile x86_64-pc-linux-gnu-gcc -DHAVE_CONFIG_H -I. -I/tmp/portage/net-libs/nghttp2-1.40.0/work/nghttp2-1.40.0/lib -I..  -I/tmp/portage/net-libs/nghttp2-1.40.0/work/nghttp2-1.40.0/lib/includes -I./includes -DBUILDING_NGHTTP2 -DHAVE_CONFIG_H   -fvisibility=hidden -O3 -march=native -pipe -g0 -fno-stack-protector -fno-stack-clash-protection -fstack-check=no -fno-stack-check -c -o nghttp2_map.lo /tmp/portage/net-libs/nghttp2-1.40.0/work/nghttp2-1.40.0/lib/nghttp2_map.c
/bin/sh ../libtool  --tag=CC   --mode=compile x86_64-pc-linux-gnu-gcc -DHAVE_CONFIG_H -I. -I/tmp/portage/net-libs/nghttp2-1.40.0/work/nghttp2-1.40.0/lib -I..  -I/tmp/portage/net-libs/nghttp2-1.40.0/work/nghttp2-1.40.0/lib/includes -I./includes -DBUILDING_NGHTTP2 -DHAVE_CONFIG_H   -fvisibility=hidden -O3 -march=native -pipe -g0 -fno-stack-protector -fno-stack-clash-protection -fstack-check=no -fno-stack-check -c -o nghttp2_queue.lo /tmp/portage/net-libs/nghttp2-1.40.0/work/nghttp2-1.40.0/lib/nghttp2_queue.c
/bin/sh ../libtool  --tag=CC   --mode=compile x86_64-pc-linux-gnu-gcc -DHAVE_CONFIG_H -I. -I/tmp/portage/net-libs/nghttp2-1.40.0/work/nghttp2-1.40.0/lib -I..  -I/tmp/portage/net-libs/nghttp2-1.40.0/work/nghttp2-1.40.0/lib/includes -I./includes -DBUILDING_NGHTTP2 -DHAVE_CONFIG_H   -fvisibility=hidden -O3 -march=native -pipe -g0 -fno-stack-protector -fno-stack-clash-protection -fstack-check=no -fno-stack-check -c -o nghttp2_frame.lo /tmp/portage/net-libs/nghttp2-1.40.0/work/nghttp2-1.40.0/lib/nghttp2_frame.c
/bin/sh ../libtool  --tag=CC   --mode=compile x86_64-pc-linux-gnu-gcc -DHAVE_CONFIG_H -I. -I/tmp/portage/net-libs/nghttp2-1.40.0/work/nghttp2-1.40.0/lib -I..  -I/tmp/portage/net-libs/nghttp2-1.40.0/work/nghttp2-1.40.0/lib/includes -I./includes -DBUILDING_NGHTTP2 -DHAVE_CONFIG_H   -fvisibility=hidden -O3 -march=native -pipe -g0 -fno-stack-protector -fno-stack-clash-protection -fstack-check=no -fno-stack-check -c -o nghttp2_buf.lo /tmp/portage/net-libs/nghttp2-1.40.0/work/nghttp2-1.40.0/lib/nghttp2_buf.c
/bin/sh ../libtool  --tag=CC   --mode=compile x86_64-pc-linux-gnu-gcc -DHAVE_CONFIG_H -I. -I/tmp/portage/net-libs/nghttp2-1.40.0/work/nghttp2-1.40.0/lib -I..  -I/tmp/portage/net-libs/nghttp2-1.40.0/work/nghttp2-1.40.0/lib/includes -I./includes -DBUILDING_NGHTTP2 -DHAVE_CONFIG_H   -fvisibility=hidden -O3 -march=native -pipe -g0 -fno-stack-protector -fno-stack-clash-protection -fstack-check=no -fno-stack-check -c -o nghttp2_stream.lo /tmp/portage/net-libs/nghttp2-1.40.0/work/nghttp2-1.40.0/lib/nghttp2_stream.c
/bin/sh ../libtool  --tag=CC   --mode=compile x86_64-pc-linux-gnu-gcc -DHAVE_CONFIG_H -I. -I/tmp/portage/net-libs/nghttp2-1.40.0/work/nghttp2-1.40.0/lib -I..  -I/tmp/portage/net-libs/nghttp2-1.40.0/work/nghttp2-1.40.0/lib/includes -I./includes -DBUILDING_NGHTTP2 -DHAVE_CONFIG_H   -fvisibility=hidden -O3 -march=native -pipe -g0 -fno-stack-protector -fno-stack-clash-protection -fstack-check=no -fno-stack-check -c -o nghttp2_outbound_item.lo /tmp/portage/net-libs/nghttp2-1.40.0/work/nghttp2-1.40.0/lib/nghttp2_outbound_item.c
/bin/sh ../libtool  --tag=CC   --mode=compile x86_64-pc-linux-gnu-gcc -DHAVE_CONFIG_H -I. -I/tmp/portage/net-libs/nghttp2-1.40.0/work/nghttp2-1.40.0/lib -I..  -I/tmp/portage/net-libs/nghttp2-1.40.0/work/nghttp2-1.40.0/lib/includes -I./includes -DBUILDING_NGHTTP2 -DHAVE_CONFIG_H   -fvisibility=hidden -O3 -march=native -pipe -g0 -fno-stack-protector -fno-stack-clash-protection -fstack-check=no -fno-stack-check -c -o nghttp2_session.lo /tmp/portage/net-libs/nghttp2-1.40.0/work/nghttp2-1.40.0/lib/nghttp2_session.c
/bin/sh ../libtool  --tag=CC   --mode=compile x86_64-pc-linux-gnu-gcc -DHAVE_CONFIG_H -I. -I/tmp/portage/net-libs/nghttp2-1.40.0/work/nghttp2-1.40.0/lib -I..  -I/tmp/portage/net-libs/nghttp2-1.40.0/work/nghttp2-1.40.0/lib/includes -I./includes -DBUILDING_NGHTTP2 -DHAVE_CONFIG_H   -fvisibility=hidden -O3 -march=native -pipe -g0 -fno-stack-protector -fno-stack-clash-protection -fstack-check=no -fno-stack-check -c -o nghttp2_submit.lo /tmp/portage/net-libs/nghttp2-1.40.0/work/nghttp2-1.40.0/lib/nghttp2_submit.c
/bin/sh ../libtool  --tag=CC   --mode=compile x86_64-pc-linux-gnu-gcc -DHAVE_CONFIG_H -I. -I/tmp/portage/net-libs/nghttp2-1.40.0/work/nghttp2-1.40.0/lib -I..  -I/tmp/portage/net-libs/nghttp2-1.40.0/work/nghttp2-1.40.0/lib/includes -I./includes -DBUILDING_NGHTTP2 -DHAVE_CONFIG_H   -fvisibility=hidden -O3 -march=native -pipe -g0 -fno-stack-protector -fno-stack-clash-protection -fstack-check=no -fno-stack-check -c -o nghttp2_helper.lo /tmp/portage/net-libs/nghttp2-1.40.0/work/nghttp2-1.40.0/lib/nghttp2_helper.c
/bin/sh ../libtool  --tag=CC   --mode=compile x86_64-pc-linux-gnu-gcc -DHAVE_CONFIG_H -I. -I/tmp/portage/net-libs/nghttp2-1.40.0/work/nghttp2-1.40.0/lib -I..  -I/tmp/portage/net-libs/nghttp2-1.40.0/work/nghttp2-1.40.0/lib/includes -I./includes -DBUILDING_NGHTTP2 -DHAVE_CONFIG_H   -fvisibility=hidden -O3 -march=native -pipe -g0 -fno-stack-protector -fno-stack-clash-protection -fstack-check=no -fno-stack-check -c -o nghttp2_npn.lo /tmp/portage/net-libs/nghttp2-1.40.0/work/nghttp2-1.40.0/lib/nghttp2_npn.c
/bin/sh ../libtool  --tag=CC   --mode=compile x86_64-pc-linux-gnu-gcc -DHAVE_CONFIG_H -I. -I/tmp/portage/net-libs/nghttp2-1.40.0/work/nghttp2-1.40.0/lib -I..  -I/tmp/portage/net-libs/nghttp2-1.40.0/work/nghttp2-1.40.0/lib/includes -I./includes -DBUILDING_NGHTTP2 -DHAVE_CONFIG_H   -fvisibility=hidden -O3 -march=native -pipe -g0 -fno-stack-protector -fno-stack-clash-protection -fstack-check=no -fno-stack-check -c -o nghttp2_hd.lo /tmp/portage/net-libs/nghttp2-1.40.0/work/nghttp2-1.40.0/lib/nghttp2_hd.c
libtool: compile:  x86_64-pc-linux-gnu-gcc -DHAVE_CONFIG_H -I. -I/tmp/portage/net-libs/nghttp2-1.40.0/work/nghttp2-1.40.0/lib -I.. -I/tmp/portage/net-libs/nghttp2-1.40.0/work/nghttp2-1.40.0/lib/includes -I./includes -DBUILDING_NGHTTP2 -DHAVE_CONFIG_H -fvisibility=hidden -O3 -march=native -pipe -g0 -fno-stack-protector -fno-stack-clash-protection -fstack-check=no -fno-stack-check -c /tmp/portage/net-libs/nghttp2-1.40.0/work/nghttp2-1.40.0/lib/nghttp2_pq.c  -fPIC -DPIC -o .libs/nghttp2_pq.o
libtool: compile:  x86_64-pc-linux-gnu-gcc -DHAVE_CONFIG_H -I. -I/tmp/portage/net-libs/nghttp2-1.40.0/work/nghttp2-1.40.0/lib -I.. -I/tmp/portage/net-libs/nghttp2-1.40.0/work/nghttp2-1.40.0/lib/includes -I./includes -DBUILDING_NGHTTP2 -DHAVE_CONFIG_H -fvisibility=hidden -O3 -march=native -pipe -g0 -fno-stack-protector -fno-stack-clash-protection -fstack-check=no -fno-stack-check -c /tmp/portage/net-libs/nghttp2-1.40.0/work/nghttp2-1.40.0/lib/nghttp2_queue.c  -fPIC -DPIC -o .libs/nghttp2_queue.o
libtool: compile:  x86_64-pc-linux-gnu-gcc -DHAVE_CONFIG_H -I. -I/tmp/portage/net-libs/nghttp2-1.40.0/work/nghttp2-1.40.0/lib -I.. -I/tmp/portage/net-libs/nghttp2-1.40.0/work/nghttp2-1.40.0/lib/includes -I./includes -DBUILDING_NGHTTP2 -DHAVE_CONFIG_H -fvisibility=hidden -O3 -march=native -pipe -g0 -fno-stack-protector -fno-stack-clash-protection -fstack-check=no -fno-stack-check -c /tmp/portage/net-libs/nghttp2-1.40.0/work/nghttp2-1.40.0/lib/nghttp2_map.c  -fPIC -DPIC -o .libs/nghttp2_map.o
libtool: compile:  x86_64-pc-linux-gnu-gcc -DHAVE_CONFIG_H -I. -I/tmp/portage/net-libs/nghttp2-1.40.0/work/nghttp2-1.40.0/lib -I.. -I/tmp/portage/net-libs/nghttp2-1.40.0/work/nghttp2-1.40.0/lib/includes -I./includes -DBUILDING_NGHTTP2 -DHAVE_CONFIG_H -fvisibility=hidden -O3 -march=native -pipe -g0 -fno-stack-protector -fno-stack-clash-protection -fstack-check=no -fno-stack-check -c /tmp/portage/net-libs/nghttp2-1.40.0/work/nghttp2-1.40.0/lib/nghttp2_buf.c  -fPIC -DPIC -o .libs/nghttp2_buf.o
libtool: compile:  x86_64-pc-linux-gnu-gcc -DHAVE_CONFIG_H -I. -I/tmp/portage/net-libs/nghttp2-1.40.0/work/nghttp2-1.40.0/lib -I.. -I/tmp/portage/net-libs/nghttp2-1.40.0/work/nghttp2-1.40.0/lib/includes -I./includes -DBUILDING_NGHTTP2 -DHAVE_CONFIG_H -fvisibility=hidden -O3 -march=native -pipe -g0 -fno-stack-protector -fno-stack-clash-protection -fstack-check=no -fno-stack-check -c /tmp/portage/net-libs/nghttp2-1.40.0/work/nghttp2-1.40.0/lib/nghttp2_session.c  -fPIC -DPIC -o .libs/nghttp2_session.o
libtool: compile:  x86_64-pc-linux-gnu-gcc -DHAVE_CONFIG_H -I. -I/tmp/portage/net-libs/nghttp2-1.40.0/work/nghttp2-1.40.0/lib -I.. -I/tmp/portage/net-libs/nghttp2-1.40.0/work/nghttp2-1.40.0/lib/includes -I./includes -DBUILDING_NGHTTP2 -DHAVE_CONFIG_H -fvisibility=hidden -O3 -march=native -pipe -g0 -fno-stack-protector -fno-stack-clash-protection -fstack-check=no -fno-stack-check -c /tmp/portage/net-libs/nghttp2-1.40.0/work/nghttp2-1.40.0/lib/nghttp2_submit.c  -fPIC -DPIC -o .libs/nghttp2_submit.o
libtool: compile:  x86_64-pc-linux-gnu-gcc -DHAVE_CONFIG_H -I. -I/tmp/portage/net-libs/nghttp2-1.40.0/work/nghttp2-1.40.0/lib -I.. -I/tmp/portage/net-libs/nghttp2-1.40.0/work/nghttp2-1.40.0/lib/includes -I./includes -DBUILDING_NGHTTP2 -DHAVE_CONFIG_H -fvisibility=hidden -O3 -march=native -pipe -g0 -fno-stack-protector -fno-stack-clash-protection -fstack-check=no -fno-stack-check -c /tmp/portage/net-libs/nghttp2-1.40.0/work/nghttp2-1.40.0/lib/nghttp2_stream.c  -fPIC -DPIC -o .libs/nghttp2_stream.o
libtool: compile:  x86_64-pc-linux-gnu-gcc -DHAVE_CONFIG_H -I. -I/tmp/portage/net-libs/nghttp2-1.40.0/work/nghttp2-1.40.0/lib -I.. -I/tmp/portage/net-libs/nghttp2-1.40.0/work/nghttp2-1.40.0/lib/includes -I./includes -DBUILDING_NGHTTP2 -DHAVE_CONFIG_H -fvisibility=hidden -O3 -march=native -pipe -g0 -fno-stack-protector -fno-stack-clash-protection -fstack-check=no -fno-stack-check -c /tmp/portage/net-libs/nghttp2-1.40.0/work/nghttp2-1.40.0/lib/nghttp2_helper.c  -fPIC -DPIC -o .libs/nghttp2_helper.o
libtool: compile:  x86_64-pc-linux-gnu-gcc -DHAVE_CONFIG_H -I. -I/tmp/portage/net-libs/nghttp2-1.40.0/work/nghttp2-1.40.0/lib -I.. -I/tmp/portage/net-libs/nghttp2-1.40.0/work/nghttp2-1.40.0/lib/includes -I./includes -DBUILDING_NGHTTP2 -DHAVE_CONFIG_H -fvisibility=hidden -O3 -march=native -pipe -g0 -fno-stack-protector -fno-stack-clash-protection -fstack-check=no -fno-stack-check -c /tmp/portage/net-libs/nghttp2-1.40.0/work/nghttp2-1.40.0/lib/nghttp2_outbound_item.c  -fPIC -DPIC -o .libs/nghttp2_outbound_item.o
libtool: compile:  x86_64-pc-linux-gnu-gcc -DHAVE_CONFIG_H -I. -I/tmp/portage/net-libs/nghttp2-1.40.0/work/nghttp2-1.40.0/lib -I.. -I/tmp/portage/net-libs/nghttp2-1.40.0/work/nghttp2-1.40.0/lib/includes -I./includes -DBUILDING_NGHTTP2 -DHAVE_CONFIG_H -fvisibility=hidden -O3 -march=native -pipe -g0 -fno-stack-protector -fno-stack-clash-protection -fstack-check=no -fno-stack-check -c /tmp/portage/net-libs/nghttp2-1.40.0/work/nghttp2-1.40.0/lib/nghttp2_frame.c  -fPIC -DPIC -o .libs/nghttp2_frame.o
libtool: compile:  x86_64-pc-linux-gnu-gcc -DHAVE_CONFIG_H -I. -I/tmp/portage/net-libs/nghttp2-1.40.0/work/nghttp2-1.40.0/lib -I.. -I/tmp/portage/net-libs/nghttp2-1.40.0/work/nghttp2-1.40.0/lib/includes -I./includes -DBUILDING_NGHTTP2 -DHAVE_CONFIG_H -fvisibility=hidden -O3 -march=native -pipe -g0 -fno-stack-protector -fno-stack-clash-protection -fstack-check=no -fno-stack-check -c /tmp/portage/net-libs/nghttp2-1.40.0/work/nghttp2-1.40.0/lib/nghttp2_npn.c  -fPIC -DPIC -o .libs/nghttp2_npn.o
libtool: compile:  x86_64-pc-linux-gnu-gcc -DHAVE_CONFIG_H -I. -I/tmp/portage/net-libs/nghttp2-1.40.0/work/nghttp2-1.40.0/lib -I.. -I/tmp/portage/net-libs/nghttp2-1.40.0/work/nghttp2-1.40.0/lib/includes -I./includes -DBUILDING_NGHTTP2 -DHAVE_CONFIG_H -fvisibility=hidden -O3 -march=native -pipe -g0 -fno-stack-protector -fno-stack-clash-protection -fstack-check=no -fno-stack-check -c /tmp/portage/net-libs/nghttp2-1.40.0/work/nghttp2-1.40.0/lib/nghttp2_hd.c  -fPIC -DPIC -o .libs/nghttp2_hd.o
/bin/sh ../libtool  --tag=CC   --mode=compile x86_64-pc-linux-gnu-gcc -DHAVE_CONFIG_H -I. -I/tmp/portage/net-libs/nghttp2-1.40.0/work/nghttp2-1.40.0/lib -I..  -I/tmp/portage/net-libs/nghttp2-1.40.0/work/nghttp2-1.40.0/lib/includes -I./includes -DBUILDING_NGHTTP2 -DHAVE_CONFIG_H   -fvisibility=hidden -O3 -march=native -pipe -g0 -fno-stack-protector -fno-stack-clash-protection -fstack-check=no -fno-stack-check -c -o nghttp2_hd_huffman.lo /tmp/portage/net-libs/nghttp2-1.40.0/work/nghttp2-1.40.0/lib/nghttp2_hd_huffman.c
/bin/sh ../libtool  --tag=CC   --mode=compile x86_64-pc-linux-gnu-gcc -DHAVE_CONFIG_H -I. -I/tmp/portage/net-libs/nghttp2-1.40.0/work/nghttp2-1.40.0/lib -I..  -I/tmp/portage/net-libs/nghttp2-1.40.0/work/nghttp2-1.40.0/lib/includes -I./includes -DBUILDING_NGHTTP2 -DHAVE_CONFIG_H   -fvisibility=hidden -O3 -march=native -pipe -g0 -fno-stack-protector -fno-stack-clash-protection -fstack-check=no -fno-stack-check -c -o nghttp2_hd_huffman_data.lo /tmp/portage/net-libs/nghttp2-1.40.0/work/nghttp2-1.40.0/lib/nghttp2_hd_huffman_data.c
/bin/sh ../libtool  --tag=CC   --mode=compile x86_64-pc-linux-gnu-gcc -DHAVE_CONFIG_H -I. -I/tmp/portage/net-libs/nghttp2-1.40.0/work/nghttp2-1.40.0/lib -I..  -I/tmp/portage/net-libs/nghttp2-1.40.0/work/nghttp2-1.40.0/lib/includes -I./includes -DBUILDING_NGHTTP2 -DHAVE_CONFIG_H   -fvisibility=hidden -O3 -march=native -pipe -g0 -fno-stack-protector -fno-stack-clash-protection -fstack-check=no -fno-stack-check -c -o nghttp2_version.lo /tmp/portage/net-libs/nghttp2-1.40.0/work/nghttp2-1.40.0/lib/nghttp2_version.c
/bin/sh ../libtool  --tag=CC   --mode=compile x86_64-pc-linux-gnu-gcc -DHAVE_CONFIG_H -I. -I/tmp/portage/net-libs/nghttp2-1.40.0/work/nghttp2-1.40.0/lib -I..  -I/tmp/portage/net-libs/nghttp2-1.40.0/work/nghttp2-1.40.0/lib/includes -I./includes -DBUILDING_NGHTTP2 -DHAVE_CONFIG_H   -fvisibility=hidden -O3 -march=native -pipe -g0 -fno-stack-protector -fno-stack-clash-protection -fstack-check=no -fno-stack-check -c -o nghttp2_priority_spec.lo /tmp/portage/net-libs/nghttp2-1.40.0/work/nghttp2-1.40.0/lib/nghttp2_priority_spec.c
/bin/sh ../libtool  --tag=CC   --mode=compile x86_64-pc-linux-gnu-gcc -DHAVE_CONFIG_H -I. -I/tmp/portage/net-libs/nghttp2-1.40.0/work/nghttp2-1.40.0/lib -I..  -I/tmp/portage/net-libs/nghttp2-1.40.0/work/nghttp2-1.40.0/lib/includes -I./includes -DBUILDING_NGHTTP2 -DHAVE_CONFIG_H   -fvisibility=hidden -O3 -march=native -pipe -g0 -fno-stack-protector -fno-stack-clash-protection -fstack-check=no -fno-stack-check -c -o nghttp2_option.lo /tmp/portage/net-libs/nghttp2-1.40.0/work/nghttp2-1.40.0/lib/nghttp2_option.c
/bin/sh ../libtool  --tag=CC   --mode=compile x86_64-pc-linux-gnu-gcc -DHAVE_CONFIG_H -I. -I/tmp/portage/net-libs/nghttp2-1.40.0/work/nghttp2-1.40.0/lib -I..  -I/tmp/portage/net-libs/nghttp2-1.40.0/work/nghttp2-1.40.0/lib/includes -I./includes -DBUILDING_NGHTTP2 -DHAVE_CONFIG_H   -fvisibility=hidden -O3 -march=native -pipe -g0 -fno-stack-protector -fno-stack-clash-protection -fstack-check=no -fno-stack-check -c -o nghttp2_callbacks.lo /tmp/portage/net-libs/nghttp2-1.40.0/work/nghttp2-1.40.0/lib/nghttp2_callbacks.c
libtool: compile:  x86_64-pc-linux-gnu-gcc -DHAVE_CONFIG_H -I. -I/tmp/portage/net-libs/nghttp2-1.40.0/work/nghttp2-1.40.0/lib -I.. -I/tmp/portage/net-libs/nghttp2-1.40.0/work/nghttp2-1.40.0/lib/includes -I./includes -DBUILDING_NGHTTP2 -DHAVE_CONFIG_H -fvisibility=hidden -O3 -march=native -pipe -g0 -fno-stack-protector -fno-stack-clash-protection -fstack-check=no -fno-stack-check -c /tmp/portage/net-libs/nghttp2-1.40.0/work/nghttp2-1.40.0/lib/nghttp2_hd_huffman.c  -fPIC -DPIC -o .libs/nghttp2_hd_huffman.o
libtool: compile:  x86_64-pc-linux-gnu-gcc -DHAVE_CONFIG_H -I. -I/tmp/portage/net-libs/nghttp2-1.40.0/work/nghttp2-1.40.0/lib -I.. -I/tmp/portage/net-libs/nghttp2-1.40.0/work/nghttp2-1.40.0/lib/includes -I./includes -DBUILDING_NGHTTP2 -DHAVE_CONFIG_H -fvisibility=hidden -O3 -march=native -pipe -g0 -fno-stack-protector -fno-stack-clash-protection -fstack-check=no -fno-stack-check -c /tmp/portage/net-libs/nghttp2-1.40.0/work/nghttp2-1.40.0/lib/nghttp2_hd_huffman_data.c  -fPIC -DPIC -o .libs/nghttp2_hd_huffman_data.o
libtool: compile:  x86_64-pc-linux-gnu-gcc -DHAVE_CONFIG_H -I. -I/tmp/portage/net-libs/nghttp2-1.40.0/work/nghttp2-1.40.0/lib -I.. -I/tmp/portage/net-libs/nghttp2-1.40.0/work/nghttp2-1.40.0/lib/includes -I./includes -DBUILDING_NGHTTP2 -DHAVE_CONFIG_H -fvisibility=hidden -O3 -march=native -pipe -g0 -fno-stack-protector -fno-stack-clash-protection -fstack-check=no -fno-stack-check -c /tmp/portage/net-libs/nghttp2-1.40.0/work/nghttp2-1.40.0/lib/nghttp2_version.c  -fPIC -DPIC -o .libs/nghttp2_version.o
libtool: compile:  x86_64-pc-linux-gnu-gcc -DHAVE_CONFIG_H -I. -I/tmp/portage/net-libs/nghttp2-1.40.0/work/nghttp2-1.40.0/lib -I.. -I/tmp/portage/net-libs/nghttp2-1.40.0/work/nghttp2-1.40.0/lib/includes -I./includes -DBUILDING_NGHTTP2 -DHAVE_CONFIG_H -fvisibility=hidden -O3 -march=native -pipe -g0 -fno-stack-protector -fno-stack-clash-protection -fstack-check=no -fno-stack-check -c /tmp/portage/net-libs/nghttp2-1.40.0/work/nghttp2-1.40.0/lib/nghttp2_priority_spec.c  -fPIC -DPIC -o .libs/nghttp2_priority_spec.o
libtool: compile:  x86_64-pc-linux-gnu-gcc -DHAVE_CONFIG_H -I. -I/tmp/portage/net-libs/nghttp2-1.40.0/work/nghttp2-1.40.0/lib -I.. -I/tmp/portage/net-libs/nghttp2-1.40.0/work/nghttp2-1.40.0/lib/includes -I./includes -DBUILDING_NGHTTP2 -DHAVE_CONFIG_H -fvisibility=hidden -O3 -march=native -pipe -g0 -fno-stack-protector -fno-stack-clash-protection -fstack-check=no -fno-stack-check -c /tmp/portage/net-libs/nghttp2-1.40.0/work/nghttp2-1.40.0/lib/nghttp2_option.c  -fPIC -DPIC -o .libs/nghttp2_option.o
/bin/sh ../libtool  --tag=CC   --mode=compile x86_64-pc-linux-gnu-gcc -DHAVE_CONFIG_H -I. -I/tmp/portage/net-libs/nghttp2-1.40.0/work/nghttp2-1.40.0/lib -I..  -I/tmp/portage/net-libs/nghttp2-1.40.0/work/nghttp2-1.40.0/lib/includes -I./includes -DBUILDING_NGHTTP2 -DHAVE_CONFIG_H   -fvisibility=hidden -O3 -march=native -pipe -g0 -fno-stack-protector -fno-stack-clash-protection -fstack-check=no -fno-stack-check -c -o nghttp2_mem.lo /tmp/portage/net-libs/nghttp2-1.40.0/work/nghttp2-1.40.0/lib/nghttp2_mem.c
libtool: compile:  x86_64-pc-linux-gnu-gcc -DHAVE_CONFIG_H -I. -I/tmp/portage/net-libs/nghttp2-1.40.0/work/nghttp2-1.40.0/lib -I.. -I/tmp/portage/net-libs/nghttp2-1.40.0/work/nghttp2-1.40.0/lib/includes -I./includes -DBUILDING_NGHTTP2 -DHAVE_CONFIG_H -fvisibility=hidden -O3 -march=native -pipe -g0 -fno-stack-protector -fno-stack-clash-protection -fstack-check=no -fno-stack-check -c /tmp/portage/net-libs/nghttp2-1.40.0/work/nghttp2-1.40.0/lib/nghttp2_callbacks.c  -fPIC -DPIC -o .libs/nghttp2_callbacks.o
/bin/sh ../libtool  --tag=CC   --mode=compile x86_64-pc-linux-gnu-gcc -DHAVE_CONFIG_H -I. -I/tmp/portage/net-libs/nghttp2-1.40.0/work/nghttp2-1.40.0/lib -I..  -I/tmp/portage/net-libs/nghttp2-1.40.0/work/nghttp2-1.40.0/lib/includes -I./includes -DBUILDING_NGHTTP2 -DHAVE_CONFIG_H   -fvisibility=hidden -O3 -march=native -pipe -g0 -fno-stack-protector -fno-stack-clash-protection -fstack-check=no -fno-stack-check -c -o nghttp2_http.lo /tmp/portage/net-libs/nghttp2-1.40.0/work/nghttp2-1.40.0/lib/nghttp2_http.c
/bin/sh ../libtool  --tag=CC   --mode=compile x86_64-pc-linux-gnu-gcc -DHAVE_CONFIG_H -I. -I/tmp/portage/net-libs/nghttp2-1.40.0/work/nghttp2-1.40.0/lib -I..  -I/tmp/portage/net-libs/nghttp2-1.40.0/work/nghttp2-1.40.0/lib/includes -I./includes -DBUILDING_NGHTTP2 -DHAVE_CONFIG_H   -fvisibility=hidden -O3 -march=native -pipe -g0 -fno-stack-protector -fno-stack-clash-protection -fstack-check=no -fno-stack-check -c -o nghttp2_rcbuf.lo /tmp/portage/net-libs/nghttp2-1.40.0/work/nghttp2-1.40.0/lib/nghttp2_rcbuf.c
/bin/sh ../libtool  --tag=CC   --mode=compile x86_64-pc-linux-gnu-gcc -DHAVE_CONFIG_H -I. -I/tmp/portage/net-libs/nghttp2-1.40.0/work/nghttp2-1.40.0/lib -I..  -I/tmp/portage/net-libs/nghttp2-1.40.0/work/nghttp2-1.40.0/lib/includes -I./includes -DBUILDING_NGHTTP2 -DHAVE_CONFIG_H   -fvisibility=hidden -O3 -march=native -pipe -g0 -fno-stack-protector -fno-stack-clash-protection -fstack-check=no -fno-stack-check -c -o nghttp2_debug.lo /tmp/portage/net-libs/nghttp2-1.40.0/work/nghttp2-1.40.0/lib/nghttp2_debug.c
libtool: compile:  x86_64-pc-linux-gnu-gcc -DHAVE_CONFIG_H -I. -I/tmp/portage/net-libs/nghttp2-1.40.0/work/nghttp2-1.40.0/lib -I.. -I/tmp/portage/net-libs/nghttp2-1.40.0/work/nghttp2-1.40.0/lib/includes -I./includes -DBUILDING_NGHTTP2 -DHAVE_CONFIG_H -fvisibility=hidden -O3 -march=native -pipe -g0 -fno-stack-protector -fno-stack-clash-protection -fstack-check=no -fno-stack-check -c /tmp/portage/net-libs/nghttp2-1.40.0/work/nghttp2-1.40.0/lib/nghttp2_mem.c  -fPIC -DPIC -o .libs/nghttp2_mem.o
libtool: compile:  x86_64-pc-linux-gnu-gcc -DHAVE_CONFIG_H -I. -I/tmp/portage/net-libs/nghttp2-1.40.0/work/nghttp2-1.40.0/lib -I.. -I/tmp/portage/net-libs/nghttp2-1.40.0/work/nghttp2-1.40.0/lib/includes -I./includes -DBUILDING_NGHTTP2 -DHAVE_CONFIG_H -fvisibility=hidden -O3 -march=native -pipe -g0 -fno-stack-protector -fno-stack-clash-protection -fstack-check=no -fno-stack-check -c /tmp/portage/net-libs/nghttp2-1.40.0/work/nghttp2-1.40.0/lib/nghttp2_http.c  -fPIC -DPIC -o .libs/nghttp2_http.o
libtool: compile:  x86_64-pc-linux-gnu-gcc -DHAVE_CONFIG_H -I. -I/tmp/portage/net-libs/nghttp2-1.40.0/work/nghttp2-1.40.0/lib -I.. -I/tmp/portage/net-libs/nghttp2-1.40.0/work/nghttp2-1.40.0/lib/includes -I./includes -DBUILDING_NGHTTP2 -DHAVE_CONFIG_H -fvisibility=hidden -O3 -march=native -pipe -g0 -fno-stack-protector -fno-stack-clash-protection -fstack-check=no -fno-stack-check -c /tmp/portage/net-libs/nghttp2-1.40.0/work/nghttp2-1.40.0/lib/nghttp2_rcbuf.c  -fPIC -DPIC -o .libs/nghttp2_rcbuf.o
libtool: compile:  x86_64-pc-linux-gnu-gcc -DHAVE_CONFIG_H -I. -I/tmp/portage/net-libs/nghttp2-1.40.0/work/nghttp2-1.40.0/lib -I.. -I/tmp/portage/net-libs/nghttp2-1.40.0/work/nghttp2-1.40.0/lib/includes -I./includes -DBUILDING_NGHTTP2 -DHAVE_CONFIG_H -fvisibility=hidden -O3 -march=native -pipe -g0 -fno-stack-protector -fno-stack-clash-protection -fstack-check=no -fno-stack-check -c /tmp/portage/net-libs/nghttp2-1.40.0/work/nghttp2-1.40.0/lib/nghttp2_debug.c  -fPIC -DPIC -o .libs/nghttp2_debug.o
/bin/sh ../libtool  --tag=CC   --mode=link x86_64-pc-linux-gnu-gcc  -fvisibility=hidden -O3 -march=native -pipe -g0 -fno-stack-protector -fno-stack-clash-protection -fstack-check=no -fno-stack-check -no-undefined -version-info 33:0:19 -Wl,-O1 -Wl,--as-needed -Wl,--defsym=__gentoo_check_ldflags__=0 -Wl,--hash-style=gnu -Wl,-z,norelro -o libnghttp2.la -rpath /usr/lib64  nghttp2_pq.lo nghttp2_map.lo nghttp2_queue.lo nghttp2_frame.lo nghttp2_buf.lo nghttp2_stream.lo nghttp2_outbound_item.lo nghttp2_session.lo nghttp2_submit.lo nghttp2_helper.lo nghttp2_npn.lo nghttp2_hd.lo nghttp2_hd_huffman.lo nghttp2_hd_huffman_data.lo nghttp2_version.lo nghttp2_priority_spec.lo nghttp2_option.lo nghttp2_callbacks.lo nghttp2_mem.lo nghttp2_http.lo nghttp2_rcbuf.lo nghttp2_debug.lo  
libtool: link: x86_64-pc-linux-gnu-gcc -shared  -fPIC -DPIC  .libs/nghttp2_pq.o .libs/nghttp2_map.o .libs/nghttp2_queue.o .libs/nghttp2_frame.o .libs/nghttp2_buf.o .libs/nghttp2_stream.o .libs/nghttp2_outbound_item.o .libs/nghttp2_session.o .libs/nghttp2_submit.o .libs/nghttp2_helper.o .libs/nghttp2_npn.o .libs/nghttp2_hd.o .libs/nghttp2_hd_huffman.o .libs/nghttp2_hd_huffman_data.o .libs/nghttp2_version.o .libs/nghttp2_priority_spec.o .libs/nghttp2_option.o .libs/nghttp2_callbacks.o .libs/nghttp2_mem.o .libs/nghttp2_http.o .libs/nghttp2_rcbuf.o .libs/nghttp2_debug.o    -O3 -march=native -g0 -Wl,-O1 -Wl,--as-needed -Wl,--defsym=__gentoo_check_ldflags__=0 -Wl,--hash-style=gnu -Wl,-z -Wl,norelro   -Wl,-soname -Wl,libnghttp2.so.14 -o .libs/libnghttp2.so.14.19.0
libtool: link: (cd ".libs" && rm -f "libnghttp2.so.14" && ln -s "libnghttp2.so.14.19.0" "libnghttp2.so.14")
libtool: link: (cd ".libs" && rm -f "libnghttp2.so" && ln -s "libnghttp2.so.14.19.0" "libnghttp2.so")
libtool: link: ( cd ".libs" && rm -f "libnghttp2.la" && ln -s "../libnghttp2.la" "libnghttp2.la" )
make[3]: Leaving directory '/tmp/portage/net-libs/nghttp2-1.40.0/work/nghttp2-1.40.0-abi_x86_64.amd64/lib'
make[2]: Leaving directory '/tmp/portage/net-libs/nghttp2-1.40.0/work/nghttp2-1.40.0-abi_x86_64.amd64/lib'
Making all in third-party
make[2]: Entering directory '/tmp/portage/net-libs/nghttp2-1.40.0/work/nghttp2-1.40.0-abi_x86_64.amd64/third-party'
make[2]: Nothing to be done for 'all'.
make[2]: Leaving directory '/tmp/portage/net-libs/nghttp2-1.40.0/work/nghttp2-1.40.0-abi_x86_64.amd64/third-party'
Making all in src
make[2]: Entering directory '/tmp/portage/net-libs/nghttp2-1.40.0/work/nghttp2-1.40.0-abi_x86_64.amd64/src'
Making all in includes
make[3]: Entering directory '/tmp/portage/net-libs/nghttp2-1.40.0/work/nghttp2-1.40.0-abi_x86_64.amd64/src/includes'
make[3]: Nothing to be done for 'all'.
make[3]: Leaving directory '/tmp/portage/net-libs/nghttp2-1.40.0/work/nghttp2-1.40.0-abi_x86_64.amd64/src/includes'
make[3]: Entering directory '/tmp/portage/net-libs/nghttp2-1.40.0/work/nghttp2-1.40.0-abi_x86_64.amd64/src'
make[3]: Nothing to be done for 'all-am'.
make[3]: Leaving directory '/tmp/portage/net-libs/nghttp2-1.40.0/work/nghttp2-1.40.0-abi_x86_64.amd64/src'
make[2]: Leaving directory '/tmp/portage/net-libs/nghttp2-1.40.0/work/nghttp2-1.40.0-abi_x86_64.amd64/src'
Making all in examples
make[2]: Entering directory '/tmp/portage/net-libs/nghttp2-1.40.0/work/nghttp2-1.40.0-abi_x86_64.amd64/examples'
make[2]: Nothing to be done for 'all'.
make[2]: Leaving directory '/tmp/portage/net-libs/nghttp2-1.40.0/work/nghttp2-1.40.0-abi_x86_64.amd64/examples'
Making all in python
make[2]: Entering directory '/tmp/portage/net-libs/nghttp2-1.40.0/work/nghttp2-1.40.0-abi_x86_64.amd64/python'
make[2]: Nothing to be done for 'all'.
make[2]: Leaving directory '/tmp/portage/net-libs/nghttp2-1.40.0/work/nghttp2-1.40.0-abi_x86_64.amd64/python'
Making all in tests
make[2]: Entering directory '/tmp/portage/net-libs/nghttp2-1.40.0/work/nghttp2-1.40.0-abi_x86_64.amd64/tests'
Making all in testdata
make[3]: Entering directory '/tmp/portage/net-libs/nghttp2-1.40.0/work/nghttp2-1.40.0-abi_x86_64.amd64/tests/testdata'
make[3]: Nothing to be done for 'all'.
make[3]: Leaving directory '/tmp/portage/net-libs/nghttp2-1.40.0/work/nghttp2-1.40.0-abi_x86_64.amd64/tests/testdata'
make[3]: Entering directory '/tmp/portage/net-libs/nghttp2-1.40.0/work/nghttp2-1.40.0-abi_x86_64.amd64/tests'
make[3]: Nothing to be done for 'all-am'.
make[3]: Leaving directory '/tmp/portage/net-libs/nghttp2-1.40.0/work/nghttp2-1.40.0-abi_x86_64.amd64/tests'
make[2]: Leaving directory '/tmp/portage/net-libs/nghttp2-1.40.0/work/nghttp2-1.40.0-abi_x86_64.amd64/tests'
Making all in integration-tests
make[2]: Entering directory '/tmp/portage/net-libs/nghttp2-1.40.0/work/nghttp2-1.40.0-abi_x86_64.amd64/integration-tests'
make[2]: Nothing to be done for 'all'.
make[2]: Leaving directory '/tmp/portage/net-libs/nghttp2-1.40.0/work/nghttp2-1.40.0-abi_x86_64.amd64/integration-tests'
Making all in doc
make[2]: Entering directory '/tmp/portage/net-libs/nghttp2-1.40.0/work/nghttp2-1.40.0-abi_x86_64.amd64/doc'
make[2]: Nothing to be done for 'all'.
make[2]: Leaving directory '/tmp/portage/net-libs/nghttp2-1.40.0/work/nghttp2-1.40.0-abi_x86_64.amd64/doc'
Making all in contrib
make[2]: Entering directory '/tmp/portage/net-libs/nghttp2-1.40.0/work/nghttp2-1.40.0-abi_x86_64.amd64/contrib'
rm -f nghttpx-init nghttpx-init.tmp
sed -e 's|@bindir[@]|/usr/bin|g' /tmp/portage/net-libs/nghttp2-1.40.0/work/nghttp2-1.40.0/contrib/nghttpx.service.in > nghttpx.service
sed -e 's|@bindir[@]|/usr/bin|g' /tmp/portage/net-libs/nghttp2-1.40.0/work/nghttp2-1.40.0/contrib/nghttpx-upstart.conf.in > nghttpx-upstart.conf
sed -e 's|@bindir[@]|/usr/bin|g' /tmp/portage/net-libs/nghttp2-1.40.0/work/nghttp2-1.40.0/contrib/nghttpx-init.in > nghttpx-init.tmp
chmod +x nghttpx-init.tmp
mv nghttpx-init.tmp nghttpx-init
make[2]: Leaving directory '/tmp/portage/net-libs/nghttp2-1.40.0/work/nghttp2-1.40.0-abi_x86_64.amd64/contrib'
Making all in script
make[2]: Entering directory '/tmp/portage/net-libs/nghttp2-1.40.0/work/nghttp2-1.40.0-abi_x86_64.amd64/script'
make[2]: Nothing to be done for 'all'.
make[2]: Leaving directory '/tmp/portage/net-libs/nghttp2-1.40.0/work/nghttp2-1.40.0-abi_x86_64.amd64/script'
make[2]: Entering directory '/tmp/portage/net-libs/nghttp2-1.40.0/work/nghttp2-1.40.0-abi_x86_64.amd64'
make[2]: Leaving directory '/tmp/portage/net-libs/nghttp2-1.40.0/work/nghttp2-1.40.0-abi_x86_64.amd64'
make[1]: Leaving directory '/tmp/portage/net-libs/nghttp2-1.40.0/work/nghttp2-1.40.0-abi_x86_64.amd64'
>>> Source compiled.
>>> Test phase: net-libs/nghttp2-1.40.0
 [32;01m*[0m abi_x86_64.amd64: running multilib-minimal_abi_src_test
make -j12   check
Making check in lib
make[1]: Entering directory '/tmp/portage/net-libs/nghttp2-1.40.0/work/nghttp2-1.40.0-abi_x86_64.amd64/lib'
Making check in includes
make[2]: Entering directory '/tmp/portage/net-libs/nghttp2-1.40.0/work/nghttp2-1.40.0-abi_x86_64.amd64/lib/includes'
make[2]: Nothing to be done for 'check'.
make[2]: Leaving directory '/tmp/portage/net-libs/nghttp2-1.40.0/work/nghttp2-1.40.0-abi_x86_64.amd64/lib/includes'
make[2]: Entering directory '/tmp/portage/net-libs/nghttp2-1.40.0/work/nghttp2-1.40.0-abi_x86_64.amd64/lib'
make[2]: Nothing to be done for 'check-am'.
make[2]: Leaving directory '/tmp/portage/net-libs/nghttp2-1.40.0/work/nghttp2-1.40.0-abi_x86_64.amd64/lib'
make[1]: Leaving directory '/tmp/portage/net-libs/nghttp2-1.40.0/work/nghttp2-1.40.0-abi_x86_64.amd64/lib'
Making check in third-party
make[1]: Entering directory '/tmp/portage/net-libs/nghttp2-1.40.0/work/nghttp2-1.40.0-abi_x86_64.amd64/third-party'
make[1]: Nothing to be done for 'check'.
make[1]: Leaving directory '/tmp/portage/net-libs/nghttp2-1.40.0/work/nghttp2-1.40.0-abi_x86_64.amd64/third-party'
Making check in src
make[1]: Entering directory '/tmp/portage/net-libs/nghttp2-1.40.0/work/nghttp2-1.40.0-abi_x86_64.amd64/src'
Making check in includes
make[2]: Entering directory '/tmp/portage/net-libs/nghttp2-1.40.0/work/nghttp2-1.40.0-abi_x86_64.amd64/src/includes'
make[2]: Nothing to be done for 'check'.
make[2]: Leaving directory '/tmp/portage/net-libs/nghttp2-1.40.0/work/nghttp2-1.40.0-abi_x86_64.amd64/src/includes'
make[2]: Entering directory '/tmp/portage/net-libs/nghttp2-1.40.0/work/nghttp2-1.40.0-abi_x86_64.amd64/src'
make  
make[3]: Entering directory '/tmp/portage/net-libs/nghttp2-1.40.0/work/nghttp2-1.40.0-abi_x86_64.amd64/src'
Making all in includes
make[4]: Entering directory '/tmp/portage/net-libs/nghttp2-1.40.0/work/nghttp2-1.40.0-abi_x86_64.amd64/src/includes'
make[4]: Nothing to be done for 'all'.
make[4]: Leaving directory '/tmp/portage/net-libs/nghttp2-1.40.0/work/nghttp2-1.40.0-abi_x86_64.amd64/src/includes'
make[4]: Entering directory '/tmp/portage/net-libs/nghttp2-1.40.0/work/nghttp2-1.40.0-abi_x86_64.amd64/src'
make[4]: Nothing to be done for 'all-am'.
make[4]: Leaving directory '/tmp/portage/net-libs/nghttp2-1.40.0/work/nghttp2-1.40.0-abi_x86_64.amd64/src'
make[3]: Leaving directory '/tmp/portage/net-libs/nghttp2-1.40.0/work/nghttp2-1.40.0-abi_x86_64.amd64/src'
make  check-TESTS
make[3]: Entering directory '/tmp/portage/net-libs/nghttp2-1.40.0/work/nghttp2-1.40.0-abi_x86_64.amd64/src'
make[4]: Entering directory '/tmp/portage/net-libs/nghttp2-1.40.0/work/nghttp2-1.40.0-abi_x86_64.amd64/src'
============================================================================
Testsuite summary for nghttp2 1.40.0
============================================================================
# TOTAL: 0
# PASS:  0
# SKIP:  0
# XFAIL: 0
# FAIL:  0
# XPASS: 0
# ERROR: 0
============================================================================
make[4]: Leaving directory '/tmp/portage/net-libs/nghttp2-1.40.0/work/nghttp2-1.40.0-abi_x86_64.amd64/src'
make[3]: Leaving directory '/tmp/portage/net-libs/nghttp2-1.40.0/work/nghttp2-1.40.0-abi_x86_64.amd64/src'
make[2]: Leaving directory '/tmp/portage/net-libs/nghttp2-1.40.0/work/nghttp2-1.40.0-abi_x86_64.amd64/src'
make[1]: Leaving directory '/tmp/portage/net-libs/nghttp2-1.40.0/work/nghttp2-1.40.0-abi_x86_64.amd64/src'
Making check in examples
make[1]: Entering directory '/tmp/portage/net-libs/nghttp2-1.40.0/work/nghttp2-1.40.0-abi_x86_64.amd64/examples'
make[1]: Nothing to be done for 'check'.
make[1]: Leaving directory '/tmp/portage/net-libs/nghttp2-1.40.0/work/nghttp2-1.40.0-abi_x86_64.amd64/examples'
Making check in python
make[1]: Entering directory '/tmp/portage/net-libs/nghttp2-1.40.0/work/nghttp2-1.40.0-abi_x86_64.amd64/python'
make[1]: Nothing to be done for 'check'.
make[1]: Leaving directory '/tmp/portage/net-libs/nghttp2-1.40.0/work/nghttp2-1.40.0-abi_x86_64.amd64/python'
Making check in tests
make[1]: Entering directory '/tmp/portage/net-libs/nghttp2-1.40.0/work/nghttp2-1.40.0-abi_x86_64.amd64/tests'
Making check in testdata
make[2]: Entering directory '/tmp/portage/net-libs/nghttp2-1.40.0/work/nghttp2-1.40.0-abi_x86_64.amd64/tests/testdata'
make[2]: Nothing to be done for 'check'.
make[2]: Leaving directory '/tmp/portage/net-libs/nghttp2-1.40.0/work/nghttp2-1.40.0-abi_x86_64.amd64/tests/testdata'
make[2]: Entering directory '/tmp/portage/net-libs/nghttp2-1.40.0/work/nghttp2-1.40.0-abi_x86_64.amd64/tests'
make  main 
make[3]: Entering directory '/tmp/portage/net-libs/nghttp2-1.40.0/work/nghttp2-1.40.0-abi_x86_64.amd64/tests'
x86_64-pc-linux-gnu-gcc -DHAVE_CONFIG_H -I. -I/tmp/portage/net-libs/nghttp2-1.40.0/work/nghttp2-1.40.0/tests -I..     -I/tmp/portage/net-libs/nghttp2-1.40.0/work/nghttp2-1.40.0/lib -I/tmp/portage/net-libs/nghttp2-1.40.0/work/nghttp2-1.40.0/lib/includes -I../lib/includes -DHAVE_CONFIG_H -O3 -march=native -pipe -g0 -fno-stack-protector -fno-stack-clash-protection -fstack-check=no -fno-stack-check -c -o main.o /tmp/portage/net-libs/nghttp2-1.40.0/work/nghttp2-1.40.0/tests/main.c
x86_64-pc-linux-gnu-gcc -DHAVE_CONFIG_H -I. -I/tmp/portage/net-libs/nghttp2-1.40.0/work/nghttp2-1.40.0/tests -I..     -I/tmp/portage/net-libs/nghttp2-1.40.0/work/nghttp2-1.40.0/lib -I/tmp/portage/net-libs/nghttp2-1.40.0/work/nghttp2-1.40.0/lib/includes -I../lib/includes -DHAVE_CONFIG_H -O3 -march=native -pipe -g0 -fno-stack-protector -fno-stack-clash-protection -fstack-check=no -fno-stack-check -c -o nghttp2_pq_test.o /tmp/portage/net-libs/nghttp2-1.40.0/work/nghttp2-1.40.0/tests/nghttp2_pq_test.c
x86_64-pc-linux-gnu-gcc -DHAVE_CONFIG_H -I. -I/tmp/portage/net-libs/nghttp2-1.40.0/work/nghttp2-1.40.0/tests -I..     -I/tmp/portage/net-libs/nghttp2-1.40.0/work/nghttp2-1.40.0/lib -I/tmp/portage/net-libs/nghttp2-1.40.0/work/nghttp2-1.40.0/lib/includes -I../lib/includes -DHAVE_CONFIG_H -O3 -march=native -pipe -g0 -fno-stack-protector -fno-stack-clash-protection -fstack-check=no -fno-stack-check -c -o nghttp2_map_test.o /tmp/portage/net-libs/nghttp2-1.40.0/work/nghttp2-1.40.0/tests/nghttp2_map_test.c
x86_64-pc-linux-gnu-gcc -DHAVE_CONFIG_H -I. -I/tmp/portage/net-libs/nghttp2-1.40.0/work/nghttp2-1.40.0/tests -I..     -I/tmp/portage/net-libs/nghttp2-1.40.0/work/nghttp2-1.40.0/lib -I/tmp/portage/net-libs/nghttp2-1.40.0/work/nghttp2-1.40.0/lib/includes -I../lib/includes -DHAVE_CONFIG_H -O3 -march=native -pipe -g0 -fno-stack-protector -fno-stack-clash-protection -fstack-check=no -fno-stack-check -c -o nghttp2_queue_test.o /tmp/portage/net-libs/nghttp2-1.40.0/work/nghttp2-1.40.0/tests/nghttp2_queue_test.c
x86_64-pc-linux-gnu-gcc -DHAVE_CONFIG_H -I. -I/tmp/portage/net-libs/nghttp2-1.40.0/work/nghttp2-1.40.0/tests -I..     -I/tmp/portage/net-libs/nghttp2-1.40.0/work/nghttp2-1.40.0/lib -I/tmp/portage/net-libs/nghttp2-1.40.0/work/nghttp2-1.40.0/lib/includes -I../lib/includes -DHAVE_CONFIG_H -O3 -march=native -pipe -g0 -fno-stack-protector -fno-stack-clash-protection -fstack-check=no -fno-stack-check -c -o nghttp2_test_helper.o /tmp/portage/net-libs/nghttp2-1.40.0/work/nghttp2-1.40.0/tests/nghttp2_test_helper.c
x86_64-pc-linux-gnu-gcc -DHAVE_CONFIG_H -I. -I/tmp/portage/net-libs/nghttp2-1.40.0/work/nghttp2-1.40.0/tests -I..     -I/tmp/portage/net-libs/nghttp2-1.40.0/work/nghttp2-1.40.0/lib -I/tmp/portage/net-libs/nghttp2-1.40.0/work/nghttp2-1.40.0/lib/includes -I../lib/includes -DHAVE_CONFIG_H -O3 -march=native -pipe -g0 -fno-stack-protector -fno-stack-clash-protection -fstack-check=no -fno-stack-check -c -o nghttp2_frame_test.o /tmp/portage/net-libs/nghttp2-1.40.0/work/nghttp2-1.40.0/tests/nghttp2_frame_test.c
x86_64-pc-linux-gnu-gcc -DHAVE_CONFIG_H -I. -I/tmp/portage/net-libs/nghttp2-1.40.0/work/nghttp2-1.40.0/tests -I..     -I/tmp/portage/net-libs/nghttp2-1.40.0/work/nghttp2-1.40.0/lib -I/tmp/portage/net-libs/nghttp2-1.40.0/work/nghttp2-1.40.0/lib/includes -I../lib/includes -DHAVE_CONFIG_H -O3 -march=native -pipe -g0 -fno-stack-protector -fno-stack-clash-protection -fstack-check=no -fno-stack-check -c -o nghttp2_stream_test.o /tmp/portage/net-libs/nghttp2-1.40.0/work/nghttp2-1.40.0/tests/nghttp2_stream_test.c
x86_64-pc-linux-gnu-gcc -DHAVE_CONFIG_H -I. -I/tmp/portage/net-libs/nghttp2-1.40.0/work/nghttp2-1.40.0/tests -I..     -I/tmp/portage/net-libs/nghttp2-1.40.0/work/nghttp2-1.40.0/lib -I/tmp/portage/net-libs/nghttp2-1.40.0/work/nghttp2-1.40.0/lib/includes -I../lib/includes -DHAVE_CONFIG_H -O3 -march=native -pipe -g0 -fno-stack-protector -fno-stack-clash-protection -fstack-check=no -fno-stack-check -c -o nghttp2_session_test.o /tmp/portage/net-libs/nghttp2-1.40.0/work/nghttp2-1.40.0/tests/nghttp2_session_test.c
x86_64-pc-linux-gnu-gcc -DHAVE_CONFIG_H -I. -I/tmp/portage/net-libs/nghttp2-1.40.0/work/nghttp2-1.40.0/tests -I..     -I/tmp/portage/net-libs/nghttp2-1.40.0/work/nghttp2-1.40.0/lib -I/tmp/portage/net-libs/nghttp2-1.40.0/work/nghttp2-1.40.0/lib/includes -I../lib/includes -DHAVE_CONFIG_H -O3 -march=native -pipe -g0 -fno-stack-protector -fno-stack-clash-protection -fstack-check=no -fno-stack-check -c -o nghttp2_hd_test.o /tmp/portage/net-libs/nghttp2-1.40.0/work/nghttp2-1.40.0/tests/nghttp2_hd_test.c
x86_64-pc-linux-gnu-gcc -DHAVE_CONFIG_H -I. -I/tmp/portage/net-libs/nghttp2-1.40.0/work/nghttp2-1.40.0/tests -I..     -I/tmp/portage/net-libs/nghttp2-1.40.0/work/nghttp2-1.40.0/lib -I/tmp/portage/net-libs/nghttp2-1.40.0/work/nghttp2-1.40.0/lib/includes -I../lib/includes -DHAVE_CONFIG_H -O3 -march=native -pipe -g0 -fno-stack-protector -fno-stack-clash-protection -fstack-check=no -fno-stack-check -c -o nghttp2_npn_test.o /tmp/portage/net-libs/nghttp2-1.40.0/work/nghttp2-1.40.0/tests/nghttp2_npn_test.c
x86_64-pc-linux-gnu-gcc -DHAVE_CONFIG_H -I. -I/tmp/portage/net-libs/nghttp2-1.40.0/work/nghttp2-1.40.0/tests -I..     -I/tmp/portage/net-libs/nghttp2-1.40.0/work/nghttp2-1.40.0/lib -I/tmp/portage/net-libs/nghttp2-1.40.0/work/nghttp2-1.40.0/lib/includes -I../lib/includes -DHAVE_CONFIG_H -O3 -march=native -pipe -g0 -fno-stack-protector -fno-stack-clash-protection -fstack-check=no -fno-stack-check -c -o nghttp2_helper_test.o /tmp/portage/net-libs/nghttp2-1.40.0/work/nghttp2-1.40.0/tests/nghttp2_helper_test.c
x86_64-pc-linux-gnu-gcc -DHAVE_CONFIG_H -I. -I/tmp/portage/net-libs/nghttp2-1.40.0/work/nghttp2-1.40.0/tests -I..     -I/tmp/portage/net-libs/nghttp2-1.40.0/work/nghttp2-1.40.0/lib -I/tmp/portage/net-libs/nghttp2-1.40.0/work/nghttp2-1.40.0/lib/includes -I../lib/includes -DHAVE_CONFIG_H -O3 -march=native -pipe -g0 -fno-stack-protector -fno-stack-clash-protection -fstack-check=no -fno-stack-check -c -o nghttp2_buf_test.o /tmp/portage/net-libs/nghttp2-1.40.0/work/nghttp2-1.40.0/tests/nghttp2_buf_test.c
/bin/sh ../libtool  --tag=CC   --mode=link x86_64-pc-linux-gnu-gcc  -I/tmp/portage/net-libs/nghttp2-1.40.0/work/nghttp2-1.40.0/lib -I/tmp/portage/net-libs/nghttp2-1.40.0/work/nghttp2-1.40.0/lib/includes -I../lib/includes -DHAVE_CONFIG_H -O3 -march=native -pipe -g0 -fno-stack-protector -fno-stack-clash-protection -fstack-check=no -fno-stack-check -static -Wl,-O1 -Wl,--as-needed -Wl,--defsym=__gentoo_check_ldflags__=0 -Wl,--hash-style=gnu -Wl,-z,norelro -o main  main.o nghttp2_pq_test.o nghttp2_map_test.o nghttp2_queue_test.o nghttp2_test_helper.o nghttp2_frame_test.o nghttp2_stream_test.o nghttp2_session_test.o nghttp2_hd_test.o nghttp2_npn_test.o nghttp2_helper_test.o nghttp2_buf_test.o ../lib/.libs/*.o -lcunit  
libtool: link: x86_64-pc-linux-gnu-gcc -I/tmp/portage/net-libs/nghttp2-1.40.0/work/nghttp2-1.40.0/lib -I/tmp/portage/net-libs/nghttp2-1.40.0/work/nghttp2-1.40.0/lib/includes -I../lib/includes -DHAVE_CONFIG_H -O3 -march=native -pipe -g0 -fno-stack-protector -fno-stack-clash-protection -fstack-check=no -fno-stack-check -Wl,-O1 -Wl,--as-needed -Wl,--defsym=__gentoo_check_ldflags__=0 -Wl,--hash-style=gnu -Wl,-z -Wl,norelro -o main main.o nghttp2_pq_test.o nghttp2_map_test.o nghttp2_queue_test.o nghttp2_test_helper.o nghttp2_frame_test.o nghttp2_stream_test.o nghttp2_session_test.o nghttp2_hd_test.o nghttp2_npn_test.o nghttp2_helper_test.o nghttp2_buf_test.o ../lib/.libs/nghttp2_buf.o ../lib/.libs/nghttp2_callbacks.o ../lib/.libs/nghttp2_debug.o ../lib/.libs/nghttp2_frame.o ../lib/.libs/nghttp2_hd.o ../lib/.libs/nghttp2_hd_huffman.o ../lib/.libs/nghttp2_hd_huffman_data.o ../lib/.libs/nghttp2_helper.o ../lib/.libs/nghttp2_http.o ../lib/.libs/nghttp2_map.o ../lib/.libs/nghttp2_mem.o ../lib/.libs/nghttp2_npn.o ../lib/.libs/nghttp2_option.o ../lib/.libs/nghttp2_outbound_item.o ../lib/.libs/nghttp2_pq.o ../lib/.libs/nghttp2_priority_spec.o ../lib/.libs/nghttp2_queue.o ../lib/.libs/nghttp2_rcbuf.o ../lib/.libs/nghttp2_session.o ../lib/.libs/nghttp2_stream.o ../lib/.libs/nghttp2_submit.o ../lib/.libs/nghttp2_version.o  -lcunit
make[3]: Leaving directory '/tmp/portage/net-libs/nghttp2-1.40.0/work/nghttp2-1.40.0-abi_x86_64.amd64/tests'
make  check-TESTS
make[3]: Entering directory '/tmp/portage/net-libs/nghttp2-1.40.0/work/nghttp2-1.40.0-abi_x86_64.amd64/tests'
make[4]: Entering directory '/tmp/portage/net-libs/nghttp2-1.40.0/work/nghttp2-1.40.0-abi_x86_64.amd64/tests'
PASS: main
============================================================================
Testsuite summary for nghttp2 1.40.0
============================================================================
# TOTAL: 1
# PASS:  1
# SKIP:  0
# XFAIL: 0
# FAIL:  0
# XPASS: 0
# ERROR: 0
============================================================================
make[4]: Leaving directory '/tmp/portage/net-libs/nghttp2-1.40.0/work/nghttp2-1.40.0-abi_x86_64.amd64/tests'
make[3]: Leaving directory '/tmp/portage/net-libs/nghttp2-1.40.0/work/nghttp2-1.40.0-abi_x86_64.amd64/tests'
make[2]: Leaving directory '/tmp/portage/net-libs/nghttp2-1.40.0/work/nghttp2-1.40.0-abi_x86_64.amd64/tests'
make[1]: Leaving directory '/tmp/portage/net-libs/nghttp2-1.40.0/work/nghttp2-1.40.0-abi_x86_64.amd64/tests'
Making check in integration-tests
make[1]: Entering directory '/tmp/portage/net-libs/nghttp2-1.40.0/work/nghttp2-1.40.0-abi_x86_64.amd64/integration-tests'
make[1]: Nothing to be done for 'check'.
make[1]: Leaving directory '/tmp/portage/net-libs/nghttp2-1.40.0/work/nghttp2-1.40.0-abi_x86_64.amd64/integration-tests'
Making check in doc
make[1]: Entering directory '/tmp/portage/net-libs/nghttp2-1.40.0/work/nghttp2-1.40.0-abi_x86_64.amd64/doc'
make[1]: Nothing to be done for 'check'.
make[1]: Leaving directory '/tmp/portage/net-libs/nghttp2-1.40.0/work/nghttp2-1.40.0-abi_x86_64.amd64/doc'
Making check in contrib
make[1]: Entering directory '/tmp/portage/net-libs/nghttp2-1.40.0/work/nghttp2-1.40.0-abi_x86_64.amd64/contrib'
make[1]: Nothing to be done for 'check'.
make[1]: Leaving directory '/tmp/portage/net-libs/nghttp2-1.40.0/work/nghttp2-1.40.0-abi_x86_64.amd64/contrib'
Making check in script
make[1]: Entering directory '/tmp/portage/net-libs/nghttp2-1.40.0/work/nghttp2-1.40.0-abi_x86_64.amd64/script'
make[1]: Nothing to be done for 'check'.
make[1]: Leaving directory '/tmp/portage/net-libs/nghttp2-1.40.0/work/nghttp2-1.40.0-abi_x86_64.amd64/script'
make[1]: Entering directory '/tmp/portage/net-libs/nghttp2-1.40.0/work/nghttp2-1.40.0-abi_x86_64.amd64'
make[1]: Leaving directory '/tmp/portage/net-libs/nghttp2-1.40.0/work/nghttp2-1.40.0-abi_x86_64.amd64'
>>> Completed testing net-libs/nghttp2-1.40.0

>>> Install net-libs/nghttp2-1.40.0 into /tmp/portage/net-libs/nghttp2-1.40.0/image
 [32;01m*[0m abi_x86_64.amd64: running multilib-minimal_abi_src_install
make -j12 DESTDIR=/tmp/portage/net-libs/nghttp2-1.40.0/image install 
Making install in lib
make[1]: Entering directory '/tmp/portage/net-libs/nghttp2-1.40.0/work/nghttp2-1.40.0-abi_x86_64.amd64/lib'
Making install in includes
make[2]: Entering directory '/tmp/portage/net-libs/nghttp2-1.40.0/work/nghttp2-1.40.0-abi_x86_64.amd64/lib/includes'
make[3]: Entering directory '/tmp/portage/net-libs/nghttp2-1.40.0/work/nghttp2-1.40.0-abi_x86_64.amd64/lib/includes'
make[3]: Nothing to be done for 'install-exec-am'.
 /bin/mkdir -p '/tmp/portage/net-libs/nghttp2-1.40.0/image/usr/include'
 /bin/mkdir -p '/tmp/portage/net-libs/nghttp2-1.40.0/image/usr/include/nghttp2'
 /tmp/portage/._portage_reinstall_.mi8935l4/bin/ebuild-helpers/xattr/install -c -m 644  /tmp/portage/net-libs/nghttp2-1.40.0/work/nghttp2-1.40.0/lib/includes/nghttp2/nghttp2.h nghttp2/nghttp2ver.h '/tmp/portage/net-libs/nghttp2-1.40.0/image/usr/include/nghttp2'
make[3]: Leaving directory '/tmp/portage/net-libs/nghttp2-1.40.0/work/nghttp2-1.40.0-abi_x86_64.amd64/lib/includes'
make[2]: Leaving directory '/tmp/portage/net-libs/nghttp2-1.40.0/work/nghttp2-1.40.0-abi_x86_64.amd64/lib/includes'
make[2]: Entering directory '/tmp/portage/net-libs/nghttp2-1.40.0/work/nghttp2-1.40.0-abi_x86_64.amd64/lib'
make[3]: Entering directory '/tmp/portage/net-libs/nghttp2-1.40.0/work/nghttp2-1.40.0-abi_x86_64.amd64/lib'
 /bin/mkdir -p '/tmp/portage/net-libs/nghttp2-1.40.0/image/usr/lib64'
 /bin/mkdir -p '/tmp/portage/net-libs/nghttp2-1.40.0/image/usr/lib64/pkgconfig'
 /bin/sh ../libtool   --mode=install /tmp/portage/._portage_reinstall_.mi8935l4/bin/ebuild-helpers/xattr/install -c   libnghttp2.la '/tmp/portage/net-libs/nghttp2-1.40.0/image/usr/lib64'
 /tmp/portage/._portage_reinstall_.mi8935l4/bin/ebuild-helpers/xattr/install -c -m 644 libnghttp2.pc '/tmp/portage/net-libs/nghttp2-1.40.0/image/usr/lib64/pkgconfig'
libtool: install: /tmp/portage/._portage_reinstall_.mi8935l4/bin/ebuild-helpers/xattr/install -c .libs/libnghttp2.so.14.19.0 /tmp/portage/net-libs/nghttp2-1.40.0/image/usr/lib64/libnghttp2.so.14.19.0
libtool: install: (cd /tmp/portage/net-libs/nghttp2-1.40.0/image/usr/lib64 && { ln -s -f libnghttp2.so.14.19.0 libnghttp2.so.14 || { rm -f libnghttp2.so.14 && ln -s libnghttp2.so.14.19.0 libnghttp2.so.14; }; })
libtool: install: (cd /tmp/portage/net-libs/nghttp2-1.40.0/image/usr/lib64 && { ln -s -f libnghttp2.so.14.19.0 libnghttp2.so || { rm -f libnghttp2.so && ln -s libnghttp2.so.14.19.0 libnghttp2.so; }; })
libtool: install: /tmp/portage/._portage_reinstall_.mi8935l4/bin/ebuild-helpers/xattr/install -c .libs/libnghttp2.lai /tmp/portage/net-libs/nghttp2-1.40.0/image/usr/lib64/libnghttp2.la
libtool: warning: remember to run 'libtool --finish /usr/lib64'
make[3]: Leaving directory '/tmp/portage/net-libs/nghttp2-1.40.0/work/nghttp2-1.40.0-abi_x86_64.amd64/lib'
make[2]: Leaving directory '/tmp/portage/net-libs/nghttp2-1.40.0/work/nghttp2-1.40.0-abi_x86_64.amd64/lib'
make[1]: Leaving directory '/tmp/portage/net-libs/nghttp2-1.40.0/work/nghttp2-1.40.0-abi_x86_64.amd64/lib'
Making install in third-party
make[1]: Entering directory '/tmp/portage/net-libs/nghttp2-1.40.0/work/nghttp2-1.40.0-abi_x86_64.amd64/third-party'
make[2]: Entering directory '/tmp/portage/net-libs/nghttp2-1.40.0/work/nghttp2-1.40.0-abi_x86_64.amd64/third-party'
make[2]: Nothing to be done for 'install-exec-am'.
make[2]: Nothing to be done for 'install-data-am'.
make[2]: Leaving directory '/tmp/portage/net-libs/nghttp2-1.40.0/work/nghttp2-1.40.0-abi_x86_64.amd64/third-party'
make[1]: Leaving directory '/tmp/portage/net-libs/nghttp2-1.40.0/work/nghttp2-1.40.0-abi_x86_64.amd64/third-party'
Making install in src
make[1]: Entering directory '/tmp/portage/net-libs/nghttp2-1.40.0/work/nghttp2-1.40.0-abi_x86_64.amd64/src'
Making install in includes
make[2]: Entering directory '/tmp/portage/net-libs/nghttp2-1.40.0/work/nghttp2-1.40.0-abi_x86_64.amd64/src/includes'
make[3]: Entering directory '/tmp/portage/net-libs/nghttp2-1.40.0/work/nghttp2-1.40.0-abi_x86_64.amd64/src/includes'
make[3]: Nothing to be done for 'install-exec-am'.
make[3]: Leaving directory '/tmp/portage/net-libs/nghttp2-1.40.0/work/nghttp2-1.40.0-abi_x86_64.amd64/src/includes'
make[2]: Leaving directory '/tmp/portage/net-libs/nghttp2-1.40.0/work/nghttp2-1.40.0-abi_x86_64.amd64/src/includes'
make[2]: Entering directory '/tmp/portage/net-libs/nghttp2-1.40.0/work/nghttp2-1.40.0-abi_x86_64.amd64/src'
make[3]: Entering directory '/tmp/portage/net-libs/nghttp2-1.40.0/work/nghttp2-1.40.0-abi_x86_64.amd64/src'
 /bin/mkdir -p '/tmp/portage/net-libs/nghttp2-1.40.0/image/usr/bin'
make[3]: Leaving directory '/tmp/portage/net-libs/nghttp2-1.40.0/work/nghttp2-1.40.0-abi_x86_64.amd64/src'
make[2]: Leaving directory '/tmp/portage/net-libs/nghttp2-1.40.0/work/nghttp2-1.40.0-abi_x86_64.amd64/src'
make[1]: Leaving directory '/tmp/portage/net-libs/nghttp2-1.40.0/work/nghttp2-1.40.0-abi_x86_64.amd64/src'
Making install in examples
make[1]: Entering directory '/tmp/portage/net-libs/nghttp2-1.40.0/work/nghttp2-1.40.0-abi_x86_64.amd64/examples'
make[2]: Entering directory '/tmp/portage/net-libs/nghttp2-1.40.0/work/nghttp2-1.40.0-abi_x86_64.amd64/examples'
make[2]: Nothing to be done for 'install-exec-am'.
make[2]: Nothing to be done for 'install-data-am'.
make[2]: Leaving directory '/tmp/portage/net-libs/nghttp2-1.40.0/work/nghttp2-1.40.0-abi_x86_64.amd64/examples'
make[1]: Leaving directory '/tmp/portage/net-libs/nghttp2-1.40.0/work/nghttp2-1.40.0-abi_x86_64.amd64/examples'
Making install in python
make[1]: Entering directory '/tmp/portage/net-libs/nghttp2-1.40.0/work/nghttp2-1.40.0-abi_x86_64.amd64/python'
make[2]: Entering directory '/tmp/portage/net-libs/nghttp2-1.40.0/work/nghttp2-1.40.0-abi_x86_64.amd64/python'
make[2]: Nothing to be done for 'install-exec-am'.
make[2]: Nothing to be done for 'install-data-am'.
make[2]: Leaving directory '/tmp/portage/net-libs/nghttp2-1.40.0/work/nghttp2-1.40.0-abi_x86_64.amd64/python'
make[1]: Leaving directory '/tmp/portage/net-libs/nghttp2-1.40.0/work/nghttp2-1.40.0-abi_x86_64.amd64/python'
Making install in tests
make[1]: Entering directory '/tmp/portage/net-libs/nghttp2-1.40.0/work/nghttp2-1.40.0-abi_x86_64.amd64/tests'
Making install in testdata
make[2]: Entering directory '/tmp/portage/net-libs/nghttp2-1.40.0/work/nghttp2-1.40.0-abi_x86_64.amd64/tests/testdata'
make[3]: Entering directory '/tmp/portage/net-libs/nghttp2-1.40.0/work/nghttp2-1.40.0-abi_x86_64.amd64/tests/testdata'
make[3]: Nothing to be done for 'install-exec-am'.
make[3]: Nothing to be done for 'install-data-am'.
make[3]: Leaving directory '/tmp/portage/net-libs/nghttp2-1.40.0/work/nghttp2-1.40.0-abi_x86_64.amd64/tests/testdata'
make[2]: Leaving directory '/tmp/portage/net-libs/nghttp2-1.40.0/work/nghttp2-1.40.0-abi_x86_64.amd64/tests/testdata'
make[2]: Entering directory '/tmp/portage/net-libs/nghttp2-1.40.0/work/nghttp2-1.40.0-abi_x86_64.amd64/tests'
make[3]: Entering directory '/tmp/portage/net-libs/nghttp2-1.40.0/work/nghttp2-1.40.0-abi_x86_64.amd64/tests'
make[3]: Nothing to be done for 'install-exec-am'.
make[3]: Nothing to be done for 'install-data-am'.
make[3]: Leaving directory '/tmp/portage/net-libs/nghttp2-1.40.0/work/nghttp2-1.40.0-abi_x86_64.amd64/tests'
make[2]: Leaving directory '/tmp/portage/net-libs/nghttp2-1.40.0/work/nghttp2-1.40.0-abi_x86_64.amd64/tests'
make[1]: Leaving directory '/tmp/portage/net-libs/nghttp2-1.40.0/work/nghttp2-1.40.0-abi_x86_64.amd64/tests'
Making install in integration-tests
make[1]: Entering directory '/tmp/portage/net-libs/nghttp2-1.40.0/work/nghttp2-1.40.0-abi_x86_64.amd64/integration-tests'
make[2]: Entering directory '/tmp/portage/net-libs/nghttp2-1.40.0/work/nghttp2-1.40.0-abi_x86_64.amd64/integration-tests'
make[2]: Nothing to be done for 'install-exec-am'.
make[2]: Nothing to be done for 'install-data-am'.
make[2]: Leaving directory '/tmp/portage/net-libs/nghttp2-1.40.0/work/nghttp2-1.40.0-abi_x86_64.amd64/integration-tests'
make[1]: Leaving directory '/tmp/portage/net-libs/nghttp2-1.40.0/work/nghttp2-1.40.0-abi_x86_64.amd64/integration-tests'
Making install in doc
make[1]: Entering directory '/tmp/portage/net-libs/nghttp2-1.40.0/work/nghttp2-1.40.0-abi_x86_64.amd64/doc'
make[2]: Entering directory '/tmp/portage/net-libs/nghttp2-1.40.0/work/nghttp2-1.40.0-abi_x86_64.amd64/doc'
make[2]: Nothing to be done for 'install-exec-am'.
 /bin/mkdir -p '/tmp/portage/net-libs/nghttp2-1.40.0/image/usr/share/man/man1'
 /tmp/portage/._portage_reinstall_.mi8935l4/bin/ebuild-helpers/xattr/install -c -m 644 /tmp/portage/net-libs/nghttp2-1.40.0/work/nghttp2-1.40.0/doc/nghttp.1 /tmp/portage/net-libs/nghttp2-1.40.0/work/nghttp2-1.40.0/doc/nghttpd.1 /tmp/portage/net-libs/nghttp2-1.40.0/work/nghttp2-1.40.0/doc/nghttpx.1 /tmp/portage/net-libs/nghttp2-1.40.0/work/nghttp2-1.40.0/doc/h2load.1 '/tmp/portage/net-libs/nghttp2-1.40.0/image/usr/share/man/man1'
make[2]: Leaving directory '/tmp/portage/net-libs/nghttp2-1.40.0/work/nghttp2-1.40.0-abi_x86_64.amd64/doc'
make[1]: Leaving directory '/tmp/portage/net-libs/nghttp2-1.40.0/work/nghttp2-1.40.0-abi_x86_64.amd64/doc'
Making install in contrib
make[1]: Entering directory '/tmp/portage/net-libs/nghttp2-1.40.0/work/nghttp2-1.40.0-abi_x86_64.amd64/contrib'
make[2]: Entering directory '/tmp/portage/net-libs/nghttp2-1.40.0/work/nghttp2-1.40.0-abi_x86_64.amd64/contrib'
make[2]: Nothing to be done for 'install-exec-am'.
make[2]: Nothing to be done for 'install-data-am'.
make[2]: Leaving directory '/tmp/portage/net-libs/nghttp2-1.40.0/work/nghttp2-1.40.0-abi_x86_64.amd64/contrib'
make[1]: Leaving directory '/tmp/portage/net-libs/nghttp2-1.40.0/work/nghttp2-1.40.0-abi_x86_64.amd64/contrib'
Making install in script
make[1]: Entering directory '/tmp/portage/net-libs/nghttp2-1.40.0/work/nghttp2-1.40.0-abi_x86_64.amd64/script'
make[2]: Entering directory '/tmp/portage/net-libs/nghttp2-1.40.0/work/nghttp2-1.40.0-abi_x86_64.amd64/script'
make[2]: Nothing to be done for 'install-exec-am'.
 /bin/mkdir -p '/tmp/portage/net-libs/nghttp2-1.40.0/image/usr/share/nghttp2'
 /tmp/portage/._portage_reinstall_.mi8935l4/bin/ebuild-helpers/xattr/install -c /tmp/portage/net-libs/nghttp2-1.40.0/work/nghttp2-1.40.0/script/fetch-ocsp-response '/tmp/portage/net-libs/nghttp2-1.40.0/image/usr/share/nghttp2'
make[2]: Leaving directory '/tmp/portage/net-libs/nghttp2-1.40.0/work/nghttp2-1.40.0-abi_x86_64.amd64/script'
make[1]: Leaving directory '/tmp/portage/net-libs/nghttp2-1.40.0/work/nghttp2-1.40.0-abi_x86_64.amd64/script'
make[1]: Entering directory '/tmp/portage/net-libs/nghttp2-1.40.0/work/nghttp2-1.40.0-abi_x86_64.amd64'
make[2]: Entering directory '/tmp/portage/net-libs/nghttp2-1.40.0/work/nghttp2-1.40.0-abi_x86_64.amd64'
make[2]: Nothing to be done for 'install-exec-am'.
 /bin/mkdir -p '/tmp/portage/net-libs/nghttp2-1.40.0/image/usr/share/doc/nghttp2-1.40.0'
 /tmp/portage/._portage_reinstall_.mi8935l4/bin/ebuild-helpers/xattr/install -c -m 644 /tmp/portage/net-libs/nghttp2-1.40.0/work/nghttp2-1.40.0/README.rst '/tmp/portage/net-libs/nghttp2-1.40.0/image/usr/share/doc/nghttp2-1.40.0'
make[2]: Leaving directory '/tmp/portage/net-libs/nghttp2-1.40.0/work/nghttp2-1.40.0-abi_x86_64.amd64'
make[1]: Leaving directory '/tmp/portage/net-libs/nghttp2-1.40.0/work/nghttp2-1.40.0-abi_x86_64.amd64'
>>> Completed installing net-libs/nghttp2-1.40.0 into /tmp/portage/net-libs/nghttp2-1.40.0/image

 [32;01m*[0m Final size of build directory: 16992 KiB (16.5 MiB)
 [32;01m*[0m Final size of installed tree:    640 KiB

strip: x86_64-pc-linux-gnu-strip --strip-unneeded -N __gentoo_check_ldflags__ -R .comment -R .GCC.command.line -R .note.gnu.gold-version
   /usr/lib64/libnghttp2.so.14.19.0
./
./usr/
./usr/lib/
./usr/lib/debug/
./usr/lib/debug/usr/
./usr/lib/debug/usr/lib64/
./usr/lib/debug/usr/lib64/libnghttp2.so.14.19.0.debug
./usr/bin/
./usr/include/
./usr/include/nghttp2/
./usr/include/nghttp2/nghttp2.h
./usr/include/nghttp2/nghttp2ver.h
./usr/share/
./usr/share/nghttp2/
./usr/share/nghttp2/fetch-ocsp-response
./usr/share/man/
./usr/share/man/man1/
./usr/share/man/man1/nghttpx.1.bz2
./usr/share/man/man1/nghttpd.1.bz2
./usr/share/man/man1/nghttp.1.bz2
./usr/share/man/man1/h2load.1.bz2
./usr/share/doc/
./usr/share/doc/nghttp2-1.40.0/
./usr/share/doc/nghttp2-1.40.0/README.rst.bz2
./usr/lib64/
./usr/lib64/libnghttp2.so
./usr/lib64/libnghttp2.so.14.19.0
./usr/lib64/libnghttp2.so.14
./usr/lib64/pkgconfig/
./usr/lib64/pkgconfig/libnghttp2.pc
>>> Done.
 [32;01m*[39;49;00m checking 13 files for package collisions
>>> Merging net-libs/nghttp2-1.40.0 to /
--- /usr/
--- /usr/lib64/
--- /usr/lib64/pkgconfig/
>>> /usr/lib64/pkgconfig/libnghttp2.pc
>>> /usr/lib64/libnghttp2.so.14.19.0
>>> /usr/lib64/libnghttp2.so -> libnghttp2.so.14.19.0
--- /usr/share/
--- /usr/share/doc/
>>> /usr/share/doc/nghttp2-1.40.0/
>>> /usr/share/doc/nghttp2-1.40.0/README.rst.bz2
--- /usr/share/man/
--- /usr/share/man/man1/
>>> /usr/share/man/man1/h2load.1.bz2
>>> /usr/share/man/man1/nghttp.1.bz2
>>> /usr/share/man/man1/nghttpd.1.bz2
>>> /usr/share/man/man1/nghttpx.1.bz2
>>> /usr/share/nghttp2/
>>> /usr/share/nghttp2/fetch-ocsp-response
--- /usr/include/
>>> /usr/include/nghttp2/
>>> /usr/include/nghttp2/nghttp2ver.h
>>> /usr/include/nghttp2/nghttp2.h
--- /usr/bin/
--- /usr/lib/
--- /usr/lib/debug/
--- /usr/lib/debug/usr/
--- /usr/lib/debug/usr/lib64/
>>> /usr/lib/debug/usr/lib64/libnghttp2.so.14.19.0.debug
>>> /usr/lib64/libnghttp2.so.14 -> libnghttp2.so.14.19.0
>>> net-libs/nghttp2-1.40.0 merged.
>>> Regenerating /etc/ld.so.cache...
