No package files given... Grabbing a set.
--- replaced obj /usr/share/man/man1/hexchat.1.bz2
--- replaced dir /usr/share/man/man1
--- replaced dir /usr/share/man
--- replaced obj /usr/share/locale/zh_TW/LC_MESSAGES/hexchat.mo
--- replaced dir /usr/share/locale/zh_TW/LC_MESSAGES
--- replaced dir /usr/share/locale/zh_TW
--- replaced obj /usr/share/locale/zh_CN/LC_MESSAGES/hexchat.mo
--- replaced dir /usr/share/locale/zh_CN/LC_MESSAGES
--- replaced dir /usr/share/locale/zh_CN
--- replaced obj /usr/share/locale/wa/LC_MESSAGES/hexchat.mo
--- replaced dir /usr/share/locale/wa/LC_MESSAGES
--- replaced dir /usr/share/locale/wa
--- replaced obj /usr/share/locale/vi/LC_MESSAGES/hexchat.mo
--- replaced dir /usr/share/locale/vi/LC_MESSAGES
--- replaced dir /usr/share/locale/vi
--- replaced obj /usr/share/locale/uk/LC_MESSAGES/hexchat.mo
--- replaced dir /usr/share/locale/uk/LC_MESSAGES
--- replaced dir /usr/share/locale/uk
--- replaced obj /usr/share/locale/tr/LC_MESSAGES/hexchat.mo
--- replaced dir /usr/share/locale/tr/LC_MESSAGES
--- replaced dir /usr/share/locale/tr
--- replaced obj /usr/share/locale/th/LC_MESSAGES/hexchat.mo
--- replaced dir /usr/share/locale/th/LC_MESSAGES
--- replaced dir /usr/share/locale/th
--- replaced obj /usr/share/locale/sv/LC_MESSAGES/hexchat.mo
--- replaced dir /usr/share/locale/sv/LC_MESSAGES
--- replaced dir /usr/share/locale/sv
--- replaced obj /usr/share/locale/sr@latin/LC_MESSAGES/hexchat.mo
--- replaced dir /usr/share/locale/sr@latin/LC_MESSAGES
--- replaced dir /usr/share/locale/sr@latin
--- replaced obj /usr/share/locale/sr/LC_MESSAGES/hexchat.mo
--- replaced dir /usr/share/locale/sr/LC_MESSAGES
--- replaced dir /usr/share/locale/sr
--- replaced obj /usr/share/locale/sq/LC_MESSAGES/hexchat.mo
--- replaced dir /usr/share/locale/sq/LC_MESSAGES
--- replaced dir /usr/share/locale/sq
--- replaced obj /usr/share/locale/sl/LC_MESSAGES/hexchat.mo
--- replaced dir /usr/share/locale/sl/LC_MESSAGES
--- replaced dir /usr/share/locale/sl
--- replaced obj /usr/share/locale/sk/LC_MESSAGES/hexchat.mo
--- replaced dir /usr/share/locale/sk/LC_MESSAGES
--- replaced dir /usr/share/locale/sk
--- replaced obj /usr/share/locale/rw/LC_MESSAGES/hexchat.mo
--- replaced dir /usr/share/locale/rw/LC_MESSAGES
--- replaced dir /usr/share/locale/rw
--- replaced obj /usr/share/locale/ru/LC_MESSAGES/hexchat.mo
--- replaced dir /usr/share/locale/ru/LC_MESSAGES
--- replaced dir /usr/share/locale/ru
--- replaced obj /usr/share/locale/pt_BR/LC_MESSAGES/hexchat.mo
--- replaced dir /usr/share/locale/pt_BR/LC_MESSAGES
--- replaced dir /usr/share/locale/pt_BR
--- replaced obj /usr/share/locale/pt/LC_MESSAGES/hexchat.mo
--- replaced dir /usr/share/locale/pt/LC_MESSAGES
--- replaced dir /usr/share/locale/pt
--- replaced obj /usr/share/locale/pl/LC_MESSAGES/hexchat.mo
--- replaced dir /usr/share/locale/pl/LC_MESSAGES
--- replaced dir /usr/share/locale/pl
--- replaced obj /usr/share/locale/pa/LC_MESSAGES/hexchat.mo
--- replaced dir /usr/share/locale/pa/LC_MESSAGES
--- replaced dir /usr/share/locale/pa
--- replaced obj /usr/share/locale/no/LC_MESSAGES/hexchat.mo
--- replaced dir /usr/share/locale/no/LC_MESSAGES
--- replaced dir /usr/share/locale/no
--- replaced obj /usr/share/locale/nl/LC_MESSAGES/hexchat.mo
--- replaced dir /usr/share/locale/nl/LC_MESSAGES
--- replaced dir /usr/share/locale/nl
--- replaced obj /usr/share/locale/nb/LC_MESSAGES/hexchat.mo
--- replaced dir /usr/share/locale/nb/LC_MESSAGES
--- replaced dir /usr/share/locale/nb
--- replaced obj /usr/share/locale/ms/LC_MESSAGES/hexchat.mo
--- replaced dir /usr/share/locale/ms/LC_MESSAGES
--- replaced dir /usr/share/locale/ms
--- replaced obj /usr/share/locale/ml/LC_MESSAGES/hexchat.mo
--- replaced dir /usr/share/locale/ml/LC_MESSAGES
--- replaced dir /usr/share/locale/ml
--- replaced obj /usr/share/locale/mk/LC_MESSAGES/hexchat.mo
--- replaced dir /usr/share/locale/mk/LC_MESSAGES
--- replaced dir /usr/share/locale/mk
--- replaced obj /usr/share/locale/lv/LC_MESSAGES/hexchat.mo
--- replaced dir /usr/share/locale/lv/LC_MESSAGES
--- replaced dir /usr/share/locale/lv
--- replaced obj /usr/share/locale/lt/LC_MESSAGES/hexchat.mo
--- replaced dir /usr/share/locale/lt/LC_MESSAGES
--- replaced dir /usr/share/locale/lt
--- replaced obj /usr/share/locale/ko/LC_MESSAGES/hexchat.mo
--- replaced dir /usr/share/locale/ko/LC_MESSAGES
--- replaced dir /usr/share/locale/ko
--- replaced obj /usr/share/locale/kn/LC_MESSAGES/hexchat.mo
--- replaced dir /usr/share/locale/kn/LC_MESSAGES
--- replaced dir /usr/share/locale/kn
--- replaced obj /usr/share/locale/ja_JP/LC_MESSAGES/hexchat.mo
--- replaced dir /usr/share/locale/ja_JP/LC_MESSAGES
--- replaced dir /usr/share/locale/ja_JP
--- replaced obj /usr/share/locale/it/LC_MESSAGES/hexchat.mo
--- replaced dir /usr/share/locale/it/LC_MESSAGES
--- replaced dir /usr/share/locale/it
--- replaced obj /usr/share/locale/id/LC_MESSAGES/hexchat.mo
--- replaced dir /usr/share/locale/id/LC_MESSAGES
--- replaced dir /usr/share/locale/id
--- replaced obj /usr/share/locale/hu/LC_MESSAGES/hexchat.mo
--- replaced dir /usr/share/locale/hu/LC_MESSAGES
--- replaced dir /usr/share/locale/hu
--- replaced obj /usr/share/locale/hi/LC_MESSAGES/hexchat.mo
--- replaced dir /usr/share/locale/hi/LC_MESSAGES
--- replaced dir /usr/share/locale/hi
--- replaced obj /usr/share/locale/gu/LC_MESSAGES/hexchat.mo
--- replaced dir /usr/share/locale/gu/LC_MESSAGES
--- replaced dir /usr/share/locale/gu
--- replaced obj /usr/share/locale/gl/LC_MESSAGES/hexchat.mo
--- replaced dir /usr/share/locale/gl/LC_MESSAGES
--- replaced dir /usr/share/locale/gl
--- replaced obj /usr/share/locale/fr/LC_MESSAGES/hexchat.mo
--- replaced dir /usr/share/locale/fr/LC_MESSAGES
--- replaced dir /usr/share/locale/fr
--- replaced obj /usr/share/locale/fi/LC_MESSAGES/hexchat.mo
--- replaced dir /usr/share/locale/fi/LC_MESSAGES
--- replaced dir /usr/share/locale/fi
--- replaced obj /usr/share/locale/eu/LC_MESSAGES/hexchat.mo
--- replaced dir /usr/share/locale/eu/LC_MESSAGES
--- replaced dir /usr/share/locale/eu
--- replaced obj /usr/share/locale/et/LC_MESSAGES/hexchat.mo
--- replaced dir /usr/share/locale/et/LC_MESSAGES
--- replaced dir /usr/share/locale/et
--- replaced obj /usr/share/locale/es/LC_MESSAGES/hexchat.mo
--- replaced dir /usr/share/locale/es/LC_MESSAGES
--- replaced dir /usr/share/locale/es
--- replaced obj /usr/share/locale/en_GB/LC_MESSAGES/hexchat.mo
--- replaced dir /usr/share/locale/en_GB/LC_MESSAGES
--- replaced dir /usr/share/locale/en_GB
--- replaced obj /usr/share/locale/el/LC_MESSAGES/hexchat.mo
--- replaced dir /usr/share/locale/el/LC_MESSAGES
--- replaced dir /usr/share/locale/el
--- replaced obj /usr/share/locale/de/LC_MESSAGES/hexchat.mo
--- replaced dir /usr/share/locale/de/LC_MESSAGES
--- replaced dir /usr/share/locale/de
--- replaced obj /usr/share/locale/da/LC_MESSAGES/hexchat.mo
--- replaced dir /usr/share/locale/da/LC_MESSAGES
--- replaced dir /usr/share/locale/da
--- replaced obj /usr/share/locale/cs/LC_MESSAGES/hexchat.mo
--- replaced dir /usr/share/locale/cs/LC_MESSAGES
--- replaced dir /usr/share/locale/cs
--- replaced obj /usr/share/locale/ca/LC_MESSAGES/hexchat.mo
--- replaced dir /usr/share/locale/ca/LC_MESSAGES
--- replaced dir /usr/share/locale/ca
--- replaced obj /usr/share/locale/bg/LC_MESSAGES/hexchat.mo
--- replaced dir /usr/share/locale/bg/LC_MESSAGES
--- replaced dir /usr/share/locale/bg
--- replaced obj /usr/share/locale/be/LC_MESSAGES/hexchat.mo
--- replaced dir /usr/share/locale/be/LC_MESSAGES
--- replaced dir /usr/share/locale/be
--- replaced obj /usr/share/locale/az/LC_MESSAGES/hexchat.mo
--- replaced dir /usr/share/locale/az/LC_MESSAGES
--- replaced dir /usr/share/locale/az
--- replaced obj /usr/share/locale/ast/LC_MESSAGES/hexchat.mo
--- replaced dir /usr/share/locale/ast/LC_MESSAGES
--- replaced dir /usr/share/locale/ast
--- replaced obj /usr/share/locale/am/LC_MESSAGES/hexchat.mo
--- replaced dir /usr/share/locale/am/LC_MESSAGES
--- replaced dir /usr/share/locale/am
--- replaced obj /usr/share/locale/af/LC_MESSAGES/hexchat.mo
--- replaced dir /usr/share/locale/af/LC_MESSAGES
--- replaced dir /usr/share/locale/af
--- replaced dir /usr/share/locale
--- replaced obj /usr/share/icons/hicolor/scalable/apps/hexchat.svg
--- replaced dir /usr/share/icons/hicolor/scalable/apps
--- replaced dir /usr/share/icons/hicolor/scalable
--- replaced obj /usr/share/icons/hicolor/48x48/apps/hexchat.png
--- replaced dir /usr/share/icons/hicolor/48x48/apps
--- replaced dir /usr/share/icons/hicolor/48x48
--- replaced dir /usr/share/icons/hicolor
--- replaced dir /usr/share/icons
<<<          obj /usr/share/dbus-1/services/org.hexchat.service.service
--- replaced obj /usr/share/applications/io.github.Hexchat.desktop
--- replaced dir /usr/share/applications
--- replaced dir /usr/share
--- replaced obj /usr/lib64/pkgconfig/hexchat-plugin.pc
--- replaced dir /usr/lib64/pkgconfig
--- replaced dir /usr/lib64
--- replaced obj /usr/include/hexchat-plugin.h
--- replaced dir /usr/include
--- replaced obj /usr/bin/hexchat
--- replaced dir /usr/bin
--- replaced dir /usr
--- !empty   dir /usr/share/dbus-1/services
--- !empty   dir /usr/share/dbus-1
 * Updating .desktop files database ...
 [ ok ]
 * Updating icons cache ...
 [ ok ]
>>> Regenerating /etc/ld.so.cache...
