 * Package:    net-analyzer/openbsd-netcat-1.195
 * Repository: gentoo
 * Maintainer: heroxbd@gentoo.org
 * USE:        abi_x86_64 amd64 elibc_glibc kernel_linux userland_GNU
 * FEATURES:   ccache network-sandbox preserve-libs sandbox userpriv usersandbox
 * FEATURES='assume-digests binpkg-docompress binpkg-dostrip binpkg-logs binpkg-multi-instance buildpkg ccache compress-index config-protect-if-modified distlocks downgrade-backup fixlafiles ipc-sandbox merge-sync multilib-strict network-sandbox news nodoc parallel-fetch parallel-install pid-sandbox preserve-libs qa-unresolved-soname-deps sandbox sfperms strict unknown-features-warn unmerge-backup unmerge-logs unmerge-orphans userfetch userpriv usersandbox usersync xattr'
 * CFLAGS='-march=znver2 -O3 -fgraphite-identity -floop-nest-optimize -fdevirtualize-at-ltrans -fipa-pta -fno-semantic-interposition -flto=12 -fno-plt -fno-signed-zeros -fno-trapping-math -fassociative-math -freciprocal-math -fno-math-errno -ffinite-math-only -fno-rounding-math -fno-signaling-nans -fcx-limited-range -fexcess-precision=fast -falign-functions=32 -fno-stack-protector -fno-stack-clash-protection -fstack-check=no -fno-stack-check -fuse-linker-plugin -pipe -g0 -Wl,-O1 -Wl,--as-needed -Wl,-z,norelro -Wl,-z,now -Wl,--sort-common -s'
 * CXXFLAGS='-march=znver2 -O3 -fgraphite-identity -floop-nest-optimize -fdevirtualize-at-ltrans -fipa-pta -fno-semantic-interposition -flto=12 -fno-plt -fno-signed-zeros -fno-trapping-math -fassociative-math -freciprocal-math -fno-math-errno -ffinite-math-only -fno-rounding-math -fno-signaling-nans -fcx-limited-range -fexcess-precision=fast -falign-functions=32 -fno-stack-protector -fno-stack-clash-protection -fstack-check=no -fno-stack-check -fuse-linker-plugin -pipe -g0 -Wl,-O1 -Wl,--as-needed -Wl,-z,norelro -Wl,-z,now -Wl,--sort-common -s'
 * FFLAGS='-march=znver2 -O3 -fgraphite-identity -floop-nest-optimize -fdevirtualize-at-ltrans -fipa-pta -fno-semantic-interposition -flto=12 -fno-plt -fno-signed-zeros -fno-trapping-math -fassociative-math -freciprocal-math -fno-math-errno -ffinite-math-only -fno-rounding-math -fno-signaling-nans -fcx-limited-range -fexcess-precision=fast -falign-functions=32 -fno-stack-protector -fno-stack-clash-protection -fstack-check=no -fno-stack-check -fuse-linker-plugin -pipe -g0 -Wl,-O1 -Wl,--as-needed -Wl,-z,norelro -Wl,-z,now -Wl,--sort-common -s'
 * FCFLAGS='-march=znver2 -O3 -fgraphite-identity -floop-nest-optimize -fdevirtualize-at-ltrans -fipa-pta -fno-semantic-interposition -flto=12 -fno-plt -fno-signed-zeros -fno-trapping-math -fassociative-math -freciprocal-math -fno-math-errno -ffinite-math-only -fno-rounding-math -fno-signaling-nans -fcx-limited-range -fexcess-precision=fast -falign-functions=32 -fno-stack-protector -fno-stack-clash-protection -fstack-check=no -fno-stack-check -fuse-linker-plugin -pipe -g0 -Wl,-O1 -Wl,--as-needed -Wl,-z,norelro -Wl,-z,now -Wl,--sort-common -s'
 * F77FLAGS='-march=znver2 -O3 -fgraphite-identity -floop-nest-optimize -fdevirtualize-at-ltrans -fipa-pta -fno-semantic-interposition -flto=12 -fno-plt -fno-signed-zeros -fno-trapping-math -fassociative-math -freciprocal-math -fno-math-errno -ffinite-math-only -fno-rounding-math -fno-signaling-nans -fcx-limited-range -fexcess-precision=fast -falign-functions=32 -fno-stack-protector -fno-stack-clash-protection -fstack-check=no -fno-stack-check -fuse-linker-plugin -pipe -g0 -Wl,-O1 -Wl,--as-needed -Wl,-z,norelro -Wl,-z,now -Wl,--sort-common -s'
 * LDFLAGS='-Wl,-O1 -Wl,--as-needed -Wl,-z,norelro -Wl,-z,now -Wl,--sort-common -s -march=znver2 -O3 -fgraphite-identity -floop-nest-optimize -fdevirtualize-at-ltrans -fipa-pta -fno-semantic-interposition -flto=12 -fno-plt -fno-signed-zeros -fno-trapping-math -fassociative-math -freciprocal-math -fno-math-errno -ffinite-math-only -fno-rounding-math -fno-signaling-nans -fcx-limited-range -fexcess-precision=fast -falign-functions=32 -fno-stack-protector -fno-stack-clash-protection -fstack-check=no -fno-stack-check -fuse-linker-plugin -pipe -g0'
 * MAKEOPTS='-j12 -l12'
 * gcc () 11.0.0 20200530 (experimental)
 * g++ () 11.0.0 20200530 (experimental)
 * GNU ld (Gentoo 2.34 p4) 2.34.0
 * Linux ryzen.gnum.org 5.4.36 #1 SMP Thu Apr 30 04:38:28 UTC 2020 x86_64 AMD Ryzen 5 3600 6-Core Processor AuthenticAMD GNU/Linux
net-analyzer/openbsd-netcat: 9 seconds average for 7 merges
2020-05-20T08:31:38 >>> net-analyzer/openbsd-netcat: 11 seconds
2020-05-21T06:16:12 >>> net-analyzer/openbsd-netcat: 6 seconds
2020-05-23T11:45:35 >>> net-analyzer/openbsd-netcat: 11 seconds
2020-05-25T18:44:25 >>> net-analyzer/openbsd-netcat: 13 seconds
2020-05-26T14:10:49 >>> net-analyzer/openbsd-netcat: 7 seconds
2020-05-27T03:36:46 >>> net-analyzer/openbsd-netcat: 11 seconds
2020-05-28T14:35:03 >>> net-analyzer/openbsd-netcat: 9 seconds
]0;emerge 13:06:01 284|1110 openbsd-netcat 00:09 (root@ryzen.gnum.org)kemerge 13:06:01 284|1110 openbsd-netcat 00:09 (root@ryzen.gnum.org)\>>> Unpacking source...
>>> Unpacking netcat-openbsd_1.195.orig.tar.gz to /tmp/portage/net-analyzer/openbsd-netcat-1.195/work
>>> Unpacking netcat-openbsd_1.195-2.debian.tar.xz to /tmp/portage/net-analyzer/openbsd-netcat-1.195/work
>>> Source unpacked in /tmp/portage/net-analyzer/openbsd-netcat-1.195/work
>>> Preparing source in /tmp/portage/net-analyzer/openbsd-netcat-1.195/work/netcat-openbsd-1.195 ...
 * Applying port-to-linux-with-libsd.patch ...
 [ ok ]
 * Applying build-without-TLS-support.patch ...
 [ ok ]
 * Applying connect-timeout.patch ...
 [ ok ]
 * Applying get-sev-by-name.patch ...
 [ ok ]
 * Applying send-crlf.patch ...
 [ ok ]
 * Applying quit-timer.patch ...
 [ ok ]
 * Applying udp-scan-timeout.patch ...
 [ ok ]
 * Applying verbose-numeric-port.patch ...
 [ ok ]
 * Applying dccp-support.patch ...
 [ ok ]
 * Applying broadcast-support.patch ...
 [ ok ]
 * Applying serialized-handling-multiple-clients.patch ...
 [ ok ]
 * Applying set-TCP-MD5SIG-correctly-for-client-connections.patch ...
 [ ok ]
 * Applying destination-port-list.patch ...
 [ ok ]
 * Applying use-flags-to-specify-listen-address.patch ...
 [ ok ]
 * Applying misc-failures-and-features.patch ...
 [ ok ]
>>> Source prepared.
>>> Configuring source in /tmp/portage/net-analyzer/openbsd-netcat-1.195/work/netcat-openbsd-1.195 ...
>>> Source configured.
>>> Compiling source in /tmp/portage/net-analyzer/openbsd-netcat-1.195/work/netcat-openbsd-1.195 ...
make -j12 -l12 CC=x86_64-pc-linux-gnu-gcc 'CFLAGS=-march=znver2 -O3 -fgraphite-identity -floop-nest-optimize -fdevirtualize-at-ltrans -fipa-pta -fno-semantic-interposition -flto=12 -fno-plt -fno-signed-zeros -fno-trapping-math -fassociative-math -freciprocal-math -fno-math-errno -ffinite-math-only -fno-rounding-math -fno-signaling-nans -fcx-limited-range -fexcess-precision=fast -falign-functions=32 -fno-stack-protector -fno-stack-clash-protection -fstack-check=no -fno-stack-check -fuse-linker-plugin -pipe -g0 -Wl,-O1 -Wl,--as-needed -Wl,-z,norelro -Wl,-z,now -Wl,--sort-common -s' 'LDFLAGS=-Wl,-O1 -Wl,--as-needed -Wl,-z,norelro -Wl,-z,now -Wl,--sort-common -s -march=znver2 -O3 -fgraphite-identity -floop-nest-optimize -fdevirtualize-at-ltrans -fipa-pta -fno-semantic-interposition -flto=12 -fno-plt -fno-signed-zeros -fno-trapping-math -fassociative-math -freciprocal-math -fno-math-errno -ffinite-math-only -fno-rounding-math -fno-signaling-nans -fcx-limited-range -fexcess-precision=fast -falign-functions=32 -fno-stack-protector -fno-stack-clash-protection -fstack-check=no -fno-stack-check -fuse-linker-plugin -pipe -g0' 
x86_64-pc-linux-gnu-gcc -march=znver2 -O3 -fgraphite-identity -floop-nest-optimize -fdevirtualize-at-ltrans -fipa-pta -fno-semantic-interposition -flto=12 -fno-plt -fno-signed-zeros -fno-trapping-math -fassociative-math -freciprocal-math -fno-math-errno -ffinite-math-only -fno-rounding-math -fno-signaling-nans -fcx-limited-range -fexcess-precision=fast -falign-functions=32 -fno-stack-protector -fno-stack-clash-protection -fstack-check=no -fno-stack-check -fuse-linker-plugin -pipe -g0 -Wl,-O1 -Wl,--as-needed -Wl,-z,norelro -Wl,-z,now -Wl,--sort-common -s -c netcat.c -o netcat.o
x86_64-pc-linux-gnu-gcc -march=znver2 -O3 -fgraphite-identity -floop-nest-optimize -fdevirtualize-at-ltrans -fipa-pta -fno-semantic-interposition -flto=12 -fno-plt -fno-signed-zeros -fno-trapping-math -fassociative-math -freciprocal-math -fno-math-errno -ffinite-math-only -fno-rounding-math -fno-signaling-nans -fcx-limited-range -fexcess-precision=fast -falign-functions=32 -fno-stack-protector -fno-stack-clash-protection -fstack-check=no -fno-stack-check -fuse-linker-plugin -pipe -g0 -Wl,-O1 -Wl,--as-needed -Wl,-z,norelro -Wl,-z,now -Wl,--sort-common -s -c atomicio.c -o atomicio.o
x86_64-pc-linux-gnu-gcc -march=znver2 -O3 -fgraphite-identity -floop-nest-optimize -fdevirtualize-at-ltrans -fipa-pta -fno-semantic-interposition -flto=12 -fno-plt -fno-signed-zeros -fno-trapping-math -fassociative-math -freciprocal-math -fno-math-errno -ffinite-math-only -fno-rounding-math -fno-signaling-nans -fcx-limited-range -fexcess-precision=fast -falign-functions=32 -fno-stack-protector -fno-stack-clash-protection -fstack-check=no -fno-stack-check -fuse-linker-plugin -pipe -g0 -Wl,-O1 -Wl,--as-needed -Wl,-z,norelro -Wl,-z,now -Wl,--sort-common -s -c socks.c -o socks.o
x86_64-pc-linux-gnu-gcc -march=znver2 -O3 -fgraphite-identity -floop-nest-optimize -fdevirtualize-at-ltrans -fipa-pta -fno-semantic-interposition -flto=12 -fno-plt -fno-signed-zeros -fno-trapping-math -fassociative-math -freciprocal-math -fno-math-errno -ffinite-math-only -fno-rounding-math -fno-signaling-nans -fcx-limited-range -fexcess-precision=fast -falign-functions=32 -fno-stack-protector -fno-stack-clash-protection -fstack-check=no -fno-stack-check -fuse-linker-plugin -pipe -g0 -Wl,-O1 -Wl,--as-needed -Wl,-z,norelro -Wl,-z,now -Wl,--sort-common -s -Wl,-O1 -Wl,--as-needed -Wl,-z,norelro -Wl,-z,now -Wl,--sort-common -s -march=znver2 -O3 -fgraphite-identity -floop-nest-optimize -fdevirtualize-at-ltrans -fipa-pta -fno-semantic-interposition -flto=12 -fno-plt -fno-signed-zeros -fno-trapping-math -fassociative-math -freciprocal-math -fno-math-errno -ffinite-math-only -fno-rounding-math -fno-signaling-nans -fcx-limited-range -fexcess-precision=fast -falign-functions=32 -fno-stack-protector -fno-stack-clash-protection -fstack-check=no -fno-stack-check -fuse-linker-plugin -pipe -g0 netcat.o atomicio.o socks.o `pkg-config --libs libbsd` -lresolv -o nc
>>> Source compiled.
>>> Test phase [not enabled]: net-analyzer/openbsd-netcat-1.195

>>> Install net-analyzer/openbsd-netcat-1.195 into /tmp/portage/net-analyzer/openbsd-netcat-1.195/image
>>> Completed installing net-analyzer/openbsd-netcat-1.195 into /tmp/portage/net-analyzer/openbsd-netcat-1.195/image

 * Final size of build directory: 512 KiB
 * Final size of installed tree:  156 KiB



 * QA Notice: Pre-stripped files found:
 * /usr/bin/nc
./
./usr/
./usr/bin/
./usr/bin/nc
./usr/share/
./usr/share/man/
./usr/share/man/man1/
./usr/share/man/man1/nc.1.bz2
./usr/share/doc/
./usr/share/doc/openbsd-netcat-1.195/
./usr/share/doc/openbsd-netcat-1.195/README.bz2
./usr/share/doc/openbsd-netcat-1.195/examples/
./usr/share/doc/openbsd-netcat-1.195/examples/bsh.bz2
./usr/share/doc/openbsd-netcat-1.195/examples/irc.bz2
./usr/share/doc/openbsd-netcat-1.195/examples/README.bz2
./usr/share/doc/openbsd-netcat-1.195/examples/iscan.bz2
./usr/share/doc/openbsd-netcat-1.195/examples/websearch.bz2
./usr/share/doc/openbsd-netcat-1.195/examples/dist.sh.bz2
./usr/share/doc/openbsd-netcat-1.195/examples/alta.bz2
./usr/share/doc/openbsd-netcat-1.195/examples/probe.bz2
./usr/share/doc/openbsd-netcat-1.195/examples/ncp.bz2
./usr/share/doc/openbsd-netcat-1.195/examples/webproxy.bz2
./usr/share/doc/openbsd-netcat-1.195/examples/web.bz2
./usr/share/doc/openbsd-netcat-1.195/examples/webrelay.bz2
./usr/share/doc/openbsd-netcat-1.195/examples/contrib/
./usr/share/doc/openbsd-netcat-1.195/examples/contrib/ncmeter.bz2
>>> Done.
 * checking 2 files for package collisions
[32;01m * [39;49;00mBuilding package for net-analyzer/openbsd-netcat-1.195 ...[32;01m * [39;49;00mwaiting for lock on /usr/portage/packages/.Packages.portage_lockfile ...  [34;01m[ [39;49;00m[32;01mok[39;49;00m[34;01m ][39;49;00m
            [34;01m[ [39;49;00m[32;01mok[39;49;00m[34;01m ][39;49;00m
[32;01m * [39;49;00mPackages now in '/usr/portage/packages':
[32;01m * [39;49;00mnet-analyzer/openbsd-netcat-1.195: 47.6K

>>> Merging net-analyzer/openbsd-netcat-1.195 to /
 * removing unneeded *.la files
--- /usr/
--- /usr/share/
--- /usr/share/man/
--- /usr/share/man/man1/
>>> /usr/share/man/man1/nc.1.bz2
--- /usr/bin/
>>> /usr/bin/nc
>>> Safely unmerging already-installed instance...
>>> Original instance of package unmerged safely.
 * SO_REUSEPORT is introduced in linux 3.9. If your running kernel is older
 * and kernel header is newer, nc will not listen correctly. Matching the header
 * to the running kernel will do. See bug #490246 for details.
>>> net-analyzer/openbsd-netcat-1.195 merged.
