No package files given... Grabbing a set.
<<<          obj /usr/share/man/man8/zeppelin.8.bz2
<<<          obj /usr/share/man/man8/mpcd.8.bz2
<<<          obj /usr/share/man/man8/les.8.bz2
<<<          obj /usr/share/man/man8/lecs.8.bz2
<<<          obj /usr/share/man/man8/ilmid.8.bz2
<<<          obj /usr/share/man/man8/esi.8.bz2
<<<          obj /usr/share/man/man8/bus.8
<<<          obj /usr/share/man/man8/br2684ctl.8.bz2
<<<          obj /usr/share/man/man8/atmtcp.8.bz2
<<<          obj /usr/share/man/man8/atmsigd.8.bz2
<<<          obj /usr/share/man/man8/atmloop.8.bz2
<<<          obj /usr/share/man/man8/atmdump.8.bz2
<<<          obj /usr/share/man/man8/atmdiag.8.bz2
<<<          obj /usr/share/man/man8/atmarpd.8.bz2
<<<          obj /usr/share/man/man8/atmarp.8.bz2
<<<          obj /usr/share/man/man8/atmaddr.8.bz2
<<<          obj /usr/share/man/man7/sap.7.bz2
<<<          obj /usr/share/man/man7/qos.7.bz2
<<<          obj /usr/share/man/man4/atmsigd.conf.4.bz2
<<<          obj /usr/sbin/zntune
<<<          obj /usr/sbin/zeppelin
<<<          obj /usr/sbin/mpcd
<<<          obj /usr/sbin/les
<<<          obj /usr/sbin/lecs
<<<          obj /usr/sbin/ilmidiag
<<<          obj /usr/sbin/ilmid
<<<          obj /usr/sbin/hediag
<<<          obj /usr/sbin/esi
<<<          obj /usr/sbin/enitune
<<<          obj /usr/sbin/bus
<<<          obj /usr/sbin/br2684ctl
<<<          obj /usr/sbin/atmtcp
<<<          obj /usr/sbin/atmsigd
<<<          obj /usr/sbin/atmloop
<<<          obj /usr/sbin/atmarpd
<<<          obj /usr/sbin/atmarp
<<<          obj /usr/sbin/atmaddr
<<<          obj /usr/lib64/libatm.so.1.0.0
<<<          sym /usr/lib64/libatm.so.1
<<<          sym /usr/lib64/libatm.so
<<<          obj /usr/include/atmsap.h
<<<          obj /usr/include/atmd.h
<<<          obj /usr/include/atmarpd.h
<<<          obj /usr/include/atmarp.h
<<<          obj /usr/include/atm.h
<<<          obj /usr/bin/ttcp_atm
<<<          obj /usr/bin/svc_send
<<<          obj /usr/bin/svc_recv
<<<          obj /usr/bin/sonetdiag
<<<          obj /usr/bin/saaldump
<<<          obj /usr/bin/awrite
<<<          obj /usr/bin/atmswitch
<<<          obj /usr/bin/atmdump
<<<          obj /usr/bin/atmdiag
<<<          obj /usr/bin/aread
<<<          obj /lib/firmware/sba200e_ecd.bin2
<<<          obj /lib/firmware/pca200e_ecd.bin2
<<<          obj /lib/firmware/pca200e.bin
<<<          obj /etc/hosts.atm
<<<          obj /etc/atmsigd.conf
--- !empty   dir /usr/share/man/man8
--- !empty   dir /usr/share/man/man7
--- !empty   dir /usr/share/man/man4
--- !empty   dir /usr/share/man
--- !empty   dir /usr/share
--- !empty   dir /usr/sbin
--- !empty   dir /usr/lib64
--- !empty   dir /usr/include
--- !empty   dir /usr/bin
--- !empty   dir /usr
--- !empty   dir /lib/firmware
--- !empty   dir /lib
--- !empty   dir /etc
>>> Regenerating /etc/ld.so.cache...
