[32;01m * [39;49;00mPackage:    net-im/pidgin-2.13.0-r8
[32;01m * [39;49;00mRepository: gentoo
[32;01m * [39;49;00mMaintainer: polynomial-c@gentoo.org
[32;01m * [39;49;00mUSE:        abi_x86_64 amd64 dbus eds elibc_glibc gtk kernel_linux ncurses perl python python_single_target_python3_7 sasl spell tcl tk userland_GNU xscreensaver zeroconf
[32;01m * [39;49;00mFEATURES:   network-sandbox preserve-libs sandbox userpriv usersandbox
 [33;01m*[0m gtk build => nls is enabled!
