>>> Extracting info
 * Package:    net-libs/libproxy-0.4.15-r1
 * Repository: gentoo
 * USE:        abi_x86_64 userland_GNU gnome amd64 kernel_linux kde elibc_glibc
 * FEATURES:   network-sandbox preserve-libs sandbox userpriv usersandbox
 * FEATURES='nodoc binpkg-multi-instance usersandbox distlocks sfperms buildpkg strict-keepdir network-sandbox assume-digests unmerge-logs multilib-strict fixlafiles binpkg-logs binpkg-dostrip unknown-features-warn strict compress-index unmerge-orphans sandbox pid-sandbox downgrade-backup ipc-sandbox preserve-libs news userpriv parallel-install cgroup unmerge-backup parallel-fetch usersync binpkg-docompress qa-unresolved-soname-deps merge-sync xattr userfetch config-protect-if-modified'
 * CFLAGS='-march=native -O3 -fgraphite-identity -floop-nest-optimize -fdevirtualize-at-ltrans -fipa-pta -fno-semantic-interposition -flto=12 -fno-plt -fno-math-errno -fno-trapping-math -fuse-linker-plugin -pipe -g0 -falign-functions=32 -Wl,-O1 -Wl,--as-needed -Wl,--hash-style=gnu,-z,norelro,--as-needed'
 * CXXFLAGS='-march=native -O3 -fgraphite-identity -floop-nest-optimize -fdevirtualize-at-ltrans -fipa-pta -fno-semantic-interposition -flto=12 -fno-plt -fno-math-errno -fno-trapping-math -fuse-linker-plugin -pipe -g0 -falign-functions=32 -Wl,-O1 -Wl,--as-needed -Wl,--hash-style=gnu,-z,norelro,--as-needed'
 * FFLAGS='-march=native -O3 -fgraphite-identity -floop-nest-optimize -fdevirtualize-at-ltrans -fipa-pta -fno-semantic-interposition -flto=12 -fno-plt -fno-math-errno -fno-trapping-math -fuse-linker-plugin -pipe -g0 -falign-functions=32 -Wl,-O1 -Wl,--as-needed -Wl,--hash-style=gnu,-z,norelro,--as-needed'
 * FCFLAGS='-march=native -O3 -fgraphite-identity -floop-nest-optimize -fdevirtualize-at-ltrans -fipa-pta -fno-semantic-interposition -flto=12 -fno-plt -fno-math-errno -fno-trapping-math -fuse-linker-plugin -pipe -g0 -falign-functions=32 -Wl,-O1 -Wl,--as-needed -Wl,--hash-style=gnu,-z,norelro,--as-needed'
 * F77FLAGS='-march=native -O3 -fgraphite-identity -floop-nest-optimize -fdevirtualize-at-ltrans -fipa-pta -fno-semantic-interposition -flto=12 -fno-plt -fno-math-errno -fno-trapping-math -fuse-linker-plugin -pipe -g0 -falign-functions=32 -Wl,-O1 -Wl,--as-needed -Wl,--hash-style=gnu,-z,norelro,--as-needed'
 * LDFLAGS='-Wl,-O1 -Wl,--as-needed -Wl,--hash-style=gnu,-z,norelro,--as-needed -march=native -O3 -fgraphite-identity -floop-nest-optimize -fdevirtualize-at-ltrans -fipa-pta -fno-semantic-interposition -flto=12 -fno-plt -fno-math-errno -fno-trapping-math -fuse-linker-plugin -pipe -g0 -falign-functions=32'
 * MAKEOPTS='-j12 -l12'
 * gcc () 11.0.0 20200526 (experimental)
 * g++ () 11.0.0 20200526 (experimental)
 * GNU ld (Gentoo 2.34 p4) 2.34.0
 * Linux ryzen.gnum.org 5.4.36 #1 SMP Thu Apr 30 04:38:28 UTC 2020 x86_64 AMD Ryzen 5 3600 6-Core Processor AuthenticAMD GNU/Linux
net-libs/libproxy: 50 seconds average for 4 merges
2020-05-20T02:26:40 >>> net-libs/libproxy: 16 seconds
2020-05-20T08:57:58 >>> net-libs/libproxy: 6 seconds
2020-05-24T14:59:25 >>> net-libs/libproxy: 2 minutes, 45 seconds
2020-05-26T04:17:38 >>> net-libs/libproxy: 14 seconds
]0;emerge 02:28:55 600|647 libproxy 01:02 (root@ryzen.gnum.org)kemerge 02:28:55 600|647 libproxy 01:02 (root@ryzen.gnum.org)\>>> Extracting net-libs/libproxy-0.4.15-r1
 * checking 12 files for package collisions
>>> Merging net-libs/libproxy-0.4.15-r1 to /
 * removing unneeded *.la files
--- /usr/
--- /usr/lib64/
--- /usr/lib64/pkgconfig/
>>> /usr/lib64/pkgconfig/libproxy-1.0.pc
>>> /usr/lib64/libproxy.so -> libproxy.so.1
>>> /usr/lib64/libproxy.so.1.0.0
--- /usr/lib64/libproxy/
--- /usr/lib64/libproxy/0.4.15/
--- /usr/lib64/libproxy/0.4.15/modules/
>>> /usr/lib64/libproxy/0.4.15/modules/config_kde.so
>>> /usr/lib64/libproxy/0.4.15/modules/config_gnome3.so
>>> /usr/lib64/libproxy.so.1 -> libproxy.so.1.0.0
--- /usr/share/
--- /usr/share/cmake/
--- /usr/share/cmake/Modules/
>>> /usr/share/cmake/Modules/Findlibproxy.cmake
--- /usr/share/man/
--- /usr/share/man/man1/
>>> /usr/share/man/man1/proxy.1.bz2
--- /usr/share/vala/
--- /usr/share/vala/vapi/
>>> /usr/share/vala/vapi/libproxy-1.0.vapi
--- /usr/include/
>>> /usr/include/proxy.h
--- /usr/bin/
>>> /usr/bin/proxy
--- /usr/libexec/
>>> /usr/libexec/pxgsettings
>>> Safely unmerging already-installed instance...
>>> Original instance of package unmerged safely.
>>> net-libs/libproxy-0.4.15-r1 merged.
>>> Regenerating /etc/ld.so.cache...
