No package files given... Grabbing a set.
--- replaced obj /usr/lib64/pkgconfig/libmnl.pc
--- replaced dir /usr/lib64/pkgconfig
--- replaced obj /usr/lib64/libmnl.so
--- replaced dir /usr/lib64
--- replaced obj /usr/include/libmnl/libmnl.h
--- replaced dir /usr/include/libmnl
--- replaced dir /usr/include
--- replaced dir /usr
--- replaced obj /lib64/libmnl.so.0.2.0
--- replaced sym /lib64/libmnl.so.0
--- replaced dir /lib64
>>> Regenerating /etc/ld.so.cache...
