No package files given... Grabbing a set.
<<<          obj /usr/lib64/pkgconfig/camd.pc
<<<          obj /usr/lib64/libcamd.so.0.0.0
<<<          sym /usr/lib64/libcamd.so.0
<<<          sym /usr/lib64/libcamd.so
<<<          obj /usr/include/camd.h
--- !empty   dir /usr/lib64/pkgconfig
--- !empty   dir /usr/lib64
--- !empty   dir /usr/include
--- !empty   dir /usr
>>> Regenerating /etc/ld.so.cache...
