No package files given... Grabbing a set.
--- replaced obj /usr/share/pixmaps/java-icon48.png
--- replaced dir /usr/share/pixmaps
--- replaced obj /usr/share/icons/hicolor/48x48/mimetypes/application-x-java-jnlp-file.png
--- replaced dir /usr/share/icons/hicolor/48x48/mimetypes
--- replaced dir /usr/share/icons/hicolor/48x48
--- replaced dir /usr/share/icons/hicolor
--- replaced dir /usr/share/icons
--- replaced obj /usr/share/applications/javaws.desktop
--- replaced dir /usr/share/applications
--- replaced dir /usr/share
--- replaced dir /usr
--- replaced obj /etc/ssl/certs/java/.keep_sys-apps_baselayout-java-0
--- replaced dir /etc/ssl/certs/java
--- replaced dir /etc/ssl/certs
--- replaced dir /etc/ssl
--- replaced obj /etc/revdep-rebuild/60-java
--- replaced dir /etc/revdep-rebuild
--- replaced obj /etc/profile.d/java-config-2.sh
--- replaced obj /etc/profile.d/java-config-2.csh
--- replaced dir /etc/profile.d
--- replaced obj /etc/env.d/20java-config
--- replaced dir /etc/env.d
--- replaced obj /etc/ca-certificates/update.d/java-cacerts
--- replaced dir /etc/ca-certificates/update.d
--- replaced dir /etc/ca-certificates
--- replaced dir /etc
 [32;01m*[0m Updating .desktop files database ...
[A[263C [34;01m[ [32;01mok[34;01m ][0m
 [32;01m*[0m Updating icons cache ...
[A[263C [34;01m[ [32;01mok[34;01m ][0m
>>> Regenerating /etc/ld.so.cache...
