[32;01m * [39;49;00mPackage:    sys-apps/systemd-245.5
[32;01m * [39;49;00mRepository: gentoo
[32;01m * [39;49;00mMaintainer: systemd@gentoo.org
[32;01m * [39;49;00mUSE:        abi_x86_64 acl amd64 curl elibc_glibc gcrypt hwdb kernel_linux kmod lz4 lzma pam pcre policykit resolvconf seccomp split-usr sysv-utils userland_GNU
[32;01m * [39;49;00mFEATURES:   network-sandbox preserve-libs sandbox userpriv usersandbox
 [32;01m*[0m Determining the location of the kernel source code
 [32;01m*[0m Found kernel source directory:
 [32;01m*[0m     /usr/src/linux
 [32;01m*[0m Found sources for kernel version:
 [32;01m*[0m     5.6.12-xanmod1gnum.org
 [32;01m*[0m Checking for suitable kernel configuration options...
[A[263C [34;01m[ [32;01mok[34;01m ][0m
