>>> Extracting info
[32;01m * [39;49;00mPackage:    sys-apps/which-2.21
[32;01m * [39;49;00mRepository: gentoo
[32;01m * [39;49;00mUSE:        kernel_linux abi_x86_64 elibc_glibc amd64 userland_GNU
[32;01m * [39;49;00mFEATURES:   preserve-libs
 [32;01m*[0m /etc/portage/package.cflags/ltoworkarounds.conf -> */*: *FLAGS+=-Wl,-O4 *FLAGS-=-Wl,-O1
 [32;01m*[0m FEATURES='assume-digests binpkg-dostrip binpkg-logs config-protect-if-modified distlocks ebuild-locks fixlafiles merge-sync multilib-strict news nodoc parallel-fetch preserve-libs qa-unresolved-soname-deps sfperms strict strict-keepdir unknown-features-warn unmerge-logs unmerge-orphans xattr'
 [32;01m*[0m CFLAGS='-march=znver2 -O2 -pipe -g0 -fno-semantic-interposition -fno-plt -falign-functions=32 -fno-stack-protector -fno-stack-clash-protection -fstack-check=no -fno-stack-check -Wl,-O4 -Wl,-O4,--sort-common,--as-needed,-z,norelro,-z,now'
 [32;01m*[0m CXXFLAGS='-march=znver2 -O2 -pipe -g0 -fno-semantic-interposition -fno-plt -falign-functions=32 -fno-stack-protector -fno-stack-clash-protection -fstack-check=no -fno-stack-check -Wl,-O4 -Wl,-O4,--sort-common,--as-needed,-z,norelro,-z,now'
 [32;01m*[0m CPPFLAGS='-D_FILE_OFFSET_BITS=64 -D_LARGEFILE_SOURCE -D_LARGEFILE64_SOURCE'
 [32;01m*[0m FFLAGS='-march=znver2 -O2 -pipe -g0 -fno-semantic-interposition -fno-plt -falign-functions=32 -fno-stack-protector -fno-stack-clash-protection -fstack-check=no -fno-stack-check -Wl,-O4 -Wl,-O4,--sort-common,--as-needed,-z,norelro,-z,now'
 [32;01m*[0m FCFLAGS='-march=znver2 -O2 -pipe -g0 -fno-semantic-interposition -fno-plt -falign-functions=32 -fno-stack-protector -fno-stack-clash-protection -fstack-check=no -fno-stack-check -Wl,-O4 -Wl,-O4,--sort-common,--as-needed,-z,norelro,-z,now'
 [32;01m*[0m F77FLAGS='-march=znver2 -O2 -pipe -g0 -fno-semantic-interposition -fno-plt -falign-functions=32 -fno-stack-protector -fno-stack-clash-protection -fstack-check=no -fno-stack-check -Wl,-O4 -Wl,-O4,--sort-common,--as-needed,-z,norelro,-z,now'
 [32;01m*[0m LDFLAGS='-Wl,-O4,--sort-common,--as-needed,-z,norelro,-z,now'
 [32;01m*[0m MAKEOPTS='-j12 -l12'
 [32;01m*[0m gcc () 11.0.0 20200606 (experimental)
 [32;01m*[0m g++ () 11.0.0 20200606 (experimental)
 [32;01m*[0m GNU ld (Gentoo 2.34 p4) 2.34.0
 [32;01m*[0m Linux rescue 5.4.36 #1 SMP Thu Apr 30 04:38:28 UTC 2020 x86_64 AMD Ryzen 5 3600 6-Core Processor AuthenticAMD GNU/Linux
[00;01msys-apps/[00;00m[36;01mwhich[00;00m: [32;01m5[00;00m minutes, [32;01m20[00;00m seconds average for [32;01m24[00;00m merges
2020-05-16T20:38:42 >>> [00;01msys-apps/[00;00m[36;01mwhich[00;00m: [32;01m14[00;00m seconds
2020-05-20T00:56:06 >>> [00;01msys-apps/[00;00m[36;01mwhich[00;00m: [32;01m3[00;00m minutes, [32;01m12[00;00m seconds
2020-05-21T05:47:46 >>> [00;01msys-apps/[00;00m[36;01mwhich[00;00m: [32;01m6[00;00m seconds
2020-05-22T01:53:36 >>> [00;01msys-apps/[00;00m[36;01mwhich[00;00m: [32;01m6[00;00m minutes, [32;01m31[00;00m seconds
2020-05-22T02:40:04 >>> [00;01msys-apps/[00;00m[36;01mwhich[00;00m: [32;01m2[00;00m minutes, [32;01m55[00;00m seconds
2020-05-22T03:04:48 >>> [00;01msys-apps/[00;00m[36;01mwhich[00;00m: [32;01m7[00;00m minutes, [32;01m12[00;00m seconds
2020-05-22T12:24:25 >>> [00;01msys-apps/[00;00m[36;01mwhich[00;00m: [32;01m6[00;00m minutes, [32;01m59[00;00m seconds
2020-05-23T03:26:09 >>> [00;01msys-apps/[00;00m[36;01mwhich[00;00m: [32;01m6[00;00m minutes, [32;01m52[00;00m seconds
2020-05-24T23:20:06 >>> [00;01msys-apps/[00;00m[36;01mwhich[00;00m: [32;01m9[00;00m minutes, [32;01m10[00;00m seconds
2020-05-25T03:01:28 >>> [00;01msys-apps/[00;00m[36;01mwhich[00;00m: [32;01m2[00;00m minutes, [32;01m12[00;00m seconds
2020-05-25T18:11:58 >>> [00;01msys-apps/[00;00m[36;01mwhich[00;00m: [32;01m7[00;00m minutes, [32;01m23[00;00m seconds
2020-05-25T19:49:15 >>> [00;01msys-apps/[00;00m[36;01mwhich[00;00m: [32;01m4[00;00m minutes, [32;01m31[00;00m seconds
2020-05-26T12:30:58 >>> [00;01msys-apps/[00;00m[36;01mwhich[00;00m: [32;01m4[00;00m minutes, [32;01m11[00;00m seconds
2020-05-26T13:46:01 >>> [00;01msys-apps/[00;00m[36;01mwhich[00;00m: [32;01m3[00;00m minutes
2020-05-27T01:23:56 >>> [00;01msys-apps/[00;00m[36;01mwhich[00;00m: [32;01m2[00;00m minutes, [32;01m44[00;00m seconds
2020-05-27T02:58:20 >>> [00;01msys-apps/[00;00m[36;01mwhich[00;00m: [32;01m8[00;00m minutes, [32;01m15[00;00m seconds
2020-05-28T13:21:38 >>> [00;01msys-apps/[00;00m[36;01mwhich[00;00m: [32;01m6[00;00m minutes, [32;01m54[00;00m seconds
2020-05-28T14:11:23 >>> [00;01msys-apps/[00;00m[36;01mwhich[00;00m: [32;01m3[00;00m minutes, [32;01m41[00;00m seconds
2020-05-29T01:31:36 >>> [00;01msys-apps/[00;00m[36;01mwhich[00;00m: [32;01m3[00;00m minutes, [32;01m36[00;00m seconds
2020-05-30T12:26:23 >>> [00;01msys-apps/[00;00m[36;01mwhich[00;00m: [32;01m9[00;00m minutes, [32;01m8[00;00m seconds
2020-05-30T21:31:56 >>> [00;01msys-apps/[00;00m[36;01mwhich[00;00m: [32;01m3[00;00m minutes, [32;01m50[00;00m seconds
2020-06-01T01:43:37 >>> [00;01msys-apps/[00;00m[36;01mwhich[00;00m: [32;01m6[00;00m minutes, [32;01m56[00;00m seconds
2020-06-04T11:46:59 >>> [00;01msys-apps/[00;00m[36;01mwhich[00;00m: [32;01m18[00;00m minutes, [32;01m34[00;00m seconds
2020-06-09T04:02:22 >>> [00;01msys-apps/[00;00m[36;01mwhich[00;00m: [32;01m6[00;00m seconds
]0;emerge 01:18:06 15|664 which 08:32 (root@rescue)>>> Extracting sys-apps/which-2.21
 [33;01m*[0m One or more compressed files were found in docompress-ed directories.
 [33;01m*[0m Please fix the ebuild not to install compressed files (manpages,
 [33;01m*[0m documentation) when automatic compression is used:
 [33;01m*[0m 
 [33;01m*[0m   /usr/share/info/which.info.bz2
 [33;01m*[0m   /usr/share/man/man1/which.1.bz2
 [32;01m*[39;49;00m checking 3 files for package collisions
>>> Merging sys-apps/which-2.21 to /
 [32;01m*[0m removing unneeded *.la files
--- /usr/
--- /usr/bin/
>>> /usr/bin/which
--- /usr/share/
--- /usr/share/info/
>>> /usr/share/info/which.info.bz2
--- /usr/share/man/
--- /usr/share/man/man1/
>>> /usr/share/man/man1/which.1.bz2
>>> Safely unmerging already-installed instance...
No package files given... Grabbing a set.
--- replaced obj /usr/share/man/man1/which.1.bz2
--- replaced dir /usr/share/man/man1
--- replaced dir /usr/share/man
--- replaced obj /usr/share/info/which.info.bz2
--- replaced dir /usr/share/info
--- replaced dir /usr/share
--- replaced obj /usr/bin/which
--- replaced dir /usr/bin
--- replaced dir /usr
>>> Regenerating /etc/ld.so.cache...
>>> Original instance of package unmerged safely.
>>> sys-apps/which-2.21 merged.
