No package files given... Grabbing a set.
--- replaced obj /usr/share/man/man1/which.1.bz2
--- replaced dir /usr/share/man/man1
--- replaced dir /usr/share/man
--- replaced obj /usr/share/info/which.info.bz2
--- replaced dir /usr/share/info
<<<          obj /usr/share/doc/which-2.21/README.bz2
<<<          obj /usr/share/doc/which-2.21/README.alias.bz2
<<<          obj /usr/share/doc/which-2.21/NEWS.bz2
<<<          obj /usr/share/doc/which-2.21/AUTHORS.bz2
--- replaced dir /usr/share
--- replaced obj /usr/bin/which
--- replaced dir /usr/bin
--- replaced dir /usr
<<<          dir /usr/share/doc/which-2.21
--- !empty   dir /usr/share/doc
>>> Regenerating /etc/ld.so.cache...
