No package files given... Grabbing a set.
--- replaced obj /usr/share/man/man8/lsscsi.8.bz2
--- replaced dir /usr/share/man/man8
--- replaced dir /usr/share/man
--- replaced dir /usr/share
--- replaced obj /usr/bin/lsscsi
--- replaced dir /usr/bin
--- replaced dir /usr
>>> Regenerating /etc/ld.so.cache...
