[32;01m * [39;49;00mPackage:    sys-libs/glibc-2.31-r3
[32;01m * [39;49;00mRepository: gentoo
[32;01m * [39;49;00mMaintainer: toolchain@gentoo.org
[32;01m * [39;49;00mUSE:        abi_x86_64 amd64 caps crypt custom-cflags elibc_glibc gd kernel_linux multiarch multilib nscd profile static-libs systemtap userland_GNU
[32;01m * [39;49;00mFEATURES:   network-sandbox preserve-libs userpriv
 [32;01m*[0m Checking general environment sanity.
make -j12 -l12 glibc-test 
cc -march=znver2 -O3 -fipa-pta -fgraphite-identity -floop-interchange -floop-nest-optimize -floop-parallelize-all -ftree-parallelize-loops=12 -ftree-vectorize -fdevirtualize-at-ltrans -fno-math-errno -fno-trapping-math -falign-functions=32 -fno-stack-protector -fno-stack-clash-protection -fstack-check=no -fno-stack-check -pipe -g0 -fprofile-generate -fprofile-arcs -ftest-coverage -fprofile-abs-path -fbranch-probabilities -fprofile-dir=/tmp/portage/pgo   -march=znver2 -O3 -fipa-pta -fgraphite-identity -floop-interchange -floop-nest-optimize -floop-parallelize-all -ftree-parallelize-loops=12 -ftree-vectorize -fdevirtualize-at-ltrans -fno-math-errno -fno-trapping-math -falign-functions=32 -fno-stack-protector -fno-stack-clash-protection -fstack-check=no -fno-stack-check -pipe -g0 -fprofile-generate -fprofile-arcs -ftest-coverage -fprofile-abs-path -fbranch-probabilities -fprofile-dir=/tmp/portage/pgo -Wl,-O4,--sort-common,--as-needed,-z,norelro,-z,now,-lgomp,-lpthread -lgcov --coverage -fuse-linker-plugin  glibc-test.c   -o glibc-test
libgcov profiling error:/tmp/portage/pgo/#tmp#portage#sys-libs#glibc-2.31-r3#temp#glibc-test.gcda:overwriting an existing profile data with a different timestamp
 [32;01m*[0m Checking that IA32 emulation is enabled in the running kernel ...
[A[263C [34;01m[ [32;01mok[34;01m ][0m
 [32;01m*[0m Checking gcc for __thread support ...
[A[263C [34;01m[ [32;01mok[34;01m ][0m
 [32;01m*[0m Checking running kernel version (5.4.36 >= 3.2.0) ...
[A[263C [34;01m[ [32;01mok[34;01m ][0m
 [32;01m*[0m Checking linux-headers version (5.7.0 >= 3.2.0) ...
[A[263C [34;01m[ [32;01mok[34;01m ][0m
