No package files given... Grabbing a set.
--- replaced obj /usr/share/man/man1/consoletype.1.bz2
--- replaced dir /usr/share/man/man1
--- replaced dir /usr/share/man
--- replaced dir /usr/share
--- replaced dir /usr
--- replaced obj /sbin/consoletype
--- replaced dir /sbin
--- replaced obj /lib/gentoo/functions.sh
--- replaced dir /lib/gentoo
--- replaced dir /lib
>>> Regenerating /etc/ld.so.cache...
