 * Package:    sys-libs/libseccomp-2.4.3
 * Repository: gentoo
 * Maintainer: base-system@gentoo.org
 * USE:        abi_x86_64 amd64 elibc_glibc kernel_linux userland_GNU
 * FEATURES:   ccache network-sandbox preserve-libs sandbox userpriv usersandbox
 * FEATURES='assume-digests binpkg-docompress binpkg-dostrip binpkg-logs binpkg-multi-instance buildpkg ccache compress-index config-protect-if-modified distlocks downgrade-backup fixlafiles ipc-sandbox merge-sync multilib-strict network-sandbox news nodoc parallel-fetch parallel-install pid-sandbox preserve-libs qa-unresolved-soname-deps sandbox sfperms strict unknown-features-warn unmerge-backup unmerge-logs unmerge-orphans userfetch userpriv usersandbox usersync xattr'
 * CFLAGS='-march=znver2 -O3 -fgraphite-identity -floop-nest-optimize -fdevirtualize-at-ltrans -fipa-pta -fno-semantic-interposition -flto=12 -fno-plt -fno-signed-zeros -fno-trapping-math -fassociative-math -freciprocal-math -fno-math-errno -ffinite-math-only -fno-rounding-math -fno-signaling-nans -fcx-limited-range -fexcess-precision=fast -falign-functions=32 -fno-stack-protector -fno-stack-clash-protection -fstack-check=no -fno-stack-check -fuse-linker-plugin -pipe -g0 -Wl,-O1 -Wl,--as-needed -Wl,-z,norelro -Wl,-z,now -Wl,--sort-common -s'
 * CXXFLAGS='-march=znver2 -O3 -fgraphite-identity -floop-nest-optimize -fdevirtualize-at-ltrans -fipa-pta -fno-semantic-interposition -flto=12 -fno-plt -fno-signed-zeros -fno-trapping-math -fassociative-math -freciprocal-math -fno-math-errno -ffinite-math-only -fno-rounding-math -fno-signaling-nans -fcx-limited-range -fexcess-precision=fast -falign-functions=32 -fno-stack-protector -fno-stack-clash-protection -fstack-check=no -fno-stack-check -fuse-linker-plugin -pipe -g0 -Wl,-O1 -Wl,--as-needed -Wl,-z,norelro -Wl,-z,now -Wl,--sort-common -s'
 * FFLAGS='-march=znver2 -O3 -fgraphite-identity -floop-nest-optimize -fdevirtualize-at-ltrans -fipa-pta -fno-semantic-interposition -flto=12 -fno-plt -fno-signed-zeros -fno-trapping-math -fassociative-math -freciprocal-math -fno-math-errno -ffinite-math-only -fno-rounding-math -fno-signaling-nans -fcx-limited-range -fexcess-precision=fast -falign-functions=32 -fno-stack-protector -fno-stack-clash-protection -fstack-check=no -fno-stack-check -fuse-linker-plugin -pipe -g0 -Wl,-O1 -Wl,--as-needed -Wl,-z,norelro -Wl,-z,now -Wl,--sort-common -s'
 * FCFLAGS='-march=znver2 -O3 -fgraphite-identity -floop-nest-optimize -fdevirtualize-at-ltrans -fipa-pta -fno-semantic-interposition -flto=12 -fno-plt -fno-signed-zeros -fno-trapping-math -fassociative-math -freciprocal-math -fno-math-errno -ffinite-math-only -fno-rounding-math -fno-signaling-nans -fcx-limited-range -fexcess-precision=fast -falign-functions=32 -fno-stack-protector -fno-stack-clash-protection -fstack-check=no -fno-stack-check -fuse-linker-plugin -pipe -g0 -Wl,-O1 -Wl,--as-needed -Wl,-z,norelro -Wl,-z,now -Wl,--sort-common -s'
 * F77FLAGS='-march=znver2 -O3 -fgraphite-identity -floop-nest-optimize -fdevirtualize-at-ltrans -fipa-pta -fno-semantic-interposition -flto=12 -fno-plt -fno-signed-zeros -fno-trapping-math -fassociative-math -freciprocal-math -fno-math-errno -ffinite-math-only -fno-rounding-math -fno-signaling-nans -fcx-limited-range -fexcess-precision=fast -falign-functions=32 -fno-stack-protector -fno-stack-clash-protection -fstack-check=no -fno-stack-check -fuse-linker-plugin -pipe -g0 -Wl,-O1 -Wl,--as-needed -Wl,-z,norelro -Wl,-z,now -Wl,--sort-common -s'
 * LDFLAGS='-Wl,-O1 -Wl,--as-needed -Wl,-z,norelro -Wl,-z,now -Wl,--sort-common -s -march=znver2 -O3 -fgraphite-identity -floop-nest-optimize -fdevirtualize-at-ltrans -fipa-pta -fno-semantic-interposition -flto=12 -fno-plt -fno-signed-zeros -fno-trapping-math -fassociative-math -freciprocal-math -fno-math-errno -ffinite-math-only -fno-rounding-math -fno-signaling-nans -fcx-limited-range -fexcess-precision=fast -falign-functions=32 -fno-stack-protector -fno-stack-clash-protection -fstack-check=no -fno-stack-check -fuse-linker-plugin -pipe -g0'
 * MAKEOPTS='-j12 -l12'
 * gcc () 11.0.0 20200530 (experimental)
 * g++ () 11.0.0 20200530 (experimental)
 * GNU ld (Gentoo 2.34 p4) 2.34.0
 * Linux ryzen.gnum.org 5.4.36 #1 SMP Thu Apr 30 04:38:28 UTC 2020 x86_64 AMD Ryzen 5 3600 6-Core Processor AuthenticAMD GNU/Linux
sys-libs/libseccomp: 27 seconds average for 16 merges
2020-05-20T01:06:00 >>> sys-libs/libseccomp: 5 seconds
2020-05-20T07:33:42 >>> sys-libs/libseccomp: 23 seconds
2020-05-21T06:05:24 >>> sys-libs/libseccomp: 6 seconds
2020-05-22T13:18:36 >>> sys-libs/libseccomp: 19 seconds
2020-05-23T14:15:56 >>> sys-libs/libseccomp: 17 seconds
2020-05-24T22:43:25 >>> sys-libs/libseccomp: 4 minutes, 20 seconds
2020-05-25T00:21:55 >>> sys-libs/libseccomp: 25 seconds
2020-05-25T03:11:06 >>> sys-libs/libseccomp: 7 seconds
2020-05-25T14:43:55 >>> sys-libs/libseccomp: 6 seconds
2020-05-25T18:57:40 >>> sys-libs/libseccomp: 17 seconds
2020-05-25T22:20:51 >>> sys-libs/libseccomp: 17 seconds
2020-05-26T13:57:04 >>> sys-libs/libseccomp: 6 seconds
2020-05-27T01:36:49 >>> sys-libs/libseccomp: 6 seconds
2020-05-27T03:47:26 >>> sys-libs/libseccomp: 18 seconds
2020-05-28T14:22:38 >>> sys-libs/libseccomp: 7 seconds
2020-05-29T01:44:21 >>> sys-libs/libseccomp: 8 seconds
]0;emerge 13:35:37 337|1110 libseccomp 00:11 (root@ryzen.gnum.org)kemerge 13:35:37 337|1110 libseccomp 00:11 (root@ryzen.gnum.org)\>>> Unpacking source...
>>> Unpacking libseccomp-2.4.3.tar.gz to /tmp/portage/sys-libs/libseccomp-2.4.3/work
>>> Source unpacked in /tmp/portage/sys-libs/libseccomp-2.4.3/work
>>> Preparing source in /tmp/portage/sys-libs/libseccomp-2.4.3/work/libseccomp-2.4.3 ...
>>> Source prepared.
>>> Configuring source in /tmp/portage/sys-libs/libseccomp-2.4.3/work/libseccomp-2.4.3 ...
 * abi_x86_64.amd64: running multilib-minimal_abi_src_configure
 * econf: updating libseccomp-2.4.3/build-aux/config.guess with /usr/share/gnuconfig/config.guess
 * econf: updating libseccomp-2.4.3/build-aux/config.sub with /usr/share/gnuconfig/config.sub
/tmp/portage/sys-libs/libseccomp-2.4.3/work/libseccomp-2.4.3/configure --prefix=/usr --build=x86_64-pc-linux-gnu --host=x86_64-pc-linux-gnu --mandir=/usr/share/man --infodir=/usr/share/info --datadir=/usr/share --sysconfdir=/etc --localstatedir=/var/lib --disable-dependency-tracking --disable-silent-rules --docdir=/usr/share/doc/libseccomp-2.4.3 --htmldir=/usr/share/doc/libseccomp-2.4.3/html --with-sysroot=/ --libdir=/usr/lib64 --disable-static --disable-python
checking for a BSD-compatible install... /tmp/portage/._portage_reinstall_.xm3okdmq/bin/ebuild-helpers/xattr/install -c
checking whether build environment is sane... yes
checking for a thread-safe mkdir -p... /bin/mkdir -p
checking for gawk... gawk
checking whether make sets $(MAKE)... yes
checking whether make supports nested variables... yes
checking how to create a pax tar archive... gnutar
checking for x86_64-pc-linux-gnu-gcc... x86_64-pc-linux-gnu-gcc
checking whether the C compiler works... yes
checking for C compiler default output file name... a.out
checking for suffix of executables... 
checking whether we are cross compiling... no
checking for suffix of object files... o
checking whether we are using the GNU C compiler... yes
checking whether x86_64-pc-linux-gnu-gcc accepts -g... yes
checking for x86_64-pc-linux-gnu-gcc option to accept ISO C89... none needed
checking whether x86_64-pc-linux-gnu-gcc understands -c and -o together... yes
checking whether make supports the include directive... yes (GNU style)
checking dependency style of x86_64-pc-linux-gnu-gcc... none
checking for x86_64-pc-linux-gnu-ar... x86_64-pc-linux-gnu-ar
checking the archiver (x86_64-pc-linux-gnu-ar) interface... ar
checking build system type... x86_64-pc-linux-gnu
checking host system type... x86_64-pc-linux-gnu
checking how to print strings... printf
checking for a sed that does not truncate output... /bin/sed
checking for grep that handles long lines and -e... /bin/grep
checking for egrep... /bin/grep -E
checking for fgrep... /bin/grep -F
checking for ld used by x86_64-pc-linux-gnu-gcc... /usr/x86_64-pc-linux-gnu/bin/ld
checking if the linker (/usr/x86_64-pc-linux-gnu/bin/ld) is GNU ld... yes
checking for BSD- or MS-compatible name lister (nm)... /usr/bin/x86_64-pc-linux-gnu-nm -B
checking the name lister (/usr/bin/x86_64-pc-linux-gnu-nm -B) interface... BSD nm
checking whether ln -s works... yes
checking the maximum length of command line arguments... 1572864
checking how to convert x86_64-pc-linux-gnu file names to x86_64-pc-linux-gnu format... func_convert_file_noop
checking how to convert x86_64-pc-linux-gnu file names to toolchain format... func_convert_file_noop
checking for /usr/x86_64-pc-linux-gnu/bin/ld option to reload object files... -r
checking for x86_64-pc-linux-gnu-objdump... x86_64-pc-linux-gnu-objdump
checking how to recognize dependent libraries... pass_all
checking for x86_64-pc-linux-gnu-dlltool... x86_64-pc-linux-gnu-dlltool
checking how to associate runtime and link libraries... printf %s\n
checking for x86_64-pc-linux-gnu-ar... (cached) x86_64-pc-linux-gnu-ar
checking for archiver @FILE support... @
checking for x86_64-pc-linux-gnu-strip... x86_64-pc-linux-gnu-strip
checking for x86_64-pc-linux-gnu-ranlib... x86_64-pc-linux-gnu-ranlib
checking command to parse /usr/bin/x86_64-pc-linux-gnu-nm -B output from x86_64-pc-linux-gnu-gcc object... ok
checking for sysroot... /
checking for a working dd... /bin/dd
checking how to truncate binary pipes... /bin/dd bs=4096 count=1
checking for x86_64-pc-linux-gnu-mt... no
checking for mt... no
checking if : is a manifest tool... no
checking how to run the C preprocessor... x86_64-pc-linux-gnu-gcc -E
checking for ANSI C header files... yes
checking for sys/types.h... yes
checking for sys/stat.h... yes
checking for stdlib.h... yes
checking for string.h... yes
checking for memory.h... yes
checking for strings.h... yes
checking for inttypes.h... yes
checking for stdint.h... yes
checking for unistd.h... yes
checking for dlfcn.h... yes
checking for objdir... .libs
checking if x86_64-pc-linux-gnu-gcc supports -fno-rtti -fno-exceptions... no
checking for x86_64-pc-linux-gnu-gcc option to produce PIC... -fPIC -DPIC
checking if x86_64-pc-linux-gnu-gcc PIC flag -fPIC -DPIC works... yes
checking if x86_64-pc-linux-gnu-gcc static flag -static works... yes
checking if x86_64-pc-linux-gnu-gcc supports -c -o file.o... yes
checking if x86_64-pc-linux-gnu-gcc supports -c -o file.o... (cached) yes
checking whether the x86_64-pc-linux-gnu-gcc linker (/usr/x86_64-pc-linux-gnu/bin/ld -m elf_x86_64) supports shared libraries... yes
checking whether -lc should be explicitly linked in... no
checking dynamic linker characteristics... GNU/Linux ld.so
checking how to hardcode library paths into programs... immediate
checking whether stripping libraries is possible... yes
checking if libtool supports shared libraries... yes
checking whether to build shared libraries... yes
checking whether to build static libraries... no
checking whether make supports nested variables... (cached) yes
checking for linux/seccomp.h... yes
checking for cython... yes
checking cython version... 0.29.19
checking for cov-build... no
checking whether to build with code coverage support... no
checking that generated files are newer than configure... done
configure: creating ./config.status
config.status: creating libseccomp.pc
config.status: creating include/seccomp.h
config.status: creating Makefile
config.status: creating include/Makefile
config.status: creating src/Makefile
config.status: creating src/python/Makefile
config.status: creating tools/Makefile
config.status: creating tests/Makefile
config.status: creating doc/Makefile
config.status: creating configure.h
config.status: executing depfiles commands
config.status: executing libtool commands
>>> Source configured.
>>> Compiling source in /tmp/portage/sys-libs/libseccomp-2.4.3/work/libseccomp-2.4.3 ...
 * abi_x86_64.amd64: running multilib-minimal_abi_src_compile
make -j12 -l12 
make --quiet --no-print-directory all-recursive
Making all in include
Making all in src
Making all in .
libtool: compile:  x86_64-pc-linux-gnu-gcc -DHAVE_CONFIG_H -I. -I/tmp/portage/sys-libs/libseccomp-2.4.3/work/libseccomp-2.4.3/src -I.. -I/tmp/portage/sys-libs/libseccomp-2.4.3/work/libseccomp-2.4.3/include -I../include -Wall -march=znver2 -O3 -fgraphite-identity -floop-nest-optimize -fdevirtualize-at-ltrans -fipa-pta -fno-semantic-interposition -flto=12 -fno-plt -fno-signed-zeros -fno-trapping-math -fassociative-math -freciprocal-math -fno-math-errno -ffinite-math-only -fno-rounding-math -fno-signaling-nans -fcx-limited-range -fexcess-precision=fast -falign-functions=32 -fno-stack-protector -fno-stack-clash-protection -fstack-check=no -fno-stack-check -fuse-linker-plugin -pipe -g0 -Wl,-O1 -Wl,--as-needed -Wl,-z,norelro -Wl,-z,now -Wl,--sort-common -s -fPIC -DPIC -fvisibility=hidden -march=znver2 -O3 -fgraphite-identity -floop-nest-optimize -fdevirtualize-at-ltrans -fipa-pta -fno-semantic-interposition -flto=12 -fno-plt -fno-signed-zeros -fno-trapping-math -fassociative-math -freciprocal-math -fno-math-errno -ffinite-math-only -fno-rounding-math -fno-signaling-nans -fcx-limited-range -fexcess-precision=fast -falign-functions=32 -fno-stack-protector -fno-stack-clash-protection -fstack-check=no -fno-stack-check -fuse-linker-plugin -pipe -g0 -Wl,-O1 -Wl,--as-needed -Wl,-z,norelro -Wl,-z,now -Wl,--sort-common -s -c /tmp/portage/sys-libs/libseccomp-2.4.3/work/libseccomp-2.4.3/src/hash.c  -fPIC -DPIC -o .libs/libseccomp_la-hash.o
libtool: compile:  x86_64-pc-linux-gnu-gcc -DHAVE_CONFIG_H -I. -I/tmp/portage/sys-libs/libseccomp-2.4.3/work/libseccomp-2.4.3/src -I.. -I/tmp/portage/sys-libs/libseccomp-2.4.3/work/libseccomp-2.4.3/include -I../include -Wall -march=znver2 -O3 -fgraphite-identity -floop-nest-optimize -fdevirtualize-at-ltrans -fipa-pta -fno-semantic-interposition -flto=12 -fno-plt -fno-signed-zeros -fno-trapping-math -fassociative-math -freciprocal-math -fno-math-errno -ffinite-math-only -fno-rounding-math -fno-signaling-nans -fcx-limited-range -fexcess-precision=fast -falign-functions=32 -fno-stack-protector -fno-stack-clash-protection -fstack-check=no -fno-stack-check -fuse-linker-plugin -pipe -g0 -Wl,-O1 -Wl,--as-needed -Wl,-z,norelro -Wl,-z,now -Wl,--sort-common -s -fPIC -DPIC -fvisibility=hidden -march=znver2 -O3 -fgraphite-identity -floop-nest-optimize -fdevirtualize-at-ltrans -fipa-pta -fno-semantic-interposition -flto=12 -fno-plt -fno-signed-zeros -fno-trapping-math -fassociative-math -freciprocal-math -fno-math-errno -ffinite-math-only -fno-rounding-math -fno-signaling-nans -fcx-limited-range -fexcess-precision=fast -falign-functions=32 -fno-stack-protector -fno-stack-clash-protection -fstack-check=no -fno-stack-check -fuse-linker-plugin -pipe -g0 -Wl,-O1 -Wl,--as-needed -Wl,-z,norelro -Wl,-z,now -Wl,--sort-common -s -c /tmp/portage/sys-libs/libseccomp-2.4.3/work/libseccomp-2.4.3/src/api.c  -fPIC -DPIC -o .libs/libseccomp_la-api.o
libtool: compile:  x86_64-pc-linux-gnu-gcc -DHAVE_CONFIG_H -I. -I/tmp/portage/sys-libs/libseccomp-2.4.3/work/libseccomp-2.4.3/src -I.. -I/tmp/portage/sys-libs/libseccomp-2.4.3/work/libseccomp-2.4.3/include -I../include -Wall -march=znver2 -O3 -fgraphite-identity -floop-nest-optimize -fdevirtualize-at-ltrans -fipa-pta -fno-semantic-interposition -flto=12 -fno-plt -fno-signed-zeros -fno-trapping-math -fassociative-math -freciprocal-math -fno-math-errno -ffinite-math-only -fno-rounding-math -fno-signaling-nans -fcx-limited-range -fexcess-precision=fast -falign-functions=32 -fno-stack-protector -fno-stack-clash-protection -fstack-check=no -fno-stack-check -fuse-linker-plugin -pipe -g0 -Wl,-O1 -Wl,--as-needed -Wl,-z,norelro -Wl,-z,now -Wl,--sort-common -s -fPIC -DPIC -fvisibility=hidden -march=znver2 -O3 -fgraphite-identity -floop-nest-optimize -fdevirtualize-at-ltrans -fipa-pta -fno-semantic-interposition -flto=12 -fno-plt -fno-signed-zeros -fno-trapping-math -fassociative-math -freciprocal-math -fno-math-errno -ffinite-math-only -fno-rounding-math -fno-signaling-nans -fcx-limited-range -fexcess-precision=fast -falign-functions=32 -fno-stack-protector -fno-stack-clash-protection -fstack-check=no -fno-stack-check -fuse-linker-plugin -pipe -g0 -Wl,-O1 -Wl,--as-needed -Wl,-z,norelro -Wl,-z,now -Wl,--sort-common -s -c /tmp/portage/sys-libs/libseccomp-2.4.3/work/libseccomp-2.4.3/src/system.c  -fPIC -DPIC -o .libs/libseccomp_la-system.o
libtool: compile:  x86_64-pc-linux-gnu-gcc -DHAVE_CONFIG_H -I. -I/tmp/portage/sys-libs/libseccomp-2.4.3/work/libseccomp-2.4.3/src -I.. -I/tmp/portage/sys-libs/libseccomp-2.4.3/work/libseccomp-2.4.3/include -I../include -Wall -march=znver2 -O3 -fgraphite-identity -floop-nest-optimize -fdevirtualize-at-ltrans -fipa-pta -fno-semantic-interposition -flto=12 -fno-plt -fno-signed-zeros -fno-trapping-math -fassociative-math -freciprocal-math -fno-math-errno -ffinite-math-only -fno-rounding-math -fno-signaling-nans -fcx-limited-range -fexcess-precision=fast -falign-functions=32 -fno-stack-protector -fno-stack-clash-protection -fstack-check=no -fno-stack-check -fuse-linker-plugin -pipe -g0 -Wl,-O1 -Wl,--as-needed -Wl,-z,norelro -Wl,-z,now -Wl,--sort-common -s -fPIC -DPIC -fvisibility=hidden -march=znver2 -O3 -fgraphite-identity -floop-nest-optimize -fdevirtualize-at-ltrans -fipa-pta -fno-semantic-interposition -flto=12 -fno-plt -fno-signed-zeros -fno-trapping-math -fassociative-math -freciprocal-math -fno-math-errno -ffinite-math-only -fno-rounding-math -fno-signaling-nans -fcx-limited-range -fexcess-precision=fast -falign-functions=32 -fno-stack-protector -fno-stack-clash-protection -fstack-check=no -fno-stack-check -fuse-linker-plugin -pipe -g0 -Wl,-O1 -Wl,--as-needed -Wl,-z,norelro -Wl,-z,now -Wl,--sort-common -s -c /tmp/portage/sys-libs/libseccomp-2.4.3/work/libseccomp-2.4.3/src/gen_pfc.c  -fPIC -DPIC -o .libs/libseccomp_la-gen_pfc.o
libtool: compile:  x86_64-pc-linux-gnu-gcc -DHAVE_CONFIG_H -I. -I/tmp/portage/sys-libs/libseccomp-2.4.3/work/libseccomp-2.4.3/src -I.. -I/tmp/portage/sys-libs/libseccomp-2.4.3/work/libseccomp-2.4.3/include -I../include -Wall -march=znver2 -O3 -fgraphite-identity -floop-nest-optimize -fdevirtualize-at-ltrans -fipa-pta -fno-semantic-interposition -flto=12 -fno-plt -fno-signed-zeros -fno-trapping-math -fassociative-math -freciprocal-math -fno-math-errno -ffinite-math-only -fno-rounding-math -fno-signaling-nans -fcx-limited-range -fexcess-precision=fast -falign-functions=32 -fno-stack-protector -fno-stack-clash-protection -fstack-check=no -fno-stack-check -fuse-linker-plugin -pipe -g0 -Wl,-O1 -Wl,--as-needed -Wl,-z,norelro -Wl,-z,now -Wl,--sort-common -s -fPIC -DPIC -fvisibility=hidden -march=znver2 -O3 -fgraphite-identity -floop-nest-optimize -fdevirtualize-at-ltrans -fipa-pta -fno-semantic-interposition -flto=12 -fno-plt -fno-signed-zeros -fno-trapping-math -fassociative-math -freciprocal-math -fno-math-errno -ffinite-math-only -fno-rounding-math -fno-signaling-nans -fcx-limited-range -fexcess-precision=fast -falign-functions=32 -fno-stack-protector -fno-stack-clash-protection -fstack-check=no -fno-stack-check -fuse-linker-plugin -pipe -g0 -Wl,-O1 -Wl,--as-needed -Wl,-z,norelro -Wl,-z,now -Wl,--sort-common -s -c /tmp/portage/sys-libs/libseccomp-2.4.3/work/libseccomp-2.4.3/src/helper.c  -fPIC -DPIC -o .libs/libseccomp_la-helper.o
libtool: compile:  x86_64-pc-linux-gnu-gcc -DHAVE_CONFIG_H -I. -I/tmp/portage/sys-libs/libseccomp-2.4.3/work/libseccomp-2.4.3/src -I.. -I/tmp/portage/sys-libs/libseccomp-2.4.3/work/libseccomp-2.4.3/include -I../include -Wall -march=znver2 -O3 -fgraphite-identity -floop-nest-optimize -fdevirtualize-at-ltrans -fipa-pta -fno-semantic-interposition -flto=12 -fno-plt -fno-signed-zeros -fno-trapping-math -fassociative-math -freciprocal-math -fno-math-errno -ffinite-math-only -fno-rounding-math -fno-signaling-nans -fcx-limited-range -fexcess-precision=fast -falign-functions=32 -fno-stack-protector -fno-stack-clash-protection -fstack-check=no -fno-stack-check -fuse-linker-plugin -pipe -g0 -Wl,-O1 -Wl,--as-needed -Wl,-z,norelro -Wl,-z,now -Wl,--sort-common -s -fPIC -DPIC -fvisibility=hidden -march=znver2 -O3 -fgraphite-identity -floop-nest-optimize -fdevirtualize-at-ltrans -fipa-pta -fno-semantic-interposition -flto=12 -fno-plt -fno-signed-zeros -fno-trapping-math -fassociative-math -freciprocal-math -fno-math-errno -ffinite-math-only -fno-rounding-math -fno-signaling-nans -fcx-limited-range -fexcess-precision=fast -falign-functions=32 -fno-stack-protector -fno-stack-clash-protection -fstack-check=no -fno-stack-check -fuse-linker-plugin -pipe -g0 -Wl,-O1 -Wl,--as-needed -Wl,-z,norelro -Wl,-z,now -Wl,--sort-common -s -c /tmp/portage/sys-libs/libseccomp-2.4.3/work/libseccomp-2.4.3/src/arch-x86.c  -fPIC -DPIC -o .libs/libseccomp_la-arch-x86.o
libtool: compile:  x86_64-pc-linux-gnu-gcc -DHAVE_CONFIG_H -I. -I/tmp/portage/sys-libs/libseccomp-2.4.3/work/libseccomp-2.4.3/src -I.. -I/tmp/portage/sys-libs/libseccomp-2.4.3/work/libseccomp-2.4.3/include -I../include -Wall -march=znver2 -O3 -fgraphite-identity -floop-nest-optimize -fdevirtualize-at-ltrans -fipa-pta -fno-semantic-interposition -flto=12 -fno-plt -fno-signed-zeros -fno-trapping-math -fassociative-math -freciprocal-math -fno-math-errno -ffinite-math-only -fno-rounding-math -fno-signaling-nans -fcx-limited-range -fexcess-precision=fast -falign-functions=32 -fno-stack-protector -fno-stack-clash-protection -fstack-check=no -fno-stack-check -fuse-linker-plugin -pipe -g0 -Wl,-O1 -Wl,--as-needed -Wl,-z,norelro -Wl,-z,now -Wl,--sort-common -s -fPIC -DPIC -fvisibility=hidden -march=znver2 -O3 -fgraphite-identity -floop-nest-optimize -fdevirtualize-at-ltrans -fipa-pta -fno-semantic-interposition -flto=12 -fno-plt -fno-signed-zeros -fno-trapping-math -fassociative-math -freciprocal-math -fno-math-errno -ffinite-math-only -fno-rounding-math -fno-signaling-nans -fcx-limited-range -fexcess-precision=fast -falign-functions=32 -fno-stack-protector -fno-stack-clash-protection -fstack-check=no -fno-stack-check -fuse-linker-plugin -pipe -g0 -Wl,-O1 -Wl,--as-needed -Wl,-z,norelro -Wl,-z,now -Wl,--sort-common -s -c /tmp/portage/sys-libs/libseccomp-2.4.3/work/libseccomp-2.4.3/src/gen_bpf.c  -fPIC -DPIC -o .libs/libseccomp_la-gen_bpf.o
libtool: compile:  x86_64-pc-linux-gnu-gcc -DHAVE_CONFIG_H -I. -I/tmp/portage/sys-libs/libseccomp-2.4.3/work/libseccomp-2.4.3/src -I.. -I/tmp/portage/sys-libs/libseccomp-2.4.3/work/libseccomp-2.4.3/include -I../include -Wall -march=znver2 -O3 -fgraphite-identity -floop-nest-optimize -fdevirtualize-at-ltrans -fipa-pta -fno-semantic-interposition -flto=12 -fno-plt -fno-signed-zeros -fno-trapping-math -fassociative-math -freciprocal-math -fno-math-errno -ffinite-math-only -fno-rounding-math -fno-signaling-nans -fcx-limited-range -fexcess-precision=fast -falign-functions=32 -fno-stack-protector -fno-stack-clash-protection -fstack-check=no -fno-stack-check -fuse-linker-plugin -pipe -g0 -Wl,-O1 -Wl,--as-needed -Wl,-z,norelro -Wl,-z,now -Wl,--sort-common -s -fPIC -DPIC -fvisibility=hidden -march=znver2 -O3 -fgraphite-identity -floop-nest-optimize -fdevirtualize-at-ltrans -fipa-pta -fno-semantic-interposition -flto=12 -fno-plt -fno-signed-zeros -fno-trapping-math -fassociative-math -freciprocal-math -fno-math-errno -ffinite-math-only -fno-rounding-math -fno-signaling-nans -fcx-limited-range -fexcess-precision=fast -falign-functions=32 -fno-stack-protector -fno-stack-clash-protection -fstack-check=no -fno-stack-check -fuse-linker-plugin -pipe -g0 -Wl,-O1 -Wl,--as-needed -Wl,-z,norelro -Wl,-z,now -Wl,--sort-common -s -c /tmp/portage/sys-libs/libseccomp-2.4.3/work/libseccomp-2.4.3/src/arch-x86-syscalls.c  -fPIC -DPIC -o .libs/libseccomp_la-arch-x86-syscalls.o
libtool: compile:  x86_64-pc-linux-gnu-gcc -DHAVE_CONFIG_H -I. -I/tmp/portage/sys-libs/libseccomp-2.4.3/work/libseccomp-2.4.3/src -I.. -I/tmp/portage/sys-libs/libseccomp-2.4.3/work/libseccomp-2.4.3/include -I../include -Wall -march=znver2 -O3 -fgraphite-identity -floop-nest-optimize -fdevirtualize-at-ltrans -fipa-pta -fno-semantic-interposition -flto=12 -fno-plt -fno-signed-zeros -fno-trapping-math -fassociative-math -freciprocal-math -fno-math-errno -ffinite-math-only -fno-rounding-math -fno-signaling-nans -fcx-limited-range -fexcess-precision=fast -falign-functions=32 -fno-stack-protector -fno-stack-clash-protection -fstack-check=no -fno-stack-check -fuse-linker-plugin -pipe -g0 -Wl,-O1 -Wl,--as-needed -Wl,-z,norelro -Wl,-z,now -Wl,--sort-common -s -fPIC -DPIC -fvisibility=hidden -march=znver2 -O3 -fgraphite-identity -floop-nest-optimize -fdevirtualize-at-ltrans -fipa-pta -fno-semantic-interposition -flto=12 -fno-plt -fno-signed-zeros -fno-trapping-math -fassociative-math -freciprocal-math -fno-math-errno -ffinite-math-only -fno-rounding-math -fno-signaling-nans -fcx-limited-range -fexcess-precision=fast -falign-functions=32 -fno-stack-protector -fno-stack-clash-protection -fstack-check=no -fno-stack-check -fuse-linker-plugin -pipe -g0 -Wl,-O1 -Wl,--as-needed -Wl,-z,norelro -Wl,-z,now -Wl,--sort-common -s -c /tmp/portage/sys-libs/libseccomp-2.4.3/work/libseccomp-2.4.3/src/arch-x86_64-syscalls.c  -fPIC -DPIC -o .libs/libseccomp_la-arch-x86_64-syscalls.o
libtool: compile:  x86_64-pc-linux-gnu-gcc -DHAVE_CONFIG_H -I. -I/tmp/portage/sys-libs/libseccomp-2.4.3/work/libseccomp-2.4.3/src -I.. -I/tmp/portage/sys-libs/libseccomp-2.4.3/work/libseccomp-2.4.3/include -I../include -Wall -march=znver2 -O3 -fgraphite-identity -floop-nest-optimize -fdevirtualize-at-ltrans -fipa-pta -fno-semantic-interposition -flto=12 -fno-plt -fno-signed-zeros -fno-trapping-math -fassociative-math -freciprocal-math -fno-math-errno -ffinite-math-only -fno-rounding-math -fno-signaling-nans -fcx-limited-range -fexcess-precision=fast -falign-functions=32 -fno-stack-protector -fno-stack-clash-protection -fstack-check=no -fno-stack-check -fuse-linker-plugin -pipe -g0 -Wl,-O1 -Wl,--as-needed -Wl,-z,norelro -Wl,-z,now -Wl,--sort-common -s -fPIC -DPIC -fvisibility=hidden -march=znver2 -O3 -fgraphite-identity -floop-nest-optimize -fdevirtualize-at-ltrans -fipa-pta -fno-semantic-interposition -flto=12 -fno-plt -fno-signed-zeros -fno-trapping-math -fassociative-math -freciprocal-math -fno-math-errno -ffinite-math-only -fno-rounding-math -fno-signaling-nans -fcx-limited-range -fexcess-precision=fast -falign-functions=32 -fno-stack-protector -fno-stack-clash-protection -fstack-check=no -fno-stack-check -fuse-linker-plugin -pipe -g0 -Wl,-O1 -Wl,--as-needed -Wl,-z,norelro -Wl,-z,now -Wl,--sort-common -s -c /tmp/portage/sys-libs/libseccomp-2.4.3/work/libseccomp-2.4.3/src/arch.c  -fPIC -DPIC -o .libs/libseccomp_la-arch.o
libtool: compile:  x86_64-pc-linux-gnu-gcc -DHAVE_CONFIG_H -I. -I/tmp/portage/sys-libs/libseccomp-2.4.3/work/libseccomp-2.4.3/src -I.. -I/tmp/portage/sys-libs/libseccomp-2.4.3/work/libseccomp-2.4.3/include -I../include -Wall -march=znver2 -O3 -fgraphite-identity -floop-nest-optimize -fdevirtualize-at-ltrans -fipa-pta -fno-semantic-interposition -flto=12 -fno-plt -fno-signed-zeros -fno-trapping-math -fassociative-math -freciprocal-math -fno-math-errno -ffinite-math-only -fno-rounding-math -fno-signaling-nans -fcx-limited-range -fexcess-precision=fast -falign-functions=32 -fno-stack-protector -fno-stack-clash-protection -fstack-check=no -fno-stack-check -fuse-linker-plugin -pipe -g0 -Wl,-O1 -Wl,--as-needed -Wl,-z,norelro -Wl,-z,now -Wl,--sort-common -s -fPIC -DPIC -fvisibility=hidden -march=znver2 -O3 -fgraphite-identity -floop-nest-optimize -fdevirtualize-at-ltrans -fipa-pta -fno-semantic-interposition -flto=12 -fno-plt -fno-signed-zeros -fno-trapping-math -fassociative-math -freciprocal-math -fno-math-errno -ffinite-math-only -fno-rounding-math -fno-signaling-nans -fcx-limited-range -fexcess-precision=fast -falign-functions=32 -fno-stack-protector -fno-stack-clash-protection -fstack-check=no -fno-stack-check -fuse-linker-plugin -pipe -g0 -Wl,-O1 -Wl,--as-needed -Wl,-z,norelro -Wl,-z,now -Wl,--sort-common -s -c /tmp/portage/sys-libs/libseccomp-2.4.3/work/libseccomp-2.4.3/src/arch-x86_64.c  -fPIC -DPIC -o .libs/libseccomp_la-arch-x86_64.o
libtool: compile:  x86_64-pc-linux-gnu-gcc -DHAVE_CONFIG_H -I. -I/tmp/portage/sys-libs/libseccomp-2.4.3/work/libseccomp-2.4.3/src -I.. -I/tmp/portage/sys-libs/libseccomp-2.4.3/work/libseccomp-2.4.3/include -I../include -Wall -march=znver2 -O3 -fgraphite-identity -floop-nest-optimize -fdevirtualize-at-ltrans -fipa-pta -fno-semantic-interposition -flto=12 -fno-plt -fno-signed-zeros -fno-trapping-math -fassociative-math -freciprocal-math -fno-math-errno -ffinite-math-only -fno-rounding-math -fno-signaling-nans -fcx-limited-range -fexcess-precision=fast -falign-functions=32 -fno-stack-protector -fno-stack-clash-protection -fstack-check=no -fno-stack-check -fuse-linker-plugin -pipe -g0 -Wl,-O1 -Wl,--as-needed -Wl,-z,norelro -Wl,-z,now -Wl,--sort-common -s -fPIC -DPIC -fvisibility=hidden -march=znver2 -O3 -fgraphite-identity -floop-nest-optimize -fdevirtualize-at-ltrans -fipa-pta -fno-semantic-interposition -flto=12 -fno-plt -fno-signed-zeros -fno-trapping-math -fassociative-math -freciprocal-math -fno-math-errno -ffinite-math-only -fno-rounding-math -fno-signaling-nans -fcx-limited-range -fexcess-precision=fast -falign-functions=32 -fno-stack-protector -fno-stack-clash-protection -fstack-check=no -fno-stack-check -fuse-linker-plugin -pipe -g0 -Wl,-O1 -Wl,--as-needed -Wl,-z,norelro -Wl,-z,now -Wl,--sort-common -s -c /tmp/portage/sys-libs/libseccomp-2.4.3/work/libseccomp-2.4.3/src/db.c  -fPIC -DPIC -o .libs/libseccomp_la-db.o
libtool: compile:  x86_64-pc-linux-gnu-gcc -DHAVE_CONFIG_H -I. -I/tmp/portage/sys-libs/libseccomp-2.4.3/work/libseccomp-2.4.3/src -I.. -I/tmp/portage/sys-libs/libseccomp-2.4.3/work/libseccomp-2.4.3/include -I../include -Wall -march=znver2 -O3 -fgraphite-identity -floop-nest-optimize -fdevirtualize-at-ltrans -fipa-pta -fno-semantic-interposition -flto=12 -fno-plt -fno-signed-zeros -fno-trapping-math -fassociative-math -freciprocal-math -fno-math-errno -ffinite-math-only -fno-rounding-math -fno-signaling-nans -fcx-limited-range -fexcess-precision=fast -falign-functions=32 -fno-stack-protector -fno-stack-clash-protection -fstack-check=no -fno-stack-check -fuse-linker-plugin -pipe -g0 -Wl,-O1 -Wl,--as-needed -Wl,-z,norelro -Wl,-z,now -Wl,--sort-common -s -fPIC -DPIC -fvisibility=hidden -march=znver2 -O3 -fgraphite-identity -floop-nest-optimize -fdevirtualize-at-ltrans -fipa-pta -fno-semantic-interposition -flto=12 -fno-plt -fno-signed-zeros -fno-trapping-math -fassociative-math -freciprocal-math -fno-math-errno -ffinite-math-only -fno-rounding-math -fno-signaling-nans -fcx-limited-range -fexcess-precision=fast -falign-functions=32 -fno-stack-protector -fno-stack-clash-protection -fstack-check=no -fno-stack-check -fuse-linker-plugin -pipe -g0 -Wl,-O1 -Wl,--as-needed -Wl,-z,norelro -Wl,-z,now -Wl,--sort-common -s -c /tmp/portage/sys-libs/libseccomp-2.4.3/work/libseccomp-2.4.3/src/arch-x32.c  -fPIC -DPIC -o .libs/libseccomp_la-arch-x32.o
libtool: compile:  x86_64-pc-linux-gnu-gcc -DHAVE_CONFIG_H -I. -I/tmp/portage/sys-libs/libseccomp-2.4.3/work/libseccomp-2.4.3/src -I.. -I/tmp/portage/sys-libs/libseccomp-2.4.3/work/libseccomp-2.4.3/include -I../include -Wall -march=znver2 -O3 -fgraphite-identity -floop-nest-optimize -fdevirtualize-at-ltrans -fipa-pta -fno-semantic-interposition -flto=12 -fno-plt -fno-signed-zeros -fno-trapping-math -fassociative-math -freciprocal-math -fno-math-errno -ffinite-math-only -fno-rounding-math -fno-signaling-nans -fcx-limited-range -fexcess-precision=fast -falign-functions=32 -fno-stack-protector -fno-stack-clash-protection -fstack-check=no -fno-stack-check -fuse-linker-plugin -pipe -g0 -Wl,-O1 -Wl,--as-needed -Wl,-z,norelro -Wl,-z,now -Wl,--sort-common -s -fPIC -DPIC -fvisibility=hidden -march=znver2 -O3 -fgraphite-identity -floop-nest-optimize -fdevirtualize-at-ltrans -fipa-pta -fno-semantic-interposition -flto=12 -fno-plt -fno-signed-zeros -fno-trapping-math -fassociative-math -freciprocal-math -fno-math-errno -ffinite-math-only -fno-rounding-math -fno-signaling-nans -fcx-limited-range -fexcess-precision=fast -falign-functions=32 -fno-stack-protector -fno-stack-clash-protection -fstack-check=no -fno-stack-check -fuse-linker-plugin -pipe -g0 -Wl,-O1 -Wl,--as-needed -Wl,-z,norelro -Wl,-z,now -Wl,--sort-common -s -c /tmp/portage/sys-libs/libseccomp-2.4.3/work/libseccomp-2.4.3/src/arch-arm.c  -fPIC -DPIC -o .libs/libseccomp_la-arch-arm.o
libtool: compile:  x86_64-pc-linux-gnu-gcc -DHAVE_CONFIG_H -I. -I/tmp/portage/sys-libs/libseccomp-2.4.3/work/libseccomp-2.4.3/src -I.. -I/tmp/portage/sys-libs/libseccomp-2.4.3/work/libseccomp-2.4.3/include -I../include -Wall -march=znver2 -O3 -fgraphite-identity -floop-nest-optimize -fdevirtualize-at-ltrans -fipa-pta -fno-semantic-interposition -flto=12 -fno-plt -fno-signed-zeros -fno-trapping-math -fassociative-math -freciprocal-math -fno-math-errno -ffinite-math-only -fno-rounding-math -fno-signaling-nans -fcx-limited-range -fexcess-precision=fast -falign-functions=32 -fno-stack-protector -fno-stack-clash-protection -fstack-check=no -fno-stack-check -fuse-linker-plugin -pipe -g0 -Wl,-O1 -Wl,--as-needed -Wl,-z,norelro -Wl,-z,now -Wl,--sort-common -s -fPIC -DPIC -fvisibility=hidden -march=znver2 -O3 -fgraphite-identity -floop-nest-optimize -fdevirtualize-at-ltrans -fipa-pta -fno-semantic-interposition -flto=12 -fno-plt -fno-signed-zeros -fno-trapping-math -fassociative-math -freciprocal-math -fno-math-errno -ffinite-math-only -fno-rounding-math -fno-signaling-nans -fcx-limited-range -fexcess-precision=fast -falign-functions=32 -fno-stack-protector -fno-stack-clash-protection -fstack-check=no -fno-stack-check -fuse-linker-plugin -pipe -g0 -Wl,-O1 -Wl,--as-needed -Wl,-z,norelro -Wl,-z,now -Wl,--sort-common -s -c /tmp/portage/sys-libs/libseccomp-2.4.3/work/libseccomp-2.4.3/src/arch-x32-syscalls.c  -fPIC -DPIC -o .libs/libseccomp_la-arch-x32-syscalls.o
libtool: compile:  x86_64-pc-linux-gnu-gcc -DHAVE_CONFIG_H -I. -I/tmp/portage/sys-libs/libseccomp-2.4.3/work/libseccomp-2.4.3/src -I.. -I/tmp/portage/sys-libs/libseccomp-2.4.3/work/libseccomp-2.4.3/include -I../include -Wall -march=znver2 -O3 -fgraphite-identity -floop-nest-optimize -fdevirtualize-at-ltrans -fipa-pta -fno-semantic-interposition -flto=12 -fno-plt -fno-signed-zeros -fno-trapping-math -fassociative-math -freciprocal-math -fno-math-errno -ffinite-math-only -fno-rounding-math -fno-signaling-nans -fcx-limited-range -fexcess-precision=fast -falign-functions=32 -fno-stack-protector -fno-stack-clash-protection -fstack-check=no -fno-stack-check -fuse-linker-plugin -pipe -g0 -Wl,-O1 -Wl,--as-needed -Wl,-z,norelro -Wl,-z,now -Wl,--sort-common -s -fPIC -DPIC -fvisibility=hidden -march=znver2 -O3 -fgraphite-identity -floop-nest-optimize -fdevirtualize-at-ltrans -fipa-pta -fno-semantic-interposition -flto=12 -fno-plt -fno-signed-zeros -fno-trapping-math -fassociative-math -freciprocal-math -fno-math-errno -ffinite-math-only -fno-rounding-math -fno-signaling-nans -fcx-limited-range -fexcess-precision=fast -falign-functions=32 -fno-stack-protector -fno-stack-clash-protection -fstack-check=no -fno-stack-check -fuse-linker-plugin -pipe -g0 -Wl,-O1 -Wl,--as-needed -Wl,-z,norelro -Wl,-z,now -Wl,--sort-common -s -c /tmp/portage/sys-libs/libseccomp-2.4.3/work/libseccomp-2.4.3/src/arch-mips.c  -fPIC -DPIC -o .libs/libseccomp_la-arch-mips.o
libtool: compile:  x86_64-pc-linux-gnu-gcc -DHAVE_CONFIG_H -I. -I/tmp/portage/sys-libs/libseccomp-2.4.3/work/libseccomp-2.4.3/src -I.. -I/tmp/portage/sys-libs/libseccomp-2.4.3/work/libseccomp-2.4.3/include -I../include -Wall -march=znver2 -O3 -fgraphite-identity -floop-nest-optimize -fdevirtualize-at-ltrans -fipa-pta -fno-semantic-interposition -flto=12 -fno-plt -fno-signed-zeros -fno-trapping-math -fassociative-math -freciprocal-math -fno-math-errno -ffinite-math-only -fno-rounding-math -fno-signaling-nans -fcx-limited-range -fexcess-precision=fast -falign-functions=32 -fno-stack-protector -fno-stack-clash-protection -fstack-check=no -fno-stack-check -fuse-linker-plugin -pipe -g0 -Wl,-O1 -Wl,--as-needed -Wl,-z,norelro -Wl,-z,now -Wl,--sort-common -s -fPIC -DPIC -fvisibility=hidden -march=znver2 -O3 -fgraphite-identity -floop-nest-optimize -fdevirtualize-at-ltrans -fipa-pta -fno-semantic-interposition -flto=12 -fno-plt -fno-signed-zeros -fno-trapping-math -fassociative-math -freciprocal-math -fno-math-errno -ffinite-math-only -fno-rounding-math -fno-signaling-nans -fcx-limited-range -fexcess-precision=fast -falign-functions=32 -fno-stack-protector -fno-stack-clash-protection -fstack-check=no -fno-stack-check -fuse-linker-plugin -pipe -g0 -Wl,-O1 -Wl,--as-needed -Wl,-z,norelro -Wl,-z,now -Wl,--sort-common -s -c /tmp/portage/sys-libs/libseccomp-2.4.3/work/libseccomp-2.4.3/src/arch-arm-syscalls.c  -fPIC -DPIC -o .libs/libseccomp_la-arch-arm-syscalls.o
libtool: compile:  x86_64-pc-linux-gnu-gcc -DHAVE_CONFIG_H -I. -I/tmp/portage/sys-libs/libseccomp-2.4.3/work/libseccomp-2.4.3/src -I.. -I/tmp/portage/sys-libs/libseccomp-2.4.3/work/libseccomp-2.4.3/include -I../include -Wall -march=znver2 -O3 -fgraphite-identity -floop-nest-optimize -fdevirtualize-at-ltrans -fipa-pta -fno-semantic-interposition -flto=12 -fno-plt -fno-signed-zeros -fno-trapping-math -fassociative-math -freciprocal-math -fno-math-errno -ffinite-math-only -fno-rounding-math -fno-signaling-nans -fcx-limited-range -fexcess-precision=fast -falign-functions=32 -fno-stack-protector -fno-stack-clash-protection -fstack-check=no -fno-stack-check -fuse-linker-plugin -pipe -g0 -Wl,-O1 -Wl,--as-needed -Wl,-z,norelro -Wl,-z,now -Wl,--sort-common -s -fPIC -DPIC -fvisibility=hidden -march=znver2 -O3 -fgraphite-identity -floop-nest-optimize -fdevirtualize-at-ltrans -fipa-pta -fno-semantic-interposition -flto=12 -fno-plt -fno-signed-zeros -fno-trapping-math -fassociative-math -freciprocal-math -fno-math-errno -ffinite-math-only -fno-rounding-math -fno-signaling-nans -fcx-limited-range -fexcess-precision=fast -falign-functions=32 -fno-stack-protector -fno-stack-clash-protection -fstack-check=no -fno-stack-check -fuse-linker-plugin -pipe -g0 -Wl,-O1 -Wl,--as-needed -Wl,-z,norelro -Wl,-z,now -Wl,--sort-common -s -c /tmp/portage/sys-libs/libseccomp-2.4.3/work/libseccomp-2.4.3/src/arch-aarch64.c  -fPIC -DPIC -o .libs/libseccomp_la-arch-aarch64.o
libtool: compile:  x86_64-pc-linux-gnu-gcc -DHAVE_CONFIG_H -I. -I/tmp/portage/sys-libs/libseccomp-2.4.3/work/libseccomp-2.4.3/src -I.. -I/tmp/portage/sys-libs/libseccomp-2.4.3/work/libseccomp-2.4.3/include -I../include -Wall -march=znver2 -O3 -fgraphite-identity -floop-nest-optimize -fdevirtualize-at-ltrans -fipa-pta -fno-semantic-interposition -flto=12 -fno-plt -fno-signed-zeros -fno-trapping-math -fassociative-math -freciprocal-math -fno-math-errno -ffinite-math-only -fno-rounding-math -fno-signaling-nans -fcx-limited-range -fexcess-precision=fast -falign-functions=32 -fno-stack-protector -fno-stack-clash-protection -fstack-check=no -fno-stack-check -fuse-linker-plugin -pipe -g0 -Wl,-O1 -Wl,--as-needed -Wl,-z,norelro -Wl,-z,now -Wl,--sort-common -s -fPIC -DPIC -fvisibility=hidden -march=znver2 -O3 -fgraphite-identity -floop-nest-optimize -fdevirtualize-at-ltrans -fipa-pta -fno-semantic-interposition -flto=12 -fno-plt -fno-signed-zeros -fno-trapping-math -fassociative-math -freciprocal-math -fno-math-errno -ffinite-math-only -fno-rounding-math -fno-signaling-nans -fcx-limited-range -fexcess-precision=fast -falign-functions=32 -fno-stack-protector -fno-stack-clash-protection -fstack-check=no -fno-stack-check -fuse-linker-plugin -pipe -g0 -Wl,-O1 -Wl,--as-needed -Wl,-z,norelro -Wl,-z,now -Wl,--sort-common -s -c /tmp/portage/sys-libs/libseccomp-2.4.3/work/libseccomp-2.4.3/src/arch-aarch64-syscalls.c  -fPIC -DPIC -o .libs/libseccomp_la-arch-aarch64-syscalls.o
libtool: compile:  x86_64-pc-linux-gnu-gcc -DHAVE_CONFIG_H -I. -I/tmp/portage/sys-libs/libseccomp-2.4.3/work/libseccomp-2.4.3/src -I.. -I/tmp/portage/sys-libs/libseccomp-2.4.3/work/libseccomp-2.4.3/include -I../include -Wall -march=znver2 -O3 -fgraphite-identity -floop-nest-optimize -fdevirtualize-at-ltrans -fipa-pta -fno-semantic-interposition -flto=12 -fno-plt -fno-signed-zeros -fno-trapping-math -fassociative-math -freciprocal-math -fno-math-errno -ffinite-math-only -fno-rounding-math -fno-signaling-nans -fcx-limited-range -fexcess-precision=fast -falign-functions=32 -fno-stack-protector -fno-stack-clash-protection -fstack-check=no -fno-stack-check -fuse-linker-plugin -pipe -g0 -Wl,-O1 -Wl,--as-needed -Wl,-z,norelro -Wl,-z,now -Wl,--sort-common -s -fPIC -DPIC -fvisibility=hidden -march=znver2 -O3 -fgraphite-identity -floop-nest-optimize -fdevirtualize-at-ltrans -fipa-pta -fno-semantic-interposition -flto=12 -fno-plt -fno-signed-zeros -fno-trapping-math -fassociative-math -freciprocal-math -fno-math-errno -ffinite-math-only -fno-rounding-math -fno-signaling-nans -fcx-limited-range -fexcess-precision=fast -falign-functions=32 -fno-stack-protector -fno-stack-clash-protection -fstack-check=no -fno-stack-check -fuse-linker-plugin -pipe -g0 -Wl,-O1 -Wl,--as-needed -Wl,-z,norelro -Wl,-z,now -Wl,--sort-common -s -c /tmp/portage/sys-libs/libseccomp-2.4.3/work/libseccomp-2.4.3/src/arch-mips-syscalls.c  -fPIC -DPIC -o .libs/libseccomp_la-arch-mips-syscalls.o
libtool: compile:  x86_64-pc-linux-gnu-gcc -DHAVE_CONFIG_H -I. -I/tmp/portage/sys-libs/libseccomp-2.4.3/work/libseccomp-2.4.3/src -I.. -I/tmp/portage/sys-libs/libseccomp-2.4.3/work/libseccomp-2.4.3/include -I../include -Wall -march=znver2 -O3 -fgraphite-identity -floop-nest-optimize -fdevirtualize-at-ltrans -fipa-pta -fno-semantic-interposition -flto=12 -fno-plt -fno-signed-zeros -fno-trapping-math -fassociative-math -freciprocal-math -fno-math-errno -ffinite-math-only -fno-rounding-math -fno-signaling-nans -fcx-limited-range -fexcess-precision=fast -falign-functions=32 -fno-stack-protector -fno-stack-clash-protection -fstack-check=no -fno-stack-check -fuse-linker-plugin -pipe -g0 -Wl,-O1 -Wl,--as-needed -Wl,-z,norelro -Wl,-z,now -Wl,--sort-common -s -fPIC -DPIC -fvisibility=hidden -march=znver2 -O3 -fgraphite-identity -floop-nest-optimize -fdevirtualize-at-ltrans -fipa-pta -fno-semantic-interposition -flto=12 -fno-plt -fno-signed-zeros -fno-trapping-math -fassociative-math -freciprocal-math -fno-math-errno -ffinite-math-only -fno-rounding-math -fno-signaling-nans -fcx-limited-range -fexcess-precision=fast -falign-functions=32 -fno-stack-protector -fno-stack-clash-protection -fstack-check=no -fno-stack-check -fuse-linker-plugin -pipe -g0 -Wl,-O1 -Wl,--as-needed -Wl,-z,norelro -Wl,-z,now -Wl,--sort-common -s -c /tmp/portage/sys-libs/libseccomp-2.4.3/work/libseccomp-2.4.3/src/arch-mips64.c  -fPIC -DPIC -o .libs/libseccomp_la-arch-mips64.o
libtool: compile:  x86_64-pc-linux-gnu-gcc -DHAVE_CONFIG_H -I. -I/tmp/portage/sys-libs/libseccomp-2.4.3/work/libseccomp-2.4.3/src -I.. -I/tmp/portage/sys-libs/libseccomp-2.4.3/work/libseccomp-2.4.3/include -I../include -Wall -march=znver2 -O3 -fgraphite-identity -floop-nest-optimize -fdevirtualize-at-ltrans -fipa-pta -fno-semantic-interposition -flto=12 -fno-plt -fno-signed-zeros -fno-trapping-math -fassociative-math -freciprocal-math -fno-math-errno -ffinite-math-only -fno-rounding-math -fno-signaling-nans -fcx-limited-range -fexcess-precision=fast -falign-functions=32 -fno-stack-protector -fno-stack-clash-protection -fstack-check=no -fno-stack-check -fuse-linker-plugin -pipe -g0 -Wl,-O1 -Wl,--as-needed -Wl,-z,norelro -Wl,-z,now -Wl,--sort-common -s -fPIC -DPIC -fvisibility=hidden -march=znver2 -O3 -fgraphite-identity -floop-nest-optimize -fdevirtualize-at-ltrans -fipa-pta -fno-semantic-interposition -flto=12 -fno-plt -fno-signed-zeros -fno-trapping-math -fassociative-math -freciprocal-math -fno-math-errno -ffinite-math-only -fno-rounding-math -fno-signaling-nans -fcx-limited-range -fexcess-precision=fast -falign-functions=32 -fno-stack-protector -fno-stack-clash-protection -fstack-check=no -fno-stack-check -fuse-linker-plugin -pipe -g0 -Wl,-O1 -Wl,--as-needed -Wl,-z,norelro -Wl,-z,now -Wl,--sort-common -s -c /tmp/portage/sys-libs/libseccomp-2.4.3/work/libseccomp-2.4.3/src/arch-mips64-syscalls.c  -fPIC -DPIC -o .libs/libseccomp_la-arch-mips64-syscalls.o
libtool: compile:  x86_64-pc-linux-gnu-gcc -DHAVE_CONFIG_H -I. -I/tmp/portage/sys-libs/libseccomp-2.4.3/work/libseccomp-2.4.3/src -I.. -I/tmp/portage/sys-libs/libseccomp-2.4.3/work/libseccomp-2.4.3/include -I../include -Wall -march=znver2 -O3 -fgraphite-identity -floop-nest-optimize -fdevirtualize-at-ltrans -fipa-pta -fno-semantic-interposition -flto=12 -fno-plt -fno-signed-zeros -fno-trapping-math -fassociative-math -freciprocal-math -fno-math-errno -ffinite-math-only -fno-rounding-math -fno-signaling-nans -fcx-limited-range -fexcess-precision=fast -falign-functions=32 -fno-stack-protector -fno-stack-clash-protection -fstack-check=no -fno-stack-check -fuse-linker-plugin -pipe -g0 -Wl,-O1 -Wl,--as-needed -Wl,-z,norelro -Wl,-z,now -Wl,--sort-common -s -fPIC -DPIC -fvisibility=hidden -march=znver2 -O3 -fgraphite-identity -floop-nest-optimize -fdevirtualize-at-ltrans -fipa-pta -fno-semantic-interposition -flto=12 -fno-plt -fno-signed-zeros -fno-trapping-math -fassociative-math -freciprocal-math -fno-math-errno -ffinite-math-only -fno-rounding-math -fno-signaling-nans -fcx-limited-range -fexcess-precision=fast -falign-functions=32 -fno-stack-protector -fno-stack-clash-protection -fstack-check=no -fno-stack-check -fuse-linker-plugin -pipe -g0 -Wl,-O1 -Wl,--as-needed -Wl,-z,norelro -Wl,-z,now -Wl,--sort-common -s -c /tmp/portage/sys-libs/libseccomp-2.4.3/work/libseccomp-2.4.3/src/arch-mips64n32.c  -fPIC -DPIC -o .libs/libseccomp_la-arch-mips64n32.o
libtool: compile:  x86_64-pc-linux-gnu-gcc -DHAVE_CONFIG_H -I. -I/tmp/portage/sys-libs/libseccomp-2.4.3/work/libseccomp-2.4.3/src -I.. -I/tmp/portage/sys-libs/libseccomp-2.4.3/work/libseccomp-2.4.3/include -I../include -Wall -march=znver2 -O3 -fgraphite-identity -floop-nest-optimize -fdevirtualize-at-ltrans -fipa-pta -fno-semantic-interposition -flto=12 -fno-plt -fno-signed-zeros -fno-trapping-math -fassociative-math -freciprocal-math -fno-math-errno -ffinite-math-only -fno-rounding-math -fno-signaling-nans -fcx-limited-range -fexcess-precision=fast -falign-functions=32 -fno-stack-protector -fno-stack-clash-protection -fstack-check=no -fno-stack-check -fuse-linker-plugin -pipe -g0 -Wl,-O1 -Wl,--as-needed -Wl,-z,norelro -Wl,-z,now -Wl,--sort-common -s -fPIC -DPIC -fvisibility=hidden -march=znver2 -O3 -fgraphite-identity -floop-nest-optimize -fdevirtualize-at-ltrans -fipa-pta -fno-semantic-interposition -flto=12 -fno-plt -fno-signed-zeros -fno-trapping-math -fassociative-math -freciprocal-math -fno-math-errno -ffinite-math-only -fno-rounding-math -fno-signaling-nans -fcx-limited-range -fexcess-precision=fast -falign-functions=32 -fno-stack-protector -fno-stack-clash-protection -fstack-check=no -fno-stack-check -fuse-linker-plugin -pipe -g0 -Wl,-O1 -Wl,--as-needed -Wl,-z,norelro -Wl,-z,now -Wl,--sort-common -s -c /tmp/portage/sys-libs/libseccomp-2.4.3/work/libseccomp-2.4.3/src/arch-mips64n32-syscalls.c  -fPIC -DPIC -o .libs/libseccomp_la-arch-mips64n32-syscalls.o
libtool: compile:  x86_64-pc-linux-gnu-gcc -DHAVE_CONFIG_H -I. -I/tmp/portage/sys-libs/libseccomp-2.4.3/work/libseccomp-2.4.3/src -I.. -I/tmp/portage/sys-libs/libseccomp-2.4.3/work/libseccomp-2.4.3/include -I../include -Wall -march=znver2 -O3 -fgraphite-identity -floop-nest-optimize -fdevirtualize-at-ltrans -fipa-pta -fno-semantic-interposition -flto=12 -fno-plt -fno-signed-zeros -fno-trapping-math -fassociative-math -freciprocal-math -fno-math-errno -ffinite-math-only -fno-rounding-math -fno-signaling-nans -fcx-limited-range -fexcess-precision=fast -falign-functions=32 -fno-stack-protector -fno-stack-clash-protection -fstack-check=no -fno-stack-check -fuse-linker-plugin -pipe -g0 -Wl,-O1 -Wl,--as-needed -Wl,-z,norelro -Wl,-z,now -Wl,--sort-common -s -fPIC -DPIC -fvisibility=hidden -march=znver2 -O3 -fgraphite-identity -floop-nest-optimize -fdevirtualize-at-ltrans -fipa-pta -fno-semantic-interposition -flto=12 -fno-plt -fno-signed-zeros -fno-trapping-math -fassociative-math -freciprocal-math -fno-math-errno -ffinite-math-only -fno-rounding-math -fno-signaling-nans -fcx-limited-range -fexcess-precision=fast -falign-functions=32 -fno-stack-protector -fno-stack-clash-protection -fstack-check=no -fno-stack-check -fuse-linker-plugin -pipe -g0 -Wl,-O1 -Wl,--as-needed -Wl,-z,norelro -Wl,-z,now -Wl,--sort-common -s -c /tmp/portage/sys-libs/libseccomp-2.4.3/work/libseccomp-2.4.3/src/arch-parisc64.c  -fPIC -DPIC -o .libs/libseccomp_la-arch-parisc64.o
libtool: compile:  x86_64-pc-linux-gnu-gcc -DHAVE_CONFIG_H -I. -I/tmp/portage/sys-libs/libseccomp-2.4.3/work/libseccomp-2.4.3/src -I.. -I/tmp/portage/sys-libs/libseccomp-2.4.3/work/libseccomp-2.4.3/include -I../include -Wall -march=znver2 -O3 -fgraphite-identity -floop-nest-optimize -fdevirtualize-at-ltrans -fipa-pta -fno-semantic-interposition -flto=12 -fno-plt -fno-signed-zeros -fno-trapping-math -fassociative-math -freciprocal-math -fno-math-errno -ffinite-math-only -fno-rounding-math -fno-signaling-nans -fcx-limited-range -fexcess-precision=fast -falign-functions=32 -fno-stack-protector -fno-stack-clash-protection -fstack-check=no -fno-stack-check -fuse-linker-plugin -pipe -g0 -Wl,-O1 -Wl,--as-needed -Wl,-z,norelro -Wl,-z,now -Wl,--sort-common -s -fPIC -DPIC -fvisibility=hidden -march=znver2 -O3 -fgraphite-identity -floop-nest-optimize -fdevirtualize-at-ltrans -fipa-pta -fno-semantic-interposition -flto=12 -fno-plt -fno-signed-zeros -fno-trapping-math -fassociative-math -freciprocal-math -fno-math-errno -ffinite-math-only -fno-rounding-math -fno-signaling-nans -fcx-limited-range -fexcess-precision=fast -falign-functions=32 -fno-stack-protector -fno-stack-clash-protection -fstack-check=no -fno-stack-check -fuse-linker-plugin -pipe -g0 -Wl,-O1 -Wl,--as-needed -Wl,-z,norelro -Wl,-z,now -Wl,--sort-common -s -c /tmp/portage/sys-libs/libseccomp-2.4.3/work/libseccomp-2.4.3/src/arch-parisc.c  -fPIC -DPIC -o .libs/libseccomp_la-arch-parisc.o
libtool: compile:  x86_64-pc-linux-gnu-gcc -DHAVE_CONFIG_H -I. -I/tmp/portage/sys-libs/libseccomp-2.4.3/work/libseccomp-2.4.3/src -I.. -I/tmp/portage/sys-libs/libseccomp-2.4.3/work/libseccomp-2.4.3/include -I../include -Wall -march=znver2 -O3 -fgraphite-identity -floop-nest-optimize -fdevirtualize-at-ltrans -fipa-pta -fno-semantic-interposition -flto=12 -fno-plt -fno-signed-zeros -fno-trapping-math -fassociative-math -freciprocal-math -fno-math-errno -ffinite-math-only -fno-rounding-math -fno-signaling-nans -fcx-limited-range -fexcess-precision=fast -falign-functions=32 -fno-stack-protector -fno-stack-clash-protection -fstack-check=no -fno-stack-check -fuse-linker-plugin -pipe -g0 -Wl,-O1 -Wl,--as-needed -Wl,-z,norelro -Wl,-z,now -Wl,--sort-common -s -fPIC -DPIC -fvisibility=hidden -march=znver2 -O3 -fgraphite-identity -floop-nest-optimize -fdevirtualize-at-ltrans -fipa-pta -fno-semantic-interposition -flto=12 -fno-plt -fno-signed-zeros -fno-trapping-math -fassociative-math -freciprocal-math -fno-math-errno -ffinite-math-only -fno-rounding-math -fno-signaling-nans -fcx-limited-range -fexcess-precision=fast -falign-functions=32 -fno-stack-protector -fno-stack-clash-protection -fstack-check=no -fno-stack-check -fuse-linker-plugin -pipe -g0 -Wl,-O1 -Wl,--as-needed -Wl,-z,norelro -Wl,-z,now -Wl,--sort-common -s -c /tmp/portage/sys-libs/libseccomp-2.4.3/work/libseccomp-2.4.3/src/arch-parisc-syscalls.c  -fPIC -DPIC -o .libs/libseccomp_la-arch-parisc-syscalls.o
libtool: compile:  x86_64-pc-linux-gnu-gcc -DHAVE_CONFIG_H -I. -I/tmp/portage/sys-libs/libseccomp-2.4.3/work/libseccomp-2.4.3/src -I.. -I/tmp/portage/sys-libs/libseccomp-2.4.3/work/libseccomp-2.4.3/include -I../include -Wall -march=znver2 -O3 -fgraphite-identity -floop-nest-optimize -fdevirtualize-at-ltrans -fipa-pta -fno-semantic-interposition -flto=12 -fno-plt -fno-signed-zeros -fno-trapping-math -fassociative-math -freciprocal-math -fno-math-errno -ffinite-math-only -fno-rounding-math -fno-signaling-nans -fcx-limited-range -fexcess-precision=fast -falign-functions=32 -fno-stack-protector -fno-stack-clash-protection -fstack-check=no -fno-stack-check -fuse-linker-plugin -pipe -g0 -Wl,-O1 -Wl,--as-needed -Wl,-z,norelro -Wl,-z,now -Wl,--sort-common -s -fPIC -DPIC -fvisibility=hidden -march=znver2 -O3 -fgraphite-identity -floop-nest-optimize -fdevirtualize-at-ltrans -fipa-pta -fno-semantic-interposition -flto=12 -fno-plt -fno-signed-zeros -fno-trapping-math -fassociative-math -freciprocal-math -fno-math-errno -ffinite-math-only -fno-rounding-math -fno-signaling-nans -fcx-limited-range -fexcess-precision=fast -falign-functions=32 -fno-stack-protector -fno-stack-clash-protection -fstack-check=no -fno-stack-check -fuse-linker-plugin -pipe -g0 -Wl,-O1 -Wl,--as-needed -Wl,-z,norelro -Wl,-z,now -Wl,--sort-common -s -c /tmp/portage/sys-libs/libseccomp-2.4.3/work/libseccomp-2.4.3/src/arch-ppc-syscalls.c  -fPIC -DPIC -o .libs/libseccomp_la-arch-ppc-syscalls.o
libtool: compile:  x86_64-pc-linux-gnu-gcc -DHAVE_CONFIG_H -I. -I/tmp/portage/sys-libs/libseccomp-2.4.3/work/libseccomp-2.4.3/src -I.. -I/tmp/portage/sys-libs/libseccomp-2.4.3/work/libseccomp-2.4.3/include -I../include -Wall -march=znver2 -O3 -fgraphite-identity -floop-nest-optimize -fdevirtualize-at-ltrans -fipa-pta -fno-semantic-interposition -flto=12 -fno-plt -fno-signed-zeros -fno-trapping-math -fassociative-math -freciprocal-math -fno-math-errno -ffinite-math-only -fno-rounding-math -fno-signaling-nans -fcx-limited-range -fexcess-precision=fast -falign-functions=32 -fno-stack-protector -fno-stack-clash-protection -fstack-check=no -fno-stack-check -fuse-linker-plugin -pipe -g0 -Wl,-O1 -Wl,--as-needed -Wl,-z,norelro -Wl,-z,now -Wl,--sort-common -s -fPIC -DPIC -fvisibility=hidden -march=znver2 -O3 -fgraphite-identity -floop-nest-optimize -fdevirtualize-at-ltrans -fipa-pta -fno-semantic-interposition -flto=12 -fno-plt -fno-signed-zeros -fno-trapping-math -fassociative-math -freciprocal-math -fno-math-errno -ffinite-math-only -fno-rounding-math -fno-signaling-nans -fcx-limited-range -fexcess-precision=fast -falign-functions=32 -fno-stack-protector -fno-stack-clash-protection -fstack-check=no -fno-stack-check -fuse-linker-plugin -pipe -g0 -Wl,-O1 -Wl,--as-needed -Wl,-z,norelro -Wl,-z,now -Wl,--sort-common -s -c /tmp/portage/sys-libs/libseccomp-2.4.3/work/libseccomp-2.4.3/src/arch-ppc.c  -fPIC -DPIC -o .libs/libseccomp_la-arch-ppc.o
libtool: compile:  x86_64-pc-linux-gnu-gcc -DHAVE_CONFIG_H -I. -I/tmp/portage/sys-libs/libseccomp-2.4.3/work/libseccomp-2.4.3/src -I.. -I/tmp/portage/sys-libs/libseccomp-2.4.3/work/libseccomp-2.4.3/include -I../include -Wall -march=znver2 -O3 -fgraphite-identity -floop-nest-optimize -fdevirtualize-at-ltrans -fipa-pta -fno-semantic-interposition -flto=12 -fno-plt -fno-signed-zeros -fno-trapping-math -fassociative-math -freciprocal-math -fno-math-errno -ffinite-math-only -fno-rounding-math -fno-signaling-nans -fcx-limited-range -fexcess-precision=fast -falign-functions=32 -fno-stack-protector -fno-stack-clash-protection -fstack-check=no -fno-stack-check -fuse-linker-plugin -pipe -g0 -Wl,-O1 -Wl,--as-needed -Wl,-z,norelro -Wl,-z,now -Wl,--sort-common -s -fPIC -DPIC -fvisibility=hidden -march=znver2 -O3 -fgraphite-identity -floop-nest-optimize -fdevirtualize-at-ltrans -fipa-pta -fno-semantic-interposition -flto=12 -fno-plt -fno-signed-zeros -fno-trapping-math -fassociative-math -freciprocal-math -fno-math-errno -ffinite-math-only -fno-rounding-math -fno-signaling-nans -fcx-limited-range -fexcess-precision=fast -falign-functions=32 -fno-stack-protector -fno-stack-clash-protection -fstack-check=no -fno-stack-check -fuse-linker-plugin -pipe -g0 -Wl,-O1 -Wl,--as-needed -Wl,-z,norelro -Wl,-z,now -Wl,--sort-common -s -c /tmp/portage/sys-libs/libseccomp-2.4.3/work/libseccomp-2.4.3/src/arch-ppc64.c  -fPIC -DPIC -o .libs/libseccomp_la-arch-ppc64.o
libtool: compile:  x86_64-pc-linux-gnu-gcc -DHAVE_CONFIG_H -I. -I/tmp/portage/sys-libs/libseccomp-2.4.3/work/libseccomp-2.4.3/src -I.. -I/tmp/portage/sys-libs/libseccomp-2.4.3/work/libseccomp-2.4.3/include -I../include -Wall -march=znver2 -O3 -fgraphite-identity -floop-nest-optimize -fdevirtualize-at-ltrans -fipa-pta -fno-semantic-interposition -flto=12 -fno-plt -fno-signed-zeros -fno-trapping-math -fassociative-math -freciprocal-math -fno-math-errno -ffinite-math-only -fno-rounding-math -fno-signaling-nans -fcx-limited-range -fexcess-precision=fast -falign-functions=32 -fno-stack-protector -fno-stack-clash-protection -fstack-check=no -fno-stack-check -fuse-linker-plugin -pipe -g0 -Wl,-O1 -Wl,--as-needed -Wl,-z,norelro -Wl,-z,now -Wl,--sort-common -s -fPIC -DPIC -fvisibility=hidden -march=znver2 -O3 -fgraphite-identity -floop-nest-optimize -fdevirtualize-at-ltrans -fipa-pta -fno-semantic-interposition -flto=12 -fno-plt -fno-signed-zeros -fno-trapping-math -fassociative-math -freciprocal-math -fno-math-errno -ffinite-math-only -fno-rounding-math -fno-signaling-nans -fcx-limited-range -fexcess-precision=fast -falign-functions=32 -fno-stack-protector -fno-stack-clash-protection -fstack-check=no -fno-stack-check -fuse-linker-plugin -pipe -g0 -Wl,-O1 -Wl,--as-needed -Wl,-z,norelro -Wl,-z,now -Wl,--sort-common -s -c /tmp/portage/sys-libs/libseccomp-2.4.3/work/libseccomp-2.4.3/src/arch-ppc64-syscalls.c  -fPIC -DPIC -o .libs/libseccomp_la-arch-ppc64-syscalls.o
libtool: compile:  x86_64-pc-linux-gnu-gcc -DHAVE_CONFIG_H -I. -I/tmp/portage/sys-libs/libseccomp-2.4.3/work/libseccomp-2.4.3/src -I.. -I/tmp/portage/sys-libs/libseccomp-2.4.3/work/libseccomp-2.4.3/include -I../include -Wall -march=znver2 -O3 -fgraphite-identity -floop-nest-optimize -fdevirtualize-at-ltrans -fipa-pta -fno-semantic-interposition -flto=12 -fno-plt -fno-signed-zeros -fno-trapping-math -fassociative-math -freciprocal-math -fno-math-errno -ffinite-math-only -fno-rounding-math -fno-signaling-nans -fcx-limited-range -fexcess-precision=fast -falign-functions=32 -fno-stack-protector -fno-stack-clash-protection -fstack-check=no -fno-stack-check -fuse-linker-plugin -pipe -g0 -Wl,-O1 -Wl,--as-needed -Wl,-z,norelro -Wl,-z,now -Wl,--sort-common -s -fPIC -DPIC -fvisibility=hidden -march=znver2 -O3 -fgraphite-identity -floop-nest-optimize -fdevirtualize-at-ltrans -fipa-pta -fno-semantic-interposition -flto=12 -fno-plt -fno-signed-zeros -fno-trapping-math -fassociative-math -freciprocal-math -fno-math-errno -ffinite-math-only -fno-rounding-math -fno-signaling-nans -fcx-limited-range -fexcess-precision=fast -falign-functions=32 -fno-stack-protector -fno-stack-clash-protection -fstack-check=no -fno-stack-check -fuse-linker-plugin -pipe -g0 -Wl,-O1 -Wl,--as-needed -Wl,-z,norelro -Wl,-z,now -Wl,--sort-common -s -c /tmp/portage/sys-libs/libseccomp-2.4.3/work/libseccomp-2.4.3/src/arch-s390.c  -fPIC -DPIC -o .libs/libseccomp_la-arch-s390.o
libtool: compile:  x86_64-pc-linux-gnu-gcc -DHAVE_CONFIG_H -I. -I/tmp/portage/sys-libs/libseccomp-2.4.3/work/libseccomp-2.4.3/src -I.. -I/tmp/portage/sys-libs/libseccomp-2.4.3/work/libseccomp-2.4.3/include -I../include -Wall -march=znver2 -O3 -fgraphite-identity -floop-nest-optimize -fdevirtualize-at-ltrans -fipa-pta -fno-semantic-interposition -flto=12 -fno-plt -fno-signed-zeros -fno-trapping-math -fassociative-math -freciprocal-math -fno-math-errno -ffinite-math-only -fno-rounding-math -fno-signaling-nans -fcx-limited-range -fexcess-precision=fast -falign-functions=32 -fno-stack-protector -fno-stack-clash-protection -fstack-check=no -fno-stack-check -fuse-linker-plugin -pipe -g0 -Wl,-O1 -Wl,--as-needed -Wl,-z,norelro -Wl,-z,now -Wl,--sort-common -s -fPIC -DPIC -fvisibility=hidden -march=znver2 -O3 -fgraphite-identity -floop-nest-optimize -fdevirtualize-at-ltrans -fipa-pta -fno-semantic-interposition -flto=12 -fno-plt -fno-signed-zeros -fno-trapping-math -fassociative-math -freciprocal-math -fno-math-errno -ffinite-math-only -fno-rounding-math -fno-signaling-nans -fcx-limited-range -fexcess-precision=fast -falign-functions=32 -fno-stack-protector -fno-stack-clash-protection -fstack-check=no -fno-stack-check -fuse-linker-plugin -pipe -g0 -Wl,-O1 -Wl,--as-needed -Wl,-z,norelro -Wl,-z,now -Wl,--sort-common -s -c /tmp/portage/sys-libs/libseccomp-2.4.3/work/libseccomp-2.4.3/src/arch-s390-syscalls.c  -fPIC -DPIC -o .libs/libseccomp_la-arch-s390-syscalls.o
libtool: compile:  x86_64-pc-linux-gnu-gcc -DHAVE_CONFIG_H -I. -I/tmp/portage/sys-libs/libseccomp-2.4.3/work/libseccomp-2.4.3/src -I.. -I/tmp/portage/sys-libs/libseccomp-2.4.3/work/libseccomp-2.4.3/include -I../include -Wall -march=znver2 -O3 -fgraphite-identity -floop-nest-optimize -fdevirtualize-at-ltrans -fipa-pta -fno-semantic-interposition -flto=12 -fno-plt -fno-signed-zeros -fno-trapping-math -fassociative-math -freciprocal-math -fno-math-errno -ffinite-math-only -fno-rounding-math -fno-signaling-nans -fcx-limited-range -fexcess-precision=fast -falign-functions=32 -fno-stack-protector -fno-stack-clash-protection -fstack-check=no -fno-stack-check -fuse-linker-plugin -pipe -g0 -Wl,-O1 -Wl,--as-needed -Wl,-z,norelro -Wl,-z,now -Wl,--sort-common -s -fPIC -DPIC -fvisibility=hidden -march=znver2 -O3 -fgraphite-identity -floop-nest-optimize -fdevirtualize-at-ltrans -fipa-pta -fno-semantic-interposition -flto=12 -fno-plt -fno-signed-zeros -fno-trapping-math -fassociative-math -freciprocal-math -fno-math-errno -ffinite-math-only -fno-rounding-math -fno-signaling-nans -fcx-limited-range -fexcess-precision=fast -falign-functions=32 -fno-stack-protector -fno-stack-clash-protection -fstack-check=no -fno-stack-check -fuse-linker-plugin -pipe -g0 -Wl,-O1 -Wl,--as-needed -Wl,-z,norelro -Wl,-z,now -Wl,--sort-common -s -c /tmp/portage/sys-libs/libseccomp-2.4.3/work/libseccomp-2.4.3/src/arch-s390x.c  -fPIC -DPIC -o .libs/libseccomp_la-arch-s390x.o
libtool: compile:  x86_64-pc-linux-gnu-gcc -DHAVE_CONFIG_H -I. -I/tmp/portage/sys-libs/libseccomp-2.4.3/work/libseccomp-2.4.3/src -I.. -I/tmp/portage/sys-libs/libseccomp-2.4.3/work/libseccomp-2.4.3/include -I../include -Wall -march=znver2 -O3 -fgraphite-identity -floop-nest-optimize -fdevirtualize-at-ltrans -fipa-pta -fno-semantic-interposition -flto=12 -fno-plt -fno-signed-zeros -fno-trapping-math -fassociative-math -freciprocal-math -fno-math-errno -ffinite-math-only -fno-rounding-math -fno-signaling-nans -fcx-limited-range -fexcess-precision=fast -falign-functions=32 -fno-stack-protector -fno-stack-clash-protection -fstack-check=no -fno-stack-check -fuse-linker-plugin -pipe -g0 -Wl,-O1 -Wl,--as-needed -Wl,-z,norelro -Wl,-z,now -Wl,--sort-common -s -fPIC -DPIC -fvisibility=hidden -march=znver2 -O3 -fgraphite-identity -floop-nest-optimize -fdevirtualize-at-ltrans -fipa-pta -fno-semantic-interposition -flto=12 -fno-plt -fno-signed-zeros -fno-trapping-math -fassociative-math -freciprocal-math -fno-math-errno -ffinite-math-only -fno-rounding-math -fno-signaling-nans -fcx-limited-range -fexcess-precision=fast -falign-functions=32 -fno-stack-protector -fno-stack-clash-protection -fstack-check=no -fno-stack-check -fuse-linker-plugin -pipe -g0 -Wl,-O1 -Wl,--as-needed -Wl,-z,norelro -Wl,-z,now -Wl,--sort-common -s -c /tmp/portage/sys-libs/libseccomp-2.4.3/work/libseccomp-2.4.3/src/arch-s390x-syscalls.c  -fPIC -DPIC -o .libs/libseccomp_la-arch-s390x-syscalls.o
libtool: link: x86_64-pc-linux-gnu-gcc -shared  -fPIC -DPIC  .libs/libseccomp_la-api.o .libs/libseccomp_la-system.o .libs/libseccomp_la-helper.o .libs/libseccomp_la-gen_pfc.o .libs/libseccomp_la-gen_bpf.o .libs/libseccomp_la-hash.o .libs/libseccomp_la-db.o .libs/libseccomp_la-arch.o .libs/libseccomp_la-arch-x86.o .libs/libseccomp_la-arch-x86-syscalls.o .libs/libseccomp_la-arch-x86_64.o .libs/libseccomp_la-arch-x86_64-syscalls.o .libs/libseccomp_la-arch-x32.o .libs/libseccomp_la-arch-x32-syscalls.o .libs/libseccomp_la-arch-arm.o .libs/libseccomp_la-arch-arm-syscalls.o .libs/libseccomp_la-arch-aarch64.o .libs/libseccomp_la-arch-aarch64-syscalls.o .libs/libseccomp_la-arch-mips.o .libs/libseccomp_la-arch-mips-syscalls.o .libs/libseccomp_la-arch-mips64.o .libs/libseccomp_la-arch-mips64-syscalls.o .libs/libseccomp_la-arch-mips64n32.o .libs/libseccomp_la-arch-mips64n32-syscalls.o .libs/libseccomp_la-arch-parisc.o .libs/libseccomp_la-arch-parisc64.o .libs/libseccomp_la-arch-parisc-syscalls.o .libs/libseccomp_la-arch-ppc.o .libs/libseccomp_la-arch-ppc-syscalls.o .libs/libseccomp_la-arch-ppc64.o .libs/libseccomp_la-arch-ppc64-syscalls.o .libs/libseccomp_la-arch-s390.o .libs/libseccomp_la-arch-s390-syscalls.o .libs/libseccomp_la-arch-s390x.o .libs/libseccomp_la-arch-s390x-syscalls.o    -march=znver2 -O3 -flto=12 -fuse-linker-plugin -g0 -Wl,-O1 -Wl,--as-needed -Wl,-z -Wl,norelro -Wl,-z -Wl,now -Wl,--sort-common -march=znver2 -O3 -flto=12 -fuse-linker-plugin -g0 -Wl,-O1 -Wl,--as-needed -Wl,-z -Wl,norelro -Wl,-z -Wl,now -Wl,--sort-common -Wl,-z -Wl,relro -Wl,-O1 -Wl,--as-needed -Wl,-z -Wl,norelro -Wl,-z -Wl,now -Wl,--sort-common -march=znver2 -O3 -flto=12 -fuse-linker-plugin -g0 -Wl,-O1 -Wl,--as-needed -Wl,-z -Wl,norelro -Wl,-z -Wl,now -Wl,--sort-common -march=znver2 -O3 -flto=12 -fuse-linker-plugin -g0   -Wl,-soname -Wl,libseccomp.so.2 -o .libs/libseccomp.so.2.4.3
libtool: link: (cd ".libs" && rm -f "libseccomp.so.2" && ln -s "libseccomp.so.2.4.3" "libseccomp.so.2")
libtool: link: (cd ".libs" && rm -f "libseccomp.so" && ln -s "libseccomp.so.2.4.3" "libseccomp.so")
libtool: link: ( cd ".libs" && rm -f "libseccomp.la" && ln -s "../libseccomp.la" "libseccomp.la" )
Making all in tools
libtool: compile:  x86_64-pc-linux-gnu-gcc -DHAVE_CONFIG_H -I. -I/tmp/portage/sys-libs/libseccomp-2.4.3/work/libseccomp-2.4.3/tools -I.. -I/tmp/portage/sys-libs/libseccomp-2.4.3/work/libseccomp-2.4.3/include -Wall -march=znver2 -O3 -fgraphite-identity -floop-nest-optimize -fdevirtualize-at-ltrans -fipa-pta -fno-semantic-interposition -flto=12 -fno-plt -fno-signed-zeros -fno-trapping-math -fassociative-math -freciprocal-math -fno-math-errno -ffinite-math-only -fno-rounding-math -fno-signaling-nans -fcx-limited-range -fexcess-precision=fast -falign-functions=32 -fno-stack-protector -fno-stack-clash-protection -fstack-check=no -fno-stack-check -fuse-linker-plugin -pipe -g0 -Wl,-O1 -Wl,--as-needed -Wl,-z,norelro -Wl,-z,now -Wl,--sort-common -s -c /tmp/portage/sys-libs/libseccomp-2.4.3/work/libseccomp-2.4.3/tools/util.c  -fPIC -DPIC -o .libs/util.o
libtool: link: x86_64-pc-linux-gnu-gcc -Wall -march=znver2 -O3 -fgraphite-identity -floop-nest-optimize -fdevirtualize-at-ltrans -fipa-pta -fno-semantic-interposition -flto=12 -fno-plt -fno-signed-zeros -fno-trapping-math -fassociative-math -freciprocal-math -fno-math-errno -ffinite-math-only -fno-rounding-math -fno-signaling-nans -fcx-limited-range -fexcess-precision=fast -falign-functions=32 -fno-stack-protector -fno-stack-clash-protection -fstack-check=no -fno-stack-check -fuse-linker-plugin -pipe -g0 -Wl,-O1 -Wl,--as-needed -Wl,-z -Wl,norelro -Wl,-z -Wl,now -Wl,--sort-common -s -Wl,-z -Wl,relro -Wl,-O1 -Wl,--as-needed -Wl,-z -Wl,norelro -Wl,-z -Wl,now -Wl,--sort-common -s -march=znver2 -O3 -fgraphite-identity -floop-nest-optimize -fdevirtualize-at-ltrans -fipa-pta -fno-semantic-interposition -flto=12 -fno-plt -fno-signed-zeros -fno-trapping-math -fassociative-math -freciprocal-math -fno-math-errno -ffinite-math-only -fno-rounding-math -fno-signaling-nans -fcx-limited-range -fexcess-precision=fast -falign-functions=32 -fno-stack-protector -fno-stack-clash-protection -fstack-check=no -fno-stack-check -fuse-linker-plugin -pipe -g0 -o .libs/scmp_api_level scmp_api_level.o  ../src/.libs/libseccomp.so
libtool: link: x86_64-pc-linux-gnu-gcc -Wall -march=znver2 -O3 -fgraphite-identity -floop-nest-optimize -fdevirtualize-at-ltrans -fipa-pta -fno-semantic-interposition -flto=12 -fno-plt -fno-signed-zeros -fno-trapping-math -fassociative-math -freciprocal-math -fno-math-errno -ffinite-math-only -fno-rounding-math -fno-signaling-nans -fcx-limited-range -fexcess-precision=fast -falign-functions=32 -fno-stack-protector -fno-stack-clash-protection -fstack-check=no -fno-stack-check -fuse-linker-plugin -pipe -g0 -Wl,-O1 -Wl,--as-needed -Wl,-z -Wl,norelro -Wl,-z -Wl,now -Wl,--sort-common -s -Wl,-z -Wl,relro -Wl,-O1 -Wl,--as-needed -Wl,-z -Wl,norelro -Wl,-z -Wl,now -Wl,--sort-common -s -march=znver2 -O3 -fgraphite-identity -floop-nest-optimize -fdevirtualize-at-ltrans -fipa-pta -fno-semantic-interposition -flto=12 -fno-plt -fno-signed-zeros -fno-trapping-math -fassociative-math -freciprocal-math -fno-math-errno -ffinite-math-only -fno-rounding-math -fno-signaling-nans -fcx-limited-range -fexcess-precision=fast -falign-functions=32 -fno-stack-protector -fno-stack-clash-protection -fstack-check=no -fno-stack-check -fuse-linker-plugin -pipe -g0 -o .libs/scmp_arch_detect scmp_arch_detect.o  ../src/.libs/libseccomp.so
libtool: link: x86_64-pc-linux-gnu-gcc -Wall -march=znver2 -O3 -fgraphite-identity -floop-nest-optimize -fdevirtualize-at-ltrans -fipa-pta -fno-semantic-interposition -flto=12 -fno-plt -fno-signed-zeros -fno-trapping-math -fassociative-math -freciprocal-math -fno-math-errno -ffinite-math-only -fno-rounding-math -fno-signaling-nans -fcx-limited-range -fexcess-precision=fast -falign-functions=32 -fno-stack-protector -fno-stack-clash-protection -fstack-check=no -fno-stack-check -fuse-linker-plugin -pipe -g0 -Wl,-O1 -Wl,--as-needed -Wl,-z -Wl,norelro -Wl,-z -Wl,now -Wl,--sort-common -s -Wl,-z -Wl,relro -Wl,-O1 -Wl,--as-needed -Wl,-z -Wl,norelro -Wl,-z -Wl,now -Wl,--sort-common -s -march=znver2 -O3 -fgraphite-identity -floop-nest-optimize -fdevirtualize-at-ltrans -fipa-pta -fno-semantic-interposition -flto=12 -fno-plt -fno-signed-zeros -fno-trapping-math -fassociative-math -freciprocal-math -fno-math-errno -ffinite-math-only -fno-rounding-math -fno-signaling-nans -fcx-limited-range -fexcess-precision=fast -falign-functions=32 -fno-stack-protector -fno-stack-clash-protection -fstack-check=no -fno-stack-check -fuse-linker-plugin -pipe -g0 -o .libs/scmp_sys_resolver scmp_sys_resolver.o  ../src/.libs/libseccomp.so
libtool: link: x86_64-pc-linux-gnu-ar cru .libs/util.a .libs/util.o 
libtool: link: x86_64-pc-linux-gnu-ranlib .libs/util.a
libtool: link: ( cd ".libs" && rm -f "util.la" && ln -s "../util.la" "util.la" )
libtool: link: x86_64-pc-linux-gnu-gcc -Wall -march=znver2 -O3 -fgraphite-identity -floop-nest-optimize -fdevirtualize-at-ltrans -fipa-pta -fno-semantic-interposition -flto=12 -fno-plt -fno-signed-zeros -fno-trapping-math -fassociative-math -freciprocal-math -fno-math-errno -ffinite-math-only -fno-rounding-math -fno-signaling-nans -fcx-limited-range -fexcess-precision=fast -falign-functions=32 -fno-stack-protector -fno-stack-clash-protection -fstack-check=no -fno-stack-check -fuse-linker-plugin -pipe -g0 -Wl,-O1 -Wl,--as-needed -Wl,-z -Wl,norelro -Wl,-z -Wl,now -Wl,--sort-common -s -Wl,-z -Wl,relro -Wl,-O1 -Wl,--as-needed -Wl,-z -Wl,norelro -Wl,-z -Wl,now -Wl,--sort-common -s -march=znver2 -O3 -fgraphite-identity -floop-nest-optimize -fdevirtualize-at-ltrans -fipa-pta -fno-semantic-interposition -flto=12 -fno-plt -fno-signed-zeros -fno-trapping-math -fassociative-math -freciprocal-math -fno-math-errno -ffinite-math-only -fno-rounding-math -fno-signaling-nans -fcx-limited-range -fexcess-precision=fast -falign-functions=32 -fno-stack-protector -fno-stack-clash-protection -fstack-check=no -fno-stack-check -fuse-linker-plugin -pipe -g0 -o scmp_bpf_sim scmp_bpf_sim.o  ./.libs/util.a
libtool: link: x86_64-pc-linux-gnu-gcc -Wall -march=znver2 -O3 -fgraphite-identity -floop-nest-optimize -fdevirtualize-at-ltrans -fipa-pta -fno-semantic-interposition -flto=12 -fno-plt -fno-signed-zeros -fno-trapping-math -fassociative-math -freciprocal-math -fno-math-errno -ffinite-math-only -fno-rounding-math -fno-signaling-nans -fcx-limited-range -fexcess-precision=fast -falign-functions=32 -fno-stack-protector -fno-stack-clash-protection -fstack-check=no -fno-stack-check -fuse-linker-plugin -pipe -g0 -Wl,-O1 -Wl,--as-needed -Wl,-z -Wl,norelro -Wl,-z -Wl,now -Wl,--sort-common -s -Wl,-z -Wl,relro -Wl,-O1 -Wl,--as-needed -Wl,-z -Wl,norelro -Wl,-z -Wl,now -Wl,--sort-common -s -march=znver2 -O3 -fgraphite-identity -floop-nest-optimize -fdevirtualize-at-ltrans -fipa-pta -fno-semantic-interposition -flto=12 -fno-plt -fno-signed-zeros -fno-trapping-math -fassociative-math -freciprocal-math -fno-math-errno -ffinite-math-only -fno-rounding-math -fno-signaling-nans -fcx-limited-range -fexcess-precision=fast -falign-functions=32 -fno-stack-protector -fno-stack-clash-protection -fstack-check=no -fno-stack-check -fuse-linker-plugin -pipe -g0 -o scmp_bpf_disasm scmp_bpf_disasm.o  ./.libs/util.a
Making all in tests
Making all in doc
>>> Source compiled.
>>> Test phase [not enabled]: sys-libs/libseccomp-2.4.3

>>> Install sys-libs/libseccomp-2.4.3 into /tmp/portage/sys-libs/libseccomp-2.4.3/image
 * abi_x86_64.amd64: running multilib-minimal_abi_src_install
make -j12 -l12 DESTDIR=/tmp/portage/sys-libs/libseccomp-2.4.3/image install 
Making install in include
 /bin/mkdir -p '/tmp/portage/sys-libs/libseccomp-2.4.3/image/usr/include'
 /tmp/portage/._portage_reinstall_.xm3okdmq/bin/ebuild-helpers/xattr/install -c -m 644 seccomp.h /tmp/portage/sys-libs/libseccomp-2.4.3/work/libseccomp-2.4.3/include/seccomp-syscalls.h '/tmp/portage/sys-libs/libseccomp-2.4.3/image/usr/include'
Making install in src
Making install in .
 /bin/mkdir -p '/tmp/portage/sys-libs/libseccomp-2.4.3/image/usr/lib64'
 /bin/sh ../libtool   --mode=install /tmp/portage/._portage_reinstall_.xm3okdmq/bin/ebuild-helpers/xattr/install -c   libseccomp.la '/tmp/portage/sys-libs/libseccomp-2.4.3/image/usr/lib64'
libtool: install: /tmp/portage/._portage_reinstall_.xm3okdmq/bin/ebuild-helpers/xattr/install -c .libs/libseccomp.so.2.4.3 /tmp/portage/sys-libs/libseccomp-2.4.3/image/usr/lib64/libseccomp.so.2.4.3
libtool: install: (cd /tmp/portage/sys-libs/libseccomp-2.4.3/image/usr/lib64 && { ln -s -f libseccomp.so.2.4.3 libseccomp.so.2 || { rm -f libseccomp.so.2 && ln -s libseccomp.so.2.4.3 libseccomp.so.2; }; })
libtool: install: (cd /tmp/portage/sys-libs/libseccomp-2.4.3/image/usr/lib64 && { ln -s -f libseccomp.so.2.4.3 libseccomp.so || { rm -f libseccomp.so && ln -s libseccomp.so.2.4.3 libseccomp.so; }; })
libtool: install: /tmp/portage/._portage_reinstall_.xm3okdmq/bin/ebuild-helpers/xattr/install -c .libs/libseccomp.lai /tmp/portage/sys-libs/libseccomp-2.4.3/image/usr/lib64/libseccomp.la
libtool: warning: remember to run 'libtool --finish /usr/lib64'
Making install in tools
 /bin/mkdir -p '/tmp/portage/sys-libs/libseccomp-2.4.3/image/usr/bin'
  /bin/sh ../libtool   --mode=install /tmp/portage/._portage_reinstall_.xm3okdmq/bin/ebuild-helpers/xattr/install -c scmp_sys_resolver '/tmp/portage/sys-libs/libseccomp-2.4.3/image/usr/bin'
libtool: warning: '../src/libseccomp.la' has not been installed in '/usr/lib64'
libtool: install: /tmp/portage/._portage_reinstall_.xm3okdmq/bin/ebuild-helpers/xattr/install -c .libs/scmp_sys_resolver /tmp/portage/sys-libs/libseccomp-2.4.3/image/usr/bin/scmp_sys_resolver
Making install in tests
Making install in doc
 /bin/mkdir -p '/tmp/portage/sys-libs/libseccomp-2.4.3/image/usr/share/man/man1'
 /bin/mkdir -p '/tmp/portage/sys-libs/libseccomp-2.4.3/image/usr/share/man/man3'
 /tmp/portage/._portage_reinstall_.xm3okdmq/bin/ebuild-helpers/xattr/install -c -m 644 /tmp/portage/sys-libs/libseccomp-2.4.3/work/libseccomp-2.4.3/doc/man/man1/scmp_sys_resolver.1 '/tmp/portage/sys-libs/libseccomp-2.4.3/image/usr/share/man/man1'
 /tmp/portage/._portage_reinstall_.xm3okdmq/bin/ebuild-helpers/xattr/install -c -m 644 /tmp/portage/sys-libs/libseccomp-2.4.3/work/libseccomp-2.4.3/doc/man/man3/seccomp_arch_add.3 /tmp/portage/sys-libs/libseccomp-2.4.3/work/libseccomp-2.4.3/doc/man/man3/seccomp_arch_exist.3 /tmp/portage/sys-libs/libseccomp-2.4.3/work/libseccomp-2.4.3/doc/man/man3/seccomp_arch_native.3 /tmp/portage/sys-libs/libseccomp-2.4.3/work/libseccomp-2.4.3/doc/man/man3/seccomp_arch_remove.3 /tmp/portage/sys-libs/libseccomp-2.4.3/work/libseccomp-2.4.3/doc/man/man3/seccomp_arch_resolve_name.3 /tmp/portage/sys-libs/libseccomp-2.4.3/work/libseccomp-2.4.3/doc/man/man3/seccomp_attr_get.3 /tmp/portage/sys-libs/libseccomp-2.4.3/work/libseccomp-2.4.3/doc/man/man3/seccomp_attr_set.3 /tmp/portage/sys-libs/libseccomp-2.4.3/work/libseccomp-2.4.3/doc/man/man3/seccomp_export_bpf.3 /tmp/portage/sys-libs/libseccomp-2.4.3/work/libseccomp-2.4.3/doc/man/man3/seccomp_export_pfc.3 /tmp/portage/sys-libs/libseccomp-2.4.3/work/libseccomp-2.4.3/doc/man/man3/seccomp_init.3 /tmp/portage/sys-libs/libseccomp-2.4.3/work/libseccomp-2.4.3/doc/man/man3/seccomp_load.3 /tmp/portage/sys-libs/libseccomp-2.4.3/work/libseccomp-2.4.3/doc/man/man3/seccomp_merge.3 /tmp/portage/sys-libs/libseccomp-2.4.3/work/libseccomp-2.4.3/doc/man/man3/seccomp_release.3 /tmp/portage/sys-libs/libseccomp-2.4.3/work/libseccomp-2.4.3/doc/man/man3/seccomp_reset.3 /tmp/portage/sys-libs/libseccomp-2.4.3/work/libseccomp-2.4.3/doc/man/man3/seccomp_rule_add.3 /tmp/portage/sys-libs/libseccomp-2.4.3/work/libseccomp-2.4.3/doc/man/man3/seccomp_rule_add_array.3 /tmp/portage/sys-libs/libseccomp-2.4.3/work/libseccomp-2.4.3/doc/man/man3/seccomp_rule_add_exact.3 /tmp/portage/sys-libs/libseccomp-2.4.3/work/libseccomp-2.4.3/doc/man/man3/seccomp_rule_add_exact_array.3 /tmp/portage/sys-libs/libseccomp-2.4.3/work/libseccomp-2.4.3/doc/man/man3/seccomp_syscall_priority.3 /tmp/portage/sys-libs/libseccomp-2.4.3/work/libseccomp-2.4.3/doc/man/man3/seccomp_syscall_resolve_name.3 /tmp/portage/sys-libs/libseccomp-2.4.3/work/libseccomp-2.4.3/doc/man/man3/seccomp_syscall_resolve_name_arch.3 /tmp/portage/sys-libs/libseccomp-2.4.3/work/libseccomp-2.4.3/doc/man/man3/seccomp_syscall_resolve_name_rewrite.3 /tmp/portage/sys-libs/libseccomp-2.4.3/work/libseccomp-2.4.3/doc/man/man3/seccomp_syscall_resolve_num_arch.3 /tmp/portage/sys-libs/libseccomp-2.4.3/work/libseccomp-2.4.3/doc/man/man3/seccomp_version.3 /tmp/portage/sys-libs/libseccomp-2.4.3/work/libseccomp-2.4.3/doc/man/man3/seccomp_api_get.3 /tmp/portage/sys-libs/libseccomp-2.4.3/work/libseccomp-2.4.3/doc/man/man3/seccomp_api_set.3 '/tmp/portage/sys-libs/libseccomp-2.4.3/image/usr/share/man/man3'
 /bin/mkdir -p '/tmp/portage/sys-libs/libseccomp-2.4.3/image/usr/lib64/pkgconfig'
 /tmp/portage/._portage_reinstall_.xm3okdmq/bin/ebuild-helpers/xattr/install -c -m 644 libseccomp.pc '/tmp/portage/sys-libs/libseccomp-2.4.3/image/usr/lib64/pkgconfig'
>>> Completed installing sys-libs/libseccomp-2.4.3 into /tmp/portage/sys-libs/libseccomp-2.4.3/image

 * Final size of build directory: 5804 KiB (5.6 MiB)
 * Final size of installed tree:   608 KiB



 * QA Notice: Pre-stripped files found:
 * /usr/bin/scmp_sys_resolver
strip: x86_64-pc-linux-gnu-strip --strip-unneeded -N __gentoo_check_ldflags__ -R .comment -R .GCC.command.line -R .note.gnu.gold-version
   /usr/lib64/libseccomp.so.2.4.3
./
./usr/
./usr/bin/
./usr/bin/scmp_sys_resolver
./usr/include/
./usr/include/seccomp.h
./usr/include/seccomp-syscalls.h
./usr/share/
./usr/share/man/
./usr/share/man/man1/
./usr/share/man/man1/scmp_sys_resolver.1.bz2
./usr/share/man/man3/
./usr/share/man/man3/seccomp_init.3.bz2
./usr/share/man/man3/seccomp_rule_add_array.3
./usr/share/man/man3/seccomp_attr_set.3.bz2
./usr/share/man/man3/seccomp_arch_add.3.bz2
./usr/share/man/man3/seccomp_rule_add_exact_array.3
./usr/share/man/man3/seccomp_syscall_resolve_name.3.bz2
./usr/share/man/man3/seccomp_syscall_priority.3.bz2
./usr/share/man/man3/seccomp_syscall_resolve_name_arch.3
./usr/share/man/man3/seccomp_merge.3.bz2
./usr/share/man/man3/seccomp_api_get.3.bz2
./usr/share/man/man3/seccomp_syscall_resolve_name_rewrite.3
./usr/share/man/man3/seccomp_rule_add.3.bz2
./usr/share/man/man3/seccomp_release.3.bz2
./usr/share/man/man3/seccomp_rule_add_exact.3
./usr/share/man/man3/seccomp_export_pfc.3
./usr/share/man/man3/seccomp_syscall_resolve_num_arch.3
./usr/share/man/man3/seccomp_version.3.bz2
./usr/share/man/man3/seccomp_arch_resolve_name.3
./usr/share/man/man3/seccomp_export_bpf.3.bz2
./usr/share/man/man3/seccomp_load.3.bz2
./usr/share/man/man3/seccomp_arch_exist.3
./usr/share/man/man3/seccomp_api_set.3
./usr/share/man/man3/seccomp_arch_native.3
./usr/share/man/man3/seccomp_arch_remove.3
./usr/share/man/man3/seccomp_attr_get.3
./usr/share/man/man3/seccomp_reset.3
./usr/share/doc/
./usr/share/doc/libseccomp-2.4.3/
./usr/share/doc/libseccomp-2.4.3/CREDITS.bz2
./usr/share/doc/libseccomp-2.4.3/README.md.bz2
./usr/share/doc/libseccomp-2.4.3/CHANGELOG.bz2
./usr/lib64/
./usr/lib64/libseccomp.so.2
./usr/lib64/libseccomp.so.2.4.3
./usr/lib64/libseccomp.so
./usr/lib64/pkgconfig/
./usr/lib64/pkgconfig/libseccomp.pc
>>> Done.
 * checking 34 files for package collisions
>>> Merging sys-libs/libseccomp-2.4.3 to /
 * removing unneeded *.la files
--- /usr/
--- /usr/lib64/
--- /usr/lib64/pkgconfig/
>>> /usr/lib64/pkgconfig/libseccomp.pc
>>> /usr/lib64/libseccomp.so -> libseccomp.so.2.4.3
>>> /usr/lib64/libseccomp.so.2.4.3
>>> /usr/lib64/libseccomp.so.2 -> libseccomp.so.2.4.3
--- /usr/share/
--- /usr/share/man/
--- /usr/share/man/man3/
>>> /usr/share/man/man3/seccomp_reset.3
>>> /usr/share/man/man3/seccomp_attr_get.3
>>> /usr/share/man/man3/seccomp_arch_remove.3
>>> /usr/share/man/man3/seccomp_arch_native.3
>>> /usr/share/man/man3/seccomp_api_set.3
>>> /usr/share/man/man3/seccomp_arch_exist.3
>>> /usr/share/man/man3/seccomp_load.3.bz2
>>> /usr/share/man/man3/seccomp_export_bpf.3.bz2
>>> /usr/share/man/man3/seccomp_arch_resolve_name.3
>>> /usr/share/man/man3/seccomp_version.3.bz2
>>> /usr/share/man/man3/seccomp_syscall_resolve_num_arch.3
>>> /usr/share/man/man3/seccomp_export_pfc.3
>>> /usr/share/man/man3/seccomp_rule_add_exact.3
>>> /usr/share/man/man3/seccomp_release.3.bz2
>>> /usr/share/man/man3/seccomp_rule_add.3.bz2
>>> /usr/share/man/man3/seccomp_syscall_resolve_name_rewrite.3
>>> /usr/share/man/man3/seccomp_api_get.3.bz2
>>> /usr/share/man/man3/seccomp_merge.3.bz2
>>> /usr/share/man/man3/seccomp_syscall_resolve_name_arch.3
>>> /usr/share/man/man3/seccomp_syscall_priority.3.bz2
>>> /usr/share/man/man3/seccomp_syscall_resolve_name.3.bz2
>>> /usr/share/man/man3/seccomp_rule_add_exact_array.3
>>> /usr/share/man/man3/seccomp_arch_add.3.bz2
>>> /usr/share/man/man3/seccomp_attr_set.3.bz2
>>> /usr/share/man/man3/seccomp_rule_add_array.3
>>> /usr/share/man/man3/seccomp_init.3.bz2
--- /usr/share/man/man1/
>>> /usr/share/man/man1/scmp_sys_resolver.1.bz2
--- /usr/include/
>>> /usr/include/seccomp-syscalls.h
>>> /usr/include/seccomp.h
--- /usr/bin/
>>> /usr/bin/scmp_sys_resolver
>>> Safely unmerging already-installed instance...
>>> Original instance of package unmerged safely.
>>> sys-libs/libseccomp-2.4.3 merged.
>>> Regenerating /etc/ld.so.cache...
