No package files given... Grabbing a set.
--- replaced obj /usr/share/man/man5/acl.5.bz2
--- replaced dir /usr/share/man/man5
--- replaced obj /usr/share/man/man3/acl_valid.3.bz2
--- replaced obj /usr/share/man/man3/acl_to_text.3.bz2
--- replaced obj /usr/share/man/man3/acl_to_any_text.3.bz2
--- replaced obj /usr/share/man/man3/acl_size.3.bz2
--- replaced obj /usr/share/man/man3/acl_set_tag_type.3.bz2
--- replaced obj /usr/share/man/man3/acl_set_qualifier.3.bz2
--- replaced obj /usr/share/man/man3/acl_set_permset.3.bz2
--- replaced obj /usr/share/man/man3/acl_set_file.3.bz2
--- replaced obj /usr/share/man/man3/acl_set_fd.3.bz2
--- replaced obj /usr/share/man/man3/acl_init.3.bz2
--- replaced obj /usr/share/man/man3/acl_get_tag_type.3.bz2
--- replaced obj /usr/share/man/man3/acl_get_qualifier.3.bz2
--- replaced obj /usr/share/man/man3/acl_get_permset.3.bz2
--- replaced obj /usr/share/man/man3/acl_get_perm.3.bz2
--- replaced obj /usr/share/man/man3/acl_get_file.3.bz2
--- replaced obj /usr/share/man/man3/acl_get_fd.3.bz2
--- replaced obj /usr/share/man/man3/acl_get_entry.3.bz2
--- replaced obj /usr/share/man/man3/acl_from_text.3.bz2
--- replaced obj /usr/share/man/man3/acl_from_mode.3.bz2
--- replaced obj /usr/share/man/man3/acl_free.3.bz2
--- replaced obj /usr/share/man/man3/acl_extended_file_nofollow.3
--- replaced obj /usr/share/man/man3/acl_extended_file.3.bz2
--- replaced obj /usr/share/man/man3/acl_extended_fd.3.bz2
--- replaced obj /usr/share/man/man3/acl_error.3.bz2
--- replaced obj /usr/share/man/man3/acl_equiv_mode.3.bz2
--- replaced obj /usr/share/man/man3/acl_entries.3.bz2
--- replaced obj /usr/share/man/man3/acl_dup.3.bz2
--- replaced obj /usr/share/man/man3/acl_delete_perm.3.bz2
--- replaced obj /usr/share/man/man3/acl_delete_entry.3.bz2
--- replaced obj /usr/share/man/man3/acl_delete_def_file.3.bz2
--- replaced obj /usr/share/man/man3/acl_create_entry.3.bz2
--- replaced obj /usr/share/man/man3/acl_copy_int.3.bz2
--- replaced obj /usr/share/man/man3/acl_copy_ext.3.bz2
--- replaced obj /usr/share/man/man3/acl_copy_entry.3.bz2
--- replaced obj /usr/share/man/man3/acl_cmp.3.bz2
--- replaced obj /usr/share/man/man3/acl_clear_perms.3.bz2
--- replaced obj /usr/share/man/man3/acl_check.3.bz2
--- replaced obj /usr/share/man/man3/acl_calc_mask.3.bz2
--- replaced obj /usr/share/man/man3/acl_add_perm.3.bz2
--- replaced dir /usr/share/man/man3
--- replaced obj /usr/share/man/man1/setfacl.1.bz2
--- replaced obj /usr/share/man/man1/getfacl.1.bz2
--- replaced obj /usr/share/man/man1/chacl.1.bz2
--- replaced dir /usr/share/man/man1
--- replaced dir /usr/share/man
<<<          obj /usr/share/doc/acl-2.2.53/libacl.txt.bz2
<<<          obj /usr/share/doc/acl-2.2.53/extensions.txt.bz2
<<<          obj /usr/share/doc/acl-2.2.53/PORTING.bz2
<<<          obj /usr/share/doc/acl-2.2.53/COPYING.bz2
<<<          obj /usr/share/doc/acl-2.2.53/COPYING.LGPL.bz2
<<<          obj /usr/share/doc/acl-2.2.53/CHANGES.bz2
--- replaced dir /usr/share
--- replaced obj /usr/lib64/pkgconfig/libacl.pc
--- replaced dir /usr/lib64/pkgconfig
--- replaced obj /usr/lib64/libacl.so
--- replaced dir /usr/lib64
--- replaced obj /usr/include/sys/acl.h
--- replaced dir /usr/include/sys
--- replaced obj /usr/include/acl/libacl.h
--- replaced dir /usr/include/acl
--- replaced dir /usr/include
--- replaced dir /usr
--- replaced obj /lib64/libacl.so.1.1.2253
--- replaced sym /lib64/libacl.so.1
--- replaced dir /lib64
--- replaced obj /bin/setfacl
--- replaced obj /bin/getfacl
--- replaced obj /bin/chacl
--- replaced dir /bin
<<<          dir /usr/share/doc/acl-2.2.53
--- !empty   dir /usr/share/doc
>>> Regenerating /etc/ld.so.cache...
