 * Package:    sys-devel/autoconf-archive-2019.01.06
 * Repository: gentoo
 * Maintainer: base-system@gentoo.org
 * USE:        abi_x86_64 amd64 elibc_glibc kernel_linux userland_GNU
 * FEATURES:   network-sandbox preserve-libs sandbox userpriv usersandbox
 * FEATURES='assume-digests binpkg-docompress binpkg-dostrip binpkg-logs buildpkg cgroup compress-index config-protect-if-modified distlocks ebuild-locks fixlafiles ipc-sandbox merge-sync multilib-strict network-sandbox news nodoc parallel-fetch pid-sandbox preserve-libs qa-unresolved-soname-deps sandbox sfperms strict strict-keepdir unknown-features-warn unmerge-logs unmerge-orphans userfetch userpriv usersandbox usersync xattr'
 * CFLAGS='-march=znver2 -Ofast -pipe -g0 -fno-common -fgraphite-identity -floop-interchange -floop-nest-optimize -floop-parallelize-all -ftree-parallelize-loops=12 -ftree-vectorize -fdevirtualize-at-ltrans -fipa-pta -fno-semantic-interposition -flto=12 -fno-plt -falign-functions=32 -fno-stack-protector -fno-stack-clash-protection -fstack-check=no -fno-stack-check -fuse-linker-plugin -Wl,-O1,--sort-common,--as-needed,-z,norelro,-z,now,-lgomp,-lpthread'
 * CXXFLAGS='-march=znver2 -Ofast -pipe -g0 -fno-common -fgraphite-identity -floop-interchange -floop-nest-optimize -floop-parallelize-all -ftree-parallelize-loops=12 -ftree-vectorize -fdevirtualize-at-ltrans -fipa-pta -fno-semantic-interposition -flto=12 -fno-plt -falign-functions=32 -fno-stack-protector -fno-stack-clash-protection -fstack-check=no -fno-stack-check -fuse-linker-plugin -Wl,-O1,--sort-common,--as-needed,-z,norelro,-z,now,-lgomp,-lpthread'
 * FFLAGS='-march=znver2 -Ofast -pipe -g0 -fno-common -fgraphite-identity -floop-interchange -floop-nest-optimize -floop-parallelize-all -ftree-parallelize-loops=12 -ftree-vectorize -fdevirtualize-at-ltrans -fipa-pta -fno-semantic-interposition -flto=12 -fno-plt -falign-functions=32 -fno-stack-protector -fno-stack-clash-protection -fstack-check=no -fno-stack-check -fuse-linker-plugin -Wl,-O1,--sort-common,--as-needed,-z,norelro,-z,now,-lgomp,-lpthread'
 * FCFLAGS='-march=znver2 -Ofast -pipe -g0 -fno-common -fgraphite-identity -floop-interchange -floop-nest-optimize -floop-parallelize-all -ftree-parallelize-loops=12 -ftree-vectorize -fdevirtualize-at-ltrans -fipa-pta -fno-semantic-interposition -flto=12 -fno-plt -falign-functions=32 -fno-stack-protector -fno-stack-clash-protection -fstack-check=no -fno-stack-check -fuse-linker-plugin -Wl,-O1,--sort-common,--as-needed,-z,norelro,-z,now,-lgomp,-lpthread'
 * F77FLAGS='-march=znver2 -Ofast -pipe -g0 -fno-common -fgraphite-identity -floop-interchange -floop-nest-optimize -floop-parallelize-all -ftree-parallelize-loops=12 -ftree-vectorize -fdevirtualize-at-ltrans -fipa-pta -fno-semantic-interposition -flto=12 -fno-plt -falign-functions=32 -fno-stack-protector -fno-stack-clash-protection -fstack-check=no -fno-stack-check -fuse-linker-plugin -Wl,-O1,--sort-common,--as-needed,-z,norelro,-z,now,-lgomp,-lpthread'
 * LDFLAGS='-Wl,-O1,--sort-common,--as-needed,-z,norelro,-z,now,-lgomp,-lpthread -march=znver2 -Ofast -pipe -g0 -fno-common -fgraphite-identity -floop-interchange -floop-nest-optimize -floop-parallelize-all -ftree-parallelize-loops=12 -ftree-vectorize -fdevirtualize-at-ltrans -fipa-pta -fno-semantic-interposition -flto=12 -fno-plt -falign-functions=32 -fno-stack-protector -fno-stack-clash-protection -fstack-check=no -fno-stack-check -fuse-linker-plugin'
 * MAKEOPTS='-j12 -l12'
 * gcc () 11.0.0 20200616 (experimental)
 * g++ () 11.0.0 20200616 (experimental)
 * GNU ld (Gentoo 2.34 p4) 2.34.0
 * Linux rescue 5.4.36 #1 SMP Thu Apr 30 04:38:28 UTC 2020 x86_64 AMD Ryzen 5 3600 6-Core Processor AuthenticAMD GNU/Linux
sys-devel/autoconf-archive: 25 seconds average for 30 merges
2020-05-15T03:28:13 >>> sys-devel/autoconf-archive: 8 seconds
2020-05-16T20:45:17 >>> sys-devel/autoconf-archive: 11 seconds
2020-05-20T00:56:26 >>> sys-devel/autoconf-archive: 12 seconds
2020-05-21T05:53:07 >>> sys-devel/autoconf-archive: 6 seconds
2020-05-22T01:56:19 >>> sys-devel/autoconf-archive: 18 seconds
2020-05-22T03:07:49 >>> sys-devel/autoconf-archive: 18 seconds
2020-05-22T12:27:11 >>> sys-devel/autoconf-archive: 19 seconds
2020-05-23T03:29:14 >>> sys-devel/autoconf-archive: 17 seconds
2020-05-24T23:23:11 >>> sys-devel/autoconf-archive: 19 seconds
2020-05-25T03:01:57 >>> sys-devel/autoconf-archive: 9 seconds
2020-05-25T18:15:37 >>> sys-devel/autoconf-archive: 16 seconds
2020-05-25T19:52:19 >>> sys-devel/autoconf-archive: 21 seconds
2020-05-26T12:50:32 >>> sys-devel/autoconf-archive: 19 seconds
2020-05-26T13:46:42 >>> sys-devel/autoconf-archive: 8 seconds
2020-05-27T01:24:34 >>> sys-devel/autoconf-archive: 18 seconds
2020-05-27T03:01:52 >>> sys-devel/autoconf-archive: 17 seconds
2020-05-28T13:23:20 >>> sys-devel/autoconf-archive: 20 seconds
2020-05-28T14:11:59 >>> sys-devel/autoconf-archive: 11 seconds
2020-05-29T01:32:14 >>> sys-devel/autoconf-archive: 22 seconds
2020-05-30T12:28:38 >>> sys-devel/autoconf-archive: 16 seconds
2020-05-30T21:32:30 >>> sys-devel/autoconf-archive: 11 seconds
2020-06-01T01:45:13 >>> sys-devel/autoconf-archive: 23 seconds
2020-06-04T11:55:40 >>> sys-devel/autoconf-archive: 3 minutes, 1 second
2020-06-12T01:22:42 >>> sys-devel/autoconf-archive: 28 seconds
2020-06-13T03:21:35 >>> sys-devel/autoconf-archive: 43 seconds
2020-06-13T19:55:06 >>> sys-devel/autoconf-archive: 53 seconds
2020-06-14T04:33:16 >>> sys-devel/autoconf-archive: 33 seconds
2020-06-15T13:44:47 >>> sys-devel/autoconf-archive: 30 seconds
2020-06-16T13:35:02 >>> sys-devel/autoconf-archive: 23 seconds
2020-06-17T03:08:59 >>> sys-devel/autoconf-archive: 21 seconds
]0;emerge 13:33:25 67|895 autoconf-archive 00:25 (root@rescue)>>> Unpacking source...
>>> Unpacking autoconf-archive-2019.01.06.tar.xz to /tmp/portage/sys-devel/autoconf-archive-2019.01.06/work
>>> Source unpacked in /tmp/portage/sys-devel/autoconf-archive-2019.01.06/work
>>> Preparing source in /tmp/portage/sys-devel/autoconf-archive-2019.01.06/work/autoconf-archive-2019.01.06 ...
>>> Source prepared.
>>> Configuring source in /tmp/portage/sys-devel/autoconf-archive-2019.01.06/work/autoconf-archive-2019.01.06 ...
./configure --prefix=/usr --build=x86_64-pc-linux-gnu --host=x86_64-pc-linux-gnu --mandir=/usr/share/man --infodir=/usr/share/info --datadir=/usr/share --sysconfdir=/etc --localstatedir=/var/lib --disable-silent-rules --docdir=/usr/share/doc/autoconf-archive-2019.01.06 --htmldir=/usr/share/doc/autoconf-archive-2019.01.06/html --libdir=/usr/lib64
checking for a BSD-compatible install... /tmp/portage/._portage_reinstall_.z8sq2nh6/bin/ebuild-helpers/xattr/install -c
checking whether build environment is sane... yes
checking for a thread-safe mkdir -p... /bin/mkdir -p
checking for gawk... gawk
checking whether make sets $(MAKE)... yes
checking whether make supports nested variables... yes
configure: GNU Autoconf Archive 2019.01.06
checking for a sed that does not truncate output... /bin/sed
checking that generated files are newer than configure... done
configure: creating ./config.status
config.status: creating Makefile
config.status: creating doc/Makefile
>>> Source configured.
>>> Compiling source in /tmp/portage/sys-devel/autoconf-archive-2019.01.06/work/autoconf-archive-2019.01.06 ...
make -j12 -l12 
Making all in doc
make[1]: Entering directory '/tmp/portage/sys-devel/autoconf-archive-2019.01.06/work/autoconf-archive-2019.01.06/doc'
make[1]: Nothing to be done for 'all'.
make[1]: Leaving directory '/tmp/portage/sys-devel/autoconf-archive-2019.01.06/work/autoconf-archive-2019.01.06/doc'
make[1]: Entering directory '/tmp/portage/sys-devel/autoconf-archive-2019.01.06/work/autoconf-archive-2019.01.06'
make[1]: Nothing to be done for 'all-am'.
make[1]: Leaving directory '/tmp/portage/sys-devel/autoconf-archive-2019.01.06/work/autoconf-archive-2019.01.06'
>>> Source compiled.
>>> Test phase [not enabled]: sys-devel/autoconf-archive-2019.01.06

>>> Install sys-devel/autoconf-archive-2019.01.06 into /tmp/portage/sys-devel/autoconf-archive-2019.01.06/image/
make -j12 -l12 DESTDIR=/tmp/portage/sys-devel/autoconf-archive-2019.01.06/image/ install 
Making install in doc
make[1]: Entering directory '/tmp/portage/sys-devel/autoconf-archive-2019.01.06/work/autoconf-archive-2019.01.06/doc'
make[2]: Entering directory '/tmp/portage/sys-devel/autoconf-archive-2019.01.06/work/autoconf-archive-2019.01.06/doc'
make[2]: Nothing to be done for 'install-exec-am'.
 /bin/mkdir -p '/tmp/portage/sys-devel/autoconf-archive-2019.01.06/image//usr/share/info'
 /tmp/portage/._portage_reinstall_.z8sq2nh6/bin/ebuild-helpers/xattr/install -c -m 644 ./autoconf-archive.info '/tmp/portage/sys-devel/autoconf-archive-2019.01.06/image//usr/share/info'
 install-info --info-dir='/tmp/portage/sys-devel/autoconf-archive-2019.01.06/image//usr/share/info' '/tmp/portage/sys-devel/autoconf-archive-2019.01.06/image//usr/share/info/autoconf-archive.info'
make[2]: Leaving directory '/tmp/portage/sys-devel/autoconf-archive-2019.01.06/work/autoconf-archive-2019.01.06/doc'
make[1]: Leaving directory '/tmp/portage/sys-devel/autoconf-archive-2019.01.06/work/autoconf-archive-2019.01.06/doc'
make[1]: Entering directory '/tmp/portage/sys-devel/autoconf-archive-2019.01.06/work/autoconf-archive-2019.01.06'
make[2]: Entering directory '/tmp/portage/sys-devel/autoconf-archive-2019.01.06/work/autoconf-archive-2019.01.06'
make[2]: Nothing to be done for 'install-exec-am'.
 /bin/mkdir -p '/tmp/portage/sys-devel/autoconf-archive-2019.01.06/image//usr/share/doc/autoconf-archive-2019.01.06'
 /bin/mkdir -p '/tmp/portage/sys-devel/autoconf-archive-2019.01.06/image//usr/share/aclocal'
 /tmp/portage/._portage_reinstall_.z8sq2nh6/bin/ebuild-helpers/xattr/install -c -m 644 AUTHORS COPYING COPYING.EXCEPTION README '/tmp/portage/sys-devel/autoconf-archive-2019.01.06/image//usr/share/doc/autoconf-archive-2019.01.06'
 /tmp/portage/._portage_reinstall_.z8sq2nh6/bin/ebuild-helpers/xattr/install -c -m 644 m4/ax_absolute_header.m4 m4/ax_ac_append_to_file.m4 m4/ax_ac_print_to_file.m4 m4/ax_add_am_macro.m4 m4/ax_add_am_macro_static.m4 m4/ax_add_am_trilinos_makefile_export.m4 m4/ax_add_fortify_source.m4 m4/ax_add_recursive_am_macro.m4 m4/ax_add_recursive_am_macro_static.m4 m4/ax_afs.m4 m4/ax_am_jobserver.m4 m4/ax_am_macros.m4 m4/ax_am_macros_static.m4 m4/ax_am_override_var.m4 m4/ax_append_compile_flags.m4 m4/ax_append_flag.m4 m4/ax_append_link_flags.m4 m4/ax_append_to_file.m4 m4/ax_arg_with_path_style.m4 m4/ax_asm_inline.m4 m4/ax_at_check_pattern.m4 m4/ax_auto_include_headers.m4 m4/ax_berkeley_db.m4 m4/ax_berkeley_db_cxx.m4 m4/ax_blas.m4 m4/ax_blas_f77_func.m4 m4/ax_boost_asio.m4 m4/ax_boost_base.m4 m4/ax_boost_chrono.m4 m4/ax_boost_context.m4 m4/ax_boost_coroutine.m4 m4/ax_boost_date_time.m4 m4/ax_boost_filesystem.m4 m4/ax_boost_iostreams.m4 m4/ax_boost_locale.m4 m4/ax_boost_log.m4 m4/ax_boost_log_setup.m4 m4/ax_boost_program_options.m4 m4/ax_boost_python.m4 m4/ax_boost_regex.m4 '/tmp/portage/sys-devel/autoconf-archive-2019.01.06/image//usr/share/aclocal'
 /tmp/portage/._portage_reinstall_.z8sq2nh6/bin/ebuild-helpers/xattr/install -c -m 644 m4/ax_boost_serialization.m4 m4/ax_boost_signals.m4 m4/ax_boost_system.m4 m4/ax_boost_test_exec_monitor.m4 m4/ax_boost_thread.m4 m4/ax_boost_unit_test_framework.m4 m4/ax_boost_wave.m4 m4/ax_boost_wserialization.m4 m4/ax_build_date_epoch.m4 m4/ax_c99_inline.m4 m4/ax_c___attribute__.m4 m4/ax_c_arithmetic_rshift.m4 m4/ax_c_compile_value.m4 m4/ax_c_declare_block.m4 m4/ax_c_float_words_bigendian.m4 m4/ax_c_long_long.m4 m4/ax_c_referenceable_passed_va_list.m4 m4/ax_c_var_func.m4 m4/ax_cache_size.m4 m4/ax_caolan_check_package.m4 m4/ax_caolan_search_package.m4 m4/ax_cc_for_build.m4 m4/ax_cc_maxopt.m4 m4/ax_cf_ebcdic.m4 m4/ax_cflags_aix_option.m4 m4/ax_cflags_force_c89.m4 m4/ax_cflags_hpux_option.m4 m4/ax_cflags_irix_option.m4 m4/ax_cflags_no_writable_strings.m4 m4/ax_cflags_strict_prototypes.m4 m4/ax_cflags_sun_option.m4 m4/ax_cflags_warn_all.m4 m4/ax_check_aligned_access_required.m4 m4/ax_check_allocated_ctime.m4 m4/ax_check_awk__v.m4 m4/ax_check_awk__x_escapes.m4 m4/ax_check_awk_and.m4 m4/ax_check_awk_argind.m4 m4/ax_check_awk_array_delete.m4 m4/ax_check_awk_array_delete_elem.m4 '/tmp/portage/sys-devel/autoconf-archive-2019.01.06/image//usr/share/aclocal'
 /tmp/portage/._portage_reinstall_.z8sq2nh6/bin/ebuild-helpers/xattr/install -c -m 644 m4/ax_check_awk_array_in.m4 m4/ax_check_awk_asort.m4 m4/ax_check_awk_asorti.m4 m4/ax_check_awk_associative_array.m4 m4/ax_check_awk_atan2.m4 m4/ax_check_awk_compl.m4 m4/ax_check_awk_conditional_expression.m4 m4/ax_check_awk_cos.m4 m4/ax_check_awk_environ.m4 m4/ax_check_awk_errno.m4 m4/ax_check_awk_exit.m4 m4/ax_check_awk_exp.m4 m4/ax_check_awk_gensub.m4 m4/ax_check_awk_getline.m4 m4/ax_check_awk_gsub.m4 m4/ax_check_awk_ignorecase.m4 m4/ax_check_awk_index.m4 m4/ax_check_awk_int.m4 m4/ax_check_awk_length.m4 m4/ax_check_awk_log.m4 m4/ax_check_awk_lshift.m4 m4/ax_check_awk_match_2parms.m4 m4/ax_check_awk_match_3parms.m4 m4/ax_check_awk_operator_multiply_multiply.m4 m4/ax_check_awk_operator_square.m4 m4/ax_check_awk_or.m4 m4/ax_check_awk_printf.m4 m4/ax_check_awk_rand.m4 m4/ax_check_awk_rshift.m4 m4/ax_check_awk_sin.m4 m4/ax_check_awk_split.m4 m4/ax_check_awk_sprintf.m4 m4/ax_check_awk_sqrt.m4 m4/ax_check_awk_srand.m4 m4/ax_check_awk_strftime.m4 m4/ax_check_awk_strtonum.m4 m4/ax_check_awk_sub.m4 m4/ax_check_awk_substr.m4 m4/ax_check_awk_system.m4 m4/ax_check_awk_systime.m4 '/tmp/portage/sys-devel/autoconf-archive-2019.01.06/image//usr/share/aclocal'
 /tmp/portage/._portage_reinstall_.z8sq2nh6/bin/ebuild-helpers/xattr/install -c -m 644 m4/ax_check_awk_tolower.m4 m4/ax_check_awk_toupper.m4 m4/ax_check_awk_user_defined_functions.m4 m4/ax_check_awk_var_regexp.m4 m4/ax_check_awk_variable_value_pairs.m4 m4/ax_check_awk_xor.m4 m4/ax_check_class.m4 m4/ax_check_classpath.m4 m4/ax_check_compile_flag.m4 m4/ax_check_define.m4 m4/ax_check_docbook_dtd.m4 m4/ax_check_docbook_xslt.m4 m4/ax_check_docbook_xslt_min.m4 m4/ax_check_dos_filesys.m4 m4/ax_check_enable_debug.m4 m4/ax_check_func_in.m4 m4/ax_check_gd.m4 m4/ax_check_gir_symbols_gjs.m4 m4/ax_check_girs_gjs.m4 m4/ax_check_gl.m4 m4/ax_check_glu.m4 m4/ax_check_glut.m4 m4/ax_check_glx.m4 m4/ax_check_gnu_make.m4 m4/ax_check_icu.m4 m4/ax_check_java_home.m4 m4/ax_check_java_plugin.m4 m4/ax_check_junit.m4 m4/ax_check_library.m4 m4/ax_check_link_flag.m4 m4/ax_check_mysql.m4 m4/ax_check_mysql_db.m4 m4/ax_check_mysqlr.m4 m4/ax_check_off64_t.m4 m4/ax_check_openssl.m4 m4/ax_check_page_aligned_malloc.m4 m4/ax_check_pathfind.m4 m4/ax_check_pathname_style.m4 m4/ax_check_pgsql_db.m4 m4/ax_check_posix_regcomp.m4 '/tmp/portage/sys-devel/autoconf-archive-2019.01.06/image//usr/share/aclocal'
 /tmp/portage/._portage_reinstall_.z8sq2nh6/bin/ebuild-helpers/xattr/install -c -m 644 m4/ax_check_posix_sysinfo.m4 m4/ax_check_postgres_db.m4 m4/ax_check_preproc_flag.m4 m4/ax_check_rqrd_class.m4 m4/ax_check_sign.m4 m4/ax_check_strcspn.m4 m4/ax_check_strftime.m4 m4/ax_check_struct_for.m4 m4/ax_check_symbol.m4 m4/ax_check_sys_siglist.m4 m4/ax_check_typedef.m4 m4/ax_check_uname_syscall.m4 m4/ax_check_user.m4 m4/ax_check_vscript.m4 m4/ax_check_x86_features.m4 m4/ax_check_zlib.m4 m4/ax_code_coverage.m4 m4/ax_compare_version.m4 m4/ax_compile_check_sizeof.m4 m4/ax_compiler_flags.m4 m4/ax_compiler_flags_cflags.m4 m4/ax_compiler_flags_cxxflags.m4 m4/ax_compiler_flags_gir.m4 m4/ax_compiler_flags_ldflags.m4 m4/ax_compiler_vendor.m4 m4/ax_compiler_version.m4 m4/ax_compute_relative_paths.m4 m4/ax_compute_standard_relative_paths.m4 m4/ax_cond_with_level.m4 m4/ax_config_feature.m4 m4/ax_configure_args.m4 m4/ax_count_cpus.m4 m4/ax_cpu_freq.m4 m4/ax_cpu_vendor.m4 m4/ax_create_generic_config.m4 m4/ax_create_pkgconfig_info.m4 m4/ax_create_stdint_h.m4 m4/ax_create_target_h.m4 m4/ax_cvs.m4 m4/ax_cxx_bool.m4 '/tmp/portage/sys-devel/autoconf-archive-2019.01.06/image//usr/share/aclocal'
 /tmp/portage/._portage_reinstall_.z8sq2nh6/bin/ebuild-helpers/xattr/install -c -m 644 m4/ax_cxx_compile_stdcxx.m4 m4/ax_cxx_compile_stdcxx_0x.m4 m4/ax_cxx_compile_stdcxx_11.m4 m4/ax_cxx_compile_stdcxx_14.m4 m4/ax_cxx_compile_stdcxx_17.m4 m4/ax_cxx_complex_math_in_namespace_std.m4 m4/ax_cxx_const_cast.m4 m4/ax_cxx_cppflags_std_lang.m4 m4/ax_cxx_cxxflags_std_lang.m4 m4/ax_cxx_default_template_parameters.m4 m4/ax_cxx_delete_method.m4 m4/ax_cxx_dtor_after_atexit.m4 m4/ax_cxx_dynamic_cast.m4 m4/ax_cxx_enum_computations.m4 m4/ax_cxx_enum_computations_with_cast.m4 m4/ax_cxx_erase_iterator_type.m4 m4/ax_cxx_exceptions.m4 m4/ax_cxx_explicit.m4 m4/ax_cxx_explicit_instantiations.m4 m4/ax_cxx_explicit_template_function_qualification.m4 m4/ax_cxx_extern_template.m4 m4/ax_cxx_full_specialization_syntax.m4 m4/ax_cxx_function_nontype_parameters.m4 m4/ax_cxx_function_try_blocks.m4 m4/ax_cxx_gcc_abi_demangle.m4 m4/ax_cxx_gnucxx_hashmap.m4 m4/ax_cxx_have_bad_function_call.m4 m4/ax_cxx_have_bind.m4 m4/ax_cxx_have_bit_and.m4 m4/ax_cxx_have_bit_or.m4 m4/ax_cxx_have_bit_xor.m4 m4/ax_cxx_have_complex.m4 m4/ax_cxx_have_complex_math1.m4 m4/ax_cxx_have_complex_math2.m4 m4/ax_cxx_have_cref.m4 m4/ax_cxx_have_empty_iostream.m4 m4/ax_cxx_have_ext_hash_map.m4 m4/ax_cxx_have_ext_hash_set.m4 m4/ax_cxx_have_ext_slist.m4 m4/ax_cxx_have_freeze_sstream.m4 '/tmp/portage/sys-devel/autoconf-archive-2019.01.06/image//usr/share/aclocal'
 /tmp/portage/._portage_reinstall_.z8sq2nh6/bin/ebuild-helpers/xattr/install -c -m 644 m4/ax_cxx_have_function.m4 m4/ax_cxx_have_hash.m4 m4/ax_cxx_have_ieee_math.m4 m4/ax_cxx_have_is_bind_expression.m4 m4/ax_cxx_have_is_placeholder.m4 m4/ax_cxx_have_koenig_lookup.m4 m4/ax_cxx_have_long_long_for_iostream.m4 m4/ax_cxx_have_mem_fn.m4 m4/ax_cxx_have_numeric_limits.m4 m4/ax_cxx_have_placeholders.m4 m4/ax_cxx_have_ref.m4 m4/ax_cxx_have_reference_wrapper.m4 m4/ax_cxx_have_sstream.m4 m4/ax_cxx_have_std.m4 m4/ax_cxx_have_stl.m4 m4/ax_cxx_have_string_push_back.m4 m4/ax_cxx_have_system_v_math.m4 m4/ax_cxx_have_valarray.m4 m4/ax_cxx_have_vector_at.m4 m4/ax_cxx_header_pre_stdcxx.m4 m4/ax_cxx_header_stdcxx_0x.m4 m4/ax_cxx_header_stdcxx_98.m4 m4/ax_cxx_header_stdcxx_tr1.m4 m4/ax_cxx_header_tr1_unordered_map.m4 m4/ax_cxx_header_tr1_unordered_set.m4 m4/ax_cxx_header_unordered_map.m4 m4/ax_cxx_header_unordered_set.m4 m4/ax_cxx_ldflags_std_lang.m4 m4/ax_cxx_member_constants.m4 m4/ax_cxx_member_templates.m4 m4/ax_cxx_member_templates_outside_class.m4 m4/ax_cxx_mutable.m4 m4/ax_cxx_namespace_std.m4 m4/ax_cxx_namespaces.m4 m4/ax_cxx_new_for_scoping.m4 m4/ax_cxx_old_for_scoping.m4 m4/ax_cxx_partial_ordering.m4 m4/ax_cxx_partial_specialization.m4 m4/ax_cxx_reinterpret_cast.m4 m4/ax_cxx_restrict_this.m4 '/tmp/portage/sys-devel/autoconf-archive-2019.01.06/image//usr/share/aclocal'
 /tmp/portage/._portage_reinstall_.z8sq2nh6/bin/ebuild-helpers/xattr/install -c -m 644 m4/ax_cxx_rtti.m4 m4/ax_cxx_rvalue_references.m4 m4/ax_cxx_static_cast.m4 m4/ax_cxx_stlport_hashmap.m4 m4/ax_cxx_template_keyword_qualifier.m4 m4/ax_cxx_template_qualified_base_class.m4 m4/ax_cxx_template_qualified_return_type.m4 m4/ax_cxx_template_scoped_argument_matching.m4 m4/ax_cxx_templates.m4 m4/ax_cxx_templates_as_template_arguments.m4 m4/ax_cxx_typename.m4 m4/ax_cxx_use_numtrait.m4 m4/ax_cxx_var_prettyfunc.m4 m4/ax_cxx_verbose_terminate_handler.m4 m4/ax_czmq.m4 m4/ax_decl_wchar_max.m4 m4/ax_define_integer_bits.m4 m4/ax_define_sub_path.m4 m4/ax_dirname.m4 m4/ax_dist_msi.m4 m4/ax_dist_rpm.m4 m4/ax_dll_string.m4 m4/ax_elisp.m4 m4/ax_enable_builddir.m4 m4/ax_execinfo.m4 m4/ax_expand_prefix.m4 m4/ax_ext.m4 m4/ax_ext_check_header.m4 m4/ax_ext_have_lib.m4 m4/ax_extend_srcdir.m4 m4/ax_extra_dist.m4 m4/ax_f77_cmain_fflags.m4 m4/ax_f90_header.m4 m4/ax_f90_internal_headmod.m4 m4/ax_f90_library.m4 m4/ax_f90_library_setup.m4 m4/ax_f90_module.m4 m4/ax_f90_module_extension.m4 m4/ax_f90_module_flag.m4 m4/ax_fc_check_define.m4 '/tmp/portage/sys-devel/autoconf-archive-2019.01.06/image//usr/share/aclocal'
 /tmp/portage/._portage_reinstall_.z8sq2nh6/bin/ebuild-helpers/xattr/install -c -m 644 m4/ax_file_escapes.m4 m4/ax_find_hamcrest.m4 m4/ax_find_junit.m4 m4/ax_find_scala_stdlib.m4 m4/ax_forceinline.m4 m4/ax_func_accept_argtypes.m4 m4/ax_func_getopt_long.m4 m4/ax_func_memmove.m4 m4/ax_func_mkdir.m4 m4/ax_func_posix_memalign.m4 m4/ax_func_snprintf.m4 m4/ax_func_which_gethostbyname_r.m4 m4/ax_func_which_getservbyname_r.m4 m4/ax_gcc_archflag.m4 m4/ax_gcc_builtin.m4 m4/ax_gcc_const_call.m4 m4/ax_gcc_func_attribute.m4 m4/ax_gcc_lib.m4 m4/ax_gcc_libgcc_eh.m4 m4/ax_gcc_libsupcxx.m4 m4/ax_gcc_malloc_call.m4 m4/ax_gcc_var_attribute.m4 m4/ax_gcc_warn_unused_result.m4 m4/ax_gcc_x86_avx_xgetbv.m4 m4/ax_gcc_x86_cpu_supports.m4 m4/ax_gcc_x86_cpuid.m4 m4/ax_generate_changelog.m4 m4/ax_gnu_autotest.m4 m4/ax_have_adns.m4 m4/ax_have_epoll.m4 m4/ax_have_poll.m4 m4/ax_have_qt.m4 m4/ax_have_select.m4 m4/ax_include_strcasecmp.m4 m4/ax_install_files.m4 m4/ax_is_release.m4 m4/ax_java_check_class.m4 m4/ax_java_options.m4 m4/ax_jni_include_dir.m4 m4/ax_lapack.m4 '/tmp/portage/sys-devel/autoconf-archive-2019.01.06/image//usr/share/aclocal'
 /tmp/portage/._portage_reinstall_.z8sq2nh6/bin/ebuild-helpers/xattr/install -c -m 644 m4/ax_lib_beecrypt.m4 m4/ax_lib_cgal_core.m4 m4/ax_lib_crypto.m4 m4/ax_lib_curl.m4 m4/ax_lib_ev.m4 m4/ax_lib_expat.m4 m4/ax_lib_firebird.m4 m4/ax_lib_gcrypt.m4 m4/ax_lib_gdal.m4 m4/ax_lib_hdf5.m4 m4/ax_lib_id3.m4 m4/ax_lib_libkml.m4 m4/ax_lib_metis.m4 m4/ax_lib_mysql.m4 m4/ax_lib_mysqlcppconn.m4 m4/ax_lib_netcdf4.m4 m4/ax_lib_nettle.m4 m4/ax_lib_nokalva.m4 m4/ax_lib_oracle_occi.m4 m4/ax_lib_oracle_oci.m4 m4/ax_lib_orbit2.m4 m4/ax_lib_postgresql.m4 m4/ax_lib_readline.m4 m4/ax_lib_samtools.m4 m4/ax_lib_socket_nsl.m4 m4/ax_lib_sqlite3.m4 m4/ax_lib_tabix.m4 m4/ax_lib_taglib.m4 m4/ax_lib_trace.m4 m4/ax_lib_upnp.m4 m4/ax_lib_wad.m4 m4/ax_lib_xalan.m4 m4/ax_lib_xerces.m4 m4/ax_lib_xml_security.m4 m4/ax_libgcj_jar.m4 m4/ax_libtoolize_cflags.m4 m4/ax_llvm.m4 m4/ax_lua.m4 m4/ax_luarocks_rock.m4 m4/ax_maintainer_mode_auto_silent.m4 '/tmp/portage/sys-devel/autoconf-archive-2019.01.06/image//usr/share/aclocal'
 /tmp/portage/._portage_reinstall_.z8sq2nh6/bin/ebuild-helpers/xattr/install -c -m 644 m4/ax_missing_prog.m4 m4/ax_mpi.m4 m4/ax_mpip.m4 m4/ax_need_awk.m4 m4/ax_normalize_path.m4 m4/ax_not_enable_frame_pointer.m4 m4/ax_numeric_namedlevel.m4 m4/ax_open62541_check_h.m4 m4/ax_open62541_check_lib.m4 m4/ax_open62541_path.m4 m4/ax_openmp.m4 m4/ax_patch_libtool_changing_cmds_ifs.m4 m4/ax_path_bdb.m4 m4/ax_path_generic.m4 m4/ax_path_lib_pcre.m4 m4/ax_path_milter.m4 m4/ax_path_missing.m4 m4/ax_perl_ext.m4 m4/ax_perl_ext_flags.m4 m4/ax_perl_module_version.m4 m4/ax_pgsql_priv_root.m4 m4/ax_pkg_check_modules.m4 m4/ax_pkg_mico.m4 m4/ax_pkg_swig.m4 m4/ax_prefix_config_h.m4 m4/ax_print_to_file.m4 m4/ax_printf_size_t.m4 m4/ax_prog_apache.m4 m4/ax_prog_bison.m4 m4/ax_prog_bison_version.m4 m4/ax_prog_cc_char_subscripts.m4 m4/ax_prog_cc_for_build.m4 m4/ax_prog_cc_mpi.m4 m4/ax_prog_cp_s.m4 m4/ax_prog_crontab.m4 m4/ax_prog_cxx_for_build.m4 m4/ax_prog_cxx_mpi.m4 m4/ax_prog_date.m4 m4/ax_prog_dotnetcore_version.m4 m4/ax_prog_doxygen.m4 '/tmp/portage/sys-devel/autoconf-archive-2019.01.06/image//usr/share/aclocal'
 /tmp/portage/._portage_reinstall_.z8sq2nh6/bin/ebuild-helpers/xattr/install -c -m 644 m4/ax_prog_emacs.m4 m4/ax_prog_f77_mpi.m4 m4/ax_prog_fasm.m4 m4/ax_prog_fasm_opt.m4 m4/ax_prog_fc_mpi.m4 m4/ax_prog_fig2dev.m4 m4/ax_prog_flex.m4 m4/ax_prog_flex_version.m4 m4/ax_prog_gjs.m4 m4/ax_prog_guile_version.m4 m4/ax_prog_haxe_version.m4 m4/ax_prog_help2man.m4 m4/ax_prog_hla.m4 m4/ax_prog_hla_opt.m4 m4/ax_prog_httpd.m4 m4/ax_prog_jar.m4 m4/ax_prog_java.m4 m4/ax_prog_java_cc.m4 m4/ax_prog_java_works.m4 m4/ax_prog_javac.m4 m4/ax_prog_javac_works.m4 m4/ax_prog_javadoc.m4 m4/ax_prog_javah.m4 m4/ax_prog_masm.m4 m4/ax_prog_masm_opt.m4 m4/ax_prog_md5sum.m4 m4/ax_prog_modprobe.m4 m4/ax_prog_mysql.m4 m4/ax_prog_mysqladmin.m4 m4/ax_prog_mysqld.m4 m4/ax_prog_mysqlimport.m4 m4/ax_prog_mysqlshow.m4 m4/ax_prog_nasm.m4 m4/ax_prog_nasm_opt.m4 m4/ax_prog_perl_modules.m4 m4/ax_prog_perl_version.m4 m4/ax_prog_pgclient.m4 m4/ax_prog_python_version.m4 m4/ax_prog_ruby_version.m4 m4/ax_prog_scala.m4 '/tmp/portage/sys-devel/autoconf-archive-2019.01.06/image//usr/share/aclocal'
 /tmp/portage/._portage_reinstall_.z8sq2nh6/bin/ebuild-helpers/xattr/install -c -m 644 m4/ax_prog_scalac.m4 m4/ax_prog_scp.m4 m4/ax_prog_splint.m4 m4/ax_prog_ssh.m4 m4/ax_prog_tasm.m4 m4/ax_prog_tasm_opt.m4 m4/ax_prog_tcl.m4 m4/ax_prog_xsltproc.m4 m4/ax_prog_yasm.m4 m4/ax_prog_yasm_opt.m4 m4/ax_prototype.m4 m4/ax_prototype_accept.m4 m4/ax_prototype_getsockname.m4 m4/ax_prototype_setsockopt.m4 m4/ax_pthread.m4 m4/ax_python.m4 m4/ax_python_config_var.m4 m4/ax_python_devel.m4 m4/ax_python_embed.m4 m4/ax_python_module.m4 m4/ax_python_module_version.m4 m4/ax_r_package.m4 m4/ax_recursive_eval.m4 m4/ax_require_defined.m4 m4/ax_require_one_func.m4 m4/ax_restore_flags.m4 m4/ax_restore_flags_with_prefix.m4 m4/ax_rpm_init.m4 m4/ax_ruby_devel.m4 m4/ax_ruby_ext.m4 m4/ax_save_flags.m4 m4/ax_save_flags_with_prefix.m4 m4/ax_set_default_paths_system.m4 m4/ax_short_sleep.m4 m4/ax_silent_mode.m4 m4/ax_sip_devel.m4 m4/ax_spec_file.m4 m4/ax_spec_package_version.m4 m4/ax_split_version.m4 m4/ax_string_strcasecmp.m4 '/tmp/portage/sys-devel/autoconf-archive-2019.01.06/image//usr/share/aclocal'
 /tmp/portage/._portage_reinstall_.z8sq2nh6/bin/ebuild-helpers/xattr/install -c -m 644 m4/ax_strings_strcasecmp.m4 m4/ax_struct_semun.m4 m4/ax_subdir_files.m4 m4/ax_subdirs_configure.m4 m4/ax_subst_with.m4 m4/ax_swig_enable_cxx.m4 m4/ax_swig_multi_module_support.m4 m4/ax_swig_python.m4 m4/ax_switch_flags.m4 m4/ax_sys_dev_poll.m4 m4/ax_sys_largefile_sensitive.m4 m4/ax_sys_perlsharpbang.m4 m4/ax_sys_weak_alias.m4 m4/ax_sysv_ipc.m4 m4/ax_tls.m4 m4/ax_trilinos_amesos.m4 m4/ax_trilinos_base.m4 m4/ax_trilinos_epetra.m4 m4/ax_trilinos_epetraext.m4 m4/ax_trilinos_epetraext_hdf5.m4 m4/ax_trilinos_rtop.m4 m4/ax_trilinos_rythmos.m4 m4/ax_trilinos_teuchos.m4 m4/ax_trilinos_thyra.m4 m4/ax_trilinos_thyra_epetra.m4 m4/ax_trilinos_thyra_epetraext.m4 m4/ax_try_awk_anyout.m4 m4/ax_try_awk_expout.m4 m4/ax_try_compile_java.m4 m4/ax_try_run_java.m4 m4/ax_type_socklen_t.m4 m4/ax_upload.m4 m4/ax_valgrind_check.m4 m4/ax_var_pop.m4 m4/ax_var_push.m4 m4/ax_var_timezone_externals.m4 m4/ax_very_nice.m4 m4/ax_warning_default_aclocaldir.m4 m4/ax_warning_default_pkgconfig.m4 m4/ax_wint_t.m4 '/tmp/portage/sys-devel/autoconf-archive-2019.01.06/image//usr/share/aclocal'
 /tmp/portage/._portage_reinstall_.z8sq2nh6/bin/ebuild-helpers/xattr/install -c -m 644 m4/ax_with_apxs.m4 m4/ax_with_build_path.m4 m4/ax_with_curses.m4 m4/ax_with_curses_extra.m4 m4/ax_with_dmalloc.m4 m4/ax_with_mpatrol.m4 m4/ax_with_prog.m4 m4/ax_xercesc.m4 m4/ax_xsdcxx.m4 m4/ax_xtra_classpath.m4 m4/ax_zmq.m4 m4/ax_zoneinfo.m4 '/tmp/portage/sys-devel/autoconf-archive-2019.01.06/image//usr/share/aclocal'
make[2]: Leaving directory '/tmp/portage/sys-devel/autoconf-archive-2019.01.06/work/autoconf-archive-2019.01.06'
make[1]: Leaving directory '/tmp/portage/sys-devel/autoconf-archive-2019.01.06/work/autoconf-archive-2019.01.06'
>>> Completed installing sys-devel/autoconf-archive-2019.01.06 into /tmp/portage/sys-devel/autoconf-archive-2019.01.06/image/

 * Final size of build directory: 8032 KiB (7.8 MiB)
 * Final size of installed tree:  4724 KiB (4.6 MiB)

Parallel BZIP2 v1.1.13 [Dec 18, 2015]
By: Jeff Gilchrist [http://compression.ca]
Major contributions: Yavor Nikolov [http://javornikolov.wordpress.com]
Uses libbzip2 by Julian Seward

         # CPUs: 2
   Load Average: 10.07
 BWT Block Size: 200 KB
File Block Size: 900 KB
 Maximum Memory: 1024 MB
-------------------------------------------
         File #: 1 of 1
     Input Name: compressme
    Output Name: compressme.bz2

     Input Size: 3895 bytes
Compressing data (no threads)...
Completed: 100%                 Output Size: 918 bytes
-------------------------------------------

     Wall Clock: 0.000994 seconds
Parallel BZIP2 v1.1.13 [Dec 18, 2015]
By: Jeff Gilchrist [http://compression.ca]
Major contributions: Yavor Nikolov [http://javornikolov.wordpress.com]
Uses libbzip2 by Julian Seward

         # CPUs: 2
   Load Average: 10.07
 BWT Block Size: 200 KB
File Block Size: 900 KB
 Maximum Memory: 1024 MB
-------------------------------------------
         File #: 1 of 1
     Input Name: /tmp/portage/sys-devel/autoconf-archive-2019.01.06/image/usr/share/info/autoconf-archive.info
    Output Name: /tmp/portage/sys-devel/autoconf-archive-2019.01.06/image/usr/share/info/autoconf-archive.info.bz2

     Input Size: 1124800 bytes
Compressing data...
Parallel BZIP2 v1.1.13 [Dec 18, 2015]
By: Jeff Gilchrist [http://compression.ca]
Major contributions: Yavor Nikolov [http://javornikolov.wordpress.com]
Uses libbzip2 by Julian Seward

         # CPUs: 2
   Load Average: 10.07
 BWT Block Size: 200 KB
File Block Size: 900 KB
 Maximum Memory: 1024 MB
-------------------------------------------
         File #: 1 of 1
     Input Name: /tmp/portage/sys-devel/autoconf-archive-2019.01.06/image/usr/share/doc/autoconf-archive-2019.01.06/TODO
    Output Name: /tmp/portage/sys-devel/autoconf-archive-2019.01.06/image/usr/share/doc/autoconf-archive-2019.01.06/TODO.bz2

     Input Size: 15949 bytes
Parallel BZIP2 v1.1.13 [Dec 18, 2015]
By: Jeff Gilchrist [http://compression.ca]
Major contributions: Yavor Nikolov [http://javornikolov.wordpress.com]
Uses libbzip2 by Julian Seward

         # CPUs: 2
   Load Average: 10.07
 BWT Block Size: 200 KB
File Block Size: 900 KB
 Maximum Memory: 1024 MB
-------------------------------------------
Compressing data (no threads)...
         File #: 1 of 1
     Input Name: /tmp/portage/sys-devel/autoconf-archive-2019.01.06/image/usr/share/doc/autoconf-archive-2019.01.06/ChangeLog
    Output Name: /tmp/portage/sys-devel/autoconf-archive-2019.01.06/image/usr/share/doc/autoconf-archive-2019.01.06/ChangeLog.bz2

     Input Size: 236384 bytes
Compressing data (no threads)...
Parallel BZIP2 v1.1.13 [Dec 18, 2015]
By: Jeff Gilchrist [http://compression.ca]
Major contributions: Yavor Nikolov [http://javornikolov.wordpress.com]
Uses libbzip2 by Julian Seward

         # CPUs: 2
   Load Average: 10.07
 BWT Block Size: 200 KB
File Block Size: 900 KB
 Maximum Memory: 1024 MB
-------------------------------------------
Parallel BZIP2 v1.1.13 [Dec 18, 2015]
By: Jeff Gilchrist [http://compression.ca]
         File #: 1 of 1
     Input Name: /tmp/portage/sys-devel/autoconf-archive-2019.01.06/image/usr/share/doc/autoconf-archive-2019.01.06/AUTHORS
    Output Name: /tmp/portage/sys-devel/autoconf-archive-2019.01.06/image/usr/share/doc/autoconf-archive-2019.01.06/AUTHORS.bz2

     Input Size: 6098 bytes
Completed: 100%             Compressing data (no threads)...
    Output Size: 4069 bytes
Major contributions: Yavor Nikolov [http://javornikolov.wordpress.com]
Uses libbzip2 by Julian Seward
-------------------------------------------

         # CPUs: 2
   Load Average: 10.07
 BWT Block Size: 200 KB
File Block Size: 900 KB
 Maximum Memory: 1024 MB
-------------------------------------------
         File #: 1 of 1
     Input Name: /tmp/portage/sys-devel/autoconf-archive-2019.01.06/image/usr/share/doc/autoconf-archive-2019.01.06/COPYING
    Output Name: /tmp/portage/sys-devel/autoconf-archive-2019.01.06/image/usr/share/doc/autoconf-archive-2019.01.06/COPYING.bz2

     Input Size: 35150 bytes
Compressing data (no threads)...
Completed: 100%                 Output Size: 3276 bytes
-------------------------------------------
Parallel BZIP2 v1.1.13 [Dec 18, 2015]
By: Jeff Gilchrist [http://compression.ca]
Major contributions: Yavor Nikolov [http://javornikolov.wordpress.com]
Uses libbzip2 by Julian Seward

         # CPUs: 2
   Load Average: 10.07

     Wall Clock: 0.004239 seconds
 BWT Block Size: 200 KB
File Block Size: 900 KB
 Maximum Memory: 1024 MB
-------------------------------------------
         File #: 1 of 1
     Input Name: /tmp/portage/sys-devel/autoconf-archive-2019.01.06/image/usr/share/doc/autoconf-archive-2019.01.06/NEWS
    Output Name: /tmp/portage/sys-devel/autoconf-archive-2019.01.06/image/usr/share/doc/autoconf-archive-2019.01.06/NEWS.bz2

     Input Size: 47469 bytes
Compressing data (no threads)...

     Wall Clock: 0.003482 seconds
Parallel BZIP2 v1.1.13 [Dec 18, 2015]
By: Jeff Gilchrist [http://compression.ca]
Major contributions: Yavor Nikolov [http://javornikolov.wordpress.com]
Uses libbzip2 by Julian Seward

         # CPUs: 2
   Load Average: 10.07
 BWT Block Size: 200 KB
File Block Size: 900 KB
 Maximum Memory: 1024 MB
-------------------------------------------
         File #: 1 of 1
     Input Name: /tmp/portage/sys-devel/autoconf-archive-2019.01.06/image/usr/share/doc/autoconf-archive-2019.01.06/COPYING.EXCEPTION
    Output Name: /tmp/portage/sys-devel/autoconf-archive-2019.01.06/image/usr/share/doc/autoconf-archive-2019.01.06/COPYING.EXCEPTION.bz2

     Input Size: 1865 bytes
Compressing data (no threads)...
Completed: 100%                 Output Size: 992 bytes
-------------------------------------------
Completed: 100%                 Output Size: 10707 bytes
-------------------------------------------

     Wall Clock: 0.004861 seconds

     Wall Clock: 0.001469 seconds
Completed: 100%                 Output Size: 12288 bytes
-------------------------------------------

     Wall Clock: 0.004511 seconds
Parallel BZIP2 v1.1.13 [Dec 18, 2015]
By: Jeff Gilchrist [http://compression.ca]
Major contributions: Yavor Nikolov [http://javornikolov.wordpress.com]
Uses libbzip2 by Julian Seward

         # CPUs: 2
   Load Average: 10.07
 BWT Block Size: 200 KB
File Block Size: 900 KB
 Maximum Memory: 1024 MB
-------------------------------------------
         File #: 1 of 1
     Input Name: /tmp/portage/sys-devel/autoconf-archive-2019.01.06/image/usr/share/doc/autoconf-archive-2019.01.06/README
    Output Name: /tmp/portage/sys-devel/autoconf-archive-2019.01.06/image/usr/share/doc/autoconf-archive-2019.01.06/README.bz2

     Input Size: 2923 bytes
Compressing data (no threads)...
Completed: 100%                 Output Size: 1438 bytes
-------------------------------------------

     Wall Clock: 0.001014 seconds
Completed: 100%                 Output Size: 67316 bytes
-------------------------------------------

     Wall Clock: 0.019089 seconds
Completed: 80%             Completed: 100%                 Output Size: 165502 bytes
Completed: 100%             -------------------------------------------

     Wall Clock: 0.070666 seconds
./
./usr/
./usr/share/
./usr/share/info/
./usr/share/info/autoconf-archive.info.bz2
./usr/share/info/autoconf-archive.info
./usr/share/aclocal/
./usr/share/aclocal/ax_lib_oracle_oci.m4
./usr/share/aclocal/ax_cxx_gcc_abi_demangle.m4
./usr/share/aclocal/ax_prog_javah.m4
./usr/share/aclocal/ax_check_awk_compl.m4
./usr/share/aclocal/ax_prog_java.m4
./usr/share/aclocal/ax_cxx_compile_stdcxx_17.m4
./usr/share/aclocal/ax_cxx_have_hash.m4
./usr/share/aclocal/ax_very_nice.m4
./usr/share/aclocal/ax_ext_have_lib.m4
./usr/share/aclocal/ax_cc_maxopt.m4
./usr/share/aclocal/ax_trilinos_amesos.m4
./usr/share/aclocal/ax_check_awk_operator_square.m4
./usr/share/aclocal/ax_prog_cxx_for_build.m4
./usr/share/aclocal/ax_prog_cc_for_build.m4
./usr/share/aclocal/ax_caolan_search_package.m4
./usr/share/aclocal/ax_gcc_archflag.m4
./usr/share/aclocal/ax_cxx_have_ext_hash_set.m4
./usr/share/aclocal/ax_cxx_have_bit_or.m4
./usr/share/aclocal/ax_dirname.m4
./usr/share/aclocal/ax_cxx_delete_method.m4
./usr/share/aclocal/ax_check_sign.m4
./usr/share/aclocal/ax_lib_beecrypt.m4
./usr/share/aclocal/ax_cxx_header_tr1_unordered_map.m4
./usr/share/aclocal/ax_compile_check_sizeof.m4
./usr/share/aclocal/ax_prog_nasm.m4
./usr/share/aclocal/ax_check_awk_array_delete_elem.m4
./usr/share/aclocal/ax_cxx_restrict_this.m4
./usr/share/aclocal/ax_boost_asio.m4
./usr/share/aclocal/ax_check_mysql_db.m4
./usr/share/aclocal/ax_strings_strcasecmp.m4
./usr/share/aclocal/ax_openmp.m4
./usr/share/aclocal/ax_pkg_mico.m4
./usr/share/aclocal/ax_have_adns.m4
./usr/share/aclocal/ax_prog_python_version.m4
./usr/share/aclocal/ax_build_date_epoch.m4
./usr/share/aclocal/ax_config_feature.m4
./usr/share/aclocal/ax_lib_xalan.m4
./usr/share/aclocal/ax_arg_with_path_style.m4
./usr/share/aclocal/ax_berkeley_db.m4
./usr/share/aclocal/ax_lib_ev.m4
./usr/share/aclocal/ax_configure_args.m4
./usr/share/aclocal/ax_code_coverage.m4
./usr/share/aclocal/ax_check_compile_flag.m4
./usr/share/aclocal/ax_check_awk_array_in.m4
./usr/share/aclocal/ax_append_flag.m4
./usr/share/aclocal/ax_boost_date_time.m4
./usr/share/aclocal/ax_ac_append_to_file.m4
./usr/share/aclocal/ax_boost_program_options.m4
./usr/share/aclocal/ax_append_link_flags.m4
./usr/share/aclocal/ax_cflags_irix_option.m4
./usr/share/aclocal/ax_define_integer_bits.m4
./usr/share/aclocal/ax_cxx_have_cref.m4
./usr/share/aclocal/ax_lib_samtools.m4
./usr/share/aclocal/ax_prog_flex.m4
./usr/share/aclocal/ax_swig_enable_cxx.m4
./usr/share/aclocal/ax_cxx_have_long_long_for_iostream.m4
./usr/share/aclocal/ax_cxx_have_bad_function_call.m4
./usr/share/aclocal/ax_prog_fasm.m4
./usr/share/aclocal/ax_check_vscript.m4
./usr/share/aclocal/ax_prog_java_works.m4
./usr/share/aclocal/ax_check_awk_user_defined_functions.m4
./usr/share/aclocal/ax_cxx_member_templates.m4
./usr/share/aclocal/ax_czmq.m4
./usr/share/aclocal/ax_prog_fc_mpi.m4
./usr/share/aclocal/ax_gcc_libgcc_eh.m4
./usr/share/aclocal/ax_java_check_class.m4
./usr/share/aclocal/ax_cxx_have_complex.m4
./usr/share/aclocal/ax_normalize_path.m4
./usr/share/aclocal/ax_patch_libtool_changing_cmds_ifs.m4
./usr/share/aclocal/ax_prototype_accept.m4
./usr/share/aclocal/ax_check_awk_gensub.m4
./usr/share/aclocal/ax_am_jobserver.m4
./usr/share/aclocal/ax_extend_srcdir.m4
./usr/share/aclocal/ax_c_float_words_bigendian.m4
./usr/share/aclocal/ax_try_run_java.m4
./usr/share/aclocal/ax_cxx_have_complex_math2.m4
./usr/share/aclocal/ax_cxx_typename.m4
./usr/share/aclocal/ax_printf_size_t.m4
./usr/share/aclocal/ax_gcc_lib.m4
./usr/share/aclocal/ax_lib_wad.m4
./usr/share/aclocal/ax_path_milter.m4
./usr/share/aclocal/ax_prog_hla_opt.m4
./usr/share/aclocal/ax_check_awk_ignorecase.m4
./usr/share/aclocal/ax_open62541_path.m4
./usr/share/aclocal/ax_cxx_gnucxx_hashmap.m4
./usr/share/aclocal/ax_check_uname_syscall.m4
./usr/share/aclocal/ax_add_recursive_am_macro.m4
./usr/share/aclocal/ax_compiler_flags_cflags.m4
./usr/share/aclocal/ax_check_openssl.m4
./usr/share/aclocal/ax_require_defined.m4
./usr/share/aclocal/ax_cxx_dtor_after_atexit.m4
./usr/share/aclocal/ax_llvm.m4
./usr/share/aclocal/ax_lib_trace.m4
./usr/share/aclocal/ax_prototype_setsockopt.m4
./usr/share/aclocal/ax_am_macros_static.m4
./usr/share/aclocal/ax_is_release.m4
./usr/share/aclocal/ax_lua.m4
./usr/share/aclocal/ax_ext.m4
./usr/share/aclocal/ax_prog_date.m4
./usr/share/aclocal/ax_f77_cmain_fflags.m4
./usr/share/aclocal/ax_cxx_have_ref.m4
./usr/share/aclocal/ax_cxx_extern_template.m4
./usr/share/aclocal/ax_prog_cc_char_subscripts.m4
./usr/share/aclocal/ax_python_module.m4
./usr/share/aclocal/ax_spec_file.m4
./usr/share/aclocal/ax_boost_python.m4
./usr/share/aclocal/ax_prog_bison.m4
./usr/share/aclocal/ax_perl_ext_flags.m4
./usr/share/aclocal/ax_prog_javac_works.m4
./usr/share/aclocal/ax_prog_emacs.m4
./usr/share/aclocal/ax_cxx_function_try_blocks.m4
./usr/share/aclocal/ax_include_strcasecmp.m4
./usr/share/aclocal/ax_with_prog.m4
./usr/share/aclocal/ax_cxx_have_bit_xor.m4
./usr/share/aclocal/ax_boost_filesystem.m4
./usr/share/aclocal/ax_cxx_template_qualified_base_class.m4
./usr/share/aclocal/ax_prog_fig2dev.m4
./usr/share/aclocal/ax_prog_mysqladmin.m4
./usr/share/aclocal/ax_print_to_file.m4
./usr/share/aclocal/ax_subdir_files.m4
./usr/share/aclocal/ax_cxx_have_sstream.m4
./usr/share/aclocal/ax_trilinos_base.m4
./usr/share/aclocal/ax_wint_t.m4
./usr/share/aclocal/ax_prog_httpd.m4
./usr/share/aclocal/ax_cxx_have_placeholders.m4
./usr/share/aclocal/ax_c_var_func.m4
./usr/share/aclocal/ax_cpu_freq.m4
./usr/share/aclocal/ax_zoneinfo.m4
./usr/share/aclocal/ax_cxx_have_is_bind_expression.m4
./usr/share/aclocal/ax_pgsql_priv_root.m4
./usr/share/aclocal/ax_boost_wave.m4
./usr/share/aclocal/ax_lapack.m4
./usr/share/aclocal/ax_check_awk_environ.m4
./usr/share/aclocal/ax_zmq.m4
./usr/share/aclocal/ax_prog_modprobe.m4
./usr/share/aclocal/ax_warning_default_pkgconfig.m4
./usr/share/aclocal/ax_f90_internal_headmod.m4
./usr/share/aclocal/ax_check_docbook_xslt.m4
./usr/share/aclocal/ax_path_bdb.m4
./usr/share/aclocal/ax_cxx_templates.m4
./usr/share/aclocal/ax_check_awk_asort.m4
./usr/share/aclocal/ax_check_typedef.m4
./usr/share/aclocal/ax_c_arithmetic_rshift.m4
./usr/share/aclocal/ax_compiler_flags_gir.m4
./usr/share/aclocal/ax_compiler_vendor.m4
./usr/share/aclocal/ax_cxx_header_stdcxx_98.m4
./usr/share/aclocal/ax_add_am_trilinos_makefile_export.m4
./usr/share/aclocal/ax_create_pkgconfig_info.m4
./usr/share/aclocal/ax_boost_wserialization.m4
./usr/share/aclocal/ax_cxx_explicit_instantiations.m4
./usr/share/aclocal/ax_expand_prefix.m4
./usr/share/aclocal/ax_xercesc.m4
./usr/share/aclocal/ax_try_awk_anyout.m4
./usr/share/aclocal/ax_prog_scalac.m4
./usr/share/aclocal/ax_check_awk_toupper.m4
./usr/share/aclocal/ax_var_push.m4
./usr/share/aclocal/ax_boost_regex.m4
./usr/share/aclocal/ax_cxx_explicit.m4
./usr/share/aclocal/ax_compute_relative_paths.m4
./usr/share/aclocal/ax_swig_multi_module_support.m4
./usr/share/aclocal/ax_cxx_have_bit_and.m4
./usr/share/aclocal/ax_asm_inline.m4
./usr/share/aclocal/ax_func_posix_memalign.m4
./usr/share/aclocal/ax_cxx_have_complex_math1.m4
./usr/share/aclocal/ax_lib_netcdf4.m4
./usr/share/aclocal/ax_check_awk_split.m4
./usr/share/aclocal/ax_find_hamcrest.m4
./usr/share/aclocal/ax_generate_changelog.m4
./usr/share/aclocal/ax_check_link_flag.m4
./usr/share/aclocal/ax_warning_default_aclocaldir.m4
./usr/share/aclocal/ax_cvs.m4
./usr/share/aclocal/ax_restore_flags.m4
./usr/share/aclocal/ax_prog_xsltproc.m4
./usr/share/aclocal/ax_prog_javac.m4
./usr/share/aclocal/ax_pkg_check_modules.m4
./usr/share/aclocal/ax_c_referenceable_passed_va_list.m4
./usr/share/aclocal/ax_prog_cp_s.m4
./usr/share/aclocal/ax_check_awk_sin.m4
./usr/share/aclocal/ax_f90_module_extension.m4
./usr/share/aclocal/ax_boost_log.m4
./usr/share/aclocal/ax_prog_masm.m4
./usr/share/aclocal/ax_check_awk_argind.m4
./usr/share/aclocal/ax_lib_taglib.m4
./usr/share/aclocal/ax_gcc_builtin.m4
./usr/share/aclocal/ax_cxx_compile_stdcxx_11.m4
./usr/share/aclocal/ax_add_recursive_am_macro_static.m4
./usr/share/aclocal/ax_cxx_cxxflags_std_lang.m4
./usr/share/aclocal/ax_add_am_macro.m4
./usr/share/aclocal/ax_check_awk_exit.m4
./usr/share/aclocal/ax_check_awk_sprintf.m4
./usr/share/aclocal/ax_check_docbook_dtd.m4
./usr/share/aclocal/ax_cxx_have_valarray.m4
./usr/share/aclocal/ax_boost_system.m4
./usr/share/aclocal/ax_boost_iostreams.m4
./usr/share/aclocal/ax_need_awk.m4
./usr/share/aclocal/ax_cxx_templates_as_template_arguments.m4
./usr/share/aclocal/ax_prog_javadoc.m4
./usr/share/aclocal/ax_cxx_have_mem_fn.m4
./usr/share/aclocal/ax_cpu_vendor.m4
./usr/share/aclocal/ax_prog_guile_version.m4
./usr/share/aclocal/ax_cxx_use_numtrait.m4
./usr/share/aclocal/ax_spec_package_version.m4
./usr/share/aclocal/ax_check_awk_log.m4
./usr/share/aclocal/ax_open62541_check_lib.m4
./usr/share/aclocal/ax_check_awk_xor.m4
./usr/share/aclocal/ax_check_girs_gjs.m4
./usr/share/aclocal/ax_check_awk_substr.m4
./usr/share/aclocal/ax_c_declare_block.m4
./usr/share/aclocal/ax_gcc_x86_cpu_supports.m4
./usr/share/aclocal/ax_prog_gjs.m4
./usr/share/aclocal/ax_prog_tasm_opt.m4
./usr/share/aclocal/ax_valgrind_check.m4
./usr/share/aclocal/ax_create_stdint_h.m4
./usr/share/aclocal/ax_open62541_check_h.m4
./usr/share/aclocal/ax_var_pop.m4
./usr/share/aclocal/ax_lib_xerces.m4
./usr/share/aclocal/ax_cflags_sun_option.m4
./usr/share/aclocal/ax_cxx_rtti.m4
./usr/share/aclocal/ax_check_icu.m4
./usr/share/aclocal/ax_struct_semun.m4
./usr/share/aclocal/ax_lib_upnp.m4
./usr/share/aclocal/ax_libgcj_jar.m4
./usr/share/aclocal/ax_prog_nasm_opt.m4
./usr/share/aclocal/ax_check_awk_and.m4
./usr/share/aclocal/ax_add_fortify_source.m4
./usr/share/aclocal/ax_cxx_exceptions.m4
./usr/share/aclocal/ax_check_awk_gsub.m4
./usr/share/aclocal/ax_check_awk_match_3parms.m4
./usr/share/aclocal/ax_have_epoll.m4
./usr/share/aclocal/ax_cxx_have_numeric_limits.m4
./usr/share/aclocal/ax_with_dmalloc.m4
./usr/share/aclocal/ax_boost_context.m4
./usr/share/aclocal/ax_split_version.m4
./usr/share/aclocal/ax_python_embed.m4
./usr/share/aclocal/ax_mpip.m4
./usr/share/aclocal/ax_lib_socket_nsl.m4
./usr/share/aclocal/ax_boost_thread.m4
./usr/share/aclocal/ax_gcc_func_attribute.m4
./usr/share/aclocal/ax_check_awk_var_regexp.m4
./usr/share/aclocal/ax_prog_tasm.m4
./usr/share/aclocal/ax_append_to_file.m4
./usr/share/aclocal/ax_prototype_getsockname.m4
./usr/share/aclocal/ax_perl_ext.m4
./usr/share/aclocal/ax_pthread.m4
./usr/share/aclocal/ax_cxx_reinterpret_cast.m4
./usr/share/aclocal/ax_check_awk_array_delete.m4
./usr/share/aclocal/ax_check_strcspn.m4
./usr/share/aclocal/ax_lib_mysqlcppconn.m4
./usr/share/aclocal/ax_check_sys_siglist.m4
./usr/share/aclocal/ax_prog_scp.m4
./usr/share/aclocal/ax_check_glx.m4
./usr/share/aclocal/ax_switch_flags.m4
./usr/share/aclocal/ax_check_gnu_make.m4
./usr/share/aclocal/ax_sys_largefile_sensitive.m4
./usr/share/aclocal/ax_forceinline.m4
./usr/share/aclocal/ax_check_preproc_flag.m4
./usr/share/aclocal/ax_func_memmove.m4
./usr/share/aclocal/ax_afs.m4
./usr/share/aclocal/ax_trilinos_teuchos.m4
./usr/share/aclocal/ax_compare_version.m4
./usr/share/aclocal/ax_missing_prog.m4
./usr/share/aclocal/ax_cxx_have_koenig_lookup.m4
./usr/share/aclocal/ax_check_awk_systime.m4
./usr/share/aclocal/ax_at_check_pattern.m4
./usr/share/aclocal/ax_check_awk_variable_value_pairs.m4
./usr/share/aclocal/ax_check_postgres_db.m4
./usr/share/aclocal/ax_trilinos_rythmos.m4
./usr/share/aclocal/ax_check_gl.m4
./usr/share/aclocal/ax_check_awk_asorti.m4
./usr/share/aclocal/ax_cxx_have_freeze_sstream.m4
./usr/share/aclocal/ax_check_define.m4
./usr/share/aclocal/ax_sys_dev_poll.m4
./usr/share/aclocal/ax_cxx_compile_stdcxx_14.m4
./usr/share/aclocal/ax_absolute_header.m4
./usr/share/aclocal/ax_lib_xml_security.m4
./usr/share/aclocal/ax_cxx_enum_computations_with_cast.m4
./usr/share/aclocal/ax_cflags_strict_prototypes.m4
./usr/share/aclocal/ax_check_gd.m4
./usr/share/aclocal/ax_cxx_header_pre_stdcxx.m4
./usr/share/aclocal/ax_boost_log_setup.m4
./usr/share/aclocal/ax_cxx_have_system_v_math.m4
./usr/share/aclocal/ax_cxx_static_cast.m4
./usr/share/aclocal/ax_am_macros.m4
./usr/share/aclocal/ax_lib_id3.m4
./usr/share/aclocal/ax_cxx_explicit_template_function_qualification.m4
./usr/share/aclocal/ax_java_options.m4
./usr/share/aclocal/ax_lib_cgal_core.m4
./usr/share/aclocal/ax_f90_header.m4
./usr/share/aclocal/ax_prog_cxx_mpi.m4
./usr/share/aclocal/ax_cxx_have_ext_hash_map.m4
./usr/share/aclocal/ax_boost_base.m4
./usr/share/aclocal/ax_trilinos_thyra.m4
./usr/share/aclocal/ax_prog_help2man.m4
./usr/share/aclocal/ax_prog_scala.m4
./usr/share/aclocal/ax_cxx_header_stdcxx_0x.m4
./usr/share/aclocal/ax_jni_include_dir.m4
./usr/share/aclocal/ax_check_java_plugin.m4
./usr/share/aclocal/ax_check_awk_strftime.m4
./usr/share/aclocal/ax_func_mkdir.m4
./usr/share/aclocal/ax_gcc_x86_cpuid.m4
./usr/share/aclocal/ax_set_default_paths_system.m4
./usr/share/aclocal/ax_path_lib_pcre.m4
./usr/share/aclocal/ax_append_compile_flags.m4
./usr/share/aclocal/ax_prog_yasm_opt.m4
./usr/share/aclocal/ax_elisp.m4
./usr/share/aclocal/ax_try_awk_expout.m4
./usr/share/aclocal/ax_check_mysqlr.m4
./usr/share/aclocal/ax_trilinos_epetra.m4
./usr/share/aclocal/ax_prog_ssh.m4
./usr/share/aclocal/ax_check_awk_match_2parms.m4
./usr/share/aclocal/ax_cxx_have_function.m4
./usr/share/aclocal/ax_ac_print_to_file.m4
./usr/share/aclocal/ax_have_qt.m4
./usr/share/aclocal/ax_prog_splint.m4
./usr/share/aclocal/ax_check_classpath.m4
./usr/share/aclocal/ax_add_am_macro_static.m4
./usr/share/aclocal/ax_auto_include_headers.m4
./usr/share/aclocal/ax_check_rqrd_class.m4
./usr/share/aclocal/ax_func_which_gethostbyname_r.m4
./usr/share/aclocal/ax_extra_dist.m4
./usr/share/aclocal/ax_prog_flex_version.m4
./usr/share/aclocal/ax_check_awk_cos.m4
./usr/share/aclocal/ax_boost_coroutine.m4
./usr/share/aclocal/ax_caolan_check_package.m4
./usr/share/aclocal/ax_cxx_header_unordered_map.m4
./usr/share/aclocal/ax_cxx_namespace_std.m4
./usr/share/aclocal/ax_prog_java_cc.m4
./usr/share/aclocal/ax_prog_mysql.m4
./usr/share/aclocal/ax_check_func_in.m4
./usr/share/aclocal/ax_cxx_template_keyword_qualifier.m4
./usr/share/aclocal/ax_check_struct_for.m4
./usr/share/aclocal/ax_boost_signals.m4
./usr/share/aclocal/ax_blas_f77_func.m4
./usr/share/aclocal/ax_cxx_ldflags_std_lang.m4
./usr/share/aclocal/ax_cxx_const_cast.m4
./usr/share/aclocal/ax_check_pathfind.m4
./usr/share/aclocal/ax_check_dos_filesys.m4
./usr/share/aclocal/ax_try_compile_java.m4
./usr/share/aclocal/ax_lib_nettle.m4
./usr/share/aclocal/ax_gcc_var_attribute.m4
./usr/share/aclocal/ax_berkeley_db_cxx.m4
./usr/share/aclocal/ax_lib_libkml.m4
./usr/share/aclocal/ax_compiler_version.m4
./usr/share/aclocal/ax_cxx_erase_iterator_type.m4
./usr/share/aclocal/ax_boost_locale.m4
./usr/share/aclocal/ax_prog_apache.m4
./usr/share/aclocal/ax_prog_tcl.m4
./usr/share/aclocal/ax_cxx_complex_math_in_namespace_std.m4
./usr/share/aclocal/ax_check_awk_index.m4
./usr/share/aclocal/ax_prog_pgclient.m4
./usr/share/aclocal/ax_lib_firebird.m4
./usr/share/aclocal/ax_lib_sqlite3.m4
./usr/share/aclocal/ax_check_posix_sysinfo.m4
./usr/share/aclocal/ax_string_strcasecmp.m4
./usr/share/aclocal/ax_check_awk_tolower.m4
./usr/share/aclocal/ax_cxx_var_prettyfunc.m4
./usr/share/aclocal/ax_func_which_getservbyname_r.m4
./usr/share/aclocal/ax_lib_hdf5.m4
./usr/share/aclocal/ax_tls.m4
./usr/share/aclocal/ax_sip_devel.m4
./usr/share/aclocal/ax_enable_builddir.m4
./usr/share/aclocal/ax_with_build_path.m4
./usr/share/aclocal/ax_check_awk_associative_array.m4
./usr/share/aclocal/ax_c___attribute__.m4
./usr/share/aclocal/ax_check_glu.m4
./usr/share/aclocal/ax_subdirs_configure.m4
./usr/share/aclocal/ax_swig_python.m4
./usr/share/aclocal/ax_dist_msi.m4
./usr/share/aclocal/ax_lib_nokalva.m4
./usr/share/aclocal/ax_check_awk_int.m4
./usr/share/aclocal/ax_check_pathname_style.m4
./usr/share/aclocal/ax_prog_hla.m4
./usr/share/aclocal/ax_c_long_long.m4
./usr/share/aclocal/ax_cxx_header_stdcxx_tr1.m4
./usr/share/aclocal/ax_boost_test_exec_monitor.m4
./usr/share/aclocal/ax_lib_gdal.m4
./usr/share/aclocal/ax_cflags_force_c89.m4
./usr/share/aclocal/ax_cxx_new_for_scoping.m4
./usr/share/aclocal/ax_check_awk__x_escapes.m4
./usr/share/aclocal/ax_prog_masm_opt.m4
./usr/share/aclocal/ax_lib_tabix.m4
./usr/share/aclocal/ax_lib_mysql.m4
./usr/share/aclocal/ax_check_symbol.m4
./usr/share/aclocal/ax_compiler_flags.m4
./usr/share/aclocal/ax_type_socklen_t.m4
./usr/share/aclocal/ax_lib_curl.m4
./usr/share/aclocal/ax_cflags_hpux_option.m4
./usr/share/aclocal/ax_gnu_autotest.m4
./usr/share/aclocal/ax_sys_perlsharpbang.m4
./usr/share/aclocal/ax_sysv_ipc.m4
./usr/share/aclocal/ax_gcc_libsupcxx.m4
./usr/share/aclocal/ax_r_package.m4
./usr/share/aclocal/ax_check_awk_strtonum.m4
./usr/share/aclocal/ax_check_mysql.m4
./usr/share/aclocal/ax_check_gir_symbols_gjs.m4
./usr/share/aclocal/ax_trilinos_epetraext.m4
./usr/share/aclocal/ax_check_awk_rand.m4
./usr/share/aclocal/ax_prog_mysqlshow.m4
./usr/share/aclocal/ax_cond_with_level.m4
./usr/share/aclocal/ax_blas.m4
./usr/share/aclocal/ax_check_pgsql_db.m4
./usr/share/aclocal/ax_cxx_rvalue_references.m4
./usr/share/aclocal/ax_subst_with.m4
./usr/share/aclocal/ax_create_generic_config.m4
./usr/share/aclocal/ax_cxx_have_vector_at.m4
./usr/share/aclocal/ax_prog_md5sum.m4
./usr/share/aclocal/ax_cxx_member_constants.m4
./usr/share/aclocal/ax_var_timezone_externals.m4
./usr/share/aclocal/ax_with_curses_extra.m4
./usr/share/aclocal/ax_have_select.m4
./usr/share/aclocal/ax_cxx_full_specialization_syntax.m4
./usr/share/aclocal/ax_prog_f77_mpi.m4
./usr/share/aclocal/ax_check_awk_sqrt.m4
./usr/share/aclocal/ax_short_sleep.m4
./usr/share/aclocal/ax_cxx_have_is_placeholder.m4
./usr/share/aclocal/ax_lib_expat.m4
./usr/share/aclocal/ax_cxx_partial_ordering.m4
./usr/share/aclocal/ax_func_accept_argtypes.m4
./usr/share/aclocal/ax_pkg_swig.m4
./usr/share/aclocal/ax_python_devel.m4
./usr/share/aclocal/ax_check_aligned_access_required.m4
./usr/share/aclocal/ax_with_curses.m4
./usr/share/aclocal/ax_check_allocated_ctime.m4
./usr/share/aclocal/ax_boost_serialization.m4
./usr/share/aclocal/ax_prefix_config_h.m4
./usr/share/aclocal/ax_numeric_namedlevel.m4
./usr/share/aclocal/ax_check_awk_length.m4
./usr/share/aclocal/ax_compiler_flags_ldflags.m4
./usr/share/aclocal/ax_check_awk_lshift.m4
./usr/share/aclocal/ax_check_awk_atan2.m4
./usr/share/aclocal/ax_check_awk_exp.m4
./usr/share/aclocal/ax_prog_doxygen.m4
./usr/share/aclocal/ax_cxx_cppflags_std_lang.m4
./usr/share/aclocal/ax_prog_mysqlimport.m4
./usr/share/aclocal/ax_check_library.m4
./usr/share/aclocal/ax_check_awk_errno.m4
./usr/share/aclocal/ax_prog_ruby_version.m4
./usr/share/aclocal/ax_prototype.m4
./usr/share/aclocal/ax_upload.m4
./usr/share/aclocal/ax_rpm_init.m4
./usr/share/aclocal/ax_cxx_have_stl.m4
./usr/share/aclocal/ax_cxx_compile_stdcxx_0x.m4
./usr/share/aclocal/ax_recursive_eval.m4
./usr/share/aclocal/ax_prog_perl_version.m4
./usr/share/aclocal/ax_check_enable_debug.m4
./usr/share/aclocal/ax_path_generic.m4
./usr/share/aclocal/ax_restore_flags_with_prefix.m4
./usr/share/aclocal/ax_trilinos_thyra_epetra.m4
./usr/share/aclocal/ax_check_user.m4
./usr/share/aclocal/ax_install_files.m4
./usr/share/aclocal/ax_save_flags.m4
./usr/share/aclocal/ax_cflags_aix_option.m4
./usr/share/aclocal/ax_lib_oracle_occi.m4
./usr/share/aclocal/ax_gcc_malloc_call.m4
./usr/share/aclocal/ax_cxx_have_std.m4
./usr/share/aclocal/ax_check_java_home.m4
./usr/share/aclocal/ax_cxx_template_qualified_return_type.m4
./usr/share/aclocal/ax_check_awk_sub.m4
./usr/share/aclocal/ax_check_glut.m4
./usr/share/aclocal/ax_check_awk_rshift.m4
./usr/share/aclocal/ax_gcc_warn_unused_result.m4
./usr/share/aclocal/ax_find_scala_stdlib.m4
./usr/share/aclocal/ax_gcc_const_call.m4
./usr/share/aclocal/ax_xtra_classpath.m4
./usr/share/aclocal/ax_check_zlib.m4
./usr/share/aclocal/ax_mpi.m4
./usr/share/aclocal/ax_cxx_header_tr1_unordered_set.m4
./usr/share/aclocal/ax_cxx_have_ext_slist.m4
./usr/share/aclocal/ax_ruby_devel.m4
./usr/share/aclocal/ax_cache_size.m4
./usr/share/aclocal/ax_check_page_aligned_malloc.m4
./usr/share/aclocal/ax_cxx_namespaces.m4
./usr/share/aclocal/ax_cxx_old_for_scoping.m4
./usr/share/aclocal/ax_check_awk_getline.m4
./usr/share/aclocal/ax_cxx_stlport_hashmap.m4
./usr/share/aclocal/ax_cxx_have_reference_wrapper.m4
./usr/share/aclocal/ax_cxx_bool.m4
./usr/share/aclocal/ax_find_junit.m4
./usr/share/aclocal/ax_python_config_var.m4
./usr/share/aclocal/ax_prog_mysqld.m4
./usr/share/aclocal/ax_trilinos_rtop.m4
./usr/share/aclocal/ax_trilinos_epetraext_hdf5.m4
./usr/share/aclocal/ax_check_posix_regcomp.m4
./usr/share/aclocal/ax_decl_wchar_max.m4
./usr/share/aclocal/ax_lib_readline.m4
./usr/share/aclocal/ax_python.m4
./usr/share/aclocal/ax_not_enable_frame_pointer.m4
./usr/share/aclocal/ax_with_mpatrol.m4
./usr/share/aclocal/ax_have_poll.m4
./usr/share/aclocal/ax_prog_jar.m4
./usr/share/aclocal/ax_check_awk_operator_multiply_multiply.m4
./usr/share/aclocal/ax_silent_mode.m4
./usr/share/aclocal/ax_cxx_function_nontype_parameters.m4
./usr/share/aclocal/ax_func_getopt_long.m4
./usr/share/aclocal/ax_f90_module_flag.m4
./usr/share/aclocal/ax_gcc_x86_avx_xgetbv.m4
./usr/share/aclocal/ax_ext_check_header.m4
./usr/share/aclocal/ax_check_awk_or.m4
./usr/share/aclocal/ax_execinfo.m4
./usr/share/aclocal/ax_cc_for_build.m4
./usr/share/aclocal/ax_check_junit.m4
./usr/share/aclocal/ax_cxx_default_template_parameters.m4
./usr/share/aclocal/ax_ruby_ext.m4
./usr/share/aclocal/ax_compiler_flags_cxxflags.m4
./usr/share/aclocal/ax_check_awk_system.m4
./usr/share/aclocal/ax_compute_standard_relative_paths.m4
./usr/share/aclocal/ax_save_flags_with_prefix.m4
./usr/share/aclocal/ax_check_awk_conditional_expression.m4
./usr/share/aclocal/ax_file_escapes.m4
./usr/share/aclocal/ax_lib_metis.m4
./usr/share/aclocal/ax_libtoolize_cflags.m4
./usr/share/aclocal/ax_f90_library.m4
./usr/share/aclocal/ax_cxx_partial_specialization.m4
./usr/share/aclocal/ax_path_missing.m4
./usr/share/aclocal/ax_check_awk__v.m4
./usr/share/aclocal/ax_cxx_enum_computations.m4
./usr/share/aclocal/ax_fc_check_define.m4
./usr/share/aclocal/ax_sys_weak_alias.m4
./usr/share/aclocal/ax_func_snprintf.m4
./usr/share/aclocal/ax_count_cpus.m4
./usr/share/aclocal/ax_cxx_member_templates_outside_class.m4
./usr/share/aclocal/ax_c_compile_value.m4
./usr/share/aclocal/ax_cxx_dynamic_cast.m4
./usr/share/aclocal/ax_check_class.m4
./usr/share/aclocal/ax_check_x86_features.m4
./usr/share/aclocal/ax_prog_dotnetcore_version.m4
./usr/share/aclocal/ax_prog_perl_modules.m4
./usr/share/aclocal/ax_prog_fasm_opt.m4
./usr/share/aclocal/ax_f90_library_setup.m4
./usr/share/aclocal/ax_c99_inline.m4
./usr/share/aclocal/ax_boost_unit_test_framework.m4
./usr/share/aclocal/ax_cxx_template_scoped_argument_matching.m4
./usr/share/aclocal/ax_lib_orbit2.m4
./usr/share/aclocal/ax_perl_module_version.m4
./usr/share/aclocal/ax_prog_cc_mpi.m4
./usr/share/aclocal/ax_prog_yasm.m4
./usr/share/aclocal/ax_cxx_have_ieee_math.m4
./usr/share/aclocal/ax_cxx_compile_stdcxx.m4
./usr/share/aclocal/ax_prog_crontab.m4
./usr/share/aclocal/ax_luarocks_rock.m4
./usr/share/aclocal/ax_define_sub_path.m4
./usr/share/aclocal/ax_xsdcxx.m4
./usr/share/aclocal/ax_am_override_var.m4
./usr/share/aclocal/ax_cxx_have_string_push_back.m4
./usr/share/aclocal/ax_lib_postgresql.m4
./usr/share/aclocal/ax_dist_rpm.m4
./usr/share/aclocal/ax_cxx_have_empty_iostream.m4
./usr/share/aclocal/ax_prog_bison_version.m4
./usr/share/aclocal/ax_check_docbook_xslt_min.m4
./usr/share/aclocal/ax_lib_gcrypt.m4
./usr/share/aclocal/ax_create_target_h.m4
./usr/share/aclocal/ax_python_module_version.m4
./usr/share/aclocal/ax_trilinos_thyra_epetraext.m4
./usr/share/aclocal/ax_cxx_mutable.m4
./usr/share/aclocal/ax_dll_string.m4
./usr/share/aclocal/ax_check_off64_t.m4
./usr/share/aclocal/ax_cf_ebcdic.m4
./usr/share/aclocal/ax_cxx_have_bind.m4
./usr/share/aclocal/ax_f90_module.m4
./usr/share/aclocal/ax_lib_crypto.m4
./usr/share/aclocal/ax_cxx_header_unordered_set.m4
./usr/share/aclocal/ax_maintainer_mode_auto_silent.m4
./usr/share/aclocal/ax_require_one_func.m4
./usr/share/aclocal/ax_check_awk_printf.m4
./usr/share/aclocal/ax_boost_chrono.m4
./usr/share/aclocal/ax_check_strftime.m4
./usr/share/aclocal/ax_with_apxs.m4
./usr/share/aclocal/ax_cflags_no_writable_strings.m4
./usr/share/aclocal/ax_prog_haxe_version.m4
./usr/share/aclocal/ax_cflags_warn_all.m4
./usr/share/aclocal/ax_cxx_verbose_terminate_handler.m4
./usr/share/aclocal/ax_check_awk_srand.m4
./usr/share/doc/
./usr/share/doc/autoconf-archive-2019.01.06/
./usr/share/doc/autoconf-archive-2019.01.06/README
./usr/share/doc/autoconf-archive-2019.01.06/ChangeLog
./usr/share/doc/autoconf-archive-2019.01.06/TODO.bz2
./usr/share/doc/autoconf-archive-2019.01.06/README.bz2
./usr/share/doc/autoconf-archive-2019.01.06/ChangeLog.bz2
./usr/share/doc/autoconf-archive-2019.01.06/NEWS
./usr/share/doc/autoconf-archive-2019.01.06/AUTHORS
./usr/share/doc/autoconf-archive-2019.01.06/AUTHORS.bz2
./usr/share/doc/autoconf-archive-2019.01.06/COPYING
./usr/share/doc/autoconf-archive-2019.01.06/COPYING.EXCEPTION
./usr/share/doc/autoconf-archive-2019.01.06/NEWS.bz2
./usr/share/doc/autoconf-archive-2019.01.06/COPYING.EXCEPTION.bz2
./usr/share/doc/autoconf-archive-2019.01.06/TODO
./usr/share/doc/autoconf-archive-2019.01.06/COPYING.bz2
>>> Done.
 * checking 574 files for package collisions
>>> Merging sys-devel/autoconf-archive-2019.01.06 to /
 * removing unneeded *.la files
--- /usr/
--- /usr/share/
--- /usr/share/aclocal/
>>> /usr/share/aclocal/ax_check_awk_srand.m4
>>> /usr/share/aclocal/ax_cxx_verbose_terminate_handler.m4
>>> /usr/share/aclocal/ax_cflags_warn_all.m4
>>> /usr/share/aclocal/ax_prog_haxe_version.m4
>>> /usr/share/aclocal/ax_cflags_no_writable_strings.m4
>>> /usr/share/aclocal/ax_with_apxs.m4
>>> /usr/share/aclocal/ax_check_strftime.m4
>>> /usr/share/aclocal/ax_boost_chrono.m4
>>> /usr/share/aclocal/ax_check_awk_printf.m4
>>> /usr/share/aclocal/ax_require_one_func.m4
>>> /usr/share/aclocal/ax_maintainer_mode_auto_silent.m4
>>> /usr/share/aclocal/ax_cxx_header_unordered_set.m4
>>> /usr/share/aclocal/ax_lib_crypto.m4
>>> /usr/share/aclocal/ax_f90_module.m4
>>> /usr/share/aclocal/ax_cxx_have_bind.m4
>>> /usr/share/aclocal/ax_cf_ebcdic.m4
>>> /usr/share/aclocal/ax_check_off64_t.m4
>>> /usr/share/aclocal/ax_dll_string.m4
>>> /usr/share/aclocal/ax_cxx_mutable.m4
>>> /usr/share/aclocal/ax_trilinos_thyra_epetraext.m4
>>> /usr/share/aclocal/ax_python_module_version.m4
>>> /usr/share/aclocal/ax_create_target_h.m4
>>> /usr/share/aclocal/ax_lib_gcrypt.m4
>>> /usr/share/aclocal/ax_check_docbook_xslt_min.m4
>>> /usr/share/aclocal/ax_prog_bison_version.m4
>>> /usr/share/aclocal/ax_cxx_have_empty_iostream.m4
>>> /usr/share/aclocal/ax_dist_rpm.m4
>>> /usr/share/aclocal/ax_lib_postgresql.m4
>>> /usr/share/aclocal/ax_cxx_have_string_push_back.m4
>>> /usr/share/aclocal/ax_am_override_var.m4
>>> /usr/share/aclocal/ax_xsdcxx.m4
>>> /usr/share/aclocal/ax_define_sub_path.m4
>>> /usr/share/aclocal/ax_luarocks_rock.m4
>>> /usr/share/aclocal/ax_prog_crontab.m4
>>> /usr/share/aclocal/ax_cxx_compile_stdcxx.m4
>>> /usr/share/aclocal/ax_cxx_have_ieee_math.m4
>>> /usr/share/aclocal/ax_prog_yasm.m4
>>> /usr/share/aclocal/ax_prog_cc_mpi.m4
>>> /usr/share/aclocal/ax_perl_module_version.m4
>>> /usr/share/aclocal/ax_lib_orbit2.m4
>>> /usr/share/aclocal/ax_cxx_template_scoped_argument_matching.m4
>>> /usr/share/aclocal/ax_boost_unit_test_framework.m4
>>> /usr/share/aclocal/ax_c99_inline.m4
>>> /usr/share/aclocal/ax_f90_library_setup.m4
>>> /usr/share/aclocal/ax_prog_fasm_opt.m4
>>> /usr/share/aclocal/ax_prog_perl_modules.m4
>>> /usr/share/aclocal/ax_prog_dotnetcore_version.m4
>>> /usr/share/aclocal/ax_check_x86_features.m4
>>> /usr/share/aclocal/ax_check_class.m4
>>> /usr/share/aclocal/ax_cxx_dynamic_cast.m4
>>> /usr/share/aclocal/ax_c_compile_value.m4
>>> /usr/share/aclocal/ax_cxx_member_templates_outside_class.m4
>>> /usr/share/aclocal/ax_count_cpus.m4
>>> /usr/share/aclocal/ax_func_snprintf.m4
>>> /usr/share/aclocal/ax_sys_weak_alias.m4
>>> /usr/share/aclocal/ax_fc_check_define.m4
>>> /usr/share/aclocal/ax_cxx_enum_computations.m4
>>> /usr/share/aclocal/ax_check_awk__v.m4
>>> /usr/share/aclocal/ax_path_missing.m4
>>> /usr/share/aclocal/ax_cxx_partial_specialization.m4
>>> /usr/share/aclocal/ax_f90_library.m4
>>> /usr/share/aclocal/ax_libtoolize_cflags.m4
>>> /usr/share/aclocal/ax_lib_metis.m4
>>> /usr/share/aclocal/ax_file_escapes.m4
>>> /usr/share/aclocal/ax_check_awk_conditional_expression.m4
>>> /usr/share/aclocal/ax_save_flags_with_prefix.m4
>>> /usr/share/aclocal/ax_compute_standard_relative_paths.m4
>>> /usr/share/aclocal/ax_check_awk_system.m4
>>> /usr/share/aclocal/ax_compiler_flags_cxxflags.m4
>>> /usr/share/aclocal/ax_ruby_ext.m4
>>> /usr/share/aclocal/ax_cxx_default_template_parameters.m4
>>> /usr/share/aclocal/ax_check_junit.m4
>>> /usr/share/aclocal/ax_cc_for_build.m4
>>> /usr/share/aclocal/ax_execinfo.m4
>>> /usr/share/aclocal/ax_check_awk_or.m4
>>> /usr/share/aclocal/ax_ext_check_header.m4
>>> /usr/share/aclocal/ax_gcc_x86_avx_xgetbv.m4
>>> /usr/share/aclocal/ax_f90_module_flag.m4
>>> /usr/share/aclocal/ax_func_getopt_long.m4
>>> /usr/share/aclocal/ax_cxx_function_nontype_parameters.m4
>>> /usr/share/aclocal/ax_silent_mode.m4
>>> /usr/share/aclocal/ax_check_awk_operator_multiply_multiply.m4
>>> /usr/share/aclocal/ax_prog_jar.m4
>>> /usr/share/aclocal/ax_have_poll.m4
>>> /usr/share/aclocal/ax_with_mpatrol.m4
>>> /usr/share/aclocal/ax_not_enable_frame_pointer.m4
>>> /usr/share/aclocal/ax_python.m4
>>> /usr/share/aclocal/ax_lib_readline.m4
>>> /usr/share/aclocal/ax_decl_wchar_max.m4
>>> /usr/share/aclocal/ax_check_posix_regcomp.m4
>>> /usr/share/aclocal/ax_trilinos_epetraext_hdf5.m4
>>> /usr/share/aclocal/ax_trilinos_rtop.m4
>>> /usr/share/aclocal/ax_prog_mysqld.m4
>>> /usr/share/aclocal/ax_python_config_var.m4
>>> /usr/share/aclocal/ax_find_junit.m4
>>> /usr/share/aclocal/ax_cxx_bool.m4
>>> /usr/share/aclocal/ax_cxx_have_reference_wrapper.m4
>>> /usr/share/aclocal/ax_cxx_stlport_hashmap.m4
>>> /usr/share/aclocal/ax_check_awk_getline.m4
>>> /usr/share/aclocal/ax_cxx_old_for_scoping.m4
>>> /usr/share/aclocal/ax_cxx_namespaces.m4
>>> /usr/share/aclocal/ax_check_page_aligned_malloc.m4
>>> /usr/share/aclocal/ax_cache_size.m4
>>> /usr/share/aclocal/ax_ruby_devel.m4
>>> /usr/share/aclocal/ax_cxx_have_ext_slist.m4
>>> /usr/share/aclocal/ax_cxx_header_tr1_unordered_set.m4
>>> /usr/share/aclocal/ax_mpi.m4
>>> /usr/share/aclocal/ax_check_zlib.m4
>>> /usr/share/aclocal/ax_xtra_classpath.m4
>>> /usr/share/aclocal/ax_gcc_const_call.m4
>>> /usr/share/aclocal/ax_find_scala_stdlib.m4
>>> /usr/share/aclocal/ax_gcc_warn_unused_result.m4
>>> /usr/share/aclocal/ax_check_awk_rshift.m4
>>> /usr/share/aclocal/ax_check_glut.m4
>>> /usr/share/aclocal/ax_check_awk_sub.m4
>>> /usr/share/aclocal/ax_cxx_template_qualified_return_type.m4
>>> /usr/share/aclocal/ax_check_java_home.m4
>>> /usr/share/aclocal/ax_cxx_have_std.m4
>>> /usr/share/aclocal/ax_gcc_malloc_call.m4
>>> /usr/share/aclocal/ax_lib_oracle_occi.m4
>>> /usr/share/aclocal/ax_cflags_aix_option.m4
>>> /usr/share/aclocal/ax_save_flags.m4
>>> /usr/share/aclocal/ax_install_files.m4
>>> /usr/share/aclocal/ax_check_user.m4
>>> /usr/share/aclocal/ax_trilinos_thyra_epetra.m4
>>> /usr/share/aclocal/ax_restore_flags_with_prefix.m4
>>> /usr/share/aclocal/ax_path_generic.m4
>>> /usr/share/aclocal/ax_check_enable_debug.m4
>>> /usr/share/aclocal/ax_prog_perl_version.m4
>>> /usr/share/aclocal/ax_recursive_eval.m4
>>> /usr/share/aclocal/ax_cxx_compile_stdcxx_0x.m4
>>> /usr/share/aclocal/ax_cxx_have_stl.m4
>>> /usr/share/aclocal/ax_rpm_init.m4
>>> /usr/share/aclocal/ax_upload.m4
>>> /usr/share/aclocal/ax_prototype.m4
>>> /usr/share/aclocal/ax_prog_ruby_version.m4
>>> /usr/share/aclocal/ax_check_awk_errno.m4
>>> /usr/share/aclocal/ax_check_library.m4
>>> /usr/share/aclocal/ax_prog_mysqlimport.m4
>>> /usr/share/aclocal/ax_cxx_cppflags_std_lang.m4
>>> /usr/share/aclocal/ax_prog_doxygen.m4
>>> /usr/share/aclocal/ax_check_awk_exp.m4
>>> /usr/share/aclocal/ax_check_awk_atan2.m4
>>> /usr/share/aclocal/ax_check_awk_lshift.m4
>>> /usr/share/aclocal/ax_compiler_flags_ldflags.m4
>>> /usr/share/aclocal/ax_check_awk_length.m4
>>> /usr/share/aclocal/ax_numeric_namedlevel.m4
>>> /usr/share/aclocal/ax_prefix_config_h.m4
>>> /usr/share/aclocal/ax_boost_serialization.m4
>>> /usr/share/aclocal/ax_check_allocated_ctime.m4
>>> /usr/share/aclocal/ax_with_curses.m4
>>> /usr/share/aclocal/ax_check_aligned_access_required.m4
>>> /usr/share/aclocal/ax_python_devel.m4
>>> /usr/share/aclocal/ax_pkg_swig.m4
>>> /usr/share/aclocal/ax_func_accept_argtypes.m4
>>> /usr/share/aclocal/ax_cxx_partial_ordering.m4
>>> /usr/share/aclocal/ax_lib_expat.m4
>>> /usr/share/aclocal/ax_cxx_have_is_placeholder.m4
>>> /usr/share/aclocal/ax_short_sleep.m4
>>> /usr/share/aclocal/ax_check_awk_sqrt.m4
>>> /usr/share/aclocal/ax_prog_f77_mpi.m4
>>> /usr/share/aclocal/ax_cxx_full_specialization_syntax.m4
>>> /usr/share/aclocal/ax_have_select.m4
>>> /usr/share/aclocal/ax_with_curses_extra.m4
>>> /usr/share/aclocal/ax_var_timezone_externals.m4
>>> /usr/share/aclocal/ax_cxx_member_constants.m4
>>> /usr/share/aclocal/ax_prog_md5sum.m4
>>> /usr/share/aclocal/ax_cxx_have_vector_at.m4
>>> /usr/share/aclocal/ax_create_generic_config.m4
>>> /usr/share/aclocal/ax_subst_with.m4
>>> /usr/share/aclocal/ax_cxx_rvalue_references.m4
>>> /usr/share/aclocal/ax_check_pgsql_db.m4
>>> /usr/share/aclocal/ax_blas.m4
>>> /usr/share/aclocal/ax_cond_with_level.m4
>>> /usr/share/aclocal/ax_prog_mysqlshow.m4
>>> /usr/share/aclocal/ax_check_awk_rand.m4
>>> /usr/share/aclocal/ax_trilinos_epetraext.m4
>>> /usr/share/aclocal/ax_check_gir_symbols_gjs.m4
>>> /usr/share/aclocal/ax_check_mysql.m4
>>> /usr/share/aclocal/ax_check_awk_strtonum.m4
>>> /usr/share/aclocal/ax_r_package.m4
>>> /usr/share/aclocal/ax_gcc_libsupcxx.m4
>>> /usr/share/aclocal/ax_sysv_ipc.m4
>>> /usr/share/aclocal/ax_sys_perlsharpbang.m4
>>> /usr/share/aclocal/ax_gnu_autotest.m4
>>> /usr/share/aclocal/ax_cflags_hpux_option.m4
>>> /usr/share/aclocal/ax_lib_curl.m4
>>> /usr/share/aclocal/ax_type_socklen_t.m4
>>> /usr/share/aclocal/ax_compiler_flags.m4
>>> /usr/share/aclocal/ax_check_symbol.m4
>>> /usr/share/aclocal/ax_lib_mysql.m4
>>> /usr/share/aclocal/ax_lib_tabix.m4
>>> /usr/share/aclocal/ax_prog_masm_opt.m4
>>> /usr/share/aclocal/ax_check_awk__x_escapes.m4
>>> /usr/share/aclocal/ax_cxx_new_for_scoping.m4
>>> /usr/share/aclocal/ax_cflags_force_c89.m4
>>> /usr/share/aclocal/ax_lib_gdal.m4
>>> /usr/share/aclocal/ax_boost_test_exec_monitor.m4
>>> /usr/share/aclocal/ax_cxx_header_stdcxx_tr1.m4
>>> /usr/share/aclocal/ax_c_long_long.m4
>>> /usr/share/aclocal/ax_prog_hla.m4
>>> /usr/share/aclocal/ax_check_pathname_style.m4
>>> /usr/share/aclocal/ax_check_awk_int.m4
>>> /usr/share/aclocal/ax_lib_nokalva.m4
>>> /usr/share/aclocal/ax_dist_msi.m4
>>> /usr/share/aclocal/ax_swig_python.m4
>>> /usr/share/aclocal/ax_subdirs_configure.m4
>>> /usr/share/aclocal/ax_check_glu.m4
>>> /usr/share/aclocal/ax_c___attribute__.m4
>>> /usr/share/aclocal/ax_check_awk_associative_array.m4
>>> /usr/share/aclocal/ax_with_build_path.m4
>>> /usr/share/aclocal/ax_enable_builddir.m4
>>> /usr/share/aclocal/ax_sip_devel.m4
>>> /usr/share/aclocal/ax_tls.m4
>>> /usr/share/aclocal/ax_lib_hdf5.m4
>>> /usr/share/aclocal/ax_func_which_getservbyname_r.m4
>>> /usr/share/aclocal/ax_cxx_var_prettyfunc.m4
>>> /usr/share/aclocal/ax_check_awk_tolower.m4
>>> /usr/share/aclocal/ax_string_strcasecmp.m4
>>> /usr/share/aclocal/ax_check_posix_sysinfo.m4
>>> /usr/share/aclocal/ax_lib_sqlite3.m4
>>> /usr/share/aclocal/ax_lib_firebird.m4
>>> /usr/share/aclocal/ax_prog_pgclient.m4
>>> /usr/share/aclocal/ax_check_awk_index.m4
>>> /usr/share/aclocal/ax_cxx_complex_math_in_namespace_std.m4
>>> /usr/share/aclocal/ax_prog_tcl.m4
>>> /usr/share/aclocal/ax_prog_apache.m4
>>> /usr/share/aclocal/ax_boost_locale.m4
>>> /usr/share/aclocal/ax_cxx_erase_iterator_type.m4
>>> /usr/share/aclocal/ax_compiler_version.m4
>>> /usr/share/aclocal/ax_lib_libkml.m4
>>> /usr/share/aclocal/ax_berkeley_db_cxx.m4
>>> /usr/share/aclocal/ax_gcc_var_attribute.m4
>>> /usr/share/aclocal/ax_lib_nettle.m4
>>> /usr/share/aclocal/ax_try_compile_java.m4
>>> /usr/share/aclocal/ax_check_dos_filesys.m4
>>> /usr/share/aclocal/ax_check_pathfind.m4
>>> /usr/share/aclocal/ax_cxx_const_cast.m4
>>> /usr/share/aclocal/ax_cxx_ldflags_std_lang.m4
>>> /usr/share/aclocal/ax_blas_f77_func.m4
>>> /usr/share/aclocal/ax_boost_signals.m4
>>> /usr/share/aclocal/ax_check_struct_for.m4
>>> /usr/share/aclocal/ax_cxx_template_keyword_qualifier.m4
>>> /usr/share/aclocal/ax_check_func_in.m4
>>> /usr/share/aclocal/ax_prog_mysql.m4
>>> /usr/share/aclocal/ax_prog_java_cc.m4
>>> /usr/share/aclocal/ax_cxx_namespace_std.m4
>>> /usr/share/aclocal/ax_cxx_header_unordered_map.m4
>>> /usr/share/aclocal/ax_caolan_check_package.m4
>>> /usr/share/aclocal/ax_boost_coroutine.m4
>>> /usr/share/aclocal/ax_check_awk_cos.m4
>>> /usr/share/aclocal/ax_prog_flex_version.m4
>>> /usr/share/aclocal/ax_extra_dist.m4
>>> /usr/share/aclocal/ax_func_which_gethostbyname_r.m4
>>> /usr/share/aclocal/ax_check_rqrd_class.m4
>>> /usr/share/aclocal/ax_auto_include_headers.m4
>>> /usr/share/aclocal/ax_add_am_macro_static.m4
>>> /usr/share/aclocal/ax_check_classpath.m4
>>> /usr/share/aclocal/ax_prog_splint.m4
>>> /usr/share/aclocal/ax_have_qt.m4
>>> /usr/share/aclocal/ax_ac_print_to_file.m4
>>> /usr/share/aclocal/ax_cxx_have_function.m4
>>> /usr/share/aclocal/ax_check_awk_match_2parms.m4
>>> /usr/share/aclocal/ax_prog_ssh.m4
>>> /usr/share/aclocal/ax_trilinos_epetra.m4
>>> /usr/share/aclocal/ax_check_mysqlr.m4
>>> /usr/share/aclocal/ax_try_awk_expout.m4
>>> /usr/share/aclocal/ax_elisp.m4
>>> /usr/share/aclocal/ax_prog_yasm_opt.m4
>>> /usr/share/aclocal/ax_append_compile_flags.m4
>>> /usr/share/aclocal/ax_path_lib_pcre.m4
>>> /usr/share/aclocal/ax_set_default_paths_system.m4
>>> /usr/share/aclocal/ax_gcc_x86_cpuid.m4
>>> /usr/share/aclocal/ax_func_mkdir.m4
>>> /usr/share/aclocal/ax_check_awk_strftime.m4
>>> /usr/share/aclocal/ax_check_java_plugin.m4
>>> /usr/share/aclocal/ax_jni_include_dir.m4
>>> /usr/share/aclocal/ax_cxx_header_stdcxx_0x.m4
>>> /usr/share/aclocal/ax_prog_scala.m4
>>> /usr/share/aclocal/ax_prog_help2man.m4
>>> /usr/share/aclocal/ax_trilinos_thyra.m4
>>> /usr/share/aclocal/ax_boost_base.m4
>>> /usr/share/aclocal/ax_cxx_have_ext_hash_map.m4
>>> /usr/share/aclocal/ax_prog_cxx_mpi.m4
>>> /usr/share/aclocal/ax_f90_header.m4
>>> /usr/share/aclocal/ax_lib_cgal_core.m4
>>> /usr/share/aclocal/ax_java_options.m4
>>> /usr/share/aclocal/ax_cxx_explicit_template_function_qualification.m4
>>> /usr/share/aclocal/ax_lib_id3.m4
>>> /usr/share/aclocal/ax_am_macros.m4
>>> /usr/share/aclocal/ax_cxx_static_cast.m4
>>> /usr/share/aclocal/ax_cxx_have_system_v_math.m4
>>> /usr/share/aclocal/ax_boost_log_setup.m4
>>> /usr/share/aclocal/ax_cxx_header_pre_stdcxx.m4
>>> /usr/share/aclocal/ax_check_gd.m4
>>> /usr/share/aclocal/ax_cflags_strict_prototypes.m4
>>> /usr/share/aclocal/ax_cxx_enum_computations_with_cast.m4
>>> /usr/share/aclocal/ax_lib_xml_security.m4
>>> /usr/share/aclocal/ax_absolute_header.m4
>>> /usr/share/aclocal/ax_cxx_compile_stdcxx_14.m4
>>> /usr/share/aclocal/ax_sys_dev_poll.m4
>>> /usr/share/aclocal/ax_check_define.m4
>>> /usr/share/aclocal/ax_cxx_have_freeze_sstream.m4
>>> /usr/share/aclocal/ax_check_awk_asorti.m4
>>> /usr/share/aclocal/ax_check_gl.m4
>>> /usr/share/aclocal/ax_trilinos_rythmos.m4
>>> /usr/share/aclocal/ax_check_postgres_db.m4
>>> /usr/share/aclocal/ax_check_awk_variable_value_pairs.m4
>>> /usr/share/aclocal/ax_at_check_pattern.m4
>>> /usr/share/aclocal/ax_check_awk_systime.m4
>>> /usr/share/aclocal/ax_cxx_have_koenig_lookup.m4
>>> /usr/share/aclocal/ax_missing_prog.m4
>>> /usr/share/aclocal/ax_compare_version.m4
>>> /usr/share/aclocal/ax_trilinos_teuchos.m4
>>> /usr/share/aclocal/ax_afs.m4
>>> /usr/share/aclocal/ax_func_memmove.m4
>>> /usr/share/aclocal/ax_check_preproc_flag.m4
>>> /usr/share/aclocal/ax_forceinline.m4
>>> /usr/share/aclocal/ax_sys_largefile_sensitive.m4
>>> /usr/share/aclocal/ax_check_gnu_make.m4
>>> /usr/share/aclocal/ax_switch_flags.m4
>>> /usr/share/aclocal/ax_check_glx.m4
>>> /usr/share/aclocal/ax_prog_scp.m4
>>> /usr/share/aclocal/ax_check_sys_siglist.m4
>>> /usr/share/aclocal/ax_lib_mysqlcppconn.m4
>>> /usr/share/aclocal/ax_check_strcspn.m4
>>> /usr/share/aclocal/ax_check_awk_array_delete.m4
>>> /usr/share/aclocal/ax_cxx_reinterpret_cast.m4
>>> /usr/share/aclocal/ax_pthread.m4
>>> /usr/share/aclocal/ax_perl_ext.m4
>>> /usr/share/aclocal/ax_prototype_getsockname.m4
>>> /usr/share/aclocal/ax_append_to_file.m4
>>> /usr/share/aclocal/ax_prog_tasm.m4
>>> /usr/share/aclocal/ax_check_awk_var_regexp.m4
>>> /usr/share/aclocal/ax_gcc_func_attribute.m4
>>> /usr/share/aclocal/ax_boost_thread.m4
>>> /usr/share/aclocal/ax_lib_socket_nsl.m4
>>> /usr/share/aclocal/ax_mpip.m4
>>> /usr/share/aclocal/ax_python_embed.m4
>>> /usr/share/aclocal/ax_split_version.m4
>>> /usr/share/aclocal/ax_boost_context.m4
>>> /usr/share/aclocal/ax_with_dmalloc.m4
>>> /usr/share/aclocal/ax_cxx_have_numeric_limits.m4
>>> /usr/share/aclocal/ax_have_epoll.m4
>>> /usr/share/aclocal/ax_check_awk_match_3parms.m4
>>> /usr/share/aclocal/ax_check_awk_gsub.m4
>>> /usr/share/aclocal/ax_cxx_exceptions.m4
>>> /usr/share/aclocal/ax_add_fortify_source.m4
>>> /usr/share/aclocal/ax_check_awk_and.m4
>>> /usr/share/aclocal/ax_prog_nasm_opt.m4
>>> /usr/share/aclocal/ax_libgcj_jar.m4
>>> /usr/share/aclocal/ax_lib_upnp.m4
>>> /usr/share/aclocal/ax_struct_semun.m4
>>> /usr/share/aclocal/ax_check_icu.m4
>>> /usr/share/aclocal/ax_cxx_rtti.m4
>>> /usr/share/aclocal/ax_cflags_sun_option.m4
>>> /usr/share/aclocal/ax_lib_xerces.m4
>>> /usr/share/aclocal/ax_var_pop.m4
>>> /usr/share/aclocal/ax_open62541_check_h.m4
>>> /usr/share/aclocal/ax_create_stdint_h.m4
>>> /usr/share/aclocal/ax_valgrind_check.m4
>>> /usr/share/aclocal/ax_prog_tasm_opt.m4
>>> /usr/share/aclocal/ax_prog_gjs.m4
>>> /usr/share/aclocal/ax_gcc_x86_cpu_supports.m4
>>> /usr/share/aclocal/ax_c_declare_block.m4
>>> /usr/share/aclocal/ax_check_awk_substr.m4
>>> /usr/share/aclocal/ax_check_girs_gjs.m4
>>> /usr/share/aclocal/ax_check_awk_xor.m4
>>> /usr/share/aclocal/ax_open62541_check_lib.m4
>>> /usr/share/aclocal/ax_check_awk_log.m4
>>> /usr/share/aclocal/ax_spec_package_version.m4
>>> /usr/share/aclocal/ax_cxx_use_numtrait.m4
>>> /usr/share/aclocal/ax_prog_guile_version.m4
>>> /usr/share/aclocal/ax_cpu_vendor.m4
>>> /usr/share/aclocal/ax_cxx_have_mem_fn.m4
>>> /usr/share/aclocal/ax_prog_javadoc.m4
>>> /usr/share/aclocal/ax_cxx_templates_as_template_arguments.m4
>>> /usr/share/aclocal/ax_need_awk.m4
>>> /usr/share/aclocal/ax_boost_iostreams.m4
>>> /usr/share/aclocal/ax_boost_system.m4
>>> /usr/share/aclocal/ax_cxx_have_valarray.m4
>>> /usr/share/aclocal/ax_check_docbook_dtd.m4
>>> /usr/share/aclocal/ax_check_awk_sprintf.m4
>>> /usr/share/aclocal/ax_check_awk_exit.m4
>>> /usr/share/aclocal/ax_add_am_macro.m4
>>> /usr/share/aclocal/ax_cxx_cxxflags_std_lang.m4
>>> /usr/share/aclocal/ax_add_recursive_am_macro_static.m4
>>> /usr/share/aclocal/ax_cxx_compile_stdcxx_11.m4
>>> /usr/share/aclocal/ax_gcc_builtin.m4
>>> /usr/share/aclocal/ax_lib_taglib.m4
>>> /usr/share/aclocal/ax_check_awk_argind.m4
>>> /usr/share/aclocal/ax_prog_masm.m4
>>> /usr/share/aclocal/ax_boost_log.m4
>>> /usr/share/aclocal/ax_f90_module_extension.m4
>>> /usr/share/aclocal/ax_check_awk_sin.m4
>>> /usr/share/aclocal/ax_prog_cp_s.m4
>>> /usr/share/aclocal/ax_c_referenceable_passed_va_list.m4
>>> /usr/share/aclocal/ax_pkg_check_modules.m4
>>> /usr/share/aclocal/ax_prog_javac.m4
>>> /usr/share/aclocal/ax_prog_xsltproc.m4
>>> /usr/share/aclocal/ax_restore_flags.m4
>>> /usr/share/aclocal/ax_cvs.m4
>>> /usr/share/aclocal/ax_warning_default_aclocaldir.m4
>>> /usr/share/aclocal/ax_check_link_flag.m4
>>> /usr/share/aclocal/ax_generate_changelog.m4
>>> /usr/share/aclocal/ax_find_hamcrest.m4
>>> /usr/share/aclocal/ax_check_awk_split.m4
>>> /usr/share/aclocal/ax_lib_netcdf4.m4
>>> /usr/share/aclocal/ax_cxx_have_complex_math1.m4
>>> /usr/share/aclocal/ax_func_posix_memalign.m4
>>> /usr/share/aclocal/ax_asm_inline.m4
>>> /usr/share/aclocal/ax_cxx_have_bit_and.m4
>>> /usr/share/aclocal/ax_swig_multi_module_support.m4
>>> /usr/share/aclocal/ax_compute_relative_paths.m4
>>> /usr/share/aclocal/ax_cxx_explicit.m4
>>> /usr/share/aclocal/ax_boost_regex.m4
>>> /usr/share/aclocal/ax_var_push.m4
>>> /usr/share/aclocal/ax_check_awk_toupper.m4
>>> /usr/share/aclocal/ax_prog_scalac.m4
>>> /usr/share/aclocal/ax_try_awk_anyout.m4
>>> /usr/share/aclocal/ax_xercesc.m4
>>> /usr/share/aclocal/ax_expand_prefix.m4
>>> /usr/share/aclocal/ax_cxx_explicit_instantiations.m4
>>> /usr/share/aclocal/ax_boost_wserialization.m4
>>> /usr/share/aclocal/ax_create_pkgconfig_info.m4
>>> /usr/share/aclocal/ax_add_am_trilinos_makefile_export.m4
>>> /usr/share/aclocal/ax_cxx_header_stdcxx_98.m4
>>> /usr/share/aclocal/ax_compiler_vendor.m4
>>> /usr/share/aclocal/ax_compiler_flags_gir.m4
>>> /usr/share/aclocal/ax_c_arithmetic_rshift.m4
>>> /usr/share/aclocal/ax_check_typedef.m4
>>> /usr/share/aclocal/ax_check_awk_asort.m4
>>> /usr/share/aclocal/ax_cxx_templates.m4
>>> /usr/share/aclocal/ax_path_bdb.m4
>>> /usr/share/aclocal/ax_check_docbook_xslt.m4
>>> /usr/share/aclocal/ax_f90_internal_headmod.m4
>>> /usr/share/aclocal/ax_warning_default_pkgconfig.m4
>>> /usr/share/aclocal/ax_prog_modprobe.m4
>>> /usr/share/aclocal/ax_zmq.m4
>>> /usr/share/aclocal/ax_check_awk_environ.m4
>>> /usr/share/aclocal/ax_lapack.m4
>>> /usr/share/aclocal/ax_boost_wave.m4
>>> /usr/share/aclocal/ax_pgsql_priv_root.m4
>>> /usr/share/aclocal/ax_cxx_have_is_bind_expression.m4
>>> /usr/share/aclocal/ax_zoneinfo.m4
>>> /usr/share/aclocal/ax_cpu_freq.m4
>>> /usr/share/aclocal/ax_c_var_func.m4
>>> /usr/share/aclocal/ax_cxx_have_placeholders.m4
>>> /usr/share/aclocal/ax_prog_httpd.m4
>>> /usr/share/aclocal/ax_wint_t.m4
>>> /usr/share/aclocal/ax_trilinos_base.m4
>>> /usr/share/aclocal/ax_cxx_have_sstream.m4
>>> /usr/share/aclocal/ax_subdir_files.m4
>>> /usr/share/aclocal/ax_print_to_file.m4
>>> /usr/share/aclocal/ax_prog_mysqladmin.m4
>>> /usr/share/aclocal/ax_prog_fig2dev.m4
>>> /usr/share/aclocal/ax_cxx_template_qualified_base_class.m4
>>> /usr/share/aclocal/ax_boost_filesystem.m4
>>> /usr/share/aclocal/ax_cxx_have_bit_xor.m4
>>> /usr/share/aclocal/ax_with_prog.m4
>>> /usr/share/aclocal/ax_include_strcasecmp.m4
>>> /usr/share/aclocal/ax_cxx_function_try_blocks.m4
>>> /usr/share/aclocal/ax_prog_emacs.m4
>>> /usr/share/aclocal/ax_prog_javac_works.m4
>>> /usr/share/aclocal/ax_perl_ext_flags.m4
>>> /usr/share/aclocal/ax_prog_bison.m4
>>> /usr/share/aclocal/ax_boost_python.m4
>>> /usr/share/aclocal/ax_spec_file.m4
>>> /usr/share/aclocal/ax_python_module.m4
>>> /usr/share/aclocal/ax_prog_cc_char_subscripts.m4
>>> /usr/share/aclocal/ax_cxx_extern_template.m4
>>> /usr/share/aclocal/ax_cxx_have_ref.m4
>>> /usr/share/aclocal/ax_f77_cmain_fflags.m4
>>> /usr/share/aclocal/ax_prog_date.m4
>>> /usr/share/aclocal/ax_ext.m4
>>> /usr/share/aclocal/ax_lua.m4
>>> /usr/share/aclocal/ax_is_release.m4
>>> /usr/share/aclocal/ax_am_macros_static.m4
>>> /usr/share/aclocal/ax_prototype_setsockopt.m4
>>> /usr/share/aclocal/ax_lib_trace.m4
>>> /usr/share/aclocal/ax_llvm.m4
>>> /usr/share/aclocal/ax_cxx_dtor_after_atexit.m4
>>> /usr/share/aclocal/ax_require_defined.m4
>>> /usr/share/aclocal/ax_check_openssl.m4
>>> /usr/share/aclocal/ax_compiler_flags_cflags.m4
>>> /usr/share/aclocal/ax_add_recursive_am_macro.m4
>>> /usr/share/aclocal/ax_check_uname_syscall.m4
>>> /usr/share/aclocal/ax_cxx_gnucxx_hashmap.m4
>>> /usr/share/aclocal/ax_open62541_path.m4
>>> /usr/share/aclocal/ax_check_awk_ignorecase.m4
>>> /usr/share/aclocal/ax_prog_hla_opt.m4
>>> /usr/share/aclocal/ax_path_milter.m4
>>> /usr/share/aclocal/ax_lib_wad.m4
>>> /usr/share/aclocal/ax_gcc_lib.m4
>>> /usr/share/aclocal/ax_printf_size_t.m4
>>> /usr/share/aclocal/ax_cxx_typename.m4
>>> /usr/share/aclocal/ax_cxx_have_complex_math2.m4
>>> /usr/share/aclocal/ax_try_run_java.m4
>>> /usr/share/aclocal/ax_c_float_words_bigendian.m4
>>> /usr/share/aclocal/ax_extend_srcdir.m4
>>> /usr/share/aclocal/ax_am_jobserver.m4
>>> /usr/share/aclocal/ax_check_awk_gensub.m4
>>> /usr/share/aclocal/ax_prototype_accept.m4
>>> /usr/share/aclocal/ax_patch_libtool_changing_cmds_ifs.m4
>>> /usr/share/aclocal/ax_normalize_path.m4
>>> /usr/share/aclocal/ax_cxx_have_complex.m4
>>> /usr/share/aclocal/ax_java_check_class.m4
>>> /usr/share/aclocal/ax_gcc_libgcc_eh.m4
>>> /usr/share/aclocal/ax_prog_fc_mpi.m4
>>> /usr/share/aclocal/ax_czmq.m4
>>> /usr/share/aclocal/ax_cxx_member_templates.m4
>>> /usr/share/aclocal/ax_check_awk_user_defined_functions.m4
>>> /usr/share/aclocal/ax_prog_java_works.m4
>>> /usr/share/aclocal/ax_check_vscript.m4
>>> /usr/share/aclocal/ax_prog_fasm.m4
>>> /usr/share/aclocal/ax_cxx_have_bad_function_call.m4
>>> /usr/share/aclocal/ax_cxx_have_long_long_for_iostream.m4
>>> /usr/share/aclocal/ax_swig_enable_cxx.m4
>>> /usr/share/aclocal/ax_prog_flex.m4
>>> /usr/share/aclocal/ax_lib_samtools.m4
>>> /usr/share/aclocal/ax_cxx_have_cref.m4
>>> /usr/share/aclocal/ax_define_integer_bits.m4
>>> /usr/share/aclocal/ax_cflags_irix_option.m4
>>> /usr/share/aclocal/ax_append_link_flags.m4
>>> /usr/share/aclocal/ax_boost_program_options.m4
>>> /usr/share/aclocal/ax_ac_append_to_file.m4
>>> /usr/share/aclocal/ax_boost_date_time.m4
>>> /usr/share/aclocal/ax_append_flag.m4
>>> /usr/share/aclocal/ax_check_awk_array_in.m4
>>> /usr/share/aclocal/ax_check_compile_flag.m4
>>> /usr/share/aclocal/ax_code_coverage.m4
>>> /usr/share/aclocal/ax_configure_args.m4
>>> /usr/share/aclocal/ax_lib_ev.m4
>>> /usr/share/aclocal/ax_berkeley_db.m4
>>> /usr/share/aclocal/ax_arg_with_path_style.m4
>>> /usr/share/aclocal/ax_lib_xalan.m4
>>> /usr/share/aclocal/ax_config_feature.m4
>>> /usr/share/aclocal/ax_build_date_epoch.m4
>>> /usr/share/aclocal/ax_prog_python_version.m4
>>> /usr/share/aclocal/ax_have_adns.m4
>>> /usr/share/aclocal/ax_pkg_mico.m4
>>> /usr/share/aclocal/ax_openmp.m4
>>> /usr/share/aclocal/ax_strings_strcasecmp.m4
>>> /usr/share/aclocal/ax_check_mysql_db.m4
>>> /usr/share/aclocal/ax_boost_asio.m4
>>> /usr/share/aclocal/ax_cxx_restrict_this.m4
>>> /usr/share/aclocal/ax_check_awk_array_delete_elem.m4
>>> /usr/share/aclocal/ax_prog_nasm.m4
>>> /usr/share/aclocal/ax_compile_check_sizeof.m4
>>> /usr/share/aclocal/ax_cxx_header_tr1_unordered_map.m4
>>> /usr/share/aclocal/ax_lib_beecrypt.m4
>>> /usr/share/aclocal/ax_check_sign.m4
>>> /usr/share/aclocal/ax_cxx_delete_method.m4
>>> /usr/share/aclocal/ax_dirname.m4
>>> /usr/share/aclocal/ax_cxx_have_bit_or.m4
>>> /usr/share/aclocal/ax_cxx_have_ext_hash_set.m4
>>> /usr/share/aclocal/ax_gcc_archflag.m4
>>> /usr/share/aclocal/ax_caolan_search_package.m4
>>> /usr/share/aclocal/ax_prog_cc_for_build.m4
>>> /usr/share/aclocal/ax_prog_cxx_for_build.m4
>>> /usr/share/aclocal/ax_check_awk_operator_square.m4
>>> /usr/share/aclocal/ax_trilinos_amesos.m4
>>> /usr/share/aclocal/ax_cc_maxopt.m4
>>> /usr/share/aclocal/ax_ext_have_lib.m4
>>> /usr/share/aclocal/ax_very_nice.m4
>>> /usr/share/aclocal/ax_cxx_have_hash.m4
>>> /usr/share/aclocal/ax_cxx_compile_stdcxx_17.m4
>>> /usr/share/aclocal/ax_prog_java.m4
>>> /usr/share/aclocal/ax_check_awk_compl.m4
>>> /usr/share/aclocal/ax_prog_javah.m4
>>> /usr/share/aclocal/ax_cxx_gcc_abi_demangle.m4
>>> /usr/share/aclocal/ax_lib_oracle_oci.m4
--- /usr/share/info/
>>> /usr/share/info/autoconf-archive.info
>>> /usr/share/info/autoconf-archive.info.bz2
>>> Safely unmerging already-installed instance...
>>> Original instance of package unmerged safely.
>>> sys-devel/autoconf-archive-2019.01.06 merged.
