 * Package:    sys-apps/debianutils-4.9.3
 * Repository: gentoo
 * Maintainer: base-system@gentoo.org
 * USE:        abi_x86_64 amd64 elibc_glibc installkernel kernel_linux userland_GNU
 * FEATURES:   network-sandbox preserve-libs sandbox userpriv usersandbox
 * FEATURES='assume-digests binpkg-docompress binpkg-dostrip binpkg-logs binpkg-multi-instance buildpkg cgroup compress-index config-protect-if-modified distlocks downgrade-backup fixlafiles ipc-sandbox merge-sync multilib-strict network-sandbox news nodoc parallel-fetch parallel-install pid-sandbox preserve-libs qa-unresolved-soname-deps sandbox sfperms strict unknown-features-warn unmerge-backup unmerge-logs unmerge-orphans userfetch userpriv usersandbox usersync xattr'
 * CFLAGS='-march=znver2 -O3 -fgraphite-identity -floop-nest-optimize -fdevirtualize-at-ltrans -fipa-pta -fno-semantic-interposition -flto=12 -fno-plt -fno-signed-zeros -fno-trapping-math -fassociative-math -freciprocal-math -fno-math-errno -ffinite-math-only -fno-rounding-math -fno-signaling-nans -fcx-limited-range -fexcess-precision=fast -falign-functions=32 -fno-stack-protector -fno-stack-clash-protection -fstack-check=no -fno-stack-check -fbranch-target-load-optimize2 -freschedule-modulo-scheduled-loops -fsched-pressure -fsched-spec-load -fsched-stalled-insns=0 -fsched2-use-superblocks -fselective-scheduling -fselective-scheduling2 -fsel-sched-pipelining -fsel-sched-pipelining-outer-loops -fuse-linker-plugin -pipe -g0 -Wl,-O1 -Wl,--as-needed -Wl,--sort-common -s -Wl,-lpthread -Wl,-lgomp -Wl,-z,norelro -Wl,-z,now'
 * CXXFLAGS='-march=znver2 -O3 -fgraphite-identity -floop-nest-optimize -fdevirtualize-at-ltrans -fipa-pta -fno-semantic-interposition -flto=12 -fno-plt -fno-signed-zeros -fno-trapping-math -fassociative-math -freciprocal-math -fno-math-errno -ffinite-math-only -fno-rounding-math -fno-signaling-nans -fcx-limited-range -fexcess-precision=fast -falign-functions=32 -fno-stack-protector -fno-stack-clash-protection -fstack-check=no -fno-stack-check -fbranch-target-load-optimize2 -freschedule-modulo-scheduled-loops -fsched-pressure -fsched-spec-load -fsched-stalled-insns=0 -fsched2-use-superblocks -fselective-scheduling -fselective-scheduling2 -fsel-sched-pipelining -fsel-sched-pipelining-outer-loops -fuse-linker-plugin -pipe -g0 -Wl,-O1 -Wl,--as-needed -Wl,--sort-common -s -Wl,-lpthread -Wl,-lgomp -Wl,-z,norelro -Wl,-z,now'
 * FFLAGS='-march=znver2 -O3 -fgraphite-identity -floop-nest-optimize -fdevirtualize-at-ltrans -fipa-pta -fno-semantic-interposition -flto=12 -fno-plt -fno-signed-zeros -fno-trapping-math -fassociative-math -freciprocal-math -fno-math-errno -ffinite-math-only -fno-rounding-math -fno-signaling-nans -fcx-limited-range -fexcess-precision=fast -falign-functions=32 -fno-stack-protector -fno-stack-clash-protection -fstack-check=no -fno-stack-check -fbranch-target-load-optimize2 -freschedule-modulo-scheduled-loops -fsched-pressure -fsched-spec-load -fsched-stalled-insns=0 -fsched2-use-superblocks -fselective-scheduling -fselective-scheduling2 -fsel-sched-pipelining -fsel-sched-pipelining-outer-loops -fuse-linker-plugin -pipe -g0 -Wl,-O1 -Wl,--as-needed -Wl,--sort-common -s -Wl,-lpthread -Wl,-lgomp -Wl,-z,norelro -Wl,-z,now'
 * FCFLAGS='-march=znver2 -O3 -fgraphite-identity -floop-nest-optimize -fdevirtualize-at-ltrans -fipa-pta -fno-semantic-interposition -flto=12 -fno-plt -fno-signed-zeros -fno-trapping-math -fassociative-math -freciprocal-math -fno-math-errno -ffinite-math-only -fno-rounding-math -fno-signaling-nans -fcx-limited-range -fexcess-precision=fast -falign-functions=32 -fno-stack-protector -fno-stack-clash-protection -fstack-check=no -fno-stack-check -fbranch-target-load-optimize2 -freschedule-modulo-scheduled-loops -fsched-pressure -fsched-spec-load -fsched-stalled-insns=0 -fsched2-use-superblocks -fselective-scheduling -fselective-scheduling2 -fsel-sched-pipelining -fsel-sched-pipelining-outer-loops -fuse-linker-plugin -pipe -g0 -Wl,-O1 -Wl,--as-needed -Wl,--sort-common -s -Wl,-lpthread -Wl,-lgomp -Wl,-z,norelro -Wl,-z,now'
 * F77FLAGS='-march=znver2 -O3 -fgraphite-identity -floop-nest-optimize -fdevirtualize-at-ltrans -fipa-pta -fno-semantic-interposition -flto=12 -fno-plt -fno-signed-zeros -fno-trapping-math -fassociative-math -freciprocal-math -fno-math-errno -ffinite-math-only -fno-rounding-math -fno-signaling-nans -fcx-limited-range -fexcess-precision=fast -falign-functions=32 -fno-stack-protector -fno-stack-clash-protection -fstack-check=no -fno-stack-check -fbranch-target-load-optimize2 -freschedule-modulo-scheduled-loops -fsched-pressure -fsched-spec-load -fsched-stalled-insns=0 -fsched2-use-superblocks -fselective-scheduling -fselective-scheduling2 -fsel-sched-pipelining -fsel-sched-pipelining-outer-loops -fuse-linker-plugin -pipe -g0 -Wl,-O1 -Wl,--as-needed -Wl,--sort-common -s -Wl,-lpthread -Wl,-lgomp -Wl,-z,norelro -Wl,-z,now'
 * LDFLAGS='-Wl,-O1 -Wl,--as-needed -Wl,--sort-common -s -Wl,-lpthread -Wl,-lgomp -Wl,-z,norelro -Wl,-z,now -march=znver2 -O3 -fgraphite-identity -floop-nest-optimize -fdevirtualize-at-ltrans -fipa-pta -fno-semantic-interposition -flto=12 -fno-plt -fno-signed-zeros -fno-trapping-math -fassociative-math -freciprocal-math -fno-math-errno -ffinite-math-only -fno-rounding-math -fno-signaling-nans -fcx-limited-range -fexcess-precision=fast -falign-functions=32 -fno-stack-protector -fno-stack-clash-protection -fstack-check=no -fno-stack-check -fbranch-target-load-optimize2 -freschedule-modulo-scheduled-loops -fsched-pressure -fsched-spec-load -fsched-stalled-insns=0 -fsched2-use-superblocks -fselective-scheduling -fselective-scheduling2 -fsel-sched-pipelining -fsel-sched-pipelining-outer-loops -fuse-linker-plugin -pipe -g0'
 * MAKEOPTS='-j12 -l12'
 * gcc () 11.0.0 20200528 (experimental)
 * g++ () 11.0.0 20200528 (experimental)
 * GNU ld (Gentoo 2.34 p4) 2.34.0
 * Linux ryzen.gnum.org 5.4.36 #1 SMP Thu Apr 30 04:38:28 UTC 2020 x86_64 AMD Ryzen 5 3600 6-Core Processor AuthenticAMD GNU/Linux
sys-apps/debianutils: 4 minutes, 17 seconds average for 16 merges
2020-05-16T20:50:31 >>> sys-apps/debianutils: 11 seconds
2020-05-20T00:56:58 >>> sys-apps/debianutils: 4 minutes, 13 seconds
2020-05-21T06:18:42 >>> sys-apps/debianutils: 5 seconds
2020-05-22T01:58:09 >>> sys-apps/debianutils: 5 minutes, 56 seconds
2020-05-22T03:10:00 >>> sys-apps/debianutils: 5 minutes, 58 seconds
2020-05-22T12:29:34 >>> sys-apps/debianutils: 5 minutes, 46 seconds
2020-05-23T03:31:13 >>> sys-apps/debianutils: 5 minutes, 46 seconds
2020-05-24T18:46:37 >>> sys-apps/debianutils: 13 seconds
2020-05-24T23:23:28 >>> sys-apps/debianutils: 9 minutes, 5 seconds
2020-05-25T03:02:00 >>> sys-apps/debianutils: 4 minutes
2020-05-25T18:17:57 >>> sys-apps/debianutils: 4 minutes, 23 seconds
2020-05-25T19:52:35 >>> sys-apps/debianutils: 4 minutes, 14 seconds
2020-05-26T12:53:35 >>> sys-apps/debianutils: 3 minutes, 2 seconds
2020-05-26T13:47:38 >>> sys-apps/debianutils: 4 minutes, 23 seconds
2020-05-27T01:24:40 >>> sys-apps/debianutils: 6 minutes, 43 seconds
2020-05-27T03:04:51 >>> sys-apps/debianutils: 4 minutes, 47 seconds
]0;emerge 13:25:45 100|1123 debianutils 05:18 (root@ryzen.gnum.org)kemerge 13:25:45 100|1123 debianutils 05:18 (root@ryzen.gnum.org)\>>> Unpacking source...
>>> Unpacking debianutils_4.9.3.tar.xz to /tmp/portage/sys-apps/debianutils-4.9.3/work
>>> Source unpacked in /tmp/portage/sys-apps/debianutils-4.9.3/work
>>> Preparing source in /tmp/portage/sys-apps/debianutils-4.9.3/work/debianutils-4.9.3 ...
 * Applying debianutils-3.4.2-no-bs-namespace.patch ...
 [ ok ]
>>> Source prepared.
>>> Configuring source in /tmp/portage/sys-apps/debianutils-4.9.3/work/debianutils-4.9.3 ...
./configure --prefix=/usr --build=x86_64-pc-linux-gnu --host=x86_64-pc-linux-gnu --mandir=/usr/share/man --infodir=/usr/share/info --datadir=/usr/share --sysconfdir=/etc --localstatedir=/var/lib --disable-dependency-tracking --disable-silent-rules --docdir=/usr/share/doc/debianutils-4.9.3 --htmldir=/usr/share/doc/debianutils-4.9.3/html --libdir=/usr/lib64
checking for a BSD-compatible install... /tmp/portage/._portage_reinstall_.4phw6x28/bin/ebuild-helpers/xattr/install -c
checking whether build environment is sane... yes
checking for a thread-safe mkdir -p... /bin/mkdir -p
checking for gawk... gawk
checking whether make sets $(MAKE)... yes
checking whether make supports nested variables... yes
checking for x86_64-pc-linux-gnu-gcc... x86_64-pc-linux-gnu-gcc
checking whether the C compiler works... yes
checking for C compiler default output file name... a.out
checking for suffix of executables... 
checking whether we are cross compiling... no
checking for suffix of object files... o
checking whether we are using the GNU C compiler... yes
checking whether x86_64-pc-linux-gnu-gcc accepts -g... yes
checking for x86_64-pc-linux-gnu-gcc option to accept ISO C89... none needed
checking whether x86_64-pc-linux-gnu-gcc understands -c and -o together... yes
checking whether make supports the include directive... yes (GNU style)
checking dependency style of x86_64-pc-linux-gnu-gcc... none
checking how to run the C preprocessor... x86_64-pc-linux-gnu-gcc -E
checking for grep that handles long lines and -e... /bin/grep
checking for egrep... /bin/grep -E
checking for ANSI C header files... yes
checking for sys/types.h... yes
checking for sys/stat.h... yes
checking for stdlib.h... yes
checking for string.h... yes
checking for memory.h... yes
checking for strings.h... yes
checking for inttypes.h... yes
checking for stdint.h... yes
checking for unistd.h... yes
checking paths.h usability... yes
checking paths.h presence... yes
checking for paths.h... yes
checking getopt.h usability... yes
checking getopt.h presence... yes
checking for getopt.h... yes
checking for special C compiler options needed for large files... no
checking for _FILE_OFFSET_BITS value needed for large files... no
checking that generated files are newer than configure... done
configure: creating ./config.status
config.status: creating Makefile
config.status: creating po4a/Makefile
config.status: creating po4a/de/Makefile
config.status: creating po4a/es/Makefile
config.status: creating po4a/fr/Makefile
config.status: creating po4a/it/Makefile
config.status: creating po4a/ja/Makefile
config.status: creating po4a/pl/Makefile
config.status: creating po4a/sl/Makefile
config.status: executing depfiles commands
>>> Source configured.
>>> Compiling source in /tmp/portage/sys-apps/debianutils-4.9.3/work/debianutils-4.9.3 ...
make -j12 -l12 
Making all in po4a
make[1]: Entering directory '/tmp/portage/sys-apps/debianutils-4.9.3/work/debianutils-4.9.3/po4a'
Making all in de
make[2]: Entering directory '/tmp/portage/sys-apps/debianutils-4.9.3/work/debianutils-4.9.3/po4a/de'
make[2]: Nothing to be done for 'all'.
make[2]: Leaving directory '/tmp/portage/sys-apps/debianutils-4.9.3/work/debianutils-4.9.3/po4a/de'
Making all in es
make[2]: Entering directory '/tmp/portage/sys-apps/debianutils-4.9.3/work/debianutils-4.9.3/po4a/es'
make[2]: Nothing to be done for 'all'.
make[2]: Leaving directory '/tmp/portage/sys-apps/debianutils-4.9.3/work/debianutils-4.9.3/po4a/es'
Making all in fr
make[2]: Entering directory '/tmp/portage/sys-apps/debianutils-4.9.3/work/debianutils-4.9.3/po4a/fr'
make[2]: Nothing to be done for 'all'.
make[2]: Leaving directory '/tmp/portage/sys-apps/debianutils-4.9.3/work/debianutils-4.9.3/po4a/fr'
Making all in it
make[2]: Entering directory '/tmp/portage/sys-apps/debianutils-4.9.3/work/debianutils-4.9.3/po4a/it'
make[2]: Nothing to be done for 'all'.
make[2]: Leaving directory '/tmp/portage/sys-apps/debianutils-4.9.3/work/debianutils-4.9.3/po4a/it'
Making all in ja
make[2]: Entering directory '/tmp/portage/sys-apps/debianutils-4.9.3/work/debianutils-4.9.3/po4a/ja'
make[2]: Nothing to be done for 'all'.
make[2]: Leaving directory '/tmp/portage/sys-apps/debianutils-4.9.3/work/debianutils-4.9.3/po4a/ja'
Making all in pl
make[2]: Entering directory '/tmp/portage/sys-apps/debianutils-4.9.3/work/debianutils-4.9.3/po4a/pl'
make[2]: Nothing to be done for 'all'.
make[2]: Leaving directory '/tmp/portage/sys-apps/debianutils-4.9.3/work/debianutils-4.9.3/po4a/pl'
Making all in sl
make[2]: Entering directory '/tmp/portage/sys-apps/debianutils-4.9.3/work/debianutils-4.9.3/po4a/sl'
make[2]: Nothing to be done for 'all'.
make[2]: Leaving directory '/tmp/portage/sys-apps/debianutils-4.9.3/work/debianutils-4.9.3/po4a/sl'
make[2]: Entering directory '/tmp/portage/sys-apps/debianutils-4.9.3/work/debianutils-4.9.3/po4a'
make[2]: Nothing to be done for 'all-am'.
make[2]: Leaving directory '/tmp/portage/sys-apps/debianutils-4.9.3/work/debianutils-4.9.3/po4a'
make[1]: Leaving directory '/tmp/portage/sys-apps/debianutils-4.9.3/work/debianutils-4.9.3/po4a'
make[1]: Entering directory '/tmp/portage/sys-apps/debianutils-4.9.3/work/debianutils-4.9.3'
x86_64-pc-linux-gnu-gcc -DPACKAGE_NAME=\"debianutils\" -DPACKAGE_TARNAME=\"debianutils\" -DPACKAGE_VERSION=\"4.9.3\" -DPACKAGE_STRING=\"debianutils\ 4.9.3\" -DPACKAGE_BUGREPORT=\"\" -DPACKAGE_URL=\"\" -DPACKAGE=\"debianutils\" -DVERSION=\"4.9.3\" -DSTDC_HEADERS=1 -DHAVE_SYS_TYPES_H=1 -DHAVE_SYS_STAT_H=1 -DHAVE_STDLIB_H=1 -DHAVE_STRING_H=1 -DHAVE_MEMORY_H=1 -DHAVE_STRINGS_H=1 -DHAVE_INTTYPES_H=1 -DHAVE_STDINT_H=1 -DHAVE_UNISTD_H=1 -DHAVE_PATHS_H=1 -DHAVE_GETOPT_H=1 -I.     -march=znver2 -O3 -fgraphite-identity -floop-nest-optimize -fdevirtualize-at-ltrans -fipa-pta -fno-semantic-interposition -flto=12 -fno-plt -fno-signed-zeros -fno-trapping-math -fassociative-math -freciprocal-math -fno-math-errno -ffinite-math-only -fno-rounding-math -fno-signaling-nans -fcx-limited-range -fexcess-precision=fast -falign-functions=32 -fno-stack-protector -fno-stack-clash-protection -fstack-check=no -fno-stack-check -fbranch-target-load-optimize2 -freschedule-modulo-scheduled-loops -fsched-pressure -fsched-spec-load -fsched-stalled-insns=0 -fsched2-use-superblocks -fselective-scheduling -fselective-scheduling2 -fsel-sched-pipelining -fsel-sched-pipelining-outer-loops -fuse-linker-plugin -pipe -g0 -Wl,-O1 -Wl,--as-needed -Wl,--sort-common -s -Wl,-lpthread -Wl,-lgomp -Wl,-z,norelro -Wl,-z,now -c -o run-parts.o run-parts.c
x86_64-pc-linux-gnu-gcc -DPACKAGE_NAME=\"debianutils\" -DPACKAGE_TARNAME=\"debianutils\" -DPACKAGE_VERSION=\"4.9.3\" -DPACKAGE_STRING=\"debianutils\ 4.9.3\" -DPACKAGE_BUGREPORT=\"\" -DPACKAGE_URL=\"\" -DPACKAGE=\"debianutils\" -DVERSION=\"4.9.3\" -DSTDC_HEADERS=1 -DHAVE_SYS_TYPES_H=1 -DHAVE_SYS_STAT_H=1 -DHAVE_STDLIB_H=1 -DHAVE_STRING_H=1 -DHAVE_MEMORY_H=1 -DHAVE_STRINGS_H=1 -DHAVE_INTTYPES_H=1 -DHAVE_STDINT_H=1 -DHAVE_UNISTD_H=1 -DHAVE_PATHS_H=1 -DHAVE_GETOPT_H=1 -I.     -march=znver2 -O3 -fgraphite-identity -floop-nest-optimize -fdevirtualize-at-ltrans -fipa-pta -fno-semantic-interposition -flto=12 -fno-plt -fno-signed-zeros -fno-trapping-math -fassociative-math -freciprocal-math -fno-math-errno -ffinite-math-only -fno-rounding-math -fno-signaling-nans -fcx-limited-range -fexcess-precision=fast -falign-functions=32 -fno-stack-protector -fno-stack-clash-protection -fstack-check=no -fno-stack-check -fbranch-target-load-optimize2 -freschedule-modulo-scheduled-loops -fsched-pressure -fsched-spec-load -fsched-stalled-insns=0 -fsched2-use-superblocks -fselective-scheduling -fselective-scheduling2 -fsel-sched-pipelining -fsel-sched-pipelining-outer-loops -fuse-linker-plugin -pipe -g0 -Wl,-O1 -Wl,--as-needed -Wl,--sort-common -s -Wl,-lpthread -Wl,-lgomp -Wl,-z,norelro -Wl,-z,now -c -o tempfile.o tempfile.c
x86_64-pc-linux-gnu-gcc -DPACKAGE_NAME=\"debianutils\" -DPACKAGE_TARNAME=\"debianutils\" -DPACKAGE_VERSION=\"4.9.3\" -DPACKAGE_STRING=\"debianutils\ 4.9.3\" -DPACKAGE_BUGREPORT=\"\" -DPACKAGE_URL=\"\" -DPACKAGE=\"debianutils\" -DVERSION=\"4.9.3\" -DSTDC_HEADERS=1 -DHAVE_SYS_TYPES_H=1 -DHAVE_SYS_STAT_H=1 -DHAVE_STDLIB_H=1 -DHAVE_STRING_H=1 -DHAVE_MEMORY_H=1 -DHAVE_STRINGS_H=1 -DHAVE_INTTYPES_H=1 -DHAVE_STDINT_H=1 -DHAVE_UNISTD_H=1 -DHAVE_PATHS_H=1 -DHAVE_GETOPT_H=1 -I.     -march=znver2 -O3 -fgraphite-identity -floop-nest-optimize -fdevirtualize-at-ltrans -fipa-pta -fno-semantic-interposition -flto=12 -fno-plt -fno-signed-zeros -fno-trapping-math -fassociative-math -freciprocal-math -fno-math-errno -ffinite-math-only -fno-rounding-math -fno-signaling-nans -fcx-limited-range -fexcess-precision=fast -falign-functions=32 -fno-stack-protector -fno-stack-clash-protection -fstack-check=no -fno-stack-check -fbranch-target-load-optimize2 -freschedule-modulo-scheduled-loops -fsched-pressure -fsched-spec-load -fsched-stalled-insns=0 -fsched2-use-superblocks -fselective-scheduling -fselective-scheduling2 -fsel-sched-pipelining -fsel-sched-pipelining-outer-loops -fuse-linker-plugin -pipe -g0 -Wl,-O1 -Wl,--as-needed -Wl,--sort-common -s -Wl,-lpthread -Wl,-lgomp -Wl,-z,norelro -Wl,-z,now -c -o ischroot.o ischroot.c
x86_64-pc-linux-gnu-gcc  -march=znver2 -O3 -fgraphite-identity -floop-nest-optimize -fdevirtualize-at-ltrans -fipa-pta -fno-semantic-interposition -flto=12 -fno-plt -fno-signed-zeros -fno-trapping-math -fassociative-math -freciprocal-math -fno-math-errno -ffinite-math-only -fno-rounding-math -fno-signaling-nans -fcx-limited-range -fexcess-precision=fast -falign-functions=32 -fno-stack-protector -fno-stack-clash-protection -fstack-check=no -fno-stack-check -fbranch-target-load-optimize2 -freschedule-modulo-scheduled-loops -fsched-pressure -fsched-spec-load -fsched-stalled-insns=0 -fsched2-use-superblocks -fselective-scheduling -fselective-scheduling2 -fsel-sched-pipelining -fsel-sched-pipelining-outer-loops -fuse-linker-plugin -pipe -g0 -Wl,-O1 -Wl,--as-needed -Wl,--sort-common -s -Wl,-lpthread -Wl,-lgomp -Wl,-z,norelro -Wl,-z,now  -Wl,-O1 -Wl,--as-needed -Wl,--sort-common -s -Wl,-lpthread -Wl,-lgomp -Wl,-z,norelro -Wl,-z,now -march=znver2 -O3 -fgraphite-identity -floop-nest-optimize -fdevirtualize-at-ltrans -fipa-pta -fno-semantic-interposition -flto=12 -fno-plt -fno-signed-zeros -fno-trapping-math -fassociative-math -freciprocal-math -fno-math-errno -ffinite-math-only -fno-rounding-math -fno-signaling-nans -fcx-limited-range -fexcess-precision=fast -falign-functions=32 -fno-stack-protector -fno-stack-clash-protection -fstack-check=no -fno-stack-check -fbranch-target-load-optimize2 -freschedule-modulo-scheduled-loops -fsched-pressure -fsched-spec-load -fsched-stalled-insns=0 -fsched2-use-superblocks -fselective-scheduling -fselective-scheduling2 -fsel-sched-pipelining -fsel-sched-pipelining-outer-loops -fuse-linker-plugin -pipe -g0 -o ischroot ischroot.o  
x86_64-pc-linux-gnu-gcc  -march=znver2 -O3 -fgraphite-identity -floop-nest-optimize -fdevirtualize-at-ltrans -fipa-pta -fno-semantic-interposition -flto=12 -fno-plt -fno-signed-zeros -fno-trapping-math -fassociative-math -freciprocal-math -fno-math-errno -ffinite-math-only -fno-rounding-math -fno-signaling-nans -fcx-limited-range -fexcess-precision=fast -falign-functions=32 -fno-stack-protector -fno-stack-clash-protection -fstack-check=no -fno-stack-check -fbranch-target-load-optimize2 -freschedule-modulo-scheduled-loops -fsched-pressure -fsched-spec-load -fsched-stalled-insns=0 -fsched2-use-superblocks -fselective-scheduling -fselective-scheduling2 -fsel-sched-pipelining -fsel-sched-pipelining-outer-loops -fuse-linker-plugin -pipe -g0 -Wl,-O1 -Wl,--as-needed -Wl,--sort-common -s -Wl,-lpthread -Wl,-lgomp -Wl,-z,norelro -Wl,-z,now  -Wl,-O1 -Wl,--as-needed -Wl,--sort-common -s -Wl,-lpthread -Wl,-lgomp -Wl,-z,norelro -Wl,-z,now -march=znver2 -O3 -fgraphite-identity -floop-nest-optimize -fdevirtualize-at-ltrans -fipa-pta -fno-semantic-interposition -flto=12 -fno-plt -fno-signed-zeros -fno-trapping-math -fassociative-math -freciprocal-math -fno-math-errno -ffinite-math-only -fno-rounding-math -fno-signaling-nans -fcx-limited-range -fexcess-precision=fast -falign-functions=32 -fno-stack-protector -fno-stack-clash-protection -fstack-check=no -fno-stack-check -fbranch-target-load-optimize2 -freschedule-modulo-scheduled-loops -fsched-pressure -fsched-spec-load -fsched-stalled-insns=0 -fsched2-use-superblocks -fselective-scheduling -fselective-scheduling2 -fsel-sched-pipelining -fsel-sched-pipelining-outer-loops -fuse-linker-plugin -pipe -g0 -o tempfile tempfile.o  
x86_64-pc-linux-gnu-gcc  -march=znver2 -O3 -fgraphite-identity -floop-nest-optimize -fdevirtualize-at-ltrans -fipa-pta -fno-semantic-interposition -flto=12 -fno-plt -fno-signed-zeros -fno-trapping-math -fassociative-math -freciprocal-math -fno-math-errno -ffinite-math-only -fno-rounding-math -fno-signaling-nans -fcx-limited-range -fexcess-precision=fast -falign-functions=32 -fno-stack-protector -fno-stack-clash-protection -fstack-check=no -fno-stack-check -fbranch-target-load-optimize2 -freschedule-modulo-scheduled-loops -fsched-pressure -fsched-spec-load -fsched-stalled-insns=0 -fsched2-use-superblocks -fselective-scheduling -fselective-scheduling2 -fsel-sched-pipelining -fsel-sched-pipelining-outer-loops -fuse-linker-plugin -pipe -g0 -Wl,-O1 -Wl,--as-needed -Wl,--sort-common -s -Wl,-lpthread -Wl,-lgomp -Wl,-z,norelro -Wl,-z,now  -Wl,-O1 -Wl,--as-needed -Wl,--sort-common -s -Wl,-lpthread -Wl,-lgomp -Wl,-z,norelro -Wl,-z,now -march=znver2 -O3 -fgraphite-identity -floop-nest-optimize -fdevirtualize-at-ltrans -fipa-pta -fno-semantic-interposition -flto=12 -fno-plt -fno-signed-zeros -fno-trapping-math -fassociative-math -freciprocal-math -fno-math-errno -ffinite-math-only -fno-rounding-math -fno-signaling-nans -fcx-limited-range -fexcess-precision=fast -falign-functions=32 -fno-stack-protector -fno-stack-clash-protection -fstack-check=no -fno-stack-check -fbranch-target-load-optimize2 -freschedule-modulo-scheduled-loops -fsched-pressure -fsched-spec-load -fsched-stalled-insns=0 -fsched2-use-superblocks -fselective-scheduling -fselective-scheduling2 -fsel-sched-pipelining -fsel-sched-pipelining-outer-loops -fuse-linker-plugin -pipe -g0 -o run-parts run-parts.o  
make[1]: Leaving directory '/tmp/portage/sys-apps/debianutils-4.9.3/work/debianutils-4.9.3'
>>> Source compiled.
>>> Test phase [not enabled]: sys-apps/debianutils-4.9.3

>>> Install sys-apps/debianutils-4.9.3 into /tmp/portage/sys-apps/debianutils-4.9.3/image
>>> Completed installing sys-apps/debianutils-4.9.3 into /tmp/portage/sys-apps/debianutils-4.9.3/image

 * Final size of build directory: 1860 KiB (1.8 MiB)
 * Final size of installed tree:   180 KiB



 * QA Notice: Pre-stripped files found:
 * /bin/tempfile
 * /bin/run-parts
 * /usr/bin/ischroot
./
./bin/
./bin/tempfile
./bin/run-parts
./usr/
./usr/bin/
./usr/bin/ischroot
./usr/sbin/
./usr/sbin/savelog
./usr/share/
./usr/share/man/
./usr/share/man/man1/
./usr/share/man/man1/ischroot.1.bz2
./usr/share/man/man1/tempfile.1.bz2
./usr/share/man/man8/
./usr/share/man/man8/run-parts.8.bz2
./usr/share/man/man8/savelog.8.bz2
./usr/share/doc/
./usr/share/doc/debianutils-4.9.3/
./usr/share/doc/debianutils-4.9.3/control.bz2
./usr/share/doc/debianutils-4.9.3/changelog.bz2
>>> Done.
 * checking 8 files for package collisions
>>> Merging sys-apps/debianutils-4.9.3 to /
 * removing unneeded *.la files
--- /usr/
--- /usr/share/
--- /usr/share/man/
--- /usr/share/man/man8/
>>> /usr/share/man/man8/savelog.8.bz2
>>> /usr/share/man/man8/run-parts.8.bz2
--- /usr/share/man/man1/
>>> /usr/share/man/man1/tempfile.1.bz2
>>> /usr/share/man/man1/ischroot.1.bz2
--- /usr/sbin/
>>> /usr/sbin/savelog
--- /usr/bin/
>>> /usr/bin/ischroot
--- /bin/
>>> /bin/run-parts
>>> /bin/tempfile
>>> Safely unmerging already-installed instance...
>>> Original instance of package unmerged safely.
>>> sys-apps/debianutils-4.9.3 merged.
