No package files given... Grabbing a set.
--- replaced obj /usr/share/man/man8/efibootmgr.8.bz2
--- replaced obj /usr/share/man/man8/efibootmgr.8
--- replaced obj /usr/share/man/man8/efibootdump.8.bz2
--- replaced obj /usr/share/man/man8/efibootdump.8
--- replaced dir /usr/share/man/man8
--- replaced dir /usr/share/man
--- replaced dir /usr/share
--- replaced obj /usr/sbin/efibootmgr
--- replaced obj /usr/sbin/efibootdump
--- replaced dir /usr/sbin
--- replaced dir /usr
>>> Regenerating /etc/ld.so.cache...
