No package files given... Grabbing a set.
--- replaced obj /usr/share/man/man8/veritysetup.8.bz2
--- replaced obj /usr/share/man/man8/integritysetup.8.bz2
--- replaced obj /usr/share/man/man8/cryptsetup.8.bz2
--- replaced dir /usr/share/man/man8
--- replaced dir /usr/share/man
--- replaced dir /usr/share
--- replaced obj /usr/lib64/pkgconfig/libcryptsetup.pc
--- replaced dir /usr/lib64/pkgconfig
--- replaced obj /usr/lib64/libcryptsetup.so.12.6.0
--- replaced sym /usr/lib64/libcryptsetup.so.12
--- replaced sym /usr/lib64/libcryptsetup.so
--- replaced dir /usr/lib64
--- replaced obj /usr/lib/tmpfiles.d/cryptsetup.conf
--- replaced dir /usr/lib/tmpfiles.d
--- replaced dir /usr/lib
--- replaced obj /usr/include/libcryptsetup.h
--- replaced dir /usr/include
--- replaced dir /usr
--- replaced obj /sbin/veritysetup
--- replaced obj /sbin/integritysetup
--- replaced obj /sbin/cryptsetup
--- replaced dir /sbin
--- replaced obj /etc/init.d/dmcrypt
--- replaced dir /etc/init.d
--- replaced obj /etc/conf.d/dmcrypt
--- replaced dir /etc/conf.d
--- replaced dir /etc
>>> Regenerating /etc/ld.so.cache...
