No package files given... Grabbing a set.
--- replaced obj /usr/lib64/libomptarget.so
--- replaced obj /usr/lib64/libomptarget.rtl.x86_64.so
--- replaced obj /usr/lib64/libomp.so
--- replaced dir /usr/lib64
--- replaced obj /usr/include/omp.h
--- replaced dir /usr/include
--- replaced dir /usr
>>> Regenerating /etc/ld.so.cache...
