No package files given... Grabbing a set.
--- replaced obj /var/log/journal/.keep_sys-apps_systemd-0
--- replaced dir /var/log/journal
--- replaced dir /var/log
--- replaced obj /var/lib/systemd/.keep_sys-apps_systemd-0
--- replaced dir /var/lib/systemd
--- replaced dir /var/lib
--- replaced dir /var
--- replaced obj /usr/share/zsh/site-functions/_udevadm
--- replaced obj /usr/share/zsh/site-functions/_timedatectl
--- replaced obj /usr/share/zsh/site-functions/_systemd-tmpfiles
--- replaced obj /usr/share/zsh/site-functions/_systemd-run
--- replaced obj /usr/share/zsh/site-functions/_systemd-nspawn
--- replaced obj /usr/share/zsh/site-functions/_systemd-inhibit
--- replaced obj /usr/share/zsh/site-functions/_systemd-delta
--- replaced obj /usr/share/zsh/site-functions/_systemd-analyze
--- replaced obj /usr/share/zsh/site-functions/_systemd
--- replaced obj /usr/share/zsh/site-functions/_systemctl
--- replaced obj /usr/share/zsh/site-functions/_sd_unit_files
--- replaced obj /usr/share/zsh/site-functions/_sd_outputmodes
--- replaced obj /usr/share/zsh/site-functions/_sd_machines
--- replaced obj /usr/share/zsh/site-functions/_sd_hosts_or_user_at_host
--- replaced obj /usr/share/zsh/site-functions/_resolvectl
--- replaced obj /usr/share/zsh/site-functions/_networkctl
--- replaced obj /usr/share/zsh/site-functions/_machinectl
--- replaced obj /usr/share/zsh/site-functions/_loginctl
--- replaced obj /usr/share/zsh/site-functions/_localectl
--- replaced obj /usr/share/zsh/site-functions/_kernel-install
--- replaced obj /usr/share/zsh/site-functions/_journalctl
--- replaced obj /usr/share/zsh/site-functions/_hostnamectl
--- replaced obj /usr/share/zsh/site-functions/_coredumpctl
--- replaced obj /usr/share/zsh/site-functions/_busctl
--- replaced obj /usr/share/zsh/site-functions/_bootctl
--- replaced dir /usr/share/zsh/site-functions
--- replaced dir /usr/share/zsh
--- replaced obj /usr/share/systemd/language-fallback-map
--- replaced obj /usr/share/systemd/kbd-model-map
--- replaced dir /usr/share/systemd
--- replaced obj /usr/share/polkit-1/rules.d/systemd-networkd.rules
--- replaced dir /usr/share/polkit-1/rules.d
--- replaced obj /usr/share/polkit-1/actions/org.freedesktop.timedate1.policy
--- replaced obj /usr/share/polkit-1/actions/org.freedesktop.systemd1.policy
--- replaced obj /usr/share/polkit-1/actions/org.freedesktop.resolve1.policy
--- replaced obj /usr/share/polkit-1/actions/org.freedesktop.portable1.policy
--- replaced obj /usr/share/polkit-1/actions/org.freedesktop.network1.policy
--- replaced obj /usr/share/polkit-1/actions/org.freedesktop.machine1.policy
--- replaced obj /usr/share/polkit-1/actions/org.freedesktop.login1.policy
--- replaced obj /usr/share/polkit-1/actions/org.freedesktop.locale1.policy
--- replaced obj /usr/share/polkit-1/actions/org.freedesktop.hostname1.policy
--- replaced dir /usr/share/polkit-1/actions
--- replaced dir /usr/share/polkit-1
--- replaced obj /usr/share/pkgconfig/udev.pc
--- replaced obj /usr/share/pkgconfig/systemd.pc
--- replaced dir /usr/share/pkgconfig
--- replaced obj /usr/share/man/man8/udevadm.8.bz2
--- replaced obj /usr/share/man/man8/telinit.8.bz2
--- replaced obj /usr/share/man/man8/systemd-volatile-root.service.8.bz2
--- replaced obj /usr/share/man/man8/systemd-volatile-root.8
--- replaced obj /usr/share/man/man8/systemd-vconsole-setup.service.8.bz2
--- replaced obj /usr/share/man/man8/systemd-vconsole-setup.8
--- replaced obj /usr/share/man/man8/systemd-userdbd.service.8.bz2
--- replaced obj /usr/share/man/man8/systemd-userdbd.8
--- replaced obj /usr/share/man/man8/systemd-user-sessions.service.8.bz2
--- replaced obj /usr/share/man/man8/systemd-user-sessions.8
--- replaced obj /usr/share/man/man8/systemd-update-utmp.service.8.bz2
--- replaced obj /usr/share/man/man8/systemd-update-utmp.8
--- replaced obj /usr/share/man/man8/systemd-update-utmp-runlevel.service.8
--- replaced obj /usr/share/man/man8/systemd-update-done.service.8.bz2
--- replaced obj /usr/share/man/man8/systemd-update-done.8
--- replaced obj /usr/share/man/man8/systemd-udevd.service.8.bz2
--- replaced obj /usr/share/man/man8/systemd-udevd.8
--- replaced obj /usr/share/man/man8/systemd-udevd-kernel.socket.8
--- replaced obj /usr/share/man/man8/systemd-udevd-control.socket.8
--- replaced obj /usr/share/man/man8/systemd-udev-settle.service.8.bz2
--- replaced obj /usr/share/man/man8/systemd-tmpfiles.8.bz2
--- replaced obj /usr/share/man/man8/systemd-tmpfiles-setup.service.8
--- replaced obj /usr/share/man/man8/systemd-tmpfiles-setup-dev.service.8
--- replaced obj /usr/share/man/man8/systemd-tmpfiles-clean.timer.8
--- replaced obj /usr/share/man/man8/systemd-tmpfiles-clean.service.8
--- replaced obj /usr/share/man/man8/systemd-timesyncd.service.8.bz2
--- replaced obj /usr/share/man/man8/systemd-timesyncd.8
--- replaced obj /usr/share/man/man8/systemd-timedated.service.8.bz2
--- replaced obj /usr/share/man/man8/systemd-timedated.8
--- replaced obj /usr/share/man/man8/systemd-time-wait-sync.service.8.bz2
--- replaced obj /usr/share/man/man8/systemd-time-wait-sync.8
--- replaced obj /usr/share/man/man8/systemd-sysv-generator.8.bz2
--- replaced obj /usr/share/man/man8/systemd-sysusers.service.8
--- replaced obj /usr/share/man/man8/systemd-sysusers.8.bz2
--- replaced obj /usr/share/man/man8/systemd-system-update-generator.8.bz2
--- replaced obj /usr/share/man/man8/systemd-sysctl.service.8.bz2
--- replaced obj /usr/share/man/man8/systemd-sysctl.8
--- replaced obj /usr/share/man/man8/systemd-suspend.service.8.bz2
--- replaced obj /usr/share/man/man8/systemd-suspend-then-hibernate.service.8
--- replaced obj /usr/share/man/man8/systemd-socket-proxyd.8.bz2
--- replaced obj /usr/share/man/man8/systemd-sleep.8
--- replaced obj /usr/share/man/man8/systemd-shutdown.8
--- replaced obj /usr/share/man/man8/systemd-run-generator.8.bz2
--- replaced obj /usr/share/man/man8/systemd-rfkill.socket.8
--- replaced obj /usr/share/man/man8/systemd-rfkill.service.8.bz2
--- replaced obj /usr/share/man/man8/systemd-rfkill.8
--- replaced obj /usr/share/man/man8/systemd-resolved.service.8.bz2
--- replaced obj /usr/share/man/man8/systemd-resolved.8
--- replaced obj /usr/share/man/man8/systemd-remount-fs.service.8.bz2
--- replaced obj /usr/share/man/man8/systemd-remount-fs.8
--- replaced obj /usr/share/man/man8/systemd-reboot.service.8
--- replaced obj /usr/share/man/man8/systemd-rc-local-generator.8.bz2
--- replaced obj /usr/share/man/man8/systemd-random-seed.service.8.bz2
--- replaced obj /usr/share/man/man8/systemd-random-seed.8
--- replaced obj /usr/share/man/man8/systemd-quotacheck.service.8.bz2
--- replaced obj /usr/share/man/man8/systemd-quotacheck.8
--- replaced obj /usr/share/man/man8/systemd-pstore.service.8.bz2
--- replaced obj /usr/share/man/man8/systemd-pstore.8
--- replaced obj /usr/share/man/man8/systemd-poweroff.service.8
--- replaced obj /usr/share/man/man8/systemd-portabled.service.8.bz2
--- replaced obj /usr/share/man/man8/systemd-portabled.8
--- replaced obj /usr/share/man/man8/systemd-networkd.service.8.bz2
--- replaced obj /usr/share/man/man8/systemd-networkd.8
--- replaced obj /usr/share/man/man8/systemd-networkd-wait-online.service.8.bz2
--- replaced obj /usr/share/man/man8/systemd-networkd-wait-online.8
--- replaced obj /usr/share/man/man8/systemd-network-generator.service.8.bz2
--- replaced obj /usr/share/man/man8/systemd-network-generator.8
--- replaced obj /usr/share/man/man8/systemd-modules-load.service.8.bz2
--- replaced obj /usr/share/man/man8/systemd-modules-load.8
--- replaced obj /usr/share/man/man8/systemd-mkswap@.service.8
--- replaced obj /usr/share/man/man8/systemd-makefs@.service.8.bz2
--- replaced obj /usr/share/man/man8/systemd-makefs.8
--- replaced obj /usr/share/man/man8/systemd-machined.service.8.bz2
--- replaced obj /usr/share/man/man8/systemd-machined.8
--- replaced obj /usr/share/man/man8/systemd-machine-id-commit.service.8.bz2
--- replaced obj /usr/share/man/man8/systemd-logind.service.8.bz2
--- replaced obj /usr/share/man/man8/systemd-logind.8
--- replaced obj /usr/share/man/man8/systemd-localed.service.8.bz2
--- replaced obj /usr/share/man/man8/systemd-localed.8
--- replaced obj /usr/share/man/man8/systemd-kexec.service.8
--- replaced obj /usr/share/man/man8/systemd-journald@.socket.8
--- replaced obj /usr/share/man/man8/systemd-journald@.service.8
--- replaced obj /usr/share/man/man8/systemd-journald.socket.8
--- replaced obj /usr/share/man/man8/systemd-journald.service.8.bz2
--- replaced obj /usr/share/man/man8/systemd-journald.8
--- replaced obj /usr/share/man/man8/systemd-journald-varlink@.socket.8
--- replaced obj /usr/share/man/man8/systemd-journald-dev-log.socket.8
--- replaced obj /usr/share/man/man8/systemd-journald-audit.socket.8
--- replaced obj /usr/share/man/man8/systemd-initctl.socket.8
--- replaced obj /usr/share/man/man8/systemd-initctl.service.8.bz2
--- replaced obj /usr/share/man/man8/systemd-initctl.8
--- replaced obj /usr/share/man/man8/systemd-hybrid-sleep.service.8
--- replaced obj /usr/share/man/man8/systemd-hwdb.8.bz2
--- replaced obj /usr/share/man/man8/systemd-hostnamed.service.8.bz2
--- replaced obj /usr/share/man/man8/systemd-hostnamed.8
--- replaced obj /usr/share/man/man8/systemd-hibernate.service.8
--- replaced obj /usr/share/man/man8/systemd-hibernate-resume@.service.8.bz2
--- replaced obj /usr/share/man/man8/systemd-hibernate-resume.8
--- replaced obj /usr/share/man/man8/systemd-hibernate-resume-generator.8.bz2
--- replaced obj /usr/share/man/man8/systemd-halt.service.8.bz2
--- replaced obj /usr/share/man/man8/systemd-growfs@.service.8
--- replaced obj /usr/share/man/man8/systemd-growfs.8
--- replaced obj /usr/share/man/man8/systemd-gpt-auto-generator.8.bz2
--- replaced obj /usr/share/man/man8/systemd-getty-generator.8.bz2
--- replaced obj /usr/share/man/man8/systemd-fstab-generator.8.bz2
--- replaced obj /usr/share/man/man8/systemd-fsck@.service.8.bz2
--- replaced obj /usr/share/man/man8/systemd-fsck.8
--- replaced obj /usr/share/man/man8/systemd-fsck-root.service.8
--- replaced obj /usr/share/man/man8/systemd-environment-d-generator.8.bz2
--- replaced obj /usr/share/man/man8/systemd-debug-generator.8.bz2
--- replaced obj /usr/share/man/man8/systemd-coredump@.service.8
--- replaced obj /usr/share/man/man8/systemd-coredump.socket.8
--- replaced obj /usr/share/man/man8/systemd-coredump.8.bz2
--- replaced obj /usr/share/man/man8/systemd-boot-system-token.service.8.bz2
--- replaced obj /usr/share/man/man8/systemd-boot-check-no-failures.service.8.bz2
--- replaced obj /usr/share/man/man8/systemd-boot-check-no-failures.8
--- replaced obj /usr/share/man/man8/systemd-bless-boot.service.8.bz2
--- replaced obj /usr/share/man/man8/systemd-bless-boot.8
--- replaced obj /usr/share/man/man8/systemd-bless-boot-generator.8.bz2
--- replaced obj /usr/share/man/man8/systemd-binfmt.service.8.bz2
--- replaced obj /usr/share/man/man8/systemd-binfmt.8
--- replaced obj /usr/share/man/man8/systemd-backlight@.service.8.bz2
--- replaced obj /usr/share/man/man8/systemd-backlight.8
--- replaced obj /usr/share/man/man8/systemd-ask-password-wall.service.8
--- replaced obj /usr/share/man/man8/systemd-ask-password-wall.path.8
--- replaced obj /usr/share/man/man8/systemd-ask-password-console.service.8.bz2
--- replaced obj /usr/share/man/man8/systemd-ask-password-console.path.8
--- replaced obj /usr/share/man/man8/shutdown.8.bz2
--- replaced obj /usr/share/man/man8/runlevel.8.bz2
--- replaced obj /usr/share/man/man8/reboot.8
--- replaced obj /usr/share/man/man8/poweroff.8
--- replaced obj /usr/share/man/man8/pam_systemd.8.bz2
--- replaced obj /usr/share/man/man8/nss-systemd.8.bz2
--- replaced obj /usr/share/man/man8/nss-resolve.8.bz2
--- replaced obj /usr/share/man/man8/nss-mymachines.8.bz2
--- replaced obj /usr/share/man/man8/nss-myhostname.8.bz2
--- replaced obj /usr/share/man/man8/libnss_systemd.so.2.8
--- replaced obj /usr/share/man/man8/libnss_resolve.so.2.8
--- replaced obj /usr/share/man/man8/libnss_mymachines.so.2.8
--- replaced obj /usr/share/man/man8/libnss_myhostname.so.2.8
--- replaced obj /usr/share/man/man8/kernel-install.8.bz2
--- replaced obj /usr/share/man/man8/halt.8.bz2
--- replaced obj /usr/share/man/man8/30-systemd-environment-d-generator.8
--- replaced dir /usr/share/man/man8
--- replaced obj /usr/share/man/man7/udev.7.bz2
--- replaced obj /usr/share/man/man7/systemd.time.7.bz2
--- replaced obj /usr/share/man/man7/systemd.syntax.7.bz2
--- replaced obj /usr/share/man/man7/systemd.special.7.bz2
--- replaced obj /usr/share/man/man7/systemd.offline-updates.7.bz2
--- replaced obj /usr/share/man/man7/systemd.net-naming-scheme.7.bz2
--- replaced obj /usr/share/man/man7/systemd.journal-fields.7.bz2
--- replaced obj /usr/share/man/man7/systemd.index.7.bz2
--- replaced obj /usr/share/man/man7/systemd.generator.7.bz2
--- replaced obj /usr/share/man/man7/systemd.environment-generator.7.bz2
--- replaced obj /usr/share/man/man7/systemd.directives.7.bz2
--- replaced obj /usr/share/man/man7/systemd-boot.7.bz2
--- replaced obj /usr/share/man/man7/sd-boot.7
--- replaced obj /usr/share/man/man7/kernel-command-line.7.bz2
--- replaced obj /usr/share/man/man7/hwdb.7.bz2
--- replaced obj /usr/share/man/man7/file-hierarchy.7.bz2
--- replaced obj /usr/share/man/man7/daemon.7.bz2
--- replaced obj /usr/share/man/man7/bootup.7.bz2
--- replaced dir /usr/share/man/man7
--- replaced obj /usr/share/man/man5/vconsole.conf.5.bz2
--- replaced obj /usr/share/man/man5/user@.service.5.bz2
--- replaced obj /usr/share/man/man5/user.conf.d.5
--- replaced obj /usr/share/man/man5/user-runtime-dir@.service.5
--- replaced obj /usr/share/man/man5/udev.conf.5.bz2
--- replaced obj /usr/share/man/man5/tmpfiles.d.5.bz2
--- replaced obj /usr/share/man/man5/timesyncd.conf.d.5
--- replaced obj /usr/share/man/man5/timesyncd.conf.5.bz2
--- replaced obj /usr/share/man/man5/sysusers.d.5.bz2
--- replaced obj /usr/share/man/man5/systemd.unit.5.bz2
--- replaced obj /usr/share/man/man5/systemd.timer.5.bz2
--- replaced obj /usr/share/man/man5/systemd.target.5.bz2
--- replaced obj /usr/share/man/man5/systemd.swap.5.bz2
--- replaced obj /usr/share/man/man5/systemd.socket.5.bz2
--- replaced obj /usr/share/man/man5/systemd.slice.5.bz2
--- replaced obj /usr/share/man/man5/systemd.service.5.bz2
--- replaced obj /usr/share/man/man5/systemd.scope.5.bz2
--- replaced obj /usr/share/man/man5/systemd.resource-control.5.bz2
--- replaced obj /usr/share/man/man5/systemd.preset.5.bz2
--- replaced obj /usr/share/man/man5/systemd.positive.5
--- replaced obj /usr/share/man/man5/systemd.path.5.bz2
--- replaced obj /usr/share/man/man5/systemd.nspawn.5.bz2
--- replaced obj /usr/share/man/man5/systemd.network.5.bz2
--- replaced obj /usr/share/man/man5/systemd.netdev.5.bz2
--- replaced obj /usr/share/man/man5/systemd.negative.5
--- replaced obj /usr/share/man/man5/systemd.mount.5.bz2
--- replaced obj /usr/share/man/man5/systemd.link.5.bz2
--- replaced obj /usr/share/man/man5/systemd.kill.5.bz2
--- replaced obj /usr/share/man/man5/systemd.exec.5.bz2
--- replaced obj /usr/share/man/man5/systemd.dnssd.5.bz2
--- replaced obj /usr/share/man/man5/systemd.device.5.bz2
--- replaced obj /usr/share/man/man5/systemd.automount.5.bz2
--- replaced obj /usr/share/man/man5/systemd-user.conf.5
--- replaced obj /usr/share/man/man5/systemd-system.conf.5.bz2
--- replaced obj /usr/share/man/man5/systemd-sleep.conf.5.bz2
--- replaced obj /usr/share/man/man5/system.conf.d.5
--- replaced obj /usr/share/man/man5/sysctl.d.5.bz2
--- replaced obj /usr/share/man/man5/sleep.conf.d.5
--- replaced obj /usr/share/man/man5/resolved.conf.d.5
--- replaced obj /usr/share/man/man5/resolved.conf.5.bz2
--- replaced obj /usr/share/man/man5/pstore.conf.d.5
--- replaced obj /usr/share/man/man5/pstore.conf.5.bz2
--- replaced obj /usr/share/man/man5/os-release.5.bz2
--- replaced obj /usr/share/man/man5/networkd.conf.d.5
--- replaced obj /usr/share/man/man5/networkd.conf.5.bz2
--- replaced obj /usr/share/man/man5/modules-load.d.5.bz2
--- replaced obj /usr/share/man/man5/machine-info.5.bz2
--- replaced obj /usr/share/man/man5/machine-id.5.bz2
--- replaced obj /usr/share/man/man5/logind.conf.d.5
--- replaced obj /usr/share/man/man5/logind.conf.5.bz2
--- replaced obj /usr/share/man/man5/localtime.5.bz2
--- replaced obj /usr/share/man/man5/locale.conf.5.bz2
--- replaced obj /usr/share/man/man5/loader.conf.5.bz2
--- replaced obj /usr/share/man/man5/journald@.conf.5
--- replaced obj /usr/share/man/man5/journald.conf.d.5
--- replaced obj /usr/share/man/man5/journald.conf.5.bz2
--- replaced obj /usr/share/man/man5/hostname.5.bz2
--- replaced obj /usr/share/man/man5/environment.d.5.bz2
--- replaced obj /usr/share/man/man5/dnssec-trust-anchors.d.5.bz2
--- replaced obj /usr/share/man/man5/coredump.conf.d.5
--- replaced obj /usr/share/man/man5/coredump.conf.5.bz2
--- replaced obj /usr/share/man/man5/binfmt.d.5.bz2
--- replaced dir /usr/share/man/man5
--- replaced obj /usr/share/man/man3/udev_unref.3
--- replaced obj /usr/share/man/man3/udev_ref.3
--- replaced obj /usr/share/man/man3/udev_new.3.bz2
--- replaced obj /usr/share/man/man3/udev_monitor_unref.3
--- replaced obj /usr/share/man/man3/udev_monitor_set_receive_buffer_size.3
--- replaced obj /usr/share/man/man3/udev_monitor_ref.3
--- replaced obj /usr/share/man/man3/udev_monitor_receive_device.3.bz2
--- replaced obj /usr/share/man/man3/udev_monitor_new_from_netlink.3.bz2
--- replaced obj /usr/share/man/man3/udev_monitor_get_udev.3
--- replaced obj /usr/share/man/man3/udev_monitor_get_fd.3
--- replaced obj /usr/share/man/man3/udev_monitor_filter_update.3.bz2
--- replaced obj /usr/share/man/man3/udev_monitor_filter_remove.3
--- replaced obj /usr/share/man/man3/udev_monitor_filter_add_match_tag.3
--- replaced obj /usr/share/man/man3/udev_monitor_filter_add_match_subsystem_devtype.3
--- replaced obj /usr/share/man/man3/udev_monitor_enable_receiving.3
--- replaced obj /usr/share/man/man3/udev_list_entry_get_value.3
--- replaced obj /usr/share/man/man3/udev_list_entry_get_next.3
--- replaced obj /usr/share/man/man3/udev_list_entry_get_name.3
--- replaced obj /usr/share/man/man3/udev_list_entry_get_by_name.3
--- replaced obj /usr/share/man/man3/udev_list_entry.3.bz2
--- replaced obj /usr/share/man/man3/udev_enumerate_unref.3
--- replaced obj /usr/share/man/man3/udev_enumerate_scan_subsystems.3
--- replaced obj /usr/share/man/man3/udev_enumerate_scan_devices.3.bz2
--- replaced obj /usr/share/man/man3/udev_enumerate_ref.3
--- replaced obj /usr/share/man/man3/udev_enumerate_new.3.bz2
--- replaced obj /usr/share/man/man3/udev_enumerate_get_udev.3
--- replaced obj /usr/share/man/man3/udev_enumerate_get_list_entry.3
--- replaced obj /usr/share/man/man3/udev_enumerate_add_syspath.3
--- replaced obj /usr/share/man/man3/udev_enumerate_add_nomatch_sysattr.3
--- replaced obj /usr/share/man/man3/udev_enumerate_add_nomatch_subsystem.3
--- replaced obj /usr/share/man/man3/udev_enumerate_add_match_tag.3
--- replaced obj /usr/share/man/man3/udev_enumerate_add_match_sysname.3
--- replaced obj /usr/share/man/man3/udev_enumerate_add_match_sysattr.3
--- replaced obj /usr/share/man/man3/udev_enumerate_add_match_subsystem.3.bz2
--- replaced obj /usr/share/man/man3/udev_enumerate_add_match_property.3
--- replaced obj /usr/share/man/man3/udev_enumerate_add_match_parent.3
--- replaced obj /usr/share/man/man3/udev_enumerate_add_match_is_initialized.3
--- replaced obj /usr/share/man/man3/udev_device_unref.3
--- replaced obj /usr/share/man/man3/udev_device_set_sysattr_value.3
--- replaced obj /usr/share/man/man3/udev_device_ref.3
--- replaced obj /usr/share/man/man3/udev_device_new_from_syspath.3.bz2
--- replaced obj /usr/share/man/man3/udev_device_new_from_subsystem_sysname.3
--- replaced obj /usr/share/man/man3/udev_device_new_from_environment.3
--- replaced obj /usr/share/man/man3/udev_device_new_from_devnum.3
--- replaced obj /usr/share/man/man3/udev_device_new_from_device_id.3
--- replaced obj /usr/share/man/man3/udev_device_has_tag.3.bz2
--- replaced obj /usr/share/man/man3/udev_device_get_udev.3
--- replaced obj /usr/share/man/man3/udev_device_get_tags_list_entry.3
--- replaced obj /usr/share/man/man3/udev_device_get_syspath.3.bz2
--- replaced obj /usr/share/man/man3/udev_device_get_sysnum.3
--- replaced obj /usr/share/man/man3/udev_device_get_sysname.3
--- replaced obj /usr/share/man/man3/udev_device_get_sysattr_value.3
--- replaced obj /usr/share/man/man3/udev_device_get_sysattr_list_entry.3
--- replaced obj /usr/share/man/man3/udev_device_get_subsystem.3
--- replaced obj /usr/share/man/man3/udev_device_get_property_value.3
--- replaced obj /usr/share/man/man3/udev_device_get_properties_list_entry.3
--- replaced obj /usr/share/man/man3/udev_device_get_parent_with_subsystem_devtype.3
--- replaced obj /usr/share/man/man3/udev_device_get_parent.3
--- replaced obj /usr/share/man/man3/udev_device_get_is_initialized.3
--- replaced obj /usr/share/man/man3/udev_device_get_driver.3
--- replaced obj /usr/share/man/man3/udev_device_get_devtype.3
--- replaced obj /usr/share/man/man3/udev_device_get_devpath.3
--- replaced obj /usr/share/man/man3/udev_device_get_devnum.3
--- replaced obj /usr/share/man/man3/udev_device_get_devnode.3
--- replaced obj /usr/share/man/man3/udev_device_get_devlinks_list_entry.3
--- replaced obj /usr/share/man/man3/udev_device_get_action.3
--- replaced obj /usr/share/man/man3/sd_watchdog_enabled.3.bz2
--- replaced obj /usr/share/man/man3/sd_uid_is_on_seat.3
--- replaced obj /usr/share/man/man3/sd_uid_get_state.3.bz2
--- replaced obj /usr/share/man/man3/sd_uid_get_sessions.3
--- replaced obj /usr/share/man/man3/sd_uid_get_seats.3
--- replaced obj /usr/share/man/man3/sd_uid_get_display.3
--- replaced obj /usr/share/man/man3/sd_session_is_remote.3
--- replaced obj /usr/share/man/man3/sd_session_is_active.3.bz2
--- replaced obj /usr/share/man/man3/sd_session_get_vt.3
--- replaced obj /usr/share/man/man3/sd_session_get_uid.3
--- replaced obj /usr/share/man/man3/sd_session_get_type.3
--- replaced obj /usr/share/man/man3/sd_session_get_tty.3
--- replaced obj /usr/share/man/man3/sd_session_get_state.3
--- replaced obj /usr/share/man/man3/sd_session_get_service.3
--- replaced obj /usr/share/man/man3/sd_session_get_seat.3
--- replaced obj /usr/share/man/man3/sd_session_get_remote_user.3
--- replaced obj /usr/share/man/man3/sd_session_get_remote_host.3
--- replaced obj /usr/share/man/man3/sd_session_get_display.3
--- replaced obj /usr/share/man/man3/sd_session_get_desktop.3
--- replaced obj /usr/share/man/man3/sd_session_get_class.3
--- replaced obj /usr/share/man/man3/sd_seat_get_sessions.3
--- replaced obj /usr/share/man/man3/sd_seat_get_active.3.bz2
--- replaced obj /usr/share/man/man3/sd_seat_can_tty.3
--- replaced obj /usr/share/man/man3/sd_seat_can_multi_session.3
--- replaced obj /usr/share/man/man3/sd_seat_can_graphical.3
--- replaced obj /usr/share/man/man3/sd_pid_notifyf.3
--- replaced obj /usr/share/man/man3/sd_pid_notify_with_fds.3
--- replaced obj /usr/share/man/man3/sd_pid_notify.3
--- replaced obj /usr/share/man/man3/sd_pid_get_user_unit.3
--- replaced obj /usr/share/man/man3/sd_pid_get_user_slice.3
--- replaced obj /usr/share/man/man3/sd_pid_get_unit.3
--- replaced obj /usr/share/man/man3/sd_pid_get_slice.3
--- replaced obj /usr/share/man/man3/sd_pid_get_session.3
--- replaced obj /usr/share/man/man3/sd_pid_get_owner_uid.3.bz2
--- replaced obj /usr/share/man/man3/sd_pid_get_machine_name.3
--- replaced obj /usr/share/man/man3/sd_pid_get_cgroup.3
--- replaced obj /usr/share/man/man3/sd_peer_get_user_unit.3
--- replaced obj /usr/share/man/man3/sd_peer_get_user_slice.3
--- replaced obj /usr/share/man/man3/sd_peer_get_unit.3
--- replaced obj /usr/share/man/man3/sd_peer_get_slice.3
--- replaced obj /usr/share/man/man3/sd_peer_get_session.3
--- replaced obj /usr/share/man/man3/sd_peer_get_owner_uid.3
--- replaced obj /usr/share/man/man3/sd_peer_get_machine_name.3
--- replaced obj /usr/share/man/man3/sd_peer_get_cgroup.3
--- replaced obj /usr/share/man/man3/sd_notifyf.3
--- replaced obj /usr/share/man/man3/sd_notify.3.bz2
--- replaced obj /usr/share/man/man3/sd_machine_get_ifindices.3
--- replaced obj /usr/share/man/man3/sd_machine_get_class.3.bz2
--- replaced obj /usr/share/man/man3/sd_login_monitor_unrefp.3
--- replaced obj /usr/share/man/man3/sd_login_monitor_unref.3
--- replaced obj /usr/share/man/man3/sd_login_monitor_new.3.bz2
--- replaced obj /usr/share/man/man3/sd_login_monitor_get_timeout.3
--- replaced obj /usr/share/man/man3/sd_login_monitor_get_fd.3
--- replaced obj /usr/share/man/man3/sd_login_monitor_get_events.3
--- replaced obj /usr/share/man/man3/sd_login_monitor_flush.3
--- replaced obj /usr/share/man/man3/sd_login_monitor.3
--- replaced obj /usr/share/man/man3/sd_listen_fds_with_names.3
--- replaced obj /usr/share/man/man3/sd_listen_fds.3.bz2
--- replaced obj /usr/share/man/man3/sd_journal_wait.3
--- replaced obj /usr/share/man/man3/sd_journal_test_cursor.3
--- replaced obj /usr/share/man/man3/sd_journal_stream_fd.3.bz2
--- replaced obj /usr/share/man/man3/sd_journal_set_data_threshold.3
--- replaced obj /usr/share/man/man3/sd_journal_sendv.3
--- replaced obj /usr/share/man/man3/sd_journal_send.3
--- replaced obj /usr/share/man/man3/sd_journal_seek_tail.3
--- replaced obj /usr/share/man/man3/sd_journal_seek_realtime_usec.3
--- replaced obj /usr/share/man/man3/sd_journal_seek_monotonic_usec.3
--- replaced obj /usr/share/man/man3/sd_journal_seek_head.3.bz2
--- replaced obj /usr/share/man/man3/sd_journal_seek_cursor.3
--- replaced obj /usr/share/man/man3/sd_journal_restart_unique.3
--- replaced obj /usr/share/man/man3/sd_journal_restart_fields.3
--- replaced obj /usr/share/man/man3/sd_journal_restart_data.3
--- replaced obj /usr/share/man/man3/sd_journal_reliable_fd.3
--- replaced obj /usr/share/man/man3/sd_journal_query_unique.3.bz2
--- replaced obj /usr/share/man/man3/sd_journal_process.3
--- replaced obj /usr/share/man/man3/sd_journal_printv.3
--- replaced obj /usr/share/man/man3/sd_journal_print.3.bz2
--- replaced obj /usr/share/man/man3/sd_journal_previous_skip.3
--- replaced obj /usr/share/man/man3/sd_journal_previous.3
--- replaced obj /usr/share/man/man3/sd_journal_perror.3
--- replaced obj /usr/share/man/man3/sd_journal_open_files_fd.3
--- replaced obj /usr/share/man/man3/sd_journal_open_files.3
--- replaced obj /usr/share/man/man3/sd_journal_open_directory_fd.3
--- replaced obj /usr/share/man/man3/sd_journal_open_directory.3
--- replaced obj /usr/share/man/man3/sd_journal_open.3.bz2
--- replaced obj /usr/share/man/man3/sd_journal_next_skip.3
--- replaced obj /usr/share/man/man3/sd_journal_next.3.bz2
--- replaced obj /usr/share/man/man3/sd_journal_has_runtime_files.3.bz2
--- replaced obj /usr/share/man/man3/sd_journal_has_persistent_files.3
--- replaced obj /usr/share/man/man3/sd_journal_get_usage.3.bz2
--- replaced obj /usr/share/man/man3/sd_journal_get_timeout.3
--- replaced obj /usr/share/man/man3/sd_journal_get_realtime_usec.3.bz2
--- replaced obj /usr/share/man/man3/sd_journal_get_monotonic_usec.3
--- replaced obj /usr/share/man/man3/sd_journal_get_fd.3.bz2
--- replaced obj /usr/share/man/man3/sd_journal_get_events.3
--- replaced obj /usr/share/man/man3/sd_journal_get_data_threshold.3
--- replaced obj /usr/share/man/man3/sd_journal_get_data.3.bz2
--- replaced obj /usr/share/man/man3/sd_journal_get_cutoff_realtime_usec.3.bz2
--- replaced obj /usr/share/man/man3/sd_journal_get_cutoff_monotonic_usec.3
--- replaced obj /usr/share/man/man3/sd_journal_get_cursor.3.bz2
--- replaced obj /usr/share/man/man3/sd_journal_get_catalog_for_message_id.3
--- replaced obj /usr/share/man/man3/sd_journal_get_catalog.3.bz2
--- replaced obj /usr/share/man/man3/sd_journal_flush_matches.3
--- replaced obj /usr/share/man/man3/sd_journal_enumerate_unique.3
--- replaced obj /usr/share/man/man3/sd_journal_enumerate_fields.3.bz2
--- replaced obj /usr/share/man/man3/sd_journal_enumerate_data.3
--- replaced obj /usr/share/man/man3/sd_journal_close.3
--- replaced obj /usr/share/man/man3/sd_journal_add_match.3.bz2
--- replaced obj /usr/share/man/man3/sd_journal_add_disjunction.3
--- replaced obj /usr/share/man/man3/sd_journal_add_conjunction.3
--- replaced obj /usr/share/man/man3/sd_journal.3
--- replaced obj /usr/share/man/man3/sd_is_special.3
--- replaced obj /usr/share/man/man3/sd_is_socket_unix.3
--- replaced obj /usr/share/man/man3/sd_is_socket_sockaddr.3
--- replaced obj /usr/share/man/man3/sd_is_socket_inet.3
--- replaced obj /usr/share/man/man3/sd_is_socket.3
--- replaced obj /usr/share/man/man3/sd_is_mq.3
--- replaced obj /usr/share/man/man3/sd_is_fifo.3.bz2
--- replaced obj /usr/share/man/man3/sd_id128_to_string.3.bz2
--- replaced obj /usr/share/man/man3/sd_id128_t.3
--- replaced obj /usr/share/man/man3/sd_id128_randomize.3.bz2
--- replaced obj /usr/share/man/man3/sd_id128_is_null.3
--- replaced obj /usr/share/man/man3/sd_id128_get_machine_app_specific.3
--- replaced obj /usr/share/man/man3/sd_id128_get_machine.3.bz2
--- replaced obj /usr/share/man/man3/sd_id128_get_invocation.3
--- replaced obj /usr/share/man/man3/sd_id128_get_boot_app_specific.3
--- replaced obj /usr/share/man/man3/sd_id128_get_boot.3
--- replaced obj /usr/share/man/man3/sd_id128_from_string.3
--- replaced obj /usr/share/man/man3/sd_id128_equal.3
--- replaced obj /usr/share/man/man3/sd_get_uids.3
--- replaced obj /usr/share/man/man3/sd_get_sessions.3
--- replaced obj /usr/share/man/man3/sd_get_seats.3.bz2
--- replaced obj /usr/share/man/man3/sd_get_machine_names.3
--- replaced obj /usr/share/man/man3/sd_event_wait.3.bz2
--- replaced obj /usr/share/man/man3/sd_event_unrefp.3
--- replaced obj /usr/share/man/man3/sd_event_unref.3
--- replaced obj /usr/share/man/man3/sd_event_time_handler_t.3
--- replaced obj /usr/share/man/man3/sd_event_source_unrefp.3
--- replaced obj /usr/share/man/man3/sd_event_source_unref.3.bz2
--- replaced obj /usr/share/man/man3/sd_event_source_set_userdata.3.bz2
--- replaced obj /usr/share/man/man3/sd_event_source_set_time_accuracy.3
--- replaced obj /usr/share/man/man3/sd_event_source_set_time.3
--- replaced obj /usr/share/man/man3/sd_event_source_set_priority.3.bz2
--- replaced obj /usr/share/man/man3/sd_event_source_set_prepare.3.bz2
--- replaced obj /usr/share/man/man3/sd_event_source_set_io_fd_own.3
--- replaced obj /usr/share/man/man3/sd_event_source_set_io_fd.3
--- replaced obj /usr/share/man/man3/sd_event_source_set_io_events.3
--- replaced obj /usr/share/man/man3/sd_event_source_set_floating.3.bz2
--- replaced obj /usr/share/man/man3/sd_event_source_set_enabled.3.bz2
--- replaced obj /usr/share/man/man3/sd_event_source_set_destroy_callback.3.bz2
--- replaced obj /usr/share/man/man3/sd_event_source_set_description.3.bz2
--- replaced obj /usr/share/man/man3/sd_event_source_set_child_process_own.3
--- replaced obj /usr/share/man/man3/sd_event_source_set_child_pidfd_own.3
--- replaced obj /usr/share/man/man3/sd_event_source_send_child_signal.3
--- replaced obj /usr/share/man/man3/sd_event_source_ref.3
--- replaced obj /usr/share/man/man3/sd_event_source_get_userdata.3
--- replaced obj /usr/share/man/man3/sd_event_source_get_time_clock.3
--- replaced obj /usr/share/man/man3/sd_event_source_get_time_accuracy.3
--- replaced obj /usr/share/man/man3/sd_event_source_get_time.3
--- replaced obj /usr/share/man/man3/sd_event_source_get_signal.3
--- replaced obj /usr/share/man/man3/sd_event_source_get_priority.3
--- replaced obj /usr/share/man/man3/sd_event_source_get_pending.3.bz2
--- replaced obj /usr/share/man/man3/sd_event_source_get_io_revents.3
--- replaced obj /usr/share/man/man3/sd_event_source_get_io_fd_own.3
--- replaced obj /usr/share/man/man3/sd_event_source_get_io_fd.3
--- replaced obj /usr/share/man/man3/sd_event_source_get_io_events.3
--- replaced obj /usr/share/man/man3/sd_event_source_get_inotify_mask.3
--- replaced obj /usr/share/man/man3/sd_event_source_get_floating.3
--- replaced obj /usr/share/man/man3/sd_event_source_get_event.3.bz2
--- replaced obj /usr/share/man/man3/sd_event_source_get_enabled.3
--- replaced obj /usr/share/man/man3/sd_event_source_get_destroy_callback.3
--- replaced obj /usr/share/man/man3/sd_event_source_get_description.3
--- replaced obj /usr/share/man/man3/sd_event_source_get_child_process_own.3
--- replaced obj /usr/share/man/man3/sd_event_source_get_child_pidfd_own.3
--- replaced obj /usr/share/man/man3/sd_event_source_get_child_pidfd.3
--- replaced obj /usr/share/man/man3/sd_event_source_get_child_pid.3
--- replaced obj /usr/share/man/man3/sd_event_source_disable_unrefp.3
--- replaced obj /usr/share/man/man3/sd_event_source_disable_unref.3
--- replaced obj /usr/share/man/man3/sd_event_source.3
--- replaced obj /usr/share/man/man3/sd_event_signal_handler_t.3
--- replaced obj /usr/share/man/man3/sd_event_set_watchdog.3.bz2
--- replaced obj /usr/share/man/man3/sd_event_run.3.bz2
--- replaced obj /usr/share/man/man3/sd_event_ref.3
--- replaced obj /usr/share/man/man3/sd_event_prepare.3
--- replaced obj /usr/share/man/man3/sd_event_now.3.bz2
--- replaced obj /usr/share/man/man3/sd_event_new.3.bz2
--- replaced obj /usr/share/man/man3/sd_event_loop.3
--- replaced obj /usr/share/man/man3/sd_event_io_handler_t.3
--- replaced obj /usr/share/man/man3/sd_event_inotify_handler_t.3
--- replaced obj /usr/share/man/man3/sd_event_handler_t.3
--- replaced obj /usr/share/man/man3/sd_event_get_watchdog.3
--- replaced obj /usr/share/man/man3/sd_event_get_tid.3
--- replaced obj /usr/share/man/man3/sd_event_get_state.3
--- replaced obj /usr/share/man/man3/sd_event_get_iteration.3
--- replaced obj /usr/share/man/man3/sd_event_get_fd.3.bz2
--- replaced obj /usr/share/man/man3/sd_event_get_exit_code.3
--- replaced obj /usr/share/man/man3/sd_event_exit.3.bz2
--- replaced obj /usr/share/man/man3/sd_event_dispatch.3
--- replaced obj /usr/share/man/man3/sd_event_destroy_t.3
--- replaced obj /usr/share/man/man3/sd_event_default.3
--- replaced obj /usr/share/man/man3/sd_event_child_handler_t.3
--- replaced obj /usr/share/man/man3/sd_event_add_time.3.bz2
--- replaced obj /usr/share/man/man3/sd_event_add_signal.3.bz2
--- replaced obj /usr/share/man/man3/sd_event_add_post.3
--- replaced obj /usr/share/man/man3/sd_event_add_io.3.bz2
--- replaced obj /usr/share/man/man3/sd_event_add_inotify.3.bz2
--- replaced obj /usr/share/man/man3/sd_event_add_exit.3
--- replaced obj /usr/share/man/man3/sd_event_add_defer.3.bz2
--- replaced obj /usr/share/man/man3/sd_event_add_child_pidfd.3
--- replaced obj /usr/share/man/man3/sd_event_add_child.3.bz2
--- replaced obj /usr/share/man/man3/sd_event.3
--- replaced obj /usr/share/man/man3/sd_bus_wait.3.bz2
--- replaced obj /usr/share/man/man3/sd_bus_unrefp.3
--- replaced obj /usr/share/man/man3/sd_bus_unref.3
--- replaced obj /usr/share/man/man3/sd_bus_track_unrefp.3
--- replaced obj /usr/share/man/man3/sd_bus_track_unref.3
--- replaced obj /usr/share/man/man3/sd_bus_track_set_userdata.3
--- replaced obj /usr/share/man/man3/sd_bus_track_set_recursive.3
--- replaced obj /usr/share/man/man3/sd_bus_track_set_destroy_callback.3
--- replaced obj /usr/share/man/man3/sd_bus_track_remove_sender.3
--- replaced obj /usr/share/man/man3/sd_bus_track_remove_name.3
--- replaced obj /usr/share/man/man3/sd_bus_track_ref.3
--- replaced obj /usr/share/man/man3/sd_bus_track_next.3
--- replaced obj /usr/share/man/man3/sd_bus_track_new.3.bz2
--- replaced obj /usr/share/man/man3/sd_bus_track_get_userdata.3
--- replaced obj /usr/share/man/man3/sd_bus_track_get_recursive.3
--- replaced obj /usr/share/man/man3/sd_bus_track_get_destroy_callback.3
--- replaced obj /usr/share/man/man3/sd_bus_track_get_bus.3
--- replaced obj /usr/share/man/man3/sd_bus_track_first.3
--- replaced obj /usr/share/man/man3/sd_bus_track_count_sender.3
--- replaced obj /usr/share/man/man3/sd_bus_track_count_name.3
--- replaced obj /usr/share/man/man3/sd_bus_track_count.3
--- replaced obj /usr/share/man/man3/sd_bus_track_contains.3
--- replaced obj /usr/share/man/man3/sd_bus_track_add_sender.3
--- replaced obj /usr/share/man/man3/sd_bus_track_add_name.3.bz2
--- replaced obj /usr/share/man/man3/sd_bus_slot_unrefp.3
--- replaced obj /usr/share/man/man3/sd_bus_slot_unref.3
--- replaced obj /usr/share/man/man3/sd_bus_slot_set_userdata.3.bz2
--- replaced obj /usr/share/man/man3/sd_bus_slot_set_floating.3.bz2
--- replaced obj /usr/share/man/man3/sd_bus_slot_set_destroy_callback.3.bz2
--- replaced obj /usr/share/man/man3/sd_bus_slot_set_description.3.bz2
--- replaced obj /usr/share/man/man3/sd_bus_slot_ref.3.bz2
--- replaced obj /usr/share/man/man3/sd_bus_slot_get_userdata.3
--- replaced obj /usr/share/man/man3/sd_bus_slot_get_floating.3
--- replaced obj /usr/share/man/man3/sd_bus_slot_get_destroy_callback.3
--- replaced obj /usr/share/man/man3/sd_bus_slot_get_description.3
--- replaced obj /usr/share/man/man3/sd_bus_slot_get_bus.3
--- replaced obj /usr/share/man/man3/sd_bus_set_watch_bind.3.bz2
--- replaced obj /usr/share/man/man3/sd_bus_set_trusted.3
--- replaced obj /usr/share/man/man3/sd_bus_set_sender.3.bz2
--- replaced obj /usr/share/man/man3/sd_bus_set_description.3.bz2
--- replaced obj /usr/share/man/man3/sd_bus_set_connected_signal.3.bz2
--- replaced obj /usr/share/man/man3/sd_bus_set_close_on_exit.3.bz2
--- replaced obj /usr/share/man/man3/sd_bus_set_anonymous.3
--- replaced obj /usr/share/man/man3/sd_bus_set_allow_interactive_authorization.3
--- replaced obj /usr/share/man/man3/sd_bus_request_name_async.3
--- replaced obj /usr/share/man/man3/sd_bus_request_name.3.bz2
--- replaced obj /usr/share/man/man3/sd_bus_reply_method_errorf.3
--- replaced obj /usr/share/man/man3/sd_bus_reply_method_error.3.bz2
--- replaced obj /usr/share/man/man3/sd_bus_reply_method_errnof.3
--- replaced obj /usr/share/man/man3/sd_bus_reply_method_errno.3
--- replaced obj /usr/share/man/man3/sd_bus_release_name_async.3
--- replaced obj /usr/share/man/man3/sd_bus_release_name.3
--- replaced obj /usr/share/man/man3/sd_bus_ref.3
--- replaced obj /usr/share/man/man3/sd_bus_process.3.bz2
--- replaced obj /usr/share/man/man3/sd_bus_path_encode_many.3
--- replaced obj /usr/share/man/man3/sd_bus_path_encode.3.bz2
--- replaced obj /usr/share/man/man3/sd_bus_path_decode_many.3
--- replaced obj /usr/share/man/man3/sd_bus_path_decode.3
--- replaced obj /usr/share/man/man3/sd_bus_open_with_description.3
--- replaced obj /usr/share/man/man3/sd_bus_open_user_with_description.3
--- replaced obj /usr/share/man/man3/sd_bus_open_user.3
--- replaced obj /usr/share/man/man3/sd_bus_open_system_with_description.3
--- replaced obj /usr/share/man/man3/sd_bus_open_system_remote.3
--- replaced obj /usr/share/man/man3/sd_bus_open_system_machine.3
--- replaced obj /usr/share/man/man3/sd_bus_open_system.3
--- replaced obj /usr/share/man/man3/sd_bus_open.3
--- replaced obj /usr/share/man/man3/sd_bus_new.3.bz2
--- replaced obj /usr/share/man/man3/sd_bus_negotiate_timestamp.3
--- replaced obj /usr/share/man/man3/sd_bus_negotiate_fds.3.bz2
--- replaced obj /usr/share/man/man3/sd_bus_negotiate_creds.3
--- replaced obj /usr/share/man/man3/sd_bus_message_verify_type.3.bz2
--- replaced obj /usr/share/man/man3/sd_bus_message_unrefp.3
--- replaced obj /usr/share/man/man3/sd_bus_message_unref.3
--- replaced obj /usr/share/man/man3/sd_bus_message_skip.3.bz2
--- replaced obj /usr/share/man/man3/sd_bus_message_set_sender.3
--- replaced obj /usr/share/man/man3/sd_bus_message_set_expect_reply.3.bz2
--- replaced obj /usr/share/man/man3/sd_bus_message_set_destination.3.bz2
--- replaced obj /usr/share/man/man3/sd_bus_message_set_auto_start.3
--- replaced obj /usr/share/man/man3/sd_bus_message_sensitive.3.bz2
--- replaced obj /usr/share/man/man3/sd_bus_message_rewind.3.bz2
--- replaced obj /usr/share/man/man3/sd_bus_message_ref.3
--- replaced obj /usr/share/man/man3/sd_bus_message_readv.3
--- replaced obj /usr/share/man/man3/sd_bus_message_read_basic.3.bz2
--- replaced obj /usr/share/man/man3/sd_bus_message_read_array.3.bz2
--- replaced obj /usr/share/man/man3/sd_bus_message_read.3.bz2
--- replaced obj /usr/share/man/man3/sd_bus_message_new_signal.3.bz2
--- replaced obj /usr/share/man/man3/sd_bus_message_new_method_return.3
--- replaced obj /usr/share/man/man3/sd_bus_message_new_method_errorf.3
--- replaced obj /usr/share/man/man3/sd_bus_message_new_method_error.3.bz2
--- replaced obj /usr/share/man/man3/sd_bus_message_new_method_errnof.3
--- replaced obj /usr/share/man/man3/sd_bus_message_new_method_errno.3
--- replaced obj /usr/share/man/man3/sd_bus_message_new_method_call.3.bz2
--- replaced obj /usr/share/man/man3/sd_bus_message_new.3.bz2
--- replaced obj /usr/share/man/man3/sd_bus_message_is_signal.3
--- replaced obj /usr/share/man/man3/sd_bus_message_is_method_error.3
--- replaced obj /usr/share/man/man3/sd_bus_message_is_method_call.3
--- replaced obj /usr/share/man/man3/sd_bus_message_is_empty.3
--- replaced obj /usr/share/man/man3/sd_bus_message_has_signature.3
--- replaced obj /usr/share/man/man3/sd_bus_message_get_type.3.bz2
--- replaced obj /usr/share/man/man3/sd_bus_message_get_signature.3.bz2
--- replaced obj /usr/share/man/man3/sd_bus_message_get_seqnum.3
--- replaced obj /usr/share/man/man3/sd_bus_message_get_sender.3
--- replaced obj /usr/share/man/man3/sd_bus_message_get_reply_cookie.3
--- replaced obj /usr/share/man/man3/sd_bus_message_get_realtime_usec.3
--- replaced obj /usr/share/man/man3/sd_bus_message_get_path.3
--- replaced obj /usr/share/man/man3/sd_bus_message_get_monotonic_usec.3.bz2
--- replaced obj /usr/share/man/man3/sd_bus_message_get_member.3
--- replaced obj /usr/share/man/man3/sd_bus_message_get_interface.3
--- replaced obj /usr/share/man/man3/sd_bus_message_get_expect_reply.3
--- replaced obj /usr/share/man/man3/sd_bus_message_get_destination.3
--- replaced obj /usr/share/man/man3/sd_bus_message_get_cookie.3.bz2
--- replaced obj /usr/share/man/man3/sd_bus_message_get_bus.3
--- replaced obj /usr/share/man/man3/sd_bus_message_get_auto_start.3
--- replaced obj /usr/share/man/man3/sd_bus_message_dump.3.bz2
--- replaced obj /usr/share/man/man3/sd_bus_message_copy.3.bz2
--- replaced obj /usr/share/man/man3/sd_bus_message_appendv.3
--- replaced obj /usr/share/man/man3/sd_bus_message_append_strv.3.bz2
--- replaced obj /usr/share/man/man3/sd_bus_message_append_string_space.3
--- replaced obj /usr/share/man/man3/sd_bus_message_append_string_memfd.3.bz2
--- replaced obj /usr/share/man/man3/sd_bus_message_append_string_iovec.3
--- replaced obj /usr/share/man/man3/sd_bus_message_append_basic.3.bz2
--- replaced obj /usr/share/man/man3/sd_bus_message_append_array_space.3
--- replaced obj /usr/share/man/man3/sd_bus_message_append_array_memfd.3
--- replaced obj /usr/share/man/man3/sd_bus_message_append_array_iovec.3
--- replaced obj /usr/share/man/man3/sd_bus_message_append_array.3.bz2
--- replaced obj /usr/share/man/man3/sd_bus_message_append.3.bz2
--- replaced obj /usr/share/man/man3/sd_bus_match_signal_async.3
--- replaced obj /usr/share/man/man3/sd_bus_match_signal.3
--- replaced obj /usr/share/man/man3/sd_bus_is_ready.3
--- replaced obj /usr/share/man/man3/sd_bus_is_open.3.bz2
--- replaced obj /usr/share/man/man3/sd_bus_get_watch_bind.3
--- replaced obj /usr/share/man/man3/sd_bus_get_timeout.3
--- replaced obj /usr/share/man/man3/sd_bus_get_sender.3
--- replaced obj /usr/share/man/man3/sd_bus_get_n_queued_write.3
--- replaced obj /usr/share/man/man3/sd_bus_get_n_queued_read.3.bz2
--- replaced obj /usr/share/man/man3/sd_bus_get_fd.3.bz2
--- replaced obj /usr/share/man/man3/sd_bus_get_events.3
--- replaced obj /usr/share/man/man3/sd_bus_get_event.3
--- replaced obj /usr/share/man/man3/sd_bus_get_description.3
--- replaced obj /usr/share/man/man3/sd_bus_get_connected_signal.3
--- replaced obj /usr/share/man/man3/sd_bus_get_close_on_exit.3
--- replaced obj /usr/share/man/man3/sd_bus_get_allow_interactive_authorization.3
--- replaced obj /usr/share/man/man3/sd_bus_flush_close_unrefp.3
--- replaced obj /usr/share/man/man3/sd_bus_flush_close_unref.3
--- replaced obj /usr/share/man/man3/sd_bus_flush.3
--- replaced obj /usr/share/man/man3/sd_bus_error_setf.3
--- replaced obj /usr/share/man/man3/sd_bus_error_set_errnofv.3
--- replaced obj /usr/share/man/man3/sd_bus_error_set_errnof.3
--- replaced obj /usr/share/man/man3/sd_bus_error_set_errno.3
--- replaced obj /usr/share/man/man3/sd_bus_error_set_const.3
--- replaced obj /usr/share/man/man3/sd_bus_error_set.3
--- replaced obj /usr/share/man/man3/sd_bus_error_move.3
--- replaced obj /usr/share/man/man3/sd_bus_error_map.3
--- replaced obj /usr/share/man/man3/sd_bus_error_is_set.3
--- replaced obj /usr/share/man/man3/sd_bus_error_has_name.3
--- replaced obj /usr/share/man/man3/sd_bus_error_get_errno.3
--- replaced obj /usr/share/man/man3/sd_bus_error_free.3
--- replaced obj /usr/share/man/man3/sd_bus_error_copy.3
--- replaced obj /usr/share/man/man3/sd_bus_error_add_map.3.bz2
--- replaced obj /usr/share/man/man3/sd_bus_error.3.bz2
--- replaced obj /usr/share/man/man3/sd_bus_enqueue_for_read.3.bz2
--- replaced obj /usr/share/man/man3/sd_bus_detach_event.3
--- replaced obj /usr/share/man/man3/sd_bus_destroy_t.3
--- replaced obj /usr/share/man/man3/sd_bus_default_user.3
--- replaced obj /usr/share/man/man3/sd_bus_default_system.3
--- replaced obj /usr/share/man/man3/sd_bus_default.3.bz2
--- replaced obj /usr/share/man/man3/sd_bus_creds_unrefp.3
--- replaced obj /usr/share/man/man3/sd_bus_creds_unref.3
--- replaced obj /usr/share/man/man3/sd_bus_creds_ref.3
--- replaced obj /usr/share/man/man3/sd_bus_creds_new_from_pid.3.bz2
--- replaced obj /usr/share/man/man3/sd_bus_creds_has_permitted_cap.3
--- replaced obj /usr/share/man/man3/sd_bus_creds_has_inheritable_cap.3
--- replaced obj /usr/share/man/man3/sd_bus_creds_has_effective_cap.3
--- replaced obj /usr/share/man/man3/sd_bus_creds_has_bounding_cap.3
--- replaced obj /usr/share/man/man3/sd_bus_creds_get_well_known_names.3
--- replaced obj /usr/share/man/man3/sd_bus_creds_get_user_unit.3
--- replaced obj /usr/share/man/man3/sd_bus_creds_get_user_slice.3
--- replaced obj /usr/share/man/man3/sd_bus_creds_get_unit.3
--- replaced obj /usr/share/man/man3/sd_bus_creds_get_unique_name.3
--- replaced obj /usr/share/man/man3/sd_bus_creds_get_uid.3
--- replaced obj /usr/share/man/man3/sd_bus_creds_get_tty.3
--- replaced obj /usr/share/man/man3/sd_bus_creds_get_tid_comm.3
--- replaced obj /usr/share/man/man3/sd_bus_creds_get_tid.3
--- replaced obj /usr/share/man/man3/sd_bus_creds_get_supplementary_gids.3
--- replaced obj /usr/share/man/man3/sd_bus_creds_get_suid.3
--- replaced obj /usr/share/man/man3/sd_bus_creds_get_slice.3
--- replaced obj /usr/share/man/man3/sd_bus_creds_get_sgid.3
--- replaced obj /usr/share/man/man3/sd_bus_creds_get_session.3
--- replaced obj /usr/share/man/man3/sd_bus_creds_get_selinux_context.3
--- replaced obj /usr/share/man/man3/sd_bus_creds_get_ppid.3
--- replaced obj /usr/share/man/man3/sd_bus_creds_get_pid.3.bz2
--- replaced obj /usr/share/man/man3/sd_bus_creds_get_owner_uid.3
--- replaced obj /usr/share/man/man3/sd_bus_creds_get_mask.3
--- replaced obj /usr/share/man/man3/sd_bus_creds_get_gid.3
--- replaced obj /usr/share/man/man3/sd_bus_creds_get_fsuid.3
--- replaced obj /usr/share/man/man3/sd_bus_creds_get_fsgid.3
--- replaced obj /usr/share/man/man3/sd_bus_creds_get_exe.3
--- replaced obj /usr/share/man/man3/sd_bus_creds_get_euid.3
--- replaced obj /usr/share/man/man3/sd_bus_creds_get_egid.3
--- replaced obj /usr/share/man/man3/sd_bus_creds_get_description.3
--- replaced obj /usr/share/man/man3/sd_bus_creds_get_comm.3
--- replaced obj /usr/share/man/man3/sd_bus_creds_get_cmdline.3
--- replaced obj /usr/share/man/man3/sd_bus_creds_get_cgroup.3
--- replaced obj /usr/share/man/man3/sd_bus_creds_get_augmented_mask.3
--- replaced obj /usr/share/man/man3/sd_bus_creds_get_audit_session_id.3
--- replaced obj /usr/share/man/man3/sd_bus_creds_get_audit_login_uid.3
--- replaced obj /usr/share/man/man3/sd_bus_close_unrefp.3
--- replaced obj /usr/share/man/man3/sd_bus_close_unref.3
--- replaced obj /usr/share/man/man3/sd_bus_close.3.bz2
--- replaced obj /usr/share/man/man3/sd_bus_attach_event.3.bz2
--- replaced obj /usr/share/man/man3/sd_bus_add_object_vtable.3.bz2
--- replaced obj /usr/share/man/man3/sd_bus_add_match_async.3
--- replaced obj /usr/share/man/man3/sd_bus_add_match.3.bz2
--- replaced obj /usr/share/man/man3/sd_bus_add_fallback_vtable.3
--- replaced obj /usr/share/man/man3/sd_booted.3.bz2
--- replaced obj /usr/share/man/man3/sd-login.3.bz2
--- replaced obj /usr/share/man/man3/sd-journal.3.bz2
--- replaced obj /usr/share/man/man3/sd-id128.3.bz2
--- replaced obj /usr/share/man/man3/sd-event.3.bz2
--- replaced obj /usr/share/man/man3/sd-daemon.3.bz2
--- replaced obj /usr/share/man/man3/sd-bus.3.bz2
--- replaced obj /usr/share/man/man3/sd-bus-errors.3.bz2
--- replaced obj /usr/share/man/man3/libudev.3.bz2
--- replaced obj /usr/share/man/man3/SD_WARNING.3
--- replaced obj /usr/share/man/man3/SD_NOTICE.3
--- replaced obj /usr/share/man/man3/SD_LISTEN_FDS_START.3
--- replaced obj /usr/share/man/man3/SD_JOURNAL_SYSTEM.3
--- replaced obj /usr/share/man/man3/SD_JOURNAL_SUPPRESS_LOCATION.3
--- replaced obj /usr/share/man/man3/SD_JOURNAL_RUNTIME_ONLY.3
--- replaced obj /usr/share/man/man3/SD_JOURNAL_OS_ROOT.3
--- replaced obj /usr/share/man/man3/SD_JOURNAL_NOP.3
--- replaced obj /usr/share/man/man3/SD_JOURNAL_LOCAL_ONLY.3
--- replaced obj /usr/share/man/man3/SD_JOURNAL_INVALIDATE.3
--- replaced obj /usr/share/man/man3/SD_JOURNAL_INCLUDE_DEFAULT_NAMESPACE.3
--- replaced obj /usr/share/man/man3/SD_JOURNAL_FOREACH_UNIQUE.3
--- replaced obj /usr/share/man/man3/SD_JOURNAL_FOREACH_FIELD.3
--- replaced obj /usr/share/man/man3/SD_JOURNAL_FOREACH_DATA.3
--- replaced obj /usr/share/man/man3/SD_JOURNAL_FOREACH_BACKWARDS.3
--- replaced obj /usr/share/man/man3/SD_JOURNAL_FOREACH.3
--- replaced obj /usr/share/man/man3/SD_JOURNAL_CURRENT_USER.3
--- replaced obj /usr/share/man/man3/SD_JOURNAL_APPEND.3
--- replaced obj /usr/share/man/man3/SD_JOURNAL_ALL_NAMESPACES.3
--- replaced obj /usr/share/man/man3/SD_INFO.3
--- replaced obj /usr/share/man/man3/SD_ID128_UUID_FORMAT_STR.3
--- replaced obj /usr/share/man/man3/SD_ID128_NULL.3
--- replaced obj /usr/share/man/man3/SD_ID128_MAKE_STR.3
--- replaced obj /usr/share/man/man3/SD_ID128_MAKE.3
--- replaced obj /usr/share/man/man3/SD_ID128_FORMAT_VAL.3
--- replaced obj /usr/share/man/man3/SD_ID128_FORMAT_STR.3
--- replaced obj /usr/share/man/man3/SD_ID128_CONST_STR.3
--- replaced obj /usr/share/man/man3/SD_EVENT_RUNNING.3
--- replaced obj /usr/share/man/man3/SD_EVENT_PRIORITY_NORMAL.3
--- replaced obj /usr/share/man/man3/SD_EVENT_PRIORITY_IMPORTANT.3
--- replaced obj /usr/share/man/man3/SD_EVENT_PRIORITY_IDLE.3
--- replaced obj /usr/share/man/man3/SD_EVENT_PREPARING.3
--- replaced obj /usr/share/man/man3/SD_EVENT_PENDING.3
--- replaced obj /usr/share/man/man3/SD_EVENT_ONESHOT.3
--- replaced obj /usr/share/man/man3/SD_EVENT_ON.3
--- replaced obj /usr/share/man/man3/SD_EVENT_OFF.3
--- replaced obj /usr/share/man/man3/SD_EVENT_INITIAL.3
--- replaced obj /usr/share/man/man3/SD_EVENT_FINISHED.3
--- replaced obj /usr/share/man/man3/SD_EVENT_EXITING.3
--- replaced obj /usr/share/man/man3/SD_EVENT_ARMED.3
--- replaced obj /usr/share/man/man3/SD_ERR.3
--- replaced obj /usr/share/man/man3/SD_EMERG.3
--- replaced obj /usr/share/man/man3/SD_DEBUG.3
--- replaced obj /usr/share/man/man3/SD_CRIT.3
--- replaced obj /usr/share/man/man3/SD_BUS_WRITABLE_PROPERTY.3
--- replaced obj /usr/share/man/man3/SD_BUS_VTABLE_START.3
--- replaced obj /usr/share/man/man3/SD_BUS_VTABLE_END.3
--- replaced obj /usr/share/man/man3/SD_BUS_SIGNAL_WITH_NAMES.3
--- replaced obj /usr/share/man/man3/SD_BUS_SIGNAL.3
--- replaced obj /usr/share/man/man3/SD_BUS_PROPERTY.3
--- replaced obj /usr/share/man/man3/SD_BUS_PARAM.3
--- replaced obj /usr/share/man/man3/SD_BUS_METHOD_WITH_OFFSET.3
--- replaced obj /usr/share/man/man3/SD_BUS_METHOD_WITH_NAMES_OFFSET.3
--- replaced obj /usr/share/man/man3/SD_BUS_METHOD_WITH_NAMES.3
--- replaced obj /usr/share/man/man3/SD_BUS_METHOD.3
--- replaced obj /usr/share/man/man3/SD_BUS_MESSAGE_SIGNAL.3
--- replaced obj /usr/share/man/man3/SD_BUS_MESSAGE_METHOD_RETURN.3
--- replaced obj /usr/share/man/man3/SD_BUS_MESSAGE_METHOD_ERROR.3
--- replaced obj /usr/share/man/man3/SD_BUS_MESSAGE_METHOD_CALL.3
--- replaced obj /usr/share/man/man3/SD_BUS_ERROR_UNKNOWN_PROPERTY.3
--- replaced obj /usr/share/man/man3/SD_BUS_ERROR_UNKNOWN_OBJECT.3
--- replaced obj /usr/share/man/man3/SD_BUS_ERROR_UNKNOWN_METHOD.3
--- replaced obj /usr/share/man/man3/SD_BUS_ERROR_UNKNOWN_INTERFACE.3
--- replaced obj /usr/share/man/man3/SD_BUS_ERROR_UNIX_PROCESS_ID_UNKNOWN.3
--- replaced obj /usr/share/man/man3/SD_BUS_ERROR_TIMEOUT.3
--- replaced obj /usr/share/man/man3/SD_BUS_ERROR_SERVICE_UNKNOWN.3
--- replaced obj /usr/share/man/man3/SD_BUS_ERROR_PROPERTY_READ_ONLY.3
--- replaced obj /usr/share/man/man3/SD_BUS_ERROR_NULL.3
--- replaced obj /usr/share/man/man3/SD_BUS_ERROR_NO_SERVER.3
--- replaced obj /usr/share/man/man3/SD_BUS_ERROR_NO_REPLY.3
--- replaced obj /usr/share/man/man3/SD_BUS_ERROR_NO_NETWORK.3
--- replaced obj /usr/share/man/man3/SD_BUS_ERROR_NO_MEMORY.3
--- replaced obj /usr/share/man/man3/SD_BUS_ERROR_NOT_SUPPORTED.3
--- replaced obj /usr/share/man/man3/SD_BUS_ERROR_NAME_HAS_NO_OWNER.3
--- replaced obj /usr/share/man/man3/SD_BUS_ERROR_MATCH_RULE_NOT_FOUND.3
--- replaced obj /usr/share/man/man3/SD_BUS_ERROR_MATCH_RULE_INVALID.3
--- replaced obj /usr/share/man/man3/SD_BUS_ERROR_MAP.3
--- replaced obj /usr/share/man/man3/SD_BUS_ERROR_MAKE_CONST.3
--- replaced obj /usr/share/man/man3/SD_BUS_ERROR_LIMITS_EXCEEDED.3
--- replaced obj /usr/share/man/man3/SD_BUS_ERROR_IO_ERROR.3
--- replaced obj /usr/share/man/man3/SD_BUS_ERROR_INVALID_SIGNATURE.3
--- replaced obj /usr/share/man/man3/SD_BUS_ERROR_INVALID_ARGS.3
--- replaced obj /usr/share/man/man3/SD_BUS_ERROR_INTERACTIVE_AUTHORIZATION_REQUIRED.3
--- replaced obj /usr/share/man/man3/SD_BUS_ERROR_INCONSISTENT_MESSAGE.3
--- replaced obj /usr/share/man/man3/SD_BUS_ERROR_FILE_NOT_FOUND.3
--- replaced obj /usr/share/man/man3/SD_BUS_ERROR_FILE_EXISTS.3
--- replaced obj /usr/share/man/man3/SD_BUS_ERROR_FAILED.3
--- replaced obj /usr/share/man/man3/SD_BUS_ERROR_END.3
--- replaced obj /usr/share/man/man3/SD_BUS_ERROR_DISCONNECTED.3
--- replaced obj /usr/share/man/man3/SD_BUS_ERROR_BAD_ADDRESS.3
--- replaced obj /usr/share/man/man3/SD_BUS_ERROR_AUTH_FAILED.3
--- replaced obj /usr/share/man/man3/SD_BUS_ERROR_ADDRESS_IN_USE.3
--- replaced obj /usr/share/man/man3/SD_BUS_ERROR_ACCESS_DENIED.3
--- replaced obj /usr/share/man/man3/SD_ALERT.3
--- replaced dir /usr/share/man/man3
--- replaced obj /usr/share/man/man1/userdbctl.1.bz2
--- replaced obj /usr/share/man/man1/timedatectl.1.bz2
--- replaced obj /usr/share/man/man1/systemd.1.bz2
--- replaced obj /usr/share/man/man1/systemd-umount.1
--- replaced obj /usr/share/man/man1/systemd-tty-ask-password-agent.1.bz2
--- replaced obj /usr/share/man/man1/systemd-socket-activate.1.bz2
--- replaced obj /usr/share/man/man1/systemd-run.1.bz2
--- replaced obj /usr/share/man/man1/systemd-path.1.bz2
--- replaced obj /usr/share/man/man1/systemd-nspawn.1.bz2
--- replaced obj /usr/share/man/man1/systemd-notify.1.bz2
--- replaced obj /usr/share/man/man1/systemd-mount.1.bz2
--- replaced obj /usr/share/man/man1/systemd-machine-id-setup.1.bz2
--- replaced obj /usr/share/man/man1/systemd-inhibit.1.bz2
--- replaced obj /usr/share/man/man1/systemd-id128.1.bz2
--- replaced obj /usr/share/man/man1/systemd-firstboot.service.1
--- replaced obj /usr/share/man/man1/systemd-firstboot.1.bz2
--- replaced obj /usr/share/man/man1/systemd-escape.1.bz2
--- replaced obj /usr/share/man/man1/systemd-detect-virt.1.bz2
--- replaced obj /usr/share/man/man1/systemd-delta.1.bz2
--- replaced obj /usr/share/man/man1/systemd-cgtop.1.bz2
--- replaced obj /usr/share/man/man1/systemd-cgls.1.bz2
--- replaced obj /usr/share/man/man1/systemd-cat.1.bz2
--- replaced obj /usr/share/man/man1/systemd-ask-password.1.bz2
--- replaced obj /usr/share/man/man1/systemd-analyze.1.bz2
--- replaced obj /usr/share/man/man1/systemctl.1.bz2
--- replaced obj /usr/share/man/man1/resolvectl.1.bz2
--- replaced obj /usr/share/man/man1/resolvconf.1
--- replaced obj /usr/share/man/man1/portablectl.1.bz2
--- replaced obj /usr/share/man/man1/networkctl.1.bz2
--- replaced obj /usr/share/man/man1/machinectl.1.bz2
--- replaced obj /usr/share/man/man1/loginctl.1.bz2
--- replaced obj /usr/share/man/man1/localectl.1.bz2
--- replaced obj /usr/share/man/man1/journalctl.1.bz2
--- replaced obj /usr/share/man/man1/init.1
--- replaced obj /usr/share/man/man1/hostnamectl.1.bz2
--- replaced obj /usr/share/man/man1/coredumpctl.1.bz2
--- replaced obj /usr/share/man/man1/busctl.1.bz2
--- replaced obj /usr/share/man/man1/bootctl.1.bz2
--- replaced dir /usr/share/man/man1
--- replaced dir /usr/share/man
--- replaced obj /usr/share/locale/zh_TW/LC_MESSAGES/systemd.mo
--- replaced dir /usr/share/locale/zh_TW/LC_MESSAGES
--- replaced dir /usr/share/locale/zh_TW
--- replaced obj /usr/share/locale/zh_CN/LC_MESSAGES/systemd.mo
--- replaced dir /usr/share/locale/zh_CN/LC_MESSAGES
--- replaced dir /usr/share/locale/zh_CN
--- replaced obj /usr/share/locale/uk/LC_MESSAGES/systemd.mo
--- replaced dir /usr/share/locale/uk/LC_MESSAGES
--- replaced dir /usr/share/locale/uk
--- replaced obj /usr/share/locale/tr/LC_MESSAGES/systemd.mo
--- replaced dir /usr/share/locale/tr/LC_MESSAGES
--- replaced dir /usr/share/locale/tr
--- replaced obj /usr/share/locale/sv/LC_MESSAGES/systemd.mo
--- replaced dir /usr/share/locale/sv/LC_MESSAGES
--- replaced dir /usr/share/locale/sv
--- replaced obj /usr/share/locale/sr/LC_MESSAGES/systemd.mo
--- replaced dir /usr/share/locale/sr/LC_MESSAGES
--- replaced dir /usr/share/locale/sr
--- replaced obj /usr/share/locale/sk/LC_MESSAGES/systemd.mo
--- replaced dir /usr/share/locale/sk/LC_MESSAGES
--- replaced dir /usr/share/locale/sk
--- replaced obj /usr/share/locale/ru/LC_MESSAGES/systemd.mo
--- replaced dir /usr/share/locale/ru/LC_MESSAGES
--- replaced dir /usr/share/locale/ru
--- replaced obj /usr/share/locale/ro/LC_MESSAGES/systemd.mo
--- replaced dir /usr/share/locale/ro/LC_MESSAGES
--- replaced dir /usr/share/locale/ro
--- replaced obj /usr/share/locale/pt_BR/LC_MESSAGES/systemd.mo
--- replaced dir /usr/share/locale/pt_BR/LC_MESSAGES
--- replaced dir /usr/share/locale/pt_BR
--- replaced obj /usr/share/locale/pl/LC_MESSAGES/systemd.mo
--- replaced dir /usr/share/locale/pl/LC_MESSAGES
--- replaced dir /usr/share/locale/pl
--- replaced obj /usr/share/locale/lt/LC_MESSAGES/systemd.mo
--- replaced dir /usr/share/locale/lt/LC_MESSAGES
--- replaced dir /usr/share/locale/lt
--- replaced obj /usr/share/locale/ko/LC_MESSAGES/systemd.mo
--- replaced dir /usr/share/locale/ko/LC_MESSAGES
--- replaced dir /usr/share/locale/ko
--- replaced obj /usr/share/locale/ja/LC_MESSAGES/systemd.mo
--- replaced dir /usr/share/locale/ja/LC_MESSAGES
--- replaced dir /usr/share/locale/ja
--- replaced obj /usr/share/locale/it/LC_MESSAGES/systemd.mo
--- replaced dir /usr/share/locale/it/LC_MESSAGES
--- replaced dir /usr/share/locale/it
--- replaced obj /usr/share/locale/id/LC_MESSAGES/systemd.mo
--- replaced dir /usr/share/locale/id/LC_MESSAGES
--- replaced dir /usr/share/locale/id
--- replaced obj /usr/share/locale/hu/LC_MESSAGES/systemd.mo
--- replaced dir /usr/share/locale/hu/LC_MESSAGES
--- replaced dir /usr/share/locale/hu
--- replaced obj /usr/share/locale/hr/LC_MESSAGES/systemd.mo
--- replaced dir /usr/share/locale/hr/LC_MESSAGES
--- replaced dir /usr/share/locale/hr
--- replaced obj /usr/share/locale/gl/LC_MESSAGES/systemd.mo
--- replaced dir /usr/share/locale/gl/LC_MESSAGES
--- replaced dir /usr/share/locale/gl
--- replaced obj /usr/share/locale/fr/LC_MESSAGES/systemd.mo
--- replaced dir /usr/share/locale/fr/LC_MESSAGES
--- replaced dir /usr/share/locale/fr
--- replaced obj /usr/share/locale/es/LC_MESSAGES/systemd.mo
--- replaced dir /usr/share/locale/es/LC_MESSAGES
--- replaced dir /usr/share/locale/es
--- replaced obj /usr/share/locale/el/LC_MESSAGES/systemd.mo
--- replaced dir /usr/share/locale/el/LC_MESSAGES
--- replaced dir /usr/share/locale/el
--- replaced obj /usr/share/locale/de/LC_MESSAGES/systemd.mo
--- replaced dir /usr/share/locale/de/LC_MESSAGES
--- replaced dir /usr/share/locale/de
--- replaced obj /usr/share/locale/da/LC_MESSAGES/systemd.mo
--- replaced dir /usr/share/locale/da/LC_MESSAGES
--- replaced dir /usr/share/locale/da
--- replaced obj /usr/share/locale/cs/LC_MESSAGES/systemd.mo
--- replaced dir /usr/share/locale/cs/LC_MESSAGES
--- replaced dir /usr/share/locale/cs
--- replaced obj /usr/share/locale/ca/LC_MESSAGES/systemd.mo
--- replaced dir /usr/share/locale/ca/LC_MESSAGES
--- replaced dir /usr/share/locale/ca
--- replaced obj /usr/share/locale/bg/LC_MESSAGES/systemd.mo
--- replaced dir /usr/share/locale/bg/LC_MESSAGES
--- replaced dir /usr/share/locale/bg
--- replaced obj /usr/share/locale/be@latin/LC_MESSAGES/systemd.mo
--- replaced dir /usr/share/locale/be@latin/LC_MESSAGES
--- replaced dir /usr/share/locale/be@latin
--- replaced obj /usr/share/locale/be/LC_MESSAGES/systemd.mo
--- replaced dir /usr/share/locale/be/LC_MESSAGES
--- replaced dir /usr/share/locale/be
--- replaced dir /usr/share/locale
--- replaced obj /usr/share/factory/etc/pam.d/system-auth
--- replaced obj /usr/share/factory/etc/pam.d/other
--- replaced dir /usr/share/factory/etc/pam.d
--- replaced obj /usr/share/factory/etc/nsswitch.conf
--- replaced obj /usr/share/factory/etc/issue
--- replaced dir /usr/share/factory/etc
--- replaced dir /usr/share/factory
--- replaced obj /usr/share/dbus-1/system.d/org.freedesktop.timesync1.conf
--- replaced obj /usr/share/dbus-1/system.d/org.freedesktop.timedate1.conf
--- replaced obj /usr/share/dbus-1/system.d/org.freedesktop.systemd1.conf
--- replaced obj /usr/share/dbus-1/system.d/org.freedesktop.resolve1.conf
--- replaced obj /usr/share/dbus-1/system.d/org.freedesktop.portable1.conf
--- replaced obj /usr/share/dbus-1/system.d/org.freedesktop.network1.conf
--- replaced obj /usr/share/dbus-1/system.d/org.freedesktop.machine1.conf
--- replaced obj /usr/share/dbus-1/system.d/org.freedesktop.login1.conf
--- replaced obj /usr/share/dbus-1/system.d/org.freedesktop.locale1.conf
--- replaced obj /usr/share/dbus-1/system.d/org.freedesktop.hostname1.conf
--- replaced dir /usr/share/dbus-1/system.d
--- replaced obj /usr/share/dbus-1/system-services/org.freedesktop.timesync1.service
--- replaced obj /usr/share/dbus-1/system-services/org.freedesktop.timedate1.service
--- replaced obj /usr/share/dbus-1/system-services/org.freedesktop.systemd1.service
--- replaced obj /usr/share/dbus-1/system-services/org.freedesktop.resolve1.service
--- replaced obj /usr/share/dbus-1/system-services/org.freedesktop.portable1.service
--- replaced obj /usr/share/dbus-1/system-services/org.freedesktop.network1.service
--- replaced obj /usr/share/dbus-1/system-services/org.freedesktop.machine1.service
--- replaced obj /usr/share/dbus-1/system-services/org.freedesktop.login1.service
--- replaced obj /usr/share/dbus-1/system-services/org.freedesktop.locale1.service
--- replaced obj /usr/share/dbus-1/system-services/org.freedesktop.hostname1.service
--- replaced dir /usr/share/dbus-1/system-services
--- replaced sym /usr/share/dbus-1/services/org.freedesktop.systemd1.service
--- replaced dir /usr/share/dbus-1/services
--- replaced dir /usr/share/dbus-1
--- replaced obj /usr/share/bash-completion/completions/udevadm
--- replaced obj /usr/share/bash-completion/completions/timedatectl
--- replaced obj /usr/share/bash-completion/completions/systemd-run
--- replaced obj /usr/share/bash-completion/completions/systemd-resolve
--- replaced obj /usr/share/bash-completion/completions/systemd-path
--- replaced obj /usr/share/bash-completion/completions/systemd-nspawn
--- replaced obj /usr/share/bash-completion/completions/systemd-detect-virt
--- replaced obj /usr/share/bash-completion/completions/systemd-delta
--- replaced obj /usr/share/bash-completion/completions/systemd-cgtop
--- replaced obj /usr/share/bash-completion/completions/systemd-cgls
--- replaced obj /usr/share/bash-completion/completions/systemd-cat
--- replaced obj /usr/share/bash-completion/completions/systemd-analyze
--- replaced obj /usr/share/bash-completion/completions/systemctl
--- replaced obj /usr/share/bash-completion/completions/resolvectl
--- replaced obj /usr/share/bash-completion/completions/portablectl
--- replaced obj /usr/share/bash-completion/completions/networkctl
--- replaced obj /usr/share/bash-completion/completions/machinectl
--- replaced obj /usr/share/bash-completion/completions/loginctl
--- replaced obj /usr/share/bash-completion/completions/localectl
--- replaced obj /usr/share/bash-completion/completions/kernel-install
--- replaced obj /usr/share/bash-completion/completions/journalctl
--- replaced obj /usr/share/bash-completion/completions/hostnamectl
--- replaced obj /usr/share/bash-completion/completions/coredumpctl
--- replaced obj /usr/share/bash-completion/completions/busctl
--- replaced obj /usr/share/bash-completion/completions/bootctl
--- replaced dir /usr/share/bash-completion/completions
--- replaced dir /usr/share/bash-completion
--- replaced dir /usr/share
--- replaced obj /usr/lib64/pkgconfig/libudev.pc
--- replaced obj /usr/lib64/pkgconfig/libsystemd.pc
--- replaced dir /usr/lib64/pkgconfig
--- replaced obj /usr/lib64/libudev.so
--- replaced obj /usr/lib64/libsystemd.so
--- replaced obj /usr/lib64/libnss_systemd.so.2
--- replaced obj /usr/lib64/libnss_resolve.so.2
--- replaced obj /usr/lib64/libnss_mymachines.so.2
--- replaced obj /usr/lib64/libnss_myhostname.so.2
--- replaced dir /usr/lib64
--- replaced obj /usr/lib/tmpfiles.d/x11.conf
--- replaced obj /usr/lib/tmpfiles.d/var.conf
--- replaced obj /usr/lib/tmpfiles.d/tmp.conf
--- replaced obj /usr/lib/tmpfiles.d/systemd.conf
--- replaced obj /usr/lib/tmpfiles.d/systemd-tmp.conf
--- replaced obj /usr/lib/tmpfiles.d/systemd-nspawn.conf
--- replaced obj /usr/lib/tmpfiles.d/systemd-nologin.conf
--- replaced obj /usr/lib/tmpfiles.d/static-nodes-permissions.conf
--- replaced obj /usr/lib/tmpfiles.d/portables.conf
--- replaced obj /usr/lib/tmpfiles.d/legacy.conf
--- replaced obj /usr/lib/tmpfiles.d/journal-nocow.conf
--- replaced obj /usr/lib/tmpfiles.d/home.conf
--- replaced obj /usr/lib/tmpfiles.d/etc.conf
--- replaced dir /usr/lib/tmpfiles.d
--- replaced obj /usr/lib/sysusers.d/systemd.conf
--- replaced obj /usr/lib/sysusers.d/basic.conf
--- replaced dir /usr/lib/sysusers.d
--- replaced obj /usr/lib/systemd/user/timers.target
--- replaced obj /usr/lib/systemd/user/systemd-tmpfiles-setup.service
--- replaced obj /usr/lib/systemd/user/systemd-tmpfiles-clean.timer
--- replaced obj /usr/lib/systemd/user/systemd-tmpfiles-clean.service
--- replaced obj /usr/lib/systemd/user/systemd-exit.service
--- replaced obj /usr/lib/systemd/user/sound.target
--- replaced obj /usr/lib/systemd/user/sockets.target
--- replaced obj /usr/lib/systemd/user/smartcard.target
--- replaced obj /usr/lib/systemd/user/shutdown.target
--- replaced obj /usr/lib/systemd/user/printer.target
--- replaced obj /usr/lib/systemd/user/paths.target
--- replaced obj /usr/lib/systemd/user/graphical-session.target
--- replaced obj /usr/lib/systemd/user/graphical-session-pre.target
--- replaced obj /usr/lib/systemd/user/exit.target
--- replaced obj /usr/lib/systemd/user/default.target
--- replaced obj /usr/lib/systemd/user/bluetooth.target
--- replaced obj /usr/lib/systemd/user/basic.target
--- replaced obj /usr/lib/systemd/user-preset/90-systemd.preset
--- replaced dir /usr/lib/systemd/user-preset
--- replaced obj /usr/lib/systemd/user-generators/.keep_sys-apps_systemd-0
--- replaced dir /usr/lib/systemd/user-generators
--- replaced obj /usr/lib/systemd/user-environment-generators/30-systemd-environment-d-generator
--- replaced dir /usr/lib/systemd/user-environment-generators
--- replaced dir /usr/lib/systemd/user
--- replaced sym /usr/lib/systemd/systemd-shutdown
--- replaced sym /usr/lib/systemd/systemd
--- replaced obj /usr/lib/systemd/catalog/systemd.zh_TW.catalog
--- replaced obj /usr/lib/systemd/catalog/systemd.zh_CN.catalog
--- replaced obj /usr/lib/systemd/catalog/systemd.ru.catalog
--- replaced obj /usr/lib/systemd/catalog/systemd.pt_BR.catalog
--- replaced obj /usr/lib/systemd/catalog/systemd.pl.catalog
--- replaced obj /usr/lib/systemd/catalog/systemd.it.catalog
--- replaced obj /usr/lib/systemd/catalog/systemd.fr.catalog
--- replaced obj /usr/lib/systemd/catalog/systemd.de.catalog
--- replaced obj /usr/lib/systemd/catalog/systemd.catalog
--- replaced obj /usr/lib/systemd/catalog/systemd.bg.catalog
--- replaced obj /usr/lib/systemd/catalog/systemd.be@latin.catalog
--- replaced obj /usr/lib/systemd/catalog/systemd.be.catalog
--- replaced dir /usr/lib/systemd/catalog
--- replaced dir /usr/lib/systemd
--- replaced obj /usr/lib/sysctl.d/50-pid-max.conf
--- replaced obj /usr/lib/sysctl.d/50-default.conf
--- replaced obj /usr/lib/sysctl.d/50-coredump.conf
--- replaced dir /usr/lib/sysctl.d
--- replaced obj /usr/lib/rpm/macros.d/macros.systemd
--- replaced dir /usr/lib/rpm/macros.d
--- replaced dir /usr/lib/rpm
--- replaced obj /usr/lib/modules-load.d/.keep_sys-apps_systemd-0
--- replaced dir /usr/lib/modules-load.d
--- replaced obj /usr/lib/kernel/install.d/90-loaderentry.install
--- replaced obj /usr/lib/kernel/install.d/50-depmod.install
--- replaced obj /usr/lib/kernel/install.d/00-entry-directory.install
--- replaced dir /usr/lib/kernel/install.d
--- replaced dir /usr/lib/kernel
--- replaced sym /usr/lib/environment.d/99-environment.conf
--- replaced dir /usr/lib/environment.d
--- replaced obj /usr/lib/binfmt.d/.keep_sys-apps_systemd-0
--- replaced dir /usr/lib/binfmt.d
--- replaced dir /usr/lib
--- replaced obj /usr/include/systemd/sd-messages.h
--- replaced obj /usr/include/systemd/sd-login.h
--- replaced obj /usr/include/systemd/sd-journal.h
--- replaced obj /usr/include/systemd/sd-id128.h
--- replaced obj /usr/include/systemd/sd-hwdb.h
--- replaced obj /usr/include/systemd/sd-event.h
--- replaced obj /usr/include/systemd/sd-device.h
--- replaced obj /usr/include/systemd/sd-daemon.h
--- replaced obj /usr/include/systemd/sd-bus.h
--- replaced obj /usr/include/systemd/sd-bus-vtable.h
--- replaced obj /usr/include/systemd/sd-bus-protocol.h
--- replaced obj /usr/include/systemd/_sd-common.h
--- replaced dir /usr/include/systemd
--- replaced obj /usr/include/libudev.h
--- replaced dir /usr/include
--- replaced obj /usr/bin/timedatectl
--- replaced sym /usr/bin/systemd-umount
--- replaced obj /usr/bin/systemd-stdio-bridge
--- replaced obj /usr/bin/systemd-socket-activate
--- replaced obj /usr/bin/systemd-run
--- replaced sym /usr/bin/systemd-resolve
--- replaced obj /usr/bin/systemd-path
--- replaced obj /usr/bin/systemd-nspawn
--- replaced obj /usr/bin/systemd-mount
--- replaced obj /usr/bin/systemd-id128
--- replaced obj /usr/bin/systemd-detect-virt
--- replaced obj /usr/bin/systemd-delta
--- replaced obj /usr/bin/systemd-cgtop
--- replaced obj /usr/bin/systemd-cgls
--- replaced obj /usr/bin/systemd-cat
--- replaced obj /usr/bin/systemd-analyze
--- replaced obj /usr/bin/resolvectl
--- replaced obj /usr/bin/localectl
--- replaced obj /usr/bin/kernel-install
--- replaced obj /usr/bin/hostnamectl
--- replaced obj /usr/bin/coredumpctl
--- replaced obj /usr/bin/busctl
--- replaced obj /usr/bin/bootctl
--- replaced dir /usr/bin
--- replaced dir /usr
--- replaced sym /sbin/telinit
--- replaced sym /sbin/shutdown
--- replaced sym /sbin/runlevel
--- replaced sym /sbin/resolvconf
--- replaced sym /sbin/reboot
--- replaced sym /sbin/poweroff
--- replaced sym /sbin/init
--- replaced sym /sbin/halt
--- replaced dir /sbin
--- replaced obj /lib64/security/pam_systemd.so
--- replaced dir /lib64/security
--- replaced obj /lib64/libudev.so.1.6.17
--- replaced sym /lib64/libudev.so.1
--- replaced obj /lib64/libsystemd.so.0.28.0
--- replaced sym /lib64/libsystemd.so.0
--- replaced dir /lib64
--- replaced obj /lib/udev/v4l_id
--- replaced obj /lib/udev/scsi_id
--- replaced obj /lib/udev/rules.d/99-systemd.rules
--- replaced obj /lib/udev/rules.d/90-vconsole.rules
--- replaced obj /lib/udev/rules.d/80-net-setup-link.rules
--- replaced obj /lib/udev/rules.d/80-drivers.rules
--- replaced obj /lib/udev/rules.d/78-sound-card.rules
--- replaced obj /lib/udev/rules.d/75-probe_mtd.rules
--- replaced obj /lib/udev/rules.d/75-net-description.rules
--- replaced obj /lib/udev/rules.d/73-seat-late.rules
--- replaced obj /lib/udev/rules.d/71-seat.rules
--- replaced obj /lib/udev/rules.d/70-uaccess.rules
--- replaced obj /lib/udev/rules.d/70-touchpad.rules
--- replaced obj /lib/udev/rules.d/70-power-switch.rules
--- replaced obj /lib/udev/rules.d/70-mouse.rules
--- replaced obj /lib/udev/rules.d/70-joystick.rules
--- replaced obj /lib/udev/rules.d/64-btrfs.rules
--- replaced obj /lib/udev/rules.d/61-autosuspend-manual.rules
--- replaced obj /lib/udev/rules.d/60-serial.rules
--- replaced obj /lib/udev/rules.d/60-sensor.rules
--- replaced obj /lib/udev/rules.d/60-persistent-v4l.rules
--- replaced obj /lib/udev/rules.d/60-persistent-storage.rules
--- replaced obj /lib/udev/rules.d/60-persistent-storage-tape.rules
--- replaced obj /lib/udev/rules.d/60-persistent-input.rules
--- replaced obj /lib/udev/rules.d/60-persistent-alsa.rules
--- replaced obj /lib/udev/rules.d/60-input-id.rules
--- replaced obj /lib/udev/rules.d/60-fido-id.rules
--- replaced obj /lib/udev/rules.d/60-evdev.rules
--- replaced obj /lib/udev/rules.d/60-drm.rules
--- replaced obj /lib/udev/rules.d/60-cdrom_id.rules
--- replaced obj /lib/udev/rules.d/60-block.rules
--- replaced obj /lib/udev/rules.d/60-autosuspend-chromiumos.rules
--- replaced obj /lib/udev/rules.d/50-udev-default.rules
--- replaced dir /lib/udev/rules.d
--- replaced obj /lib/udev/mtd_probe
--- replaced obj /lib/udev/fido_id
--- replaced obj /lib/udev/cdrom_id
--- replaced obj /lib/udev/ata_id
--- replaced dir /lib/udev
--- replaced obj /lib/systemd/systemd-volatile-root
--- replaced obj /lib/systemd/systemd-vconsole-setup
--- replaced obj /lib/systemd/systemd-userwork
--- replaced obj /lib/systemd/systemd-userdbd
--- replaced obj /lib/systemd/systemd-user-sessions
--- replaced obj /lib/systemd/systemd-user-runtime-dir
--- replaced obj /lib/systemd/systemd-update-utmp
--- replaced obj /lib/systemd/systemd-update-done
--- replaced obj /lib/systemd/systemd-udevd
--- replaced obj /lib/systemd/systemd-timesyncd
--- replaced obj /lib/systemd/systemd-timedated
--- replaced obj /lib/systemd/systemd-time-wait-sync
--- replaced obj /lib/systemd/systemd-sysctl
--- replaced obj /lib/systemd/systemd-sulogin-shell
--- replaced obj /lib/systemd/systemd-socket-proxyd
--- replaced obj /lib/systemd/systemd-sleep
--- replaced obj /lib/systemd/systemd-shutdown
--- replaced obj /lib/systemd/systemd-rfkill
--- replaced obj /lib/systemd/systemd-resolved
--- replaced obj /lib/systemd/systemd-reply-password
--- replaced obj /lib/systemd/systemd-remount-fs
--- replaced obj /lib/systemd/systemd-random-seed
--- replaced obj /lib/systemd/systemd-quotacheck
--- replaced obj /lib/systemd/systemd-pstore
--- replaced obj /lib/systemd/systemd-portabled
--- replaced obj /lib/systemd/systemd-networkd-wait-online
--- replaced obj /lib/systemd/systemd-networkd
--- replaced obj /lib/systemd/systemd-network-generator
--- replaced obj /lib/systemd/systemd-modules-load
--- replaced obj /lib/systemd/systemd-makefs
--- replaced obj /lib/systemd/systemd-machined
--- replaced obj /lib/systemd/systemd-logind
--- replaced obj /lib/systemd/systemd-localed
--- replaced obj /lib/systemd/systemd-journald
--- replaced obj /lib/systemd/systemd-journal-upload
--- replaced obj /lib/systemd/systemd-initctl
--- replaced obj /lib/systemd/systemd-hostnamed
--- replaced obj /lib/systemd/systemd-hibernate-resume
--- replaced obj /lib/systemd/systemd-growfs
--- replaced obj /lib/systemd/systemd-fsck
--- replaced obj /lib/systemd/systemd-dissect
--- replaced obj /lib/systemd/systemd-coredump
--- replaced obj /lib/systemd/systemd-cgroups-agent
--- replaced obj /lib/systemd/systemd-boot-check-no-failures
--- replaced obj /lib/systemd/systemd-bless-boot
--- replaced obj /lib/systemd/systemd-binfmt
--- replaced obj /lib/systemd/systemd-backlight
--- replaced obj /lib/systemd/systemd-ac-power
--- replaced obj /lib/systemd/systemd
--- replaced obj /lib/systemd/system/var-lib-machines.mount
--- replaced obj /lib/systemd/system/user@.service
--- replaced obj /lib/systemd/system/user.slice
--- replaced obj /lib/systemd/system/user-runtime-dir@.service
--- replaced obj /lib/systemd/system/user-.slice.d/10-defaults.conf
--- replaced dir /lib/systemd/system/user-.slice.d
--- replaced obj /lib/systemd/system/umount.target
--- replaced obj /lib/systemd/system/tmp.mount
--- replaced sym /lib/systemd/system/timers.target.wants/systemd-tmpfiles-clean.timer
--- replaced dir /lib/systemd/system/timers.target.wants
--- replaced obj /lib/systemd/system/timers.target
--- replaced obj /lib/systemd/system/time-sync.target
--- replaced obj /lib/systemd/system/time-set.target
--- replaced obj /lib/systemd/system/systemd-volatile-root.service
--- replaced obj /lib/systemd/system/systemd-vconsole-setup.service
--- replaced obj /lib/systemd/system/systemd-userdbd.socket
--- replaced obj /lib/systemd/system/systemd-userdbd.service
--- replaced obj /lib/systemd/system/systemd-user-sessions.service
--- replaced obj /lib/systemd/system/systemd-update-utmp.service
--- replaced obj /lib/systemd/system/systemd-update-utmp-runlevel.service
--- replaced obj /lib/systemd/system/systemd-update-done.service
--- replaced obj /lib/systemd/system/systemd-udevd.service
--- replaced obj /lib/systemd/system/systemd-udevd-kernel.socket
--- replaced obj /lib/systemd/system/systemd-udevd-control.socket
--- replaced obj /lib/systemd/system/systemd-udev-trigger.service
--- replaced obj /lib/systemd/system/systemd-udev-settle.service
--- replaced obj /lib/systemd/system/systemd-tmpfiles-setup.service
--- replaced obj /lib/systemd/system/systemd-tmpfiles-setup-dev.service
--- replaced obj /lib/systemd/system/systemd-tmpfiles-clean.timer
--- replaced obj /lib/systemd/system/systemd-tmpfiles-clean.service
--- replaced obj /lib/systemd/system/systemd-timesyncd.service
--- replaced obj /lib/systemd/system/systemd-timedated.service
--- replaced obj /lib/systemd/system/systemd-time-wait-sync.service
--- replaced obj /lib/systemd/system/systemd-sysusers.service
--- replaced obj /lib/systemd/system/systemd-sysctl.service
--- replaced obj /lib/systemd/system/systemd-suspend.service
--- replaced obj /lib/systemd/system/systemd-suspend-then-hibernate.service
--- replaced obj /lib/systemd/system/systemd-rfkill.socket
--- replaced obj /lib/systemd/system/systemd-rfkill.service
--- replaced obj /lib/systemd/system/systemd-resolved.service
--- replaced obj /lib/systemd/system/systemd-remount-fs.service
--- replaced obj /lib/systemd/system/systemd-reboot.service
--- replaced obj /lib/systemd/system/systemd-random-seed.service
--- replaced obj /lib/systemd/system/systemd-quotacheck.service
--- replaced obj /lib/systemd/system/systemd-pstore.service
--- replaced obj /lib/systemd/system/systemd-poweroff.service
--- replaced obj /lib/systemd/system/systemd-portabled.service
--- replaced obj /lib/systemd/system/systemd-nspawn@.service
--- replaced obj /lib/systemd/system/systemd-networkd.socket
--- replaced obj /lib/systemd/system/systemd-networkd.service
--- replaced obj /lib/systemd/system/systemd-networkd-wait-online.service
--- replaced obj /lib/systemd/system/systemd-network-generator.service
--- replaced obj /lib/systemd/system/systemd-modules-load.service
--- replaced obj /lib/systemd/system/systemd-machined.service
--- replaced obj /lib/systemd/system/systemd-machine-id-commit.service
--- replaced obj /lib/systemd/system/systemd-logind.service
--- replaced obj /lib/systemd/system/systemd-localed.service
--- replaced obj /lib/systemd/system/systemd-kexec.service
--- replaced obj /lib/systemd/system/systemd-journald@.socket
--- replaced obj /lib/systemd/system/systemd-journald@.service
--- replaced obj /lib/systemd/system/systemd-journald.socket
--- replaced obj /lib/systemd/system/systemd-journald.service
--- replaced obj /lib/systemd/system/systemd-journald-varlink@.socket
--- replaced obj /lib/systemd/system/systemd-journald-dev-log.socket
--- replaced obj /lib/systemd/system/systemd-journald-audit.socket
--- replaced obj /lib/systemd/system/systemd-journal-upload.service
--- replaced obj /lib/systemd/system/systemd-journal-flush.service
--- replaced obj /lib/systemd/system/systemd-journal-catalog-update.service
--- replaced obj /lib/systemd/system/systemd-initctl.socket
--- replaced obj /lib/systemd/system/systemd-initctl.service
--- replaced obj /lib/systemd/system/systemd-hybrid-sleep.service
--- replaced obj /lib/systemd/system/systemd-hwdb-update.service
--- replaced obj /lib/systemd/system/systemd-hostnamed.service
--- replaced obj /lib/systemd/system/systemd-hibernate.service
--- replaced obj /lib/systemd/system/systemd-hibernate-resume@.service
--- replaced obj /lib/systemd/system/systemd-halt.service
--- replaced obj /lib/systemd/system/systemd-fsck@.service
--- replaced obj /lib/systemd/system/systemd-fsck-root.service
--- replaced obj /lib/systemd/system/systemd-firstboot.service
--- replaced obj /lib/systemd/system/systemd-exit.service
--- replaced obj /lib/systemd/system/systemd-coredump@.service
--- replaced obj /lib/systemd/system/systemd-coredump.socket
--- replaced obj /lib/systemd/system/systemd-boot-system-token.service
--- replaced obj /lib/systemd/system/systemd-boot-check-no-failures.service
--- replaced obj /lib/systemd/system/systemd-bless-boot.service
--- replaced obj /lib/systemd/system/systemd-binfmt.service
--- replaced obj /lib/systemd/system/systemd-backlight@.service
--- replaced obj /lib/systemd/system/systemd-ask-password-wall.service
--- replaced obj /lib/systemd/system/systemd-ask-password-wall.path
--- replaced obj /lib/systemd/system/systemd-ask-password-console.service
--- replaced obj /lib/systemd/system/systemd-ask-password-console.path
--- replaced obj /lib/systemd/system/system-update.target
--- replaced obj /lib/systemd/system/system-update-pre.target
--- replaced obj /lib/systemd/system/system-update-cleanup.service
--- replaced obj /lib/systemd/system/syslog.socket
--- replaced sym /lib/systemd/system/sysinit.target.wants/systemd-update-utmp.service
--- replaced sym /lib/systemd/system/sysinit.target.wants/systemd-update-done.service
--- replaced sym /lib/systemd/system/sysinit.target.wants/systemd-udevd.service
--- replaced sym /lib/systemd/system/sysinit.target.wants/systemd-udev-trigger.service
--- replaced sym /lib/systemd/system/sysinit.target.wants/systemd-tmpfiles-setup.service
--- replaced sym /lib/systemd/system/sysinit.target.wants/systemd-tmpfiles-setup-dev.service
--- replaced sym /lib/systemd/system/sysinit.target.wants/systemd-sysusers.service
--- replaced sym /lib/systemd/system/sysinit.target.wants/systemd-sysctl.service
--- replaced sym /lib/systemd/system/sysinit.target.wants/systemd-random-seed.service
--- replaced sym /lib/systemd/system/sysinit.target.wants/systemd-modules-load.service
--- replaced sym /lib/systemd/system/sysinit.target.wants/systemd-machine-id-commit.service
--- replaced sym /lib/systemd/system/sysinit.target.wants/systemd-journald.service
--- replaced sym /lib/systemd/system/sysinit.target.wants/systemd-journal-flush.service
--- replaced sym /lib/systemd/system/sysinit.target.wants/systemd-journal-catalog-update.service
--- replaced sym /lib/systemd/system/sysinit.target.wants/systemd-hwdb-update.service
--- replaced sym /lib/systemd/system/sysinit.target.wants/systemd-firstboot.service
--- replaced sym /lib/systemd/system/sysinit.target.wants/systemd-boot-system-token.service
--- replaced sym /lib/systemd/system/sysinit.target.wants/systemd-binfmt.service
--- replaced sym /lib/systemd/system/sysinit.target.wants/systemd-ask-password-console.path
--- replaced sym /lib/systemd/system/sysinit.target.wants/sys-kernel-tracing.mount
--- replaced sym /lib/systemd/system/sysinit.target.wants/sys-kernel-debug.mount
--- replaced sym /lib/systemd/system/sysinit.target.wants/sys-kernel-config.mount
--- replaced sym /lib/systemd/system/sysinit.target.wants/sys-fs-fuse-connections.mount
--- replaced sym /lib/systemd/system/sysinit.target.wants/proc-sys-fs-binfmt_misc.automount
--- replaced sym /lib/systemd/system/sysinit.target.wants/ldconfig.service
--- replaced sym /lib/systemd/system/sysinit.target.wants/kmod-static-nodes.service
--- replaced sym /lib/systemd/system/sysinit.target.wants/dev-mqueue.mount
--- replaced sym /lib/systemd/system/sysinit.target.wants/dev-hugepages.mount
--- replaced dir /lib/systemd/system/sysinit.target.wants
--- replaced obj /lib/systemd/system/sysinit.target
--- replaced obj /lib/systemd/system/sys-kernel-tracing.mount
--- replaced obj /lib/systemd/system/sys-kernel-debug.mount
--- replaced obj /lib/systemd/system/sys-kernel-config.mount
--- replaced obj /lib/systemd/system/sys-fs-fuse-connections.mount
--- replaced obj /lib/systemd/system/swap.target
--- replaced obj /lib/systemd/system/suspend.target
--- replaced obj /lib/systemd/system/suspend-then-hibernate.target
--- replaced obj /lib/systemd/system/sound.target
--- replaced sym /lib/systemd/system/sockets.target.wants/systemd-userdbd.socket
--- replaced sym /lib/systemd/system/sockets.target.wants/systemd-udevd-kernel.socket
--- replaced sym /lib/systemd/system/sockets.target.wants/systemd-udevd-control.socket
--- replaced sym /lib/systemd/system/sockets.target.wants/systemd-journald.socket
--- replaced sym /lib/systemd/system/sockets.target.wants/systemd-journald-dev-log.socket
--- replaced sym /lib/systemd/system/sockets.target.wants/systemd-journald-audit.socket
--- replaced sym /lib/systemd/system/sockets.target.wants/systemd-initctl.socket
--- replaced sym /lib/systemd/system/sockets.target.wants/systemd-coredump.socket
--- replaced dir /lib/systemd/system/sockets.target.wants
--- replaced obj /lib/systemd/system/sockets.target
--- replaced obj /lib/systemd/system/smartcard.target
--- replaced obj /lib/systemd/system/slices.target
--- replaced obj /lib/systemd/system/sleep.target
--- replaced obj /lib/systemd/system/sigpwr.target
--- replaced obj /lib/systemd/system/shutdown.target
--- replaced obj /lib/systemd/system/serial-getty@.service
--- replaced sym /lib/systemd/system/runlevel6.target
--- replaced dir /lib/systemd/system/runlevel5.target.wants
--- replaced sym /lib/systemd/system/runlevel5.target
--- replaced dir /lib/systemd/system/runlevel4.target.wants
--- replaced sym /lib/systemd/system/runlevel4.target
--- replaced dir /lib/systemd/system/runlevel3.target.wants
--- replaced sym /lib/systemd/system/runlevel3.target
--- replaced dir /lib/systemd/system/runlevel2.target.wants
--- replaced sym /lib/systemd/system/runlevel2.target
--- replaced dir /lib/systemd/system/runlevel1.target.wants
--- replaced sym /lib/systemd/system/runlevel1.target
--- replaced sym /lib/systemd/system/runlevel0.target
--- replaced obj /lib/systemd/system/rpcbind.target
--- replaced sym /lib/systemd/system/rescue.target.wants/systemd-update-utmp-runlevel.service
--- replaced dir /lib/systemd/system/rescue.target.wants
--- replaced obj /lib/systemd/system/rescue.target
--- replaced obj /lib/systemd/system/rescue.service
--- replaced sym /lib/systemd/system/remote-fs.target.wants/var-lib-machines.mount
--- replaced dir /lib/systemd/system/remote-fs.target.wants
--- replaced obj /lib/systemd/system/remote-fs.target
--- replaced obj /lib/systemd/system/remote-fs-pre.target
--- replaced obj /lib/systemd/system/reboot.target
--- replaced obj /lib/systemd/system/rc-local.service
--- replaced obj /lib/systemd/system/quotaon.service
--- replaced obj /lib/systemd/system/proc-sys-fs-binfmt_misc.mount
--- replaced obj /lib/systemd/system/proc-sys-fs-binfmt_misc.automount
--- replaced obj /lib/systemd/system/printer.target
--- replaced obj /lib/systemd/system/poweroff.target
--- replaced obj /lib/systemd/system/paths.target
--- replaced obj /lib/systemd/system/nss-user-lookup.target
--- replaced obj /lib/systemd/system/nss-lookup.target
--- replaced obj /lib/systemd/system/network.target
--- replaced obj /lib/systemd/system/network-pre.target
--- replaced obj /lib/systemd/system/network-online.target
--- replaced sym /lib/systemd/system/multi-user.target.wants/systemd-user-sessions.service
--- replaced sym /lib/systemd/system/multi-user.target.wants/systemd-update-utmp-runlevel.service
--- replaced sym /lib/systemd/system/multi-user.target.wants/systemd-logind.service
--- replaced sym /lib/systemd/system/multi-user.target.wants/systemd-ask-password-wall.path
--- replaced sym /lib/systemd/system/multi-user.target.wants/getty.target
--- replaced dir /lib/systemd/system/multi-user.target.wants
--- replaced obj /lib/systemd/system/multi-user.target
--- replaced obj /lib/systemd/system/modprobe@.service
--- replaced sym /lib/systemd/system/machines.target.wants/var-lib-machines.mount
--- replaced dir /lib/systemd/system/machines.target.wants
--- replaced obj /lib/systemd/system/machines.target
--- replaced obj /lib/systemd/system/machine.slice
--- replaced sym /lib/systemd/system/local-fs.target.wants/tmp.mount
--- replaced dir /lib/systemd/system/local-fs.target.wants
--- replaced obj /lib/systemd/system/local-fs.target
--- replaced obj /lib/systemd/system/local-fs-pre.target
--- replaced obj /lib/systemd/system/ldconfig.service
--- replaced obj /lib/systemd/system/kmod-static-nodes.service
--- replaced obj /lib/systemd/system/kexec.target
--- replaced obj /lib/systemd/system/initrd.target
--- replaced obj /lib/systemd/system/initrd-udevadm-cleanup-db.service
--- replaced obj /lib/systemd/system/initrd-switch-root.target
--- replaced obj /lib/systemd/system/initrd-switch-root.service
--- replaced obj /lib/systemd/system/initrd-root-fs.target
--- replaced obj /lib/systemd/system/initrd-root-device.target
--- replaced obj /lib/systemd/system/initrd-parse-etc.service
--- replaced obj /lib/systemd/system/initrd-fs.target
--- replaced obj /lib/systemd/system/initrd-cleanup.service
--- replaced obj /lib/systemd/system/hybrid-sleep.target
--- replaced obj /lib/systemd/system/hibernate.target
--- replaced obj /lib/systemd/system/halt.target
--- replaced sym /lib/systemd/system/graphical.target.wants/systemd-update-utmp-runlevel.service
--- replaced dir /lib/systemd/system/graphical.target.wants
--- replaced obj /lib/systemd/system/graphical.target
--- replaced obj /lib/systemd/system/getty@.service
--- replaced obj /lib/systemd/system/getty.target
--- replaced obj /lib/systemd/system/getty-pre.target
--- replaced obj /lib/systemd/system/final.target
--- replaced obj /lib/systemd/system/exit.target
--- replaced obj /lib/systemd/system/emergency.target
--- replaced obj /lib/systemd/system/emergency.service
--- replaced obj /lib/systemd/system/dev-mqueue.mount
--- replaced obj /lib/systemd/system/dev-hugepages.mount
--- replaced sym /lib/systemd/system/default.target
--- replaced obj /lib/systemd/system/debug-shell.service
--- replaced sym /lib/systemd/system/dbus-org.freedesktop.timedate1.service
--- replaced sym /lib/systemd/system/dbus-org.freedesktop.portable1.service
--- replaced sym /lib/systemd/system/dbus-org.freedesktop.machine1.service
--- replaced sym /lib/systemd/system/dbus-org.freedesktop.login1.service
--- replaced sym /lib/systemd/system/dbus-org.freedesktop.locale1.service
--- replaced sym /lib/systemd/system/dbus-org.freedesktop.hostname1.service
--- replaced sym /lib/systemd/system/ctrl-alt-del.target
--- replaced obj /lib/systemd/system/container-getty@.service
--- replaced obj /lib/systemd/system/console-getty.service
--- replaced obj /lib/systemd/system/boot-complete.target
--- replaced obj /lib/systemd/system/bluetooth.target
--- replaced obj /lib/systemd/system/blockdev@.target
--- replaced obj /lib/systemd/system/basic.target
--- replaced sym /lib/systemd/system/autovt@.service
--- replaced obj /lib/systemd/system-sleep/.keep_sys-apps_systemd-0
--- replaced dir /lib/systemd/system-sleep
--- replaced obj /lib/systemd/system-shutdown/.keep_sys-apps_systemd-0
--- replaced dir /lib/systemd/system-shutdown
--- replaced obj /lib/systemd/system-preset/90-systemd.preset
--- replaced dir /lib/systemd/system-preset
--- replaced obj /lib/systemd/system-generators/systemd-system-update-generator
--- replaced obj /lib/systemd/system-generators/systemd-run-generator
--- replaced obj /lib/systemd/system-generators/systemd-rc-local-generator
--- replaced obj /lib/systemd/system-generators/systemd-hibernate-resume-generator
--- replaced obj /lib/systemd/system-generators/systemd-gpt-auto-generator
--- replaced obj /lib/systemd/system-generators/systemd-getty-generator
--- replaced obj /lib/systemd/system-generators/systemd-fstab-generator
--- replaced obj /lib/systemd/system-generators/systemd-debug-generator
--- replaced obj /lib/systemd/system-generators/systemd-bless-boot-generator
--- replaced dir /lib/systemd/system-generators
--- replaced dir /lib/systemd/system
--- replaced obj /lib/systemd/resolv.conf
--- replaced obj /lib/systemd/portable/profile/trusted/service.conf
--- replaced dir /lib/systemd/portable/profile/trusted
--- replaced obj /lib/systemd/portable/profile/strict/service.conf
--- replaced dir /lib/systemd/portable/profile/strict
--- replaced obj /lib/systemd/portable/profile/nonetwork/service.conf
--- replaced dir /lib/systemd/portable/profile/nonetwork
--- replaced obj /lib/systemd/portable/profile/default/service.conf
--- replaced dir /lib/systemd/portable/profile/default
--- replaced dir /lib/systemd/portable/profile
--- replaced dir /lib/systemd/portable
--- replaced obj /lib/systemd/ntp-units.d/80-systemd-timesync.list
--- replaced dir /lib/systemd/ntp-units.d
--- replaced obj /lib/systemd/network/99-default.link
--- replaced obj /lib/systemd/network/80-wifi-station.network.example
--- replaced obj /lib/systemd/network/80-wifi-ap.network.example
--- replaced obj /lib/systemd/network/80-wifi-adhoc.network
--- replaced obj /lib/systemd/network/80-container-vz.network
--- replaced obj /lib/systemd/network/80-container-ve.network
--- replaced obj /lib/systemd/network/80-container-host0.network
--- replaced dir /lib/systemd/network
--- replaced obj /lib/systemd/libsystemd-shared-245.so
--- replaced dir /lib/systemd
--- replaced obj /lib/modprobe.d/systemd.conf
--- replaced dir /lib/modprobe.d
--- replaced dir /lib
--- replaced sym /etc/xdg/systemd/user
--- replaced dir /etc/xdg/systemd
--- replaced dir /etc/xdg
--- replaced obj /etc/udev/udev.conf
--- replaced obj /etc/udev/rules.d/.keep_sys-apps_systemd-0
--- replaced dir /etc/udev/rules.d
--- replaced obj /etc/udev/hwdb.d/.keep_sys-apps_systemd-0
--- replaced dir /etc/udev/hwdb.d
--- replaced dir /etc/udev
--- replaced obj /etc/tmpfiles.d/.keep_sys-apps_systemd-0
--- replaced dir /etc/tmpfiles.d
--- replaced obj /etc/systemd/user/.keep_sys-apps_systemd-0
--- replaced obj /etc/systemd/user.conf
--- replaced dir /etc/systemd/user
--- replaced obj /etc/systemd/timesyncd.conf
--- replaced obj /etc/systemd/system/.keep_sys-apps_systemd-0
--- replaced obj /etc/systemd/system.conf
--- replaced dir /etc/systemd/system
--- replaced obj /etc/systemd/sleep.conf
--- replaced obj /etc/systemd/resolved.conf
--- replaced obj /etc/systemd/pstore.conf
--- replaced obj /etc/systemd/networkd.conf
--- replaced obj /etc/systemd/network/.keep_sys-apps_systemd-0
--- replaced dir /etc/systemd/network
--- replaced obj /etc/systemd/logind.conf
--- replaced obj /etc/systemd/journald.conf
--- replaced obj /etc/systemd/journal-upload.conf
--- replaced obj /etc/systemd/coredump.conf
--- replaced dir /etc/systemd
--- replaced sym /etc/sysctl.d/99-sysctl.conf
--- replaced dir /etc/sysctl.d
--- replaced obj /etc/pam.d/systemd-user
--- replaced dir /etc/pam.d
--- replaced obj /etc/modules-load.d/.keep_sys-apps_systemd-0
--- replaced dir /etc/modules-load.d
--- replaced obj /etc/kernel/install.d/.keep_sys-apps_systemd-0
--- replaced dir /etc/kernel/install.d
--- replaced dir /etc/kernel
--- replaced dir /etc/init.d
--- replaced obj /etc/binfmt.d/.keep_sys-apps_systemd-0
--- replaced dir /etc/binfmt.d
--- replaced obj /etc/X11/xinit/xinitrc.d/50-systemd-user.sh
--- replaced dir /etc/X11/xinit/xinitrc.d
--- replaced dir /etc/X11/xinit
--- replaced dir /etc/X11
--- replaced dir /etc
--- replaced obj /bin/userdbctl
--- replaced obj /bin/udevadm
--- replaced obj /bin/systemd-tty-ask-password-agent
--- replaced obj /bin/systemd-tmpfiles
--- replaced obj /bin/systemd-sysusers
--- replaced obj /bin/systemd-notify
--- replaced obj /bin/systemd-machine-id-setup
--- replaced obj /bin/systemd-inhibit
--- replaced obj /bin/systemd-hwdb
--- replaced obj /bin/systemd-firstboot
--- replaced obj /bin/systemd-escape
--- replaced obj /bin/systemd-ask-password
--- replaced obj /bin/systemctl
--- replaced obj /bin/portablectl
--- replaced obj /bin/networkctl
--- replaced obj /bin/machinectl
--- replaced obj /bin/loginctl
--- replaced obj /bin/journalctl
--- replaced dir /bin
>>> Regenerating /etc/ld.so.cache...
