No package files given... Grabbing a set.
--- replaced obj /usr/share/man/man8/zramctl.8.bz2
--- replaced obj /usr/share/man/man8/x86_64.8
--- replaced obj /usr/share/man/man8/wipefs.8.bz2
--- replaced obj /usr/share/man/man8/wdctl.8.bz2
--- replaced obj /usr/share/man/man8/uuidd.8.bz2
--- replaced obj /usr/share/man/man8/uname26.8
--- replaced obj /usr/share/man/man8/umount.8.bz2
--- replaced obj /usr/share/man/man8/switch_root.8.bz2
--- replaced obj /usr/share/man/man8/swapon.8.bz2
--- replaced obj /usr/share/man/man8/swapoff.8
--- replaced obj /usr/share/man/man8/swaplabel.8.bz2
--- replaced obj /usr/share/man/man8/sulogin.8.bz2
--- replaced obj /usr/share/man/man8/sfdisk.8.bz2
--- replaced obj /usr/share/man/man8/setarch.8.bz2
--- replaced obj /usr/share/man/man8/rtcwake.8.bz2
--- replaced obj /usr/share/man/man8/rfkill.8.bz2
--- replaced obj /usr/share/man/man8/resizepart.8.bz2
--- replaced obj /usr/share/man/man8/readprofile.8.bz2
--- replaced obj /usr/share/man/man8/raw.8.bz2
--- replaced obj /usr/share/man/man8/pivot_root.8.bz2
--- replaced obj /usr/share/man/man8/partx.8.bz2
--- replaced obj /usr/share/man/man8/mount.8.bz2
--- replaced obj /usr/share/man/man8/mkswap.8.bz2
--- replaced obj /usr/share/man/man8/mkfs.minix.8.bz2
--- replaced obj /usr/share/man/man8/mkfs.cramfs.8.bz2
--- replaced obj /usr/share/man/man8/mkfs.bfs.8.bz2
--- replaced obj /usr/share/man/man8/mkfs.8.bz2
--- replaced obj /usr/share/man/man8/lsns.8.bz2
--- replaced obj /usr/share/man/man8/lslocks.8.bz2
--- replaced obj /usr/share/man/man8/lsblk.8.bz2
--- replaced obj /usr/share/man/man8/losetup.8.bz2
--- replaced obj /usr/share/man/man8/linux64.8
--- replaced obj /usr/share/man/man8/linux32.8
--- replaced obj /usr/share/man/man8/ldattach.8.bz2
--- replaced obj /usr/share/man/man8/isosize.8.bz2
--- replaced obj /usr/share/man/man8/i386.8
--- replaced obj /usr/share/man/man8/hwclock.8.bz2
--- replaced obj /usr/share/man/man8/fstrim.8.bz2
--- replaced obj /usr/share/man/man8/fsfreeze.8.bz2
--- replaced obj /usr/share/man/man8/fsck.minix.8.bz2
--- replaced obj /usr/share/man/man8/fsck.cramfs.8.bz2
--- replaced obj /usr/share/man/man8/fsck.8.bz2
--- replaced obj /usr/share/man/man8/findmnt.8.bz2
--- replaced obj /usr/share/man/man8/findfs.8.bz2
--- replaced obj /usr/share/man/man8/fdisk.8.bz2
--- replaced obj /usr/share/man/man8/delpart.8.bz2
--- replaced obj /usr/share/man/man8/ctrlaltdel.8.bz2
--- replaced obj /usr/share/man/man8/chmem.8.bz2
--- replaced obj /usr/share/man/man8/chcpu.8.bz2
--- replaced obj /usr/share/man/man8/cfdisk.8.bz2
--- replaced obj /usr/share/man/man8/blockdev.8.bz2
--- replaced obj /usr/share/man/man8/blkzone.8.bz2
--- replaced obj /usr/share/man/man8/blkid.8.bz2
--- replaced obj /usr/share/man/man8/blkdiscard.8.bz2
--- replaced obj /usr/share/man/man8/agetty.8.bz2
--- replaced obj /usr/share/man/man8/addpart.8.bz2
--- replaced dir /usr/share/man/man8
--- replaced obj /usr/share/man/man5/terminal-colors.d.5.bz2
--- replaced obj /usr/share/man/man5/fstab.5.bz2
--- replaced obj /usr/share/man/man5/adjtime_config.5.bz2
--- replaced dir /usr/share/man/man5
--- replaced obj /usr/share/man/man3/uuid_unparse.3.bz2
--- replaced obj /usr/share/man/man3/uuid_time.3.bz2
--- replaced obj /usr/share/man/man3/uuid_parse.3.bz2
--- replaced obj /usr/share/man/man3/uuid_is_null.3.bz2
--- replaced obj /usr/share/man/man3/uuid_generate_time_safe.3
--- replaced obj /usr/share/man/man3/uuid_generate_time.3
--- replaced obj /usr/share/man/man3/uuid_generate_random.3
--- replaced obj /usr/share/man/man3/uuid_generate.3.bz2
--- replaced obj /usr/share/man/man3/uuid_copy.3.bz2
--- replaced obj /usr/share/man/man3/uuid_compare.3.bz2
--- replaced obj /usr/share/man/man3/uuid_clear.3.bz2
--- replaced obj /usr/share/man/man3/uuid.3.bz2
--- replaced obj /usr/share/man/man3/libblkid.3.bz2
--- replaced dir /usr/share/man/man3
--- replaced obj /usr/share/man/man1/whereis.1.bz2
--- replaced obj /usr/share/man/man1/uuidparse.1.bz2
--- replaced obj /usr/share/man/man1/uuidgen.1.bz2
--- replaced obj /usr/share/man/man1/utmpdump.1.bz2
--- replaced obj /usr/share/man/man1/unshare.1.bz2
--- replaced obj /usr/share/man/man1/ul.1.bz2
--- replaced obj /usr/share/man/man1/taskset.1.bz2
--- replaced obj /usr/share/man/man1/setterm.1.bz2
--- replaced obj /usr/share/man/man1/setsid.1.bz2
--- replaced obj /usr/share/man/man1/setpriv.1.bz2
--- replaced obj /usr/share/man/man1/scriptreplay.1.bz2
--- replaced obj /usr/share/man/man1/scriptlive.1.bz2
--- replaced obj /usr/share/man/man1/script.1.bz2
--- replaced obj /usr/share/man/man1/runuser.1.bz2
--- replaced obj /usr/share/man/man1/rev.1.bz2
--- replaced obj /usr/share/man/man1/renice.1.bz2
--- replaced obj /usr/share/man/man1/rename.1.bz2
--- replaced obj /usr/share/man/man1/prlimit.1.bz2
--- replaced obj /usr/share/man/man1/pg.1.bz2
--- replaced obj /usr/share/man/man1/nsenter.1.bz2
--- replaced obj /usr/share/man/man1/namei.1.bz2
--- replaced obj /usr/share/man/man1/mountpoint.1.bz2
--- replaced obj /usr/share/man/man1/more.1.bz2
--- replaced obj /usr/share/man/man1/mcookie.1.bz2
--- replaced obj /usr/share/man/man1/lsmem.1.bz2
--- replaced obj /usr/share/man/man1/lslogins.1.bz2
--- replaced obj /usr/share/man/man1/lsipc.1.bz2
--- replaced obj /usr/share/man/man1/lscpu.1.bz2
--- replaced obj /usr/share/man/man1/look.1.bz2
--- replaced obj /usr/share/man/man1/logger.1.bz2
--- replaced obj /usr/share/man/man1/line.1.bz2
--- replaced obj /usr/share/man/man1/lastb.1
--- replaced obj /usr/share/man/man1/last.1.bz2
--- replaced obj /usr/share/man/man1/ipcs.1.bz2
--- replaced obj /usr/share/man/man1/ipcrm.1.bz2
--- replaced obj /usr/share/man/man1/ipcmk.1.bz2
--- replaced obj /usr/share/man/man1/ionice.1.bz2
--- replaced obj /usr/share/man/man1/hexdump.1.bz2
--- replaced obj /usr/share/man/man1/getopt.1.bz2
--- replaced obj /usr/share/man/man1/flock.1.bz2
--- replaced obj /usr/share/man/man1/fincore.1.bz2
--- replaced obj /usr/share/man/man1/fallocate.1.bz2
--- replaced obj /usr/share/man/man1/eject.1.bz2
--- replaced obj /usr/share/man/man1/dmesg.1.bz2
--- replaced obj /usr/share/man/man1/column.1.bz2
--- replaced obj /usr/share/man/man1/colrm.1.bz2
--- replaced obj /usr/share/man/man1/colcrt.1.bz2
--- replaced obj /usr/share/man/man1/col.1.bz2
--- replaced obj /usr/share/man/man1/chrt.1.bz2
--- replaced obj /usr/share/man/man1/choom.1.bz2
--- replaced obj /usr/share/man/man1/cal.1.bz2
--- replaced dir /usr/share/man/man1
--- replaced dir /usr/share/man
--- replaced obj /usr/share/bash-completion/completions/zramctl
--- replaced obj /usr/share/bash-completion/completions/wipefs
--- replaced obj /usr/share/bash-completion/completions/whereis
--- replaced obj /usr/share/bash-completion/completions/wdctl
--- replaced obj /usr/share/bash-completion/completions/uuidparse
--- replaced obj /usr/share/bash-completion/completions/uuidgen
--- replaced obj /usr/share/bash-completion/completions/uuidd
--- replaced obj /usr/share/bash-completion/completions/utmpdump
--- replaced obj /usr/share/bash-completion/completions/unshare
--- replaced obj /usr/share/bash-completion/completions/umount
--- replaced obj /usr/share/bash-completion/completions/ul
--- replaced obj /usr/share/bash-completion/completions/taskset
--- replaced obj /usr/share/bash-completion/completions/swapon
--- replaced obj /usr/share/bash-completion/completions/swapoff
--- replaced obj /usr/share/bash-completion/completions/swaplabel
--- replaced obj /usr/share/bash-completion/completions/sfdisk
--- replaced obj /usr/share/bash-completion/completions/setterm
--- replaced obj /usr/share/bash-completion/completions/setsid
--- replaced obj /usr/share/bash-completion/completions/setpriv
--- replaced obj /usr/share/bash-completion/completions/setarch
--- replaced obj /usr/share/bash-completion/completions/scriptreplay
--- replaced obj /usr/share/bash-completion/completions/scriptlive
--- replaced obj /usr/share/bash-completion/completions/script
--- replaced obj /usr/share/bash-completion/completions/runuser
--- replaced obj /usr/share/bash-completion/completions/rtcwake
--- replaced obj /usr/share/bash-completion/completions/rfkill
--- replaced obj /usr/share/bash-completion/completions/rev
--- replaced obj /usr/share/bash-completion/completions/resizepart
--- replaced obj /usr/share/bash-completion/completions/renice
--- replaced obj /usr/share/bash-completion/completions/rename
--- replaced obj /usr/share/bash-completion/completions/readprofile
--- replaced obj /usr/share/bash-completion/completions/raw
--- replaced obj /usr/share/bash-completion/completions/prlimit
--- replaced obj /usr/share/bash-completion/completions/pivot_root
--- replaced obj /usr/share/bash-completion/completions/pg
--- replaced obj /usr/share/bash-completion/completions/partx
--- replaced obj /usr/share/bash-completion/completions/nsenter
--- replaced obj /usr/share/bash-completion/completions/namei
--- replaced obj /usr/share/bash-completion/completions/mountpoint
--- replaced obj /usr/share/bash-completion/completions/mount
--- replaced obj /usr/share/bash-completion/completions/more
--- replaced obj /usr/share/bash-completion/completions/mkswap
--- replaced obj /usr/share/bash-completion/completions/mkfs.minix
--- replaced obj /usr/share/bash-completion/completions/mkfs.cramfs
--- replaced obj /usr/share/bash-completion/completions/mkfs.bfs
--- replaced obj /usr/share/bash-completion/completions/mkfs
--- replaced obj /usr/share/bash-completion/completions/mcookie
--- replaced obj /usr/share/bash-completion/completions/lsns
--- replaced obj /usr/share/bash-completion/completions/lsmem
--- replaced obj /usr/share/bash-completion/completions/lslogins
--- replaced obj /usr/share/bash-completion/completions/lslocks
--- replaced obj /usr/share/bash-completion/completions/lsipc
--- replaced obj /usr/share/bash-completion/completions/lscpu
--- replaced obj /usr/share/bash-completion/completions/lsblk
--- replaced obj /usr/share/bash-completion/completions/losetup
--- replaced obj /usr/share/bash-completion/completions/look
--- replaced obj /usr/share/bash-completion/completions/logger
--- replaced obj /usr/share/bash-completion/completions/ldattach
--- replaced obj /usr/share/bash-completion/completions/last
--- replaced obj /usr/share/bash-completion/completions/isosize
--- replaced obj /usr/share/bash-completion/completions/ipcs
--- replaced obj /usr/share/bash-completion/completions/ipcrm
--- replaced obj /usr/share/bash-completion/completions/ipcmk
--- replaced obj /usr/share/bash-completion/completions/ionice
--- replaced obj /usr/share/bash-completion/completions/hwclock
--- replaced obj /usr/share/bash-completion/completions/hexdump
--- replaced obj /usr/share/bash-completion/completions/getopt
--- replaced obj /usr/share/bash-completion/completions/fstrim
--- replaced obj /usr/share/bash-completion/completions/fsfreeze
--- replaced obj /usr/share/bash-completion/completions/fsck.minix
--- replaced obj /usr/share/bash-completion/completions/fsck.cramfs
--- replaced obj /usr/share/bash-completion/completions/fsck
--- replaced obj /usr/share/bash-completion/completions/flock
--- replaced obj /usr/share/bash-completion/completions/findmnt
--- replaced obj /usr/share/bash-completion/completions/findfs
--- replaced obj /usr/share/bash-completion/completions/fincore
--- replaced obj /usr/share/bash-completion/completions/fdisk
--- replaced obj /usr/share/bash-completion/completions/fallocate
--- replaced obj /usr/share/bash-completion/completions/eject
--- replaced obj /usr/share/bash-completion/completions/dmesg
--- replaced obj /usr/share/bash-completion/completions/delpart
--- replaced obj /usr/share/bash-completion/completions/ctrlaltdel
--- replaced obj /usr/share/bash-completion/completions/column
--- replaced obj /usr/share/bash-completion/completions/colrm
--- replaced obj /usr/share/bash-completion/completions/colcrt
--- replaced obj /usr/share/bash-completion/completions/col
--- replaced obj /usr/share/bash-completion/completions/chrt
--- replaced obj /usr/share/bash-completion/completions/chmem
--- replaced obj /usr/share/bash-completion/completions/chcpu
--- replaced obj /usr/share/bash-completion/completions/cfdisk
--- replaced obj /usr/share/bash-completion/completions/cal
--- replaced obj /usr/share/bash-completion/completions/blockdev
--- replaced obj /usr/share/bash-completion/completions/blkzone
--- replaced obj /usr/share/bash-completion/completions/blkid
--- replaced obj /usr/share/bash-completion/completions/blkdiscard
--- replaced obj /usr/share/bash-completion/completions/addpart
--- replaced dir /usr/share/bash-completion/completions
--- replaced dir /usr/share/bash-completion
--- replaced dir /usr/share
--- replaced obj /usr/sbin/uuidd
--- replaced obj /usr/sbin/rtcwake
--- replaced obj /usr/sbin/rfkill
--- replaced obj /usr/sbin/resizepart
--- replaced obj /usr/sbin/readprofile
--- replaced obj /usr/sbin/partx
--- replaced obj /usr/sbin/ldattach
--- replaced obj /usr/sbin/delpart
--- replaced obj /usr/sbin/addpart
--- replaced dir /usr/sbin
--- replaced obj /usr/lib64/pkgconfig/uuid.pc
--- replaced obj /usr/lib64/pkgconfig/smartcols.pc
--- replaced obj /usr/lib64/pkgconfig/mount.pc
--- replaced obj /usr/lib64/pkgconfig/fdisk.pc
--- replaced obj /usr/lib64/pkgconfig/blkid.pc
--- replaced dir /usr/lib64/pkgconfig
--- replaced obj /usr/lib64/libuuid.so
--- replaced obj /usr/lib64/libsmartcols.so
--- replaced obj /usr/lib64/libmount.so
--- replaced obj /usr/lib64/libfdisk.so
--- replaced obj /usr/lib64/libblkid.so
--- replaced dir /usr/lib64
--- replaced obj /usr/include/uuid/uuid.h
--- replaced dir /usr/include/uuid
--- replaced obj /usr/include/libsmartcols/libsmartcols.h
--- replaced dir /usr/include/libsmartcols
--- replaced obj /usr/include/libmount/libmount.h
--- replaced dir /usr/include/libmount
--- replaced obj /usr/include/libfdisk/libfdisk.h
--- replaced dir /usr/include/libfdisk
--- replaced obj /usr/include/blkid/blkid.h
--- replaced dir /usr/include/blkid
--- replaced dir /usr/include
--- replaced sym /usr/bin/x86_64
--- replaced obj /usr/bin/whereis
--- replaced obj /usr/bin/uuidparse
--- replaced obj /usr/bin/uuidgen
--- replaced obj /usr/bin/utmpdump
--- replaced obj /usr/bin/unshare
--- replaced sym /usr/bin/uname26
--- replaced obj /usr/bin/ul
--- replaced obj /usr/bin/taskset
--- replaced obj /usr/bin/setterm
--- replaced obj /usr/bin/setsid
--- replaced obj /usr/bin/setpriv
--- replaced obj /usr/bin/setarch
--- replaced obj /usr/bin/scriptreplay
--- replaced obj /usr/bin/scriptlive
--- replaced obj /usr/bin/script
--- replaced obj /usr/bin/rev
--- replaced obj /usr/bin/renice
--- replaced obj /usr/bin/rename
--- replaced obj /usr/bin/prlimit
--- replaced obj /usr/bin/pg
--- replaced obj /usr/bin/nsenter
--- replaced obj /usr/bin/namei
--- replaced obj /usr/bin/mcookie
--- replaced obj /usr/bin/lsns
--- replaced obj /usr/bin/lsmem
--- replaced obj /usr/bin/lslogins
--- replaced obj /usr/bin/lslocks
--- replaced obj /usr/bin/lsipc
--- replaced obj /usr/bin/lscpu
--- replaced obj /usr/bin/look
--- replaced obj /usr/bin/logger
--- replaced sym /usr/bin/linux64
--- replaced sym /usr/bin/linux32
--- replaced obj /usr/bin/line
--- replaced sym /usr/bin/lastb
--- replaced obj /usr/bin/last
--- replaced obj /usr/bin/isosize
--- replaced obj /usr/bin/ipcs
--- replaced obj /usr/bin/ipcrm
--- replaced obj /usr/bin/ipcmk
--- replaced obj /usr/bin/ionice
--- replaced sym /usr/bin/i386
--- replaced obj /usr/bin/hexdump
--- replaced obj /usr/bin/getopt
--- replaced obj /usr/bin/flock
--- replaced obj /usr/bin/fincore
--- replaced obj /usr/bin/fallocate
--- replaced obj /usr/bin/eject
--- replaced obj /usr/bin/column
--- replaced obj /usr/bin/colrm
--- replaced obj /usr/bin/colcrt
--- replaced obj /usr/bin/col
--- replaced obj /usr/bin/chrt
--- replaced obj /usr/bin/choom
--- replaced obj /usr/bin/chmem
--- replaced obj /usr/bin/cal
--- replaced dir /usr/bin
--- replaced dir /usr
--- replaced obj /sbin/zramctl
--- replaced obj /sbin/wipefs
--- replaced obj /sbin/switch_root
--- replaced obj /sbin/swapon
--- replaced obj /sbin/swapoff
--- replaced obj /sbin/swaplabel
--- replaced obj /sbin/sulogin
--- replaced obj /sbin/sfdisk
--- replaced obj /sbin/runuser
--- replaced obj /sbin/raw
--- replaced obj /sbin/pivot_root
--- replaced obj /sbin/mkswap
--- replaced obj /sbin/mkfs.minix
--- replaced obj /sbin/mkfs.cramfs
--- replaced obj /sbin/mkfs.bfs
--- replaced obj /sbin/mkfs
--- replaced obj /sbin/losetup
--- replaced obj /sbin/hwclock
--- replaced obj /sbin/fstrim
--- replaced obj /sbin/fsfreeze
--- replaced obj /sbin/fsck.minix
--- replaced obj /sbin/fsck.cramfs
--- replaced obj /sbin/fsck
--- replaced obj /sbin/findfs
--- replaced obj /sbin/fdisk
--- replaced obj /sbin/ctrlaltdel
--- replaced obj /sbin/chcpu
--- replaced obj /sbin/cfdisk
--- replaced obj /sbin/blockdev
--- replaced obj /sbin/blkzone
--- replaced obj /sbin/blkid
--- replaced obj /sbin/blkdiscard
--- replaced obj /sbin/agetty
--- replaced dir /sbin
--- replaced obj /lib64/libuuid.so.1.3.0
--- replaced sym /lib64/libuuid.so.1
--- replaced obj /lib64/libsmartcols.so.1.1.0
--- replaced sym /lib64/libsmartcols.so.1
--- replaced obj /lib64/libmount.so.1.1.0
--- replaced sym /lib64/libmount.so.1
--- replaced obj /lib64/libfdisk.so.1.1.0
--- replaced sym /lib64/libfdisk.so.1
--- replaced obj /lib64/libblkid.so.1.1.0
--- replaced sym /lib64/libblkid.so.1
--- replaced dir /lib64
--- replaced obj /lib/systemd/system/uuidd.socket
--- replaced obj /lib/systemd/system/uuidd.service
--- replaced obj /lib/systemd/system/fstrim.timer
--- replaced obj /lib/systemd/system/fstrim.service
--- replaced dir /lib/systemd/system
--- replaced dir /lib/systemd
--- replaced dir /lib
--- replaced obj /etc/pam.d/runuser-l
--- replaced obj /etc/pam.d/runuser
--- replaced dir /etc/pam.d
--- replaced dir /etc
--- replaced obj /bin/wdctl
--- replaced obj /bin/umount
--- replaced obj /bin/mountpoint
--- replaced obj /bin/mount
--- replaced obj /bin/more
--- replaced obj /bin/lsblk
--- replaced obj /bin/findmnt
--- replaced obj /bin/dmesg
--- replaced dir /bin
>>> Regenerating /etc/ld.so.cache...
