 * Package:    sys-fabric/perftest-2.0
 * Repository: gentoo
 * Maintainer: cluster@gentoo.org
 * USE:        abi_x86_64 amd64 elibc_glibc kernel_linux userland_GNU
 * FEATURES:   network-sandbox preserve-libs sandbox userpriv usersandbox
 * FEATURES='assume-digests binpkg-docompress binpkg-dostrip binpkg-logs buildpkg cgroup compress-index config-protect-if-modified distlocks ebuild-locks fixlafiles ipc-sandbox merge-sync multilib-strict network-sandbox news nodoc parallel-fetch pid-sandbox preserve-libs qa-unresolved-soname-deps sandbox sfperms strict strict-keepdir unknown-features-warn unmerge-logs unmerge-orphans userfetch userpriv usersandbox usersync xattr'
 * CFLAGS='-march=znver2 -Ofast -pipe -g0 -fno-common -fgraphite-identity -floop-interchange -floop-nest-optimize -floop-parallelize-all -ftree-parallelize-loops=12 -ftree-vectorize -fdevirtualize-at-ltrans -fipa-pta -fno-semantic-interposition -flto=12 -fno-plt -falign-functions=32 -fno-stack-protector -fno-stack-clash-protection -fstack-check=no -fno-stack-check -fuse-linker-plugin -Wl,-O1,--sort-common,--as-needed,-z,norelro,-z,now,-lgomp,-lpthread'
 * CXXFLAGS='-march=znver2 -Ofast -pipe -g0 -fno-common -fgraphite-identity -floop-interchange -floop-nest-optimize -floop-parallelize-all -ftree-parallelize-loops=12 -ftree-vectorize -fdevirtualize-at-ltrans -fipa-pta -fno-semantic-interposition -flto=12 -fno-plt -falign-functions=32 -fno-stack-protector -fno-stack-clash-protection -fstack-check=no -fno-stack-check -fuse-linker-plugin -Wl,-O1,--sort-common,--as-needed,-z,norelro,-z,now,-lgomp,-lpthread'
 * FFLAGS='-march=znver2 -Ofast -pipe -g0 -fno-common -fgraphite-identity -floop-interchange -floop-nest-optimize -floop-parallelize-all -ftree-parallelize-loops=12 -ftree-vectorize -fdevirtualize-at-ltrans -fipa-pta -fno-semantic-interposition -flto=12 -fno-plt -falign-functions=32 -fno-stack-protector -fno-stack-clash-protection -fstack-check=no -fno-stack-check -fuse-linker-plugin -Wl,-O1,--sort-common,--as-needed,-z,norelro,-z,now,-lgomp,-lpthread'
 * FCFLAGS='-march=znver2 -Ofast -pipe -g0 -fno-common -fgraphite-identity -floop-interchange -floop-nest-optimize -floop-parallelize-all -ftree-parallelize-loops=12 -ftree-vectorize -fdevirtualize-at-ltrans -fipa-pta -fno-semantic-interposition -flto=12 -fno-plt -falign-functions=32 -fno-stack-protector -fno-stack-clash-protection -fstack-check=no -fno-stack-check -fuse-linker-plugin -Wl,-O1,--sort-common,--as-needed,-z,norelro,-z,now,-lgomp,-lpthread'
 * F77FLAGS='-march=znver2 -Ofast -pipe -g0 -fno-common -fgraphite-identity -floop-interchange -floop-nest-optimize -floop-parallelize-all -ftree-parallelize-loops=12 -ftree-vectorize -fdevirtualize-at-ltrans -fipa-pta -fno-semantic-interposition -flto=12 -fno-plt -falign-functions=32 -fno-stack-protector -fno-stack-clash-protection -fstack-check=no -fno-stack-check -fuse-linker-plugin -Wl,-O1,--sort-common,--as-needed,-z,norelro,-z,now,-lgomp,-lpthread'
 * LDFLAGS='-Wl,-O1,--sort-common,--as-needed,-z,norelro,-z,now,-lgomp,-lpthread -march=znver2 -Ofast -pipe -g0 -fno-common -fgraphite-identity -floop-interchange -floop-nest-optimize -floop-parallelize-all -ftree-parallelize-loops=12 -ftree-vectorize -fdevirtualize-at-ltrans -fipa-pta -fno-semantic-interposition -flto=12 -fno-plt -falign-functions=32 -fno-stack-protector -fno-stack-clash-protection -fstack-check=no -fno-stack-check -fuse-linker-plugin'
 * MAKEOPTS='-j12 -l12'
 * gcc () 11.0.0 20200616 (experimental)
 * g++ () 11.0.0 20200616 (experimental)
 * GNU ld (Gentoo 2.34 p4) 2.34.0
 * Linux rescue 5.4.36 #1 SMP Thu Apr 30 04:38:28 UTC 2020 x86_64 AMD Ryzen 5 3600 6-Core Processor AuthenticAMD GNU/Linux
sys-fabric/perftest: 29 seconds average for 6 merges
2020-05-31T15:48:38 >>> sys-fabric/perftest: 31 seconds
2020-06-01T02:08:59 >>> sys-fabric/perftest: 35 seconds
2020-06-13T03:39:07 >>> sys-fabric/perftest: 26 seconds
2020-06-13T20:10:02 >>> sys-fabric/perftest: 17 seconds
2020-06-14T04:55:18 >>> sys-fabric/perftest: 31 seconds
2020-06-16T13:57:02 >>> sys-fabric/perftest: 34 seconds
]0;emerge 13:52:18 207|895 perftest 00:27 (root@rescue)>>> Unpacking source...
>>> Unpacking OFED-3.12-rc1.tgz to /tmp/portage/sys-fabric/perftest-2.0/work
>>> Unpacking ./OFED-3.12-rc1/SRPMS/perftest-2.0-0.80.g54c73c6.src.rpm to /tmp/portage/sys-fabric/perftest-2.0/work
>>> Unpacking ./perftest-2.0-0.80.g54c73c6.tar.gz to /tmp/portage/sys-fabric/perftest-2.0/work
>>> Source unpacked in /tmp/portage/sys-fabric/perftest-2.0/work
>>> Preparing source in /tmp/portage/sys-fabric/perftest-2.0/work/perftest-2.0 ...
>>> Source prepared.
>>> Configuring source in /tmp/portage/sys-fabric/perftest-2.0/work/perftest-2.0 ...
 * econf: updating perftest-2.0/config/config.guess with /usr/share/gnuconfig/config.guess
 * econf: updating perftest-2.0/config/config.sub with /usr/share/gnuconfig/config.sub
./configure --prefix=/usr --build=x86_64-pc-linux-gnu --host=x86_64-pc-linux-gnu --mandir=/usr/share/man --infodir=/usr/share/info --datadir=/usr/share --sysconfdir=/etc --localstatedir=/var/lib --disable-dependency-tracking --libdir=/usr/lib64
checking for a BSD-compatible install... /tmp/portage/._portage_reinstall_.z8sq2nh6/bin/ebuild-helpers/xattr/install -c
checking whether build environment is sane... yes
checking for gawk... gawk
checking whether make sets $(MAKE)... yes
checking for x86_64-pc-linux-gnu-gcc... x86_64-pc-linux-gnu-gcc
checking for C compiler default output file name... a.out
checking whether the C compiler works... yes
checking whether we are cross compiling... no
checking for suffix of executables... 
checking for suffix of object files... o
checking whether we are using the GNU C compiler... yes
checking whether x86_64-pc-linux-gnu-gcc accepts -g... yes
checking for x86_64-pc-linux-gnu-gcc option to accept ANSI C... none needed
checking for style of include used by make... GNU
checking dependency style of x86_64-pc-linux-gnu-gcc... none
checking for x86_64-pc-linux-gnu-g++... x86_64-pc-linux-gnu-g++
checking whether we are using the GNU C++ compiler... yes
checking whether x86_64-pc-linux-gnu-g++ accepts -g... yes
checking dependency style of x86_64-pc-linux-gnu-g++... none
checking for a BSD-compatible install... /tmp/portage/._portage_reinstall_.z8sq2nh6/bin/ebuild-helpers/xattr/install -c
checking build system type... x86_64-pc-linux-gnu
checking host system type... x86_64-pc-linux-gnu
checking for a sed that does not truncate output... /bin/sed
checking for egrep... grep -E
checking for ld used by x86_64-pc-linux-gnu-gcc... /usr/x86_64-pc-linux-gnu/bin/ld
checking if the linker (/usr/x86_64-pc-linux-gnu/bin/ld) is GNU ld... yes
checking for /usr/x86_64-pc-linux-gnu/bin/ld option to reload object files... -r
checking for BSD-compatible nm... /usr/bin/nm -B
checking whether ln -s works... yes
checking how to recognise dependent libraries... pass_all
checking how to run the C preprocessor... x86_64-pc-linux-gnu-gcc -E
checking for ANSI C header files... yes
checking for sys/types.h... yes
checking for sys/stat.h... yes
checking for stdlib.h... yes
checking for string.h... yes
checking for memory.h... yes
checking for strings.h... yes
checking for inttypes.h... yes
checking for stdint.h... yes
checking for unistd.h... yes
checking dlfcn.h usability... yes
checking dlfcn.h presence... yes
checking for dlfcn.h... yes
checking how to run the C++ preprocessor... x86_64-pc-linux-gnu-g++ -E
checking for x86_64-pc-linux-gnu-g77... no
checking for x86_64-pc-linux-gnu-f77... no
checking for x86_64-pc-linux-gnu-xlf... no
checking for x86_64-pc-linux-gnu-frt... no
checking for x86_64-pc-linux-gnu-pgf77... no
checking for x86_64-pc-linux-gnu-fort77... no
checking for x86_64-pc-linux-gnu-fl32... no
checking for x86_64-pc-linux-gnu-af77... no
checking for x86_64-pc-linux-gnu-f90... no
checking for x86_64-pc-linux-gnu-xlf90... no
checking for x86_64-pc-linux-gnu-pgf90... no
checking for x86_64-pc-linux-gnu-epcf90... no
checking for x86_64-pc-linux-gnu-f95... no
checking for x86_64-pc-linux-gnu-fort... no
checking for x86_64-pc-linux-gnu-xlf95... no
checking for x86_64-pc-linux-gnu-ifc... no
checking for x86_64-pc-linux-gnu-efc... no
checking for x86_64-pc-linux-gnu-pgf95... no
checking for x86_64-pc-linux-gnu-lf95... no
checking for x86_64-pc-linux-gnu-gfortran... x86_64-pc-linux-gnu-gfortran
checking whether we are using the GNU Fortran 77 compiler... yes
checking whether x86_64-pc-linux-gnu-gfortran accepts -g... yes
checking the maximum length of command line arguments... 32768
checking command to parse /usr/bin/nm -B output from x86_64-pc-linux-gnu-gcc object... failed
checking for objdir... .libs
checking for x86_64-pc-linux-gnu-ar... x86_64-pc-linux-gnu-ar
checking for x86_64-pc-linux-gnu-ranlib... x86_64-pc-linux-gnu-ranlib
checking for x86_64-pc-linux-gnu-strip... x86_64-pc-linux-gnu-strip
checking if x86_64-pc-linux-gnu-gcc supports -fno-rtti -fno-exceptions... no
checking for x86_64-pc-linux-gnu-gcc option to produce PIC... -fPIC
checking if x86_64-pc-linux-gnu-gcc PIC flag -fPIC works... yes
checking if x86_64-pc-linux-gnu-gcc static flag -static works... yes
checking if x86_64-pc-linux-gnu-gcc supports -c -o file.o... yes
checking whether the x86_64-pc-linux-gnu-gcc linker (/usr/x86_64-pc-linux-gnu/bin/ld -m elf_x86_64) supports shared libraries... yes
checking whether -lc should be explicitly linked in... no
checking dynamic linker characteristics... GNU/Linux ld.so
checking how to hardcode library paths into programs... immediate
checking whether stripping libraries is possible... yes
checking if libtool supports shared libraries... yes
checking whether to build shared libraries... yes
checking whether to build static libraries... yes
configure: creating libtool
appending configuration tag "CXX" to libtool
checking for ld used by x86_64-pc-linux-gnu-g++... /usr/x86_64-pc-linux-gnu/bin/ld -m elf_x86_64
checking if the linker (/usr/x86_64-pc-linux-gnu/bin/ld -m elf_x86_64) is GNU ld... yes
checking whether the x86_64-pc-linux-gnu-g++ linker (/usr/x86_64-pc-linux-gnu/bin/ld -m elf_x86_64) supports shared libraries... yes
checking for x86_64-pc-linux-gnu-g++ option to produce PIC... -fPIC
checking if x86_64-pc-linux-gnu-g++ PIC flag -fPIC works... yes
checking if x86_64-pc-linux-gnu-g++ static flag -static works... yes
checking if x86_64-pc-linux-gnu-g++ supports -c -o file.o... yes
checking whether the x86_64-pc-linux-gnu-g++ linker (/usr/x86_64-pc-linux-gnu/bin/ld -m elf_x86_64) supports shared libraries... yes
checking dynamic linker characteristics... GNU/Linux ld.so
checking how to hardcode library paths into programs... immediate
appending configuration tag "F77" to libtool
checking if libtool supports shared libraries... yes
checking whether to build shared libraries... yes
checking whether to build static libraries... yes
checking for x86_64-pc-linux-gnu-gfortran option to produce PIC... -fPIC
checking if x86_64-pc-linux-gnu-gfortran PIC flag -fPIC works... yes
checking if x86_64-pc-linux-gnu-gfortran static flag -static works... yes
checking if x86_64-pc-linux-gnu-gfortran supports -c -o file.o... yes
checking whether the x86_64-pc-linux-gnu-gfortran linker (/usr/x86_64-pc-linux-gnu/bin/ld -m elf_x86_64) supports shared libraries... yes
checking dynamic linker characteristics... GNU/Linux ld.so
checking how to hardcode library paths into programs... immediate
checking for ANSI C header files... (cached) yes
checking infiniband/verbs.h usability... yes
checking infiniband/verbs.h presence... yes
checking for infiniband/verbs.h... yes
checking for ibv_get_device_list in -libverbs... yes
checking for rdma_create_event_channel in -lrdmacm... yes
checking for umad_init in -libumad... yes
checking for log in -lm... yes
checking for infiniband/verbs_exp.h... no
configure: creating ./config.status
config.status: creating Makefile
config.status: creating config.h
config.status: executing depfiles commands
>>> Source configured.
>>> Compiling source in /tmp/portage/sys-fabric/perftest-2.0/work/perftest-2.0 ...
make -j12 -l12 
make  all-am
make[1]: Entering directory '/tmp/portage/sys-fabric/perftest-2.0/work/perftest-2.0'
x86_64-pc-linux-gnu-gcc -DHAVE_CONFIG_H -I. -I. -I.     -g -Wall -D_GNU_SOURCE -O2 -c -o get_clock.o `test -f 'src/get_clock.c' || echo './'`src/get_clock.c
x86_64-pc-linux-gnu-gcc -DHAVE_CONFIG_H -I. -I. -I.     -g -Wall -D_GNU_SOURCE -O2 -c -o perftest_communication.o `test -f 'src/perftest_communication.c' || echo './'`src/perftest_communication.c
x86_64-pc-linux-gnu-gcc -DHAVE_CONFIG_H -I. -I. -I.     -g -Wall -D_GNU_SOURCE -O2 -c -o perftest_parameters.o `test -f 'src/perftest_parameters.c' || echo './'`src/perftest_parameters.c
x86_64-pc-linux-gnu-gcc -DHAVE_CONFIG_H -I. -I. -I.     -g -Wall -D_GNU_SOURCE -O2 -c -o perftest_resources.o `test -f 'src/perftest_resources.c' || echo './'`src/perftest_resources.c
In file included from [01m[K/usr/include/sys/time.h:21[m[K,
                 from [01m[Ksrc/get_clock.c:43[m[K:
[01m[K/usr/include/features.h:187:3:[m[K [01;35m[Kwarning: [m[K#warning "_BSD_SOURCE and _SVID_SOURCE are deprecated, use _DEFAULT_SOURCE" [[01;35m[K]8;;https://gcc.gnu.org/onlinedocs/gcc/Warning-Options.html#index-Wcpp-Wcpp]8;;[m[K]
  187 | # [01;35m[Kwarning[m[K "_BSD_SOURCE and _SVID_SOURCE are deprecated, use _DEFAULT_SOURCE"
      |   [01;35m[K^~~~~~~[m[K
x86_64-pc-linux-gnu-gcc -DHAVE_CONFIG_H -I. -I. -I.     -g -Wall -D_GNU_SOURCE -O2 -c -o send_bw.o `test -f 'src/send_bw.c' || echo './'`src/send_bw.c
x86_64-pc-linux-gnu-gcc -DHAVE_CONFIG_H -I. -I. -I.     -g -Wall -D_GNU_SOURCE -O2 -c -o multicast_resources.o `test -f 'src/multicast_resources.c' || echo './'`src/multicast_resources.c
x86_64-pc-linux-gnu-gcc -DHAVE_CONFIG_H -I. -I. -I.     -g -Wall -D_GNU_SOURCE -O2 -c -o send_lat.o `test -f 'src/send_lat.c' || echo './'`src/send_lat.c
x86_64-pc-linux-gnu-gcc -DHAVE_CONFIG_H -I. -I. -I.     -g -Wall -D_GNU_SOURCE -O2 -c -o write_lat.o `test -f 'src/write_lat.c' || echo './'`src/write_lat.c
x86_64-pc-linux-gnu-gcc -DHAVE_CONFIG_H -I. -I. -I.     -g -Wall -D_GNU_SOURCE -O2 -c -o write_bw.o `test -f 'src/write_bw.c' || echo './'`src/write_bw.c
x86_64-pc-linux-gnu-gcc -DHAVE_CONFIG_H -I. -I. -I.     -g -Wall -D_GNU_SOURCE -O2 -c -o read_lat.o `test -f 'src/read_lat.c' || echo './'`src/read_lat.c
[01m[Ksrc/perftest_parameters.c:[m[K In function ‘[01m[Kforce_dependecies[m[K’:
[01m[Ksrc/perftest_parameters.c:536:23:[m[K [01;35m[Kwarning: [m[Klogical not is only applied to the left hand side of comparison [[01;35m[K]8;;https://gcc.gnu.org/onlinedocs/gcc/Warning-Options.html#index-Wlogical-not-parentheses-Wlogical-not-parentheses]8;;[m[K]
  536 |   if (!user_param->tst[01;35m[K==[m[KBW) {
      |                       [01;35m[K^~[m[K
[01m[Ksrc/perftest_parameters.c:536:7:[m[K [01;36m[Knote: [m[Kadd parentheses around left hand side expression to silence this warning
  536 |   if ([01;36m[K!user_param->tst[m[K==BW) {
      |       [01;36m[K^~~~~~~~~~~~~~~~[m[K
      |       [32m[K([m[K               [32m[K)[m[K
x86_64-pc-linux-gnu-gcc -DHAVE_CONFIG_H -I. -I. -I.     -g -Wall -D_GNU_SOURCE -O2 -c -o read_bw.o `test -f 'src/read_bw.c' || echo './'`src/read_bw.c
[01m[Ksrc/perftest_parameters.c:[m[K In function ‘[01m[Kctx_print_test_info[m[K’:
[01m[Ksrc/perftest_parameters.c:1631:5:[m[K [01;35m[Kwarning: [m[Kthis ‘[01m[Kif[m[K’ clause does not guard... [[01;35m[K]8;;https://gcc.gnu.org/onlinedocs/gcc/Warning-Options.html#index-Wmisleading-indentation-Wmisleading-indentation]8;;[m[K]
 1631 |     [01;35m[Kif[m[K (user_param->mac_fwd == ON)
      |     [01;35m[K^~[m[K
[01m[Ksrc/perftest_parameters.c:1634:2:[m[K [01;36m[Knote: [m[K...this statement, but the latter is misleadingly indented as if it were guarded by the ‘[01m[Kif[m[K’
 1634 |  [01;36m[Kif[m[K (user_param->gid_index != DEF_GID_INDEX)
      |  [01;36m[K^~[m[K
x86_64-pc-linux-gnu-gcc -DHAVE_CONFIG_H -I. -I. -I.     -g -Wall -D_GNU_SOURCE -O2 -c -o atomic_lat.o `test -f 'src/atomic_lat.c' || echo './'`src/atomic_lat.c
x86_64-pc-linux-gnu-gcc -DHAVE_CONFIG_H -I. -I. -I.     -g -Wall -D_GNU_SOURCE -O2 -c -o atomic_bw.o `test -f 'src/atomic_bw.c' || echo './'`src/atomic_bw.c
[01m[Ksrc/perftest_resources.c:[m[K In function ‘[01m[Kalloc_ctx[m[K’:
[01m[Ksrc/perftest_resources.c:479:5:[m[K [01;35m[Kwarning: [m[Kthis ‘[01m[Kif[m[K’ clause does not guard... [[01;35m[K]8;;https://gcc.gnu.org/onlinedocs/gcc/Warning-Options.html#index-Wmisleading-indentation-Wmisleading-indentation]8;;[m[K]
  479 |     [01;35m[Kif[m[K (user_param->mac_fwd == ON )
      |     [01;35m[K^~[m[K
[01m[Ksrc/perftest_resources.c:482:2:[m[K [01;36m[Knote: [m[K...this statement, but the latter is misleadingly indented as if it were guarded by the ‘[01m[Kif[m[K’
  482 |  [01;36m[Kctx[m[K->size = user_param->size;
      |  [01;36m[K^~~[m[K
rm -f libperftest.a
x86_64-pc-linux-gnu-ar cru libperftest.a get_clock.o perftest_communication.o perftest_parameters.o perftest_resources.o   
x86_64-pc-linux-gnu-ranlib libperftest.a
/bin/sh ./libtool --tag=CC --mode=link x86_64-pc-linux-gnu-gcc  -g -Wall -D_GNU_SOURCE -O2  -Wl,-O1,--sort-common,--as-needed,-z,norelro,-z,now,-lgomp,-lpthread -march=znver2 -Ofast -pipe -g0 -fno-common -fgraphite-identity -floop-interchange -floop-nest-optimize -floop-parallelize-all -ftree-parallelize-loops=12 -ftree-vectorize -fdevirtualize-at-ltrans -fipa-pta -fno-semantic-interposition -flto=12 -fno-plt -falign-functions=32 -fno-stack-protector -fno-stack-clash-protection -fstack-check=no -fno-stack-check -fuse-linker-plugin -o ib_send_lat  send_lat.o multicast_resources.o libperftest.a -libumad -lm -lrdmacm -libverbs 
/bin/sh ./libtool --tag=CC --mode=link x86_64-pc-linux-gnu-gcc  -g -Wall -D_GNU_SOURCE -O2  -Wl,-O1,--sort-common,--as-needed,-z,norelro,-z,now,-lgomp,-lpthread -march=znver2 -Ofast -pipe -g0 -fno-common -fgraphite-identity -floop-interchange -floop-nest-optimize -floop-parallelize-all -ftree-parallelize-loops=12 -ftree-vectorize -fdevirtualize-at-ltrans -fipa-pta -fno-semantic-interposition -flto=12 -fno-plt -falign-functions=32 -fno-stack-protector -fno-stack-clash-protection -fstack-check=no -fno-stack-check -fuse-linker-plugin -o ib_send_bw  send_bw.o multicast_resources.o libperftest.a -libumad -lm -lrdmacm -libverbs 
/bin/sh ./libtool --tag=CC --mode=link x86_64-pc-linux-gnu-gcc  -g -Wall -D_GNU_SOURCE -O2  -Wl,-O1,--sort-common,--as-needed,-z,norelro,-z,now,-lgomp,-lpthread -march=znver2 -Ofast -pipe -g0 -fno-common -fgraphite-identity -floop-interchange -floop-nest-optimize -floop-parallelize-all -ftree-parallelize-loops=12 -ftree-vectorize -fdevirtualize-at-ltrans -fipa-pta -fno-semantic-interposition -flto=12 -fno-plt -falign-functions=32 -fno-stack-protector -fno-stack-clash-protection -fstack-check=no -fno-stack-check -fuse-linker-plugin -o ib_write_lat  write_lat.o libperftest.a  -lrdmacm -libverbs 
/bin/sh ./libtool --tag=CC --mode=link x86_64-pc-linux-gnu-gcc  -g -Wall -D_GNU_SOURCE -O2  -Wl,-O1,--sort-common,--as-needed,-z,norelro,-z,now,-lgomp,-lpthread -march=znver2 -Ofast -pipe -g0 -fno-common -fgraphite-identity -floop-interchange -floop-nest-optimize -floop-parallelize-all -ftree-parallelize-loops=12 -ftree-vectorize -fdevirtualize-at-ltrans -fipa-pta -fno-semantic-interposition -flto=12 -fno-plt -falign-functions=32 -fno-stack-protector -fno-stack-clash-protection -fstack-check=no -fno-stack-check -fuse-linker-plugin -o ib_write_bw  write_bw.o libperftest.a -lrdmacm -libverbs 
/bin/sh ./libtool --tag=CC --mode=link x86_64-pc-linux-gnu-gcc  -g -Wall -D_GNU_SOURCE -O2  -Wl,-O1,--sort-common,--as-needed,-z,norelro,-z,now,-lgomp,-lpthread -march=znver2 -Ofast -pipe -g0 -fno-common -fgraphite-identity -floop-interchange -floop-nest-optimize -floop-parallelize-all -ftree-parallelize-loops=12 -ftree-vectorize -fdevirtualize-at-ltrans -fipa-pta -fno-semantic-interposition -flto=12 -fno-plt -falign-functions=32 -fno-stack-protector -fno-stack-clash-protection -fstack-check=no -fno-stack-check -fuse-linker-plugin -o ib_read_lat  read_lat.o libperftest.a -lrdmacm -libverbs 
/bin/sh ./libtool --tag=CC --mode=link x86_64-pc-linux-gnu-gcc  -g -Wall -D_GNU_SOURCE -O2  -Wl,-O1,--sort-common,--as-needed,-z,norelro,-z,now,-lgomp,-lpthread -march=znver2 -Ofast -pipe -g0 -fno-common -fgraphite-identity -floop-interchange -floop-nest-optimize -floop-parallelize-all -ftree-parallelize-loops=12 -ftree-vectorize -fdevirtualize-at-ltrans -fipa-pta -fno-semantic-interposition -flto=12 -fno-plt -falign-functions=32 -fno-stack-protector -fno-stack-clash-protection -fstack-check=no -fno-stack-check -fuse-linker-plugin -o ib_read_bw  read_bw.o libperftest.a -lrdmacm -libverbs 
/bin/sh ./libtool --tag=CC --mode=link x86_64-pc-linux-gnu-gcc  -g -Wall -D_GNU_SOURCE -O2  -Wl,-O1,--sort-common,--as-needed,-z,norelro,-z,now,-lgomp,-lpthread -march=znver2 -Ofast -pipe -g0 -fno-common -fgraphite-identity -floop-interchange -floop-nest-optimize -floop-parallelize-all -ftree-parallelize-loops=12 -ftree-vectorize -fdevirtualize-at-ltrans -fipa-pta -fno-semantic-interposition -flto=12 -fno-plt -falign-functions=32 -fno-stack-protector -fno-stack-clash-protection -fstack-check=no -fno-stack-check -fuse-linker-plugin -o ib_atomic_lat  atomic_lat.o libperftest.a -lrdmacm -libverbs 
/bin/sh ./libtool --tag=CC --mode=link x86_64-pc-linux-gnu-gcc  -g -Wall -D_GNU_SOURCE -O2  -Wl,-O1,--sort-common,--as-needed,-z,norelro,-z,now,-lgomp,-lpthread -march=znver2 -Ofast -pipe -g0 -fno-common -fgraphite-identity -floop-interchange -floop-nest-optimize -floop-parallelize-all -ftree-parallelize-loops=12 -ftree-vectorize -fdevirtualize-at-ltrans -fipa-pta -fno-semantic-interposition -flto=12 -fno-plt -falign-functions=32 -fno-stack-protector -fno-stack-clash-protection -fstack-check=no -fno-stack-check -fuse-linker-plugin -o ib_atomic_bw  atomic_bw.o libperftest.a -lrdmacm -libverbs 
mkdir .libs
mkdir .libs
mkdir .libs
mkdir: cannot create directory '.libs': File exists
mkdir: cannot create directory '.libs': File exists
x86_64-pc-linux-gnu-gcc -g -Wall -D_GNU_SOURCE -O2 -Wl,-O1 -Wl,--sort-common -Wl,--as-needed -Wl,-z -Wl,norelro -Wl,-z -Wl,now -Wl,-lgomp -Wl,-lpthread -march=znver2 -Ofast -pipe -g0 -fno-common -fgraphite-identity -floop-interchange -floop-nest-optimize -floop-parallelize-all -ftree-parallelize-loops=12 -ftree-vectorize -fdevirtualize-at-ltrans -fipa-pta -fno-semantic-interposition -flto=12 -fno-plt -falign-functions=32 -fno-stack-protector -fno-stack-clash-protection -fstack-check=no -fno-stack-check -fuse-linker-plugin -o ib_read_lat read_lat.o  libperftest.a -lrdmacm -libverbs  
x86_64-pc-linux-gnu-gcc -g -Wall -D_GNU_SOURCE -O2 -Wl,-O1 -Wl,--sort-common -Wl,--as-needed -Wl,-z -Wl,norelro -Wl,-z -Wl,now -Wl,-lgomp -Wl,-lpthread -march=znver2 -Ofast -pipe -g0 -fno-common -fgraphite-identity -floop-interchange -floop-nest-optimize -floop-parallelize-all -ftree-parallelize-loops=12 -ftree-vectorize -fdevirtualize-at-ltrans -fipa-pta -fno-semantic-interposition -flto=12 -fno-plt -falign-functions=32 -fno-stack-protector -fno-stack-clash-protection -fstack-check=no -fno-stack-check -fuse-linker-plugin -o ib_read_bw read_bw.o  libperftest.a -lrdmacm -libverbs  
x86_64-pc-linux-gnu-gcc -g -Wall -D_GNU_SOURCE -O2 -Wl,-O1 -Wl,--sort-common -Wl,--as-needed -Wl,-z -Wl,norelro -Wl,-z -Wl,now -Wl,-lgomp -Wl,-lpthread -march=znver2 -Ofast -pipe -g0 -fno-common -fgraphite-identity -floop-interchange -floop-nest-optimize -floop-parallelize-all -ftree-parallelize-loops=12 -ftree-vectorize -fdevirtualize-at-ltrans -fipa-pta -fno-semantic-interposition -flto=12 -fno-plt -falign-functions=32 -fno-stack-protector -fno-stack-clash-protection -fstack-check=no -fno-stack-check -fuse-linker-plugin -o ib_atomic_lat atomic_lat.o  libperftest.a -lrdmacm -libverbs  
x86_64-pc-linux-gnu-gcc -g -Wall -D_GNU_SOURCE -O2 -Wl,-O1 -Wl,--sort-common -Wl,--as-needed -Wl,-z -Wl,norelro -Wl,-z -Wl,now -Wl,-lgomp -Wl,-lpthread -march=znver2 -Ofast -pipe -g0 -fno-common -fgraphite-identity -floop-interchange -floop-nest-optimize -floop-parallelize-all -ftree-parallelize-loops=12 -ftree-vectorize -fdevirtualize-at-ltrans -fipa-pta -fno-semantic-interposition -flto=12 -fno-plt -falign-functions=32 -fno-stack-protector -fno-stack-clash-protection -fstack-check=no -fno-stack-check -fuse-linker-plugin -o ib_write_bw write_bw.o  libperftest.a -lrdmacm -libverbs  
x86_64-pc-linux-gnu-gcc -g -Wall -D_GNU_SOURCE -O2 -Wl,-O1 -Wl,--sort-common -Wl,--as-needed -Wl,-z -Wl,norelro -Wl,-z -Wl,now -Wl,-lgomp -Wl,-lpthread -march=znver2 -Ofast -pipe -g0 -fno-common -fgraphite-identity -floop-interchange -floop-nest-optimize -floop-parallelize-all -ftree-parallelize-loops=12 -ftree-vectorize -fdevirtualize-at-ltrans -fipa-pta -fno-semantic-interposition -flto=12 -fno-plt -falign-functions=32 -fno-stack-protector -fno-stack-clash-protection -fstack-check=no -fno-stack-check -fuse-linker-plugin -o ib_write_lat write_lat.o  libperftest.a -lrdmacm -libverbs  
x86_64-pc-linux-gnu-gcc -g -Wall -D_GNU_SOURCE -O2 -Wl,-O1 -Wl,--sort-common -Wl,--as-needed -Wl,-z -Wl,norelro -Wl,-z -Wl,now -Wl,-lgomp -Wl,-lpthread -march=znver2 -Ofast -pipe -g0 -fno-common -fgraphite-identity -floop-interchange -floop-nest-optimize -floop-parallelize-all -ftree-parallelize-loops=12 -ftree-vectorize -fdevirtualize-at-ltrans -fipa-pta -fno-semantic-interposition -flto=12 -fno-plt -falign-functions=32 -fno-stack-protector -fno-stack-clash-protection -fstack-check=no -fno-stack-check -fuse-linker-plugin -o ib_atomic_bw atomic_bw.o  libperftest.a -lrdmacm -libverbs  
x86_64-pc-linux-gnu-gcc -g -Wall -D_GNU_SOURCE -O2 -Wl,-O1 -Wl,--sort-common -Wl,--as-needed -Wl,-z -Wl,norelro -Wl,-z -Wl,now -Wl,-lgomp -Wl,-lpthread -march=znver2 -Ofast -pipe -g0 -fno-common -fgraphite-identity -floop-interchange -floop-nest-optimize -floop-parallelize-all -ftree-parallelize-loops=12 -ftree-vectorize -fdevirtualize-at-ltrans -fipa-pta -fno-semantic-interposition -flto=12 -fno-plt -falign-functions=32 -fno-stack-protector -fno-stack-clash-protection -fstack-check=no -fno-stack-check -fuse-linker-plugin -o ib_send_lat send_lat.o multicast_resources.o  libperftest.a -libumad -lm -lrdmacm -libverbs  
x86_64-pc-linux-gnu-gcc -g -Wall -D_GNU_SOURCE -O2 -Wl,-O1 -Wl,--sort-common -Wl,--as-needed -Wl,-z -Wl,norelro -Wl,-z -Wl,now -Wl,-lgomp -Wl,-lpthread -march=znver2 -Ofast -pipe -g0 -fno-common -fgraphite-identity -floop-interchange -floop-nest-optimize -floop-parallelize-all -ftree-parallelize-loops=12 -ftree-vectorize -fdevirtualize-at-ltrans -fipa-pta -fno-semantic-interposition -flto=12 -fno-plt -falign-functions=32 -fno-stack-protector -fno-stack-clash-protection -fstack-check=no -fno-stack-check -fuse-linker-plugin -o ib_send_bw send_bw.o multicast_resources.o  libperftest.a -libumad -lm -lrdmacm -libverbs  
make[1]: Leaving directory '/tmp/portage/sys-fabric/perftest-2.0/work/perftest-2.0'
>>> Source compiled.
>>> Test phase [not enabled]: sys-fabric/perftest-2.0

>>> Install sys-fabric/perftest-2.0 into /tmp/portage/sys-fabric/perftest-2.0/image/
>>> Completed installing sys-fabric/perftest-2.0 into /tmp/portage/sys-fabric/perftest-2.0/image/

 * Final size of build directory: 31676 KiB (30.9 MiB)
 * Final size of installed tree:   2996 KiB ( 2.9 MiB)

Parallel BZIP2 v1.1.13 [Dec 18, 2015]
By: Jeff Gilchrist [http://compression.ca]
Major contributions: Yavor Nikolov [http://javornikolov.wordpress.com]
Uses libbzip2 by Julian Seward

         # CPUs: 7
   Load Average: 4.80
 BWT Block Size: 200 KB
File Block Size: 900 KB
 Maximum Memory: 1024 MB
-------------------------------------------
         File #: 1 of 1
     Input Name: compressme
    Output Name: compressme.bz2

     Input Size: 3895 bytes
Compressing data (no threads)...
Completed: 100%                 Output Size: 918 bytes
-------------------------------------------

     Wall Clock: 0.000579 seconds
Parallel BZIP2 v1.1.13 [Dec 18, 2015]
By: Jeff Gilchrist [http://compression.ca]
Major contributions: Yavor Nikolov [http://javornikolov.wordpress.com]
Uses libbzip2 by Julian Seward

         # CPUs: 7
   Load Average: 4.80
 BWT Block Size: 200 KB
File Block Size: 900 KB
 Maximum Memory: 1024 MB
-------------------------------------------
         File #: 1 of 1
     Input Name: /tmp/portage/sys-fabric/perftest-2.0/image/usr/share/doc/perftest-2.0/README
    Output Name: /tmp/portage/sys-fabric/perftest-2.0/image/usr/share/doc/perftest-2.0/README.bz2

     Input Size: 12226 bytes
Compressing data (no threads)...
Completed: 100%                 Output Size: 4387 bytes
-------------------------------------------

     Wall Clock: 0.002137 seconds
Parallel BZIP2 v1.1.13 [Dec 18, 2015]
By: Jeff Gilchrist [http://compression.ca]
Major contributions: Yavor Nikolov [http://javornikolov.wordpress.com]
Uses libbzip2 by Julian Seward

         # CPUs: 7
   Load Average: 4.80
 BWT Block Size: 200 KB
File Block Size: 900 KB
 Maximum Memory: 1024 MB
-------------------------------------------
         File #: 1 of 1
     Input Name: /tmp/portage/sys-fabric/perftest-2.0/image/usr/share/doc/perftest-2.0/runme
    Output Name: /tmp/portage/sys-fabric/perftest-2.0/image/usr/share/doc/perftest-2.0/runme.bz2

     Input Size: 363 bytes
Compressing data (no threads)...
Completed: 100%                 Output Size: 283 bytes
-------------------------------------------

     Wall Clock: 0.000486 seconds
strip: x86_64-pc-linux-gnu-strip --strip-unneeded -N __gentoo_check_ldflags__ -R .comment -R .GCC.command.line -R .note.gnu.gold-version
   /usr/bin/ib_read_bw
   /usr/bin/ib_write_lat
   /usr/bin/ib_write_bw
   /usr/bin/ib_atomic_lat
   /usr/bin/ib_read_lat
   /usr/bin/ib_atomic_bw
   /usr/bin/ib_send_bw
   /usr/bin/ib_send_lat
./
./usr/
./usr/bin/
./usr/bin/ib_atomic_bw
./usr/bin/ib_atomic_lat
./usr/bin/ib_write_bw
./usr/bin/ib_read_lat
./usr/bin/ib_send_lat
./usr/bin/ib_write_lat
./usr/bin/ib_read_bw
./usr/bin/ib_send_bw
./usr/share/
./usr/share/doc/
./usr/share/doc/perftest-2.0/
./usr/share/doc/perftest-2.0/README
./usr/share/doc/perftest-2.0/README.bz2
./usr/share/doc/perftest-2.0/runme
./usr/share/doc/perftest-2.0/runme.bz2
>>> Done.
 * checking 8 files for package collisions
>>> Merging sys-fabric/perftest-2.0 to /
 * removing unneeded *.la files
--- /usr/
--- /usr/bin/
>>> /usr/bin/ib_send_bw
>>> /usr/bin/ib_read_bw
>>> /usr/bin/ib_write_lat
>>> /usr/bin/ib_send_lat
>>> /usr/bin/ib_read_lat
>>> /usr/bin/ib_write_bw
>>> /usr/bin/ib_atomic_lat
>>> /usr/bin/ib_atomic_bw
>>> Safely unmerging already-installed instance...
>>> Original instance of package unmerged safely.
>>> sys-fabric/perftest-2.0 merged.
