No package files given... Grabbing a set.
--- replaced obj /usr/share/man/man8/try-from.8.bz2
--- replaced obj /usr/share/man/man8/tcpdmatch.8.bz2
--- replaced obj /usr/share/man/man8/tcpdchk.8.bz2
--- replaced obj /usr/share/man/man8/tcpd.8.bz2
--- replaced obj /usr/share/man/man8/safe_finger.8.bz2
--- replaced dir /usr/share/man/man8
--- replaced obj /usr/share/man/man5/hosts_options.5.bz2
--- replaced obj /usr/share/man/man5/hosts_access.5.bz2
--- replaced sym /usr/share/man/man5/hosts.deny.5.bz2
--- replaced sym /usr/share/man/man5/hosts.allow.5.bz2
--- replaced dir /usr/share/man/man5
--- replaced obj /usr/share/man/man3/hosts_access.3.bz2
--- replaced dir /usr/share/man/man3
--- replaced dir /usr/share/man
--- replaced dir /usr/share
--- replaced obj /usr/sbin/try-from
--- replaced obj /usr/sbin/tcpdmatch
--- replaced obj /usr/sbin/tcpdchk
--- replaced obj /usr/sbin/tcpd
--- replaced obj /usr/sbin/safe_finger
--- replaced dir /usr/sbin
--- replaced obj /usr/lib64/libwrap.so
--- replaced dir /usr/lib64
--- replaced obj /usr/include/tcpd.h
--- replaced dir /usr/include
--- replaced dir /usr
--- replaced obj /lib64/libwrap.so.0.7.6
--- replaced sym /lib64/libwrap.so.0
--- replaced dir /lib64
--- replaced obj /etc/hosts.allow
--- replaced dir /etc
>>> Regenerating /etc/ld.so.cache...
