No package files given... Grabbing a set.
--- replaced obj /usr/share/texinfo/texinfo.dtd
--- replaced obj /usr/share/texinfo/texindex.awk
--- replaced obj /usr/share/texinfo/lib/libintl-perl/lib/Locale/gettext_pp.pm
--- replaced obj /usr/share/texinfo/lib/libintl-perl/lib/Locale/Util.pm
--- replaced obj /usr/share/texinfo/lib/libintl-perl/lib/Locale/TextDomain.pm
--- replaced obj /usr/share/texinfo/lib/libintl-perl/lib/Locale/RecodeData/_Encode.pm
--- replaced obj /usr/share/texinfo/lib/libintl-perl/lib/Locale/RecodeData/VISCII.pm
--- replaced obj /usr/share/texinfo/lib/libintl-perl/lib/Locale/RecodeData/UTF_8.pm
--- replaced obj /usr/share/texinfo/lib/libintl-perl/lib/Locale/RecodeData/US_ASCII.pm
--- replaced obj /usr/share/texinfo/lib/libintl-perl/lib/Locale/RecodeData/TIS_620.pm
--- replaced obj /usr/share/texinfo/lib/libintl-perl/lib/Locale/RecodeData/SAMI_WS2.pm
--- replaced obj /usr/share/texinfo/lib/libintl-perl/lib/Locale/RecodeData/NEXTSTEP.pm
--- replaced obj /usr/share/texinfo/lib/libintl-perl/lib/Locale/RecodeData/NATS_SEFI.pm
--- replaced obj /usr/share/texinfo/lib/libintl-perl/lib/Locale/RecodeData/NATS_DANO.pm
--- replaced obj /usr/share/texinfo/lib/libintl-perl/lib/Locale/RecodeData/MAC_UK.pm
--- replaced obj /usr/share/texinfo/lib/libintl-perl/lib/Locale/RecodeData/MAC_SAMI.pm
--- replaced obj /usr/share/texinfo/lib/libintl-perl/lib/Locale/RecodeData/MAC_IS.pm
--- replaced obj /usr/share/texinfo/lib/libintl-perl/lib/Locale/RecodeData/MACUKRAINE.pm
--- replaced obj /usr/share/texinfo/lib/libintl-perl/lib/Locale/RecodeData/MACTURKISH.pm
--- replaced obj /usr/share/texinfo/lib/libintl-perl/lib/Locale/RecodeData/MACTHAI.pm
--- replaced obj /usr/share/texinfo/lib/libintl-perl/lib/Locale/RecodeData/MACROMANIA.pm
--- replaced obj /usr/share/texinfo/lib/libintl-perl/lib/Locale/RecodeData/MACINTOSH.pm
--- replaced obj /usr/share/texinfo/lib/libintl-perl/lib/Locale/RecodeData/MACICELAND.pm
--- replaced obj /usr/share/texinfo/lib/libintl-perl/lib/Locale/RecodeData/MACHEBREW.pm
--- replaced obj /usr/share/texinfo/lib/libintl-perl/lib/Locale/RecodeData/MACGREEK.pm
--- replaced obj /usr/share/texinfo/lib/libintl-perl/lib/Locale/RecodeData/MACCYRILLIC.pm
--- replaced obj /usr/share/texinfo/lib/libintl-perl/lib/Locale/RecodeData/MACCROATIAN.pm
--- replaced obj /usr/share/texinfo/lib/libintl-perl/lib/Locale/RecodeData/MACARABIC.pm
--- replaced obj /usr/share/texinfo/lib/libintl-perl/lib/Locale/RecodeData/LATIN_GREEK_1.pm
--- replaced obj /usr/share/texinfo/lib/libintl-perl/lib/Locale/RecodeData/LATIN_GREEK.pm
--- replaced obj /usr/share/texinfo/lib/libintl-perl/lib/Locale/RecodeData/KOI_8.pm
--- replaced obj /usr/share/texinfo/lib/libintl-perl/lib/Locale/RecodeData/KOI8_U.pm
--- replaced obj /usr/share/texinfo/lib/libintl-perl/lib/Locale/RecodeData/KOI8_T.pm
--- replaced obj /usr/share/texinfo/lib/libintl-perl/lib/Locale/RecodeData/KOI8_RU.pm
--- replaced obj /usr/share/texinfo/lib/libintl-perl/lib/Locale/RecodeData/KOI8_R.pm
--- replaced obj /usr/share/texinfo/lib/libintl-perl/lib/Locale/RecodeData/ISO_8859_9.pm
--- replaced obj /usr/share/texinfo/lib/libintl-perl/lib/Locale/RecodeData/ISO_8859_8.pm
--- replaced obj /usr/share/texinfo/lib/libintl-perl/lib/Locale/RecodeData/ISO_8859_7.pm
--- replaced obj /usr/share/texinfo/lib/libintl-perl/lib/Locale/RecodeData/ISO_8859_6.pm
--- replaced obj /usr/share/texinfo/lib/libintl-perl/lib/Locale/RecodeData/ISO_8859_5.pm
--- replaced obj /usr/share/texinfo/lib/libintl-perl/lib/Locale/RecodeData/ISO_8859_4.pm
--- replaced obj /usr/share/texinfo/lib/libintl-perl/lib/Locale/RecodeData/ISO_8859_3.pm
--- replaced obj /usr/share/texinfo/lib/libintl-perl/lib/Locale/RecodeData/ISO_8859_2.pm
--- replaced obj /usr/share/texinfo/lib/libintl-perl/lib/Locale/RecodeData/ISO_8859_16.pm
--- replaced obj /usr/share/texinfo/lib/libintl-perl/lib/Locale/RecodeData/ISO_8859_15.pm
--- replaced obj /usr/share/texinfo/lib/libintl-perl/lib/Locale/RecodeData/ISO_8859_14.pm
--- replaced obj /usr/share/texinfo/lib/libintl-perl/lib/Locale/RecodeData/ISO_8859_13.pm
--- replaced obj /usr/share/texinfo/lib/libintl-perl/lib/Locale/RecodeData/ISO_8859_11.pm
--- replaced obj /usr/share/texinfo/lib/libintl-perl/lib/Locale/RecodeData/ISO_8859_10.pm
--- replaced obj /usr/share/texinfo/lib/libintl-perl/lib/Locale/RecodeData/ISO_8859_1.pm
--- replaced obj /usr/share/texinfo/lib/libintl-perl/lib/Locale/RecodeData/ISO_5428.pm
--- replaced obj /usr/share/texinfo/lib/libintl-perl/lib/Locale/RecodeData/ISO_5427_EXT.pm
--- replaced obj /usr/share/texinfo/lib/libintl-perl/lib/Locale/RecodeData/ISO_5427.pm
--- replaced obj /usr/share/texinfo/lib/libintl-perl/lib/Locale/RecodeData/ISO_2033_1983.pm
--- replaced obj /usr/share/texinfo/lib/libintl-perl/lib/Locale/RecodeData/ISO_10367_BOX.pm
--- replaced obj /usr/share/texinfo/lib/libintl-perl/lib/Locale/RecodeData/INIS_CYRILLIC.pm
--- replaced obj /usr/share/texinfo/lib/libintl-perl/lib/Locale/RecodeData/INIS_8.pm
--- replaced obj /usr/share/texinfo/lib/libintl-perl/lib/Locale/RecodeData/INIS.pm
--- replaced obj /usr/share/texinfo/lib/libintl-perl/lib/Locale/RecodeData/IEC_P27_1.pm
--- replaced obj /usr/share/texinfo/lib/libintl-perl/lib/Locale/RecodeData/IBM918.pm
--- replaced obj /usr/share/texinfo/lib/libintl-perl/lib/Locale/RecodeData/IBM905.pm
--- replaced obj /usr/share/texinfo/lib/libintl-perl/lib/Locale/RecodeData/IBM904.pm
--- replaced obj /usr/share/texinfo/lib/libintl-perl/lib/Locale/RecodeData/IBM903.pm
--- replaced obj /usr/share/texinfo/lib/libintl-perl/lib/Locale/RecodeData/IBM891.pm
--- replaced obj /usr/share/texinfo/lib/libintl-perl/lib/Locale/RecodeData/IBM880.pm
--- replaced obj /usr/share/texinfo/lib/libintl-perl/lib/Locale/RecodeData/IBM875.pm
--- replaced obj /usr/share/texinfo/lib/libintl-perl/lib/Locale/RecodeData/IBM874.pm
--- replaced obj /usr/share/texinfo/lib/libintl-perl/lib/Locale/RecodeData/IBM871.pm
--- replaced obj /usr/share/texinfo/lib/libintl-perl/lib/Locale/RecodeData/IBM870.pm
--- replaced obj /usr/share/texinfo/lib/libintl-perl/lib/Locale/RecodeData/IBM869.pm
--- replaced obj /usr/share/texinfo/lib/libintl-perl/lib/Locale/RecodeData/IBM868.pm
--- replaced obj /usr/share/texinfo/lib/libintl-perl/lib/Locale/RecodeData/IBM866.pm
--- replaced obj /usr/share/texinfo/lib/libintl-perl/lib/Locale/RecodeData/IBM865.pm
--- replaced obj /usr/share/texinfo/lib/libintl-perl/lib/Locale/RecodeData/IBM864.pm
--- replaced obj /usr/share/texinfo/lib/libintl-perl/lib/Locale/RecodeData/IBM863.pm
--- replaced obj /usr/share/texinfo/lib/libintl-perl/lib/Locale/RecodeData/IBM862.pm
--- replaced obj /usr/share/texinfo/lib/libintl-perl/lib/Locale/RecodeData/IBM861.pm
--- replaced obj /usr/share/texinfo/lib/libintl-perl/lib/Locale/RecodeData/IBM860.pm
--- replaced obj /usr/share/texinfo/lib/libintl-perl/lib/Locale/RecodeData/IBM857.pm
--- replaced obj /usr/share/texinfo/lib/libintl-perl/lib/Locale/RecodeData/IBM855.pm
--- replaced obj /usr/share/texinfo/lib/libintl-perl/lib/Locale/RecodeData/IBM852.pm
--- replaced obj /usr/share/texinfo/lib/libintl-perl/lib/Locale/RecodeData/IBM851.pm
--- replaced obj /usr/share/texinfo/lib/libintl-perl/lib/Locale/RecodeData/IBM850.pm
--- replaced obj /usr/share/texinfo/lib/libintl-perl/lib/Locale/RecodeData/IBM500.pm
--- replaced obj /usr/share/texinfo/lib/libintl-perl/lib/Locale/RecodeData/IBM437.pm
--- replaced obj /usr/share/texinfo/lib/libintl-perl/lib/Locale/RecodeData/IBM424.pm
--- replaced obj /usr/share/texinfo/lib/libintl-perl/lib/Locale/RecodeData/IBM423.pm
--- replaced obj /usr/share/texinfo/lib/libintl-perl/lib/Locale/RecodeData/IBM420.pm
--- replaced obj /usr/share/texinfo/lib/libintl-perl/lib/Locale/RecodeData/IBM297.pm
--- replaced obj /usr/share/texinfo/lib/libintl-perl/lib/Locale/RecodeData/IBM290.pm
--- replaced obj /usr/share/texinfo/lib/libintl-perl/lib/Locale/RecodeData/IBM285.pm
--- replaced obj /usr/share/texinfo/lib/libintl-perl/lib/Locale/RecodeData/IBM284.pm
--- replaced obj /usr/share/texinfo/lib/libintl-perl/lib/Locale/RecodeData/IBM281.pm
--- replaced obj /usr/share/texinfo/lib/libintl-perl/lib/Locale/RecodeData/IBM280.pm
--- replaced obj /usr/share/texinfo/lib/libintl-perl/lib/Locale/RecodeData/IBM278.pm
--- replaced obj /usr/share/texinfo/lib/libintl-perl/lib/Locale/RecodeData/IBM277.pm
--- replaced obj /usr/share/texinfo/lib/libintl-perl/lib/Locale/RecodeData/IBM275.pm
--- replaced obj /usr/share/texinfo/lib/libintl-perl/lib/Locale/RecodeData/IBM274.pm
--- replaced obj /usr/share/texinfo/lib/libintl-perl/lib/Locale/RecodeData/IBM273.pm
--- replaced obj /usr/share/texinfo/lib/libintl-perl/lib/Locale/RecodeData/IBM256.pm
--- replaced obj /usr/share/texinfo/lib/libintl-perl/lib/Locale/RecodeData/IBM1047.pm
--- replaced obj /usr/share/texinfo/lib/libintl-perl/lib/Locale/RecodeData/IBM1026.pm
--- replaced obj /usr/share/texinfo/lib/libintl-perl/lib/Locale/RecodeData/IBM1004.pm
--- replaced obj /usr/share/texinfo/lib/libintl-perl/lib/Locale/RecodeData/IBM038.pm
--- replaced obj /usr/share/texinfo/lib/libintl-perl/lib/Locale/RecodeData/IBM037.pm
--- replaced obj /usr/share/texinfo/lib/libintl-perl/lib/Locale/RecodeData/HP_ROMAN8.pm
--- replaced obj /usr/share/texinfo/lib/libintl-perl/lib/Locale/RecodeData/GREEK_CCITT.pm
--- replaced obj /usr/share/texinfo/lib/libintl-perl/lib/Locale/RecodeData/GREEK7_OLD.pm
--- replaced obj /usr/share/texinfo/lib/libintl-perl/lib/Locale/RecodeData/GREEK7.pm
--- replaced obj /usr/share/texinfo/lib/libintl-perl/lib/Locale/RecodeData/GOST_19768_74.pm
--- replaced obj /usr/share/texinfo/lib/libintl-perl/lib/Locale/RecodeData/GEORGIAN_PS.pm
--- replaced obj /usr/share/texinfo/lib/libintl-perl/lib/Locale/RecodeData/GEORGIAN_ACADEMY.pm
--- replaced obj /usr/share/texinfo/lib/libintl-perl/lib/Locale/RecodeData/ECMA_CYRILLIC.pm
--- replaced obj /usr/share/texinfo/lib/libintl-perl/lib/Locale/RecodeData/EBCDIC_US.pm
--- replaced obj /usr/share/texinfo/lib/libintl-perl/lib/Locale/RecodeData/EBCDIC_UK.pm
--- replaced obj /usr/share/texinfo/lib/libintl-perl/lib/Locale/RecodeData/EBCDIC_PT.pm
--- replaced obj /usr/share/texinfo/lib/libintl-perl/lib/Locale/RecodeData/EBCDIC_IT.pm
--- replaced obj /usr/share/texinfo/lib/libintl-perl/lib/Locale/RecodeData/EBCDIC_IS_FRISS.pm
--- replaced obj /usr/share/texinfo/lib/libintl-perl/lib/Locale/RecodeData/EBCDIC_FR.pm
--- replaced obj /usr/share/texinfo/lib/libintl-perl/lib/Locale/RecodeData/EBCDIC_FI_SE_A.pm
--- replaced obj /usr/share/texinfo/lib/libintl-perl/lib/Locale/RecodeData/EBCDIC_FI_SE.pm
--- replaced obj /usr/share/texinfo/lib/libintl-perl/lib/Locale/RecodeData/EBCDIC_ES_S.pm
--- replaced obj /usr/share/texinfo/lib/libintl-perl/lib/Locale/RecodeData/EBCDIC_ES_A.pm
--- replaced obj /usr/share/texinfo/lib/libintl-perl/lib/Locale/RecodeData/EBCDIC_ES.pm
--- replaced obj /usr/share/texinfo/lib/libintl-perl/lib/Locale/RecodeData/EBCDIC_DK_NO_A.pm
--- replaced obj /usr/share/texinfo/lib/libintl-perl/lib/Locale/RecodeData/EBCDIC_DK_NO.pm
--- replaced obj /usr/share/texinfo/lib/libintl-perl/lib/Locale/RecodeData/EBCDIC_CA_FR.pm
--- replaced obj /usr/share/texinfo/lib/libintl-perl/lib/Locale/RecodeData/EBCDIC_AT_DE_A.pm
--- replaced obj /usr/share/texinfo/lib/libintl-perl/lib/Locale/RecodeData/EBCDIC_AT_DE.pm
--- replaced obj /usr/share/texinfo/lib/libintl-perl/lib/Locale/RecodeData/DEC_MCS.pm
--- replaced obj /usr/share/texinfo/lib/libintl-perl/lib/Locale/RecodeData/CWI.pm
--- replaced obj /usr/share/texinfo/lib/libintl-perl/lib/Locale/RecodeData/CSN_369103.pm
--- replaced obj /usr/share/texinfo/lib/libintl-perl/lib/Locale/RecodeData/CP1257.pm
--- replaced obj /usr/share/texinfo/lib/libintl-perl/lib/Locale/RecodeData/CP1256.pm
--- replaced obj /usr/share/texinfo/lib/libintl-perl/lib/Locale/RecodeData/CP1254.pm
--- replaced obj /usr/share/texinfo/lib/libintl-perl/lib/Locale/RecodeData/CP1253.pm
--- replaced obj /usr/share/texinfo/lib/libintl-perl/lib/Locale/RecodeData/CP1252.pm
--- replaced obj /usr/share/texinfo/lib/libintl-perl/lib/Locale/RecodeData/CP1251.pm
--- replaced obj /usr/share/texinfo/lib/libintl-perl/lib/Locale/RecodeData/CP1250.pm
--- replaced obj /usr/share/texinfo/lib/libintl-perl/lib/Locale/RecodeData/CP10007.pm
--- replaced obj /usr/share/texinfo/lib/libintl-perl/lib/Locale/RecodeData/ATARI_ST_EURO.pm
--- replaced obj /usr/share/texinfo/lib/libintl-perl/lib/Locale/RecodeData/ATARI_ST.pm
--- replaced obj /usr/share/texinfo/lib/libintl-perl/lib/Locale/RecodeData/ASMO_449.pm
--- replaced obj /usr/share/texinfo/lib/libintl-perl/lib/Locale/RecodeData.pm
--- replaced dir /usr/share/texinfo/lib/libintl-perl/lib/Locale/RecodeData
--- replaced obj /usr/share/texinfo/lib/libintl-perl/lib/Locale/Recode/_Conversions.pm
--- replaced obj /usr/share/texinfo/lib/libintl-perl/lib/Locale/Recode/_Aliases.pm
--- replaced obj /usr/share/texinfo/lib/libintl-perl/lib/Locale/Recode.pm
--- replaced dir /usr/share/texinfo/lib/libintl-perl/lib/Locale/Recode
--- replaced obj /usr/share/texinfo/lib/libintl-perl/lib/Locale/Messages.pm
--- replaced dir /usr/share/texinfo/lib/libintl-perl/lib/Locale
--- replaced dir /usr/share/texinfo/lib/libintl-perl/lib
--- replaced dir /usr/share/texinfo/lib/libintl-perl
--- replaced obj /usr/share/texinfo/lib/Unicode-EastAsianWidth/lib/Unicode/EastAsianWidth.pm
--- replaced dir /usr/share/texinfo/lib/Unicode-EastAsianWidth/lib/Unicode
--- replaced dir /usr/share/texinfo/lib/Unicode-EastAsianWidth/lib
--- replaced dir /usr/share/texinfo/lib/Unicode-EastAsianWidth
--- replaced obj /usr/share/texinfo/lib/Text-Unidecode/lib/Text/Unidecode/xff.pm
--- replaced obj /usr/share/texinfo/lib/Text-Unidecode/lib/Text/Unidecode/xfe.pm
--- replaced obj /usr/share/texinfo/lib/Text-Unidecode/lib/Text/Unidecode/xfd.pm
--- replaced obj /usr/share/texinfo/lib/Text-Unidecode/lib/Text/Unidecode/xfc.pm
--- replaced obj /usr/share/texinfo/lib/Text-Unidecode/lib/Text/Unidecode/xfb.pm
--- replaced obj /usr/share/texinfo/lib/Text-Unidecode/lib/Text/Unidecode/xfa.pm
--- replaced obj /usr/share/texinfo/lib/Text-Unidecode/lib/Text/Unidecode/xf9.pm
--- replaced obj /usr/share/texinfo/lib/Text-Unidecode/lib/Text/Unidecode/xd7.pm
--- replaced obj /usr/share/texinfo/lib/Text-Unidecode/lib/Text/Unidecode/xd6.pm
--- replaced obj /usr/share/texinfo/lib/Text-Unidecode/lib/Text/Unidecode/xd5.pm
--- replaced obj /usr/share/texinfo/lib/Text-Unidecode/lib/Text/Unidecode/xd4.pm
--- replaced obj /usr/share/texinfo/lib/Text-Unidecode/lib/Text/Unidecode/xd3.pm
--- replaced obj /usr/share/texinfo/lib/Text-Unidecode/lib/Text/Unidecode/xd2.pm
--- replaced obj /usr/share/texinfo/lib/Text-Unidecode/lib/Text/Unidecode/xd1.pm
--- replaced obj /usr/share/texinfo/lib/Text-Unidecode/lib/Text/Unidecode/xd0.pm
--- replaced obj /usr/share/texinfo/lib/Text-Unidecode/lib/Text/Unidecode/xcf.pm
--- replaced obj /usr/share/texinfo/lib/Text-Unidecode/lib/Text/Unidecode/xce.pm
--- replaced obj /usr/share/texinfo/lib/Text-Unidecode/lib/Text/Unidecode/xcd.pm
--- replaced obj /usr/share/texinfo/lib/Text-Unidecode/lib/Text/Unidecode/xcc.pm
--- replaced obj /usr/share/texinfo/lib/Text-Unidecode/lib/Text/Unidecode/xcb.pm
--- replaced obj /usr/share/texinfo/lib/Text-Unidecode/lib/Text/Unidecode/xca.pm
--- replaced obj /usr/share/texinfo/lib/Text-Unidecode/lib/Text/Unidecode/xc9.pm
--- replaced obj /usr/share/texinfo/lib/Text-Unidecode/lib/Text/Unidecode/xc8.pm
--- replaced obj /usr/share/texinfo/lib/Text-Unidecode/lib/Text/Unidecode/xc7.pm
--- replaced obj /usr/share/texinfo/lib/Text-Unidecode/lib/Text/Unidecode/xc6.pm
--- replaced obj /usr/share/texinfo/lib/Text-Unidecode/lib/Text/Unidecode/xc5.pm
--- replaced obj /usr/share/texinfo/lib/Text-Unidecode/lib/Text/Unidecode/xc4.pm
--- replaced obj /usr/share/texinfo/lib/Text-Unidecode/lib/Text/Unidecode/xc3.pm
--- replaced obj /usr/share/texinfo/lib/Text-Unidecode/lib/Text/Unidecode/xc2.pm
--- replaced obj /usr/share/texinfo/lib/Text-Unidecode/lib/Text/Unidecode/xc1.pm
--- replaced obj /usr/share/texinfo/lib/Text-Unidecode/lib/Text/Unidecode/xc0.pm
--- replaced obj /usr/share/texinfo/lib/Text-Unidecode/lib/Text/Unidecode/xbf.pm
--- replaced obj /usr/share/texinfo/lib/Text-Unidecode/lib/Text/Unidecode/xbe.pm
--- replaced obj /usr/share/texinfo/lib/Text-Unidecode/lib/Text/Unidecode/xbd.pm
--- replaced obj /usr/share/texinfo/lib/Text-Unidecode/lib/Text/Unidecode/xbc.pm
--- replaced obj /usr/share/texinfo/lib/Text-Unidecode/lib/Text/Unidecode/xbb.pm
--- replaced obj /usr/share/texinfo/lib/Text-Unidecode/lib/Text/Unidecode/xba.pm
--- replaced obj /usr/share/texinfo/lib/Text-Unidecode/lib/Text/Unidecode/xb9.pm
--- replaced obj /usr/share/texinfo/lib/Text-Unidecode/lib/Text/Unidecode/xb8.pm
--- replaced obj /usr/share/texinfo/lib/Text-Unidecode/lib/Text/Unidecode/xb7.pm
--- replaced obj /usr/share/texinfo/lib/Text-Unidecode/lib/Text/Unidecode/xb6.pm
--- replaced obj /usr/share/texinfo/lib/Text-Unidecode/lib/Text/Unidecode/xb5.pm
--- replaced obj /usr/share/texinfo/lib/Text-Unidecode/lib/Text/Unidecode/xb4.pm
--- replaced obj /usr/share/texinfo/lib/Text-Unidecode/lib/Text/Unidecode/xb3.pm
--- replaced obj /usr/share/texinfo/lib/Text-Unidecode/lib/Text/Unidecode/xb2.pm
--- replaced obj /usr/share/texinfo/lib/Text-Unidecode/lib/Text/Unidecode/xb1.pm
--- replaced obj /usr/share/texinfo/lib/Text-Unidecode/lib/Text/Unidecode/xb0.pm
--- replaced obj /usr/share/texinfo/lib/Text-Unidecode/lib/Text/Unidecode/xaf.pm
--- replaced obj /usr/share/texinfo/lib/Text-Unidecode/lib/Text/Unidecode/xae.pm
--- replaced obj /usr/share/texinfo/lib/Text-Unidecode/lib/Text/Unidecode/xad.pm
--- replaced obj /usr/share/texinfo/lib/Text-Unidecode/lib/Text/Unidecode/xac.pm
--- replaced obj /usr/share/texinfo/lib/Text-Unidecode/lib/Text/Unidecode/xa4.pm
--- replaced obj /usr/share/texinfo/lib/Text-Unidecode/lib/Text/Unidecode/xa3.pm
--- replaced obj /usr/share/texinfo/lib/Text-Unidecode/lib/Text/Unidecode/xa2.pm
--- replaced obj /usr/share/texinfo/lib/Text-Unidecode/lib/Text/Unidecode/xa1.pm
--- replaced obj /usr/share/texinfo/lib/Text-Unidecode/lib/Text/Unidecode/xa0.pm
--- replaced obj /usr/share/texinfo/lib/Text-Unidecode/lib/Text/Unidecode/x9f.pm
--- replaced obj /usr/share/texinfo/lib/Text-Unidecode/lib/Text/Unidecode/x9e.pm
--- replaced obj /usr/share/texinfo/lib/Text-Unidecode/lib/Text/Unidecode/x9d.pm
--- replaced obj /usr/share/texinfo/lib/Text-Unidecode/lib/Text/Unidecode/x9c.pm
--- replaced obj /usr/share/texinfo/lib/Text-Unidecode/lib/Text/Unidecode/x9b.pm
--- replaced obj /usr/share/texinfo/lib/Text-Unidecode/lib/Text/Unidecode/x9a.pm
--- replaced obj /usr/share/texinfo/lib/Text-Unidecode/lib/Text/Unidecode/x99.pm
--- replaced obj /usr/share/texinfo/lib/Text-Unidecode/lib/Text/Unidecode/x98.pm
--- replaced obj /usr/share/texinfo/lib/Text-Unidecode/lib/Text/Unidecode/x97.pm
--- replaced obj /usr/share/texinfo/lib/Text-Unidecode/lib/Text/Unidecode/x96.pm
--- replaced obj /usr/share/texinfo/lib/Text-Unidecode/lib/Text/Unidecode/x95.pm
--- replaced obj /usr/share/texinfo/lib/Text-Unidecode/lib/Text/Unidecode/x94.pm
--- replaced obj /usr/share/texinfo/lib/Text-Unidecode/lib/Text/Unidecode/x93.pm
--- replaced obj /usr/share/texinfo/lib/Text-Unidecode/lib/Text/Unidecode/x92.pm
--- replaced obj /usr/share/texinfo/lib/Text-Unidecode/lib/Text/Unidecode/x91.pm
--- replaced obj /usr/share/texinfo/lib/Text-Unidecode/lib/Text/Unidecode/x90.pm
--- replaced obj /usr/share/texinfo/lib/Text-Unidecode/lib/Text/Unidecode/x8f.pm
--- replaced obj /usr/share/texinfo/lib/Text-Unidecode/lib/Text/Unidecode/x8e.pm
--- replaced obj /usr/share/texinfo/lib/Text-Unidecode/lib/Text/Unidecode/x8d.pm
--- replaced obj /usr/share/texinfo/lib/Text-Unidecode/lib/Text/Unidecode/x8c.pm
--- replaced obj /usr/share/texinfo/lib/Text-Unidecode/lib/Text/Unidecode/x8b.pm
--- replaced obj /usr/share/texinfo/lib/Text-Unidecode/lib/Text/Unidecode/x8a.pm
--- replaced obj /usr/share/texinfo/lib/Text-Unidecode/lib/Text/Unidecode/x89.pm
--- replaced obj /usr/share/texinfo/lib/Text-Unidecode/lib/Text/Unidecode/x88.pm
--- replaced obj /usr/share/texinfo/lib/Text-Unidecode/lib/Text/Unidecode/x87.pm
--- replaced obj /usr/share/texinfo/lib/Text-Unidecode/lib/Text/Unidecode/x86.pm
--- replaced obj /usr/share/texinfo/lib/Text-Unidecode/lib/Text/Unidecode/x85.pm
--- replaced obj /usr/share/texinfo/lib/Text-Unidecode/lib/Text/Unidecode/x84.pm
--- replaced obj /usr/share/texinfo/lib/Text-Unidecode/lib/Text/Unidecode/x83.pm
--- replaced obj /usr/share/texinfo/lib/Text-Unidecode/lib/Text/Unidecode/x82.pm
--- replaced obj /usr/share/texinfo/lib/Text-Unidecode/lib/Text/Unidecode/x81.pm
--- replaced obj /usr/share/texinfo/lib/Text-Unidecode/lib/Text/Unidecode/x80.pm
--- replaced obj /usr/share/texinfo/lib/Text-Unidecode/lib/Text/Unidecode/x7f.pm
--- replaced obj /usr/share/texinfo/lib/Text-Unidecode/lib/Text/Unidecode/x7e.pm
--- replaced obj /usr/share/texinfo/lib/Text-Unidecode/lib/Text/Unidecode/x7d.pm
--- replaced obj /usr/share/texinfo/lib/Text-Unidecode/lib/Text/Unidecode/x7c.pm
--- replaced obj /usr/share/texinfo/lib/Text-Unidecode/lib/Text/Unidecode/x7b.pm
--- replaced obj /usr/share/texinfo/lib/Text-Unidecode/lib/Text/Unidecode/x7a.pm
--- replaced obj /usr/share/texinfo/lib/Text-Unidecode/lib/Text/Unidecode/x79.pm
--- replaced obj /usr/share/texinfo/lib/Text-Unidecode/lib/Text/Unidecode/x78.pm
--- replaced obj /usr/share/texinfo/lib/Text-Unidecode/lib/Text/Unidecode/x77.pm
--- replaced obj /usr/share/texinfo/lib/Text-Unidecode/lib/Text/Unidecode/x76.pm
--- replaced obj /usr/share/texinfo/lib/Text-Unidecode/lib/Text/Unidecode/x75.pm
--- replaced obj /usr/share/texinfo/lib/Text-Unidecode/lib/Text/Unidecode/x74.pm
--- replaced obj /usr/share/texinfo/lib/Text-Unidecode/lib/Text/Unidecode/x73.pm
--- replaced obj /usr/share/texinfo/lib/Text-Unidecode/lib/Text/Unidecode/x72.pm
--- replaced obj /usr/share/texinfo/lib/Text-Unidecode/lib/Text/Unidecode/x71.pm
--- replaced obj /usr/share/texinfo/lib/Text-Unidecode/lib/Text/Unidecode/x70.pm
--- replaced obj /usr/share/texinfo/lib/Text-Unidecode/lib/Text/Unidecode/x6f.pm
--- replaced obj /usr/share/texinfo/lib/Text-Unidecode/lib/Text/Unidecode/x6e.pm
--- replaced obj /usr/share/texinfo/lib/Text-Unidecode/lib/Text/Unidecode/x6d.pm
--- replaced obj /usr/share/texinfo/lib/Text-Unidecode/lib/Text/Unidecode/x6c.pm
--- replaced obj /usr/share/texinfo/lib/Text-Unidecode/lib/Text/Unidecode/x6b.pm
--- replaced obj /usr/share/texinfo/lib/Text-Unidecode/lib/Text/Unidecode/x6a.pm
--- replaced obj /usr/share/texinfo/lib/Text-Unidecode/lib/Text/Unidecode/x69.pm
--- replaced obj /usr/share/texinfo/lib/Text-Unidecode/lib/Text/Unidecode/x68.pm
--- replaced obj /usr/share/texinfo/lib/Text-Unidecode/lib/Text/Unidecode/x67.pm
--- replaced obj /usr/share/texinfo/lib/Text-Unidecode/lib/Text/Unidecode/x66.pm
--- replaced obj /usr/share/texinfo/lib/Text-Unidecode/lib/Text/Unidecode/x65.pm
--- replaced obj /usr/share/texinfo/lib/Text-Unidecode/lib/Text/Unidecode/x64.pm
--- replaced obj /usr/share/texinfo/lib/Text-Unidecode/lib/Text/Unidecode/x63.pm
--- replaced obj /usr/share/texinfo/lib/Text-Unidecode/lib/Text/Unidecode/x62.pm
--- replaced obj /usr/share/texinfo/lib/Text-Unidecode/lib/Text/Unidecode/x61.pm
--- replaced obj /usr/share/texinfo/lib/Text-Unidecode/lib/Text/Unidecode/x60.pm
--- replaced obj /usr/share/texinfo/lib/Text-Unidecode/lib/Text/Unidecode/x5f.pm
--- replaced obj /usr/share/texinfo/lib/Text-Unidecode/lib/Text/Unidecode/x5e.pm
--- replaced obj /usr/share/texinfo/lib/Text-Unidecode/lib/Text/Unidecode/x5d.pm
--- replaced obj /usr/share/texinfo/lib/Text-Unidecode/lib/Text/Unidecode/x5c.pm
--- replaced obj /usr/share/texinfo/lib/Text-Unidecode/lib/Text/Unidecode/x5b.pm
--- replaced obj /usr/share/texinfo/lib/Text-Unidecode/lib/Text/Unidecode/x5a.pm
--- replaced obj /usr/share/texinfo/lib/Text-Unidecode/lib/Text/Unidecode/x59.pm
--- replaced obj /usr/share/texinfo/lib/Text-Unidecode/lib/Text/Unidecode/x58.pm
--- replaced obj /usr/share/texinfo/lib/Text-Unidecode/lib/Text/Unidecode/x57.pm
--- replaced obj /usr/share/texinfo/lib/Text-Unidecode/lib/Text/Unidecode/x56.pm
--- replaced obj /usr/share/texinfo/lib/Text-Unidecode/lib/Text/Unidecode/x55.pm
--- replaced obj /usr/share/texinfo/lib/Text-Unidecode/lib/Text/Unidecode/x54.pm
--- replaced obj /usr/share/texinfo/lib/Text-Unidecode/lib/Text/Unidecode/x53.pm
--- replaced obj /usr/share/texinfo/lib/Text-Unidecode/lib/Text/Unidecode/x52.pm
--- replaced obj /usr/share/texinfo/lib/Text-Unidecode/lib/Text/Unidecode/x51.pm
--- replaced obj /usr/share/texinfo/lib/Text-Unidecode/lib/Text/Unidecode/x50.pm
--- replaced obj /usr/share/texinfo/lib/Text-Unidecode/lib/Text/Unidecode/x4f.pm
--- replaced obj /usr/share/texinfo/lib/Text-Unidecode/lib/Text/Unidecode/x4e.pm
--- replaced obj /usr/share/texinfo/lib/Text-Unidecode/lib/Text/Unidecode/x4d.pm
--- replaced obj /usr/share/texinfo/lib/Text-Unidecode/lib/Text/Unidecode/x33.pm
--- replaced obj /usr/share/texinfo/lib/Text-Unidecode/lib/Text/Unidecode/x32.pm
--- replaced obj /usr/share/texinfo/lib/Text-Unidecode/lib/Text/Unidecode/x31.pm
--- replaced obj /usr/share/texinfo/lib/Text-Unidecode/lib/Text/Unidecode/x30.pm
--- replaced obj /usr/share/texinfo/lib/Text-Unidecode/lib/Text/Unidecode/x2f.pm
--- replaced obj /usr/share/texinfo/lib/Text-Unidecode/lib/Text/Unidecode/x2e.pm
--- replaced obj /usr/share/texinfo/lib/Text-Unidecode/lib/Text/Unidecode/x28.pm
--- replaced obj /usr/share/texinfo/lib/Text-Unidecode/lib/Text/Unidecode/x27.pm
--- replaced obj /usr/share/texinfo/lib/Text-Unidecode/lib/Text/Unidecode/x26.pm
--- replaced obj /usr/share/texinfo/lib/Text-Unidecode/lib/Text/Unidecode/x25.pm
--- replaced obj /usr/share/texinfo/lib/Text-Unidecode/lib/Text/Unidecode/x24.pm
--- replaced obj /usr/share/texinfo/lib/Text-Unidecode/lib/Text/Unidecode/x23.pm
--- replaced obj /usr/share/texinfo/lib/Text-Unidecode/lib/Text/Unidecode/x22.pm
--- replaced obj /usr/share/texinfo/lib/Text-Unidecode/lib/Text/Unidecode/x21.pm
--- replaced obj /usr/share/texinfo/lib/Text-Unidecode/lib/Text/Unidecode/x20.pm
--- replaced obj /usr/share/texinfo/lib/Text-Unidecode/lib/Text/Unidecode/x1f.pm
--- replaced obj /usr/share/texinfo/lib/Text-Unidecode/lib/Text/Unidecode/x1e.pm
--- replaced obj /usr/share/texinfo/lib/Text-Unidecode/lib/Text/Unidecode/x18.pm
--- replaced obj /usr/share/texinfo/lib/Text-Unidecode/lib/Text/Unidecode/x17.pm
--- replaced obj /usr/share/texinfo/lib/Text-Unidecode/lib/Text/Unidecode/x16.pm
--- replaced obj /usr/share/texinfo/lib/Text-Unidecode/lib/Text/Unidecode/x15.pm
--- replaced obj /usr/share/texinfo/lib/Text-Unidecode/lib/Text/Unidecode/x14.pm
--- replaced obj /usr/share/texinfo/lib/Text-Unidecode/lib/Text/Unidecode/x13.pm
--- replaced obj /usr/share/texinfo/lib/Text-Unidecode/lib/Text/Unidecode/x12.pm
--- replaced obj /usr/share/texinfo/lib/Text-Unidecode/lib/Text/Unidecode/x11.pm
--- replaced obj /usr/share/texinfo/lib/Text-Unidecode/lib/Text/Unidecode/x10.pm
--- replaced obj /usr/share/texinfo/lib/Text-Unidecode/lib/Text/Unidecode/x0f.pm
--- replaced obj /usr/share/texinfo/lib/Text-Unidecode/lib/Text/Unidecode/x0e.pm
--- replaced obj /usr/share/texinfo/lib/Text-Unidecode/lib/Text/Unidecode/x0d.pm
--- replaced obj /usr/share/texinfo/lib/Text-Unidecode/lib/Text/Unidecode/x0c.pm
--- replaced obj /usr/share/texinfo/lib/Text-Unidecode/lib/Text/Unidecode/x0b.pm
--- replaced obj /usr/share/texinfo/lib/Text-Unidecode/lib/Text/Unidecode/x0a.pm
--- replaced obj /usr/share/texinfo/lib/Text-Unidecode/lib/Text/Unidecode/x09.pm
--- replaced obj /usr/share/texinfo/lib/Text-Unidecode/lib/Text/Unidecode/x07.pm
--- replaced obj /usr/share/texinfo/lib/Text-Unidecode/lib/Text/Unidecode/x06.pm
--- replaced obj /usr/share/texinfo/lib/Text-Unidecode/lib/Text/Unidecode/x05.pm
--- replaced obj /usr/share/texinfo/lib/Text-Unidecode/lib/Text/Unidecode/x04.pm
--- replaced obj /usr/share/texinfo/lib/Text-Unidecode/lib/Text/Unidecode/x03.pm
--- replaced obj /usr/share/texinfo/lib/Text-Unidecode/lib/Text/Unidecode/x02.pm
--- replaced obj /usr/share/texinfo/lib/Text-Unidecode/lib/Text/Unidecode/x01.pm
--- replaced obj /usr/share/texinfo/lib/Text-Unidecode/lib/Text/Unidecode/x00.pm
--- replaced obj /usr/share/texinfo/lib/Text-Unidecode/lib/Text/Unidecode.pm
--- replaced dir /usr/share/texinfo/lib/Text-Unidecode/lib/Text/Unidecode
--- replaced dir /usr/share/texinfo/lib/Text-Unidecode/lib/Text
--- replaced dir /usr/share/texinfo/lib/Text-Unidecode/lib
--- replaced dir /usr/share/texinfo/lib/Text-Unidecode
--- replaced dir /usr/share/texinfo/lib
--- replaced obj /usr/share/texinfo/init/tex4ht.pm
--- replaced obj /usr/share/texinfo/init/latex2html.pm
--- replaced obj /usr/share/texinfo/init/html32.pm
--- replaced obj /usr/share/texinfo/init/chm.pm
--- replaced obj /usr/share/texinfo/init/book.pm
--- replaced dir /usr/share/texinfo/init
--- replaced obj /usr/share/texinfo/htmlxref.cnf
--- replaced obj /usr/share/texinfo/Texinfo/XSLoader.pm
--- replaced obj /usr/share/texinfo/Texinfo/Transformations.pm
--- replaced obj /usr/share/texinfo/Texinfo/Structuring.pm
--- replaced obj /usr/share/texinfo/Texinfo/Report.pm
--- replaced obj /usr/share/texinfo/Texinfo/ParserNonXS.pm
--- replaced obj /usr/share/texinfo/Texinfo/Parser.pm
--- replaced obj /usr/share/texinfo/Texinfo/ModulePath.pm
--- replaced obj /usr/share/texinfo/Texinfo/MiscXS.pm
--- replaced obj /usr/share/texinfo/Texinfo/Encoding.pm
--- replaced obj /usr/share/texinfo/Texinfo/Documentlanguages.pm
--- replaced obj /usr/share/texinfo/Texinfo/Convert/Unicode.pm
--- replaced obj /usr/share/texinfo/Texinfo/Convert/UnFilled.pm
--- replaced obj /usr/share/texinfo/Texinfo/Convert/TextContent.pm
--- replaced obj /usr/share/texinfo/Texinfo/Convert/Text.pm
--- replaced obj /usr/share/texinfo/Texinfo/Convert/TexinfoXML.pm
--- replaced obj /usr/share/texinfo/Texinfo/Convert/TexinfoSXML.pm
--- replaced obj /usr/share/texinfo/Texinfo/Convert/Texinfo.pm
--- replaced obj /usr/share/texinfo/Texinfo/Convert/Plaintext.pm
--- replaced obj /usr/share/texinfo/Texinfo/Convert/PlainTexinfo.pm
--- replaced obj /usr/share/texinfo/Texinfo/Convert/ParagraphNonXS.pm
--- replaced obj /usr/share/texinfo/Texinfo/Convert/Paragraph.pm
--- replaced obj /usr/share/texinfo/Texinfo/Convert/NodeNameNormalization.pm
--- replaced obj /usr/share/texinfo/Texinfo/Convert/Line.pm
--- replaced obj /usr/share/texinfo/Texinfo/Convert/Info.pm
--- replaced obj /usr/share/texinfo/Texinfo/Convert/IXINSXML.pm
--- replaced obj /usr/share/texinfo/Texinfo/Convert/IXIN.pm
--- replaced obj /usr/share/texinfo/Texinfo/Convert/HTML.pm
--- replaced obj /usr/share/texinfo/Texinfo/Convert/DocBook.pm
--- replaced obj /usr/share/texinfo/Texinfo/Convert/Converter.pm
--- replaced dir /usr/share/texinfo/Texinfo/Convert
--- replaced obj /usr/share/texinfo/Texinfo/Common.pm
--- replaced dir /usr/share/texinfo/Texinfo
--- replaced obj /usr/share/texinfo/Pod-Simple-Texinfo/Pod/Simple/Texinfo.pm
--- replaced dir /usr/share/texinfo/Pod-Simple-Texinfo/Pod/Simple
--- replaced dir /usr/share/texinfo/Pod-Simple-Texinfo/Pod
--- replaced dir /usr/share/texinfo/Pod-Simple-Texinfo
--- replaced obj /usr/share/texinfo/DebugTexinfo/DebugTree.pm
--- replaced dir /usr/share/texinfo/DebugTexinfo
--- replaced dir /usr/share/texinfo
--- replaced obj /usr/share/man/man5/texinfo.5.bz2
--- replaced obj /usr/share/man/man5/info.5.bz2
--- replaced dir /usr/share/man/man5
--- replaced obj /usr/share/man/man1/texindex.1.bz2
--- replaced obj /usr/share/man/man1/texi2pdf.1
--- replaced obj /usr/share/man/man1/texi2dvi.1.bz2
--- replaced obj /usr/share/man/man1/texi2any.1
--- replaced obj /usr/share/man/man1/pod2texi.1.bz2
--- replaced obj /usr/share/man/man1/pdftexi2dvi.1
--- replaced obj /usr/share/man/man1/makeinfo.1.bz2
--- replaced obj /usr/share/man/man1/install-info.1.bz2
--- replaced obj /usr/share/man/man1/info.1.bz2
--- replaced dir /usr/share/man/man1
--- replaced dir /usr/share/man
--- replaced obj /usr/share/info/texinfo.info.bz2
--- replaced obj /usr/share/info/texinfo.info-3.bz2
--- replaced obj /usr/share/info/texinfo.info-2.bz2
--- replaced obj /usr/share/info/texinfo.info-1.bz2
--- replaced obj /usr/share/info/info-stnd.info.bz2
--- replaced dir /usr/share/info
--- replaced dir /usr/share
--- replaced obj /usr/bin/texindex
--- replaced obj /usr/bin/texi2pdf
--- replaced obj /usr/bin/texi2dvi
--- replaced obj /usr/bin/texi2any
--- replaced obj /usr/bin/pod2texi
--- replaced obj /usr/bin/pdftexi2dvi
--- replaced sym /usr/bin/makeinfo
--- replaced obj /usr/bin/install-info
--- replaced obj /usr/bin/info
--- replaced dir /usr/bin
--- replaced dir /usr
>>> Regenerating /etc/ld.so.cache...
