No package files given... Grabbing a set.
--- replaced obj /usr/share/man/man1/yacc.bison.1.bz2
--- replaced obj /usr/share/man/man1/bison.1.bz2
--- replaced dir /usr/share/man/man1
--- replaced dir /usr/share/man
--- replaced obj /usr/share/info/bison.info.bz2
--- replaced dir /usr/share/info
--- replaced obj /usr/share/bison/xslt/xml2xhtml.xsl
--- replaced obj /usr/share/bison/xslt/xml2text.xsl
--- replaced obj /usr/share/bison/xslt/xml2dot.xsl
--- replaced obj /usr/share/bison/xslt/bison.xsl
--- replaced dir /usr/share/bison/xslt
--- replaced obj /usr/share/bison/skeletons/yacc.c
--- replaced obj /usr/share/bison/skeletons/variant.hh
--- replaced obj /usr/share/bison/skeletons/stack.hh
--- replaced obj /usr/share/bison/skeletons/location.cc
--- replaced obj /usr/share/bison/skeletons/lalr1.java
--- replaced obj /usr/share/bison/skeletons/lalr1.d
--- replaced obj /usr/share/bison/skeletons/lalr1.cc
--- replaced obj /usr/share/bison/skeletons/java.m4
--- replaced obj /usr/share/bison/skeletons/java-skel.m4
--- replaced obj /usr/share/bison/skeletons/glr.cc
--- replaced obj /usr/share/bison/skeletons/glr.c
--- replaced obj /usr/share/bison/skeletons/d.m4
--- replaced obj /usr/share/bison/skeletons/d-skel.m4
--- replaced obj /usr/share/bison/skeletons/c.m4
--- replaced obj /usr/share/bison/skeletons/c-skel.m4
--- replaced obj /usr/share/bison/skeletons/c-like.m4
--- replaced obj /usr/share/bison/skeletons/c++.m4
--- replaced obj /usr/share/bison/skeletons/c++-skel.m4
--- replaced obj /usr/share/bison/skeletons/bison.m4
--- replaced obj /usr/share/bison/skeletons/README-D.txt
--- replaced dir /usr/share/bison/skeletons
--- replaced obj /usr/share/bison/m4sugar/m4sugar.m4
--- replaced obj /usr/share/bison/m4sugar/foreach.m4
--- replaced dir /usr/share/bison/m4sugar
--- replaced obj /usr/share/bison/bison-default.css
--- replaced obj /usr/share/bison/README.md
--- replaced dir /usr/share/bison
--- replaced obj /usr/share/aclocal/bison-i18n.m4
--- replaced dir /usr/share/aclocal
--- replaced dir /usr/share
--- replaced obj /usr/bin/yacc.bison
--- replaced obj /usr/bin/bison
--- replaced dir /usr/bin
--- replaced dir /usr
>>> Regenerating /etc/ld.so.cache...
