No package files given... Grabbing a set.
--- replaced obj /usr/share/man/man8/lsof.8.bz2
--- replaced dir /usr/share/man/man8
--- replaced dir /usr/share/man
<<<          obj /usr/share/lsof/scripts/xusers.awk
<<<          obj /usr/share/lsof/scripts/watch_a_file.perl
<<<          obj /usr/share/lsof/scripts/sort_res.perl5
<<<          obj /usr/share/lsof/scripts/shared.perl5
<<<          obj /usr/share/lsof/scripts/list_fields.perl
<<<          obj /usr/share/lsof/scripts/list_fields.awk
<<<          obj /usr/share/lsof/scripts/list_NULf.perl5
<<<          obj /usr/share/lsof/scripts/idrlogin.perl5
<<<          obj /usr/share/lsof/scripts/idrlogin.perl
<<<          obj /usr/share/lsof/scripts/identd.perl5
<<<          obj /usr/share/lsof/scripts/count_pf.perl5
<<<          obj /usr/share/lsof/scripts/count_pf.perl
<<<          obj /usr/share/lsof/scripts/big_brother.perl5
<<<          obj /usr/share/lsof/scripts/00README
<<<          obj /usr/share/lsof/scripts/00MANIFEST
--- replaced dir /usr/share
--- replaced obj /usr/bin/lsof
--- replaced dir /usr/bin
--- replaced dir /usr
<<<          dir /usr/share/lsof/scripts
<<<          dir /usr/share/lsof
>>> Regenerating /etc/ld.so.cache...
