[32;01m * [39;49;00mPackage:    sys-kernel/linux-firmware-20200519
[32;01m * [39;49;00mRepository: gentoo
[32;01m * [39;49;00mMaintainer: chithanh@gentoo.org zerochaos@gentoo.org,kernel@gentoo.org
[32;01m * [39;49;00mUSE:        abi_x86_64 amd64 elibc_glibc initramfs kernel_linux redistributable savedconfig userland_GNU
[32;01m * [39;49;00mFEATURES:   network-sandbox preserve-libs sandbox userpriv usersandbox
 [32;01m*[0m Your boot partition was detected as being mounted at /boot.
 [32;01m*[0m Files will be installed there for linux-firmware to function correctly.
