No package files given... Grabbing a set.
--- replaced obj /usr/share/man/man2/io_uring_setup.2.bz2
--- replaced obj /usr/share/man/man2/io_uring_register.2.bz2
--- replaced obj /usr/share/man/man2/io_uring_enter.2.bz2
--- replaced dir /usr/share/man/man2
--- replaced dir /usr/share/man
--- replaced dir /usr/share
--- replaced obj /usr/lib64/pkgconfig/liburing.pc
--- replaced dir /usr/lib64/pkgconfig
--- replaced obj /usr/lib64/liburing.so.1.0.6
--- replaced sym /usr/lib64/liburing.so.1
--- replaced sym /usr/lib64/liburing.so
--- replaced dir /usr/lib64
--- replaced obj /usr/include/liburing/io_uring.h
--- replaced obj /usr/include/liburing/compat.h
--- replaced obj /usr/include/liburing/barrier.h
--- replaced obj /usr/include/liburing.h
--- replaced dir /usr/include/liburing
--- replaced dir /usr/include
--- replaced dir /usr
>>> Regenerating /etc/ld.so.cache...
