No package files given... Grabbing a set.
--- replaced obj /etc/pam.d/system-services
--- replaced obj /etc/pam.d/system-remote-login
--- replaced obj /etc/pam.d/system-login
--- replaced obj /etc/pam.d/system-local-login
--- replaced obj /etc/pam.d/system-auth
--- replaced obj /etc/pam.d/su
--- replaced obj /etc/pam.d/passwd
--- replaced obj /etc/pam.d/other
--- replaced obj /etc/pam.d/login
--- replaced dir /etc/pam.d
--- replaced dir /etc
>>> Regenerating /etc/ld.so.cache...
