 * Package:    sys-libs/libutempter-1.2.0
 * Repository: gentoo
 * Maintainer: base-system@gentoo.org
 * USE:        abi_x86_64 amd64 elibc_glibc kernel_linux userland_GNU
 * FEATURES:   network-sandbox preserve-libs sandbox userpriv usersandbox
 * FEATURES='assume-digests binpkg-docompress binpkg-dostrip binpkg-logs buildpkg cgroup compress-index config-protect-if-modified distlocks ebuild-locks fixlafiles ipc-sandbox merge-sync multilib-strict network-sandbox news nodoc parallel-fetch pid-sandbox preserve-libs qa-unresolved-soname-deps sandbox sfperms strict strict-keepdir unknown-features-warn unmerge-logs unmerge-orphans userfetch userpriv usersandbox usersync xattr'
 * CFLAGS='-march=znver2 -O2 -pipe -fno-stack-protector -fno-stack-clash-protection -fstack-check=no -fno-stack-check -Wl,-O1 -Wl,--as-needed'
 * CXXFLAGS='-march=znver2 -O2 -pipe -fno-stack-protector -fno-stack-clash-protection -fstack-check=no -fno-stack-check -Wl,-O1 -Wl,--as-needed'
 * FFLAGS='-march=znver2 -O2 -pipe -fno-stack-protector -fno-stack-clash-protection -fstack-check=no -fno-stack-check -Wl,-O1 -Wl,--as-needed'
 * FCFLAGS='-march=znver2 -O2 -pipe -fno-stack-protector -fno-stack-clash-protection -fstack-check=no -fno-stack-check -Wl,-O1 -Wl,--as-needed'
 * F77FLAGS='-march=znver2 -O2 -pipe -fno-stack-protector -fno-stack-clash-protection -fstack-check=no -fno-stack-check -Wl,-O1 -Wl,--as-needed'
 * LDFLAGS='-Wl,-O1 -Wl,--as-needed'
 * MAKEOPTS='-j12 -l12'
 * gcc (Gentoo 10.1.0-r1 p2) 10.1.0
 * g++ (Gentoo 10.1.0-r1 p2) 10.1.0
 * GNU gold (Gentoo 2.34 p4 2.34.0) 1.16
 * Linux rescue 5.4.36 #1 SMP Thu Apr 30 04:38:28 UTC 2020 x86_64 AMD Ryzen 5 3600 6-Core Processor AuthenticAMD GNU/Linux
sys-libs/libutempter: 47 seconds average for 19 merges
2020-05-20T01:01:18 >>> sys-libs/libutempter: 4 seconds
2020-05-21T05:59:21 >>> sys-libs/libutempter: 5 seconds
2020-05-22T02:04:21 >>> sys-libs/libutempter: 3 minutes, 17 seconds
2020-05-22T03:16:15 >>> sys-libs/libutempter: 2 minutes, 29 seconds
2020-05-22T12:35:34 >>> sys-libs/libutempter: 2 minutes, 25 seconds
2020-05-23T03:37:14 >>> sys-libs/libutempter: 2 minutes, 23 seconds
2020-05-25T18:22:39 >>> sys-libs/libutempter: 15 seconds
2020-05-26T12:53:22 >>> sys-libs/libutempter: 13 seconds
2020-05-26T13:52:13 >>> sys-libs/libutempter: 7 seconds
2020-05-27T03:10:00 >>> sys-libs/libutempter: 19 seconds
2020-05-28T13:31:03 >>> sys-libs/libutempter: 18 seconds
2020-05-28T14:17:39 >>> sys-libs/libutempter: 9 seconds
2020-05-30T12:37:49 >>> sys-libs/libutempter: 21 seconds
2020-05-30T21:37:49 >>> sys-libs/libutempter: 8 seconds
2020-06-01T01:53:18 >>> sys-libs/libutempter: 17 seconds
2020-06-04T12:09:42 >>> sys-libs/libutempter: 18 seconds
2020-06-13T03:24:29 >>> sys-libs/libutempter: 1 minute, 10 seconds
2020-06-13T20:03:30 >>> sys-libs/libutempter: 23 seconds
2020-06-14T04:41:58 >>> sys-libs/libutempter: 28 seconds
]0;emerge 13:43:46 141|895 libutempter 00:40 (root@rescue)>>> Unpacking source...
>>> Unpacking libutempter-1.2.0.tar.gz to /tmp/portage/sys-libs/libutempter-1.2.0/work
>>> Source unpacked in /tmp/portage/sys-libs/libutempter-1.2.0/work
>>> Preparing source in /tmp/portage/sys-libs/libutempter-1.2.0/work/libutempter-1.2.0 ...
>>> Source prepared.
>>> Configuring source in /tmp/portage/sys-libs/libutempter-1.2.0/work/libutempter-1.2.0 ...
>>> Source configured.
>>> Compiling source in /tmp/portage/sys-libs/libutempter-1.2.0/work/libutempter-1.2.0 ...
make -j12 -l12 LDLIBS= 
x86_64-pc-linux-gnu-gcc -W -Wall -Waggregate-return -Wcast-align -Wconversion -Wdisabled-optimization -Wmissing-declarations -Wmissing-format-attribute -Wmissing-noreturn -Wmissing-prototypes -Wpointer-arith -Wredundant-decls -Wshadow -Wstrict-prototypes -Wwrite-strings -march=znver2 -O2 -pipe -fno-stack-protector -fno-stack-clash-protection -fstack-check=no -fno-stack-check -Wl,-O1 -Wl,--as-needed  -std=gnu99  -DLIBEXECDIR=\"/usr/lib64/misc\"  -Wl,-z,relro  -Wl,-O1 -Wl,--as-needed  -fPIE -pie -Wl,-z,now  utempter.c -o utempter
x86_64-pc-linux-gnu-gcc -W -Wall -Waggregate-return -Wcast-align -Wconversion -Wdisabled-optimization -Wmissing-declarations -Wmissing-format-attribute -Wmissing-noreturn -Wmissing-prototypes -Wpointer-arith -Wredundant-decls -Wshadow -Wstrict-prototypes -Wwrite-strings -march=znver2 -O2 -pipe -fno-stack-protector -fno-stack-clash-protection -fstack-check=no -fno-stack-check -Wl,-O1 -Wl,--as-needed  -std=gnu99  -DLIBEXECDIR=\"/usr/lib64/misc\"   -c -fPIC iface.c -o iface.os
x86_64-pc-linux-gnu-gcc -Wl,-z,relro  -Wl,-O1 -Wl,--as-needed  -shared \
	-Wl,-soname,libutempter.so.0,--version-script=libutempter.map,-z,defs \
	-lc iface.os -o libutempter.so
>>> Source compiled.
>>> Test phase [not enabled]: sys-libs/libutempter-1.2.0

>>> Install sys-libs/libutempter-1.2.0 into /tmp/portage/sys-libs/libutempter-1.2.0/image
make -j12 -l12 DESTDIR=/tmp/portage/sys-libs/libutempter-1.2.0/image install 
mkdir -p /tmp/portage/sys-libs/libutempter-1.2.0/image/usr/lib64 /tmp/portage/sys-libs/libutempter-1.2.0/image/usr/lib64/misc/utempter \
	/tmp/portage/sys-libs/libutempter-1.2.0/image/usr/include /tmp/portage/sys-libs/libutempter-1.2.0/image/usr/share/man/man3
install -p -m2711 utempter /tmp/portage/sys-libs/libutempter-1.2.0/image/usr/lib64/misc/utempter/
install -p -m644 utempter.h /tmp/portage/sys-libs/libutempter-1.2.0/image/usr/include/
install -p -m755 libutempter.so /tmp/portage/sys-libs/libutempter-1.2.0/image/usr/lib64/libutempter.so.1.2.0
ln -s libutempter.so.1.2.0 /tmp/portage/sys-libs/libutempter-1.2.0/image/usr/lib64/libutempter.so.0
ln -s libutempter.so.0 /tmp/portage/sys-libs/libutempter-1.2.0/image/usr/lib64/libutempter.so
install -p -m644 utempter.3 /tmp/portage/sys-libs/libutempter-1.2.0/image/usr/share/man/man3/
for n in libutempter utempter_add_record utempter_remove_record \
    utempter_remove_added_record utempter_set_helper; do \
	ln -s utempter.3 /tmp/portage/sys-libs/libutempter-1.2.0/image/usr/share/man/man3/$n.3; \
done
>>> Completed installing sys-libs/libutempter-1.2.0 into /tmp/portage/sys-libs/libutempter-1.2.0/image

 * Final size of build directory: 116 KiB
 * Final size of installed tree:   84 KiB

Parallel BZIP2 v1.1.13 [Dec 18, 2015]
By: Jeff Gilchrist [http://compression.ca]
Major contributions: Yavor Nikolov [http://javornikolov.wordpress.com]
Uses libbzip2 by Julian Seward

         # CPUs: 9
   Load Average: 3.12
 BWT Block Size: 200 KB
File Block Size: 900 KB
 Maximum Memory: 1024 MB
-------------------------------------------
         File #: 1 of 1
     Input Name: compressme
    Output Name: compressme.bz2

     Input Size: 3895 bytes
Compressing data (no threads)...
Completed: 100%                 Output Size: 918 bytes
-------------------------------------------

     Wall Clock: 0.000867 seconds
Parallel BZIP2 v1.1.13 [Dec 18, 2015]
Parallel BZIP2 v1.1.13 [Dec 18, 2015]
By: Jeff Gilchrist [http://compression.ca]
By: Jeff Gilchrist [http://compression.ca]
Major contributions: Yavor Nikolov [http://javornikolov.wordpress.com]
Major contributions: Yavor Nikolov [http://javornikolov.wordpress.com]
Uses libbzip2 by Julian Seward
Uses libbzip2 by Julian Seward

         # CPUs: 9

         # CPUs: 9
   Load Average: 3.12
   Load Average: 3.12
 BWT Block Size: 200 KB
File Block Size: 900 KB
 Maximum Memory: 1024 MB
-------------------------------------------
 BWT Block Size: 200 KB
File Block Size: 900 KB
 Maximum Memory: 1024 MB
-------------------------------------------
         File #: 1 of 1
     Input Name: /tmp/portage/sys-libs/libutempter-1.2.0/image/usr/share/doc/libutempter-1.2.0/README
    Output Name: /tmp/portage/sys-libs/libutempter-1.2.0/image/usr/share/doc/libutempter-1.2.0/README.bz2

     Input Size: 645 bytes
         File #: 1 of 1
     Input Name: /tmp/portage/sys-libs/libutempter-1.2.0/image/usr/share/man/man3/utempter.3
    Output Name: /tmp/portage/sys-libs/libutempter-1.2.0/image/usr/share/man/man3/utempter.3.bz2

     Input Size: 3240 bytes
Compressing data (no threads)...
Compressing data (no threads)...
Completed: 100%                 Output Size: 404 bytes
-------------------------------------------

     Wall Clock: 0.000677 seconds
Completed: 100%                 Output Size: 1561 bytes
-------------------------------------------

     Wall Clock: 0.001159 seconds
strip: x86_64-pc-linux-gnu-strip --strip-unneeded -N __gentoo_check_ldflags__ -R .comment -R .GCC.command.line -R .note.gnu.gold-version
   /usr/lib64/libutempter.so.1.2.0
   /usr/lib64/misc/utempter/utempter
./
./usr/
./usr/include/
./usr/include/utempter.h
./usr/sbin/
./usr/sbin/utempter
./usr/share/
./usr/share/man/
./usr/share/man/man3/
./usr/share/man/man3/utempter.3.bz2
./usr/share/man/man3/utempter_add_record.3
./usr/share/man/man3/libutempter.3
./usr/share/man/man3/utempter_set_helper.3
./usr/share/man/man3/utempter_remove_record.3
./usr/share/man/man3/utempter.3
./usr/share/man/man3/utempter_remove_added_record.3
./usr/share/doc/
./usr/share/doc/libutempter-1.2.0/
./usr/share/doc/libutempter-1.2.0/README
./usr/share/doc/libutempter-1.2.0/README.bz2
./usr/lib64/
./usr/lib64/libutempter.so.0
./usr/lib64/libutempter.so
./usr/lib64/misc/
./usr/lib64/misc/utempter/
./usr/lib64/misc/utempter/utempter
./usr/lib64/libutempter.so.1.2.0
>>> Done.
 * checking 13 files for package collisions
>>> Merging sys-libs/libutempter-1.2.0 to /
 * removing unneeded *.la files
 * >>> SetGID: [chmod o-r] /usr/lib64/misc/utempter/utempter ...
 [ ok ]
--- /usr/
--- /usr/lib64/
>>> /usr/lib64/libutempter.so.1.2.0
--- /usr/lib64/misc/
--- /usr/lib64/misc/utempter/
>>> /usr/lib64/misc/utempter/utempter
>>> /usr/lib64/libutempter.so -> libutempter.so.0
>>> /usr/lib64/libutempter.so.0 -> libutempter.so.1.2.0
--- /usr/share/
--- /usr/share/man/
--- /usr/share/man/man3/
>>> /usr/share/man/man3/utempter_remove_added_record.3 -> utempter.3
>>> /usr/share/man/man3/utempter.3
>>> /usr/share/man/man3/utempter_remove_record.3 -> utempter.3
>>> /usr/share/man/man3/utempter_set_helper.3 -> utempter.3
>>> /usr/share/man/man3/libutempter.3 -> utempter.3
>>> /usr/share/man/man3/utempter_add_record.3 -> utempter.3
>>> /usr/share/man/man3/utempter.3.bz2
--- /usr/sbin/
>>> /usr/sbin/utempter -> ../lib64/misc/utempter/utempter
--- /usr/include/
>>> /usr/include/utempter.h
>>> Safely unmerging already-installed instance...
!!! File Not Found: '/etc/env.d/99lcdfilter'
>>> Original instance of package unmerged safely.
>>> sys-libs/libutempter-1.2.0 merged.
!!! File Not Found: '/etc/env.d/99lcdfilter'
>>> Regenerating /etc/ld.so.cache...
