No package files given... Grabbing a set.
--- replaced obj /usr/share/man/man8/slattach.8.bz2
--- replaced obj /usr/share/man/man8/route.8.bz2
--- replaced obj /usr/share/man/man8/rarp.8.bz2
--- replaced obj /usr/share/man/man8/plipconfig.8.bz2
--- replaced obj /usr/share/man/man8/netstat.8.bz2
--- replaced obj /usr/share/man/man8/nameif.8.bz2
--- replaced obj /usr/share/man/man8/mii-tool.8.bz2
--- replaced obj /usr/share/man/man8/ifconfig.8.bz2
--- replaced obj /usr/share/man/man8/arp.8.bz2
--- replaced dir /usr/share/man/man8
--- replaced obj /usr/share/man/man5/ethers.5.bz2
--- replaced dir /usr/share/man/man5
--- replaced obj /usr/share/man/man1/ypdomainname.1
--- replaced obj /usr/share/man/man1/nisdomainname.1
--- replaced obj /usr/share/man/man1/hostname.1.bz2
--- replaced obj /usr/share/man/man1/domainname.1
--- replaced obj /usr/share/man/man1/dnsdomainname.1
--- replaced dir /usr/share/man/man1
--- replaced dir /usr/share/man
--- replaced dir /usr/share
--- replaced dir /usr
--- replaced obj /sbin/slattach
--- replaced obj /sbin/rarp
--- replaced obj /sbin/plipconfig
--- replaced obj /sbin/nameif
--- replaced obj /sbin/mii-tool
--- replaced obj /sbin/iptunnel
--- replaced obj /sbin/ipmaddr
--- replaced obj /sbin/arp
--- replaced dir /sbin
--- replaced sym /bin/ypdomainname
--- replaced obj /bin/route
--- replaced sym /bin/nisdomainname
--- replaced obj /bin/netstat
--- replaced obj /bin/ifconfig
--- replaced obj /bin/hostname
--- replaced sym /bin/domainname
--- replaced sym /bin/dnsdomainname
--- replaced dir /bin
>>> Regenerating /etc/ld.so.cache...
