No package files given... Grabbing a set.
--- replaced obj /var/db/Makefile
--- replaced dir /var/db
--- replaced dir /var
--- replaced obj /usr/share/man/man8/locale-gen.8.bz2
--- replaced dir /usr/share/man/man8
--- replaced obj /usr/share/man/man5/locale.gen.5.bz2
--- replaced dir /usr/share/man/man5
--- replaced dir /usr/share/man
--- replaced obj /usr/share/locale/locale.alias
--- replaced dir /usr/share/locale/en_GB/LC_MESSAGES
--- replaced dir /usr/share/locale/en_GB
--- replaced dir /usr/share/locale
--- replaced obj /usr/share/i18n/locales/zu_ZA
--- replaced obj /usr/share/i18n/locales/zh_TW
--- replaced obj /usr/share/i18n/locales/zh_SG
--- replaced obj /usr/share/i18n/locales/zh_HK
--- replaced obj /usr/share/i18n/locales/zh_CN
--- replaced obj /usr/share/i18n/locales/yuw_PG
--- replaced obj /usr/share/i18n/locales/yue_HK
--- replaced obj /usr/share/i18n/locales/yo_NG
--- replaced obj /usr/share/i18n/locales/yi_US
--- replaced obj /usr/share/i18n/locales/xh_ZA
--- replaced obj /usr/share/i18n/locales/wo_SN
--- replaced obj /usr/share/i18n/locales/wal_ET
--- replaced obj /usr/share/i18n/locales/wae_CH
--- replaced obj /usr/share/i18n/locales/wa_BE@euro
--- replaced obj /usr/share/i18n/locales/wa_BE
--- replaced obj /usr/share/i18n/locales/vi_VN
--- replaced obj /usr/share/i18n/locales/ve_ZA
--- replaced obj /usr/share/i18n/locales/uz_UZ@cyrillic
--- replaced obj /usr/share/i18n/locales/uz_UZ
--- replaced obj /usr/share/i18n/locales/ur_PK
--- replaced obj /usr/share/i18n/locales/ur_IN
--- replaced obj /usr/share/i18n/locales/unm_US
--- replaced obj /usr/share/i18n/locales/uk_UA
--- replaced obj /usr/share/i18n/locales/ug_CN
--- replaced obj /usr/share/i18n/locales/tt_RU@iqtelif
--- replaced obj /usr/share/i18n/locales/tt_RU
--- replaced obj /usr/share/i18n/locales/ts_ZA
--- replaced obj /usr/share/i18n/locales/translit_wide
--- replaced obj /usr/share/i18n/locales/translit_small
--- replaced obj /usr/share/i18n/locales/translit_neutral
--- replaced obj /usr/share/i18n/locales/translit_narrow
--- replaced obj /usr/share/i18n/locales/translit_hangul
--- replaced obj /usr/share/i18n/locales/translit_fraction
--- replaced obj /usr/share/i18n/locales/translit_font
--- replaced obj /usr/share/i18n/locales/translit_compat
--- replaced obj /usr/share/i18n/locales/translit_combining
--- replaced obj /usr/share/i18n/locales/translit_cjk_variants
--- replaced obj /usr/share/i18n/locales/translit_cjk_compat
--- replaced obj /usr/share/i18n/locales/translit_circle
--- replaced obj /usr/share/i18n/locales/tr_TR
--- replaced obj /usr/share/i18n/locales/tr_CY
--- replaced obj /usr/share/i18n/locales/tpi_PG
--- replaced obj /usr/share/i18n/locales/to_TO
--- replaced obj /usr/share/i18n/locales/tn_ZA
--- replaced obj /usr/share/i18n/locales/tl_PH
--- replaced obj /usr/share/i18n/locales/tk_TM
--- replaced obj /usr/share/i18n/locales/tig_ER
--- replaced obj /usr/share/i18n/locales/ti_ET
--- replaced obj /usr/share/i18n/locales/ti_ER
--- replaced obj /usr/share/i18n/locales/the_NP
--- replaced obj /usr/share/i18n/locales/th_TH
--- replaced obj /usr/share/i18n/locales/tg_TJ
--- replaced obj /usr/share/i18n/locales/te_IN
--- replaced obj /usr/share/i18n/locales/tcy_IN
--- replaced obj /usr/share/i18n/locales/ta_LK
--- replaced obj /usr/share/i18n/locales/ta_IN
--- replaced obj /usr/share/i18n/locales/szl_PL
--- replaced obj /usr/share/i18n/locales/sw_TZ
--- replaced obj /usr/share/i18n/locales/sw_KE
--- replaced obj /usr/share/i18n/locales/sv_SE
--- replaced obj /usr/share/i18n/locales/sv_FI@euro
--- replaced obj /usr/share/i18n/locales/sv_FI
--- replaced obj /usr/share/i18n/locales/st_ZA
--- replaced obj /usr/share/i18n/locales/ss_ZA
--- replaced obj /usr/share/i18n/locales/sr_RS@latin
--- replaced obj /usr/share/i18n/locales/sr_RS
--- replaced obj /usr/share/i18n/locales/sr_ME
--- replaced obj /usr/share/i18n/locales/sq_MK
--- replaced obj /usr/share/i18n/locales/sq_AL
--- replaced obj /usr/share/i18n/locales/so_SO
--- replaced obj /usr/share/i18n/locales/so_KE
--- replaced obj /usr/share/i18n/locales/so_ET
--- replaced obj /usr/share/i18n/locales/so_DJ
--- replaced obj /usr/share/i18n/locales/sm_WS
--- replaced obj /usr/share/i18n/locales/sl_SI
--- replaced obj /usr/share/i18n/locales/sk_SK
--- replaced obj /usr/share/i18n/locales/sid_ET
--- replaced obj /usr/share/i18n/locales/si_LK
--- replaced obj /usr/share/i18n/locales/shs_CA
--- replaced obj /usr/share/i18n/locales/shn_MM
--- replaced obj /usr/share/i18n/locales/sgs_LT
--- replaced obj /usr/share/i18n/locales/se_NO
--- replaced obj /usr/share/i18n/locales/sd_IN@devanagari
--- replaced obj /usr/share/i18n/locales/sd_IN
--- replaced obj /usr/share/i18n/locales/sc_IT
--- replaced obj /usr/share/i18n/locales/sat_IN
--- replaced obj /usr/share/i18n/locales/sah_RU
--- replaced obj /usr/share/i18n/locales/sa_IN
--- replaced obj /usr/share/i18n/locales/rw_RW
--- replaced obj /usr/share/i18n/locales/ru_UA
--- replaced obj /usr/share/i18n/locales/ru_RU
--- replaced obj /usr/share/i18n/locales/ro_RO
--- replaced obj /usr/share/i18n/locales/raj_IN
--- replaced obj /usr/share/i18n/locales/quz_PE
--- replaced obj /usr/share/i18n/locales/pt_PT@euro
--- replaced obj /usr/share/i18n/locales/pt_PT
--- replaced obj /usr/share/i18n/locales/pt_BR
--- replaced obj /usr/share/i18n/locales/ps_AF
--- replaced obj /usr/share/i18n/locales/pl_PL
--- replaced obj /usr/share/i18n/locales/pap_CW
--- replaced obj /usr/share/i18n/locales/pap_AW
--- replaced obj /usr/share/i18n/locales/pa_PK
--- replaced obj /usr/share/i18n/locales/pa_IN
--- replaced obj /usr/share/i18n/locales/os_RU
--- replaced obj /usr/share/i18n/locales/or_IN
--- replaced obj /usr/share/i18n/locales/om_KE
--- replaced obj /usr/share/i18n/locales/om_ET
--- replaced obj /usr/share/i18n/locales/oc_FR
--- replaced obj /usr/share/i18n/locales/nso_ZA
--- replaced obj /usr/share/i18n/locales/nr_ZA
--- replaced obj /usr/share/i18n/locales/nn_NO
--- replaced obj /usr/share/i18n/locales/nl_NL@euro
--- replaced obj /usr/share/i18n/locales/nl_NL
--- replaced obj /usr/share/i18n/locales/nl_BE@euro
--- replaced obj /usr/share/i18n/locales/nl_BE
--- replaced obj /usr/share/i18n/locales/nl_AW
--- replaced obj /usr/share/i18n/locales/niu_NZ
--- replaced obj /usr/share/i18n/locales/niu_NU
--- replaced obj /usr/share/i18n/locales/nhn_MX
--- replaced obj /usr/share/i18n/locales/ne_NP
--- replaced obj /usr/share/i18n/locales/nds_NL
--- replaced obj /usr/share/i18n/locales/nds_DE
--- replaced obj /usr/share/i18n/locales/nb_NO
--- replaced obj /usr/share/i18n/locales/nan_TW@latin
--- replaced obj /usr/share/i18n/locales/nan_TW
--- replaced obj /usr/share/i18n/locales/my_MM
--- replaced obj /usr/share/i18n/locales/mt_MT
--- replaced obj /usr/share/i18n/locales/ms_MY
--- replaced obj /usr/share/i18n/locales/mr_IN
--- replaced obj /usr/share/i18n/locales/mnw_MM
--- replaced obj /usr/share/i18n/locales/mni_IN
--- replaced obj /usr/share/i18n/locales/mn_MN
--- replaced obj /usr/share/i18n/locales/ml_IN
--- replaced obj /usr/share/i18n/locales/mk_MK
--- replaced obj /usr/share/i18n/locales/mjw_IN
--- replaced obj /usr/share/i18n/locales/miq_NI
--- replaced obj /usr/share/i18n/locales/mi_NZ
--- replaced obj /usr/share/i18n/locales/mhr_RU
--- replaced obj /usr/share/i18n/locales/mg_MG
--- replaced obj /usr/share/i18n/locales/mfe_MU
--- replaced obj /usr/share/i18n/locales/mai_NP
--- replaced obj /usr/share/i18n/locales/mai_IN
--- replaced obj /usr/share/i18n/locales/mag_IN
--- replaced obj /usr/share/i18n/locales/lzh_TW
--- replaced obj /usr/share/i18n/locales/lv_LV
--- replaced obj /usr/share/i18n/locales/lt_LT
--- replaced obj /usr/share/i18n/locales/lo_LA
--- replaced obj /usr/share/i18n/locales/ln_CD
--- replaced obj /usr/share/i18n/locales/lij_IT
--- replaced obj /usr/share/i18n/locales/li_NL
--- replaced obj /usr/share/i18n/locales/li_BE
--- replaced obj /usr/share/i18n/locales/lg_UG
--- replaced obj /usr/share/i18n/locales/lb_LU
--- replaced obj /usr/share/i18n/locales/ky_KG
--- replaced obj /usr/share/i18n/locales/kw_GB
--- replaced obj /usr/share/i18n/locales/ku_TR
--- replaced obj /usr/share/i18n/locales/ks_IN@devanagari
--- replaced obj /usr/share/i18n/locales/ks_IN
--- replaced obj /usr/share/i18n/locales/kok_IN
--- replaced obj /usr/share/i18n/locales/ko_KR
--- replaced obj /usr/share/i18n/locales/kn_IN
--- replaced obj /usr/share/i18n/locales/km_KH
--- replaced obj /usr/share/i18n/locales/kl_GL
--- replaced obj /usr/share/i18n/locales/kk_KZ
--- replaced obj /usr/share/i18n/locales/kab_DZ
--- replaced obj /usr/share/i18n/locales/ka_GE
--- replaced obj /usr/share/i18n/locales/ja_JP
--- replaced obj /usr/share/i18n/locales/iu_CA
--- replaced obj /usr/share/i18n/locales/it_IT@euro
--- replaced obj /usr/share/i18n/locales/it_IT
--- replaced obj /usr/share/i18n/locales/it_CH
--- replaced obj /usr/share/i18n/locales/iso14651_t1_pinyin
--- replaced obj /usr/share/i18n/locales/iso14651_t1_common
--- replaced obj /usr/share/i18n/locales/iso14651_t1
--- replaced obj /usr/share/i18n/locales/is_IS
--- replaced obj /usr/share/i18n/locales/ik_CA
--- replaced obj /usr/share/i18n/locales/ig_NG
--- replaced obj /usr/share/i18n/locales/id_ID
--- replaced obj /usr/share/i18n/locales/ia_FR
--- replaced obj /usr/share/i18n/locales/i18n_ctype
--- replaced obj /usr/share/i18n/locales/i18n
--- replaced obj /usr/share/i18n/locales/hy_AM
--- replaced obj /usr/share/i18n/locales/hu_HU
--- replaced obj /usr/share/i18n/locales/ht_HT
--- replaced obj /usr/share/i18n/locales/hsb_DE
--- replaced obj /usr/share/i18n/locales/hr_HR
--- replaced obj /usr/share/i18n/locales/hne_IN
--- replaced obj /usr/share/i18n/locales/hif_FJ
--- replaced obj /usr/share/i18n/locales/hi_IN
--- replaced obj /usr/share/i18n/locales/he_IL
--- replaced obj /usr/share/i18n/locales/hak_TW
--- replaced obj /usr/share/i18n/locales/ha_NG
--- replaced obj /usr/share/i18n/locales/gv_GB
--- replaced obj /usr/share/i18n/locales/gu_IN
--- replaced obj /usr/share/i18n/locales/gl_ES@euro
--- replaced obj /usr/share/i18n/locales/gl_ES
--- replaced obj /usr/share/i18n/locales/gez_ET@abegede
--- replaced obj /usr/share/i18n/locales/gez_ET
--- replaced obj /usr/share/i18n/locales/gez_ER@abegede
--- replaced obj /usr/share/i18n/locales/gez_ER
--- replaced obj /usr/share/i18n/locales/gd_GB
--- replaced obj /usr/share/i18n/locales/ga_IE@euro
--- replaced obj /usr/share/i18n/locales/ga_IE
--- replaced obj /usr/share/i18n/locales/fy_NL
--- replaced obj /usr/share/i18n/locales/fy_DE
--- replaced obj /usr/share/i18n/locales/fur_IT
--- replaced obj /usr/share/i18n/locales/fr_LU@euro
--- replaced obj /usr/share/i18n/locales/fr_LU
--- replaced obj /usr/share/i18n/locales/fr_FR@euro
--- replaced obj /usr/share/i18n/locales/fr_FR
--- replaced obj /usr/share/i18n/locales/fr_CH
--- replaced obj /usr/share/i18n/locales/fr_CA
--- replaced obj /usr/share/i18n/locales/fr_BE@euro
--- replaced obj /usr/share/i18n/locales/fr_BE
--- replaced obj /usr/share/i18n/locales/fo_FO
--- replaced obj /usr/share/i18n/locales/fil_PH
--- replaced obj /usr/share/i18n/locales/fi_FI@euro
--- replaced obj /usr/share/i18n/locales/fi_FI
--- replaced obj /usr/share/i18n/locales/ff_SN
--- replaced obj /usr/share/i18n/locales/fa_IR
--- replaced obj /usr/share/i18n/locales/eu_ES@euro
--- replaced obj /usr/share/i18n/locales/eu_ES
--- replaced obj /usr/share/i18n/locales/et_EE
--- replaced obj /usr/share/i18n/locales/es_VE
--- replaced obj /usr/share/i18n/locales/es_UY
--- replaced obj /usr/share/i18n/locales/es_US
--- replaced obj /usr/share/i18n/locales/es_SV
--- replaced obj /usr/share/i18n/locales/es_PY
--- replaced obj /usr/share/i18n/locales/es_PR
--- replaced obj /usr/share/i18n/locales/es_PE
--- replaced obj /usr/share/i18n/locales/es_PA
--- replaced obj /usr/share/i18n/locales/es_NI
--- replaced obj /usr/share/i18n/locales/es_MX
--- replaced obj /usr/share/i18n/locales/es_HN
--- replaced obj /usr/share/i18n/locales/es_GT
--- replaced obj /usr/share/i18n/locales/es_ES@euro
--- replaced obj /usr/share/i18n/locales/es_ES
--- replaced obj /usr/share/i18n/locales/es_EC
--- replaced obj /usr/share/i18n/locales/es_DO
--- replaced obj /usr/share/i18n/locales/es_CU
--- replaced obj /usr/share/i18n/locales/es_CR
--- replaced obj /usr/share/i18n/locales/es_CO
--- replaced obj /usr/share/i18n/locales/es_CL
--- replaced obj /usr/share/i18n/locales/es_BO
--- replaced obj /usr/share/i18n/locales/es_AR
--- replaced obj /usr/share/i18n/locales/eo
--- replaced obj /usr/share/i18n/locales/en_ZW
--- replaced obj /usr/share/i18n/locales/en_ZM
--- replaced obj /usr/share/i18n/locales/en_ZA
--- replaced obj /usr/share/i18n/locales/en_US
--- replaced obj /usr/share/i18n/locales/en_SG
--- replaced obj /usr/share/i18n/locales/en_SC
--- replaced obj /usr/share/i18n/locales/en_PH
--- replaced obj /usr/share/i18n/locales/en_NZ
--- replaced obj /usr/share/i18n/locales/en_NG
--- replaced obj /usr/share/i18n/locales/en_IN
--- replaced obj /usr/share/i18n/locales/en_IL
--- replaced obj /usr/share/i18n/locales/en_IE@euro
--- replaced obj /usr/share/i18n/locales/en_IE
--- replaced obj /usr/share/i18n/locales/en_HK
--- replaced obj /usr/share/i18n/locales/en_GB
--- replaced obj /usr/share/i18n/locales/en_DK
--- replaced obj /usr/share/i18n/locales/en_CA
--- replaced obj /usr/share/i18n/locales/en_BW
--- replaced obj /usr/share/i18n/locales/en_AU
--- replaced obj /usr/share/i18n/locales/en_AG
--- replaced obj /usr/share/i18n/locales/el_GR@euro
--- replaced obj /usr/share/i18n/locales/el_GR
--- replaced obj /usr/share/i18n/locales/el_CY
--- replaced obj /usr/share/i18n/locales/dz_BT
--- replaced obj /usr/share/i18n/locales/dv_MV
--- replaced obj /usr/share/i18n/locales/dsb_DE
--- replaced obj /usr/share/i18n/locales/doi_IN
--- replaced obj /usr/share/i18n/locales/de_LU@euro
--- replaced obj /usr/share/i18n/locales/de_LU
--- replaced obj /usr/share/i18n/locales/de_LI
--- replaced obj /usr/share/i18n/locales/de_IT
--- replaced obj /usr/share/i18n/locales/de_DE@euro
--- replaced obj /usr/share/i18n/locales/de_DE
--- replaced obj /usr/share/i18n/locales/de_CH
--- replaced obj /usr/share/i18n/locales/de_BE@euro
--- replaced obj /usr/share/i18n/locales/de_BE
--- replaced obj /usr/share/i18n/locales/de_AT@euro
--- replaced obj /usr/share/i18n/locales/de_AT
--- replaced obj /usr/share/i18n/locales/da_DK
--- replaced obj /usr/share/i18n/locales/cy_GB
--- replaced obj /usr/share/i18n/locales/cv_RU
--- replaced obj /usr/share/i18n/locales/csb_PL
--- replaced obj /usr/share/i18n/locales/cs_CZ
--- replaced obj /usr/share/i18n/locales/crh_UA
--- replaced obj /usr/share/i18n/locales/cns11643_stroke
--- replaced obj /usr/share/i18n/locales/cmn_TW
--- replaced obj /usr/share/i18n/locales/chr_US
--- replaced obj /usr/share/i18n/locales/ce_RU
--- replaced obj /usr/share/i18n/locales/ca_IT
--- replaced obj /usr/share/i18n/locales/ca_FR
--- replaced obj /usr/share/i18n/locales/ca_ES@valencia
--- replaced obj /usr/share/i18n/locales/ca_ES@euro
--- replaced obj /usr/share/i18n/locales/ca_ES
--- replaced obj /usr/share/i18n/locales/ca_AD
--- replaced obj /usr/share/i18n/locales/byn_ER
--- replaced obj /usr/share/i18n/locales/bs_BA
--- replaced obj /usr/share/i18n/locales/brx_IN
--- replaced obj /usr/share/i18n/locales/br_FR@euro
--- replaced obj /usr/share/i18n/locales/br_FR
--- replaced obj /usr/share/i18n/locales/bo_IN
--- replaced obj /usr/share/i18n/locales/bo_CN
--- replaced obj /usr/share/i18n/locales/bn_IN
--- replaced obj /usr/share/i18n/locales/bn_BD
--- replaced obj /usr/share/i18n/locales/bi_VU
--- replaced obj /usr/share/i18n/locales/bho_NP
--- replaced obj /usr/share/i18n/locales/bho_IN
--- replaced obj /usr/share/i18n/locales/bhb_IN
--- replaced obj /usr/share/i18n/locales/bg_BG
--- replaced obj /usr/share/i18n/locales/ber_MA
--- replaced obj /usr/share/i18n/locales/ber_DZ
--- replaced obj /usr/share/i18n/locales/bem_ZM
--- replaced obj /usr/share/i18n/locales/be_BY@latin
--- replaced obj /usr/share/i18n/locales/be_BY
--- replaced obj /usr/share/i18n/locales/az_IR
--- replaced obj /usr/share/i18n/locales/az_AZ
--- replaced obj /usr/share/i18n/locales/ayc_PE
--- replaced obj /usr/share/i18n/locales/ast_ES
--- replaced obj /usr/share/i18n/locales/as_IN
--- replaced obj /usr/share/i18n/locales/ar_YE
--- replaced obj /usr/share/i18n/locales/ar_TN
--- replaced obj /usr/share/i18n/locales/ar_SY
--- replaced obj /usr/share/i18n/locales/ar_SS
--- replaced obj /usr/share/i18n/locales/ar_SD
--- replaced obj /usr/share/i18n/locales/ar_SA
--- replaced obj /usr/share/i18n/locales/ar_QA
--- replaced obj /usr/share/i18n/locales/ar_OM
--- replaced obj /usr/share/i18n/locales/ar_MA
--- replaced obj /usr/share/i18n/locales/ar_LY
--- replaced obj /usr/share/i18n/locales/ar_LB
--- replaced obj /usr/share/i18n/locales/ar_KW
--- replaced obj /usr/share/i18n/locales/ar_JO
--- replaced obj /usr/share/i18n/locales/ar_IQ
--- replaced obj /usr/share/i18n/locales/ar_IN
--- replaced obj /usr/share/i18n/locales/ar_EG
--- replaced obj /usr/share/i18n/locales/ar_DZ
--- replaced obj /usr/share/i18n/locales/ar_BH
--- replaced obj /usr/share/i18n/locales/ar_AE
--- replaced obj /usr/share/i18n/locales/anp_IN
--- replaced obj /usr/share/i18n/locales/an_ES
--- replaced obj /usr/share/i18n/locales/am_ET
--- replaced obj /usr/share/i18n/locales/ak_GH
--- replaced obj /usr/share/i18n/locales/agr_PE
--- replaced obj /usr/share/i18n/locales/af_ZA
--- replaced obj /usr/share/i18n/locales/aa_ET
--- replaced obj /usr/share/i18n/locales/aa_ER@saaho
--- replaced obj /usr/share/i18n/locales/aa_ER
--- replaced obj /usr/share/i18n/locales/aa_DJ
--- replaced obj /usr/share/i18n/locales/POSIX
--- replaced obj /usr/share/i18n/locales/C
--- replaced dir /usr/share/i18n/locales
--- replaced obj /usr/share/i18n/charmaps/WINDOWS-31J.gz
--- replaced obj /usr/share/i18n/charmaps/VISCII.gz
--- replaced obj /usr/share/i18n/charmaps/VIDEOTEX-SUPPL.gz
--- replaced obj /usr/share/i18n/charmaps/UTF-8.gz
--- replaced obj /usr/share/i18n/charmaps/TSCII.gz
--- replaced obj /usr/share/i18n/charmaps/TIS-620.gz
--- replaced obj /usr/share/i18n/charmaps/TCVN5712-1.gz
--- replaced obj /usr/share/i18n/charmaps/T.61-8BIT.gz
--- replaced obj /usr/share/i18n/charmaps/T.61-7BIT.gz
--- replaced obj /usr/share/i18n/charmaps/T.101-G2.gz
--- replaced obj /usr/share/i18n/charmaps/SHIFT_JISX0213.gz
--- replaced obj /usr/share/i18n/charmaps/SHIFT_JIS.gz
--- replaced obj /usr/share/i18n/charmaps/SEN_850200_C.gz
--- replaced obj /usr/share/i18n/charmaps/SEN_850200_B.gz
--- replaced obj /usr/share/i18n/charmaps/SAMI.gz
--- replaced obj /usr/share/i18n/charmaps/SAMI-WS2.gz
--- replaced obj /usr/share/i18n/charmaps/RK1048.gz
--- replaced obj /usr/share/i18n/charmaps/PT2.gz
--- replaced obj /usr/share/i18n/charmaps/PT154.gz
--- replaced obj /usr/share/i18n/charmaps/PT.gz
--- replaced obj /usr/share/i18n/charmaps/NS_4551-2.gz
--- replaced obj /usr/share/i18n/charmaps/NS_4551-1.gz
--- replaced obj /usr/share/i18n/charmaps/NF_Z_62-010_1973.gz
--- replaced obj /usr/share/i18n/charmaps/NF_Z_62-010.gz
--- replaced obj /usr/share/i18n/charmaps/NEXTSTEP.gz
--- replaced obj /usr/share/i18n/charmaps/NC_NC00-10.gz
--- replaced obj /usr/share/i18n/charmaps/NATS-SEFI.gz
--- replaced obj /usr/share/i18n/charmaps/NATS-SEFI-ADD.gz
--- replaced obj /usr/share/i18n/charmaps/NATS-DANO.gz
--- replaced obj /usr/share/i18n/charmaps/NATS-DANO-ADD.gz
--- replaced obj /usr/share/i18n/charmaps/MSZ_7795.3.gz
--- replaced obj /usr/share/i18n/charmaps/MIK.gz
--- replaced obj /usr/share/i18n/charmaps/MACINTOSH.gz
--- replaced obj /usr/share/i18n/charmaps/MAC-UK.gz
--- replaced obj /usr/share/i18n/charmaps/MAC-SAMI.gz
--- replaced obj /usr/share/i18n/charmaps/MAC-IS.gz
--- replaced obj /usr/share/i18n/charmaps/MAC-CYRILLIC.gz
--- replaced obj /usr/share/i18n/charmaps/MAC-CENTRALEUROPE.gz
--- replaced obj /usr/share/i18n/charmaps/LATIN-GREEK.gz
--- replaced obj /usr/share/i18n/charmaps/LATIN-GREEK-1.gz
--- replaced obj /usr/share/i18n/charmaps/KSC5636.gz
--- replaced obj /usr/share/i18n/charmaps/KOI8-U.gz
--- replaced obj /usr/share/i18n/charmaps/KOI8-T.gz
--- replaced obj /usr/share/i18n/charmaps/KOI8-RU.gz
--- replaced obj /usr/share/i18n/charmaps/KOI8-R.gz
--- replaced obj /usr/share/i18n/charmaps/KOI-8.gz
--- replaced obj /usr/share/i18n/charmaps/JUS_I.B1.003-SERB.gz
--- replaced obj /usr/share/i18n/charmaps/JUS_I.B1.003-MAC.gz
--- replaced obj /usr/share/i18n/charmaps/JUS_I.B1.002.gz
--- replaced obj /usr/share/i18n/charmaps/JOHAB.gz
--- replaced obj /usr/share/i18n/charmaps/JIS_X0201.gz
--- replaced obj /usr/share/i18n/charmaps/JIS_C6229-1984-KANA.gz
--- replaced obj /usr/share/i18n/charmaps/JIS_C6229-1984-HAND.gz
--- replaced obj /usr/share/i18n/charmaps/JIS_C6229-1984-HAND-ADD.gz
--- replaced obj /usr/share/i18n/charmaps/JIS_C6229-1984-B.gz
--- replaced obj /usr/share/i18n/charmaps/JIS_C6229-1984-B-ADD.gz
--- replaced obj /usr/share/i18n/charmaps/JIS_C6229-1984-A.gz
--- replaced obj /usr/share/i18n/charmaps/JIS_C6220-1969-RO.gz
--- replaced obj /usr/share/i18n/charmaps/JIS_C6220-1969-JP.gz
--- replaced obj /usr/share/i18n/charmaps/IT.gz
--- replaced obj /usr/share/i18n/charmaps/ISO_8859-SUPP.gz
--- replaced obj /usr/share/i18n/charmaps/ISO_8859-1,GL.gz
--- replaced obj /usr/share/i18n/charmaps/ISO_6937.gz
--- replaced obj /usr/share/i18n/charmaps/ISO_6937-2-ADD.gz
--- replaced obj /usr/share/i18n/charmaps/ISO_6937-2-25.gz
--- replaced obj /usr/share/i18n/charmaps/ISO_646.IRV.gz
--- replaced obj /usr/share/i18n/charmaps/ISO_646.BASIC.gz
--- replaced obj /usr/share/i18n/charmaps/ISO_5428.gz
--- replaced obj /usr/share/i18n/charmaps/ISO_5427.gz
--- replaced obj /usr/share/i18n/charmaps/ISO_5427-EXT.gz
--- replaced obj /usr/share/i18n/charmaps/ISO_2033-1983.gz
--- replaced obj /usr/share/i18n/charmaps/ISO_11548-1.gz
--- replaced obj /usr/share/i18n/charmaps/ISO_10646.gz
--- replaced obj /usr/share/i18n/charmaps/ISO_10367-BOX.gz
--- replaced obj /usr/share/i18n/charmaps/ISO-IR-90.gz
--- replaced obj /usr/share/i18n/charmaps/ISO-IR-209.gz
--- replaced obj /usr/share/i18n/charmaps/ISO-IR-197.gz
--- replaced obj /usr/share/i18n/charmaps/ISO-8859-9E.gz
--- replaced obj /usr/share/i18n/charmaps/ISO-8859-9.gz
--- replaced obj /usr/share/i18n/charmaps/ISO-8859-8.gz
--- replaced obj /usr/share/i18n/charmaps/ISO-8859-7.gz
--- replaced obj /usr/share/i18n/charmaps/ISO-8859-6.gz
--- replaced obj /usr/share/i18n/charmaps/ISO-8859-5.gz
--- replaced obj /usr/share/i18n/charmaps/ISO-8859-4.gz
--- replaced obj /usr/share/i18n/charmaps/ISO-8859-3.gz
--- replaced obj /usr/share/i18n/charmaps/ISO-8859-2.gz
--- replaced obj /usr/share/i18n/charmaps/ISO-8859-16.gz
--- replaced obj /usr/share/i18n/charmaps/ISO-8859-15.gz
--- replaced obj /usr/share/i18n/charmaps/ISO-8859-14.gz
--- replaced obj /usr/share/i18n/charmaps/ISO-8859-13.gz
--- replaced obj /usr/share/i18n/charmaps/ISO-8859-11.gz
--- replaced obj /usr/share/i18n/charmaps/ISO-8859-10.gz
--- replaced obj /usr/share/i18n/charmaps/ISO-8859-1.gz
--- replaced obj /usr/share/i18n/charmaps/ISIRI-3342.gz
--- replaced obj /usr/share/i18n/charmaps/INVARIANT.gz
--- replaced obj /usr/share/i18n/charmaps/INIS.gz
--- replaced obj /usr/share/i18n/charmaps/INIS-CYRILLIC.gz
--- replaced obj /usr/share/i18n/charmaps/INIS-8.gz
--- replaced obj /usr/share/i18n/charmaps/IEC_P27-1.gz
--- replaced obj /usr/share/i18n/charmaps/IBM922.gz
--- replaced obj /usr/share/i18n/charmaps/IBM918.gz
--- replaced obj /usr/share/i18n/charmaps/IBM905.gz
--- replaced obj /usr/share/i18n/charmaps/IBM904.gz
--- replaced obj /usr/share/i18n/charmaps/IBM903.gz
--- replaced obj /usr/share/i18n/charmaps/IBM891.gz
--- replaced obj /usr/share/i18n/charmaps/IBM880.gz
--- replaced obj /usr/share/i18n/charmaps/IBM875.gz
--- replaced obj /usr/share/i18n/charmaps/IBM874.gz
--- replaced obj /usr/share/i18n/charmaps/IBM871.gz
--- replaced obj /usr/share/i18n/charmaps/IBM870.gz
--- replaced obj /usr/share/i18n/charmaps/IBM869.gz
--- replaced obj /usr/share/i18n/charmaps/IBM868.gz
--- replaced obj /usr/share/i18n/charmaps/IBM866NAV.gz
--- replaced obj /usr/share/i18n/charmaps/IBM866.gz
--- replaced obj /usr/share/i18n/charmaps/IBM865.gz
--- replaced obj /usr/share/i18n/charmaps/IBM864.gz
--- replaced obj /usr/share/i18n/charmaps/IBM863.gz
--- replaced obj /usr/share/i18n/charmaps/IBM862.gz
--- replaced obj /usr/share/i18n/charmaps/IBM861.gz
--- replaced obj /usr/share/i18n/charmaps/IBM860.gz
--- replaced obj /usr/share/i18n/charmaps/IBM858.gz
--- replaced obj /usr/share/i18n/charmaps/IBM857.gz
--- replaced obj /usr/share/i18n/charmaps/IBM856.gz
--- replaced obj /usr/share/i18n/charmaps/IBM855.gz
--- replaced obj /usr/share/i18n/charmaps/IBM852.gz
--- replaced obj /usr/share/i18n/charmaps/IBM851.gz
--- replaced obj /usr/share/i18n/charmaps/IBM850.gz
--- replaced obj /usr/share/i18n/charmaps/IBM500.gz
--- replaced obj /usr/share/i18n/charmaps/IBM437.gz
--- replaced obj /usr/share/i18n/charmaps/IBM424.gz
--- replaced obj /usr/share/i18n/charmaps/IBM423.gz
--- replaced obj /usr/share/i18n/charmaps/IBM420.gz
--- replaced obj /usr/share/i18n/charmaps/IBM297.gz
--- replaced obj /usr/share/i18n/charmaps/IBM290.gz
--- replaced obj /usr/share/i18n/charmaps/IBM285.gz
--- replaced obj /usr/share/i18n/charmaps/IBM284.gz
--- replaced obj /usr/share/i18n/charmaps/IBM281.gz
--- replaced obj /usr/share/i18n/charmaps/IBM280.gz
--- replaced obj /usr/share/i18n/charmaps/IBM278.gz
--- replaced obj /usr/share/i18n/charmaps/IBM277.gz
--- replaced obj /usr/share/i18n/charmaps/IBM275.gz
--- replaced obj /usr/share/i18n/charmaps/IBM274.gz
--- replaced obj /usr/share/i18n/charmaps/IBM273.gz
--- replaced obj /usr/share/i18n/charmaps/IBM256.gz
--- replaced obj /usr/share/i18n/charmaps/IBM1164.gz
--- replaced obj /usr/share/i18n/charmaps/IBM1163.gz
--- replaced obj /usr/share/i18n/charmaps/IBM1162.gz
--- replaced obj /usr/share/i18n/charmaps/IBM1161.gz
--- replaced obj /usr/share/i18n/charmaps/IBM1160.gz
--- replaced obj /usr/share/i18n/charmaps/IBM1133.gz
--- replaced obj /usr/share/i18n/charmaps/IBM1132.gz
--- replaced obj /usr/share/i18n/charmaps/IBM1129.gz
--- replaced obj /usr/share/i18n/charmaps/IBM1124.gz
--- replaced obj /usr/share/i18n/charmaps/IBM1047.gz
--- replaced obj /usr/share/i18n/charmaps/IBM1026.gz
--- replaced obj /usr/share/i18n/charmaps/IBM1004.gz
--- replaced obj /usr/share/i18n/charmaps/IBM038.gz
--- replaced obj /usr/share/i18n/charmaps/IBM037.gz
--- replaced obj /usr/share/i18n/charmaps/HP-TURKISH8.gz
--- replaced obj /usr/share/i18n/charmaps/HP-THAI8.gz
--- replaced obj /usr/share/i18n/charmaps/HP-ROMAN9.gz
--- replaced obj /usr/share/i18n/charmaps/HP-ROMAN8.gz
--- replaced obj /usr/share/i18n/charmaps/HP-GREEK8.gz
--- replaced obj /usr/share/i18n/charmaps/GREEK7.gz
--- replaced obj /usr/share/i18n/charmaps/GREEK7-OLD.gz
--- replaced obj /usr/share/i18n/charmaps/GREEK-CCITT.gz
--- replaced obj /usr/share/i18n/charmaps/GOST_19768-74.gz
--- replaced obj /usr/share/i18n/charmaps/GEORGIAN-PS.gz
--- replaced obj /usr/share/i18n/charmaps/GEORGIAN-ACADEMY.gz
--- replaced obj /usr/share/i18n/charmaps/GB_1988-80.gz
--- replaced obj /usr/share/i18n/charmaps/GBK.gz
--- replaced obj /usr/share/i18n/charmaps/GB2312.gz
--- replaced obj /usr/share/i18n/charmaps/GB18030.gz
--- replaced obj /usr/share/i18n/charmaps/EUC-TW.gz
--- replaced obj /usr/share/i18n/charmaps/EUC-KR.gz
--- replaced obj /usr/share/i18n/charmaps/EUC-JP.gz
--- replaced obj /usr/share/i18n/charmaps/EUC-JP-MS.gz
--- replaced obj /usr/share/i18n/charmaps/EUC-JISX0213.gz
--- replaced obj /usr/share/i18n/charmaps/ES2.gz
--- replaced obj /usr/share/i18n/charmaps/ES.gz
--- replaced obj /usr/share/i18n/charmaps/ECMA-CYRILLIC.gz
--- replaced obj /usr/share/i18n/charmaps/EBCDIC-US.gz
--- replaced obj /usr/share/i18n/charmaps/EBCDIC-UK.gz
--- replaced obj /usr/share/i18n/charmaps/EBCDIC-PT.gz
--- replaced obj /usr/share/i18n/charmaps/EBCDIC-IT.gz
--- replaced obj /usr/share/i18n/charmaps/EBCDIC-IS-FRISS.gz
--- replaced obj /usr/share/i18n/charmaps/EBCDIC-FR.gz
--- replaced obj /usr/share/i18n/charmaps/EBCDIC-FI-SE.gz
--- replaced obj /usr/share/i18n/charmaps/EBCDIC-FI-SE-A.gz
--- replaced obj /usr/share/i18n/charmaps/EBCDIC-ES.gz
--- replaced obj /usr/share/i18n/charmaps/EBCDIC-ES-S.gz
--- replaced obj /usr/share/i18n/charmaps/EBCDIC-ES-A.gz
--- replaced obj /usr/share/i18n/charmaps/EBCDIC-DK-NO.gz
--- replaced obj /usr/share/i18n/charmaps/EBCDIC-DK-NO-A.gz
--- replaced obj /usr/share/i18n/charmaps/EBCDIC-CA-FR.gz
--- replaced obj /usr/share/i18n/charmaps/EBCDIC-AT-DE.gz
--- replaced obj /usr/share/i18n/charmaps/EBCDIC-AT-DE-A.gz
--- replaced obj /usr/share/i18n/charmaps/DS_2089.gz
--- replaced obj /usr/share/i18n/charmaps/DIN_66003.gz
--- replaced obj /usr/share/i18n/charmaps/DEC-MCS.gz
--- replaced obj /usr/share/i18n/charmaps/CWI.gz
--- replaced obj /usr/share/i18n/charmaps/CSN_369103.gz
--- replaced obj /usr/share/i18n/charmaps/CSA_Z243.4-1985-GR.gz
--- replaced obj /usr/share/i18n/charmaps/CSA_Z243.4-1985-2.gz
--- replaced obj /usr/share/i18n/charmaps/CSA_Z243.4-1985-1.gz
--- replaced obj /usr/share/i18n/charmaps/CP949.gz
--- replaced obj /usr/share/i18n/charmaps/CP775.gz
--- replaced obj /usr/share/i18n/charmaps/CP774.gz
--- replaced obj /usr/share/i18n/charmaps/CP773.gz
--- replaced obj /usr/share/i18n/charmaps/CP772.gz
--- replaced obj /usr/share/i18n/charmaps/CP771.gz
--- replaced obj /usr/share/i18n/charmaps/CP770.gz
--- replaced obj /usr/share/i18n/charmaps/CP737.gz
--- replaced obj /usr/share/i18n/charmaps/CP1258.gz
--- replaced obj /usr/share/i18n/charmaps/CP1257.gz
--- replaced obj /usr/share/i18n/charmaps/CP1256.gz
--- replaced obj /usr/share/i18n/charmaps/CP1255.gz
--- replaced obj /usr/share/i18n/charmaps/CP1254.gz
--- replaced obj /usr/share/i18n/charmaps/CP1253.gz
--- replaced obj /usr/share/i18n/charmaps/CP1252.gz
--- replaced obj /usr/share/i18n/charmaps/CP1251.gz
--- replaced obj /usr/share/i18n/charmaps/CP1250.gz
--- replaced obj /usr/share/i18n/charmaps/CP1125.gz
--- replaced obj /usr/share/i18n/charmaps/CP10007.gz
--- replaced obj /usr/share/i18n/charmaps/BS_VIEWDATA.gz
--- replaced obj /usr/share/i18n/charmaps/BS_4730.gz
--- replaced obj /usr/share/i18n/charmaps/BRF.gz
--- replaced obj /usr/share/i18n/charmaps/BIG5.gz
--- replaced obj /usr/share/i18n/charmaps/BIG5-HKSCS.gz
--- replaced obj /usr/share/i18n/charmaps/ASMO_449.gz
--- replaced obj /usr/share/i18n/charmaps/ARMSCII-8.gz
--- replaced obj /usr/share/i18n/charmaps/ANSI_X3.4-1968.gz
--- replaced obj /usr/share/i18n/charmaps/ANSI_X3.110-1983.gz
--- replaced dir /usr/share/i18n/charmaps
--- replaced obj /usr/share/i18n/SUPPORTED
--- replaced dir /usr/share/i18n
--- replaced dir /usr/share
--- replaced obj /usr/sbin/nscd
--- replaced obj /usr/sbin/locale-gen
--- replaced obj /usr/sbin/iconvconfig
--- replaced dir /usr/sbin
--- replaced obj /usr/lib64/misc/glibc/getconf/XBS5_LP64_OFF64
--- replaced obj /usr/lib64/misc/glibc/getconf/POSIX_V7_LP64_OFF64
--- replaced obj /usr/lib64/misc/glibc/getconf/POSIX_V6_LP64_OFF64
--- replaced dir /usr/lib64/misc/glibc/getconf
--- replaced dir /usr/lib64/misc/glibc
--- replaced dir /usr/lib64/misc
--- replaced obj /usr/lib64/locale/.keep_sys-libs_glibc-2.2
--- replaced dir /usr/lib64/locale
--- replaced obj /usr/lib64/libutil_p.a
--- replaced sym /usr/lib64/libutil.so
--- replaced obj /usr/lib64/libutil.a
--- replaced sym /usr/lib64/libthread_db.so
--- replaced obj /usr/lib64/librt_p.a
--- replaced sym /usr/lib64/librt.so
--- replaced obj /usr/lib64/librt.a
--- replaced obj /usr/lib64/libresolv_p.a
--- replaced sym /usr/lib64/libresolv.so
--- replaced obj /usr/lib64/libresolv.a
--- replaced obj /usr/lib64/libpthread_p.a
--- replaced sym /usr/lib64/libpthread.so
--- replaced obj /usr/lib64/libpthread.a
--- replaced sym /usr/lib64/libnss_hesiod.so
--- replaced sym /usr/lib64/libnss_files.so
--- replaced sym /usr/lib64/libnss_dns.so
--- replaced sym /usr/lib64/libnss_db.so
--- replaced sym /usr/lib64/libnss_compat.so
--- replaced obj /usr/lib64/libmvec_p.a
--- replaced sym /usr/lib64/libmvec.so
--- replaced obj /usr/lib64/libmvec.a
--- replaced obj /usr/lib64/libmcheck.a
--- replaced obj /usr/lib64/libm_p.a
--- replaced obj /usr/lib64/libm.so
--- replaced obj /usr/lib64/libm.a
--- replaced obj /usr/lib64/libg.a
--- replaced obj /usr/lib64/libdl_p.a
--- replaced sym /usr/lib64/libdl.so
--- replaced obj /usr/lib64/libdl.a
--- replaced obj /usr/lib64/libcrypt_p.a
--- replaced sym /usr/lib64/libcrypt.so
--- replaced obj /usr/lib64/libcrypt.a
--- replaced obj /usr/lib64/libc_p.a
--- replaced obj /usr/lib64/libc_nonshared.a
--- replaced obj /usr/lib64/libc.so
--- replaced obj /usr/lib64/libc.a
--- replaced obj /usr/lib64/libanl_p.a
--- replaced sym /usr/lib64/libanl.so
--- replaced obj /usr/lib64/libanl.a
--- replaced obj /usr/lib64/libBrokenLocale_p.a
--- replaced sym /usr/lib64/libBrokenLocale.so
--- replaced obj /usr/lib64/libBrokenLocale.a
--- replaced obj /usr/lib64/glibc-2.31/libm-2.31.a
--- replaced dir /usr/lib64/glibc-2.31
--- replaced obj /usr/lib64/gcrt1.o
--- replaced obj /usr/lib64/gconv/libKSC.so
--- replaced obj /usr/lib64/gconv/libJISX0213.so
--- replaced obj /usr/lib64/gconv/libJIS.so
--- replaced obj /usr/lib64/gconv/libISOIR165.so
--- replaced obj /usr/lib64/gconv/libGB.so
--- replaced obj /usr/lib64/gconv/libCNS.so
--- replaced obj /usr/lib64/gconv/gconv-modules
--- replaced obj /usr/lib64/gconv/VISCII.so
--- replaced obj /usr/lib64/gconv/UTF-7.so
--- replaced obj /usr/lib64/gconv/UTF-32.so
--- replaced obj /usr/lib64/gconv/UTF-16.so
--- replaced obj /usr/lib64/gconv/UNICODE.so
--- replaced obj /usr/lib64/gconv/UHC.so
--- replaced obj /usr/lib64/gconv/TSCII.so
--- replaced obj /usr/lib64/gconv/TIS-620.so
--- replaced obj /usr/lib64/gconv/TCVN5712-1.so
--- replaced obj /usr/lib64/gconv/T.61.so
--- replaced obj /usr/lib64/gconv/SJIS.so
--- replaced obj /usr/lib64/gconv/SHIFT_JISX0213.so
--- replaced obj /usr/lib64/gconv/SAMI-WS2.so
--- replaced obj /usr/lib64/gconv/RK1048.so
--- replaced obj /usr/lib64/gconv/PT154.so
--- replaced obj /usr/lib64/gconv/NATS-SEFI.so
--- replaced obj /usr/lib64/gconv/NATS-DANO.so
--- replaced obj /usr/lib64/gconv/MIK.so
--- replaced obj /usr/lib64/gconv/MACINTOSH.so
--- replaced obj /usr/lib64/gconv/MAC-UK.so
--- replaced obj /usr/lib64/gconv/MAC-SAMI.so
--- replaced obj /usr/lib64/gconv/MAC-IS.so
--- replaced obj /usr/lib64/gconv/MAC-CENTRALEUROPE.so
--- replaced obj /usr/lib64/gconv/LATIN-GREEK.so
--- replaced obj /usr/lib64/gconv/LATIN-GREEK-1.so
--- replaced obj /usr/lib64/gconv/KOI8-U.so
--- replaced obj /usr/lib64/gconv/KOI8-T.so
--- replaced obj /usr/lib64/gconv/KOI8-RU.so
--- replaced obj /usr/lib64/gconv/KOI8-R.so
--- replaced obj /usr/lib64/gconv/KOI-8.so
--- replaced obj /usr/lib64/gconv/JOHAB.so
--- replaced obj /usr/lib64/gconv/ISO_6937.so
--- replaced obj /usr/lib64/gconv/ISO_6937-2.so
--- replaced obj /usr/lib64/gconv/ISO_5428.so
--- replaced obj /usr/lib64/gconv/ISO_5427.so
--- replaced obj /usr/lib64/gconv/ISO_5427-EXT.so
--- replaced obj /usr/lib64/gconv/ISO_2033.so
--- replaced obj /usr/lib64/gconv/ISO_11548-1.so
--- replaced obj /usr/lib64/gconv/ISO_10367-BOX.so
--- replaced obj /usr/lib64/gconv/ISO8859-9E.so
--- replaced obj /usr/lib64/gconv/ISO8859-9.so
--- replaced obj /usr/lib64/gconv/ISO8859-8.so
--- replaced obj /usr/lib64/gconv/ISO8859-7.so
--- replaced obj /usr/lib64/gconv/ISO8859-6.so
--- replaced obj /usr/lib64/gconv/ISO8859-5.so
--- replaced obj /usr/lib64/gconv/ISO8859-4.so
--- replaced obj /usr/lib64/gconv/ISO8859-3.so
--- replaced obj /usr/lib64/gconv/ISO8859-2.so
--- replaced obj /usr/lib64/gconv/ISO8859-16.so
--- replaced obj /usr/lib64/gconv/ISO8859-15.so
--- replaced obj /usr/lib64/gconv/ISO8859-14.so
--- replaced obj /usr/lib64/gconv/ISO8859-13.so
--- replaced obj /usr/lib64/gconv/ISO8859-11.so
--- replaced obj /usr/lib64/gconv/ISO8859-10.so
--- replaced obj /usr/lib64/gconv/ISO8859-1.so
--- replaced obj /usr/lib64/gconv/ISO646.so
--- replaced obj /usr/lib64/gconv/ISO-IR-209.so
--- replaced obj /usr/lib64/gconv/ISO-IR-197.so
--- replaced obj /usr/lib64/gconv/ISO-2022-KR.so
--- replaced obj /usr/lib64/gconv/ISO-2022-JP.so
--- replaced obj /usr/lib64/gconv/ISO-2022-JP-3.so
--- replaced obj /usr/lib64/gconv/ISO-2022-CN.so
--- replaced obj /usr/lib64/gconv/ISO-2022-CN-EXT.so
--- replaced obj /usr/lib64/gconv/ISIRI-3342.so
--- replaced obj /usr/lib64/gconv/INIS.so
--- replaced obj /usr/lib64/gconv/INIS-CYRILLIC.so
--- replaced obj /usr/lib64/gconv/INIS-8.so
--- replaced obj /usr/lib64/gconv/IEC_P27-1.so
--- replaced obj /usr/lib64/gconv/IBM9448.so
--- replaced obj /usr/lib64/gconv/IBM943.so
--- replaced obj /usr/lib64/gconv/IBM939.so
--- replaced obj /usr/lib64/gconv/IBM937.so
--- replaced obj /usr/lib64/gconv/IBM935.so
--- replaced obj /usr/lib64/gconv/IBM933.so
--- replaced obj /usr/lib64/gconv/IBM932.so
--- replaced obj /usr/lib64/gconv/IBM930.so
--- replaced obj /usr/lib64/gconv/IBM922.so
--- replaced obj /usr/lib64/gconv/IBM921.so
--- replaced obj /usr/lib64/gconv/IBM918.so
--- replaced obj /usr/lib64/gconv/IBM9066.so
--- replaced obj /usr/lib64/gconv/IBM905.so
--- replaced obj /usr/lib64/gconv/IBM904.so
--- replaced obj /usr/lib64/gconv/IBM9030.so
--- replaced obj /usr/lib64/gconv/IBM903.so
--- replaced obj /usr/lib64/gconv/IBM902.so
--- replaced obj /usr/lib64/gconv/IBM901.so
--- replaced obj /usr/lib64/gconv/IBM891.so
--- replaced obj /usr/lib64/gconv/IBM880.so
--- replaced obj /usr/lib64/gconv/IBM875.so
--- replaced obj /usr/lib64/gconv/IBM874.so
--- replaced obj /usr/lib64/gconv/IBM871.so
--- replaced obj /usr/lib64/gconv/IBM870.so
--- replaced obj /usr/lib64/gconv/IBM869.so
--- replaced obj /usr/lib64/gconv/IBM868.so
--- replaced obj /usr/lib64/gconv/IBM866NAV.so
--- replaced obj /usr/lib64/gconv/IBM866.so
--- replaced obj /usr/lib64/gconv/IBM865.so
--- replaced obj /usr/lib64/gconv/IBM864.so
--- replaced obj /usr/lib64/gconv/IBM863.so
--- replaced obj /usr/lib64/gconv/IBM862.so
--- replaced obj /usr/lib64/gconv/IBM861.so
--- replaced obj /usr/lib64/gconv/IBM860.so
--- replaced obj /usr/lib64/gconv/IBM858.so
--- replaced obj /usr/lib64/gconv/IBM857.so
--- replaced obj /usr/lib64/gconv/IBM856.so
--- replaced obj /usr/lib64/gconv/IBM855.so
--- replaced obj /usr/lib64/gconv/IBM852.so
--- replaced obj /usr/lib64/gconv/IBM851.so
--- replaced obj /usr/lib64/gconv/IBM850.so
--- replaced obj /usr/lib64/gconv/IBM803.so
--- replaced obj /usr/lib64/gconv/IBM5347.so
--- replaced obj /usr/lib64/gconv/IBM500.so
--- replaced obj /usr/lib64/gconv/IBM4971.so
--- replaced obj /usr/lib64/gconv/IBM4909.so
--- replaced obj /usr/lib64/gconv/IBM4899.so
--- replaced obj /usr/lib64/gconv/IBM4517.so
--- replaced obj /usr/lib64/gconv/IBM437.so
--- replaced obj /usr/lib64/gconv/IBM424.so
--- replaced obj /usr/lib64/gconv/IBM423.so
--- replaced obj /usr/lib64/gconv/IBM420.so
--- replaced obj /usr/lib64/gconv/IBM297.so
--- replaced obj /usr/lib64/gconv/IBM290.so
--- replaced obj /usr/lib64/gconv/IBM285.so
--- replaced obj /usr/lib64/gconv/IBM284.so
--- replaced obj /usr/lib64/gconv/IBM281.so
--- replaced obj /usr/lib64/gconv/IBM280.so
--- replaced obj /usr/lib64/gconv/IBM278.so
--- replaced obj /usr/lib64/gconv/IBM277.so
--- replaced obj /usr/lib64/gconv/IBM275.so
--- replaced obj /usr/lib64/gconv/IBM274.so
--- replaced obj /usr/lib64/gconv/IBM273.so
--- replaced obj /usr/lib64/gconv/IBM256.so
--- replaced obj /usr/lib64/gconv/IBM16804.so
--- replaced obj /usr/lib64/gconv/IBM1399.so
--- replaced obj /usr/lib64/gconv/IBM1390.so
--- replaced obj /usr/lib64/gconv/IBM1388.so
--- replaced obj /usr/lib64/gconv/IBM1371.so
--- replaced obj /usr/lib64/gconv/IBM1364.so
--- replaced obj /usr/lib64/gconv/IBM12712.so
--- replaced obj /usr/lib64/gconv/IBM1167.so
--- replaced obj /usr/lib64/gconv/IBM1166.so
--- replaced obj /usr/lib64/gconv/IBM1164.so
--- replaced obj /usr/lib64/gconv/IBM1163.so
--- replaced obj /usr/lib64/gconv/IBM1162.so
--- replaced obj /usr/lib64/gconv/IBM1161.so
--- replaced obj /usr/lib64/gconv/IBM1160.so
--- replaced obj /usr/lib64/gconv/IBM1158.so
--- replaced obj /usr/lib64/gconv/IBM1157.so
--- replaced obj /usr/lib64/gconv/IBM1156.so
--- replaced obj /usr/lib64/gconv/IBM1155.so
--- replaced obj /usr/lib64/gconv/IBM1154.so
--- replaced obj /usr/lib64/gconv/IBM1153.so
--- replaced obj /usr/lib64/gconv/IBM1149.so
--- replaced obj /usr/lib64/gconv/IBM1148.so
--- replaced obj /usr/lib64/gconv/IBM1147.so
--- replaced obj /usr/lib64/gconv/IBM1146.so
--- replaced obj /usr/lib64/gconv/IBM1145.so
--- replaced obj /usr/lib64/gconv/IBM1144.so
--- replaced obj /usr/lib64/gconv/IBM1143.so
--- replaced obj /usr/lib64/gconv/IBM1142.so
--- replaced obj /usr/lib64/gconv/IBM1141.so
--- replaced obj /usr/lib64/gconv/IBM1140.so
--- replaced obj /usr/lib64/gconv/IBM1137.so
--- replaced obj /usr/lib64/gconv/IBM1133.so
--- replaced obj /usr/lib64/gconv/IBM1132.so
--- replaced obj /usr/lib64/gconv/IBM1130.so
--- replaced obj /usr/lib64/gconv/IBM1129.so
--- replaced obj /usr/lib64/gconv/IBM1124.so
--- replaced obj /usr/lib64/gconv/IBM1123.so
--- replaced obj /usr/lib64/gconv/IBM1122.so
--- replaced obj /usr/lib64/gconv/IBM1112.so
--- replaced obj /usr/lib64/gconv/IBM1097.so
--- replaced obj /usr/lib64/gconv/IBM1047.so
--- replaced obj /usr/lib64/gconv/IBM1046.so
--- replaced obj /usr/lib64/gconv/IBM1026.so
--- replaced obj /usr/lib64/gconv/IBM1025.so
--- replaced obj /usr/lib64/gconv/IBM1008_420.so
--- replaced obj /usr/lib64/gconv/IBM1008.so
--- replaced obj /usr/lib64/gconv/IBM1004.so
--- replaced obj /usr/lib64/gconv/IBM038.so
--- replaced obj /usr/lib64/gconv/IBM037.so
--- replaced obj /usr/lib64/gconv/HP-TURKISH8.so
--- replaced obj /usr/lib64/gconv/HP-THAI8.so
--- replaced obj /usr/lib64/gconv/HP-ROMAN9.so
--- replaced obj /usr/lib64/gconv/HP-ROMAN8.so
--- replaced obj /usr/lib64/gconv/HP-GREEK8.so
--- replaced obj /usr/lib64/gconv/GREEK7.so
--- replaced obj /usr/lib64/gconv/GREEK7-OLD.so
--- replaced obj /usr/lib64/gconv/GREEK-CCITT.so
--- replaced obj /usr/lib64/gconv/GOST_19768-74.so
--- replaced obj /usr/lib64/gconv/GEORGIAN-PS.so
--- replaced obj /usr/lib64/gconv/GEORGIAN-ACADEMY.so
--- replaced obj /usr/lib64/gconv/GBK.so
--- replaced obj /usr/lib64/gconv/GBGBK.so
--- replaced obj /usr/lib64/gconv/GBBIG5.so
--- replaced obj /usr/lib64/gconv/GB18030.so
--- replaced obj /usr/lib64/gconv/EUC-TW.so
--- replaced obj /usr/lib64/gconv/EUC-KR.so
--- replaced obj /usr/lib64/gconv/EUC-JP.so
--- replaced obj /usr/lib64/gconv/EUC-JP-MS.so
--- replaced obj /usr/lib64/gconv/EUC-JISX0213.so
--- replaced obj /usr/lib64/gconv/EUC-CN.so
--- replaced obj /usr/lib64/gconv/ECMA-CYRILLIC.so
--- replaced obj /usr/lib64/gconv/EBCDIC-US.so
--- replaced obj /usr/lib64/gconv/EBCDIC-UK.so
--- replaced obj /usr/lib64/gconv/EBCDIC-PT.so
--- replaced obj /usr/lib64/gconv/EBCDIC-IT.so
--- replaced obj /usr/lib64/gconv/EBCDIC-IS-FRISS.so
--- replaced obj /usr/lib64/gconv/EBCDIC-FR.so
--- replaced obj /usr/lib64/gconv/EBCDIC-FI-SE.so
--- replaced obj /usr/lib64/gconv/EBCDIC-FI-SE-A.so
--- replaced obj /usr/lib64/gconv/EBCDIC-ES.so
--- replaced obj /usr/lib64/gconv/EBCDIC-ES-S.so
--- replaced obj /usr/lib64/gconv/EBCDIC-ES-A.so
--- replaced obj /usr/lib64/gconv/EBCDIC-DK-NO.so
--- replaced obj /usr/lib64/gconv/EBCDIC-DK-NO-A.so
--- replaced obj /usr/lib64/gconv/EBCDIC-CA-FR.so
--- replaced obj /usr/lib64/gconv/EBCDIC-AT-DE.so
--- replaced obj /usr/lib64/gconv/EBCDIC-AT-DE-A.so
--- replaced obj /usr/lib64/gconv/DEC-MCS.so
--- replaced obj /usr/lib64/gconv/CWI.so
--- replaced obj /usr/lib64/gconv/CSN_369103.so
--- replaced obj /usr/lib64/gconv/CP932.so
--- replaced obj /usr/lib64/gconv/CP775.so
--- replaced obj /usr/lib64/gconv/CP774.so
--- replaced obj /usr/lib64/gconv/CP773.so
--- replaced obj /usr/lib64/gconv/CP772.so
--- replaced obj /usr/lib64/gconv/CP771.so
--- replaced obj /usr/lib64/gconv/CP770.so
--- replaced obj /usr/lib64/gconv/CP737.so
--- replaced obj /usr/lib64/gconv/CP1258.so
--- replaced obj /usr/lib64/gconv/CP1257.so
--- replaced obj /usr/lib64/gconv/CP1256.so
--- replaced obj /usr/lib64/gconv/CP1255.so
--- replaced obj /usr/lib64/gconv/CP1254.so
--- replaced obj /usr/lib64/gconv/CP1253.so
--- replaced obj /usr/lib64/gconv/CP1252.so
--- replaced obj /usr/lib64/gconv/CP1251.so
--- replaced obj /usr/lib64/gconv/CP1250.so
--- replaced obj /usr/lib64/gconv/CP1125.so
--- replaced obj /usr/lib64/gconv/CP10007.so
--- replaced obj /usr/lib64/gconv/BRF.so
--- replaced obj /usr/lib64/gconv/BIG5HKSCS.so
--- replaced obj /usr/lib64/gconv/BIG5.so
--- replaced obj /usr/lib64/gconv/ASMO_449.so
--- replaced obj /usr/lib64/gconv/ARMSCII-8.so
--- replaced obj /usr/lib64/gconv/ANSI_X3.110.so
--- replaced dir /usr/lib64/gconv
--- replaced obj /usr/lib64/crtn.o
--- replaced obj /usr/lib64/crti.o
--- replaced obj /usr/lib64/crt1.o
--- replaced obj /usr/lib64/audit/sotruss-lib.so
--- replaced dir /usr/lib64/audit
--- replaced obj /usr/lib64/Scrt1.o
--- replaced obj /usr/lib64/Mcrt1.o
--- replaced dir /usr/lib64
--- replaced obj /usr/lib/tmpfiles.d/nscd.conf
--- replaced dir /usr/lib/tmpfiles.d
--- replaced obj /usr/lib/misc/glibc/getconf/XBS5_ILP32_OFFBIG
--- replaced obj /usr/lib/misc/glibc/getconf/XBS5_ILP32_OFF32
--- replaced obj /usr/lib/misc/glibc/getconf/POSIX_V7_ILP32_OFFBIG
--- replaced obj /usr/lib/misc/glibc/getconf/POSIX_V7_ILP32_OFF32
--- replaced obj /usr/lib/misc/glibc/getconf/POSIX_V6_ILP32_OFFBIG
--- replaced obj /usr/lib/misc/glibc/getconf/POSIX_V6_ILP32_OFF32
--- replaced dir /usr/lib/misc/glibc/getconf
--- replaced dir /usr/lib/misc/glibc
--- replaced dir /usr/lib/misc
--- replaced sym /usr/lib/locale
--- replaced obj /usr/lib/libutil_p.a
--- replaced sym /usr/lib/libutil.so
--- replaced obj /usr/lib/libutil.a
--- replaced sym /usr/lib/libthread_db.so
--- replaced obj /usr/lib/librt_p.a
--- replaced sym /usr/lib/librt.so
--- replaced obj /usr/lib/librt.a
--- replaced obj /usr/lib/libresolv_p.a
--- replaced sym /usr/lib/libresolv.so
--- replaced obj /usr/lib/libresolv.a
--- replaced obj /usr/lib/libpthread_p.a
--- replaced sym /usr/lib/libpthread.so
--- replaced obj /usr/lib/libpthread.a
--- replaced sym /usr/lib/libnss_hesiod.so
--- replaced sym /usr/lib/libnss_files.so
--- replaced sym /usr/lib/libnss_dns.so
--- replaced sym /usr/lib/libnss_db.so
--- replaced sym /usr/lib/libnss_compat.so
--- replaced obj /usr/lib/libmcheck.a
--- replaced obj /usr/lib/libm_p.a
--- replaced sym /usr/lib/libm.so
--- replaced obj /usr/lib/libm.a
--- replaced obj /usr/lib/libg.a
--- replaced obj /usr/lib/libdl_p.a
--- replaced sym /usr/lib/libdl.so
--- replaced obj /usr/lib/libdl.a
--- replaced obj /usr/lib/libcrypt_p.a
--- replaced sym /usr/lib/libcrypt.so
--- replaced obj /usr/lib/libcrypt.a
--- replaced obj /usr/lib/libc_p.a
--- replaced obj /usr/lib/libc_nonshared.a
--- replaced obj /usr/lib/libc.so
--- replaced obj /usr/lib/libc.a
--- replaced obj /usr/lib/libanl_p.a
--- replaced sym /usr/lib/libanl.so
--- replaced obj /usr/lib/libanl.a
--- replaced obj /usr/lib/libBrokenLocale_p.a
--- replaced sym /usr/lib/libBrokenLocale.so
--- replaced obj /usr/lib/libBrokenLocale.a
--- replaced obj /usr/lib/gcrt1.o
--- replaced obj /usr/lib/gconv/libKSC.so
--- replaced obj /usr/lib/gconv/libJISX0213.so
--- replaced obj /usr/lib/gconv/libJIS.so
--- replaced obj /usr/lib/gconv/libISOIR165.so
--- replaced obj /usr/lib/gconv/libGB.so
--- replaced obj /usr/lib/gconv/libCNS.so
--- replaced obj /usr/lib/gconv/gconv-modules
--- replaced obj /usr/lib/gconv/VISCII.so
--- replaced obj /usr/lib/gconv/UTF-7.so
--- replaced obj /usr/lib/gconv/UTF-32.so
--- replaced obj /usr/lib/gconv/UTF-16.so
--- replaced obj /usr/lib/gconv/UNICODE.so
--- replaced obj /usr/lib/gconv/UHC.so
--- replaced obj /usr/lib/gconv/TSCII.so
--- replaced obj /usr/lib/gconv/TIS-620.so
--- replaced obj /usr/lib/gconv/TCVN5712-1.so
--- replaced obj /usr/lib/gconv/T.61.so
--- replaced obj /usr/lib/gconv/SJIS.so
--- replaced obj /usr/lib/gconv/SHIFT_JISX0213.so
--- replaced obj /usr/lib/gconv/SAMI-WS2.so
--- replaced obj /usr/lib/gconv/RK1048.so
--- replaced obj /usr/lib/gconv/PT154.so
--- replaced obj /usr/lib/gconv/NATS-SEFI.so
--- replaced obj /usr/lib/gconv/NATS-DANO.so
--- replaced obj /usr/lib/gconv/MIK.so
--- replaced obj /usr/lib/gconv/MACINTOSH.so
--- replaced obj /usr/lib/gconv/MAC-UK.so
--- replaced obj /usr/lib/gconv/MAC-SAMI.so
--- replaced obj /usr/lib/gconv/MAC-IS.so
--- replaced obj /usr/lib/gconv/MAC-CENTRALEUROPE.so
--- replaced obj /usr/lib/gconv/LATIN-GREEK.so
--- replaced obj /usr/lib/gconv/LATIN-GREEK-1.so
--- replaced obj /usr/lib/gconv/KOI8-U.so
--- replaced obj /usr/lib/gconv/KOI8-T.so
--- replaced obj /usr/lib/gconv/KOI8-RU.so
--- replaced obj /usr/lib/gconv/KOI8-R.so
--- replaced obj /usr/lib/gconv/KOI-8.so
--- replaced obj /usr/lib/gconv/JOHAB.so
--- replaced obj /usr/lib/gconv/ISO_6937.so
--- replaced obj /usr/lib/gconv/ISO_6937-2.so
--- replaced obj /usr/lib/gconv/ISO_5428.so
--- replaced obj /usr/lib/gconv/ISO_5427.so
--- replaced obj /usr/lib/gconv/ISO_5427-EXT.so
--- replaced obj /usr/lib/gconv/ISO_2033.so
--- replaced obj /usr/lib/gconv/ISO_11548-1.so
--- replaced obj /usr/lib/gconv/ISO_10367-BOX.so
--- replaced obj /usr/lib/gconv/ISO8859-9E.so
--- replaced obj /usr/lib/gconv/ISO8859-9.so
--- replaced obj /usr/lib/gconv/ISO8859-8.so
--- replaced obj /usr/lib/gconv/ISO8859-7.so
--- replaced obj /usr/lib/gconv/ISO8859-6.so
--- replaced obj /usr/lib/gconv/ISO8859-5.so
--- replaced obj /usr/lib/gconv/ISO8859-4.so
--- replaced obj /usr/lib/gconv/ISO8859-3.so
--- replaced obj /usr/lib/gconv/ISO8859-2.so
--- replaced obj /usr/lib/gconv/ISO8859-16.so
--- replaced obj /usr/lib/gconv/ISO8859-15.so
--- replaced obj /usr/lib/gconv/ISO8859-14.so
--- replaced obj /usr/lib/gconv/ISO8859-13.so
--- replaced obj /usr/lib/gconv/ISO8859-11.so
--- replaced obj /usr/lib/gconv/ISO8859-10.so
--- replaced obj /usr/lib/gconv/ISO8859-1.so
--- replaced obj /usr/lib/gconv/ISO646.so
--- replaced obj /usr/lib/gconv/ISO-IR-209.so
--- replaced obj /usr/lib/gconv/ISO-IR-197.so
--- replaced obj /usr/lib/gconv/ISO-2022-KR.so
--- replaced obj /usr/lib/gconv/ISO-2022-JP.so
--- replaced obj /usr/lib/gconv/ISO-2022-JP-3.so
--- replaced obj /usr/lib/gconv/ISO-2022-CN.so
--- replaced obj /usr/lib/gconv/ISO-2022-CN-EXT.so
--- replaced obj /usr/lib/gconv/ISIRI-3342.so
--- replaced obj /usr/lib/gconv/INIS.so
--- replaced obj /usr/lib/gconv/INIS-CYRILLIC.so
--- replaced obj /usr/lib/gconv/INIS-8.so
--- replaced obj /usr/lib/gconv/IEC_P27-1.so
--- replaced obj /usr/lib/gconv/IBM9448.so
--- replaced obj /usr/lib/gconv/IBM943.so
--- replaced obj /usr/lib/gconv/IBM939.so
--- replaced obj /usr/lib/gconv/IBM937.so
--- replaced obj /usr/lib/gconv/IBM935.so
--- replaced obj /usr/lib/gconv/IBM933.so
--- replaced obj /usr/lib/gconv/IBM932.so
--- replaced obj /usr/lib/gconv/IBM930.so
--- replaced obj /usr/lib/gconv/IBM922.so
--- replaced obj /usr/lib/gconv/IBM921.so
--- replaced obj /usr/lib/gconv/IBM918.so
--- replaced obj /usr/lib/gconv/IBM9066.so
--- replaced obj /usr/lib/gconv/IBM905.so
--- replaced obj /usr/lib/gconv/IBM904.so
--- replaced obj /usr/lib/gconv/IBM9030.so
--- replaced obj /usr/lib/gconv/IBM903.so
--- replaced obj /usr/lib/gconv/IBM902.so
--- replaced obj /usr/lib/gconv/IBM901.so
--- replaced obj /usr/lib/gconv/IBM891.so
--- replaced obj /usr/lib/gconv/IBM880.so
--- replaced obj /usr/lib/gconv/IBM875.so
--- replaced obj /usr/lib/gconv/IBM874.so
--- replaced obj /usr/lib/gconv/IBM871.so
--- replaced obj /usr/lib/gconv/IBM870.so
--- replaced obj /usr/lib/gconv/IBM869.so
--- replaced obj /usr/lib/gconv/IBM868.so
--- replaced obj /usr/lib/gconv/IBM866NAV.so
--- replaced obj /usr/lib/gconv/IBM866.so
--- replaced obj /usr/lib/gconv/IBM865.so
--- replaced obj /usr/lib/gconv/IBM864.so
--- replaced obj /usr/lib/gconv/IBM863.so
--- replaced obj /usr/lib/gconv/IBM862.so
--- replaced obj /usr/lib/gconv/IBM861.so
--- replaced obj /usr/lib/gconv/IBM860.so
--- replaced obj /usr/lib/gconv/IBM858.so
--- replaced obj /usr/lib/gconv/IBM857.so
--- replaced obj /usr/lib/gconv/IBM856.so
--- replaced obj /usr/lib/gconv/IBM855.so
--- replaced obj /usr/lib/gconv/IBM852.so
--- replaced obj /usr/lib/gconv/IBM851.so
--- replaced obj /usr/lib/gconv/IBM850.so
--- replaced obj /usr/lib/gconv/IBM803.so
--- replaced obj /usr/lib/gconv/IBM5347.so
--- replaced obj /usr/lib/gconv/IBM500.so
--- replaced obj /usr/lib/gconv/IBM4971.so
--- replaced obj /usr/lib/gconv/IBM4909.so
--- replaced obj /usr/lib/gconv/IBM4899.so
--- replaced obj /usr/lib/gconv/IBM4517.so
--- replaced obj /usr/lib/gconv/IBM437.so
--- replaced obj /usr/lib/gconv/IBM424.so
--- replaced obj /usr/lib/gconv/IBM423.so
--- replaced obj /usr/lib/gconv/IBM420.so
--- replaced obj /usr/lib/gconv/IBM297.so
--- replaced obj /usr/lib/gconv/IBM290.so
--- replaced obj /usr/lib/gconv/IBM285.so
--- replaced obj /usr/lib/gconv/IBM284.so
--- replaced obj /usr/lib/gconv/IBM281.so
--- replaced obj /usr/lib/gconv/IBM280.so
--- replaced obj /usr/lib/gconv/IBM278.so
--- replaced obj /usr/lib/gconv/IBM277.so
--- replaced obj /usr/lib/gconv/IBM275.so
--- replaced obj /usr/lib/gconv/IBM274.so
--- replaced obj /usr/lib/gconv/IBM273.so
--- replaced obj /usr/lib/gconv/IBM256.so
--- replaced obj /usr/lib/gconv/IBM16804.so
--- replaced obj /usr/lib/gconv/IBM1399.so
--- replaced obj /usr/lib/gconv/IBM1390.so
--- replaced obj /usr/lib/gconv/IBM1388.so
--- replaced obj /usr/lib/gconv/IBM1371.so
--- replaced obj /usr/lib/gconv/IBM1364.so
--- replaced obj /usr/lib/gconv/IBM12712.so
--- replaced obj /usr/lib/gconv/IBM1167.so
--- replaced obj /usr/lib/gconv/IBM1166.so
--- replaced obj /usr/lib/gconv/IBM1164.so
--- replaced obj /usr/lib/gconv/IBM1163.so
--- replaced obj /usr/lib/gconv/IBM1162.so
--- replaced obj /usr/lib/gconv/IBM1161.so
--- replaced obj /usr/lib/gconv/IBM1160.so
--- replaced obj /usr/lib/gconv/IBM1158.so
--- replaced obj /usr/lib/gconv/IBM1157.so
--- replaced obj /usr/lib/gconv/IBM1156.so
--- replaced obj /usr/lib/gconv/IBM1155.so
--- replaced obj /usr/lib/gconv/IBM1154.so
--- replaced obj /usr/lib/gconv/IBM1153.so
--- replaced obj /usr/lib/gconv/IBM1149.so
--- replaced obj /usr/lib/gconv/IBM1148.so
--- replaced obj /usr/lib/gconv/IBM1147.so
--- replaced obj /usr/lib/gconv/IBM1146.so
--- replaced obj /usr/lib/gconv/IBM1145.so
--- replaced obj /usr/lib/gconv/IBM1144.so
--- replaced obj /usr/lib/gconv/IBM1143.so
--- replaced obj /usr/lib/gconv/IBM1142.so
--- replaced obj /usr/lib/gconv/IBM1141.so
--- replaced obj /usr/lib/gconv/IBM1140.so
--- replaced obj /usr/lib/gconv/IBM1137.so
--- replaced obj /usr/lib/gconv/IBM1133.so
--- replaced obj /usr/lib/gconv/IBM1132.so
--- replaced obj /usr/lib/gconv/IBM1130.so
--- replaced obj /usr/lib/gconv/IBM1129.so
--- replaced obj /usr/lib/gconv/IBM1124.so
--- replaced obj /usr/lib/gconv/IBM1123.so
--- replaced obj /usr/lib/gconv/IBM1122.so
--- replaced obj /usr/lib/gconv/IBM1112.so
--- replaced obj /usr/lib/gconv/IBM1097.so
--- replaced obj /usr/lib/gconv/IBM1047.so
--- replaced obj /usr/lib/gconv/IBM1046.so
--- replaced obj /usr/lib/gconv/IBM1026.so
--- replaced obj /usr/lib/gconv/IBM1025.so
--- replaced obj /usr/lib/gconv/IBM1008_420.so
--- replaced obj /usr/lib/gconv/IBM1008.so
--- replaced obj /usr/lib/gconv/IBM1004.so
--- replaced obj /usr/lib/gconv/IBM038.so
--- replaced obj /usr/lib/gconv/IBM037.so
--- replaced obj /usr/lib/gconv/HP-TURKISH8.so
--- replaced obj /usr/lib/gconv/HP-THAI8.so
--- replaced obj /usr/lib/gconv/HP-ROMAN9.so
--- replaced obj /usr/lib/gconv/HP-ROMAN8.so
--- replaced obj /usr/lib/gconv/HP-GREEK8.so
--- replaced obj /usr/lib/gconv/GREEK7.so
--- replaced obj /usr/lib/gconv/GREEK7-OLD.so
--- replaced obj /usr/lib/gconv/GREEK-CCITT.so
--- replaced obj /usr/lib/gconv/GOST_19768-74.so
--- replaced obj /usr/lib/gconv/GEORGIAN-PS.so
--- replaced obj /usr/lib/gconv/GEORGIAN-ACADEMY.so
--- replaced obj /usr/lib/gconv/GBK.so
--- replaced obj /usr/lib/gconv/GBGBK.so
--- replaced obj /usr/lib/gconv/GBBIG5.so
--- replaced obj /usr/lib/gconv/GB18030.so
--- replaced obj /usr/lib/gconv/EUC-TW.so
--- replaced obj /usr/lib/gconv/EUC-KR.so
--- replaced obj /usr/lib/gconv/EUC-JP.so
--- replaced obj /usr/lib/gconv/EUC-JP-MS.so
--- replaced obj /usr/lib/gconv/EUC-JISX0213.so
--- replaced obj /usr/lib/gconv/EUC-CN.so
--- replaced obj /usr/lib/gconv/ECMA-CYRILLIC.so
--- replaced obj /usr/lib/gconv/EBCDIC-US.so
--- replaced obj /usr/lib/gconv/EBCDIC-UK.so
--- replaced obj /usr/lib/gconv/EBCDIC-PT.so
--- replaced obj /usr/lib/gconv/EBCDIC-IT.so
--- replaced obj /usr/lib/gconv/EBCDIC-IS-FRISS.so
--- replaced obj /usr/lib/gconv/EBCDIC-FR.so
--- replaced obj /usr/lib/gconv/EBCDIC-FI-SE.so
--- replaced obj /usr/lib/gconv/EBCDIC-FI-SE-A.so
--- replaced obj /usr/lib/gconv/EBCDIC-ES.so
--- replaced obj /usr/lib/gconv/EBCDIC-ES-S.so
--- replaced obj /usr/lib/gconv/EBCDIC-ES-A.so
--- replaced obj /usr/lib/gconv/EBCDIC-DK-NO.so
--- replaced obj /usr/lib/gconv/EBCDIC-DK-NO-A.so
--- replaced obj /usr/lib/gconv/EBCDIC-CA-FR.so
--- replaced obj /usr/lib/gconv/EBCDIC-AT-DE.so
--- replaced obj /usr/lib/gconv/EBCDIC-AT-DE-A.so
--- replaced obj /usr/lib/gconv/DEC-MCS.so
--- replaced obj /usr/lib/gconv/CWI.so
--- replaced obj /usr/lib/gconv/CSN_369103.so
--- replaced obj /usr/lib/gconv/CP932.so
--- replaced obj /usr/lib/gconv/CP775.so
--- replaced obj /usr/lib/gconv/CP774.so
--- replaced obj /usr/lib/gconv/CP773.so
--- replaced obj /usr/lib/gconv/CP772.so
--- replaced obj /usr/lib/gconv/CP771.so
--- replaced obj /usr/lib/gconv/CP770.so
--- replaced obj /usr/lib/gconv/CP737.so
--- replaced obj /usr/lib/gconv/CP1258.so
--- replaced obj /usr/lib/gconv/CP1257.so
--- replaced obj /usr/lib/gconv/CP1256.so
--- replaced obj /usr/lib/gconv/CP1255.so
--- replaced obj /usr/lib/gconv/CP1254.so
--- replaced obj /usr/lib/gconv/CP1253.so
--- replaced obj /usr/lib/gconv/CP1252.so
--- replaced obj /usr/lib/gconv/CP1251.so
--- replaced obj /usr/lib/gconv/CP1250.so
--- replaced obj /usr/lib/gconv/CP1125.so
--- replaced obj /usr/lib/gconv/CP10007.so
--- replaced obj /usr/lib/gconv/BRF.so
--- replaced obj /usr/lib/gconv/BIG5HKSCS.so
--- replaced obj /usr/lib/gconv/BIG5.so
--- replaced obj /usr/lib/gconv/ASMO_449.so
--- replaced obj /usr/lib/gconv/ARMSCII-8.so
--- replaced obj /usr/lib/gconv/ANSI_X3.110.so
--- replaced dir /usr/lib/gconv
--- replaced obj /usr/lib/crtn.o
--- replaced obj /usr/lib/crti.o
--- replaced obj /usr/lib/crt1.o
--- replaced obj /usr/lib/audit/sotruss-lib.so
--- replaced dir /usr/lib/audit
--- replaced obj /usr/lib/Scrt1.o
--- replaced obj /usr/lib/Mcrt1.o
--- replaced dir /usr/lib
--- replaced obj /usr/include/wordexp.h
--- replaced obj /usr/include/wctype.h
--- replaced obj /usr/include/wchar.h
--- replaced obj /usr/include/wait.h
--- replaced obj /usr/include/values.h
--- replaced obj /usr/include/utmpx.h
--- replaced obj /usr/include/utmp.h
--- replaced obj /usr/include/utime.h
--- replaced obj /usr/include/unistd.h
--- replaced obj /usr/include/ulimit.h
--- replaced obj /usr/include/ucontext.h
--- replaced obj /usr/include/uchar.h
--- replaced obj /usr/include/ttyent.h
--- replaced obj /usr/include/time.h
--- replaced obj /usr/include/threads.h
--- replaced obj /usr/include/thread_db.h
--- replaced obj /usr/include/tgmath.h
--- replaced obj /usr/include/termios.h
--- replaced obj /usr/include/termio.h
--- replaced obj /usr/include/tar.h
--- replaced obj /usr/include/syslog.h
--- replaced obj /usr/include/sysexits.h
--- replaced obj /usr/include/syscall.h
--- replaced obj /usr/include/sys/xattr.h
--- replaced obj /usr/include/sys/wait.h
--- replaced obj /usr/include/sys/vtimes.h
--- replaced obj /usr/include/sys/vt.h
--- replaced obj /usr/include/sys/vm86.h
--- replaced obj /usr/include/sys/vlimit.h
--- replaced obj /usr/include/sys/vfs.h
--- replaced obj /usr/include/sys/utsname.h
--- replaced obj /usr/include/sys/user.h
--- replaced obj /usr/include/sys/unistd.h
--- replaced obj /usr/include/sys/un.h
--- replaced obj /usr/include/sys/uio.h
--- replaced obj /usr/include/sys/ucontext.h
--- replaced obj /usr/include/sys/types.h
--- replaced obj /usr/include/sys/ttydefaults.h
--- replaced obj /usr/include/sys/ttychars.h
--- replaced obj /usr/include/sys/timex.h
--- replaced obj /usr/include/sys/times.h
--- replaced obj /usr/include/sys/timerfd.h
--- replaced obj /usr/include/sys/timeb.h
--- replaced obj /usr/include/sys/time.h
--- replaced obj /usr/include/sys/termios.h
--- replaced obj /usr/include/sys/sysmacros.h
--- replaced obj /usr/include/sys/syslog.h
--- replaced obj /usr/include/sys/sysinfo.h
--- replaced obj /usr/include/sys/sysctl.h
--- replaced obj /usr/include/sys/syscall.h
--- replaced obj /usr/include/sys/swap.h
--- replaced obj /usr/include/sys/statvfs.h
--- replaced obj /usr/include/sys/statfs.h
--- replaced obj /usr/include/sys/stat.h
--- replaced obj /usr/include/sys/soundcard.h
--- replaced obj /usr/include/sys/socketvar.h
--- replaced obj /usr/include/sys/socket.h
--- replaced obj /usr/include/sys/signalfd.h
--- replaced obj /usr/include/sys/signal.h
--- replaced obj /usr/include/sys/shm.h
--- replaced obj /usr/include/sys/sendfile.h
--- replaced obj /usr/include/sys/sem.h
--- replaced obj /usr/include/sys/select.h
--- replaced obj /usr/include/sys/resource.h
--- replaced obj /usr/include/sys/reg.h
--- replaced obj /usr/include/sys/reboot.h
--- replaced obj /usr/include/sys/raw.h
--- replaced obj /usr/include/sys/random.h
--- replaced obj /usr/include/sys/quota.h
--- replaced obj /usr/include/sys/queue.h
--- replaced obj /usr/include/sys/ptrace.h
--- replaced obj /usr/include/sys/profil.h
--- replaced obj /usr/include/sys/procfs.h
--- replaced obj /usr/include/sys/prctl.h
--- replaced obj /usr/include/sys/poll.h
--- replaced obj /usr/include/sys/personality.h
--- replaced obj /usr/include/sys/perm.h
--- replaced obj /usr/include/sys/pci.h
--- replaced obj /usr/include/sys/param.h
--- replaced obj /usr/include/sys/mtio.h
--- replaced obj /usr/include/sys/msg.h
--- replaced obj /usr/include/sys/mount.h
--- replaced obj /usr/include/sys/mman.h
--- replaced obj /usr/include/sys/klog.h
--- replaced obj /usr/include/sys/kd.h
--- replaced obj /usr/include/sys/ipc.h
--- replaced obj /usr/include/sys/ioctl.h
--- replaced obj /usr/include/sys/io.h
--- replaced obj /usr/include/sys/inotify.h
--- replaced obj /usr/include/sys/gmon_out.h
--- replaced obj /usr/include/sys/gmon.h
--- replaced obj /usr/include/sys/fsuid.h
--- replaced obj /usr/include/sys/file.h
--- replaced obj /usr/include/sys/fcntl.h
--- replaced obj /usr/include/sys/fanotify.h
--- replaced obj /usr/include/sys/eventfd.h
--- replaced obj /usr/include/sys/errno.h
--- replaced obj /usr/include/sys/epoll.h
--- replaced obj /usr/include/sys/elf.h
--- replaced obj /usr/include/sys/dir.h
--- replaced obj /usr/include/sys/debugreg.h
--- replaced obj /usr/include/sys/cdefs.h
--- replaced obj /usr/include/sys/bitypes.h
--- replaced obj /usr/include/sys/auxv.h
--- replaced obj /usr/include/sys/acct.h
--- replaced dir /usr/include/sys
--- replaced obj /usr/include/strings.h
--- replaced obj /usr/include/string.h
--- replaced obj /usr/include/stdlib.h
--- replaced obj /usr/include/stdio_ext.h
--- replaced obj /usr/include/stdio.h
--- replaced obj /usr/include/stdint.h
--- replaced obj /usr/include/stdc-predef.h
--- replaced obj /usr/include/stab.h
--- replaced obj /usr/include/spawn.h
--- replaced obj /usr/include/signal.h
--- replaced obj /usr/include/shadow.h
--- replaced obj /usr/include/sgtty.h
--- replaced obj /usr/include/setjmp.h
--- replaced obj /usr/include/semaphore.h
--- replaced obj /usr/include/search.h
--- replaced obj /usr/include/scsi/sg.h
--- replaced obj /usr/include/scsi/scsi_ioctl.h
--- replaced obj /usr/include/scsi/scsi.h
--- replaced dir /usr/include/scsi
--- replaced obj /usr/include/sched.h
--- replaced obj /usr/include/rpc/netdb.h
--- replaced dir /usr/include/rpc
--- replaced obj /usr/include/resolv.h
--- replaced obj /usr/include/regexp.h
--- replaced obj /usr/include/regex.h
--- replaced obj /usr/include/re_comp.h
--- replaced obj /usr/include/pwd.h
--- replaced obj /usr/include/pty.h
--- replaced obj /usr/include/pthread.h
--- replaced obj /usr/include/protocols/timed.h
--- replaced obj /usr/include/protocols/talkd.h
--- replaced obj /usr/include/protocols/rwhod.h
--- replaced obj /usr/include/protocols/routed.h
--- replaced dir /usr/include/protocols
--- replaced obj /usr/include/proc_service.h
--- replaced obj /usr/include/printf.h
--- replaced obj /usr/include/poll.h
--- replaced obj /usr/include/paths.h
--- replaced obj /usr/include/obstack.h
--- replaced obj /usr/include/nss.h
--- replaced obj /usr/include/nl_types.h
--- replaced obj /usr/include/nfs/nfs.h
--- replaced dir /usr/include/nfs
--- replaced obj /usr/include/netrose/rose.h
--- replaced dir /usr/include/netrose
--- replaced obj /usr/include/netrom/netrom.h
--- replaced dir /usr/include/netrom
--- replaced obj /usr/include/netpacket/packet.h
--- replaced dir /usr/include/netpacket
--- replaced obj /usr/include/netiucv/iucv.h
--- replaced dir /usr/include/netiucv
--- replaced obj /usr/include/netipx/ipx.h
--- replaced dir /usr/include/netipx
--- replaced obj /usr/include/netinet/udp.h
--- replaced obj /usr/include/netinet/tcp.h
--- replaced obj /usr/include/netinet/ip_icmp.h
--- replaced obj /usr/include/netinet/ip6.h
--- replaced obj /usr/include/netinet/ip.h
--- replaced obj /usr/include/netinet/in_systm.h
--- replaced obj /usr/include/netinet/in.h
--- replaced obj /usr/include/netinet/igmp.h
--- replaced obj /usr/include/netinet/if_tr.h
--- replaced obj /usr/include/netinet/if_fddi.h
--- replaced obj /usr/include/netinet/if_ether.h
--- replaced obj /usr/include/netinet/icmp6.h
--- replaced obj /usr/include/netinet/ether.h
--- replaced dir /usr/include/netinet
--- replaced obj /usr/include/neteconet/ec.h
--- replaced dir /usr/include/neteconet
--- replaced obj /usr/include/netdb.h
--- replaced obj /usr/include/netax25/ax25.h
--- replaced dir /usr/include/netax25
--- replaced obj /usr/include/netatalk/at.h
--- replaced dir /usr/include/netatalk
--- replaced obj /usr/include/netash/ash.h
--- replaced dir /usr/include/netash
--- replaced obj /usr/include/net/route.h
--- replaced obj /usr/include/net/ppp_defs.h
--- replaced obj /usr/include/net/ppp-comp.h
--- replaced obj /usr/include/net/if_slip.h
--- replaced obj /usr/include/net/if_shaper.h
--- replaced obj /usr/include/net/if_ppp.h
--- replaced obj /usr/include/net/if_packet.h
--- replaced obj /usr/include/net/if_arp.h
--- replaced obj /usr/include/net/if.h
--- replaced obj /usr/include/net/ethernet.h
--- replaced dir /usr/include/net
--- replaced obj /usr/include/mqueue.h
--- replaced obj /usr/include/monetary.h
--- replaced obj /usr/include/mntent.h
--- replaced obj /usr/include/memory.h
--- replaced obj /usr/include/mcheck.h
--- replaced obj /usr/include/math.h
--- replaced obj /usr/include/malloc.h
--- replaced obj /usr/include/locale.h
--- replaced obj /usr/include/link.h
--- replaced obj /usr/include/limits.h
--- replaced obj /usr/include/libintl.h
--- replaced obj /usr/include/libgen.h
--- replaced obj /usr/include/lastlog.h
--- replaced obj /usr/include/langinfo.h
--- replaced obj /usr/include/inttypes.h
--- replaced obj /usr/include/ifaddrs.h
--- replaced obj /usr/include/ieee754.h
--- replaced obj /usr/include/iconv.h
--- replaced obj /usr/include/gshadow.h
--- replaced obj /usr/include/grp.h
--- replaced obj /usr/include/gnu/stubs.h
--- replaced obj /usr/include/gnu/stubs-64.h
--- replaced obj /usr/include/gnu/stubs-32.h
--- replaced obj /usr/include/gnu/libc-version.h
--- replaced obj /usr/include/gnu/lib-names.h
--- replaced obj /usr/include/gnu/lib-names-64.h
--- replaced obj /usr/include/gnu/lib-names-32.h
--- replaced obj /usr/include/gnu-versions.h
--- replaced dir /usr/include/gnu
--- replaced obj /usr/include/glob.h
--- replaced obj /usr/include/getopt.h
--- replaced obj /usr/include/gconv.h
--- replaced obj /usr/include/ftw.h
--- replaced obj /usr/include/fts.h
--- replaced obj /usr/include/fstab.h
--- replaced obj /usr/include/fpu_control.h
--- replaced obj /usr/include/fnmatch.h
--- replaced obj /usr/include/fmtmsg.h
--- replaced obj /usr/include/finclude/math-vector-fortran.h
--- replaced dir /usr/include/finclude
--- replaced obj /usr/include/fenv.h
--- replaced obj /usr/include/features.h
--- replaced obj /usr/include/fcntl.h
--- replaced obj /usr/include/execinfo.h
--- replaced obj /usr/include/error.h
--- replaced obj /usr/include/errno.h
--- replaced obj /usr/include/err.h
--- replaced obj /usr/include/envz.h
--- replaced obj /usr/include/endian.h
--- replaced obj /usr/include/elf.h
--- replaced obj /usr/include/dlfcn.h
--- replaced obj /usr/include/dirent.h
--- replaced obj /usr/include/ctype.h
--- replaced obj /usr/include/crypt.h
--- replaced obj /usr/include/cpio.h
--- replaced obj /usr/include/complex.h
--- replaced obj /usr/include/byteswap.h
--- replaced obj /usr/include/bits/xopen_lim.h
--- replaced obj /usr/include/bits/wordsize.h
--- replaced obj /usr/include/bits/wctype-wchar.h
--- replaced obj /usr/include/bits/wchar2.h
--- replaced obj /usr/include/bits/wchar.h
--- replaced obj /usr/include/bits/wchar-ldbl.h
--- replaced obj /usr/include/bits/waitstatus.h
--- replaced obj /usr/include/bits/waitflags.h
--- replaced obj /usr/include/bits/utsname.h
--- replaced obj /usr/include/bits/utmpx.h
--- replaced obj /usr/include/bits/utmp.h
--- replaced obj /usr/include/bits/unistd_ext.h
--- replaced obj /usr/include/bits/unistd.h
--- replaced obj /usr/include/bits/uio_lim.h
--- replaced obj /usr/include/bits/uio-ext.h
--- replaced obj /usr/include/bits/uintn-identity.h
--- replaced obj /usr/include/bits/typesizes.h
--- replaced obj /usr/include/bits/types/wint_t.h
--- replaced obj /usr/include/bits/types/timer_t.h
--- replaced obj /usr/include/bits/types/time_t.h
--- replaced obj /usr/include/bits/types/struct_tm.h
--- replaced obj /usr/include/bits/types/struct_timeval.h
--- replaced obj /usr/include/bits/types/struct_timespec.h
--- replaced obj /usr/include/bits/types/struct_statx_timestamp.h
--- replaced obj /usr/include/bits/types/struct_statx.h
--- replaced obj /usr/include/bits/types/struct_sigstack.h
--- replaced obj /usr/include/bits/types/struct_sched_param.h
--- replaced obj /usr/include/bits/types/struct_rusage.h
--- replaced obj /usr/include/bits/types/struct_osockaddr.h
--- replaced obj /usr/include/bits/types/struct_itimerspec.h
--- replaced obj /usr/include/bits/types/struct_iovec.h
--- replaced obj /usr/include/bits/types/struct_FILE.h
--- replaced obj /usr/include/bits/types/stack_t.h
--- replaced obj /usr/include/bits/types/sigval_t.h
--- replaced obj /usr/include/bits/types/sigset_t.h
--- replaced obj /usr/include/bits/types/siginfo_t.h
--- replaced obj /usr/include/bits/types/sigevent_t.h
--- replaced obj /usr/include/bits/types/sig_atomic_t.h
--- replaced obj /usr/include/bits/types/res_state.h
--- replaced obj /usr/include/bits/types/mbstate_t.h
--- replaced obj /usr/include/bits/types/locale_t.h
--- replaced obj /usr/include/bits/types/error_t.h
--- replaced obj /usr/include/bits/types/cookie_io_functions_t.h
--- replaced obj /usr/include/bits/types/clockid_t.h
--- replaced obj /usr/include/bits/types/clock_t.h
--- replaced obj /usr/include/bits/types/__sigval_t.h
--- replaced obj /usr/include/bits/types/__sigset_t.h
--- replaced obj /usr/include/bits/types/__mbstate_t.h
--- replaced obj /usr/include/bits/types/__locale_t.h
--- replaced obj /usr/include/bits/types/__fpos_t.h
--- replaced obj /usr/include/bits/types/__fpos64_t.h
--- replaced obj /usr/include/bits/types/__FILE.h
--- replaced obj /usr/include/bits/types/FILE.h
--- replaced obj /usr/include/bits/types.h
--- replaced dir /usr/include/bits/types
--- replaced obj /usr/include/bits/timex.h
--- replaced obj /usr/include/bits/timesize.h
--- replaced obj /usr/include/bits/timerfd.h
--- replaced obj /usr/include/bits/time64.h
--- replaced obj /usr/include/bits/time.h
--- replaced obj /usr/include/bits/thread-shared-types.h
--- replaced obj /usr/include/bits/termios.h
--- replaced obj /usr/include/bits/termios-tcflow.h
--- replaced obj /usr/include/bits/termios-struct.h
--- replaced obj /usr/include/bits/termios-misc.h
--- replaced obj /usr/include/bits/termios-c_oflag.h
--- replaced obj /usr/include/bits/termios-c_lflag.h
--- replaced obj /usr/include/bits/termios-c_iflag.h
--- replaced obj /usr/include/bits/termios-c_cflag.h
--- replaced obj /usr/include/bits/termios-c_cc.h
--- replaced obj /usr/include/bits/termios-baud.h
--- replaced obj /usr/include/bits/sysmacros.h
--- replaced obj /usr/include/bits/syslog.h
--- replaced obj /usr/include/bits/syslog-path.h
--- replaced obj /usr/include/bits/syslog-ldbl.h
--- replaced obj /usr/include/bits/sysctl.h
--- replaced obj /usr/include/bits/syscall.h
--- replaced obj /usr/include/bits/sys_errlist.h
--- replaced obj /usr/include/bits/struct_rwlock.h
--- replaced obj /usr/include/bits/struct_mutex.h
--- replaced obj /usr/include/bits/strings_fortified.h
--- replaced obj /usr/include/bits/string_fortified.h
--- replaced obj /usr/include/bits/stdlib.h
--- replaced obj /usr/include/bits/stdlib-ldbl.h
--- replaced obj /usr/include/bits/stdlib-float.h
--- replaced obj /usr/include/bits/stdlib-bsearch.h
--- replaced obj /usr/include/bits/stdio_lim.h
--- replaced obj /usr/include/bits/stdio2.h
--- replaced obj /usr/include/bits/stdio.h
--- replaced obj /usr/include/bits/stdio-ldbl.h
--- replaced obj /usr/include/bits/stdint-uintn.h
--- replaced obj /usr/include/bits/stdint-intn.h
--- replaced obj /usr/include/bits/statx.h
--- replaced obj /usr/include/bits/statx-generic.h
--- replaced obj /usr/include/bits/statvfs.h
--- replaced obj /usr/include/bits/statfs.h
--- replaced obj /usr/include/bits/stat.h
--- replaced obj /usr/include/bits/stab.def
--- replaced obj /usr/include/bits/ss_flags.h
--- replaced obj /usr/include/bits/socket_type.h
--- replaced obj /usr/include/bits/socket2.h
--- replaced obj /usr/include/bits/socket.h
--- replaced obj /usr/include/bits/socket-constants.h
--- replaced obj /usr/include/bits/sockaddr.h
--- replaced obj /usr/include/bits/sigthread.h
--- replaced obj /usr/include/bits/sigstack.h
--- replaced obj /usr/include/bits/signum.h
--- replaced obj /usr/include/bits/signum-generic.h
--- replaced obj /usr/include/bits/signalfd.h
--- replaced obj /usr/include/bits/signal_ext.h
--- replaced obj /usr/include/bits/siginfo-consts.h
--- replaced obj /usr/include/bits/siginfo-consts-arch.h
--- replaced obj /usr/include/bits/siginfo-arch.h
--- replaced obj /usr/include/bits/sigevent-consts.h
--- replaced obj /usr/include/bits/sigcontext.h
--- replaced obj /usr/include/bits/sigaction.h
--- replaced obj /usr/include/bits/shmlba.h
--- replaced obj /usr/include/bits/shm.h
--- replaced obj /usr/include/bits/shm-pad.h
--- replaced obj /usr/include/bits/setjmp2.h
--- replaced obj /usr/include/bits/setjmp.h
--- replaced obj /usr/include/bits/semaphore.h
--- replaced obj /usr/include/bits/sem.h
--- replaced obj /usr/include/bits/sem-pad.h
--- replaced obj /usr/include/bits/select2.h
--- replaced obj /usr/include/bits/select.h
--- replaced obj /usr/include/bits/sched.h
--- replaced obj /usr/include/bits/resource.h
--- replaced obj /usr/include/bits/ptrace-shared.h
--- replaced obj /usr/include/bits/pthreadtypes.h
--- replaced obj /usr/include/bits/pthreadtypes-arch.h
--- replaced obj /usr/include/bits/procfs.h
--- replaced obj /usr/include/bits/procfs-prregset.h
--- replaced obj /usr/include/bits/procfs-id.h
--- replaced obj /usr/include/bits/procfs-extra.h
--- replaced obj /usr/include/bits/printf-ldbl.h
--- replaced obj /usr/include/bits/posix_opt.h
--- replaced obj /usr/include/bits/posix2_lim.h
--- replaced obj /usr/include/bits/posix1_lim.h
--- replaced obj /usr/include/bits/poll2.h
--- replaced obj /usr/include/bits/poll.h
--- replaced obj /usr/include/bits/param.h
--- replaced obj /usr/include/bits/netdb.h
--- replaced obj /usr/include/bits/msq.h
--- replaced obj /usr/include/bits/msq-pad.h
--- replaced obj /usr/include/bits/mqueue2.h
--- replaced obj /usr/include/bits/mqueue.h
--- replaced obj /usr/include/bits/monetary-ldbl.h
--- replaced obj /usr/include/bits/mman.h
--- replaced obj /usr/include/bits/mman-shared.h
--- replaced obj /usr/include/bits/mman-map-flags-generic.h
--- replaced obj /usr/include/bits/mman-linux.h
--- replaced obj /usr/include/bits/mathinline.h
--- replaced obj /usr/include/bits/mathdef.h
--- replaced obj /usr/include/bits/mathcalls.h
--- replaced obj /usr/include/bits/mathcalls-narrow.h
--- replaced obj /usr/include/bits/mathcalls-helper-functions.h
--- replaced obj /usr/include/bits/math-vector.h
--- replaced obj /usr/include/bits/long-double.h
--- replaced obj /usr/include/bits/locale.h
--- replaced obj /usr/include/bits/local_lim.h
--- replaced obj /usr/include/bits/link.h
--- replaced obj /usr/include/bits/libm-simd-decl-stubs.h
--- replaced obj /usr/include/bits/libc-header-start.h
--- replaced obj /usr/include/bits/iscanonical.h
--- replaced obj /usr/include/bits/ipctypes.h
--- replaced obj /usr/include/bits/ipc.h
--- replaced obj /usr/include/bits/ipc-perm.h
--- replaced obj /usr/include/bits/ioctls.h
--- replaced obj /usr/include/bits/ioctl-types.h
--- replaced obj /usr/include/bits/inotify.h
--- replaced obj /usr/include/bits/initspin.h
--- replaced obj /usr/include/bits/indirect-return.h
--- replaced obj /usr/include/bits/in.h
--- replaced obj /usr/include/bits/hwcap.h
--- replaced obj /usr/include/bits/getopt_posix.h
--- replaced obj /usr/include/bits/getopt_ext.h
--- replaced obj /usr/include/bits/getopt_core.h
--- replaced obj /usr/include/bits/fp-logb.h
--- replaced obj /usr/include/bits/fp-fast.h
--- replaced obj /usr/include/bits/flt-eval-method.h
--- replaced obj /usr/include/bits/floatn.h
--- replaced obj /usr/include/bits/floatn-common.h
--- replaced obj /usr/include/bits/fenvinline.h
--- replaced obj /usr/include/bits/fenv.h
--- replaced obj /usr/include/bits/fcntl2.h
--- replaced obj /usr/include/bits/fcntl.h
--- replaced obj /usr/include/bits/fcntl-linux.h
--- replaced obj /usr/include/bits/eventfd.h
--- replaced obj /usr/include/bits/error.h
--- replaced obj /usr/include/bits/error-ldbl.h
--- replaced obj /usr/include/bits/errno.h
--- replaced obj /usr/include/bits/err-ldbl.h
--- replaced obj /usr/include/bits/epoll.h
--- replaced obj /usr/include/bits/environments.h
--- replaced obj /usr/include/bits/endianness.h
--- replaced obj /usr/include/bits/endian.h
--- replaced obj /usr/include/bits/elfclass.h
--- replaced obj /usr/include/bits/dlfcn.h
--- replaced obj /usr/include/bits/dirent_ext.h
--- replaced obj /usr/include/bits/dirent.h
--- replaced obj /usr/include/bits/cpu-set.h
--- replaced obj /usr/include/bits/confname.h
--- replaced obj /usr/include/bits/cmathcalls.h
--- replaced obj /usr/include/bits/byteswap.h
--- replaced obj /usr/include/bits/argp-ldbl.h
--- replaced obj /usr/include/bits/a.out.h
--- replaced dir /usr/include/bits
--- replaced obj /usr/include/assert.h
--- replaced obj /usr/include/arpa/tftp.h
--- replaced obj /usr/include/arpa/telnet.h
--- replaced obj /usr/include/arpa/nameser_compat.h
--- replaced obj /usr/include/arpa/nameser.h
--- replaced obj /usr/include/arpa/inet.h
--- replaced obj /usr/include/arpa/ftp.h
--- replaced dir /usr/include/arpa
--- replaced obj /usr/include/argz.h
--- replaced obj /usr/include/argp.h
--- replaced obj /usr/include/ar.h
--- replaced obj /usr/include/alloca.h
--- replaced obj /usr/include/aliases.h
--- replaced obj /usr/include/aio.h
--- replaced obj /usr/include/a.out.h
--- replaced dir /usr/include
--- replaced obj /usr/bin/xtrace
--- replaced obj /usr/bin/sprof
--- replaced obj /usr/bin/sotruss
--- replaced obj /usr/bin/pldd
--- replaced obj /usr/bin/pcprofiledump
--- replaced obj /usr/bin/mtrace
--- replaced obj /usr/bin/memusagestat
--- replaced obj /usr/bin/memusage
--- replaced obj /usr/bin/makedb
--- replaced obj /usr/bin/localedef
--- replaced obj /usr/bin/locale
--- replaced obj /usr/bin/lddlibc4
--- replaced obj /usr/bin/ldd
--- replaced obj /usr/bin/iconv
--- replaced obj /usr/bin/getent
--- replaced obj /usr/bin/getconf
--- replaced obj /usr/bin/gencat
--- replaced obj /usr/bin/catchsegv
--- replaced dir /usr/bin
--- replaced dir /usr
--- replaced obj /sbin/sln
--- replaced obj /sbin/ldconfig
--- replaced dir /sbin
--- replaced sym /lib64/libutil.so.1
--- replaced obj /lib64/libutil-2.31.so
--- replaced sym /lib64/libthread_db.so.1
--- replaced obj /lib64/libthread_db-1.0.so
--- replaced sym /lib64/librt.so.1
--- replaced obj /lib64/librt-2.31.so
--- replaced sym /lib64/libresolv.so.2
--- replaced obj /lib64/libresolv-2.31.so
--- replaced sym /lib64/libpthread.so.0
--- replaced obj /lib64/libpthread-2.31.so
--- replaced obj /lib64/libpcprofile.so
--- replaced sym /lib64/libnss_hesiod.so.2
--- replaced obj /lib64/libnss_hesiod-2.31.so
--- replaced sym /lib64/libnss_files.so.2
--- replaced obj /lib64/libnss_files-2.31.so
--- replaced sym /lib64/libnss_dns.so.2
--- replaced obj /lib64/libnss_dns-2.31.so
--- replaced sym /lib64/libnss_db.so.2
--- replaced obj /lib64/libnss_db-2.31.so
--- replaced sym /lib64/libnss_compat.so.2
--- replaced obj /lib64/libnss_compat-2.31.so
--- replaced sym /lib64/libnsl.so.1
--- replaced obj /lib64/libnsl-2.31.so
--- replaced sym /lib64/libmvec.so.1
--- replaced obj /lib64/libmvec-2.31.so
--- replaced obj /lib64/libmemusage.so
--- replaced sym /lib64/libm.so.6
--- replaced obj /lib64/libm-2.31.so
--- replaced sym /lib64/libdl.so.2
--- replaced obj /lib64/libdl-2.31.so
--- replaced sym /lib64/libcrypt.so.1
--- replaced obj /lib64/libcrypt-2.31.so
--- replaced sym /lib64/libc.so.6
--- replaced obj /lib64/libc-2.31.so
--- replaced sym /lib64/libanl.so.1
--- replaced obj /lib64/libanl-2.31.so
--- replaced obj /lib64/libSegFault.so
--- replaced sym /lib64/libBrokenLocale.so.1
--- replaced obj /lib64/libBrokenLocale-2.31.so
--- replaced sym /lib64/ld-linux-x86-64.so.2
--- replaced obj /lib64/ld-2.31.so
--- replaced dir /lib64
--- replaced obj /lib/systemd/system/nscd.service
--- replaced dir /lib/systemd/system
--- replaced dir /lib/systemd
--- replaced sym /lib/libutil.so.1
--- replaced obj /lib/libutil-2.31.so
--- replaced sym /lib/libthread_db.so.1
--- replaced obj /lib/libthread_db-1.0.so
--- replaced sym /lib/librt.so.1
--- replaced obj /lib/librt-2.31.so
--- replaced sym /lib/libresolv.so.2
--- replaced obj /lib/libresolv-2.31.so
--- replaced sym /lib/libpthread.so.0
--- replaced obj /lib/libpthread-2.31.so
--- replaced obj /lib/libpcprofile.so
--- replaced sym /lib/libnss_hesiod.so.2
--- replaced obj /lib/libnss_hesiod-2.31.so
--- replaced sym /lib/libnss_files.so.2
--- replaced obj /lib/libnss_files-2.31.so
--- replaced sym /lib/libnss_dns.so.2
--- replaced obj /lib/libnss_dns-2.31.so
--- replaced sym /lib/libnss_db.so.2
--- replaced obj /lib/libnss_db-2.31.so
--- replaced sym /lib/libnss_compat.so.2
--- replaced obj /lib/libnss_compat-2.31.so
--- replaced sym /lib/libnsl.so.1
--- replaced obj /lib/libnsl-2.31.so
--- replaced obj /lib/libmemusage.so
--- replaced sym /lib/libm.so.6
--- replaced obj /lib/libm-2.31.so
--- replaced sym /lib/libdl.so.2
--- replaced obj /lib/libdl-2.31.so
--- replaced sym /lib/libcrypt.so.1
--- replaced obj /lib/libcrypt-2.31.so
--- replaced sym /lib/libc.so.6
--- replaced obj /lib/libc-2.31.so
--- replaced sym /lib/libanl.so.1
--- replaced obj /lib/libanl-2.31.so
--- replaced obj /lib/libSegFault.so
--- replaced sym /lib/libBrokenLocale.so.1
--- replaced obj /lib/libBrokenLocale-2.31.so
--- replaced sym /lib/ld-linux.so.2
--- replaced obj /lib/ld-2.31.so
--- replaced dir /lib
--- replaced obj /etc/rpc
--- replaced obj /etc/nsswitch.conf
--- replaced obj /etc/nscd.conf
--- replaced obj /etc/locale.gen
--- replaced obj /etc/init.d/nscd
--- replaced dir /etc/init.d
--- replaced obj /etc/host.conf
--- replaced obj /etc/gai.conf
--- replaced obj /etc/env.d/00glibc
--- replaced dir /etc/env.d
--- replaced dir /etc
>>> Regenerating /etc/ld.so.cache...
