[32;01m * [39;49;00mPackage:    sys-fs/cryptsetup-2.3.2
[32;01m * [39;49;00mRepository: gentoo
[32;01m * [39;49;00mMaintainer: base-system@gentoo.org
[32;01m * [39;49;00mUSE:        abi_x86_64 amd64 argon2 elibc_glibc gcrypt kernel_linux udev userland_GNU
[32;01m * [39;49;00mFEATURES:   ccache network-sandbox preserve-libs sandbox userpriv usersandbox
 [33;01m*[0m WARNING! WARNING! WARNING!
 [33;01m*[0m You have chosen LUKS2 as your default format.
 [33;01m*[0m This can break LUKS1 backwards compatibility.
 [33;01m*[0m Enable "luks1_default" USE flag if you need backwards compatibility.
