[32;01m * [39;49;00mPackage:    sys-libs/libomp-10.0.0
[32;01m * [39;49;00mRepository: gentoo
[32;01m * [39;49;00mMaintainer: voyageur@gentoo.org llvm@gentoo.org
[32;01m * [39;49;00mUSE:        abi_x86_64 amd64 elibc_glibc hwloc kernel_linux offload userland_GNU
[32;01m * [39;49;00mFEATURES:   ccache network-sandbox preserve-libs userpriv
 [32;01m*[0m Determining the location of the kernel source code
 [32;01m*[0m Found kernel source directory:
 [32;01m*[0m     /usr/src/linux
 [32;01m*[0m Found sources for kernel version:
 [32;01m*[0m     5.6.14-xanmod1-gnumsploitz
