>>> Extracting info
 * Package:    sys-devel/make-4.3
 * Repository: gentoo
 * USE:        kernel_linux userland_GNU elibc_glibc amd64 abi_x86_64 guile nls
 * FEATURES:   network-sandbox preserve-libs sandbox userpriv usersandbox
 * FEATURES='assume-digests binpkg-docompress binpkg-dostrip binpkg-logs buildpkg cgroup compress-index config-protect-if-modified distlocks ebuild-locks fixlafiles ipc-sandbox merge-sync multilib-strict network-sandbox news nodoc parallel-fetch pid-sandbox preserve-libs qa-unresolved-soname-deps sandbox sfperms strict strict-keepdir unknown-features-warn unmerge-logs unmerge-orphans userfetch userpriv usersandbox usersync xattr'
 * CFLAGS='-march=znver2 -O2 -pipe -fno-stack-protector -fno-stack-clash-protection -fstack-check=no -fno-stack-check -Wl,-O1 -Wl,--as-needed'
 * CXXFLAGS='-march=znver2 -O2 -pipe -fno-stack-protector -fno-stack-clash-protection -fstack-check=no -fno-stack-check -Wl,-O1 -Wl,--as-needed'
 * FFLAGS='-march=znver2 -O2 -pipe -fno-stack-protector -fno-stack-clash-protection -fstack-check=no -fno-stack-check -Wl,-O1 -Wl,--as-needed'
 * FCFLAGS='-march=znver2 -O2 -pipe -fno-stack-protector -fno-stack-clash-protection -fstack-check=no -fno-stack-check -Wl,-O1 -Wl,--as-needed'
 * F77FLAGS='-march=znver2 -O2 -pipe -fno-stack-protector -fno-stack-clash-protection -fstack-check=no -fno-stack-check -Wl,-O1 -Wl,--as-needed'
 * LDFLAGS='-Wl,-O1 -Wl,--as-needed'
 * MAKEOPTS='-j12 -l12'
 * gcc (Gentoo 10.1.0-r1 p2) 10.1.0
 * g++ (Gentoo 10.1.0-r1 p2) 10.1.0
 * GNU gold (Gentoo 2.34 p4 2.34.0) 1.16
 * Linux rescue 5.4.36 #1 SMP Thu Apr 30 04:38:28 UTC 2020 x86_64 AMD Ryzen 5 3600 6-Core Processor AuthenticAMD GNU/Linux
sys-devel/make: 1 minute, 24 seconds average for 23 merges
2020-05-16T20:34:33 >>> sys-devel/make: 27 seconds
2020-05-20T00:55:56 >>> sys-devel/make: 2 minutes, 4 seconds
2020-05-21T06:23:59 >>> sys-devel/make: 31 seconds
2020-05-23T15:19:50 >>> sys-devel/make: 40 seconds
2020-05-25T03:13:03 >>> sys-devel/make: 6 seconds
2020-05-26T00:22:15 >>> sys-devel/make: 28 seconds
2020-05-26T14:03:52 >>> sys-devel/make: 6 seconds
2020-05-27T01:43:28 >>> sys-devel/make: 6 seconds
2020-05-28T02:48:57 >>> sys-devel/make: 1 minute, 34 seconds
2020-05-28T13:20:45 >>> sys-devel/make: 6 minutes, 43 seconds
2020-05-28T14:11:12 >>> sys-devel/make: 2 minutes, 47 seconds
2020-05-29T01:31:26 >>> sys-devel/make: 2 minutes, 22 seconds
2020-05-30T12:25:26 >>> sys-devel/make: 9 minutes, 12 seconds
2020-05-30T21:31:43 >>> sys-devel/make: 3 minutes, 2 seconds
2020-05-31T11:15:43 >>> sys-devel/make: 31 seconds
2020-05-31T23:21:27 >>> sys-devel/make: 33 seconds
2020-06-01T06:10:14 >>> sys-devel/make: 31 seconds
2020-06-05T02:04:50 >>> sys-devel/make: 7 seconds
2020-06-07T16:08:30 >>> sys-devel/make: 7 seconds
2020-06-09T04:04:16 >>> sys-devel/make: 6 seconds
2020-06-12T01:36:32 >>> sys-devel/make: 5 seconds
2020-06-13T19:18:29 >>> sys-devel/make: 5 seconds
2020-06-13T20:14:33 >>> sys-devel/make: 5 seconds
]0;emerge 13:57:19 172|565 make 00:05 (root@rescue)>>> Extracting sys-devel/make-4.3
 * checking 12 files for package collisions
>>> Merging sys-devel/make-4.3 to /
 * removing unneeded *.la files
--- /usr/
--- /usr/share/
--- /usr/share/man/
--- /usr/share/man/man1/
>>> /usr/share/man/man1/gmake.1
>>> /usr/share/man/man1/make.1 -> gmake.1
>>> /usr/share/man/man1/gmake.1.bz2
--- /usr/share/info/
>>> /usr/share/info/make.info-2.bz2
>>> /usr/share/info/make.info.bz2
>>> /usr/share/info/make.info
>>> /usr/share/info/make.info-2
>>> /usr/share/info/make.info-1
>>> /usr/share/info/make.info-1.bz2
--- /usr/include/
>>> /usr/include/gnumake.h
--- /usr/bin/
>>> /usr/bin/gmake
>>> /usr/bin/make -> gmake
>>> Safely unmerging already-installed instance...
!!! File Not Found: '/etc/env.d/99lcdfilter'
>>> Original instance of package unmerged safely.
>>> sys-devel/make-4.3 merged.
!!! File Not Found: '/etc/env.d/99lcdfilter'
