No package files given... Grabbing a set.
--- replaced obj /usr/share/vim/vimfiles/syntax/tablegen.vim
--- replaced obj /usr/share/vim/vimfiles/syntax/llvm.vim
--- replaced dir /usr/share/vim/vimfiles/syntax
--- replaced obj /usr/share/vim/vimfiles/indent/llvm.vim
--- replaced dir /usr/share/vim/vimfiles/indent
--- replaced obj /usr/share/vim/vimfiles/ftplugin/tablegen.vim
--- replaced obj /usr/share/vim/vimfiles/ftplugin/llvm.vim
--- replaced dir /usr/share/vim/vimfiles/ftplugin
--- replaced obj /usr/share/vim/vimfiles/ftdetect/tablegen.vim
--- replaced obj /usr/share/vim/vimfiles/ftdetect/llvm.vim
--- replaced obj /usr/share/vim/vimfiles/ftdetect/llvm-lit.vim
--- replaced dir /usr/share/vim/vimfiles/ftdetect
--- replaced dir /usr/share/vim/vimfiles
--- replaced dir /usr/share/vim
--- replaced dir /usr/share
--- replaced dir /usr
>>> Regenerating /etc/ld.so.cache...
