No package files given... Grabbing a set.
--- replaced sym /usr/share/man/man3/attr_setf.3.bz2
--- replaced obj /usr/share/man/man3/attr_set.3.bz2
--- replaced sym /usr/share/man/man3/attr_removef.3.bz2
--- replaced obj /usr/share/man/man3/attr_remove.3.bz2
--- replaced sym /usr/share/man/man3/attr_multif.3.bz2
--- replaced obj /usr/share/man/man3/attr_multi.3.bz2
--- replaced sym /usr/share/man/man3/attr_listf.3.bz2
--- replaced obj /usr/share/man/man3/attr_list.3.bz2
--- replaced sym /usr/share/man/man3/attr_getf.3.bz2
--- replaced obj /usr/share/man/man3/attr_get.3.bz2
--- replaced dir /usr/share/man/man3
--- replaced obj /usr/share/man/man1/setfattr.1.bz2
--- replaced obj /usr/share/man/man1/getfattr.1.bz2
--- replaced obj /usr/share/man/man1/attr.1.bz2
--- replaced dir /usr/share/man/man1
--- replaced dir /usr/share/man
--- replaced dir /usr/share
--- replaced obj /usr/lib64/pkgconfig/libattr.pc
--- replaced dir /usr/lib64/pkgconfig
--- replaced obj /usr/lib64/libattr.so
--- replaced dir /usr/lib64
--- replaced obj /usr/include/attr/xattr.h
--- replaced obj /usr/include/attr/libattr.h
--- replaced obj /usr/include/attr/error_context.h
--- replaced obj /usr/include/attr/attributes.h
--- replaced dir /usr/include/attr
--- replaced dir /usr/include
--- replaced dir /usr
--- replaced obj /lib64/libattr.so.1.1.2448
--- replaced sym /lib64/libattr.so.1
--- replaced dir /lib64
--- replaced obj /etc/xattr.conf
--- replaced dir /etc
--- replaced obj /bin/setfattr
--- replaced obj /bin/getfattr
--- replaced obj /bin/attr
--- replaced dir /bin
>>> Regenerating /etc/ld.so.cache...
