No package files given... Grabbing a set.
--- replaced obj /usr/share/man/man1/lesskey.1.bz2
--- replaced obj /usr/share/man/man1/lessecho.1.bz2
--- replaced obj /usr/share/man/man1/less.1.bz2
--- replaced dir /usr/share/man/man1
--- replaced dir /usr/share/man
--- replaced dir /usr/share
--- replaced obj /usr/bin/lesspipe
--- replaced obj /usr/bin/lesskey
--- replaced obj /usr/bin/lessecho
--- replaced obj /usr/bin/less-select
--- replaced obj /usr/bin/less
--- replaced dir /usr/bin
--- replaced dir /usr
--- replaced obj /etc/less/select-key.src
--- replaced obj /etc/less/select-key.bin
--- replaced obj /etc/less/normal-key.src
--- replaced obj /etc/less/normal-key.bin
--- replaced dir /etc/less
--- replaced obj /etc/env.d/70less
--- replaced dir /etc/env.d
--- replaced dir /etc
>>> Regenerating /etc/ld.so.cache...
