[32;01m * [39;49;00mPackage:    sys-firmware/seabios-1.12.0
[32;01m * [39;49;00mRepository: gentoo
[32;01m * [39;49;00mMaintainer: tamiko@gentoo.org virtualization@gentoo.org
[32;01m * [39;49;00mUSE:        abi_x86_64 amd64 binary elibc_glibc kernel_linux seavgabios userland_GNU
[32;01m * [39;49;00mFEATURES:   ccache network-sandbox preserve-libs sandbox userpriv usersandbox
