No package files given... Grabbing a set.
--- replaced obj /usr/share/man/man1/automake-1.16.1.bz2
--- replaced obj /usr/share/man/man1/aclocal-1.16.1.bz2
--- replaced dir /usr/share/man/man1
--- replaced dir /usr/share/man
--- replaced obj /usr/share/info/automake-history-1.16.info.bz2
--- replaced obj /usr/share/info/automake-1.16.info.bz2
--- replaced obj /usr/share/info/automake-1.16.info-2.bz2
--- replaced obj /usr/share/info/automake-1.16.info-1.bz2
--- replaced dir /usr/share/info
--- replaced obj /usr/share/automake-1.16/ylwrap
--- replaced obj /usr/share/automake-1.16/texinfo.tex
--- replaced obj /usr/share/automake-1.16/test-driver
--- replaced obj /usr/share/automake-1.16/tap-driver.sh
--- replaced obj /usr/share/automake-1.16/py-compile
--- replaced obj /usr/share/automake-1.16/mkinstalldirs
--- replaced obj /usr/share/automake-1.16/missing
--- replaced obj /usr/share/automake-1.16/mdate-sh
--- replaced obj /usr/share/automake-1.16/install-sh
--- replaced obj /usr/share/automake-1.16/depcomp
--- replaced sym /usr/share/automake-1.16/config.sub
--- replaced sym /usr/share/automake-1.16/config.guess
--- replaced obj /usr/share/automake-1.16/compile
--- replaced obj /usr/share/automake-1.16/ar-lib
--- replaced obj /usr/share/automake-1.16/am/yacc.am
--- replaced obj /usr/share/automake-1.16/am/vala.am
--- replaced obj /usr/share/automake-1.16/am/texinfos.am
--- replaced obj /usr/share/automake-1.16/am/texibuild.am
--- replaced obj /usr/share/automake-1.16/am/texi-vers.am
--- replaced obj /usr/share/automake-1.16/am/tags.am
--- replaced obj /usr/share/automake-1.16/am/subdirs.am
--- replaced obj /usr/share/automake-1.16/am/scripts.am
--- replaced obj /usr/share/automake-1.16/am/remake-hdr.am
--- replaced obj /usr/share/automake-1.16/am/python.am
--- replaced obj /usr/share/automake-1.16/am/progs.am
--- replaced obj /usr/share/automake-1.16/am/program.am
--- replaced obj /usr/share/automake-1.16/am/mans.am
--- replaced obj /usr/share/automake-1.16/am/mans-vars.am
--- replaced obj /usr/share/automake-1.16/am/ltlibrary.am
--- replaced obj /usr/share/automake-1.16/am/ltlib.am
--- replaced obj /usr/share/automake-1.16/am/lisp.am
--- replaced obj /usr/share/automake-1.16/am/libtool.am
--- replaced obj /usr/share/automake-1.16/am/libs.am
--- replaced obj /usr/share/automake-1.16/am/library.am
--- replaced obj /usr/share/automake-1.16/am/lex.am
--- replaced obj /usr/share/automake-1.16/am/lang-compile.am
--- replaced obj /usr/share/automake-1.16/am/java.am
--- replaced obj /usr/share/automake-1.16/am/install.am
--- replaced obj /usr/share/automake-1.16/am/inst-vars.am
--- replaced obj /usr/share/automake-1.16/am/header.am
--- replaced obj /usr/share/automake-1.16/am/header-vars.am
--- replaced obj /usr/share/automake-1.16/am/footer.am
--- replaced obj /usr/share/automake-1.16/am/distdir.am
--- replaced obj /usr/share/automake-1.16/am/depend2.am
--- replaced obj /usr/share/automake-1.16/am/depend.am
--- replaced obj /usr/share/automake-1.16/am/dejagnu.am
--- replaced obj /usr/share/automake-1.16/am/data.am
--- replaced obj /usr/share/automake-1.16/am/configure.am
--- replaced obj /usr/share/automake-1.16/am/compile.am
--- replaced obj /usr/share/automake-1.16/am/clean.am
--- replaced obj /usr/share/automake-1.16/am/clean-hdr.am
--- replaced obj /usr/share/automake-1.16/am/check2.am
--- replaced obj /usr/share/automake-1.16/am/check.am
--- replaced dir /usr/share/automake-1.16/am
--- replaced obj /usr/share/automake-1.16/INSTALL
--- replaced obj /usr/share/automake-1.16/COPYING
--- replaced obj /usr/share/automake-1.16/Automake/XFile.pm
--- replaced obj /usr/share/automake-1.16/Automake/Wrap.pm
--- replaced obj /usr/share/automake-1.16/Automake/Version.pm
--- replaced obj /usr/share/automake-1.16/Automake/Variable.pm
--- replaced obj /usr/share/automake-1.16/Automake/VarDef.pm
--- replaced obj /usr/share/automake-1.16/Automake/RuleDef.pm
--- replaced obj /usr/share/automake-1.16/Automake/Rule.pm
--- replaced obj /usr/share/automake-1.16/Automake/Options.pm
--- replaced obj /usr/share/automake-1.16/Automake/Location.pm
--- replaced obj /usr/share/automake-1.16/Automake/Language.pm
--- replaced obj /usr/share/automake-1.16/Automake/ItemDef.pm
--- replaced obj /usr/share/automake-1.16/Automake/Item.pm
--- replaced obj /usr/share/automake-1.16/Automake/Getopt.pm
--- replaced obj /usr/share/automake-1.16/Automake/General.pm
--- replaced obj /usr/share/automake-1.16/Automake/FileUtils.pm
--- replaced obj /usr/share/automake-1.16/Automake/DisjConditions.pm
--- replaced obj /usr/share/automake-1.16/Automake/Configure_ac.pm
--- replaced obj /usr/share/automake-1.16/Automake/Config.pm
--- replaced obj /usr/share/automake-1.16/Automake/Condition.pm
--- replaced obj /usr/share/automake-1.16/Automake/Channels.pm
--- replaced obj /usr/share/automake-1.16/Automake/ChannelDefs.pm
--- replaced dir /usr/share/automake-1.16/Automake
--- replaced dir /usr/share/automake-1.16
--- replaced obj /usr/share/aclocal-1.16/vala.m4
--- replaced obj /usr/share/aclocal-1.16/upc.m4
--- replaced obj /usr/share/aclocal-1.16/tar.m4
--- replaced obj /usr/share/aclocal-1.16/substnot.m4
--- replaced obj /usr/share/aclocal-1.16/strip.m4
--- replaced obj /usr/share/aclocal-1.16/silent.m4
--- replaced obj /usr/share/aclocal-1.16/sanity.m4
--- replaced obj /usr/share/aclocal-1.16/runlog.m4
--- replaced obj /usr/share/aclocal-1.16/python.m4
--- replaced obj /usr/share/aclocal-1.16/prog-cc-c-o.m4
--- replaced obj /usr/share/aclocal-1.16/options.m4
--- replaced obj /usr/share/aclocal-1.16/obsolete.m4
--- replaced obj /usr/share/aclocal-1.16/mkdirp.m4
--- replaced obj /usr/share/aclocal-1.16/missing.m4
--- replaced obj /usr/share/aclocal-1.16/make.m4
--- replaced obj /usr/share/aclocal-1.16/maintainer.m4
--- replaced obj /usr/share/aclocal-1.16/lispdir.m4
--- replaced obj /usr/share/aclocal-1.16/lex.m4
--- replaced obj /usr/share/aclocal-1.16/lead-dot.m4
--- replaced obj /usr/share/aclocal-1.16/internal/ac-config-macro-dirs.m4
--- replaced dir /usr/share/aclocal-1.16/internal
--- replaced obj /usr/share/aclocal-1.16/install-sh.m4
--- replaced obj /usr/share/aclocal-1.16/init.m4
--- replaced obj /usr/share/aclocal-1.16/gcj.m4
--- replaced obj /usr/share/aclocal-1.16/extra-recurs.m4
--- replaced obj /usr/share/aclocal-1.16/dmalloc.m4
--- replaced obj /usr/share/aclocal-1.16/depout.m4
--- replaced obj /usr/share/aclocal-1.16/depend.m4
--- replaced obj /usr/share/aclocal-1.16/cond.m4
--- replaced obj /usr/share/aclocal-1.16/cond-if.m4
--- replaced obj /usr/share/aclocal-1.16/auxdir.m4
--- replaced obj /usr/share/aclocal-1.16/as.m4
--- replaced obj /usr/share/aclocal-1.16/ar-lib.m4
--- replaced obj /usr/share/aclocal-1.16/amversion.m4
--- replaced dir /usr/share/aclocal-1.16
--- replaced dir /usr/share
--- replaced obj /usr/bin/automake-1.16
--- replaced obj /usr/bin/aclocal-1.16
--- replaced dir /usr/bin
--- replaced dir /usr
>>> Regenerating /etc/ld.so.cache...
