No package files given... Grabbing a set.
--- replaced obj /var/spool/cron/lastrun/.keep_sys-process_cronbase-0
--- replaced dir /var/spool/cron/lastrun
--- replaced obj /var/spool/cron/.keep_sys-process_cronbase-0
--- replaced dir /var/spool/cron
--- replaced dir /var/spool
--- replaced dir /var
--- replaced obj /usr/sbin/run-crons
--- replaced dir /usr/sbin
--- replaced dir /usr
--- replaced obj /etc/cron.weekly/.keep_sys-process_cronbase-0
--- replaced dir /etc/cron.weekly
--- replaced obj /etc/cron.monthly/.keep_sys-process_cronbase-0
--- replaced dir /etc/cron.monthly
--- replaced obj /etc/cron.hourly/.keep_sys-process_cronbase-0
--- replaced dir /etc/cron.hourly
--- replaced obj /etc/cron.daily/.keep_sys-process_cronbase-0
--- replaced dir /etc/cron.daily
--- replaced dir /etc
>>> Regenerating /etc/ld.so.cache...
