No package files given... Grabbing a set.
--- replaced obj /usr/share/man/man1/grep.1.bz2
--- replaced obj /usr/share/man/man1/grep.1
--- replaced obj /usr/share/man/man1/fgrep.1
--- replaced obj /usr/share/man/man1/egrep.1
--- replaced dir /usr/share/man/man1
--- replaced dir /usr/share/man
--- replaced obj /usr/share/info/grep.info.bz2
--- replaced obj /usr/share/info/grep.info
--- replaced dir /usr/share/info
--- replaced dir /usr/share
--- replaced dir /usr
--- replaced obj /bin/grep
--- replaced obj /bin/fgrep
--- replaced obj /bin/egrep
--- replaced dir /bin
>>> Regenerating /etc/ld.so.cache...
