>>> Extracting info
 * Package:    sys-devel/llvm-common-10.0.0
 * Repository: gentoo
 * USE:        amd64 abi_x86_64 kernel_linux elibc_glibc userland_GNU
 * FEATURES:   ccache network-sandbox preserve-libs sandbox userpriv usersandbox
 * FEATURES='assume-digests binpkg-docompress binpkg-dostrip binpkg-logs binpkg-multi-instance buildpkg ccache cgroup collision-protect compress-index config-protect-if-modified distlocks downgrade-backup fixlafiles ipc-sandbox merge-sync multilib-strict network-sandbox news nodoc parallel-fetch parallel-install pid-sandbox preserve-libs protect-owned qa-unresolved-soname-deps sandbox sfperms strict strict-keepdir unknown-features-warn unmerge-backup unmerge-logs unmerge-orphans userfetch userpriv usersandbox usersync xattr'
 * CFLAGS='-march=native -O3 -fgraphite-identity -floop-nest-optimize -fdevirtualize-at-ltrans -fipa-pta -fno-semantic-interposition -flto=12 -fno-plt -fno-math-errno -fno-trapping-math -fuse-linker-plugin -pipe -g0 -Wl,-O1 -Wl,--as-needed -Wl,--hash-style=gnu,-z,norelro,--as-needed'
 * CXXFLAGS='-march=native -O3 -fgraphite-identity -floop-nest-optimize -fdevirtualize-at-ltrans -fipa-pta -fno-semantic-interposition -flto=12 -fno-plt -fno-math-errno -fno-trapping-math -fuse-linker-plugin -pipe -g0 -Wl,-O1 -Wl,--as-needed -Wl,--hash-style=gnu,-z,norelro,--as-needed'
 * FFLAGS='-march=native -O3 -fgraphite-identity -floop-nest-optimize -fdevirtualize-at-ltrans -fipa-pta -fno-semantic-interposition -flto=12 -fno-plt -fno-math-errno -fno-trapping-math -fuse-linker-plugin -pipe -g0 -Wl,-O1 -Wl,--as-needed -Wl,--hash-style=gnu,-z,norelro,--as-needed'
 * FCFLAGS='-march=native -O3 -fgraphite-identity -floop-nest-optimize -fdevirtualize-at-ltrans -fipa-pta -fno-semantic-interposition -flto=12 -fno-plt -fno-math-errno -fno-trapping-math -fuse-linker-plugin -pipe -g0 -Wl,-O1 -Wl,--as-needed -Wl,--hash-style=gnu,-z,norelro,--as-needed'
 * F77FLAGS='-march=native -O3 -fgraphite-identity -floop-nest-optimize -fdevirtualize-at-ltrans -fipa-pta -fno-semantic-interposition -flto=12 -fno-plt -fno-math-errno -fno-trapping-math -fuse-linker-plugin -pipe -g0 -Wl,-O1 -Wl,--as-needed -Wl,--hash-style=gnu,-z,norelro,--as-needed'
 * LDFLAGS='-Wl,-O1 -Wl,--as-needed -Wl,--hash-style=gnu,-z,norelro,--as-needed -march=native -O3 -fgraphite-identity -floop-nest-optimize -fdevirtualize-at-ltrans -fipa-pta -fno-semantic-interposition -flto=12 -fno-plt -fno-math-errno -fno-trapping-math -fuse-linker-plugin -pipe -g0'
 * MAKEOPTS='-j12 -l12'
 * gcc (Gentoo 11.0.0_pre9999 p1, commit 584d52b088f9fcf78704b504c3f1f07e17c1cded) 11.0.0 20200523 (experimental)
 * g++ (Gentoo 11.0.0_pre9999 p1, commit 584d52b088f9fcf78704b504c3f1f07e17c1cded) 11.0.0 20200523 (experimental)
 * GNU ld (Gentoo 2.34 p4) 2.34.0
 * Linux ryzen.gnum.org 5.4.36 #1 SMP Thu Apr 30 04:38:28 UTC 2020 x86_64 AMD Ryzen 5 3600 6-Core Processor AuthenticAMD GNU/Linux
sys-devel/llvm-common: 4 minutes, 38 seconds average for 9 merges
2020-05-15T03:27:01 >>> sys-devel/llvm-common: 9 seconds
2020-05-16T20:39:40 >>> sys-devel/llvm-common: 10 seconds
2020-05-20T00:56:05 >>> sys-devel/llvm-common: 3 minutes, 1 second
2020-05-21T05:49:40 >>> sys-devel/llvm-common: 6 seconds
2020-05-22T01:54:36 >>> sys-devel/llvm-common: 6 minutes, 57 seconds
2020-05-22T03:05:46 >>> sys-devel/llvm-common: 7 minutes, 38 seconds
2020-05-22T12:25:21 >>> sys-devel/llvm-common: 7 minutes, 22 seconds
2020-05-23T03:27:20 >>> sys-devel/llvm-common: 7 minutes, 12 seconds
2020-05-24T23:21:12 >>> sys-devel/llvm-common: 9 minutes, 10 seconds
]0;emerge 03:01:33 31|606 llvm-common 07:55 (root@ryzen.gnum.org)kemerge 03:01:33 31|606 llvm-common 07:55 (root@ryzen.gnum.org)\>>> Extracting sys-devel/llvm-common-10.0.0
 * checking 8 files for package collisions
>>> Merging sys-devel/llvm-common-10.0.0 to /
 * removing unneeded *.la files
--- /usr/
--- /usr/share/
--- /usr/share/vim/
--- /usr/share/vim/vimfiles/
--- /usr/share/vim/vimfiles/ftdetect/
>>> /usr/share/vim/vimfiles/ftdetect/llvm.vim
>>> /usr/share/vim/vimfiles/ftdetect/llvm-lit.vim
>>> /usr/share/vim/vimfiles/ftdetect/tablegen.vim
--- /usr/share/vim/vimfiles/indent/
>>> /usr/share/vim/vimfiles/indent/llvm.vim
--- /usr/share/vim/vimfiles/ftplugin/
>>> /usr/share/vim/vimfiles/ftplugin/llvm.vim
>>> /usr/share/vim/vimfiles/ftplugin/tablegen.vim
--- /usr/share/vim/vimfiles/syntax/
>>> /usr/share/vim/vimfiles/syntax/llvm.vim
>>> /usr/share/vim/vimfiles/syntax/tablegen.vim
>>> Safely unmerging already-installed instance...
>>> Original instance of package unmerged safely.
>>> sys-devel/llvm-common-10.0.0 merged.
