[32;01m * [39;49;00mPackage:    sys-libs/compiler-rt-10.0.0
[32;01m * [39;49;00mRepository: gentoo
[32;01m * [39;49;00mMaintainer: llvm@gentoo.org
[32;01m * [39;49;00mUSE:        abi_x86_64 amd64 clang elibc_glibc kernel_linux userland_GNU
[32;01m * [39;49;00mFEATURES:   ccache network-sandbox preserve-libs sandbox userpriv usersandbox
