 * Package:    sys-apps/install-xattr-0.8
 * Repository: gentoo
 * Maintainer: blueness@gentoo.org base-system@gentoo.org
 * USE:        abi_x86_64 amd64 elibc_glibc kernel_linux userland_GNU
 * FEATURES:   ccache network-sandbox preserve-libs sandbox userpriv usersandbox
 * FEATURES='assume-digests binpkg-docompress binpkg-dostrip binpkg-logs binpkg-multi-instance buildpkg ccache cgroup compress-index config-protect-if-modified distlocks downgrade-backup fail-clean fixlafiles ipc-sandbox merge-sync multilib-strict network-sandbox news nodoc parallel-fetch parallel-install pid-sandbox preserve-libs qa-unresolved-soname-deps sandbox sfperms strict strict-keepdir unknown-features-warn unmerge-backup unmerge-logs unmerge-orphans userfetch userpriv usersandbox usersync xattr'
 * CFLAGS='-march=native -O2 -pipe -pipe -g0 -fno-stack-protector -fno-stack-clash-protection -fstack-check=no -fno-stack-check -Wl,-O4,--hash-style=gnu,--sort-common,--as-needed,-z,relro,-z,now,-lgomp,-lpthread'
 * CXXFLAGS='-march=native -O2 -pipe -pipe -g0 -fno-stack-protector -fno-stack-clash-protection -fstack-check=no -fno-stack-check -Wl,-O4,--hash-style=gnu,--sort-common,--as-needed,-z,relro,-z,now,-lgomp,-lpthread'
 * FFLAGS='-march=native -O2 -pipe -pipe -g0 -fno-stack-protector -fno-stack-clash-protection -fstack-check=no -fno-stack-check -Wl,-O4,--hash-style=gnu,--sort-common,--as-needed,-z,relro,-z,now,-lgomp,-lpthread'
 * FCFLAGS='-march=native -O2 -pipe -pipe -g0 -fno-stack-protector -fno-stack-clash-protection -fstack-check=no -fno-stack-check -Wl,-O4,--hash-style=gnu,--sort-common,--as-needed,-z,relro,-z,now,-lgomp,-lpthread'
 * F77FLAGS='-march=native -O2 -pipe -pipe -g0 -fno-stack-protector -fno-stack-clash-protection -fstack-check=no -fno-stack-check -Wl,-O4,--hash-style=gnu,--sort-common,--as-needed,-z,relro,-z,now,-lgomp,-lpthread'
 * LDFLAGS='-Wl,-O4,--hash-style=gnu,--sort-common,--as-needed,-z,relro,-z,now,-lgomp,-lpthread'
 * MAKEOPTS='-j12'
 * gcc (Gentoo 10.1.0 p1) 10.1.0
 * g++ (Gentoo 10.1.0 p1) 10.1.0
 * GNU ld (Gentoo 9999 p5) 2.34.50.20200520
 * Linux ryzen.gnum.org 5.4.36 #1 SMP Thu Apr 30 04:38:28 UTC 2020 x86_64 AMD Ryzen 5 3600 6-Core Processor AuthenticAMD GNU/Linux
sys-apps/install-xattr: 1 minute, 39 seconds average for 3 merges
2020-05-16T20:43:14 >>> sys-apps/install-xattr: 8 seconds
2020-05-20T00:56:23 >>> sys-apps/install-xattr: 4 minutes, 43 seconds
2020-05-21T05:52:15 >>> sys-apps/install-xattr: 6 seconds
]0;emerge 01:55:57 72|1175 install-xattr 01:39 (root@ryzen.gnum.org)>>> Unpacking source...
>>> Unpacking install-xattr-0.8.tar.bz2 to /tmp/portage/sys-apps/install-xattr-0.8/work
>>> Source unpacked in /tmp/portage/sys-apps/install-xattr-0.8/work
>>> Preparing source in /tmp/portage/sys-apps/install-xattr-0.8/work/install-xattr ...
>>> Source prepared.
>>> Configuring source in /tmp/portage/sys-apps/install-xattr-0.8/work/install-xattr ...
>>> Source configured.
>>> Compiling source in /tmp/portage/sys-apps/install-xattr-0.8/work/install-xattr ...
make -j12 
x86_64-pc-linux-gnu-gcc -march=native -O2 -pipe -pipe -g0 -fno-stack-protector -fno-stack-clash-protection -fstack-check=no -fno-stack-check -Wl,-O4,--hash-style=gnu,--sort-common,--as-needed,-z,relro,-z,now,-lgomp,-lpthread -Wall  -D_FILE_OFFSET_BITS=64 -Wl,-O4,--hash-style=gnu,--sort-common,--as-needed,-z,relro,-z,now,-lgomp,-lpthread -o install-xattr install-xattr.c 
>>> Source compiled.
>>> Test phase [not enabled]: sys-apps/install-xattr-0.8

>>> Install sys-apps/install-xattr-0.8 into /tmp/portage/sys-apps/install-xattr-0.8/image
make -j12 install 
install -m 755 -D install-xattr /tmp/portage/sys-apps/install-xattr-0.8/image/usr/bin/install-xattr
>>> Completed installing sys-apps/install-xattr-0.8 into /tmp/portage/sys-apps/install-xattr-0.8/image

 * Final size of build directory: 92 KiB
 * Final size of installed tree:  32 KiB

strip: x86_64-pc-linux-gnu-strip --strip-unneeded -N __gentoo_check_ldflags__ -R .comment -R .GCC.command.line -R .note.gnu.gold-version
   /usr/bin/install-xattr
./
./usr/
./usr/bin/
./usr/bin/install-xattr
>>> Done.
 * checking 1 files for package collisions
>>> Merging sys-apps/install-xattr-0.8 to /
 * removing unneeded *.la files
--- /usr/
--- /usr/bin/
>>> /usr/bin/install-xattr
>>> Safely unmerging already-installed instance...
>>> Original instance of package unmerged safely.
>>> sys-apps/install-xattr-0.8 merged.
