>>> Extracting info
 * Package:    sys-apps/kbd-2.2.0-r2
 * Repository: gentoo
 * USE:        userland_GNU abi_x86_64 elibc_glibc pam amd64 kernel_linux
 * FEATURES:   ccache preserve-libs userpriv
 * /etc/portage/package.cflags/ltoworkarounds.conf -> sys-apps/kbd: *FLAGS-="${NOCOMMON}"
 * FEATURES='parallel-fetch binpkg-docompress multilib-strict fixlafiles preserve-libs userpriv merge-sync distlocks news assume-digests xattr buildpkg nodoc cgroup qa-unresolved-soname-deps userfetch binpkg-dostrip binpkg-logs unmerge-orphans strict-keepdir sfperms ccache compress-index ebuild-locks config-protect-if-modified unknown-features-warn unmerge-logs usersync strict'
 * CFLAGS='-march=znver2 -O2 -pipe -g0 -fno-semantic-interposition -fno-plt -falign-functions=32 -fno-stack-protector -fno-stack-clash-protection -fstack-check=no -fno-stack-check -Wl,-O4 -Wl,-O4,--sort-common,--as-needed,-z,norelro,-z,now,-lgomp,-lpthread'
 * CXXFLAGS='-march=znver2 -O2 -pipe -g0 -fno-semantic-interposition -fno-plt -falign-functions=32 -fno-stack-protector -fno-stack-clash-protection -fstack-check=no -fno-stack-check -Wl,-O4 -Wl,-O4,--sort-common,--as-needed,-z,norelro,-z,now,-lgomp,-lpthread'
 * FFLAGS='-march=znver2 -O2 -pipe -g0 -fno-semantic-interposition -fno-plt -falign-functions=32 -fno-stack-protector -fno-stack-clash-protection -fstack-check=no -fno-stack-check -Wl,-O4 -Wl,-O4,--sort-common,--as-needed,-z,norelro,-z,now,-lgomp,-lpthread'
 * FCFLAGS='-march=znver2 -O2 -pipe -g0 -fno-semantic-interposition -fno-plt -falign-functions=32 -fno-stack-protector -fno-stack-clash-protection -fstack-check=no -fno-stack-check -Wl,-O4 -Wl,-O4,--sort-common,--as-needed,-z,norelro,-z,now,-lgomp,-lpthread'
 * F77FLAGS='-march=znver2 -O2 -pipe -g0 -fno-semantic-interposition -fno-plt -falign-functions=32 -fno-stack-protector -fno-stack-clash-protection -fstack-check=no -fno-stack-check -Wl,-O4 -Wl,-O4,--sort-common,--as-needed,-z,norelro,-z,now,-lgomp,-lpthread'
 * LDFLAGS='-march=znver2 -O2 -pipe -g0 -fno-semantic-interposition -fno-plt -falign-functions=32 -fno-stack-protector -fno-stack-clash-protection -fstack-check=no -fno-stack-check -Wl,-O4,--sort-common,--as-needed,-z,norelro,-z,now,-lgomp,-lpthread'
 * MAKEOPTS='-j12 -l12'
 * gcc (Gentoo 11.0.0_pre9999 p1, commit 184c21bf1cd04a108ed9bd04635e7d57ac39f616) 11.0.0 20200611 (experimental)
 * g++ (Gentoo 11.0.0_pre9999 p1, commit 184c21bf1cd04a108ed9bd04635e7d57ac39f616) 11.0.0 20200611 (experimental)
 * GNU ld (Gentoo 2.34 p4) 2.34.0
 * Linux rescue 5.4.36 #1 SMP Thu Apr 30 04:38:28 UTC 2020 x86_64 AMD Ryzen 5 3600 6-Core Processor AuthenticAMD GNU/Linux
sys-apps/kbd: 1 minute, 34 seconds average for 16 merges
2020-05-21T13:57:45 >>> sys-apps/kbd: 2 minutes, 21 seconds
2020-05-22T00:39:39 >>> sys-apps/kbd: 57 seconds
2020-05-23T23:09:06 >>> sys-apps/kbd: 27 seconds
2020-05-26T00:11:45 >>> sys-apps/kbd: 58 seconds
2020-05-26T14:39:03 >>> sys-apps/kbd: 16 seconds
2020-05-27T02:15:26 >>> sys-apps/kbd: 15 seconds
2020-05-28T05:48:09 >>> sys-apps/kbd: 1 minute, 43 seconds
2020-05-29T02:24:48 >>> sys-apps/kbd: 18 seconds
2020-05-29T12:37:46 >>> sys-apps/kbd: 51 seconds
2020-05-30T23:53:15 >>> sys-apps/kbd: 2 minutes, 26 seconds
2020-05-31T23:10:58 >>> sys-apps/kbd: 4 minutes, 24 seconds
2020-06-01T08:00:32 >>> sys-apps/kbd: 7 minutes, 56 seconds
2020-06-04T14:22:39 >>> sys-apps/kbd: 1 minute, 3 seconds
2020-06-06T11:20:39 >>> sys-apps/kbd: 46 seconds
2020-06-09T04:05:58 >>> sys-apps/kbd: 7 seconds
2020-06-12T02:05:37 >>> sys-apps/kbd: 24 seconds
]0;emerge 19:19:16 34|43 kbd 00:26 (root@rescue)>>> Extracting sys-apps/kbd-2.2.0-r2
 * checking 670 files for package collisions
>>> Merging sys-apps/kbd-2.2.0-r2 to /
 * removing unneeded *.la files
--- /etc/
--- /etc/pam.d/
>>> /etc/pam.d/._cfg0000_vlock
--- /usr/
--- /usr/share/
--- /usr/share/consolefonts/
>>> /usr/share/consolefonts/iso04.16.gz
>>> /usr/share/consolefonts/iso03.16.gz
>>> /usr/share/consolefonts/lat7-14.psfu.gz
>>> /usr/share/consolefonts/iso02-12x22.psfu.gz
>>> /usr/share/consolefonts/iso03.08.gz
>>> /usr/share/consolefonts/gr737b-8x11.psfu.gz
>>> /usr/share/consolefonts/default8x9.psfu.gz
>>> /usr/share/consolefonts/161.cp.gz
>>> /usr/share/consolefonts/iso08.16.gz
>>> /usr/share/consolefonts/alt-8x8.gz
>>> /usr/share/consolefonts/iso10.16.gz
>>> /usr/share/consolefonts/iso06.08.gz
>>> /usr/share/consolefonts/LatArCyrHeb-14.psfu.gz
>>> /usr/share/consolefonts/162.cp.gz
>>> /usr/share/consolefonts/lat9v-16.psfu.gz
>>> /usr/share/consolefonts/ruscii_8x16.psfu.gz
>>> /usr/share/consolefonts/gr928a-8x14.psfu.gz
>>> /usr/share/consolefonts/Cyr_a8x8.psfu.gz
>>> /usr/share/consolefonts/iso07.16.gz
>>> /usr/share/consolefonts/cp866-8x16.psf.gz
>>> /usr/share/consolefonts/README.drdos
>>> /usr/share/consolefonts/pancyrillic.f16.psfu.gz
>>> /usr/share/consolefonts/lat1-16.psfu.gz
>>> /usr/share/consolefonts/drdos8x14.psfu.gz
>>> /usr/share/consolefonts/README.Cyrillic
>>> /usr/share/consolefonts/README.eurlatgr
>>> /usr/share/consolefonts/gr928b-8x16.psfu.gz
>>> /usr/share/consolefonts/iso06.14.gz
>>> /usr/share/consolefonts/README.Greek
>>> /usr/share/consolefonts/Agafari-16.psfu.gz
>>> /usr/share/consolefonts/lat4-16+.psfu.gz
>>> /usr/share/consolefonts/koi8r-8x8.gz
>>> /usr/share/consolefonts/gr928-8x16-thin.psfu.gz
>>> /usr/share/consolefonts/gr737c-8x6.psfu.gz
>>> /usr/share/consolefonts/Agafari-12.psfu.gz
>>> /usr/share/consolefonts/gr928-9x14.psfu.gz
>>> /usr/share/consolefonts/lat9w-08.psfu.gz
>>> /usr/share/consolefonts/iso09.16.gz
>>> /usr/share/consolefonts/latarcyrheb-sun32.psfu.gz
>>> /usr/share/consolefonts/LatArCyrHeb-08.psfu.gz
>>> /usr/share/consolefonts/165.cp.gz
>>> /usr/share/consolefonts/lat9u-08.psfu.gz
>>> /usr/share/consolefonts/README.Hebrew
>>> /usr/share/consolefonts/arm8.fnt.gz
>>> /usr/share/consolefonts/koi8u_8x16.psfu.gz
>>> /usr/share/consolefonts/lat9w-16.psfu.gz
>>> /usr/share/consolefonts/README.Lat2-Terminus16
>>> /usr/share/consolefonts/lat9-08.psf.gz
>>> /usr/share/consolefonts/default8x16.psfu.gz
>>> /usr/share/consolefonts/Cyr_a8x14.psfu.gz
>>> /usr/share/consolefonts/972.cp.gz
>>> /usr/share/consolefonts/lat2-10.psfu.gz
>>> /usr/share/consolefonts/cp865-8x8.psfu.gz
>>> /usr/share/consolefonts/koi8u_8x8.psfu.gz
>>> /usr/share/consolefonts/gr928b-8x14.psfu.gz
>>> /usr/share/consolefonts/UniCyr_8x14.psf.gz
>>> /usr/share/consolefonts/lat4a-08.psfu.gz
>>> /usr/share/consolefonts/cp857.08.gz
>>> /usr/share/consolefonts/iso10.14.gz
>>> /usr/share/consolefonts/greek-polytonic.psfu.gz
>>> /usr/share/consolefonts/lat9v-12.psfu.gz
>>> /usr/share/consolefonts/koi8c-8x16.gz
>>> /usr/share/consolefonts/Lat2-Terminus16.psfu.gz
>>> /usr/share/consolefonts/iso08.08.gz
>>> /usr/share/consolefonts/cybercafe.fnt.gz
>>> /usr/share/consolefonts/cp857.14.gz
>>> /usr/share/consolefonts/latarcyrheb-sun16.psfu.gz
>>> /usr/share/consolefonts/cp850-8x8.psfu.gz
>>> /usr/share/consolefonts/lat7a-16.psf.gz
>>> /usr/share/consolefonts/lat0-12.psfu.gz
>>> /usr/share/consolefonts/lat4-10.psfu.gz
>>> /usr/share/consolefonts/Goha-12.psfu.gz
>>> /usr/share/consolefonts/iso08.14.gz
>>> /usr/share/consolefonts/README.LatGrkCyr
>>> /usr/share/consolefonts/iso03.14.gz
>>> /usr/share/consolefonts/gr737c-8x8.psfu.gz
>>> /usr/share/consolefonts/gr737c-8x16.psfu.gz
>>> /usr/share/consolefonts/README.Arabic
>>> /usr/share/consolefonts/iso01-12x22.psfu.gz
>>> /usr/share/consolefonts/Agafari-14.psfu.gz
>>> /usr/share/consolefonts/lat9v-10.psfu.gz
>>> /usr/share/consolefonts/lat9u-10.psfu.gz
>>> /usr/share/consolefonts/t.fnt.gz
>>> /usr/share/consolefonts/gr737a-9x14.psfu.gz
>>> /usr/share/consolefonts/lat1-08.psfu.gz
>>> /usr/share/consolefonts/README.lat7
>>> /usr/share/consolefonts/lat5-12.psfu.gz
>>> /usr/share/consolefonts/lat4-12.psfu.gz
>>> /usr/share/consolefonts/iso07.14.gz
>>> /usr/share/consolefonts/iso02.14.gz
>>> /usr/share/consolefonts/iso02.08.gz
>>> /usr/share/consolefonts/UniCyr_8x16.psf.gz
>>> /usr/share/consolefonts/cp865-8x16.psfu.gz
>>> /usr/share/consolefonts/koi8r.8x8.psfu.gz
>>> /usr/share/consolefonts/lat9-12.psf.gz
>>> /usr/share/consolefonts/lat9-14.psf.gz
>>> /usr/share/consolefonts/eurlatgr.psfu.gz
>>> /usr/share/consolefonts/Cyr_a8x16.psfu.gz
>>> /usr/share/consolefonts/lat4-19.psfu.gz
>>> /usr/share/consolefonts/cp866-8x8.psf.gz
>>> /usr/share/consolefonts/UniCyrExt_8x16.psf.gz
>>> /usr/share/consolefonts/gr737d-8x16.psfu.gz
>>> /usr/share/consolefonts/gr737a-9x16.psfu.gz
>>> /usr/share/consolefonts/iso05.14.gz
>>> /usr/share/consolefonts/gr928a-8x16.psfu.gz
>>> /usr/share/consolefonts/LatArCyrHeb-16+.psfu.gz
>>> /usr/share/consolefonts/LatGrkCyr-8x16.psfu.gz
>>> /usr/share/consolefonts/lat4a-16+.psfu.gz
>>> /usr/share/consolefonts/lat2-sun16.psfu.gz
>>> /usr/share/consolefonts/lat2-08.psfu.gz
>>> /usr/share/consolefonts/gr737c-8x14.psfu.gz
>>> /usr/share/consolefonts/README.psfu
>>> /usr/share/consolefonts/928.cp.gz
>>> /usr/share/consolefonts/README.Sun
>>> /usr/share/consolefonts/gr737b-9x16-medieval.psfu.gz
>>> /usr/share/consolefonts/altc-8x16.gz
>>> /usr/share/consolefonts/iso05.16.gz
>>> /usr/share/consolefonts/lat4a-10.psfu.gz
>>> /usr/share/consolefonts/koi8-14.psf.gz
>>> /usr/share/consolefonts/lat9v-08.psfu.gz
>>> /usr/share/consolefonts/viscii10-8x16.psfu.gz
>>> /usr/share/consolefonts/lat9-10.psf.gz
>>> /usr/share/consolefonts/cp866-8x14.psf.gz
>>> /usr/share/consolefonts/iso01.14.gz
>>> /usr/share/consolefonts/alt-8x16.gz
>>> /usr/share/consolefonts/lat1-10.psfu.gz
>>> /usr/share/consolefonts/alt-8x14.gz
>>> /usr/share/consolefonts/drdos8x8.psfu.gz
>>> /usr/share/consolefonts/cp1250.psfu.gz
>>> /usr/share/consolefonts/iso09.08.gz
>>> /usr/share/consolefonts/lat0-08.psfu.gz
>>> /usr/share/consolefonts/koi8r-8x16.gz
>>> /usr/share/consolefonts/README.cp1250
>>> /usr/share/consolefonts/koi8r-8x14.gz
>>> /usr/share/consolefonts/lat4a-16.psfu.gz
>>> /usr/share/consolefonts/lat4-08.psfu.gz
>>> /usr/share/consolefonts/GohaClassic-16.psfu.gz
>>> /usr/share/consolefonts/lat9-16.psf.gz
>>> /usr/share/consolefonts/README.lat0
>>> /usr/share/consolefonts/iso09.14.gz
>>> /usr/share/consolefonts/gr928-9x16.psfu.gz
>>> /usr/share/consolefonts/iso07u-16.psfu.gz
>>> /usr/share/consolefonts/t850b.fnt.gz
>>> /usr/share/consolefonts/cyr-sun16.psfu.gz
>>> /usr/share/consolefonts/README.eurlatgr.mappings
>>> /usr/share/consolefonts/README.12x22
>>> /usr/share/consolefonts/lat4a-12.psfu.gz
>>> /usr/share/consolefonts/LatArCyrHeb-16.psfu.gz
>>> /usr/share/consolefonts/iso05.08.gz
>>> /usr/share/consolefonts/iso04.08.gz
>>> /usr/share/consolefonts/GohaClassic-14.psfu.gz
>>> /usr/share/consolefonts/iso10.08.gz
>>> /usr/share/consolefonts/lat0-14.psfu.gz
>>> /usr/share/consolefonts/lat4-14.psfu.gz
>>> /usr/share/consolefonts/lat0-10.psfu.gz
>>> /usr/share/consolefonts/cp865-8x14.psfu.gz
>>> /usr/share/consolefonts/README.Ethiopic
>>> /usr/share/consolefonts/lat1-12.psfu.gz
>>> /usr/share/consolefonts/iso01.08.gz
>>> /usr/share/consolefonts/lat5-16.psfu.gz
>>> /usr/share/consolefonts/LatArCyrHeb-19.psfu.gz
>>> /usr/share/consolefonts/lat9u-12.psfu.gz
>>> /usr/share/consolefonts/iso06.16.gz
>>> /usr/share/consolefonts/Mik_8x16.gz
>>> /usr/share/consolefonts/LatGrkCyr-12x22.psfu.gz
>>> /usr/share/consolefonts/aply16.psf.gz
>>> /usr/share/consolefonts/lat9w-12.psfu.gz
>>> /usr/share/consolefonts/LatKaCyrHeb-14.psfu.gz
>>> /usr/share/consolefonts/lat5-14.psfu.gz
>>> /usr/share/consolefonts/lat9w-14.psfu.gz
>>> /usr/share/consolefonts/gr737a-8x8.psfu.gz
>>> /usr/share/consolefonts/lat0-16.psfu.gz
>>> /usr/share/consolefonts/README.cybercafe
>>> /usr/share/consolefonts/Goha-14.psfu.gz
>>> /usr/share/consolefonts/UniCyr_8x8.psf.gz
>>> /usr/share/consolefonts/lat2-14.psfu.gz
>>> /usr/share/consolefonts/iso01.16.gz
>>> /usr/share/consolefonts/lat4-16.psfu.gz
>>> /usr/share/consolefonts/GohaClassic-12.psfu.gz
>>> /usr/share/consolefonts/cp857.16.gz
>>> /usr/share/consolefonts/737.cp.gz
>>> /usr/share/consolefonts/lat2-12.psfu.gz
>>> /usr/share/consolefonts/cp850-8x14.psfu.gz
>>> /usr/share/consolefonts/lat7a-14.psfu.gz
>>> /usr/share/consolefonts/163.cp.gz
>>> /usr/share/consolefonts/drdos8x16.psfu.gz
>>> /usr/share/consolefonts/cp850-8x16.psfu.gz
>>> /usr/share/consolefonts/lat2a-16.psfu.gz
>>> /usr/share/consolefonts/lat4a-19.psfu.gz
>>> /usr/share/consolefonts/lat9u-16.psfu.gz
--- /usr/share/consolefonts/partialfonts/
>>> /usr/share/consolefonts/partialfonts/none.00-17.16.gz
>>> /usr/share/consolefonts/partialfonts/8859-2.a0-ff.14.gz
>>> /usr/share/consolefonts/partialfonts/8859-9.a0-ff.16.gz
>>> /usr/share/consolefonts/partialfonts/8859-7.a0-ff.08.gz
>>> /usr/share/consolefonts/partialfonts/8859-10.a0-ff.08.gz
>>> /usr/share/consolefonts/partialfonts/none.00-17.08.gz
>>> /usr/share/consolefonts/partialfonts/8859-2.a0-ff.16.gz
>>> /usr/share/consolefonts/partialfonts/8859-3.a0-ff.16.gz
>>> /usr/share/consolefonts/partialfonts/8859-3.a0-ff.08.gz
>>> /usr/share/consolefonts/partialfonts/none.00-17.14.gz
>>> /usr/share/consolefonts/partialfonts/ascii.20-7f.08.gz
>>> /usr/share/consolefonts/partialfonts/cp437.00-1f.14.gz
>>> /usr/share/consolefonts/partialfonts/8859-10.a0-ff.16.gz
>>> /usr/share/consolefonts/partialfonts/8859-5.a0-ff.16.gz
>>> /usr/share/consolefonts/partialfonts/8859-7.a0-ff.14.gz
>>> /usr/share/consolefonts/partialfonts/8859-5.a0-ff.08.gz
>>> /usr/share/consolefonts/partialfonts/8859-7.a0-ff.16.gz
>>> /usr/share/consolefonts/partialfonts/8859-1.a0-ff.14.gz
>>> /usr/share/consolefonts/partialfonts/8859-10.a0-ff.14.gz
>>> /usr/share/consolefonts/partialfonts/8859-1.a0-ff.16.gz
>>> /usr/share/consolefonts/partialfonts/8859-2.a0-ff.08.gz
>>> /usr/share/consolefonts/partialfonts/ascii.20-7f.14.gz
>>> /usr/share/consolefonts/partialfonts/8859-3.a0-ff.14.gz
>>> /usr/share/consolefonts/partialfonts/8859-9.a0-ff.08.gz
>>> /usr/share/consolefonts/partialfonts/cp437.00-1f.08.gz
>>> /usr/share/consolefonts/partialfonts/8859-9.a0-ff.14.gz
>>> /usr/share/consolefonts/partialfonts/8859-1.a0-ff.08.gz
>>> /usr/share/consolefonts/partialfonts/8859-8.a0-ff.14.gz
>>> /usr/share/consolefonts/partialfonts/cp437.00-1f.16.gz
>>> /usr/share/consolefonts/partialfonts/8859-8.a0-ff.16.gz
>>> /usr/share/consolefonts/partialfonts/8859-4.a0-ff.14.gz
>>> /usr/share/consolefonts/partialfonts/8859-8.a0-ff.08.gz
>>> /usr/share/consolefonts/partialfonts/8859-6.a0-ff.08.gz
>>> /usr/share/consolefonts/partialfonts/8859-5.a0-ff.14.gz
>>> /usr/share/consolefonts/partialfonts/ascii.20-7f.16.gz
>>> /usr/share/consolefonts/partialfonts/8859-6.a0-ff.14.gz
>>> /usr/share/consolefonts/partialfonts/8859-4.a0-ff.16.gz
>>> /usr/share/consolefonts/partialfonts/8859-4.a0-ff.08.gz
>>> /usr/share/consolefonts/partialfonts/8859-6.a0-ff.16.gz
>>> /usr/share/consolefonts/iso04.14.gz
>>> /usr/share/consolefonts/iso02.16.gz
>>> /usr/share/consolefonts/Goha-16.psfu.gz
>>> /usr/share/consolefonts/ruscii_8x8.psfu.gz
>>> /usr/share/consolefonts/lat0-sun16.psfu.gz
>>> /usr/share/consolefonts/lat9w-10.psfu.gz
>>> /usr/share/consolefonts/lat9u-14.psfu.gz
>>> /usr/share/consolefonts/lat9v-14.psfu.gz
>>> /usr/share/consolefonts/sun12x22.psfu.gz
>>> /usr/share/consolefonts/lat1-14.psfu.gz
>>> /usr/share/consolefonts/880.cp.gz
>>> /usr/share/consolefonts/README.lat9
>>> /usr/share/consolefonts/lat4a-14.psfu.gz
>>> /usr/share/consolefonts/koi8u_8x14.psfu.gz
>>> /usr/share/consolefonts/lat2-16.psfu.gz
>>> /usr/share/consolefonts/tcvn8x16.psf.gz
>>> /usr/share/consolefonts/gr737c-8x7.psfu.gz
>>> /usr/share/consolefonts/ERRORS
>>> /usr/share/consolefonts/164.cp.gz
>>> /usr/share/consolefonts/drdos8x6.psfu.gz
--- /usr/share/man/
--- /usr/share/man/man8/
>>> /usr/share/man/man8/showconsolefont.8.bz2
>>> /usr/share/man/man8/kbdrate.8.bz2
>>> /usr/share/man/man8/mapscrn.8.bz2
>>> /usr/share/man/man8/loadunimap.8.bz2
>>> /usr/share/man/man8/setfont.8.bz2
>>> /usr/share/man/man8/setkeycodes.8.bz2
>>> /usr/share/man/man8/getkeycodes.8.bz2
>>> /usr/share/man/man8/setvtrgb.8.bz2
>>> /usr/share/man/man8/resizecons.8.bz2
--- /usr/share/man/man5/
>>> /usr/share/man/man5/keymaps.5.bz2
--- /usr/share/man/man1/
>>> /usr/share/man/man1/chvt.1.bz2
>>> /usr/share/man/man1/unicode_start.1.bz2
>>> /usr/share/man/man1/kbdinfo.1.bz2
>>> /usr/share/man/man1/kbd_mode.1.bz2
>>> /usr/share/man/man1/psfgettable.1.bz2
>>> /usr/share/man/man1/deallocvt.1.bz2
>>> /usr/share/man/man1/setleds.1.bz2
>>> /usr/share/man/man1/vlock.1.bz2
>>> /usr/share/man/man1/unicode_stop.1.bz2
>>> /usr/share/man/man1/setmetamode.1.bz2
>>> /usr/share/man/man1/openvt.1.bz2
>>> /usr/share/man/man1/psfaddtable.1.bz2
>>> /usr/share/man/man1/showkey.1.bz2
>>> /usr/share/man/man1/psfxtable.1.bz2
>>> /usr/share/man/man1/psfstriptable.1.bz2
>>> /usr/share/man/man1/dumpkeys.1.bz2
>>> /usr/share/man/man1/fgconsole.1.bz2
>>> /usr/share/man/man1/loadkeys.1.bz2
--- /usr/share/unimaps/
>>> /usr/share/unimaps/lat1.uni
>>> /usr/share/unimaps/ECMA144.uni
>>> /usr/share/unimaps/cp737.uni
>>> /usr/share/unimaps/lat4u.uni
>>> /usr/share/unimaps/iso07u.uni
>>> /usr/share/unimaps/8859-13.a0-ff.uni
>>> /usr/share/unimaps/8859-6.a0-ff.uni
>>> /usr/share/unimaps/8859-9.a0-ff.uni
>>> /usr/share/unimaps/iso06.uni
>>> /usr/share/unimaps/8859-14.a0-ff.uni
>>> /usr/share/unimaps/8859-10.a0-ff.uni
>>> /usr/share/unimaps/cp737c.uni
>>> /usr/share/unimaps/viscii.uni
>>> /usr/share/unimaps/8859-4.a0-ff.uni
>>> /usr/share/unimaps/cyralt.uni
>>> /usr/share/unimaps/empty.uni
>>> /usr/share/unimaps/koi8u.uni
>>> /usr/share/unimaps/cp437.uni
>>> /usr/share/unimaps/cp865a.uni
>>> /usr/share/unimaps/koi8r.uni
>>> /usr/share/unimaps/cp850b.uni
>>> /usr/share/unimaps/tcvn.uni
>>> /usr/share/unimaps/iso05.uni
>>> /usr/share/unimaps/cp850a.uni
>>> /usr/share/unimaps/8859-5.a0-ff.uni
>>> /usr/share/unimaps/iso03.uni
>>> /usr/share/unimaps/8859-3.a0-ff.uni
>>> /usr/share/unimaps/lat2u.uni
>>> /usr/share/unimaps/cp1250.uni
>>> /usr/share/unimaps/iso09.uni
>>> /usr/share/unimaps/armscii8.uni
>>> /usr/share/unimaps/cybercafe.uni
>>> /usr/share/unimaps/lat4.uni
>>> /usr/share/unimaps/cp866a.uni
>>> /usr/share/unimaps/iso07.uni
>>> /usr/share/unimaps/iso10.uni
>>> /usr/share/unimaps/cp737a.uni
>>> /usr/share/unimaps/cp850z.uni
>>> /usr/share/unimaps/ascii.20-7f.uni
>>> /usr/share/unimaps/iso01.uni
>>> /usr/share/unimaps/cp865.uni
>>> /usr/share/unimaps/lat7.uni
>>> /usr/share/unimaps/8859-15.a0-ff.uni
>>> /usr/share/unimaps/cp737b.uni
>>> /usr/share/unimaps/iso04.uni
>>> /usr/share/unimaps/cp437.00-1f.uni
>>> /usr/share/unimaps/lat9v.uni
>>> /usr/share/unimaps/cp866.uni
>>> /usr/share/unimaps/lat9w.uni
>>> /usr/share/unimaps/lat2.uni
>>> /usr/share/unimaps/iso08.uni
>>> /usr/share/unimaps/ethiopic.uni
>>> /usr/share/unimaps/cp850.uni
>>> /usr/share/unimaps/README
>>> /usr/share/unimaps/iso15.uni
>>> /usr/share/unimaps/8859-1.a0-ff.uni
>>> /usr/share/unimaps/8859-2.a0-ff.uni
>>> /usr/share/unimaps/iso02.uni
>>> /usr/share/unimaps/def.uni
>>> /usr/share/unimaps/ruscii.uni
>>> /usr/share/unimaps/8859-8.a0-ff.uni
>>> /usr/share/unimaps/lat9u.uni
>>> /usr/share/unimaps/8859-7.a0-ff.uni
>>> /usr/share/unimaps/lat1u.uni
--- /usr/share/consoletrans/
>>> /usr/share/consoletrans/cp850_to_uni.trans
>>> /usr/share/consoletrans/koi8-u_to_uni.trans
>>> /usr/share/consoletrans/cp857_to_uni.trans
>>> /usr/share/consoletrans/koi2alt
>>> /usr/share/consoletrans/koi8u2ruscii
>>> /usr/share/consoletrans/cp864_to_uni.trans
>>> /usr/share/consoletrans/8859-6_to_uni.trans
>>> /usr/share/consoletrans/viscii1.0_to_viscii1.1.trans
>>> /usr/share/consoletrans/space
>>> /usr/share/consoletrans/cp437_to_iso01.trans
>>> /usr/share/consoletrans/8859-10_to_uni.trans
>>> /usr/share/consoletrans/cp855_to_uni.trans
>>> /usr/share/consoletrans/trivial
>>> /usr/share/consoletrans/cp862_to_uni.trans
>>> /usr/share/consoletrans/utflist
>>> /usr/share/consoletrans/cp874_to_uni.trans
>>> /usr/share/consoletrans/8859-8_to_uni.trans
>>> /usr/share/consoletrans/zero
>>> /usr/share/consoletrans/cp863_to_uni.trans
>>> /usr/share/consoletrans/8859-15_to_uni.trans
>>> /usr/share/consoletrans/iso02_to_cp1250.trans
>>> /usr/share/consoletrans/8859-1_to_uni.trans
>>> /usr/share/consoletrans/8859-2_to_uni.trans
>>> /usr/share/consoletrans/cp850_to_iso01.trans
>>> /usr/share/consoletrans/viscii1.0_to_tcvn.trans
>>> /usr/share/consoletrans/cp860_to_uni.trans
>>> /usr/share/consoletrans/cp853_to_uni.trans
>>> /usr/share/consoletrans/vga2iso
>>> /usr/share/consoletrans/cp861_to_uni.trans
>>> /usr/share/consoletrans/cp865_to_uni.trans
>>> /usr/share/consoletrans/cp852_to_uni.trans
>>> /usr/share/consoletrans/cp869_to_uni.trans
>>> /usr/share/consoletrans/cp1251_to_uni.trans
>>> /usr/share/consoletrans/cp775_to_uni.trans
>>> /usr/share/consoletrans/8859-3_to_uni.trans
>>> /usr/share/consoletrans/latin2u.trans
>>> /usr/share/consoletrans/cp737_to_uni.trans
>>> /usr/share/consoletrans/8859-14_to_uni.trans
>>> /usr/share/consoletrans/koi8-r_to_uni.trans
>>> /usr/share/consoletrans/cp1250_to_uni.trans
>>> /usr/share/consoletrans/8859-5_to_uni.trans
>>> /usr/share/consoletrans/cp437_to_uni.trans
>>> /usr/share/consoletrans/8859-7_to_uni.trans
>>> /usr/share/consoletrans/8859-4_to_uni.trans
>>> /usr/share/consoletrans/null
>>> /usr/share/consoletrans/8859-9_to_uni.trans
>>> /usr/share/consoletrans/baltic.trans
>>> /usr/share/consoletrans/cp866_to_uni.trans
>>> /usr/share/consoletrans/8859-13_to_uni.trans
--- /usr/share/keymaps/
>>> /usr/share/keymaps/ppc -> mac
--- /usr/share/keymaps/sun/
>>> /usr/share/keymaps/sun/sun-pl.map.gz
>>> /usr/share/keymaps/sun/sunt5-ru.map.gz
>>> /usr/share/keymaps/sun/sunt4-es.map.gz
>>> /usr/share/keymaps/sun/sunt6-uk.map.gz
>>> /usr/share/keymaps/sun/sundvorak.map.gz
>>> /usr/share/keymaps/sun/sunt5-uk.map.gz
>>> /usr/share/keymaps/sun/sunt5-de-latin1.map.gz
>>> /usr/share/keymaps/sun/sun-pl-altgraph.map.gz
>>> /usr/share/keymaps/sun/sunt5-us-cz.map.gz
>>> /usr/share/keymaps/sun/sunt5-fi-latin1.map.gz
>>> /usr/share/keymaps/sun/sunt5-cz-us.map.gz
>>> /usr/share/keymaps/sun/sunt4-fi-latin1.map.gz
>>> /usr/share/keymaps/sun/sunt5-es.map.gz
>>> /usr/share/keymaps/sun/sunt5-fr-latin1.map.gz
>>> /usr/share/keymaps/sun/sunkeymap.map.gz
>>> /usr/share/keymaps/sun/sunt4-no-latin1.map.gz
--- /usr/share/keymaps/atari/
>>> /usr/share/keymaps/atari/atari-us.map.gz
>>> /usr/share/keymaps/atari/atari-se.map.gz
>>> /usr/share/keymaps/atari/atari-uk-falcon.map.gz
>>> /usr/share/keymaps/atari/atari-de.map.gz
--- /usr/share/keymaps/i386/
--- /usr/share/keymaps/i386/azerty/
>>> /usr/share/keymaps/i386/azerty/azerty.map.gz
>>> /usr/share/keymaps/i386/azerty/be-latin1.map.gz
>>> /usr/share/keymaps/i386/azerty/fr-latin9.map.gz
>>> /usr/share/keymaps/i386/azerty/wangbe2.map.gz
>>> /usr/share/keymaps/i386/azerty/wangbe.map.gz
>>> /usr/share/keymaps/i386/azerty/fr-pc.map.gz
>>> /usr/share/keymaps/i386/azerty/fr-latin1.map.gz
>>> /usr/share/keymaps/i386/azerty/fr.map.gz
--- /usr/share/keymaps/i386/qwerty/
>>> /usr/share/keymaps/i386/qwerty/ruwin_ctrl-UTF-8.map.gz
>>> /usr/share/keymaps/i386/qwerty/sr-cy.map.gz
>>> /usr/share/keymaps/i386/qwerty/ttwin_ct_sh-UTF-8.map.gz
>>> /usr/share/keymaps/i386/qwerty/uk.map.gz
>>> /usr/share/keymaps/i386/qwerty/bywin-cp1251.map.gz
>>> /usr/share/keymaps/i386/qwerty/trf.map.gz
>>> /usr/share/keymaps/i386/qwerty/ruwin_ct_sh-CP1251.map.gz
>>> /usr/share/keymaps/i386/qwerty/lt.baltic.map.gz
>>> /usr/share/keymaps/i386/qwerty/it-ibm.map.gz
>>> /usr/share/keymaps/i386/qwerty/trq.map.gz
>>> /usr/share/keymaps/i386/qwerty/ruwin_ct_sh-UTF-8.map.gz
>>> /usr/share/keymaps/i386/qwerty/lt.map.gz
>>> /usr/share/keymaps/i386/qwerty/ttwin_cplk-UTF-8.map.gz
>>> /usr/share/keymaps/i386/qwerty/se-ir209.map.gz
>>> /usr/share/keymaps/i386/qwerty/by-cp1251.map.gz
>>> /usr/share/keymaps/i386/qwerty/ruwin_cplk-CP1251.map.gz
>>> /usr/share/keymaps/i386/qwerty/kazakh.map.gz
>>> /usr/share/keymaps/i386/qwerty/br-latin1-abnt2.map.gz
>>> /usr/share/keymaps/i386/qwerty/pl2.map.gz
>>> /usr/share/keymaps/i386/qwerty/br-abnt2.map.gz
>>> /usr/share/keymaps/i386/qwerty/ua-utf-ws.map.gz
>>> /usr/share/keymaps/i386/qwerty/la-latin1.map.gz
>>> /usr/share/keymaps/i386/qwerty/kyrgyz.map.gz
>>> /usr/share/keymaps/i386/qwerty/tr_q-latin5.map.gz
>>> /usr/share/keymaps/i386/qwerty/ua-ws.map.gz
>>> /usr/share/keymaps/i386/qwerty/sv-latin1.map.gz
>>> /usr/share/keymaps/i386/qwerty/jp106.map.gz
>>> /usr/share/keymaps/i386/qwerty/pt-latin9.map.gz
>>> /usr/share/keymaps/i386/qwerty/dk-latin1.map.gz
>>> /usr/share/keymaps/i386/qwerty/defkeymap_V1.0.map.gz
>>> /usr/share/keymaps/i386/qwerty/ru_win.map.gz
>>> /usr/share/keymaps/i386/qwerty/no.map.gz
>>> /usr/share/keymaps/i386/qwerty/pl4.map.gz
>>> /usr/share/keymaps/i386/qwerty/dk.map.gz
>>> /usr/share/keymaps/i386/qwerty/sk-qwerty.map.gz
>>> /usr/share/keymaps/i386/qwerty/ttwin_ctrl-UTF-8.map.gz
>>> /usr/share/keymaps/i386/qwerty/emacs.map.gz
>>> /usr/share/keymaps/i386/qwerty/il.map.gz
>>> /usr/share/keymaps/i386/qwerty/pt-latin1.map.gz
>>> /usr/share/keymaps/i386/qwerty/ua-cp1251.map.gz
>>> /usr/share/keymaps/i386/qwerty/bg-cp1251.map.gz
>>> /usr/share/keymaps/i386/qwerty/fi.map.gz
>>> /usr/share/keymaps/i386/qwerty/ru2.map.gz
>>> /usr/share/keymaps/i386/qwerty/bg-cp855.map.gz
>>> /usr/share/keymaps/i386/qwerty/cz-lat2.map.gz
>>> /usr/share/keymaps/i386/qwerty/fa.map.gz
>>> /usr/share/keymaps/i386/qwerty/se-fi-ir209.map.gz
>>> /usr/share/keymaps/i386/qwerty/ua.map.gz
>>> /usr/share/keymaps/i386/qwerty/ru.map.gz
>>> /usr/share/keymaps/i386/qwerty/mk0.map.gz
>>> /usr/share/keymaps/i386/qwerty/nl.map.gz
>>> /usr/share/keymaps/i386/qwerty/br-latin1-us.map.gz
>>> /usr/share/keymaps/i386/qwerty/no-latin1.map.gz
>>> /usr/share/keymaps/i386/qwerty/ru-cp1251.map.gz
>>> /usr/share/keymaps/i386/qwerty/pl.map.gz
>>> /usr/share/keymaps/i386/qwerty/mk-cp1251.map.gz
>>> /usr/share/keymaps/i386/qwerty/bg_bds-utf8.map.gz
>>> /usr/share/keymaps/i386/qwerty/es-cp850.map.gz
>>> /usr/share/keymaps/i386/qwerty/bg_bds-cp1251.map.gz
>>> /usr/share/keymaps/i386/qwerty/es.map.gz
>>> /usr/share/keymaps/i386/qwerty/ro_std.map.gz
>>> /usr/share/keymaps/i386/qwerty/nl2.map.gz
>>> /usr/share/keymaps/i386/qwerty/ru-yawerty.map.gz
>>> /usr/share/keymaps/i386/qwerty/no-latin1.doc
>>> /usr/share/keymaps/i386/qwerty/mk.map.gz
>>> /usr/share/keymaps/i386/qwerty/pl3.map.gz
>>> /usr/share/keymaps/i386/qwerty/il-phonetic.map.gz
>>> /usr/share/keymaps/i386/qwerty/tralt.map.gz
>>> /usr/share/keymaps/i386/qwerty/et-nodeadkeys.map.gz
>>> /usr/share/keymaps/i386/qwerty/ruwin_ctrl-CP1251.map.gz
>>> /usr/share/keymaps/i386/qwerty/cz-cp1250.map.gz
>>> /usr/share/keymaps/i386/qwerty/defkeymap.map.gz
>>> /usr/share/keymaps/i386/qwerty/by.map.gz
>>> /usr/share/keymaps/i386/qwerty/se-fi-lat6.map.gz
>>> /usr/share/keymaps/i386/qwerty/ky_alt_sh-UTF-8.map.gz
>>> /usr/share/keymaps/i386/qwerty/cz-lat2-prog.map.gz
>>> /usr/share/keymaps/i386/qwerty/gr-pc.map.gz
>>> /usr/share/keymaps/i386/qwerty/et.map.gz
>>> /usr/share/keymaps/i386/qwerty/bashkir.map.gz
>>> /usr/share/keymaps/i386/qwerty/it2.map.gz
>>> /usr/share/keymaps/i386/qwerty/ro.map.gz
>>> /usr/share/keymaps/i386/qwerty/it.map.gz
>>> /usr/share/keymaps/i386/qwerty/il-heb.map.gz
>>> /usr/share/keymaps/i386/qwerty/us-acentos.map.gz
>>> /usr/share/keymaps/i386/qwerty/is-latin1.map.gz
>>> /usr/share/keymaps/i386/qwerty/lv-tilde.map.gz
>>> /usr/share/keymaps/i386/qwerty/gr.map.gz
>>> /usr/share/keymaps/i386/qwerty/ro_win.map.gz
>>> /usr/share/keymaps/i386/qwerty/cz-qwerty.map.gz
>>> /usr/share/keymaps/i386/qwerty/br-abnt.map.gz
>>> /usr/share/keymaps/i386/qwerty/ruwin_alt-KOI8-R.map.gz
>>> /usr/share/keymaps/i386/qwerty/sk-prog-qwerty.map.gz
>>> /usr/share/keymaps/i386/qwerty/lv.map.gz
>>> /usr/share/keymaps/i386/qwerty/ru-ms.map.gz
>>> /usr/share/keymaps/i386/qwerty/cf.map.gz
>>> /usr/share/keymaps/i386/qwerty/ru1.map.gz
>>> /usr/share/keymaps/i386/qwerty/pl1.map.gz
>>> /usr/share/keymaps/i386/qwerty/is-latin1-us.map.gz
>>> /usr/share/keymaps/i386/qwerty/bg_pho-utf8.map.gz
>>> /usr/share/keymaps/i386/qwerty/hu101.map.gz
>>> /usr/share/keymaps/i386/qwerty/emacs2.map.gz
>>> /usr/share/keymaps/i386/qwerty/pc110.map.gz
>>> /usr/share/keymaps/i386/qwerty/ruwin_alt_sh-UTF-8.map.gz
>>> /usr/share/keymaps/i386/qwerty/se-lat6.map.gz
>>> /usr/share/keymaps/i386/qwerty/tj_alt-UTF8.map.gz
>>> /usr/share/keymaps/i386/qwerty/hypermap.m4
>>> /usr/share/keymaps/i386/qwerty/us.map.gz
>>> /usr/share/keymaps/i386/qwerty/lt.l4.map.gz
>>> /usr/share/keymaps/i386/qwerty/ruwin_cplk-UTF-8.map.gz
>>> /usr/share/keymaps/i386/qwerty/ruwin_alt-CP1251.map.gz
>>> /usr/share/keymaps/i386/qwerty/ru4.map.gz
>>> /usr/share/keymaps/i386/qwerty/ruwin_ctrl-KOI8-R.map.gz
>>> /usr/share/keymaps/i386/qwerty/ruwin_ct_sh-KOI8-R.map.gz
>>> /usr/share/keymaps/i386/qwerty/ruwin_cplk-KOI8-R.map.gz
>>> /usr/share/keymaps/i386/qwerty/ruwin_alt-UTF-8.map.gz
>>> /usr/share/keymaps/i386/qwerty/bg_pho-cp1251.map.gz
>>> /usr/share/keymaps/i386/qwerty/ua-utf.map.gz
>>> /usr/share/keymaps/i386/qwerty/ru3.map.gz
>>> /usr/share/keymaps/i386/qwerty/ttwin_alt-UTF-8.map.gz
>>> /usr/share/keymaps/i386/qwerty/mk-utf.map.gz
--- /usr/share/keymaps/i386/fgGIod/
>>> /usr/share/keymaps/i386/fgGIod/tr_f-latin5.map.gz
>>> /usr/share/keymaps/i386/fgGIod/trf-fgGIod.map.gz
--- /usr/share/keymaps/i386/qwertz/
>>> /usr/share/keymaps/i386/qwertz/sk-qwertz.map.gz
>>> /usr/share/keymaps/i386/qwertz/sg.map.gz
>>> /usr/share/keymaps/i386/qwertz/de.map.gz
>>> /usr/share/keymaps/i386/qwertz/croat.map.gz
>>> /usr/share/keymaps/i386/qwertz/fr_CH-latin1.map.gz
>>> /usr/share/keymaps/i386/qwertz/hu.map.gz
>>> /usr/share/keymaps/i386/qwertz/de-latin1.map.gz
>>> /usr/share/keymaps/i386/qwertz/sg-latin1-lk450.map.gz
>>> /usr/share/keymaps/i386/qwertz/cz-us-qwertz.map.gz
>>> /usr/share/keymaps/i386/qwertz/sg-latin1.map.gz
>>> /usr/share/keymaps/i386/qwertz/fr_CH.map.gz
>>> /usr/share/keymaps/i386/qwertz/de-mobii.map.gz
>>> /usr/share/keymaps/i386/qwertz/slovene.map.gz
>>> /usr/share/keymaps/i386/qwertz/de_alt_UTF-8.map.gz
>>> /usr/share/keymaps/i386/qwertz/sk-prog-qwertz.map.gz
>>> /usr/share/keymaps/i386/qwertz/de-latin1-nodeadkeys.map.gz
>>> /usr/share/keymaps/i386/qwertz/de_CH-latin1.map.gz
>>> /usr/share/keymaps/i386/qwertz/cz.map.gz
>>> /usr/share/keymaps/i386/qwertz/sr-latin.map.gz
--- /usr/share/keymaps/i386/colemak/
>>> /usr/share/keymaps/i386/colemak/en-latin9.map.gz
--- /usr/share/keymaps/i386/bepo/
>>> /usr/share/keymaps/i386/bepo/fr-bepo.map.gz
>>> /usr/share/keymaps/i386/bepo/fr-bepo-latin9.map.gz
--- /usr/share/keymaps/i386/olpc/
>>> /usr/share/keymaps/i386/olpc/pt-olpc.map.gz
>>> /usr/share/keymaps/i386/olpc/es-olpc.map.gz
--- /usr/share/keymaps/i386/include/
>>> /usr/share/keymaps/i386/include/azerty-layout.inc
>>> /usr/share/keymaps/i386/include/linux-with-two-alt-keys.inc
>>> /usr/share/keymaps/i386/include/linux-with-alt-and-altgr.inc
>>> /usr/share/keymaps/i386/include/compose.inc
>>> /usr/share/keymaps/i386/include/qwerty-layout.inc
>>> /usr/share/keymaps/i386/include/linux-keys-bare.inc
>>> /usr/share/keymaps/i386/include/linux-keys-extd.inc
>>> /usr/share/keymaps/i386/include/unicode.map.gz
>>> /usr/share/keymaps/i386/include/ctrl.map.gz
>>> /usr/share/keymaps/i386/include/applkey.map.gz
>>> /usr/share/keymaps/i386/include/euro1.inc
>>> /usr/share/keymaps/i386/include/euro2.map.gz
>>> /usr/share/keymaps/i386/include/qwertz-layout.inc
>>> /usr/share/keymaps/i386/include/linux-with-modeshift-altgr.inc
>>> /usr/share/keymaps/i386/include/keypad.map.gz
>>> /usr/share/keymaps/i386/include/euro1.map.gz
>>> /usr/share/keymaps/i386/include/windowkeys.map.gz
>>> /usr/share/keymaps/i386/include/euro.map.gz
>>> /usr/share/keymaps/i386/include/backspace.map.gz
--- /usr/share/keymaps/i386/carpalx/
>>> /usr/share/keymaps/i386/carpalx/carpalx.map.gz
>>> /usr/share/keymaps/i386/carpalx/carpalx-full.map.gz
--- /usr/share/keymaps/i386/dvorak/
>>> /usr/share/keymaps/i386/dvorak/dvorak.map.gz
>>> /usr/share/keymaps/i386/dvorak/dvorak-ukp.map.gz
>>> /usr/share/keymaps/i386/dvorak/dvorak-ca-fr.map.gz
>>> /usr/share/keymaps/i386/dvorak/dvorak-es.map.gz
>>> /usr/share/keymaps/i386/dvorak/dvorak-r.map.gz
>>> /usr/share/keymaps/i386/dvorak/dvorak-l.map.gz
>>> /usr/share/keymaps/i386/dvorak/dvorak-sv-a1.map.gz
>>> /usr/share/keymaps/i386/dvorak/dvorak-fr.map.gz
>>> /usr/share/keymaps/i386/dvorak/dvorak-sv-a5.map.gz
>>> /usr/share/keymaps/i386/dvorak/dvorak-programmer.map.gz
>>> /usr/share/keymaps/i386/dvorak/dvorak-ru.map.gz
>>> /usr/share/keymaps/i386/dvorak/dvorak-uk.map.gz
>>> /usr/share/keymaps/i386/dvorak/dvorak-no.map.gz
>>> /usr/share/keymaps/i386/dvorak/dvorak-la.map.gz
>>> /usr/share/keymaps/i386/dvorak/ANSI-dvorak.map.gz
--- /usr/share/keymaps/mac/
--- /usr/share/keymaps/mac/all/
>>> /usr/share/keymaps/mac/all/mac-uk.map.gz
>>> /usr/share/keymaps/mac/all/mac-dk-latin1.map.gz
>>> /usr/share/keymaps/mac/all/mac-de-latin1-nodeadkeys.map.gz
>>> /usr/share/keymaps/mac/all/apple-a1243-sv-fn-reverse.map.gz
>>> /usr/share/keymaps/mac/all/apple-a1048-sv.map.gz
>>> /usr/share/keymaps/mac/all/mac-fr_CH-latin1.map.gz
>>> /usr/share/keymaps/mac/all/mac-us.map.gz
>>> /usr/share/keymaps/mac/all/mac-de-latin1.map.gz
>>> /usr/share/keymaps/mac/all/mac-it.map.gz
>>> /usr/share/keymaps/mac/all/mac-template.map.gz
>>> /usr/share/keymaps/mac/all/apple-internal-0x0253-sv-fn-reverse.map.gz
>>> /usr/share/keymaps/mac/all/mac-de_CH.map.gz
>>> /usr/share/keymaps/mac/all/mac-pt-latin1.map.gz
>>> /usr/share/keymaps/mac/all/mac-no-latin1.map.gz
>>> /usr/share/keymaps/mac/all/mac-se.map.gz
>>> /usr/share/keymaps/mac/all/mac-fi-latin1.map.gz
>>> /usr/share/keymaps/mac/all/apple-a1243-sv.map.gz
>>> /usr/share/keymaps/mac/all/mac-pl.map.gz
>>> /usr/share/keymaps/mac/all/mac-fr.map.gz
>>> /usr/share/keymaps/mac/all/mac-be.map.gz
>>> /usr/share/keymaps/mac/all/apple-internal-0x0253-sv.map.gz
>>> /usr/share/keymaps/mac/all/mac-es.map.gz
>>> /usr/share/keymaps/mac/all/mac-dvorak.map.gz
--- /usr/share/keymaps/mac/include/
>>> /usr/share/keymaps/mac/include/mac-qwertz-layout.inc
>>> /usr/share/keymaps/mac/include/mac-euro.map.gz
>>> /usr/share/keymaps/mac/include/mac-euro2.map.gz
>>> /usr/share/keymaps/mac/include/mac-azerty-layout.inc
>>> /usr/share/keymaps/mac/include/apple-a1243-fn-reverse.inc
>>> /usr/share/keymaps/mac/include/mac-qwerty-layout.inc
>>> /usr/share/keymaps/mac/include/mac-linux-keys-bare.inc
>>> /usr/share/keymaps/mac/include/apple-a1243-fn.inc
>>> /usr/share/keymaps/mac/include/apple-a1048-base.inc
--- /usr/share/keymaps/include/
>>> /usr/share/keymaps/include/compose.latin3
>>> /usr/share/keymaps/include/compose.8859_7
>>> /usr/share/keymaps/include/compose.8859_8
>>> /usr/share/keymaps/include/compose.latin
>>> /usr/share/keymaps/include/compose.latin1
>>> /usr/share/keymaps/include/compose.latin4
>>> /usr/share/keymaps/include/compose.latin2
>>> /usr/share/keymaps/include/vim-compose.latin1
--- /usr/share/keymaps/amiga/
>>> /usr/share/keymaps/amiga/amiga-us.map.gz
>>> /usr/share/keymaps/amiga/amiga-de.map.gz
--- /usr/bin/
>>> /usr/bin/fgconsole
>>> /usr/bin/psfaddtable -> psfxtable
>>> /usr/bin/loadkeys
>>> /usr/bin/psfxtable
>>> /usr/bin/setmetamode
>>> /usr/bin/setkeycodes
>>> /usr/bin/vlock
>>> /usr/bin/showkey
>>> /usr/bin/setvtrgb
>>> /usr/bin/deallocvt
>>> /usr/bin/unicode_stop
>>> /usr/bin/unicode_start
>>> /usr/bin/setleds
>>> /usr/bin/setfont
>>> /usr/bin/getkeycodes
>>> /usr/bin/loadunimap
>>> /usr/bin/dumpkeys
>>> /usr/bin/kbdinfo
>>> /usr/bin/mapscrn
>>> /usr/bin/openvt
>>> /usr/bin/kbd_mode
>>> /usr/bin/psfstriptable -> psfxtable
>>> /usr/bin/resizecons
>>> /usr/bin/kbdrate
>>> /usr/bin/chvt
>>> /usr/bin/showconsolefont
>>> /usr/bin/psfgettable -> psfxtable
>>> Safely unmerging already-installed instance...
>>> Original instance of package unmerged safely.
>>> sys-apps/kbd-2.2.0-r2 merged.
