No package files given... Grabbing a set.
--- replaced obj /usr/share/man/man1/flex.1.bz2
--- replaced dir /usr/share/man/man1
--- replaced dir /usr/share/man
--- replaced obj /usr/share/info/flex.info.bz2
--- replaced obj /usr/share/info/flex.info-2.bz2
--- replaced obj /usr/share/info/flex.info-1.bz2
--- replaced dir /usr/share/info
--- replaced dir /usr/share
--- replaced obj /usr/lib64/libfl.a
--- replaced dir /usr/lib64
--- replaced obj /usr/include/FlexLexer.h
--- replaced dir /usr/include
--- replaced sym /usr/bin/lex
--- replaced sym /usr/bin/flex++
--- replaced obj /usr/bin/flex
--- replaced dir /usr/bin
--- replaced dir /usr
>>> Regenerating /etc/ld.so.cache...
