No package files given... Grabbing a set.
--- replaced obj /usr/share/man/man1/xargs.1.bz2
--- replaced obj /usr/share/man/man1/find.1.bz2
--- replaced dir /usr/share/man/man1
--- replaced dir /usr/share/man
--- replaced obj /usr/share/info/find.info.bz2
--- replaced obj /usr/share/info/find.info-2.bz2
--- replaced obj /usr/share/info/find.info-1.bz2
--- replaced obj /usr/share/info/find-maint.info.bz2
--- replaced dir /usr/share/info
--- replaced dir /usr/share
--- replaced obj /usr/bin/xargs
--- replaced obj /usr/bin/find
--- replaced dir /usr/bin
--- replaced dir /usr
>>> Regenerating /etc/ld.so.cache...
