[32;01m * [39;49;00mPackage:    sys-libs/glibc-2.31-r4
[32;01m * [39;49;00mRepository: gentoo
[32;01m * [39;49;00mMaintainer: toolchain@gentoo.org
[32;01m * [39;49;00mUSE:        abi_x86_64 amd64 caps crypt custom-cflags elibc_glibc gd kernel_linux multiarch multilib nscd profile static-libs systemtap userland_GNU
[32;01m * [39;49;00mFEATURES:   network-sandbox preserve-libs sandbox userpriv usersandbox
 [32;01m*[0m Checking general environment sanity.
make -j12 -l12 glibc-test 
cc -march=znver2 -Ofast -pipe -g0 -fgraphite-identity -floop-interchange -floop-nest-optimize -floop-parallelize-all -ftree-parallelize-loops=12 -ftree-vectorize -fdevirtualize-at-ltrans -fipa-pta -fno-semantic-interposition -flto=12 -fno-plt -falign-functions=32 -fno-stack-protector -fno-stack-clash-protection -fstack-check=no -fno-stack-check -fuse-linker-plugin   -march=znver2 -Ofast -pipe -g0 -fgraphite-identity -floop-interchange -floop-nest-optimize -floop-parallelize-all -ftree-parallelize-loops=12 -ftree-vectorize -fdevirtualize-at-ltrans -fipa-pta -fno-semantic-interposition -flto=12 -fno-plt -falign-functions=32 -fno-stack-protector -fno-stack-clash-protection -fstack-check=no -fno-stack-check -fuse-linker-plugin -Wl,-O4,--sort-common,--as-needed,-z,norelro,-z,now,-lgomp,-lpthread -s  glibc-test.c   -o glibc-test
 [32;01m*[0m Checking that IA32 emulation is enabled in the running kernel ...
[A[263C [34;01m[ [32;01mok[34;01m ][0m
 [32;01m*[0m Checking gcc for __thread support ...
[A[263C [34;01m[ [32;01mok[34;01m ][0m
 [32;01m*[0m Checking running kernel version (5.4.36 >= 3.2.0) ...
[A[263C [34;01m[ [32;01mok[34;01m ][0m
 [32;01m*[0m Checking linux-headers version (5.7.0 >= 3.2.0) ...
[A[263C [34;01m[ [32;01mok[34;01m ][0m
