No package files given... Grabbing a set.
--- replaced obj /usr/share/man/man8/mdmon.8.bz2
--- replaced obj /usr/share/man/man8/mdmon.8
--- replaced obj /usr/share/man/man8/mdadm.8.bz2
--- replaced obj /usr/share/man/man8/mdadm.8
--- replaced dir /usr/share/man/man8
--- replaced obj /usr/share/man/man5/mdadm.conf.5.bz2
--- replaced obj /usr/share/man/man5/mdadm.conf.5
--- replaced dir /usr/share/man/man5
--- replaced obj /usr/share/man/man4/md.4.bz2
--- replaced obj /usr/share/man/man4/md.4
--- replaced dir /usr/share/man/man4
--- replaced dir /usr/share/man
--- replaced dir /usr/share
--- replaced obj /usr/sbin/checkarray
--- replaced dir /usr/sbin
--- replaced dir /usr
--- replaced obj /sbin/mdmon
--- replaced obj /sbin/mdadm
--- replaced dir /sbin
--- replaced obj /lib/udev/rules.d/69-md-clustered-confirm-device.rules
--- replaced obj /lib/udev/rules.d/64-md-raid-assembly.rules
--- replaced obj /lib/udev/rules.d/63-md-raid-arrays.rules
--- replaced obj /lib/udev/rules.d/01-md-raid-creating.rules
--- replaced dir /lib/udev/rules.d
--- replaced dir /lib/udev
--- replaced obj /lib/systemd/system/mdmonitor.service
--- replaced obj /lib/systemd/system/mdmon@.service
--- replaced obj /lib/systemd/system/mdadm-last-resort@.timer
--- replaced obj /lib/systemd/system/mdadm-last-resort@.service
--- replaced obj /lib/systemd/system/mdadm-grow-continue@.service
--- replaced obj /lib/systemd/system-shutdown/mdadm.shutdown
--- replaced dir /lib/systemd/system-shutdown
--- replaced dir /lib/systemd/system
--- replaced dir /lib/systemd
--- replaced dir /lib
--- replaced obj /etc/mdadm.conf
--- replaced obj /etc/init.d/mdraid
--- replaced obj /etc/init.d/mdadm
--- replaced dir /etc/init.d
--- replaced obj /etc/default/mdadm
--- replaced dir /etc/default
--- replaced obj /etc/cron.weekly/mdadm
--- replaced dir /etc/cron.weekly
--- replaced obj /etc/conf.d/mdraid
--- replaced obj /etc/conf.d/mdadm
--- replaced dir /etc/conf.d
--- replaced dir /etc
>>> Regenerating /etc/ld.so.cache...
