>>> Extracting info
 * Package:    sys-apps/file-5.38-r1
 * Repository: gentoo
 * USE:        python userland_GNU kernel_linux abi_x86_64 elibc_glibc python_targets_python3_7 amd64 python_targets_python3_6 python_targets_python3_8 bzip2 zlib lzma
 * FEATURES:   ccache network-sandbox preserve-libs sandbox userpriv usersandbox
 * FEATURES='assume-digests binpkg-docompress binpkg-dostrip binpkg-logs binpkg-multi-instance buildpkg ccache cgroup compress-index config-protect-if-modified distlocks downgrade-backup fixlafiles ipc-sandbox merge-sync multilib-strict network-sandbox news nodoc parallel-fetch parallel-install pid-sandbox preserve-libs qa-unresolved-soname-deps sandbox sfperms strict unknown-features-warn unmerge-backup unmerge-logs unmerge-orphans userfetch userpriv usersandbox usersync xattr'
 * CFLAGS='-march=native -O3 -fdevirtualize-at-ltrans -fipa-pta -fno-semantic-interposition -fno-math-errno -fno-trapping-math -fno-plt -fuse-linker-plugin -pipe -g0 -fno-stack-protector -fno-stack-clash-protection -fstack-check=no -fno-stack-check -Wl,-O4,--hash-style=gnu,--sort-common,--as-needed,-z,relro,-z,now,-lgomp,-lpthread'
 * CXXFLAGS='-march=native -O3 -fdevirtualize-at-ltrans -fipa-pta -fno-semantic-interposition -fno-math-errno -fno-trapping-math -fno-plt -fuse-linker-plugin -pipe -g0 -fno-stack-protector -fno-stack-clash-protection -fstack-check=no -fno-stack-check -Wl,-O4,--hash-style=gnu,--sort-common,--as-needed,-z,relro,-z,now,-lgomp,-lpthread'
 * FFLAGS='-march=native -O3 -fdevirtualize-at-ltrans -fipa-pta -fno-semantic-interposition -fno-math-errno -fno-trapping-math -fno-plt -fuse-linker-plugin -pipe -g0 -fno-stack-protector -fno-stack-clash-protection -fstack-check=no -fno-stack-check -Wl,-O4,--hash-style=gnu,--sort-common,--as-needed,-z,relro,-z,now,-lgomp,-lpthread'
 * FCFLAGS='-march=native -O3 -fdevirtualize-at-ltrans -fipa-pta -fno-semantic-interposition -fno-math-errno -fno-trapping-math -fno-plt -fuse-linker-plugin -pipe -g0 -fno-stack-protector -fno-stack-clash-protection -fstack-check=no -fno-stack-check -Wl,-O4,--hash-style=gnu,--sort-common,--as-needed,-z,relro,-z,now,-lgomp,-lpthread'
 * F77FLAGS='-march=native -O3 -fdevirtualize-at-ltrans -fipa-pta -fno-semantic-interposition -fno-math-errno -fno-trapping-math -fno-plt -fuse-linker-plugin -pipe -g0 -fno-stack-protector -fno-stack-clash-protection -fstack-check=no -fno-stack-check -Wl,-O4,--hash-style=gnu,--sort-common,--as-needed,-z,relro,-z,now,-lgomp,-lpthread'
 * LDFLAGS='-Wl,-O4,--hash-style=gnu,--sort-common,--as-needed,-z,relro,-z,now,-lgomp,-lpthread'
 * MAKEOPTS='-j12'
 * gcc (Gentoo 10.1.0 p1) 10.1.0
 * g++ (Gentoo 10.1.0 p1) 10.1.0
 * GNU ld (Gentoo 2.34 p1) 2.34.0
 * Linux ryzen.gnum.org 5.4.36 #1 SMP Thu Apr 30 04:38:28 UTC 2020 x86_64 AMD Ryzen 5 3600 6-Core Processor AuthenticAMD GNU/Linux
sys-apps/file: 20 seconds average for 2 merges
2020-05-15T03:35:13 >>> sys-apps/file: 19 seconds
2020-05-16T16:48:59 >>> sys-apps/file: 21 seconds
]0;emerge 23:58:42 74|162 file 00:20 (root@ryzen.gnum.org)>>> Extracting sys-apps/file-5.38-r1
 * checking 341 files for package collisions
>>> Merging sys-apps/file-5.38-r1 to /
 * removing unneeded *.la files
--- /usr/
--- /usr/lib64/
>>> /usr/lib64/libmagic.so.1.0.0
--- /usr/lib64/python3.6/
--- /usr/lib64/python3.6/site-packages/
--- /usr/lib64/python3.6/site-packages/__pycache__/
>>> /usr/lib64/python3.6/site-packages/__pycache__/magic.cpython-36.pyc
>>> /usr/lib64/python3.6/site-packages/__pycache__/magic.cpython-36.opt-2.pyc
>>> /usr/lib64/python3.6/site-packages/__pycache__/magic.cpython-36.opt-1.pyc
>>> /usr/lib64/python3.6/site-packages/file_magic-0.4.0-py3.6.egg-info/
>>> /usr/lib64/python3.6/site-packages/file_magic-0.4.0-py3.6.egg-info/PKG-INFO
>>> /usr/lib64/python3.6/site-packages/file_magic-0.4.0-py3.6.egg-info/dependency_links.txt
>>> /usr/lib64/python3.6/site-packages/file_magic-0.4.0-py3.6.egg-info/SOURCES.txt
>>> /usr/lib64/python3.6/site-packages/file_magic-0.4.0-py3.6.egg-info/top_level.txt
>>> /usr/lib64/python3.6/site-packages/magic.py
>>> /usr/lib64/libmagic.so.1 -> libmagic.so.1.0.0
>>> /usr/lib64/libmagic.so -> libmagic.so.1.0.0
--- /usr/share/
--- /usr/share/misc/
>>> /usr/share/misc/magic.mgc
--- /usr/share/misc/magic/
>>> /usr/share/misc/magic/bsdi
>>> /usr/share/misc/magic/fortran
>>> /usr/share/misc/magic/bioinformatics
>>> /usr/share/misc/magic/grace
>>> /usr/share/misc/magic/teapot
>>> /usr/share/misc/magic/coff
>>> /usr/share/misc/magic/biosig
>>> /usr/share/misc/magic/flif
>>> /usr/share/misc/magic/wireless
>>> /usr/share/misc/magic/der
>>> /usr/share/misc/magic/editors
>>> /usr/share/misc/magic/zilog
>>> /usr/share/misc/magic/sniffer
>>> /usr/share/misc/magic/frame
>>> /usr/share/misc/magic/rpmsg
>>> /usr/share/misc/magic/olf
>>> /usr/share/misc/magic/commands
>>> /usr/share/misc/magic/lua
>>> /usr/share/misc/magic/tplink
>>> /usr/share/misc/magic/news
>>> /usr/share/misc/magic/wsdl
>>> /usr/share/misc/magic/uterus
>>> /usr/share/misc/magic/karma
>>> /usr/share/misc/magic/iff
>>> /usr/share/misc/magic/os2
>>> /usr/share/misc/magic/pbm
>>> /usr/share/misc/magic/mozilla
>>> /usr/share/misc/magic/clipper
>>> /usr/share/misc/magic/sinclair
>>> /usr/share/misc/magic/espressif
>>> /usr/share/misc/magic/apache
>>> /usr/share/misc/magic/yara
>>> /usr/share/misc/magic/lisp
>>> /usr/share/misc/magic/maple
>>> /usr/share/misc/magic/spec
>>> /usr/share/misc/magic/timezone
>>> /usr/share/misc/magic/kicad
>>> /usr/share/misc/magic/vicar
>>> /usr/share/misc/magic/geos
>>> /usr/share/misc/magic/console
>>> /usr/share/misc/magic/sql
>>> /usr/share/misc/magic/algol68
>>> /usr/share/misc/magic/dbpf
>>> /usr/share/misc/magic/freebsd
>>> /usr/share/misc/magic/pbf
>>> /usr/share/misc/magic/music
>>> /usr/share/misc/magic/cisco
>>> /usr/share/misc/magic/blender
>>> /usr/share/misc/magic/modem
>>> /usr/share/misc/magic/android
>>> /usr/share/misc/magic/adventure
>>> /usr/share/misc/magic/efi
>>> /usr/share/misc/magic/plus5
>>> /usr/share/misc/magic/xilinx
>>> /usr/share/misc/magic/parrot
>>> /usr/share/misc/magic/application
>>> /usr/share/misc/magic/ssh
>>> /usr/share/misc/magic/revision
>>> /usr/share/misc/magic/gconv
>>> /usr/share/misc/magic/kml
>>> /usr/share/misc/magic/marc21
>>> /usr/share/misc/magic/sisu
>>> /usr/share/misc/magic/palm
>>> /usr/share/misc/magic/linux
>>> /usr/share/misc/magic/esri
>>> /usr/share/misc/magic/keepass
>>> /usr/share/misc/magic/octave
>>> /usr/share/misc/magic/gnu
>>> /usr/share/misc/magic/dact
>>> /usr/share/misc/magic/cad
>>> /usr/share/misc/magic/audio
>>> /usr/share/misc/magic/git
>>> /usr/share/misc/magic/erlang
>>> /usr/share/misc/magic/sysex
>>> /usr/share/misc/magic/python
>>> /usr/share/misc/magic/rpi
>>> /usr/share/misc/magic/polyml
>>> /usr/share/misc/magic/cups
>>> /usr/share/misc/magic/assembler
>>> /usr/share/misc/magic/acorn
>>> /usr/share/misc/magic/apple
>>> /usr/share/misc/magic/sccs
>>> /usr/share/misc/magic/meteorological
>>> /usr/share/misc/magic/sequent
>>> /usr/share/misc/magic/vxl
>>> /usr/share/misc/magic/pdp
>>> /usr/share/misc/magic/map
>>> /usr/share/misc/magic/webassembly
>>> /usr/share/misc/magic/edid
>>> /usr/share/misc/magic/forth
>>> /usr/share/misc/magic/uuencode
>>> /usr/share/misc/magic/cbor
>>> /usr/share/misc/magic/ssl
>>> /usr/share/misc/magic/scientific
>>> /usr/share/misc/magic/virtual
>>> /usr/share/misc/magic/convex
>>> /usr/share/misc/magic/blit
>>> /usr/share/misc/magic/xo65
>>> /usr/share/misc/magic/lex
>>> /usr/share/misc/magic/opentimestamps
>>> /usr/share/misc/magic/apl
>>> /usr/share/misc/magic/securitycerts
>>> /usr/share/misc/magic/asterix
>>> /usr/share/misc/magic/msvc
>>> /usr/share/misc/magic/macintosh
>>> /usr/share/misc/magic/varied.out
>>> /usr/share/misc/magic/m4
>>> /usr/share/misc/magic/tex
>>> /usr/share/misc/magic/os9
>>> /usr/share/misc/magic/psdbms
>>> /usr/share/misc/magic/zfs
>>> /usr/share/misc/magic/inform
>>> /usr/share/misc/magic/diamond
>>> /usr/share/misc/magic/att3b
>>> /usr/share/misc/magic/magic
>>> /usr/share/misc/magic/beetle
>>> /usr/share/misc/magic/c64
>>> /usr/share/misc/magic/hardware
>>> /usr/share/misc/magic/llvm
>>> /usr/share/misc/magic/archive
>>> /usr/share/misc/magic/vacuum-cleaner
>>> /usr/share/misc/magic/pyramid
>>> /usr/share/misc/magic/fcs
>>> /usr/share/misc/magic/animation
>>> /usr/share/misc/magic/rtf
>>> /usr/share/misc/magic/ncr
>>> /usr/share/misc/magic/jpeg
>>> /usr/share/misc/magic/blcr
>>> /usr/share/misc/magic/oasis
>>> /usr/share/misc/magic/ibm6000
>>> /usr/share/misc/magic/ctags
>>> /usr/share/misc/magic/metastore
>>> /usr/share/misc/magic/ti-8x
>>> /usr/share/misc/magic/citrus
>>> /usr/share/misc/magic/communications
>>> /usr/share/misc/magic/zyxel
>>> /usr/share/misc/magic/rst
>>> /usr/share/misc/magic/terminfo
>>> /usr/share/misc/magic/msx
>>> /usr/share/misc/magic/softquad
>>> /usr/share/misc/magic/bhl
>>> /usr/share/misc/magic/cracklib
>>> /usr/share/misc/magic/games
>>> /usr/share/misc/magic/sendmail
>>> /usr/share/misc/magic/compress
>>> /usr/share/misc/magic/vax
>>> /usr/share/misc/magic/epoc
>>> /usr/share/misc/magic/perl
>>> /usr/share/misc/magic/clojure
>>> /usr/share/misc/magic/fusecompress
>>> /usr/share/misc/magic/sun
>>> /usr/share/misc/magic/ebml
>>> /usr/share/misc/magic/aout
>>> /usr/share/misc/magic/spectrum
>>> /usr/share/misc/magic/qt
>>> /usr/share/misc/magic/psl
>>> /usr/share/misc/magic/finger
>>> /usr/share/misc/magic/matroska
>>> /usr/share/misc/magic/ctf
>>> /usr/share/misc/magic/make
>>> /usr/share/misc/magic/basis
>>> /usr/share/misc/magic/typeset
>>> /usr/share/misc/magic/weak
>>> /usr/share/misc/magic/claris
>>> /usr/share/misc/magic/project
>>> /usr/share/misc/magic/symbos
>>> /usr/share/misc/magic/printer
>>> /usr/share/misc/magic/microfocus
>>> /usr/share/misc/magic/isz
>>> /usr/share/misc/magic/vmware
>>> /usr/share/misc/magic/sosi
>>> /usr/share/misc/magic/pkgadd
>>> /usr/share/misc/magic/diff
>>> /usr/share/misc/magic/lecter
>>> /usr/share/misc/magic/kde
>>> /usr/share/misc/magic/x68000
>>> /usr/share/misc/magic/cafebabe
>>> /usr/share/misc/magic/graphviz
>>> /usr/share/misc/magic/wordprocessors
>>> /usr/share/misc/magic/adi
>>> /usr/share/misc/magic/amigaos
>>> /usr/share/misc/magic/xwindows
>>> /usr/share/misc/magic/unicode
>>> /usr/share/misc/magic/bout
>>> /usr/share/misc/magic/fonts
>>> /usr/share/misc/magic/blackberry
>>> /usr/share/misc/magic/troff
>>> /usr/share/misc/magic/icc
>>> /usr/share/misc/magic/visx
>>> /usr/share/misc/magic/mirage
>>> /usr/share/misc/magic/pgp
>>> /usr/share/misc/magic/mup
>>> /usr/share/misc/magic/bflt
>>> /usr/share/misc/magic/dolby
>>> /usr/share/misc/magic/cubemap
>>> /usr/share/misc/magic/gcc
>>> /usr/share/misc/magic/filesystems
>>> /usr/share/misc/magic/mips
>>> /usr/share/misc/magic/os400
>>> /usr/share/misc/magic/images
>>> /usr/share/misc/magic/sgi
>>> /usr/share/misc/magic/ibm370
>>> /usr/share/misc/magic/xenix
>>> /usr/share/misc/magic/smalltalk
>>> /usr/share/misc/magic/luks
>>> /usr/share/misc/magic/plan9
>>> /usr/share/misc/magic/ocaml
>>> /usr/share/misc/magic/gnumeric
>>> /usr/share/misc/magic/apt
>>> /usr/share/misc/magic/warc
>>> /usr/share/misc/magic/varied.script
>>> /usr/share/misc/magic/mercurial
>>> /usr/share/misc/magic/elf
>>> /usr/share/misc/magic/mime
>>> /usr/share/misc/magic/numpy
>>> /usr/share/misc/magic/pascal
>>> /usr/share/misc/magic/sharc
>>> /usr/share/misc/magic/tuxedo
>>> /usr/share/misc/magic/digital
>>> /usr/share/misc/magic/mathcad
>>> /usr/share/misc/magic/alliant
>>> /usr/share/misc/magic/parix
>>> /usr/share/misc/magic/ruby
>>> /usr/share/misc/magic/pdf
>>> /usr/share/misc/magic/gpt
>>> /usr/share/misc/magic/misctools
>>> /usr/share/misc/magic/nitpicker
>>> /usr/share/misc/magic/netbsd
>>> /usr/share/misc/magic/intel
>>> /usr/share/misc/magic/macos
>>> /usr/share/misc/magic/rpm
>>> /usr/share/misc/magic/cddb
>>> /usr/share/misc/magic/natinst
>>> /usr/share/misc/magic/smile
>>> /usr/share/misc/magic/encore
>>> /usr/share/misc/magic/pmem
>>> /usr/share/misc/magic/pc98
>>> /usr/share/misc/magic/dataone
>>> /usr/share/misc/magic/gringotts
>>> /usr/share/misc/magic/ispell
>>> /usr/share/misc/magic/mail.news
>>> /usr/share/misc/magic/sketch
>>> /usr/share/misc/magic/pulsar
>>> /usr/share/misc/magic/hp
>>> /usr/share/misc/magic/sgml
>>> /usr/share/misc/magic/gimp
>>> /usr/share/misc/magic/tcl
>>> /usr/share/misc/magic/hitachi-sh
>>> /usr/share/misc/magic/dump
>>> /usr/share/misc/magic/chord
>>> /usr/share/misc/magic/coverage
>>> /usr/share/misc/magic/virtutech
>>> /usr/share/misc/magic/btsnoop
>>> /usr/share/misc/magic/mmdf
>>> /usr/share/misc/magic/java
>>> /usr/share/misc/magic/tgif
>>> /usr/share/misc/magic/motorola
>>> /usr/share/misc/magic/riff
>>> /usr/share/misc/magic/mkid
>>> /usr/share/misc/magic/gnome
>>> /usr/share/misc/magic/zip
>>> /usr/share/misc/magic/glibc
>>> /usr/share/misc/magic/lif
>>> /usr/share/misc/magic/msooxml
>>> /usr/share/misc/magic/amanda
>>> /usr/share/misc/magic/selinux
>>> /usr/share/misc/magic/bsi
>>> /usr/share/misc/magic/pc88
>>> /usr/share/misc/magic/msdos
>>> /usr/share/misc/magic/xdelta
>>> /usr/share/misc/magic/neko
>>> /usr/share/misc/magic/vms
>>> /usr/share/misc/magic/pgf
>>> /usr/share/misc/magic/netscape
>>> /usr/share/misc/magic/c-lang
>>> /usr/share/misc/magic/windows
>>> /usr/share/misc/magic/clarion
>>> /usr/share/misc/magic/geo
>>> /usr/share/misc/magic/gpu
>>> /usr/share/misc/magic/interleaf
>>> /usr/share/misc/magic/database
>>> /usr/share/misc/magic/nasa
>>> /usr/share/misc/magic/mach
>>> /usr/share/misc/magic/osf1
>>> /usr/share/misc/magic/sc
>>> /usr/share/misc/magic/mcrypt
>>> /usr/share/misc/magic/allegro
>>> /usr/share/misc/magic/kerberos
>>> /usr/share/misc/magic/human68k
>>> /usr/share/misc/magic/modulefile
>>> /usr/share/misc/magic/openfst
>>> /usr/share/misc/magic/sereal
>>> /usr/share/misc/magic/dyadic
>>> /usr/share/misc/magic/flash
>>> /usr/share/misc/magic/ber
>>> /usr/share/misc/magic/island
>>> /usr/share/misc/magic/measure
>>> /usr/share/misc/magic/javascript
>>> /usr/share/misc/magic/applix
>>> /usr/share/misc/magic/unknown
>>> /usr/share/misc/magic/fsav
>>> /usr/share/misc/magic/guile
>>> /usr/share/misc/magic/pwsafe
>>> /usr/share/misc/magic/mlssa
>>> /usr/share/misc/magic/vorbis
>>> /usr/share/misc/magic/ole2compounddocs
>>> /usr/share/misc/magic/netware
>>> /usr/share/misc/magic/mathematica
--- /usr/share/man/
--- /usr/share/man/man3/
>>> /usr/share/man/man3/libmagic.3.bz2
--- /usr/share/man/man5/
>>> /usr/share/man/man5/magic.5.bz2
--- /usr/share/man/man1/
>>> /usr/share/man/man1/file.1.bz2
--- /usr/include/
>>> /usr/include/magic.h
--- /usr/bin/
>>> /usr/bin/file
--- /usr/lib/
--- /usr/lib/python3.7/
--- /usr/lib/python3.7/site-packages/
--- /usr/lib/python3.7/site-packages/__pycache__/
>>> /usr/lib/python3.7/site-packages/__pycache__/magic.cpython-37.pyc
>>> /usr/lib/python3.7/site-packages/__pycache__/magic.cpython-37.opt-2.pyc
>>> /usr/lib/python3.7/site-packages/__pycache__/magic.cpython-37.opt-1.pyc
--- /usr/lib/python3.7/site-packages/file_magic-0.4.0-py3.7.egg-info/
>>> /usr/lib/python3.7/site-packages/file_magic-0.4.0-py3.7.egg-info/PKG-INFO
>>> /usr/lib/python3.7/site-packages/file_magic-0.4.0-py3.7.egg-info/dependency_links.txt
>>> /usr/lib/python3.7/site-packages/file_magic-0.4.0-py3.7.egg-info/SOURCES.txt
>>> /usr/lib/python3.7/site-packages/file_magic-0.4.0-py3.7.egg-info/top_level.txt
>>> /usr/lib/python3.7/site-packages/magic.py
--- /usr/lib/python3.8/
--- /usr/lib/python3.8/site-packages/
--- /usr/lib/python3.8/site-packages/__pycache__/
>>> /usr/lib/python3.8/site-packages/__pycache__/magic.cpython-38.pyc
>>> /usr/lib/python3.8/site-packages/__pycache__/magic.cpython-38.opt-2.pyc
>>> /usr/lib/python3.8/site-packages/__pycache__/magic.cpython-38.opt-1.pyc
--- /usr/lib/python3.8/site-packages/file_magic-0.4.0-py3.8.egg-info/
>>> /usr/lib/python3.8/site-packages/file_magic-0.4.0-py3.8.egg-info/PKG-INFO
>>> /usr/lib/python3.8/site-packages/file_magic-0.4.0-py3.8.egg-info/dependency_links.txt
>>> /usr/lib/python3.8/site-packages/file_magic-0.4.0-py3.8.egg-info/SOURCES.txt
>>> /usr/lib/python3.8/site-packages/file_magic-0.4.0-py3.8.egg-info/top_level.txt
>>> /usr/lib/python3.8/site-packages/magic.py
>>> Safely unmerging already-installed instance...
>>> Original instance of package unmerged safely.
>>> sys-apps/file-5.38-r1 merged.
>>> Regenerating /etc/ld.so.cache...
