[32;01m * [39;49;00mPackage:    sys-devel/gcc-10.1.0-r1
[32;01m * [39;49;00mRepository: gentoo
[32;01m * [39;49;00mMaintainer: toolchain@gentoo.org
[32;01m * [39;49;00mUSE:        abi_x86_64 amd64 cxx elibc_glibc fortran kernel_linux multilib nls nptl openmp pch sanitize userland_GNU vtv
[32;01m * [39;49;00mFEATURES:   network-sandbox preserve-libs sandbox userpriv usersandbox
