[32;01m * [39;49;00mPackage:    sys-libs/glibc-2.31-r3
[32;01m * [39;49;00mRepository: gentoo
[32;01m * [39;49;00mMaintainer: toolchain@gentoo.org
[32;01m * [39;49;00mUSE:        abi_x86_64 amd64 caps crypt custom-cflags elibc_glibc gd kernel_linux multiarch multilib profile static-libs userland_GNU
[32;01m * [39;49;00mFEATURES:   network-sandbox preserve-libs sandbox userpriv usersandbox
 [32;01m*[0m Checking general environment sanity.
make -j12 glibc-test 
cc -march=native -O3 -fgraphite-identity -floop-nest-optimize -fdevirtualize-at-ltrans -fipa-pta -fno-semantic-interposition -flto=12 -fno-signed-zeros -fno-trapping-math -fassociative-math -freciprocal-math -fno-math-errno -ffinite-math-only -fno-rounding-math -fno-signaling-nans -fcx-limited-range -fexcess-precision=fast -fno-plt -fno-common -fuse-linker-plugin -pipe -g0 -fno-stack-protector -fno-stack-clash-protection -fstack-check=no -fno-stack-check   -Wl,-O1 -Wl,--as-needed -Wl,--defsym=__gentoo_check_ldflags__=0 -Wl,--hash-style=gnu -Wl,-z,norelro  glibc-test.c   -o glibc-test
 [32;01m*[0m Checking that IA32 emulation is enabled in the running kernel ...
[A[263C [34;01m[ [32;01mok[34;01m ][0m
 [32;01m*[0m Checking gcc for __thread support ...
[A[263C [34;01m[ [32;01mok[34;01m ][0m
 [32;01m*[0m Checking running kernel version (5.4.36 >= 3.2.0) ...
[A[263C [34;01m[ [32;01mok[34;01m ][0m
 [32;01m*[0m Checking linux-headers version (5.4.0 >= 3.2.0) ...
[A[263C [34;01m[ [32;01mok[34;01m ][0m
