No package files given... Grabbing a set.
--- replaced obj /usr/lib64/misc/ac-wrapper.sh
--- replaced dir /usr/lib64/misc
--- replaced dir /usr/lib64
--- replaced sym /usr/bin/ifnames
--- replaced sym /usr/bin/autoupdate
--- replaced sym /usr/bin/autoscan
--- replaced sym /usr/bin/autoreconf
--- replaced sym /usr/bin/autom4te
--- replaced sym /usr/bin/autoheader
--- replaced sym /usr/bin/autoconf
--- replaced dir /usr/bin
--- replaced dir /usr
>>> Regenerating /etc/ld.so.cache...
