No package files given... Grabbing a set.
--- replaced obj /var/db/iscsi/.keep_sys-block_open-iscsi-0
--- replaced dir /var/db/iscsi
--- replaced dir /var/db
--- replaced dir /var
--- replaced obj /usr/share/man/man8/iscsiuio.8.bz2
--- replaced obj /usr/share/man/man8/iscsistart.8.bz2
--- replaced obj /usr/share/man/man8/iscsid.8.bz2
--- replaced obj /usr/share/man/man8/iscsiadm.8.bz2
--- replaced obj /usr/share/man/man8/iscsi_fw_login.8.bz2
--- replaced obj /usr/share/man/man8/iscsi_discovery.8.bz2
--- replaced obj /usr/share/man/man8/iscsi-iname.8.bz2
--- replaced dir /usr/share/man/man8
--- replaced dir /usr/share/man
--- replaced dir /usr/share
--- replaced obj /usr/sbin/iscsiuio
--- replaced obj /usr/sbin/iscsistart
--- replaced obj /usr/sbin/iscsid
--- replaced obj /usr/sbin/iscsiadm
--- replaced obj /usr/sbin/iscsi_offload
--- replaced obj /usr/sbin/iscsi_fw_login
--- replaced obj /usr/sbin/iscsi_discovery
--- replaced obj /usr/sbin/iscsi-iname
--- replaced obj /usr/sbin/iscsi-gen-initiatorname
--- replaced dir /usr/sbin
--- replaced obj /usr/lib64/pkgconfig/libopeniscsiusr.pc
--- replaced dir /usr/lib64/pkgconfig
--- replaced obj /usr/lib64/libopeniscsiusr.so.0.2.0
--- replaced sym /usr/lib64/libopeniscsiusr.so.0
--- replaced sym /usr/lib64/libopeniscsiusr.so
--- replaced dir /usr/lib64
--- replaced obj /usr/include/libopeniscsiusr_session.h
--- replaced obj /usr/include/libopeniscsiusr_iface.h
--- replaced obj /usr/include/libopeniscsiusr_common.h
--- replaced obj /usr/include/libopeniscsiusr.h
--- replaced dir /usr/include
--- replaced dir /usr
--- replaced obj /lib/systemd/system/iscsiuio.socket
--- replaced obj /lib/systemd/system/iscsiuio.service
--- replaced obj /lib/systemd/system/iscsid.socket
--- replaced obj /lib/systemd/system/iscsid.service
--- replaced obj /lib/systemd/system/iscsi.service
--- replaced dir /lib/systemd/system
--- replaced dir /lib/systemd
--- replaced dir /lib
--- replaced obj /etc/iscsi/iscsid.conf
--- replaced obj /etc/iscsi/initiatorname.iscsi.example
--- replaced obj /etc/iscsi/initiatorname.iscsi
--- replaced obj /etc/iscsi/ifaces/iface.example
--- replaced dir /etc/iscsi/ifaces
--- replaced dir /etc/iscsi
--- replaced obj /etc/init.d/iscsid
--- replaced dir /etc/init.d
--- replaced obj /etc/conf.d/iscsid
--- replaced dir /etc/conf.d
--- replaced dir /etc
>>> Regenerating /etc/ld.so.cache...
