No package files given... Grabbing a set.
--- replaced obj /usr/share/misc/magic/zyxel
--- replaced obj /usr/share/misc/magic/zip
--- replaced obj /usr/share/misc/magic/zilog
--- replaced obj /usr/share/misc/magic/zfs
--- replaced obj /usr/share/misc/magic/yara
--- replaced obj /usr/share/misc/magic/xwindows
--- replaced obj /usr/share/misc/magic/xo65
--- replaced obj /usr/share/misc/magic/xilinx
--- replaced obj /usr/share/misc/magic/xenix
--- replaced obj /usr/share/misc/magic/xdelta
--- replaced obj /usr/share/misc/magic/x68000
--- replaced obj /usr/share/misc/magic/wsdl
--- replaced obj /usr/share/misc/magic/wordprocessors
--- replaced obj /usr/share/misc/magic/wireless
--- replaced obj /usr/share/misc/magic/windows
--- replaced obj /usr/share/misc/magic/webassembly
--- replaced obj /usr/share/misc/magic/weak
--- replaced obj /usr/share/misc/magic/warc
--- replaced obj /usr/share/misc/magic/vxl
--- replaced obj /usr/share/misc/magic/vorbis
--- replaced obj /usr/share/misc/magic/vmware
--- replaced obj /usr/share/misc/magic/vms
--- replaced obj /usr/share/misc/magic/visx
--- replaced obj /usr/share/misc/magic/virtutech
--- replaced obj /usr/share/misc/magic/virtual
--- replaced obj /usr/share/misc/magic/vicar
--- replaced obj /usr/share/misc/magic/vax
--- replaced obj /usr/share/misc/magic/varied.script
--- replaced obj /usr/share/misc/magic/varied.out
--- replaced obj /usr/share/misc/magic/vacuum-cleaner
--- replaced obj /usr/share/misc/magic/uuencode
--- replaced obj /usr/share/misc/magic/uterus
--- replaced obj /usr/share/misc/magic/unknown
--- replaced obj /usr/share/misc/magic/unicode
--- replaced obj /usr/share/misc/magic/typeset
--- replaced obj /usr/share/misc/magic/tuxedo
--- replaced obj /usr/share/misc/magic/troff
--- replaced obj /usr/share/misc/magic/tplink
--- replaced obj /usr/share/misc/magic/timezone
--- replaced obj /usr/share/misc/magic/ti-8x
--- replaced obj /usr/share/misc/magic/tgif
--- replaced obj /usr/share/misc/magic/tex
--- replaced obj /usr/share/misc/magic/terminfo
--- replaced obj /usr/share/misc/magic/teapot
--- replaced obj /usr/share/misc/magic/tcl
--- replaced obj /usr/share/misc/magic/sysex
--- replaced obj /usr/share/misc/magic/symbos
--- replaced obj /usr/share/misc/magic/sun
--- replaced obj /usr/share/misc/magic/ssl
--- replaced obj /usr/share/misc/magic/ssh
--- replaced obj /usr/share/misc/magic/sql
--- replaced obj /usr/share/misc/magic/spectrum
--- replaced obj /usr/share/misc/magic/spec
--- replaced obj /usr/share/misc/magic/sosi
--- replaced obj /usr/share/misc/magic/softquad
--- replaced obj /usr/share/misc/magic/sniffer
--- replaced obj /usr/share/misc/magic/smile
--- replaced obj /usr/share/misc/magic/smalltalk
--- replaced obj /usr/share/misc/magic/sketch
--- replaced obj /usr/share/misc/magic/sisu
--- replaced obj /usr/share/misc/magic/sinclair
--- replaced obj /usr/share/misc/magic/sharc
--- replaced obj /usr/share/misc/magic/sgml
--- replaced obj /usr/share/misc/magic/sgi
--- replaced obj /usr/share/misc/magic/sereal
--- replaced obj /usr/share/misc/magic/sequent
--- replaced obj /usr/share/misc/magic/sendmail
--- replaced obj /usr/share/misc/magic/selinux
--- replaced obj /usr/share/misc/magic/securitycerts
--- replaced obj /usr/share/misc/magic/scientific
--- replaced obj /usr/share/misc/magic/sccs
--- replaced obj /usr/share/misc/magic/sc
--- replaced obj /usr/share/misc/magic/ruby
--- replaced obj /usr/share/misc/magic/rtf
--- replaced obj /usr/share/misc/magic/rst
--- replaced obj /usr/share/misc/magic/rpmsg
--- replaced obj /usr/share/misc/magic/rpm
--- replaced obj /usr/share/misc/magic/rpi
--- replaced obj /usr/share/misc/magic/riff
--- replaced obj /usr/share/misc/magic/revision
--- replaced obj /usr/share/misc/magic/qt
--- replaced obj /usr/share/misc/magic/python
--- replaced obj /usr/share/misc/magic/pyramid
--- replaced obj /usr/share/misc/magic/pwsafe
--- replaced obj /usr/share/misc/magic/pulsar
--- replaced obj /usr/share/misc/magic/psl
--- replaced obj /usr/share/misc/magic/psdbms
--- replaced obj /usr/share/misc/magic/project
--- replaced obj /usr/share/misc/magic/printer
--- replaced obj /usr/share/misc/magic/polyml
--- replaced obj /usr/share/misc/magic/pmem
--- replaced obj /usr/share/misc/magic/plus5
--- replaced obj /usr/share/misc/magic/plan9
--- replaced obj /usr/share/misc/magic/pkgadd
--- replaced obj /usr/share/misc/magic/pgp
--- replaced obj /usr/share/misc/magic/pgf
--- replaced obj /usr/share/misc/magic/perl
--- replaced obj /usr/share/misc/magic/pdp
--- replaced obj /usr/share/misc/magic/pdf
--- replaced obj /usr/share/misc/magic/pc98
--- replaced obj /usr/share/misc/magic/pc88
--- replaced obj /usr/share/misc/magic/pbm
--- replaced obj /usr/share/misc/magic/pbf
--- replaced obj /usr/share/misc/magic/pascal
--- replaced obj /usr/share/misc/magic/parrot
--- replaced obj /usr/share/misc/magic/parix
--- replaced obj /usr/share/misc/magic/palm
--- replaced obj /usr/share/misc/magic/osf1
--- replaced obj /usr/share/misc/magic/os9
--- replaced obj /usr/share/misc/magic/os400
--- replaced obj /usr/share/misc/magic/os2
--- replaced obj /usr/share/misc/magic/opentimestamps
--- replaced obj /usr/share/misc/magic/openfst
--- replaced obj /usr/share/misc/magic/olf
--- replaced obj /usr/share/misc/magic/ole2compounddocs
--- replaced obj /usr/share/misc/magic/octave
--- replaced obj /usr/share/misc/magic/ocaml
--- replaced obj /usr/share/misc/magic/oasis
--- replaced obj /usr/share/misc/magic/numpy
--- replaced obj /usr/share/misc/magic/nitpicker
--- replaced obj /usr/share/misc/magic/news
--- replaced obj /usr/share/misc/magic/netware
--- replaced obj /usr/share/misc/magic/netscape
--- replaced obj /usr/share/misc/magic/netbsd
--- replaced obj /usr/share/misc/magic/neko
--- replaced obj /usr/share/misc/magic/ncr
--- replaced obj /usr/share/misc/magic/natinst
--- replaced obj /usr/share/misc/magic/nasa
--- replaced obj /usr/share/misc/magic/music
--- replaced obj /usr/share/misc/magic/mup
--- replaced obj /usr/share/misc/magic/msx
--- replaced obj /usr/share/misc/magic/msvc
--- replaced obj /usr/share/misc/magic/msooxml
--- replaced obj /usr/share/misc/magic/msdos
--- replaced obj /usr/share/misc/magic/mozilla
--- replaced obj /usr/share/misc/magic/motorola
--- replaced obj /usr/share/misc/magic/modulefile
--- replaced obj /usr/share/misc/magic/modem
--- replaced obj /usr/share/misc/magic/mmdf
--- replaced obj /usr/share/misc/magic/mlssa
--- replaced obj /usr/share/misc/magic/mkid
--- replaced obj /usr/share/misc/magic/misctools
--- replaced obj /usr/share/misc/magic/mirage
--- replaced obj /usr/share/misc/magic/mips
--- replaced obj /usr/share/misc/magic/mime
--- replaced obj /usr/share/misc/magic/microfocus
--- replaced obj /usr/share/misc/magic/meteorological
--- replaced obj /usr/share/misc/magic/metastore
--- replaced obj /usr/share/misc/magic/mercurial
--- replaced obj /usr/share/misc/magic/measure
--- replaced obj /usr/share/misc/magic/mcrypt
--- replaced obj /usr/share/misc/magic/matroska
--- replaced obj /usr/share/misc/magic/mathematica
--- replaced obj /usr/share/misc/magic/mathcad
--- replaced obj /usr/share/misc/magic/marc21
--- replaced obj /usr/share/misc/magic/maple
--- replaced obj /usr/share/misc/magic/map
--- replaced obj /usr/share/misc/magic/make
--- replaced obj /usr/share/misc/magic/mail.news
--- replaced obj /usr/share/misc/magic/magic
--- replaced obj /usr/share/misc/magic/macos
--- replaced obj /usr/share/misc/magic/macintosh
--- replaced obj /usr/share/misc/magic/mach
--- replaced obj /usr/share/misc/magic/m4
--- replaced obj /usr/share/misc/magic/luks
--- replaced obj /usr/share/misc/magic/lua
--- replaced obj /usr/share/misc/magic/llvm
--- replaced obj /usr/share/misc/magic/lisp
--- replaced obj /usr/share/misc/magic/linux
--- replaced obj /usr/share/misc/magic/lif
--- replaced obj /usr/share/misc/magic/lex
--- replaced obj /usr/share/misc/magic/lecter
--- replaced obj /usr/share/misc/magic/kml
--- replaced obj /usr/share/misc/magic/kicad
--- replaced obj /usr/share/misc/magic/kerberos
--- replaced obj /usr/share/misc/magic/keepass
--- replaced obj /usr/share/misc/magic/kde
--- replaced obj /usr/share/misc/magic/karma
--- replaced obj /usr/share/misc/magic/jpeg
--- replaced obj /usr/share/misc/magic/javascript
--- replaced obj /usr/share/misc/magic/java
--- replaced obj /usr/share/misc/magic/isz
--- replaced obj /usr/share/misc/magic/ispell
--- replaced obj /usr/share/misc/magic/island
--- replaced obj /usr/share/misc/magic/interleaf
--- replaced obj /usr/share/misc/magic/intel
--- replaced obj /usr/share/misc/magic/inform
--- replaced obj /usr/share/misc/magic/images
--- replaced obj /usr/share/misc/magic/iff
--- replaced obj /usr/share/misc/magic/icc
--- replaced obj /usr/share/misc/magic/ibm6000
--- replaced obj /usr/share/misc/magic/ibm370
--- replaced obj /usr/share/misc/magic/human68k
--- replaced obj /usr/share/misc/magic/hp
--- replaced obj /usr/share/misc/magic/hitachi-sh
--- replaced obj /usr/share/misc/magic/hardware
--- replaced obj /usr/share/misc/magic/guile
--- replaced obj /usr/share/misc/magic/gringotts
--- replaced obj /usr/share/misc/magic/graphviz
--- replaced obj /usr/share/misc/magic/grace
--- replaced obj /usr/share/misc/magic/gpu
--- replaced obj /usr/share/misc/magic/gpt
--- replaced obj /usr/share/misc/magic/gnumeric
--- replaced obj /usr/share/misc/magic/gnu
--- replaced obj /usr/share/misc/magic/gnome
--- replaced obj /usr/share/misc/magic/glibc
--- replaced obj /usr/share/misc/magic/git
--- replaced obj /usr/share/misc/magic/gimp
--- replaced obj /usr/share/misc/magic/geos
--- replaced obj /usr/share/misc/magic/geo
--- replaced obj /usr/share/misc/magic/gconv
--- replaced obj /usr/share/misc/magic/gcc
--- replaced obj /usr/share/misc/magic/games
--- replaced obj /usr/share/misc/magic/fusecompress
--- replaced obj /usr/share/misc/magic/fsav
--- replaced obj /usr/share/misc/magic/freebsd
--- replaced obj /usr/share/misc/magic/frame
--- replaced obj /usr/share/misc/magic/fortran
--- replaced obj /usr/share/misc/magic/forth
--- replaced obj /usr/share/misc/magic/fonts
--- replaced obj /usr/share/misc/magic/flif
--- replaced obj /usr/share/misc/magic/flash
--- replaced obj /usr/share/misc/magic/finger
--- replaced obj /usr/share/misc/magic/filesystems
--- replaced obj /usr/share/misc/magic/fcs
--- replaced obj /usr/share/misc/magic/esri
--- replaced obj /usr/share/misc/magic/espressif
--- replaced obj /usr/share/misc/magic/erlang
--- replaced obj /usr/share/misc/magic/epoc
--- replaced obj /usr/share/misc/magic/encore
--- replaced obj /usr/share/misc/magic/elf
--- replaced obj /usr/share/misc/magic/efi
--- replaced obj /usr/share/misc/magic/editors
--- replaced obj /usr/share/misc/magic/edid
--- replaced obj /usr/share/misc/magic/ebml
--- replaced obj /usr/share/misc/magic/dyadic
--- replaced obj /usr/share/misc/magic/dump
--- replaced obj /usr/share/misc/magic/dolby
--- replaced obj /usr/share/misc/magic/digital
--- replaced obj /usr/share/misc/magic/diff
--- replaced obj /usr/share/misc/magic/diamond
--- replaced obj /usr/share/misc/magic/der
--- replaced obj /usr/share/misc/magic/dbpf
--- replaced obj /usr/share/misc/magic/dataone
--- replaced obj /usr/share/misc/magic/database
--- replaced obj /usr/share/misc/magic/dact
--- replaced obj /usr/share/misc/magic/cups
--- replaced obj /usr/share/misc/magic/cubemap
--- replaced obj /usr/share/misc/magic/ctf
--- replaced obj /usr/share/misc/magic/ctags
--- replaced obj /usr/share/misc/magic/cracklib
--- replaced obj /usr/share/misc/magic/coverage
--- replaced obj /usr/share/misc/magic/convex
--- replaced obj /usr/share/misc/magic/console
--- replaced obj /usr/share/misc/magic/compress
--- replaced obj /usr/share/misc/magic/communications
--- replaced obj /usr/share/misc/magic/commands
--- replaced obj /usr/share/misc/magic/coff
--- replaced obj /usr/share/misc/magic/clojure
--- replaced obj /usr/share/misc/magic/clipper
--- replaced obj /usr/share/misc/magic/claris
--- replaced obj /usr/share/misc/magic/clarion
--- replaced obj /usr/share/misc/magic/citrus
--- replaced obj /usr/share/misc/magic/cisco
--- replaced obj /usr/share/misc/magic/chord
--- replaced obj /usr/share/misc/magic/cddb
--- replaced obj /usr/share/misc/magic/cbor
--- replaced obj /usr/share/misc/magic/cafebabe
--- replaced obj /usr/share/misc/magic/cad
--- replaced obj /usr/share/misc/magic/c64
--- replaced obj /usr/share/misc/magic/c-lang
--- replaced obj /usr/share/misc/magic/btsnoop
--- replaced obj /usr/share/misc/magic/bsi
--- replaced obj /usr/share/misc/magic/bsdi
--- replaced obj /usr/share/misc/magic/bout
--- replaced obj /usr/share/misc/magic/blit
--- replaced obj /usr/share/misc/magic/blender
--- replaced obj /usr/share/misc/magic/blcr
--- replaced obj /usr/share/misc/magic/blackberry
--- replaced obj /usr/share/misc/magic/biosig
--- replaced obj /usr/share/misc/magic/bioinformatics
--- replaced obj /usr/share/misc/magic/bhl
--- replaced obj /usr/share/misc/magic/bflt
--- replaced obj /usr/share/misc/magic/ber
--- replaced obj /usr/share/misc/magic/beetle
--- replaced obj /usr/share/misc/magic/basis
--- replaced obj /usr/share/misc/magic/audio
--- replaced obj /usr/share/misc/magic/att3b
--- replaced obj /usr/share/misc/magic/asterix
--- replaced obj /usr/share/misc/magic/assembler
--- replaced obj /usr/share/misc/magic/archive
--- replaced obj /usr/share/misc/magic/apt
--- replaced obj /usr/share/misc/magic/applix
--- replaced obj /usr/share/misc/magic/application
--- replaced obj /usr/share/misc/magic/apple
--- replaced obj /usr/share/misc/magic/apl
--- replaced obj /usr/share/misc/magic/apache
--- replaced obj /usr/share/misc/magic/aout
--- replaced obj /usr/share/misc/magic/animation
--- replaced obj /usr/share/misc/magic/android
--- replaced obj /usr/share/misc/magic/amigaos
--- replaced obj /usr/share/misc/magic/amanda
--- replaced obj /usr/share/misc/magic/alliant
--- replaced obj /usr/share/misc/magic/allegro
--- replaced obj /usr/share/misc/magic/algol68
--- replaced obj /usr/share/misc/magic/adventure
--- replaced obj /usr/share/misc/magic/adi
--- replaced obj /usr/share/misc/magic/acorn
--- replaced obj /usr/share/misc/magic.mgc
--- replaced dir /usr/share/misc/magic
--- replaced dir /usr/share/misc
--- replaced obj /usr/share/man/man5/magic.5.bz2
--- replaced dir /usr/share/man/man5
--- replaced obj /usr/share/man/man3/libmagic.3.bz2
--- replaced dir /usr/share/man/man3
--- replaced obj /usr/share/man/man1/file.1.bz2
--- replaced dir /usr/share/man/man1
--- replaced dir /usr/share/man
--- replaced dir /usr/share
--- replaced obj /usr/lib64/libmagic.so.1.0.0
--- replaced sym /usr/lib64/libmagic.so.1
--- replaced sym /usr/lib64/libmagic.so
--- replaced dir /usr/lib64
--- replaced obj /usr/include/magic.h
--- replaced dir /usr/include
--- replaced obj /usr/bin/file
--- replaced dir /usr/bin
--- replaced dir /usr
>>> Regenerating /etc/ld.so.cache...
