[32;01m * [39;49;00mPackage:    sys-apps/portage-9999
[32;01m * [39;49;00mRepository: gentoo
[32;01m * [39;49;00mUSE:        userland_GNU native-extensions gentoo-dev elibc_glibc kernel_linux abi_x86_64 python_targets_python3_9 python_targets_pypy3 python_targets_python3_8 python_targets_python3_6 amd64 ipc python_targets_python3_7 rsync-verify xattr
[32;01m * [39;49;00mFEATURES:   network-sandbox preserve-libs sandbox userpriv usersandbox
 [32;01m*[0m Checking for suitable kernel configuration options...
[A[263C [34;01m[ [32;01mok[34;01m ][0m
