 * Package:    sys-process/cronie-1.5.5
 * Repository: gentoo
 * Maintainer: polynomial-c@gentoo.org
 * USE:        abi_x86_64 amd64 anacron elibc_glibc inotify kernel_linux pam userland_GNU
 * FEATURES:   network-sandbox preserve-libs sandbox userpriv usersandbox
 * FEATURES='assume-digests binpkg-docompress binpkg-dostrip binpkg-logs buildpkg cgroup compress-index config-protect-if-modified distlocks ebuild-locks fixlafiles ipc-sandbox merge-sync multilib-strict network-sandbox news nodoc parallel-fetch pid-sandbox preserve-libs qa-unresolved-soname-deps sandbox sfperms strict strict-keepdir unknown-features-warn unmerge-logs unmerge-orphans userfetch userpriv usersandbox usersync xattr'
 * CFLAGS='-march=znver2 -Ofast -pipe -g0 -fno-common -fgraphite-identity -floop-interchange -floop-nest-optimize -floop-parallelize-all -ftree-parallelize-loops=12 -ftree-vectorize -fdevirtualize-at-ltrans -fipa-pta -fno-semantic-interposition -flto=12 -fno-plt -falign-functions=32 -fno-stack-protector -fno-stack-clash-protection -fstack-check=no -fno-stack-check -fuse-linker-plugin -Wl,-O1,--sort-common,--as-needed,-z,norelro,-z,now,-lgomp,-lpthread'
 * CXXFLAGS='-march=znver2 -Ofast -pipe -g0 -fno-common -fgraphite-identity -floop-interchange -floop-nest-optimize -floop-parallelize-all -ftree-parallelize-loops=12 -ftree-vectorize -fdevirtualize-at-ltrans -fipa-pta -fno-semantic-interposition -flto=12 -fno-plt -falign-functions=32 -fno-stack-protector -fno-stack-clash-protection -fstack-check=no -fno-stack-check -fuse-linker-plugin -Wl,-O1,--sort-common,--as-needed,-z,norelro,-z,now,-lgomp,-lpthread'
 * FFLAGS='-march=znver2 -Ofast -pipe -g0 -fno-common -fgraphite-identity -floop-interchange -floop-nest-optimize -floop-parallelize-all -ftree-parallelize-loops=12 -ftree-vectorize -fdevirtualize-at-ltrans -fipa-pta -fno-semantic-interposition -flto=12 -fno-plt -falign-functions=32 -fno-stack-protector -fno-stack-clash-protection -fstack-check=no -fno-stack-check -fuse-linker-plugin -Wl,-O1,--sort-common,--as-needed,-z,norelro,-z,now,-lgomp,-lpthread'
 * FCFLAGS='-march=znver2 -Ofast -pipe -g0 -fno-common -fgraphite-identity -floop-interchange -floop-nest-optimize -floop-parallelize-all -ftree-parallelize-loops=12 -ftree-vectorize -fdevirtualize-at-ltrans -fipa-pta -fno-semantic-interposition -flto=12 -fno-plt -falign-functions=32 -fno-stack-protector -fno-stack-clash-protection -fstack-check=no -fno-stack-check -fuse-linker-plugin -Wl,-O1,--sort-common,--as-needed,-z,norelro,-z,now,-lgomp,-lpthread'
 * F77FLAGS='-march=znver2 -Ofast -pipe -g0 -fno-common -fgraphite-identity -floop-interchange -floop-nest-optimize -floop-parallelize-all -ftree-parallelize-loops=12 -ftree-vectorize -fdevirtualize-at-ltrans -fipa-pta -fno-semantic-interposition -flto=12 -fno-plt -falign-functions=32 -fno-stack-protector -fno-stack-clash-protection -fstack-check=no -fno-stack-check -fuse-linker-plugin -Wl,-O1,--sort-common,--as-needed,-z,norelro,-z,now,-lgomp,-lpthread'
 * LDFLAGS='-Wl,-O1,--sort-common,--as-needed,-z,norelro,-z,now,-lgomp,-lpthread -march=znver2 -Ofast -pipe -g0 -fno-common -fgraphite-identity -floop-interchange -floop-nest-optimize -floop-parallelize-all -ftree-parallelize-loops=12 -ftree-vectorize -fdevirtualize-at-ltrans -fipa-pta -fno-semantic-interposition -flto=12 -fno-plt -falign-functions=32 -fno-stack-protector -fno-stack-clash-protection -fstack-check=no -fno-stack-check -fuse-linker-plugin'
 * MAKEOPTS='-j12 -l12'
 * gcc () 11.0.0 20200616 (experimental)
 * g++ () 11.0.0 20200616 (experimental)
 * GNU ld (Gentoo 2.34 p4) 2.34.0
 * Linux rescue 5.4.36 #1 SMP Thu Apr 30 04:38:28 UTC 2020 x86_64 AMD Ryzen 5 3600 6-Core Processor AuthenticAMD GNU/Linux
sys-process/cronie: 42 seconds average for 6 merges
2020-05-21T13:57:47 >>> sys-process/cronie: 56 seconds
2020-05-26T14:40:27 >>> sys-process/cronie: 13 seconds
2020-05-30T23:53:31 >>> sys-process/cronie: 42 seconds
2020-06-01T08:21:41 >>> sys-process/cronie: 25 seconds
2020-06-13T20:45:13 >>> sys-process/cronie: 1 minute, 5 seconds
2020-06-16T17:25:18 >>> sys-process/cronie: 55 seconds
]0;emerge 16:45:45 23|240 cronie 00:48 (root@rescue)>>> Unpacking source...
>>> Unpacking cronie-1.5.5.tar.gz to /tmp/portage/sys-process/cronie-1.5.5/work
>>> Source unpacked in /tmp/portage/sys-process/cronie-1.5.5/work
>>> Preparing source in /tmp/portage/sys-process/cronie-1.5.5/work/cronie-cronie-1.5.5 ...
 * Applying cronie-1.5.3-systemd.patch ...
 [ ok ]
 * Running eautoreconf in '/tmp/portage/sys-process/cronie-1.5.5/work/cronie-cronie-1.5.5' ...
 * Running aclocal ...
 [ ok ]
 * Running autoconf --force ...
 [ ok ]
 * Running autoheader ...
 [ ok ]
 * Running automake --add-missing --copy --force-missing ...
 [ ok ]
 * Running elibtoolize in: cronie-cronie-1.5.5/
>>> Source prepared.
>>> Configuring source in /tmp/portage/sys-process/cronie-1.5.5/work/cronie-cronie-1.5.5 ...
 * econf: updating cronie-cronie-1.5.5/config.guess with /usr/share/gnuconfig/config.guess
 * econf: updating cronie-cronie-1.5.5/config.sub with /usr/share/gnuconfig/config.sub
./configure --prefix=/usr --build=x86_64-pc-linux-gnu --host=x86_64-pc-linux-gnu --mandir=/usr/share/man --infodir=/usr/share/info --datadir=/usr/share --sysconfdir=/etc --localstatedir=/var/lib --disable-dependency-tracking --disable-silent-rules --docdir=/usr/share/doc/cronie-1.5.5 --htmldir=/usr/share/doc/cronie-1.5.5/html --libdir=/usr/lib64 --with-inotify --with-pam --without-selinux --enable-anacron --enable-syscrontab --with-daemon_username=cron --with-daemon_groupname=cron
checking for a BSD-compatible install... /tmp/portage/._portage_reinstall_.z8sq2nh6/bin/ebuild-helpers/xattr/install -c
checking whether build environment is sane... yes
checking for a thread-safe mkdir -p... /bin/mkdir -p
checking for gawk... gawk
checking whether make sets $(MAKE)... yes
checking whether make supports nested variables... yes
checking whether make supports nested variables... (cached) yes
checking build system type... x86_64-pc-linux-gnu
checking host system type... x86_64-pc-linux-gnu
checking for x86_64-pc-linux-gnu-gcc... x86_64-pc-linux-gnu-gcc
checking whether the C compiler works... yes
checking for C compiler default output file name... a.out
checking for suffix of executables... 
checking whether we are cross compiling... no
checking for suffix of object files... o
checking whether we are using the GNU C compiler... yes
checking whether x86_64-pc-linux-gnu-gcc accepts -g... yes
checking for x86_64-pc-linux-gnu-gcc option to accept ISO C89... none needed
checking whether x86_64-pc-linux-gnu-gcc understands -c and -o together... yes
checking whether make supports the include directive... yes (GNU style)
checking dependency style of x86_64-pc-linux-gnu-gcc... none
checking whether ln -s works... yes
checking how to run the C preprocessor... x86_64-pc-linux-gnu-gcc -E
checking for grep that handles long lines and -e... /bin/grep
checking for egrep... /bin/grep -E
checking for ANSI C header files... yes
checking for sys/types.h... yes
checking for sys/stat.h... yes
checking for stdlib.h... yes
checking for string.h... yes
checking for memory.h... yes
checking for strings.h... yes
checking for inttypes.h... yes
checking for stdint.h... yes
checking for unistd.h... yes
checking minix/config.h usability... no
checking minix/config.h presence... no
checking for minix/config.h... no
checking whether it is safe to define __EXTENSIONS__... yes
checking dirent.h usability... yes
checking dirent.h presence... yes
checking for dirent.h... yes
checking fcntl.h usability... yes
checking fcntl.h presence... yes
checking for fcntl.h... yes
checking getopt.h usability... yes
checking getopt.h presence... yes
checking for getopt.h... yes
checking glob.h usability... yes
checking glob.h presence... yes
checking for glob.h... yes
checking limits.h usability... yes
checking limits.h presence... yes
checking for limits.h... yes
checking paths.h usability... yes
checking paths.h presence... yes
checking for paths.h... yes
checking pty.h usability... yes
checking pty.h presence... yes
checking for pty.h... yes
checking selinux/selinux.h usability... no
checking selinux/selinux.h presence... no
checking for selinux/selinux.h... no
checking stddef.h usability... yes
checking stddef.h presence... yes
checking for stddef.h... yes
checking for stdint.h... (cached) yes
checking sys/audit.h usability... no
checking sys/audit.h presence... no
checking for sys/audit.h... no
checking sys/inotify.h usability... yes
checking sys/inotify.h presence... yes
checking for sys/inotify.h... yes
checking for sys/stat.h... (cached) yes
checking sys/stream.h usability... no
checking sys/stream.h presence... no
checking for sys/stream.h... no
checking sys/stropts.h usability... no
checking sys/stropts.h presence... no
checking for sys/stropts.h... no
checking sys/time.h usability... yes
checking sys/time.h presence... yes
checking for sys/time.h... yes
checking sys/timers.h usability... no
checking sys/timers.h presence... no
checking for sys/timers.h... no
checking for sys/types.h... (cached) yes
checking sys/cdefs.h usability... yes
checking sys/cdefs.h presence... yes
checking for sys/cdefs.h... yes
checking sys/fcntl.h usability... yes
checking sys/fcntl.h presence... yes
checking for sys/fcntl.h... yes
checking time.h usability... yes
checking time.h presence... yes
checking for time.h... yes
checking for unistd.h... (cached) yes
checking util.h usability... no
checking util.h presence... no
checking for util.h... no
checking utime.h usability... yes
checking utime.h presence... yes
checking for utime.h... yes
checking for fcntl... yes
checking for lockf... yes
checking for flock... yes
checking for fchown... yes
checking for fchgrp... no
checking for an ANSI C-conforming const... yes
checking return type of signal handlers... void
checking for uid_t in sys/types.h... yes
checking for mode_t... yes
checking for off_t... yes
checking for pid_t... yes
checking for size_t... yes
checking whether struct tm is in sys/time.h or time.h... time.h
checking for struct tm.tm_gmtoff... yes
checking for vi... /usr/bin/vi
checking username to run under... cron
checking groupname to run under... cron
checking for sys/inotify.h... (cached) yes
checking for inotify_init... yes
checking for inotify_add_watch... yes
checking pam/pam_appl.h usability... no
checking pam/pam_appl.h presence... no
checking for pam/pam_appl.h... no
checking security/pam_appl.h usability... yes
checking security/pam_appl.h presence... yes
checking for security/pam_appl.h... yes
checking for dlopen in -ldl... yes
checking for pam_set_item in -lpam... yes
checking for pam_getenvlist... yes
checking for pam_putenv... yes
checking that generated files are newer than configure... done
configure: creating ./config.status
config.status: creating Makefile
config.status: creating config.h
config.status: executing depfiles commands
>>> Source configured.
>>> Compiling source in /tmp/portage/sys-process/cronie-1.5.5/work/cronie-cronie-1.5.5 ...
make -j12 -l12 
creating anacron-paths.h
creating cron-paths.h
make  all-am
make[1]: Entering directory '/tmp/portage/sys-process/cronie-1.5.5/work/cronie-cronie-1.5.5'
x86_64-pc-linux-gnu-gcc -DHAVE_CONFIG_H -I.    -I. -march=znver2 -Ofast -pipe -g0 -fno-common -fgraphite-identity -floop-interchange -floop-nest-optimize -floop-parallelize-all -ftree-parallelize-loops=12 -ftree-vectorize -fdevirtualize-at-ltrans -fipa-pta -fno-semantic-interposition -flto=12 -fno-plt -falign-functions=32 -fno-stack-protector -fno-stack-clash-protection -fstack-check=no -fno-stack-check -fuse-linker-plugin -Wl,-O1,--sort-common,--as-needed,-z,norelro,-z,now,-lgomp,-lpthread -c -o src/cronnext.o src/cronnext.c
x86_64-pc-linux-gnu-gcc -DHAVE_CONFIG_H -I.    -I. -march=znver2 -Ofast -pipe -g0 -fno-common -fgraphite-identity -floop-interchange -floop-nest-optimize -floop-parallelize-all -ftree-parallelize-loops=12 -ftree-vectorize -fdevirtualize-at-ltrans -fipa-pta -fno-semantic-interposition -flto=12 -fno-plt -falign-functions=32 -fno-stack-protector -fno-stack-clash-protection -fstack-check=no -fno-stack-check -fuse-linker-plugin -Wl,-O1,--sort-common,--as-needed,-z,norelro,-z,now,-lgomp,-lpthread -c -o src/user.o src/user.c
x86_64-pc-linux-gnu-gcc -DHAVE_CONFIG_H -I.    -I. -march=znver2 -Ofast -pipe -g0 -fno-common -fgraphite-identity -floop-interchange -floop-nest-optimize -floop-parallelize-all -ftree-parallelize-loops=12 -ftree-vectorize -fdevirtualize-at-ltrans -fipa-pta -fno-semantic-interposition -flto=12 -fno-plt -falign-functions=32 -fno-stack-protector -fno-stack-clash-protection -fstack-check=no -fno-stack-check -fuse-linker-plugin -Wl,-O1,--sort-common,--as-needed,-z,norelro,-z,now,-lgomp,-lpthread -c -o anacron/gregor.o anacron/gregor.c
x86_64-pc-linux-gnu-gcc -DHAVE_CONFIG_H -I.    -I. -march=znver2 -Ofast -pipe -g0 -fno-common -fgraphite-identity -floop-interchange -floop-nest-optimize -floop-parallelize-all -ftree-parallelize-loops=12 -ftree-vectorize -fdevirtualize-at-ltrans -fipa-pta -fno-semantic-interposition -flto=12 -fno-plt -falign-functions=32 -fno-stack-protector -fno-stack-clash-protection -fstack-check=no -fno-stack-check -fuse-linker-plugin -Wl,-O1,--sort-common,--as-needed,-z,norelro,-z,now,-lgomp,-lpthread -c -o anacron/lock.o anacron/lock.c
x86_64-pc-linux-gnu-gcc -DHAVE_CONFIG_H -I.    -I. -march=znver2 -Ofast -pipe -g0 -fno-common -fgraphite-identity -floop-interchange -floop-nest-optimize -floop-parallelize-all -ftree-parallelize-loops=12 -ftree-vectorize -fdevirtualize-at-ltrans -fipa-pta -fno-semantic-interposition -flto=12 -fno-plt -falign-functions=32 -fno-stack-protector -fno-stack-clash-protection -fstack-check=no -fno-stack-check -fuse-linker-plugin -Wl,-O1,--sort-common,--as-needed,-z,norelro,-z,now,-lgomp,-lpthread -c -o src/security.o src/security.c
x86_64-pc-linux-gnu-gcc -DHAVE_CONFIG_H -I.    -I. -march=znver2 -Ofast -pipe -g0 -fno-common -fgraphite-identity -floop-interchange -floop-nest-optimize -floop-parallelize-all -ftree-parallelize-loops=12 -ftree-vectorize -fdevirtualize-at-ltrans -fipa-pta -fno-semantic-interposition -flto=12 -fno-plt -falign-functions=32 -fno-stack-protector -fno-stack-clash-protection -fstack-check=no -fno-stack-check -fuse-linker-plugin -Wl,-O1,--sort-common,--as-needed,-z,norelro,-z,now,-lgomp,-lpthread -c -o anacron/main.o anacron/main.c
x86_64-pc-linux-gnu-gcc -DHAVE_CONFIG_H -I.    -I. -march=znver2 -Ofast -pipe -g0 -fno-common -fgraphite-identity -floop-interchange -floop-nest-optimize -floop-parallelize-all -ftree-parallelize-loops=12 -ftree-vectorize -fdevirtualize-at-ltrans -fipa-pta -fno-semantic-interposition -flto=12 -fno-plt -falign-functions=32 -fno-stack-protector -fno-stack-clash-protection -fstack-check=no -fno-stack-check -fuse-linker-plugin -Wl,-O1,--sort-common,--as-needed,-z,norelro,-z,now,-lgomp,-lpthread -c -o anacron/matchrx.o anacron/matchrx.c
x86_64-pc-linux-gnu-gcc -DHAVE_CONFIG_H -I.    -I. -march=znver2 -Ofast -pipe -g0 -fno-common -fgraphite-identity -floop-interchange -floop-nest-optimize -floop-parallelize-all -ftree-parallelize-loops=12 -ftree-vectorize -fdevirtualize-at-ltrans -fipa-pta -fno-semantic-interposition -flto=12 -fno-plt -falign-functions=32 -fno-stack-protector -fno-stack-clash-protection -fstack-check=no -fno-stack-check -fuse-linker-plugin -Wl,-O1,--sort-common,--as-needed,-z,norelro,-z,now,-lgomp,-lpthread -c -o anacron/readtab.o anacron/readtab.c
x86_64-pc-linux-gnu-gcc -DHAVE_CONFIG_H -I.    -I. -march=znver2 -Ofast -pipe -g0 -fno-common -fgraphite-identity -floop-interchange -floop-nest-optimize -floop-parallelize-all -ftree-parallelize-loops=12 -ftree-vectorize -fdevirtualize-at-ltrans -fipa-pta -fno-semantic-interposition -flto=12 -fno-plt -falign-functions=32 -fno-stack-protector -fno-stack-clash-protection -fstack-check=no -fno-stack-check -fuse-linker-plugin -Wl,-O1,--sort-common,--as-needed,-z,norelro,-z,now,-lgomp,-lpthread -c -o anacron/runjob.o anacron/runjob.c
x86_64-pc-linux-gnu-gcc -DHAVE_CONFIG_H -I.    -I. -march=znver2 -Ofast -pipe -g0 -fno-common -fgraphite-identity -floop-interchange -floop-nest-optimize -floop-parallelize-all -ftree-parallelize-loops=12 -ftree-vectorize -fdevirtualize-at-ltrans -fipa-pta -fno-semantic-interposition -flto=12 -fno-plt -falign-functions=32 -fno-stack-protector -fno-stack-clash-protection -fstack-check=no -fno-stack-check -fuse-linker-plugin -Wl,-O1,--sort-common,--as-needed,-z,norelro,-z,now,-lgomp,-lpthread -c -o src/cron.o src/cron.c
x86_64-pc-linux-gnu-gcc -DHAVE_CONFIG_H -I.    -I. -march=znver2 -Ofast -pipe -g0 -fno-common -fgraphite-identity -floop-interchange -floop-nest-optimize -floop-parallelize-all -ftree-parallelize-loops=12 -ftree-vectorize -fdevirtualize-at-ltrans -fipa-pta -fno-semantic-interposition -flto=12 -fno-plt -falign-functions=32 -fno-stack-protector -fno-stack-clash-protection -fstack-check=no -fno-stack-check -fuse-linker-plugin -Wl,-O1,--sort-common,--as-needed,-z,norelro,-z,now,-lgomp,-lpthread -c -o src/do_command.o src/do_command.c
x86_64-pc-linux-gnu-gcc -DHAVE_CONFIG_H -I.    -I. -march=znver2 -Ofast -pipe -g0 -fno-common -fgraphite-identity -floop-interchange -floop-nest-optimize -floop-parallelize-all -ftree-parallelize-loops=12 -ftree-vectorize -fdevirtualize-at-ltrans -fipa-pta -fno-semantic-interposition -flto=12 -fno-plt -falign-functions=32 -fno-stack-protector -fno-stack-clash-protection -fstack-check=no -fno-stack-check -fuse-linker-plugin -Wl,-O1,--sort-common,--as-needed,-z,norelro,-z,now,-lgomp,-lpthread -c -o src/popen.o src/popen.c
x86_64-pc-linux-gnu-gcc -DHAVE_CONFIG_H -I.    -I. -march=znver2 -Ofast -pipe -g0 -fno-common -fgraphite-identity -floop-interchange -floop-nest-optimize -floop-parallelize-all -ftree-parallelize-loops=12 -ftree-vectorize -fdevirtualize-at-ltrans -fipa-pta -fno-semantic-interposition -flto=12 -fno-plt -falign-functions=32 -fno-stack-protector -fno-stack-clash-protection -fstack-check=no -fno-stack-check -fuse-linker-plugin -Wl,-O1,--sort-common,--as-needed,-z,norelro,-z,now,-lgomp,-lpthread -c -o anacron/log.o anacron/log.c
x86_64-pc-linux-gnu-gcc -DHAVE_CONFIG_H -I.    -I. -march=znver2 -Ofast -pipe -g0 -fno-common -fgraphite-identity -floop-interchange -floop-nest-optimize -floop-parallelize-all -ftree-parallelize-loops=12 -ftree-vectorize -fdevirtualize-at-ltrans -fipa-pta -fno-semantic-interposition -flto=12 -fno-plt -falign-functions=32 -fno-stack-protector -fno-stack-clash-protection -fstack-check=no -fno-stack-check -fuse-linker-plugin -Wl,-O1,--sort-common,--as-needed,-z,norelro,-z,now,-lgomp,-lpthread -c -o src/crontab.o src/crontab.c
x86_64-pc-linux-gnu-gcc -DHAVE_CONFIG_H -I.    -I. -march=znver2 -Ofast -pipe -g0 -fno-common -fgraphite-identity -floop-interchange -floop-nest-optimize -floop-parallelize-all -ftree-parallelize-loops=12 -ftree-vectorize -fdevirtualize-at-ltrans -fipa-pta -fno-semantic-interposition -flto=12 -fno-plt -falign-functions=32 -fno-stack-protector -fno-stack-clash-protection -fstack-check=no -fno-stack-check -fuse-linker-plugin -Wl,-O1,--sort-common,--as-needed,-z,norelro,-z,now,-lgomp,-lpthread -c -o src/pw_dup.o src/pw_dup.c
x86_64-pc-linux-gnu-gcc -DHAVE_CONFIG_H -I.    -I. -march=znver2 -Ofast -pipe -g0 -fno-common -fgraphite-identity -floop-interchange -floop-nest-optimize -floop-parallelize-all -ftree-parallelize-loops=12 -ftree-vectorize -fdevirtualize-at-ltrans -fipa-pta -fno-semantic-interposition -flto=12 -fno-plt -falign-functions=32 -fno-stack-protector -fno-stack-clash-protection -fstack-check=no -fno-stack-check -fuse-linker-plugin -Wl,-O1,--sort-common,--as-needed,-z,norelro,-z,now,-lgomp,-lpthread -c -o src/misc.o src/misc.c
x86_64-pc-linux-gnu-gcc -DHAVE_CONFIG_H -I.    -I. -march=znver2 -Ofast -pipe -g0 -fno-common -fgraphite-identity -floop-interchange -floop-nest-optimize -floop-parallelize-all -ftree-parallelize-loops=12 -ftree-vectorize -fdevirtualize-at-ltrans -fipa-pta -fno-semantic-interposition -flto=12 -fno-plt -falign-functions=32 -fno-stack-protector -fno-stack-clash-protection -fstack-check=no -fno-stack-check -fuse-linker-plugin -Wl,-O1,--sort-common,--as-needed,-z,norelro,-z,now,-lgomp,-lpthread -c -o src/env.o src/env.c
x86_64-pc-linux-gnu-gcc -I. -march=znver2 -Ofast -pipe -g0 -fno-common -fgraphite-identity -floop-interchange -floop-nest-optimize -floop-parallelize-all -ftree-parallelize-loops=12 -ftree-vectorize -fdevirtualize-at-ltrans -fipa-pta -fno-semantic-interposition -flto=12 -fno-plt -falign-functions=32 -fno-stack-protector -fno-stack-clash-protection -fstack-check=no -fno-stack-check -fuse-linker-plugin -Wl,-O1,--sort-common,--as-needed,-z,norelro,-z,now,-lgomp,-lpthread  -Wl,-O1,--sort-common,--as-needed,-z,norelro,-z,now,-lgomp,-lpthread -march=znver2 -Ofast -pipe -g0 -fno-common -fgraphite-identity -floop-interchange -floop-nest-optimize -floop-parallelize-all -ftree-parallelize-loops=12 -ftree-vectorize -fdevirtualize-at-ltrans -fipa-pta -fno-semantic-interposition -flto=12 -fno-plt -falign-functions=32 -fno-stack-protector -fno-stack-clash-protection -fstack-check=no -fno-stack-check -fuse-linker-plugin -o anacron/anacron anacron/gregor.o anacron/lock.o anacron/log.o anacron/main.o anacron/matchrx.o anacron/readtab.o anacron/runjob.o   -lpam -ldl  
x86_64-pc-linux-gnu-gcc -DHAVE_CONFIG_H -I.    -I. -march=znver2 -Ofast -pipe -g0 -fno-common -fgraphite-identity -floop-interchange -floop-nest-optimize -floop-parallelize-all -ftree-parallelize-loops=12 -ftree-vectorize -fdevirtualize-at-ltrans -fipa-pta -fno-semantic-interposition -flto=12 -fno-plt -falign-functions=32 -fno-stack-protector -fno-stack-clash-protection -fstack-check=no -fno-stack-check -fuse-linker-plugin -Wl,-O1,--sort-common,--as-needed,-z,norelro,-z,now,-lgomp,-lpthread -c -o src/entry.o src/entry.c
x86_64-pc-linux-gnu-gcc -DHAVE_CONFIG_H -I.    -I. -march=znver2 -Ofast -pipe -g0 -fno-common -fgraphite-identity -floop-interchange -floop-nest-optimize -floop-parallelize-all -ftree-parallelize-loops=12 -ftree-vectorize -fdevirtualize-at-ltrans -fipa-pta -fno-semantic-interposition -flto=12 -fno-plt -falign-functions=32 -fno-stack-protector -fno-stack-clash-protection -fstack-check=no -fno-stack-check -fuse-linker-plugin -Wl,-O1,--sort-common,--as-needed,-z,norelro,-z,now,-lgomp,-lpthread -c -o src/job.o src/job.c
x86_64-pc-linux-gnu-gcc -DHAVE_CONFIG_H -I.    -I. -march=znver2 -Ofast -pipe -g0 -fno-common -fgraphite-identity -floop-interchange -floop-nest-optimize -floop-parallelize-all -ftree-parallelize-loops=12 -ftree-vectorize -fdevirtualize-at-ltrans -fipa-pta -fno-semantic-interposition -flto=12 -fno-plt -falign-functions=32 -fno-stack-protector -fno-stack-clash-protection -fstack-check=no -fno-stack-check -fuse-linker-plugin -Wl,-O1,--sort-common,--as-needed,-z,norelro,-z,now,-lgomp,-lpthread -c -o src/database.o src/database.c
x86_64-pc-linux-gnu-gcc -I. -march=znver2 -Ofast -pipe -g0 -fno-common -fgraphite-identity -floop-interchange -floop-nest-optimize -floop-parallelize-all -ftree-parallelize-loops=12 -ftree-vectorize -fdevirtualize-at-ltrans -fipa-pta -fno-semantic-interposition -flto=12 -fno-plt -falign-functions=32 -fno-stack-protector -fno-stack-clash-protection -fstack-check=no -fno-stack-check -fuse-linker-plugin -Wl,-O1,--sort-common,--as-needed,-z,norelro,-z,now,-lgomp,-lpthread  -Wl,-O1,--sort-common,--as-needed,-z,norelro,-z,now,-lgomp,-lpthread -march=znver2 -Ofast -pipe -g0 -fno-common -fgraphite-identity -floop-interchange -floop-nest-optimize -floop-parallelize-all -ftree-parallelize-loops=12 -ftree-vectorize -fdevirtualize-at-ltrans -fipa-pta -fno-semantic-interposition -flto=12 -fno-plt -falign-functions=32 -fno-stack-protector -fno-stack-clash-protection -fstack-check=no -fno-stack-check -fuse-linker-plugin -o src/crontab src/crontab.o src/security.o src/entry.o src/env.o src/misc.o src/pw_dup.o   -lpam -ldl  
x86_64-pc-linux-gnu-gcc -I. -march=znver2 -Ofast -pipe -g0 -fno-common -fgraphite-identity -floop-interchange -floop-nest-optimize -floop-parallelize-all -ftree-parallelize-loops=12 -ftree-vectorize -fdevirtualize-at-ltrans -fipa-pta -fno-semantic-interposition -flto=12 -fno-plt -falign-functions=32 -fno-stack-protector -fno-stack-clash-protection -fstack-check=no -fno-stack-check -fuse-linker-plugin -Wl,-O1,--sort-common,--as-needed,-z,norelro,-z,now,-lgomp,-lpthread  -Wl,-O1,--sort-common,--as-needed,-z,norelro,-z,now,-lgomp,-lpthread -march=znver2 -Ofast -pipe -g0 -fno-common -fgraphite-identity -floop-interchange -floop-nest-optimize -floop-parallelize-all -ftree-parallelize-loops=12 -ftree-vectorize -fdevirtualize-at-ltrans -fipa-pta -fno-semantic-interposition -flto=12 -fno-plt -falign-functions=32 -fno-stack-protector -fno-stack-clash-protection -fstack-check=no -fno-stack-check -fuse-linker-plugin -o src/cronnext src/cronnext.o src/database.o src/job.o src/user.o src/entry.o src/env.o src/misc.o src/pw_dup.o   
x86_64-pc-linux-gnu-gcc -I. -march=znver2 -Ofast -pipe -g0 -fno-common -fgraphite-identity -floop-interchange -floop-nest-optimize -floop-parallelize-all -ftree-parallelize-loops=12 -ftree-vectorize -fdevirtualize-at-ltrans -fipa-pta -fno-semantic-interposition -flto=12 -fno-plt -falign-functions=32 -fno-stack-protector -fno-stack-clash-protection -fstack-check=no -fno-stack-check -fuse-linker-plugin -Wl,-O1,--sort-common,--as-needed,-z,norelro,-z,now,-lgomp,-lpthread  -Wl,-O1,--sort-common,--as-needed,-z,norelro,-z,now,-lgomp,-lpthread -march=znver2 -Ofast -pipe -g0 -fno-common -fgraphite-identity -floop-interchange -floop-nest-optimize -floop-parallelize-all -ftree-parallelize-loops=12 -ftree-vectorize -fdevirtualize-at-ltrans -fipa-pta -fno-semantic-interposition -flto=12 -fno-plt -falign-functions=32 -fno-stack-protector -fno-stack-clash-protection -fstack-check=no -fno-stack-check -fuse-linker-plugin -o src/crond src/cron.o src/database.o src/do_command.o src/job.o src/popen.o src/security.o src/user.o src/entry.o src/env.o src/misc.o src/pw_dup.o   -lpam -ldl  
make[1]: Leaving directory '/tmp/portage/sys-process/cronie-1.5.5/work/cronie-cronie-1.5.5'
>>> Source compiled.
>>> Test phase [not enabled]: sys-process/cronie-1.5.5

>>> Install sys-process/cronie-1.5.5 into /tmp/portage/sys-process/cronie-1.5.5/image
make -j12 -l12 DESTDIR=/tmp/portage/sys-process/cronie-1.5.5/image install 
make  install-am
make[1]: Entering directory '/tmp/portage/sys-process/cronie-1.5.5/work/cronie-cronie-1.5.5'
make[2]: Entering directory '/tmp/portage/sys-process/cronie-1.5.5/work/cronie-cronie-1.5.5'
 /bin/mkdir -p '/tmp/portage/sys-process/cronie-1.5.5/image/usr/bin'
  /tmp/portage/._portage_reinstall_.z8sq2nh6/bin/ebuild-helpers/xattr/install -c src/cronnext src/crontab '/tmp/portage/sys-process/cronie-1.5.5/image/usr/bin'
 /bin/mkdir -p '/tmp/portage/sys-process/cronie-1.5.5/image/usr/share/man/man8'
 /tmp/portage/._portage_reinstall_.z8sq2nh6/bin/ebuild-helpers/xattr/install -c -m 644 man/cron.8 man/crond.8 man/anacron.8 '/tmp/portage/sys-process/cronie-1.5.5/image/usr/share/man/man8'
 /bin/mkdir -p '/tmp/portage/sys-process/cronie-1.5.5/image/usr/share/man/man5'
 /tmp/portage/._portage_reinstall_.z8sq2nh6/bin/ebuild-helpers/xattr/install -c -m 644 man/crontab.5 man/anacrontab.5 '/tmp/portage/sys-process/cronie-1.5.5/image/usr/share/man/man5'
 /bin/mkdir -p '/tmp/portage/sys-process/cronie-1.5.5/image/usr/share/man/man1'
 /tmp/portage/._portage_reinstall_.z8sq2nh6/bin/ebuild-helpers/xattr/install -c -m 644 man/cronnext.1 man/crontab.1 '/tmp/portage/sys-process/cronie-1.5.5/image/usr/share/man/man1'
 /bin/mkdir -p '/tmp/portage/sys-process/cronie-1.5.5/image/etc/pam.d'
 /tmp/portage/._portage_reinstall_.z8sq2nh6/bin/ebuild-helpers/xattr/install -c -m 644 pam/crond '/tmp/portage/sys-process/cronie-1.5.5/image/etc/pam.d'
make[2]: Nothing to be done for 'install-data-am'.
 /bin/mkdir -p '/tmp/portage/sys-process/cronie-1.5.5/image/usr/sbin'
  /tmp/portage/._portage_reinstall_.z8sq2nh6/bin/ebuild-helpers/xattr/install -c anacron/anacron src/crond '/tmp/portage/sys-process/cronie-1.5.5/image/usr/sbin'
make[2]: Leaving directory '/tmp/portage/sys-process/cronie-1.5.5/work/cronie-cronie-1.5.5'
make[1]: Leaving directory '/tmp/portage/sys-process/cronie-1.5.5/work/cronie-cronie-1.5.5'
>>> Completed installing sys-process/cronie-1.5.5 into /tmp/portage/sys-process/cronie-1.5.5/image

 * Final size of build directory: 2788 KiB (2.7 MiB)
 * Final size of installed tree:   516 KiB

Parallel BZIP2 v1.1.13 [Dec 18, 2015]
By: Jeff Gilchrist [http://compression.ca]
Major contributions: Yavor Nikolov [http://javornikolov.wordpress.com]
Uses libbzip2 by Julian Seward

         # CPUs: 1
   Load Average: 12.88
 BWT Block Size: 200 KB
File Block Size: 900 KB
 Maximum Memory: 1024 MB
-------------------------------------------
         File #: 1 of 1
     Input Name: compressme
    Output Name: compressme.bz2

     Input Size: 3895 bytes
Compressing data (no threads)...
Completed: 100%                 Output Size: 918 bytes
-------------------------------------------

     Wall Clock: 0.000617 seconds
Parallel BZIP2 v1.1.13 [Dec 18, 2015]
Parallel BZIP2 v1.1.13 [Dec 18, 2015]
By: Jeff Gilchrist [http://compression.ca]
Major contributions: Yavor Nikolov [http://javornikolov.wordpress.com]
Uses libbzip2 by Julian Seward

         # CPUs: 1
By: Jeff Gilchrist [http://compression.ca]
   Load Average: 12.88
 BWT Block Size: 200 KB
File Block Size: 900 KB
 Maximum Memory: 1024 MB
-------------------------------------------
         File #: 1 of 1
     Input Name: /tmp/portage/sys-process/cronie-1.5.5/image/usr/share/man/man5/crontab.5
    Output Name: /tmp/portage/sys-process/cronie-1.5.5/image/usr/share/man/man5/crontab.5.bz2

     Input Size: 11932 bytes
Compressing data (no threads)...
Major contributions: Yavor Nikolov [http://javornikolov.wordpress.com]
Uses libbzip2 by Julian Seward

         # CPUs: 1
   Load Average: 12.88
 BWT Block Size: 200 KB
File Block Size: 900 KB
 Maximum Memory: 1024 MB
-------------------------------------------
         File #: 1 of 1
     Input Name: /tmp/portage/sys-process/cronie-1.5.5/image/usr/share/man/man1/cronnext.1
    Output Name: /tmp/portage/sys-process/cronie-1.5.5/image/usr/share/man/man1/cronnext.1.bz2

     Input Size: 2348 bytes
Compressing data (no threads)...
Completed: 100%                 Output Size: 1109 bytes
-------------------------------------------
Completed: 100%                 Output Size: 4979 bytes
-------------------------------------------

     Wall Clock: 0.002493 seconds

     Wall Clock: 0.004186 seconds
Parallel BZIP2 v1.1.13 [Dec 18, 2015]
By: Jeff Gilchrist [http://compression.ca]
Major contributions: Yavor Nikolov [http://javornikolov.wordpress.com]
Uses libbzip2 by Julian Seward

         # CPUs: 1
   Load Average: 12.88
 BWT Block Size: 200 KB
File Block Size: 900 KB
 Maximum Memory: 1024 MB
-------------------------------------------
         File #: 1 of 1
     Input Name: /tmp/portage/sys-process/cronie-1.5.5/image/usr/share/man/man5/anacrontab.5
    Output Name: /tmp/portage/sys-process/cronie-1.5.5/image/usr/share/man/man5/anacrontab.5.bz2

     Input Size: 3615 bytes
Compressing data (no threads)...
Completed: 100%                 Output Size: 1726 bytes
-------------------------------------------

     Wall Clock: 0.005682 seconds
Parallel BZIP2 v1.1.13 [Dec 18, 2015]
By: Jeff Gilchrist [http://compression.ca]
Major contributions: Yavor Nikolov [http://javornikolov.wordpress.com]
Uses libbzip2 by Julian Seward

         # CPUs: 1
   Load Average: 12.88
 BWT Block Size: 200 KB
File Block Size: 900 KB
 Maximum Memory: 1024 MB
-------------------------------------------
         File #: 1 of 1
     Input Name: /tmp/portage/sys-process/cronie-1.5.5/image/usr/share/man/man1/crontab.1
    Output Name: /tmp/portage/sys-process/cronie-1.5.5/image/usr/share/man/man1/crontab.1.bz2

     Input Size: 6539 bytes
Compressing data (no threads)...
Completed: 100%                 Output Size: 2758 bytes
-------------------------------------------

     Wall Clock: 0.007275 seconds
Parallel BZIP2 v1.1.13 [Dec 18, 2015]
By: Jeff Gilchrist [http://compression.ca]
Major contributions: Yavor Nikolov [http://javornikolov.wordpress.com]
Uses libbzip2 by Julian Seward

         # CPUs: 1
   Load Average: 12.88
 BWT Block Size: 200 KB
File Block Size: 900 KB
 Maximum Memory: 1024 MB
-------------------------------------------
         File #: 1 of 1
     Input Name: /tmp/portage/sys-process/cronie-1.5.5/image/usr/share/man/man8/cron.8
    Output Name: /tmp/portage/sys-process/cronie-1.5.5/image/usr/share/man/man8/cron.8.bz2

     Input Size: 8563 bytes
Compressing data (no threads)...
Completed: 100%                 Output Size: 3635 bytes
-------------------------------------------

     Wall Clock: 0.002955 seconds
Parallel BZIP2 v1.1.13 [Dec 18, 2015]
By: Jeff Gilchrist [http://compression.ca]
Major contributions: Yavor Nikolov [http://javornikolov.wordpress.com]
Uses libbzip2 by Julian Seward

         # CPUs: 1
   Load Average: 12.88
 BWT Block Size: 200 KB
File Block Size: 900 KB
 Maximum Memory: 1024 MB
-------------------------------------------
         File #: 1 of 1
     Input Name: /tmp/portage/sys-process/cronie-1.5.5/image/usr/share/doc/cronie-1.5.5/AUTHORS
    Output Name: /tmp/portage/sys-process/cronie-1.5.5/image/usr/share/doc/cronie-1.5.5/AUTHORS.bz2

     Input Size: 254 bytes
Compressing data (no threads)...
Completed: 100%                 Output Size: 246 bytes
-------------------------------------------
Parallel BZIP2 v1.1.13 [Dec 18, 2015]
By: Jeff Gilchrist [http://compression.ca]
Major contributions: Yavor Nikolov [http://javornikolov.wordpress.com]
Uses libbzip2 by Julian Seward

         # CPUs: 1
   Load Average: 12.88
 BWT Block Size: 200 KB
File Block Size: 900 KB
 Maximum Memory: 1024 MB
-------------------------------------------
         File #: 1 of 1
     Input Name: /tmp/portage/sys-process/cronie-1.5.5/image/usr/share/doc/cronie-1.5.5/ChangeLog
    Output Name: /tmp/portage/sys-process/cronie-1.5.5/image/usr/share/doc/cronie-1.5.5/ChangeLog.bz2

     Input Size: 91172 bytes
Compressing data (no threads)...
Parallel BZIP2 v1.1.13 [Dec 18, 2015]
By: Jeff Gilchrist [http://compression.ca]
Major contributions: Yavor Nikolov [http://javornikolov.wordpress.com]
Uses libbzip2 by Julian Seward

         # CPUs: 1
   Load Average: 12.88
 BWT Block Size: 200 KB
File Block Size: 900 KB
 Maximum Memory: 1024 MB
-------------------------------------------
         File #: 1 of 1
     Input Name: /tmp/portage/sys-process/cronie-1.5.5/image/usr/share/man/man8/anacron.8
    Output Name: /tmp/portage/sys-process/cronie-1.5.5/image/usr/share/man/man8/anacron.8.bz2

     Input Size: 6272 bytes
Compressing data (no threads)...
Completed: 100%                 Output Size: 2617 bytes
-------------------------------------------

     Wall Clock: 0.003226 seconds

     Wall Clock: 0.002590 seconds
Completed: 100%                 Output Size: 20711 bytes
-------------------------------------------

     Wall Clock: 0.010403 seconds
Parallel BZIP2 v1.1.13 [Dec 18, 2015]
By: Jeff Gilchrist [http://compression.ca]
Major contributions: Yavor Nikolov [http://javornikolov.wordpress.com]
Uses libbzip2 by Julian Seward

         # CPUs: 1
   Load Average: 12.88
 BWT Block Size: 200 KB
File Block Size: 900 KB
 Maximum Memory: 1024 MB
-------------------------------------------
         File #: 1 of 1
     Input Name: /tmp/portage/sys-process/cronie-1.5.5/image/usr/share/doc/cronie-1.5.5/NEWS
    Output Name: /tmp/portage/sys-process/cronie-1.5.5/image/usr/share/doc/cronie-1.5.5/NEWS.bz2

     Input Size: 2210 bytes
Compressing data (no threads)...
Completed: 100%                 Output Size: 1108 bytes
-------------------------------------------

     Wall Clock: 0.000890 seconds
Parallel BZIP2 v1.1.13 [Dec 18, 2015]
By: Jeff Gilchrist [http://compression.ca]
Major contributions: Yavor Nikolov [http://javornikolov.wordpress.com]
Uses libbzip2 by Julian Seward

         # CPUs: 1
   Load Average: 12.88
 BWT Block Size: 200 KB
File Block Size: 900 KB
 Maximum Memory: 1024 MB
-------------------------------------------
         File #: 1 of 1
     Input Name: /tmp/portage/sys-process/cronie-1.5.5/image/usr/share/doc/cronie-1.5.5/README
    Output Name: /tmp/portage/sys-process/cronie-1.5.5/image/usr/share/doc/cronie-1.5.5/README.bz2

     Input Size: 467 bytes
Compressing data (no threads)...
Completed: 100%                 Output Size: 369 bytes
-------------------------------------------

     Wall Clock: 0.002265 seconds
Parallel BZIP2 v1.1.13 [Dec 18, 2015]
By: Jeff Gilchrist [http://compression.ca]
Major contributions: Yavor Nikolov [http://javornikolov.wordpress.com]
Uses libbzip2 by Julian Seward

         # CPUs: 1
   Load Average: 12.88
 BWT Block Size: 200 KB
File Block Size: 900 KB
 Maximum Memory: 1024 MB
-------------------------------------------
         File #: 1 of 1
     Input Name: /tmp/portage/sys-process/cronie-1.5.5/image/usr/share/doc/cronie-1.5.5/README.anacron
    Output Name: /tmp/portage/sys-process/cronie-1.5.5/image/usr/share/doc/cronie-1.5.5/README.anacron.bz2

     Input Size: 5003 bytes
Compressing data (no threads)...
Completed: 100%                 Output Size: 2189 bytes
-------------------------------------------

     Wall Clock: 0.001359 seconds
strip: x86_64-pc-linux-gnu-strip --strip-unneeded -N __gentoo_check_ldflags__ -R .comment -R .GCC.command.line -R .note.gnu.gold-version
   /usr/bin/crontab
   /usr/bin/cronnext
   /usr/sbin/crond
   /usr/sbin/anacron
./
./lib/
./lib/systemd/
./lib/systemd/system/
./lib/systemd/system/cronie.service
./usr/
./usr/bin/
./usr/bin/crontab
./usr/bin/cronnext
./usr/sbin/
./usr/sbin/anacron
./usr/sbin/crond
./usr/share/
./usr/share/man/
./usr/share/man/man1/
./usr/share/man/man1/crontab.1
./usr/share/man/man1/cronnext.1.bz2
./usr/share/man/man1/crontab.1.bz2
./usr/share/man/man1/cronnext.1
./usr/share/man/man5/
./usr/share/man/man5/crontab.5
./usr/share/man/man5/anacrontab.5.bz2
./usr/share/man/man5/anacrontab.5
./usr/share/man/man5/crontab.5.bz2
./usr/share/man/man8/
./usr/share/man/man8/cron.8
./usr/share/man/man8/cron.8.bz2
./usr/share/man/man8/anacron.8
./usr/share/man/man8/crond.8
./usr/share/man/man8/anacron.8.bz2
./usr/share/doc/
./usr/share/doc/cronie-1.5.5/
./usr/share/doc/cronie-1.5.5/README
./usr/share/doc/cronie-1.5.5/ChangeLog
./usr/share/doc/cronie-1.5.5/README.bz2
./usr/share/doc/cronie-1.5.5/ChangeLog.bz2
./usr/share/doc/cronie-1.5.5/NEWS
./usr/share/doc/cronie-1.5.5/AUTHORS
./usr/share/doc/cronie-1.5.5/AUTHORS.bz2
./usr/share/doc/cronie-1.5.5/README.anacron.bz2
./usr/share/doc/cronie-1.5.5/NEWS.bz2
./usr/share/doc/cronie-1.5.5/README.anacron
./var/
./var/spool/
./var/spool/cron/
./var/spool/cron/crontabs/
./var/spool/cron/crontabs/.keep_sys-process_cronie-0
./var/spool/anacron/
./var/spool/anacron/.keep_sys-process_cronie-0
./etc/
./etc/init.d/
./etc/init.d/cronie
./etc/cron.deny
./etc/cron.hourly/
./etc/cron.hourly/0anacron
./etc/cron.d/
./etc/cron.d/0hourly
./etc/conf.d/
./etc/conf.d/cronie
./etc/pam.d/
./etc/pam.d/crond
./etc/crontab
./etc/anacrontab
>>> Done.
 * checking 28 files for package collisions
>>> Merging sys-process/cronie-1.5.5 to /
 * removing unneeded *.la files
 * >>> SetGID: [chmod o-r] /usr/bin/crontab ...
 [ ok ]
--- /etc/
>>> /etc/anacrontab
>>> /etc/crontab
--- /etc/pam.d/
>>> /etc/pam.d/crond
--- /etc/conf.d/
>>> /etc/conf.d/cronie
--- /etc/cron.d/
>>> /etc/cron.d/0hourly
--- /etc/cron.hourly/
>>> /etc/cron.hourly/0anacron
>>> /etc/cron.deny
--- /etc/init.d/
>>> /etc/init.d/cronie
--- /var/
--- /var/spool/
--- /var/spool/anacron/
>>> /var/spool/anacron/.keep_sys-process_cronie-0
--- /var/spool/cron/
--- /var/spool/cron/crontabs/
>>> /var/spool/cron/crontabs/.keep_sys-process_cronie-0
--- /usr/
--- /usr/share/
--- /usr/share/man/
--- /usr/share/man/man8/
>>> /usr/share/man/man8/anacron.8.bz2
>>> /usr/share/man/man8/crond.8
>>> /usr/share/man/man8/anacron.8
>>> /usr/share/man/man8/cron.8.bz2
>>> /usr/share/man/man8/cron.8
--- /usr/share/man/man5/
>>> /usr/share/man/man5/crontab.5.bz2
>>> /usr/share/man/man5/anacrontab.5
>>> /usr/share/man/man5/anacrontab.5.bz2
>>> /usr/share/man/man5/crontab.5
--- /usr/share/man/man1/
>>> /usr/share/man/man1/cronnext.1
>>> /usr/share/man/man1/crontab.1.bz2
>>> /usr/share/man/man1/cronnext.1.bz2
>>> /usr/share/man/man1/crontab.1
--- /usr/sbin/
>>> /usr/sbin/crond
>>> /usr/sbin/anacron
--- /usr/bin/
>>> /usr/bin/cronnext
>>> /usr/bin/crontab
--- /lib/
--- /lib/systemd/
--- /lib/systemd/system/
>>> /lib/systemd/system/cronie.service
>>> Safely unmerging already-installed instance...
>>> Original instance of package unmerged safely.

 * You may wish to read the Gentoo Linux Cron Guide, which can be
 * found online at:
 *     https://wiki.gentoo.org/wiki/Cron

 * You should restart cronie daemon or else you might experience segfaults
 * or cronie not working reliably anymore.
 * (see https://bugs.gentoo.org/557406 for details.)
>>> sys-process/cronie-1.5.5 merged.
