No package files given... Grabbing a set.
--- replaced sym /usr/share/man/man3/utempter_set_helper.3.bz2
--- replaced sym /usr/share/man/man3/utempter_remove_record.3.bz2
--- replaced sym /usr/share/man/man3/utempter_remove_added_record.3.bz2
--- replaced sym /usr/share/man/man3/utempter_add_record.3.bz2
--- replaced obj /usr/share/man/man3/utempter.3.bz2
--- replaced sym /usr/share/man/man3/libutempter.3.bz2
--- replaced dir /usr/share/man/man3
--- replaced dir /usr/share/man
--- replaced dir /usr/share
--- replaced sym /usr/sbin/utempter
--- replaced dir /usr/sbin
--- replaced obj /usr/lib64/misc/utempter/utempter
--- replaced dir /usr/lib64/misc/utempter
--- replaced dir /usr/lib64/misc
--- replaced obj /usr/lib64/libutempter.so.1.2.0
--- replaced sym /usr/lib64/libutempter.so.0
--- replaced sym /usr/lib64/libutempter.so
--- replaced dir /usr/lib64
--- replaced obj /usr/include/utempter.h
--- replaced dir /usr/include
--- replaced dir /usr
>>> Regenerating /etc/ld.so.cache...
