No package files given... Grabbing a set.
--- replaced obj /var/lib/udisks2/.keep_sys-fs_udisks-2
--- replaced dir /var/lib/udisks2
--- replaced dir /var/lib
--- replaced dir /var
--- replaced obj /usr/share/polkit-1/actions/org.freedesktop.UDisks2.policy
--- replaced obj /usr/share/polkit-1/actions/org.freedesktop.UDisks2.btrfs.policy
--- replaced dir /usr/share/polkit-1/actions
--- replaced dir /usr/share/polkit-1
--- replaced obj /usr/share/man/man8/umount.udisks2.8.bz2
--- replaced obj /usr/share/man/man8/udisksd.8.bz2
--- replaced obj /usr/share/man/man8/udisks.8.bz2
--- replaced dir /usr/share/man/man8
--- replaced obj /usr/share/man/man5/udisks2.conf.5.bz2
--- replaced dir /usr/share/man/man5
--- replaced obj /usr/share/man/man1/udisksctl.1.bz2
--- replaced dir /usr/share/man/man1
--- replaced dir /usr/share/man
--- replaced obj /usr/share/gtk-doc/html/udisks2/up.png
--- replaced obj /usr/share/gtk-doc/html/udisks2/up-insensitive.png
--- replaced obj /usr/share/gtk-doc/html/udisks2/umount.udisks2.8.html
--- replaced obj /usr/share/gtk-doc/html/udisks2/udisksctl.1.html
--- replaced obj /usr/share/gtk-doc/html/udisks2/udisks2_lsm.conf.5.html
--- replaced obj /usr/share/gtk-doc/html/udisks2/udisks2.devhelp2
--- replaced obj /usr/share/gtk-doc/html/udisks2/udisks2.conf.5.html
--- replaced obj /usr/share/gtk-doc/html/udisks2/udisks2-Utilities.html
--- replaced obj /usr/share/gtk-doc/html/udisks2/udisks2-UDisksVolumeGroup.html
--- replaced obj /usr/share/gtk-doc/html/udisks2/udisks2-UDisksUtabMonitor.html
--- replaced obj /usr/share/gtk-doc/html/udisks2/udisks2-UDisksPhysicalVolume.html
--- replaced obj /usr/share/gtk-doc/html/udisks2/udisks2-UDisksModuleManager.html
--- replaced obj /usr/share/gtk-doc/html/udisks2/udisks2-UDisksManagerVDO.html
--- replaced obj /usr/share/gtk-doc/html/udisks2/udisks2-UDisksManagerLSM.html
--- replaced obj /usr/share/gtk-doc/html/udisks2/udisks2-UDisksManagerBcache.html
--- replaced obj /usr/share/gtk-doc/html/udisks2/udisks2-UDisksLogicalVolume.html
--- replaced obj /usr/share/gtk-doc/html/udisks2/udisks2-UDisksError.html
--- replaced obj /usr/share/gtk-doc/html/udisks2/udisks2-UDisksDriveLsmLocal.html
--- replaced obj /usr/share/gtk-doc/html/udisks2/udisks2-UDisksDriveLSM.html
--- replaced obj /usr/share/gtk-doc/html/udisks2/udisks2-UDisksBlockVDO.html
--- replaced obj /usr/share/gtk-doc/html/udisks2/udisks2-UDisksBlockLVM2.html
--- replaced obj /usr/share/gtk-doc/html/udisks2/udisks2-UDisksBlockBcache.html
--- replaced obj /usr/share/gtk-doc/html/udisks2/udisks2-Logging.html
--- replaced obj /usr/share/gtk-doc/html/udisks2/udisks2-ATA-commands.html
--- replaced obj /usr/share/gtk-doc/html/udisks2/udisks.8.html
--- replaced obj /usr/share/gtk-doc/html/udisks2/udisks-std-options.html
--- replaced obj /usr/share/gtk-doc/html/udisks2/udisks-polkit-actions.html
--- replaced obj /usr/share/gtk-doc/html/udisks2/udiskd.8.html
--- replaced obj /usr/share/gtk-doc/html/udisks2/style.css
--- replaced obj /usr/share/gtk-doc/html/udisks2/right.png
--- replaced obj /usr/share/gtk-doc/html/udisks2/right-insensitive.png
--- replaced obj /usr/share/gtk-doc/html/udisks2/ref-library.html
--- replaced obj /usr/share/gtk-doc/html/udisks2/ref-library-generated.html
--- replaced obj /usr/share/gtk-doc/html/udisks2/ref-iscsi-session.html
--- replaced obj /usr/share/gtk-doc/html/udisks2/ref-dbus.html
--- replaced obj /usr/share/gtk-doc/html/udisks2/ref-dbus-udisks2-well-known-object.html
--- replaced obj /usr/share/gtk-doc/html/udisks2/ref-dbus-overview.html
--- replaced obj /usr/share/gtk-doc/html/udisks2/ref-dbus-md-raid.html
--- replaced obj /usr/share/gtk-doc/html/udisks2/ref-dbus-manager-well-known-object.html
--- replaced obj /usr/share/gtk-doc/html/udisks2/ref-dbus-jobs.html
--- replaced obj /usr/share/gtk-doc/html/udisks2/ref-dbus-drives.html
--- replaced obj /usr/share/gtk-doc/html/udisks2/ref-dbus-block-devices.html
--- replaced obj /usr/share/gtk-doc/html/udisks2/ref-daemon.html
--- replaced obj /usr/share/gtk-doc/html/udisks2/ref-daemon-monitoring.html
--- replaced obj /usr/share/gtk-doc/html/udisks2/ref-daemon-mdraid.html
--- replaced obj /usr/share/gtk-doc/html/udisks2/ref-daemon-linux-types.html
--- replaced obj /usr/share/gtk-doc/html/udisks2/ref-daemon-jobs.html
--- replaced obj /usr/share/gtk-doc/html/udisks2/ref-daemon-drives.html
--- replaced obj /usr/share/gtk-doc/html/udisks2/ref-daemon-core.html
--- replaced obj /usr/share/gtk-doc/html/udisks2/ref-daemon-block-devices.html
--- replaced obj /usr/share/gtk-doc/html/udisks2/overview.html
--- replaced obj /usr/share/gtk-doc/html/udisks2/left.png
--- replaced obj /usr/share/gtk-doc/html/udisks2/left-insensitive.png
--- replaced obj /usr/share/gtk-doc/html/udisks2/index.html
--- replaced obj /usr/share/gtk-doc/html/udisks2/home.png
--- replaced obj /usr/share/gtk-doc/html/udisks2/gio-hierarchy.html
--- replaced obj /usr/share/gtk-doc/html/udisks2/gdbus-org.freedesktop.UDisks2.VolumeGroup.html
--- replaced obj /usr/share/gtk-doc/html/udisks2/gdbus-org.freedesktop.UDisks2.Swapspace.html
--- replaced obj /usr/share/gtk-doc/html/udisks2/gdbus-org.freedesktop.UDisks2.PhysicalVolume.html
--- replaced obj /usr/share/gtk-doc/html/udisks2/gdbus-org.freedesktop.UDisks2.PartitionTable.html
--- replaced obj /usr/share/gtk-doc/html/udisks2/gdbus-org.freedesktop.UDisks2.Partition.html
--- replaced obj /usr/share/gtk-doc/html/udisks2/gdbus-org.freedesktop.UDisks2.Manager.html
--- replaced obj /usr/share/gtk-doc/html/udisks2/gdbus-org.freedesktop.UDisks2.Manager.ZRAM.html
--- replaced obj /usr/share/gtk-doc/html/udisks2/gdbus-org.freedesktop.UDisks2.Manager.VDO.html
--- replaced obj /usr/share/gtk-doc/html/udisks2/gdbus-org.freedesktop.UDisks2.Manager.LVM2.html
--- replaced obj /usr/share/gtk-doc/html/udisks2/gdbus-org.freedesktop.UDisks2.Manager.LSM.html
--- replaced obj /usr/share/gtk-doc/html/udisks2/gdbus-org.freedesktop.UDisks2.Manager.ISCSI.Initiator.html
--- replaced obj /usr/share/gtk-doc/html/udisks2/gdbus-org.freedesktop.UDisks2.Manager.Bcache.html
--- replaced obj /usr/share/gtk-doc/html/udisks2/gdbus-org.freedesktop.UDisks2.Manager.BTRFS.html
--- replaced obj /usr/share/gtk-doc/html/udisks2/gdbus-org.freedesktop.UDisks2.MDRaid.html
--- replaced obj /usr/share/gtk-doc/html/udisks2/gdbus-org.freedesktop.UDisks2.Loop.html
--- replaced obj /usr/share/gtk-doc/html/udisks2/gdbus-org.freedesktop.UDisks2.LogicalVolume.html
--- replaced obj /usr/share/gtk-doc/html/udisks2/gdbus-org.freedesktop.UDisks2.Job.html
--- replaced obj /usr/share/gtk-doc/html/udisks2/gdbus-org.freedesktop.UDisks2.ISCSI.Session.html
--- replaced obj /usr/share/gtk-doc/html/udisks2/gdbus-org.freedesktop.UDisks2.Filesystem.html
--- replaced obj /usr/share/gtk-doc/html/udisks2/gdbus-org.freedesktop.UDisks2.Filesystem.BTRFS.html
--- replaced obj /usr/share/gtk-doc/html/udisks2/gdbus-org.freedesktop.UDisks2.Encrypted.html
--- replaced obj /usr/share/gtk-doc/html/udisks2/gdbus-org.freedesktop.UDisks2.Drive.html
--- replaced obj /usr/share/gtk-doc/html/udisks2/gdbus-org.freedesktop.UDisks2.Drive.LsmLocal.html
--- replaced obj /usr/share/gtk-doc/html/udisks2/gdbus-org.freedesktop.UDisks2.Drive.LSM.html
--- replaced obj /usr/share/gtk-doc/html/udisks2/gdbus-org.freedesktop.UDisks2.Drive.Ata.html
--- replaced obj /usr/share/gtk-doc/html/udisks2/gdbus-org.freedesktop.UDisks2.Block.html
--- replaced obj /usr/share/gtk-doc/html/udisks2/gdbus-org.freedesktop.UDisks2.Block.ZRAM.html
--- replaced obj /usr/share/gtk-doc/html/udisks2/gdbus-org.freedesktop.UDisks2.Block.VDO.html
--- replaced obj /usr/share/gtk-doc/html/udisks2/gdbus-org.freedesktop.UDisks2.Block.LVM2.html
--- replaced obj /usr/share/gtk-doc/html/udisks2/gdbus-org.freedesktop.UDisks2.Block.Bcache.html
--- replaced obj /usr/share/gtk-doc/html/udisks2/ch02.html
--- replaced obj /usr/share/gtk-doc/html/udisks2/api-index.html
--- replaced obj /usr/share/gtk-doc/html/udisks2/annotation-glossary.html
--- replaced obj /usr/share/gtk-doc/html/udisks2/UDisksThreadedJob.html
--- replaced obj /usr/share/gtk-doc/html/udisks2/UDisksSwapspace.html
--- replaced obj /usr/share/gtk-doc/html/udisks2/UDisksState.html
--- replaced obj /usr/share/gtk-doc/html/udisks2/UDisksSpawnedJob.html
--- replaced obj /usr/share/gtk-doc/html/udisks2/UDisksSimpleJob.html
--- replaced obj /usr/share/gtk-doc/html/udisks2/UDisksProvider.html
--- replaced obj /usr/share/gtk-doc/html/udisks2/UDisksPartitionTable.html
--- replaced obj /usr/share/gtk-doc/html/udisks2/UDisksPartition.html
--- replaced obj /usr/share/gtk-doc/html/udisks2/UDisksObjectManagerClient.html
--- replaced obj /usr/share/gtk-doc/html/udisks2/UDisksObjectInfo.html
--- replaced obj /usr/share/gtk-doc/html/udisks2/UDisksObject.html
--- replaced obj /usr/share/gtk-doc/html/udisks2/UDisksMountMonitor.html
--- replaced obj /usr/share/gtk-doc/html/udisks2/UDisksManagerZRAM.html
--- replaced obj /usr/share/gtk-doc/html/udisks2/UDisksManagerLVM2.html
--- replaced obj /usr/share/gtk-doc/html/udisks2/UDisksManagerISCSIInitiator.html
--- replaced obj /usr/share/gtk-doc/html/udisks2/UDisksManagerBTRFS.html
--- replaced obj /usr/share/gtk-doc/html/udisks2/UDisksManager.html
--- replaced obj /usr/share/gtk-doc/html/udisks2/UDisksMDRaid.html
--- replaced obj /usr/share/gtk-doc/html/udisks2/UDisksLoop.html
--- replaced obj /usr/share/gtk-doc/html/udisks2/UDisksLinuxSwapspace.html
--- replaced obj /usr/share/gtk-doc/html/udisks2/UDisksLinuxProvider.html
--- replaced obj /usr/share/gtk-doc/html/udisks2/UDisksLinuxPartitionTable.html
--- replaced obj /usr/share/gtk-doc/html/udisks2/UDisksLinuxPartition.html
--- replaced obj /usr/share/gtk-doc/html/udisks2/UDisksLinuxManager.html
--- replaced obj /usr/share/gtk-doc/html/udisks2/UDisksLinuxMDRaidObject.html
--- replaced obj /usr/share/gtk-doc/html/udisks2/UDisksLinuxMDRaid.html
--- replaced obj /usr/share/gtk-doc/html/udisks2/UDisksLinuxLoop.html
--- replaced obj /usr/share/gtk-doc/html/udisks2/UDisksLinuxFilesystem.html
--- replaced obj /usr/share/gtk-doc/html/udisks2/UDisksLinuxEncrypted.html
--- replaced obj /usr/share/gtk-doc/html/udisks2/UDisksLinuxDriveObject.html
--- replaced obj /usr/share/gtk-doc/html/udisks2/UDisksLinuxDriveAta.html
--- replaced obj /usr/share/gtk-doc/html/udisks2/UDisksLinuxDrive.html
--- replaced obj /usr/share/gtk-doc/html/udisks2/UDisksLinuxDevice.html
--- replaced obj /usr/share/gtk-doc/html/udisks2/UDisksLinuxBlockObject.html
--- replaced obj /usr/share/gtk-doc/html/udisks2/UDisksLinuxBlock.html
--- replaced obj /usr/share/gtk-doc/html/udisks2/UDisksJob.html
--- replaced obj /usr/share/gtk-doc/html/udisks2/UDisksISCSISession.html
--- replaced obj /usr/share/gtk-doc/html/udisks2/UDisksFstabMonitor.html
--- replaced obj /usr/share/gtk-doc/html/udisks2/UDisksFilesystemBTRFS.html
--- replaced obj /usr/share/gtk-doc/html/udisks2/UDisksFilesystem.html
--- replaced obj /usr/share/gtk-doc/html/udisks2/UDisksEncrypted.html
--- replaced obj /usr/share/gtk-doc/html/udisks2/UDisksDriveAta.html
--- replaced obj /usr/share/gtk-doc/html/udisks2/UDisksDrive.html
--- replaced obj /usr/share/gtk-doc/html/udisks2/UDisksDaemon.html
--- replaced obj /usr/share/gtk-doc/html/udisks2/UDisksCrypttabMonitor.html
--- replaced obj /usr/share/gtk-doc/html/udisks2/UDisksClient.html
--- replaced obj /usr/share/gtk-doc/html/udisks2/UDisksBlockZRAM.html
--- replaced obj /usr/share/gtk-doc/html/udisks2/UDisksBlock.html
--- replaced obj /usr/share/gtk-doc/html/udisks2/UDisksBaseJob.html
--- replaced dir /usr/share/gtk-doc/html/udisks2
--- replaced dir /usr/share/gtk-doc/html
--- replaced dir /usr/share/gtk-doc
--- replaced obj /usr/share/gir-1.0/UDisks-2.0.gir
--- replaced dir /usr/share/gir-1.0
--- replaced obj /usr/share/dbus-1/system.d/org.freedesktop.UDisks2.conf
--- replaced dir /usr/share/dbus-1/system.d
--- replaced obj /usr/share/dbus-1/system-services/org.freedesktop.UDisks2.service
--- replaced dir /usr/share/dbus-1/system-services
--- replaced dir /usr/share/dbus-1
--- replaced obj /usr/share/bash-completion/completions/udisksctl
--- replaced dir /usr/share/bash-completion/completions
--- replaced dir /usr/share/bash-completion
--- replaced dir /usr/share
--- replaced obj /usr/sbin/umount.udisks2
--- replaced dir /usr/sbin
--- replaced obj /usr/libexec/udisks2/udisksd
--- replaced dir /usr/libexec/udisks2
--- replaced dir /usr/libexec
--- replaced obj /usr/lib64/udisks2/modules/libudisks2_btrfs.so
--- replaced dir /usr/lib64/udisks2/modules
--- replaced dir /usr/lib64/udisks2
--- replaced obj /usr/lib64/pkgconfig/udisks2.pc
--- replaced dir /usr/lib64/pkgconfig
--- replaced obj /usr/lib64/libudisks2.so.0.0.0
--- replaced sym /usr/lib64/libudisks2.so.0
--- replaced sym /usr/lib64/libudisks2.so
--- replaced obj /usr/lib64/girepository-1.0/UDisks-2.0.typelib
--- replaced dir /usr/lib64/girepository-1.0
--- replaced dir /usr/lib64
--- replaced obj /usr/lib/tmpfiles.d/udisks2.conf
--- replaced dir /usr/lib/tmpfiles.d
--- replaced dir /usr/lib
--- replaced obj /usr/include/udisks2/udisks/udisksversion.h
--- replaced obj /usr/include/udisks2/udisks/udiskstypes.h
--- replaced obj /usr/include/udisks2/udisks/udisksobjectinfo.h
--- replaced obj /usr/include/udisks2/udisks/udisksmoduleobject.h
--- replaced obj /usr/include/udisks2/udisks/udisksmoduleifacetypes.h
--- replaced obj /usr/include/udisks2/udisks/udisksmoduleiface.h
--- replaced obj /usr/include/udisks2/udisks/udiskserror.h
--- replaced obj /usr/include/udisks2/udisks/udisksenumtypes.h
--- replaced obj /usr/include/udisks2/udisks/udisksenums.h
--- replaced obj /usr/include/udisks2/udisks/udisksclient.h
--- replaced obj /usr/include/udisks2/udisks/udisks.h
--- replaced obj /usr/include/udisks2/udisks/udisks-generated.h
--- replaced dir /usr/include/udisks2/udisks
--- replaced dir /usr/include/udisks2
--- replaced dir /usr/include
--- replaced obj /usr/bin/udisksctl
--- replaced dir /usr/bin
--- replaced dir /usr
--- replaced obj /lib/udev/rules.d/80-udisks2.rules
--- replaced dir /lib/udev/rules.d
--- replaced dir /lib/udev
--- replaced obj /lib/systemd/system/udisks2.service
--- replaced obj /lib/systemd/system/clean-mount-point@.service
--- replaced dir /lib/systemd/system
--- replaced dir /lib/systemd
--- replaced dir /lib
--- replaced obj /etc/udisks2/udisks2.conf
--- replaced dir /etc/udisks2
--- replaced dir /etc
>>> Regenerating /etc/ld.so.cache...
