>>> Extracting info
 * Package:    sys-apps/findutils-4.7.0
 * Repository: gentoo
 * USE:        abi_x86_64 elibc_glibc kernel_linux userland_GNU amd64
 * FEATURES:   network-sandbox preserve-libs sandbox userpriv usersandbox
 * FEATURES='parallel-install pid-sandbox unmerge-backup userpriv usersync binpkg-logs downgrade-backup parallel-fetch ipc-sandbox fixlafiles cgroup compress-index nodoc sandbox xattr qa-unresolved-soname-deps unknown-features-warn strict userfetch network-sandbox assume-digests unmerge-logs sfperms binpkg-dostrip binpkg-multi-instance usersandbox distlocks preserve-libs binpkg-docompress buildpkg news config-protect-if-modified multilib-strict merge-sync unmerge-orphans'
 * CFLAGS='-march=native -O3 -fgraphite-identity -floop-nest-optimize -fdevirtualize-at-ltrans -fipa-pta -fno-semantic-interposition -flto=12 -fno-plt -fno-signed-zeros -fno-trapping-math -fassociative-math -freciprocal-math -fno-math-errno -ffinite-math-only -fno-rounding-math -fno-signaling-nans -fcx-limited-range -fexcess-precision=fast -fuse-linker-plugin -pipe -g0 -falign-functions=32 -Wl,-O1 -Wl,--as-needed -Wl,-O4,--hash-style=gnu,--sort-common,--as-needed,-z,relro,-z,now,-lgomp,-lpthread'
 * CXXFLAGS='-march=native -O3 -fgraphite-identity -floop-nest-optimize -fdevirtualize-at-ltrans -fipa-pta -fno-semantic-interposition -flto=12 -fno-plt -fno-signed-zeros -fno-trapping-math -fassociative-math -freciprocal-math -fno-math-errno -ffinite-math-only -fno-rounding-math -fno-signaling-nans -fcx-limited-range -fexcess-precision=fast -fuse-linker-plugin -pipe -g0 -falign-functions=32 -Wl,-O1 -Wl,--as-needed -Wl,-O4,--hash-style=gnu,--sort-common,--as-needed,-z,relro,-z,now,-lgomp,-lpthread'
 * FFLAGS='-march=native -O3 -fgraphite-identity -floop-nest-optimize -fdevirtualize-at-ltrans -fipa-pta -fno-semantic-interposition -flto=12 -fno-plt -fno-signed-zeros -fno-trapping-math -fassociative-math -freciprocal-math -fno-math-errno -ffinite-math-only -fno-rounding-math -fno-signaling-nans -fcx-limited-range -fexcess-precision=fast -fuse-linker-plugin -pipe -g0 -falign-functions=32 -Wl,-O1 -Wl,--as-needed -Wl,-O4,--hash-style=gnu,--sort-common,--as-needed,-z,relro,-z,now,-lgomp,-lpthread'
 * FCFLAGS='-march=native -O3 -fgraphite-identity -floop-nest-optimize -fdevirtualize-at-ltrans -fipa-pta -fno-semantic-interposition -flto=12 -fno-plt -fno-signed-zeros -fno-trapping-math -fassociative-math -freciprocal-math -fno-math-errno -ffinite-math-only -fno-rounding-math -fno-signaling-nans -fcx-limited-range -fexcess-precision=fast -fuse-linker-plugin -pipe -g0 -falign-functions=32 -Wl,-O1 -Wl,--as-needed -Wl,-O4,--hash-style=gnu,--sort-common,--as-needed,-z,relro,-z,now,-lgomp,-lpthread'
 * F77FLAGS='-march=native -O3 -fgraphite-identity -floop-nest-optimize -fdevirtualize-at-ltrans -fipa-pta -fno-semantic-interposition -flto=12 -fno-plt -fno-signed-zeros -fno-trapping-math -fassociative-math -freciprocal-math -fno-math-errno -ffinite-math-only -fno-rounding-math -fno-signaling-nans -fcx-limited-range -fexcess-precision=fast -fuse-linker-plugin -pipe -g0 -falign-functions=32 -Wl,-O1 -Wl,--as-needed -Wl,-O4,--hash-style=gnu,--sort-common,--as-needed,-z,relro,-z,now,-lgomp,-lpthread'
 * LDFLAGS='-Wl,-O1 -Wl,--as-needed -Wl,-O4,--hash-style=gnu,--sort-common,--as-needed,-z,relro,-z,now,-lgomp,-lpthread -march=native -O3 -fgraphite-identity -floop-nest-optimize -fdevirtualize-at-ltrans -fipa-pta -fno-semantic-interposition -flto=12 -fno-plt -fno-signed-zeros -fno-trapping-math -fassociative-math -freciprocal-math -fno-math-errno -ffinite-math-only -fno-rounding-math -fno-signaling-nans -fcx-limited-range -fexcess-precision=fast -fuse-linker-plugin -pipe -g0 -falign-functions=32'
 * MAKEOPTS='-j12 -l12'
 * gcc () 11.0.0 20200528 (experimental)
 * g++ () 11.0.0 20200528 (experimental)
 * GNU ld (Gentoo 2.34 p4) 2.34.0
 * Linux ryzen.gnum.org 5.4.36 #1 SMP Thu Apr 30 04:38:28 UTC 2020 x86_64 AMD Ryzen 5 3600 6-Core Processor AuthenticAMD GNU/Linux
sys-apps/findutils: 5 minutes, 38 seconds average for 16 merges
2020-05-16T20:37:29 >>> sys-apps/findutils: 1 minute, 13 seconds
2020-05-20T00:56:08 >>> sys-apps/findutils: 3 minutes, 19 seconds
2020-05-21T05:49:23 >>> sys-apps/findutils: 6 seconds
2020-05-22T01:54:25 >>> sys-apps/findutils: 8 minutes, 18 seconds
2020-05-22T03:05:38 >>> sys-apps/findutils: 9 minutes, 17 seconds
2020-05-22T12:25:11 >>> sys-apps/findutils: 8 minutes, 54 seconds
2020-05-23T03:27:08 >>> sys-apps/findutils: 8 minutes, 21 seconds
2020-05-24T23:21:01 >>> sys-apps/findutils: 10 minutes, 38 seconds
2020-05-25T03:01:50 >>> sys-apps/findutils: 3 minutes, 46 seconds
2020-05-25T18:12:43 >>> sys-apps/findutils: 8 minutes, 18 seconds
2020-05-25T19:50:06 >>> sys-apps/findutils: 5 minutes, 45 seconds
2020-05-26T12:31:47 >>> sys-apps/findutils: 4 minutes, 29 seconds
2020-05-26T13:46:11 >>> sys-apps/findutils: 3 minutes, 42 seconds
2020-05-27T01:24:03 >>> sys-apps/findutils: 3 minutes, 45 seconds
2020-05-27T02:59:07 >>> sys-apps/findutils: 9 minutes, 10 seconds
2020-05-28T04:01:16 >>> sys-apps/findutils: 1 minute, 17 seconds
]0;emerge 14:11:24 29|889 findutils 04:44 (root@ryzen.gnum.org)kemerge 14:11:24 29|889 findutils 04:44 (root@ryzen.gnum.org)\>>> Extracting sys-apps/findutils-4.7.0
 * checking 8 files for package collisions
>>> Merging sys-apps/findutils-4.7.0 to /
 * removing unneeded *.la files
--- /usr/
--- /usr/share/
--- /usr/share/man/
--- /usr/share/man/man1/
>>> /usr/share/man/man1/find.1.bz2
>>> /usr/share/man/man1/xargs.1.bz2
--- /usr/share/info/
>>> /usr/share/info/find.info.bz2
>>> /usr/share/info/find.info-1.bz2
>>> /usr/share/info/find.info-2.bz2
>>> /usr/share/info/find-maint.info.bz2
--- /usr/bin/
>>> /usr/bin/xargs
>>> /usr/bin/find
>>> Safely unmerging already-installed instance...
>>> Original instance of package unmerged safely.
>>> sys-apps/findutils-4.7.0 merged.
