No package files given... Grabbing a set.
--- replaced obj /usr/share/bash-completion/completions/clang
--- replaced dir /usr/share/bash-completion/completions
--- replaced dir /usr/share/bash-completion
--- replaced dir /usr/share
--- replaced dir /usr
>>> Regenerating /etc/ld.so.cache...
