 * Package:    sys-apps/dtc-1.5.0
 * Repository: gentoo
 * Maintainer: lu_zero@gentoo.org ppc@gentoo.org
 * USE:        abi_x86_64 amd64 elibc_glibc kernel_linux userland_GNU
 * FEATURES:   network-sandbox preserve-libs sandbox userpriv usersandbox
 * /etc/portage/package.cflags/ltoworkarounds.conf -> sys-apps/dtc: *FLAGS-="${NOCOMMON}"
 * FEATURES='assume-digests binpkg-docompress binpkg-dostrip binpkg-logs buildpkg cgroup compress-index config-protect-if-modified distlocks ebuild-locks fixlafiles ipc-sandbox merge-sync multilib-strict network-sandbox news nodoc parallel-fetch pid-sandbox preserve-libs qa-unresolved-soname-deps sandbox sfperms strict strict-keepdir unknown-features-warn unmerge-logs unmerge-orphans userfetch userpriv usersandbox usersync xattr'
 * CFLAGS='-march=znver2 -O2 -pipe -fno-stack-protector -fno-stack-clash-protection -fstack-check=no -fno-stack-check -Wl,-O1 -Wl,--as-needed'
 * CXXFLAGS='-march=znver2 -O2 -pipe -fno-stack-protector -fno-stack-clash-protection -fstack-check=no -fno-stack-check -Wl,-O1 -Wl,--as-needed'
 * FFLAGS='-march=znver2 -O2 -pipe -fno-stack-protector -fno-stack-clash-protection -fstack-check=no -fno-stack-check -Wl,-O1 -Wl,--as-needed'
 * FCFLAGS='-march=znver2 -O2 -pipe -fno-stack-protector -fno-stack-clash-protection -fstack-check=no -fno-stack-check -Wl,-O1 -Wl,--as-needed'
 * F77FLAGS='-march=znver2 -O2 -pipe -fno-stack-protector -fno-stack-clash-protection -fstack-check=no -fno-stack-check -Wl,-O1 -Wl,--as-needed'
 * LDFLAGS='-Wl,-O1 -Wl,--as-needed'
 * MAKEOPTS='-j12 -l12'
 * gcc (Gentoo 10.1.0-r1 p2) 10.1.0
 * g++ (Gentoo 10.1.0-r1 p2) 10.1.0
 * GNU gold (Gentoo 2.34 p4 2.34.0) 1.16
 * Linux rescue 5.4.36 #1 SMP Thu Apr 30 04:38:28 UTC 2020 x86_64 AMD Ryzen 5 3600 6-Core Processor AuthenticAMD GNU/Linux
sys-apps/dtc: 16 seconds average for 5 merges
2020-05-30T23:02:03 >>> sys-apps/dtc: 17 seconds
2020-06-01T08:19:38 >>> sys-apps/dtc: 19 seconds
2020-06-13T03:30:45 >>> sys-apps/dtc: 15 seconds
2020-06-13T20:06:28 >>> sys-apps/dtc: 12 seconds
2020-06-14T04:47:06 >>> sys-apps/dtc: 20 seconds
]0;emerge 17:25:15 692|895 dtc 00:16 (root@rescue)>>> Unpacking source...
>>> Unpacking dtc-1.5.0.tar.xz to /tmp/portage/sys-apps/dtc-1.5.0/work
>>> Source unpacked in /tmp/portage/sys-apps/dtc-1.5.0/work
>>> Preparing source in /tmp/portage/sys-apps/dtc-1.5.0/work/dtc-1.5.0 ...
 * Applying dtc-1.4.4-posix-shell.patch ...
 [ ok ]
 * Applying dtc-1.5.0-fdt_check_full-visibility.patch ...
 [ ok ]
 * Applying dtc-1.5.0-gcc-10.patch ...
 [ ok ]
>>> Source prepared.
>>> Configuring source in /tmp/portage/sys-apps/dtc-1.5.0/work/dtc-1.5.0 ...
>>> Source configured.
>>> Compiling source in /tmp/portage/sys-apps/dtc-1.5.0/work/dtc-1.5.0 ...
make -j12 -l12 
x86_64-pc-linux-gnu-gcc -I libfdt -I . -MM -MG -MT "tests/dumptrees.o tests/dumptrees.d" tests/dumptrees.c > tests/dumptrees.d
x86_64-pc-linux-gnu-gcc -I libfdt -I . -MM -MG -MT "tests/trees.o tests/trees.d" tests/trees.S > tests/trees.d
x86_64-pc-linux-gnu-gcc -I libfdt -I . -MM -MG -MT "tests/testutils.o tests/testutils.d" tests/testutils.c > tests/testutils.d
x86_64-pc-linux-gnu-gcc -I libfdt -I . -MM -MG -MT "tests/value-labels.o tests/value-labels.d" tests/value-labels.c > tests/value-labels.d
x86_64-pc-linux-gnu-gcc -I libfdt -I . -MM -MG -MT "tests/asm_tree_dump.o tests/asm_tree_dump.d" tests/asm_tree_dump.c > tests/asm_tree_dump.d
x86_64-pc-linux-gnu-gcc -I libfdt -I . -MM -MG -MT "tests/truncated_memrsv.o tests/truncated_memrsv.d" tests/truncated_memrsv.c > tests/truncated_memrsv.d
x86_64-pc-linux-gnu-gcc -I libfdt -I . -MM -MG -MT "tests/truncated_string.o tests/truncated_string.d" tests/truncated_string.c > tests/truncated_string.d
x86_64-pc-linux-gnu-gcc -I libfdt -I . -MM -MG -MT "tests/truncated_property.o tests/truncated_property.d" tests/truncated_property.c > tests/truncated_property.d
x86_64-pc-linux-gnu-gcc -I libfdt -I . -MM -MG -MT "tests/fs_tree1.o tests/fs_tree1.d" tests/fs_tree1.c > tests/fs_tree1.d
x86_64-pc-linux-gnu-gcc -I libfdt -I . -MM -MG -MT "tests/check_full.o tests/check_full.d" tests/check_full.c > tests/check_full.d
x86_64-pc-linux-gnu-gcc -I libfdt -I . -MM -MG -MT "tests/check_header.o tests/check_header.d" tests/check_header.c > tests/check_header.d
x86_64-pc-linux-gnu-gcc -I libfdt -I . -MM -MG -MT "tests/check_path.o tests/check_path.d" tests/check_path.c > tests/check_path.d
x86_64-pc-linux-gnu-gcc -I libfdt -I . -MM -MG -MT "tests/overlay_bad_fixup.o tests/overlay_bad_fixup.d" tests/overlay_bad_fixup.c > tests/overlay_bad_fixup.d
x86_64-pc-linux-gnu-gcc -I libfdt -I . -MM -MG -MT "tests/overlay.o tests/overlay.d" tests/overlay.c > tests/overlay.d
x86_64-pc-linux-gnu-gcc -I libfdt -I . -MM -MG -MT "tests/subnode_iterate.o tests/subnode_iterate.d" tests/subnode_iterate.c > tests/subnode_iterate.d
x86_64-pc-linux-gnu-gcc -I libfdt -I . -MM -MG -MT "tests/property_iterate.o tests/property_iterate.d" tests/property_iterate.c > tests/property_iterate.d
x86_64-pc-linux-gnu-gcc -I libfdt -I . -MM -MG -MT "tests/integer-expressions.o tests/integer-expressions.d" tests/integer-expressions.c > tests/integer-expressions.d
x86_64-pc-linux-gnu-gcc -I libfdt -I . -MM -MG -MT "tests/utilfdt_test.o tests/utilfdt_test.d" tests/utilfdt_test.c > tests/utilfdt_test.d
x86_64-pc-linux-gnu-gcc -I libfdt -I . -MM -MG -MT "tests/path_offset_aliases.o tests/path_offset_aliases.d" tests/path_offset_aliases.c > tests/path_offset_aliases.d
x86_64-pc-linux-gnu-gcc -I libfdt -I . -MM -MG -MT "tests/add_subnode_with_nops.o tests/add_subnode_with_nops.d" tests/add_subnode_with_nops.c > tests/add_subnode_with_nops.d
x86_64-pc-linux-gnu-gcc -I libfdt -I . -MM -MG -MT "tests/dtbs_equal_unordered.o tests/dtbs_equal_unordered.d" tests/dtbs_equal_unordered.c > tests/dtbs_equal_unordered.d
x86_64-pc-linux-gnu-gcc -I libfdt -I . -MM -MG -MT "tests/dtb_reverse.o tests/dtb_reverse.d" tests/dtb_reverse.c > tests/dtb_reverse.d
x86_64-pc-linux-gnu-gcc -I libfdt -I . -MM -MG -MT "tests/dtbs_equal_ordered.o tests/dtbs_equal_ordered.d" tests/dtbs_equal_ordered.c > tests/dtbs_equal_ordered.d
x86_64-pc-linux-gnu-gcc -I libfdt -I . -MM -MG -MT "tests/extra-terminating-null.o tests/extra-terminating-null.d" tests/extra-terminating-null.c > tests/extra-terminating-null.d
x86_64-pc-linux-gnu-gcc -I libfdt -I . -MM -MG -MT "tests/incbin.o tests/incbin.d" tests/incbin.c > tests/incbin.d
x86_64-pc-linux-gnu-gcc -I libfdt -I . -MM -MG -MT "tests/boot-cpuid.o tests/boot-cpuid.d" tests/boot-cpuid.c > tests/boot-cpuid.d
x86_64-pc-linux-gnu-gcc -I libfdt -I . -MM -MG -MT "tests/phandle_format.o tests/phandle_format.d" tests/phandle_format.c > tests/phandle_format.d
x86_64-pc-linux-gnu-gcc -I libfdt -I . -MM -MG -MT "tests/path-references.o tests/path-references.d" tests/path-references.c > tests/path-references.d
x86_64-pc-linux-gnu-gcc -I libfdt -I . -MM -MG -MT "tests/references.o tests/references.d" tests/references.c > tests/references.d
x86_64-pc-linux-gnu-gcc -I libfdt -I . -MM -MG -MT "tests/string_escapes.o tests/string_escapes.d" tests/string_escapes.c > tests/string_escapes.d
x86_64-pc-linux-gnu-gcc -I libfdt -I . -MM -MG -MT "tests/propname_escapes.o tests/propname_escapes.d" tests/propname_escapes.c > tests/propname_escapes.d
x86_64-pc-linux-gnu-gcc -I libfdt -I . -MM -MG -MT "tests/appendprop2.o tests/appendprop2.d" tests/appendprop2.c > tests/appendprop2.d
x86_64-pc-linux-gnu-gcc -I libfdt -I . -MM -MG -MT "tests/appendprop1.o tests/appendprop1.d" tests/appendprop1.c > tests/appendprop1.d
x86_64-pc-linux-gnu-gcc -I libfdt -I . -MM -MG -MT "tests/del_node.o tests/del_node.d" tests/del_node.c > tests/del_node.d
x86_64-pc-linux-gnu-gcc -I libfdt -I . -MM -MG -MT "tests/del_property.o tests/del_property.d" tests/del_property.c > tests/del_property.d
x86_64-pc-linux-gnu-gcc -I libfdt -I . -MM -MG -MT "tests/set_name.o tests/set_name.d" tests/set_name.c > tests/set_name.d
x86_64-pc-linux-gnu-gcc -I libfdt -I . -MM -MG -MT "tests/setprop.o tests/setprop.d" tests/setprop.c > tests/setprop.d
x86_64-pc-linux-gnu-gcc -I libfdt -I . -MM -MG -MT "tests/rw_tree1.o tests/rw_tree1.d" tests/rw_tree1.c > tests/rw_tree1.d
x86_64-pc-linux-gnu-gcc -I libfdt -I . -MM -MG -MT "tests/open_pack.o tests/open_pack.d" tests/open_pack.c > tests/open_pack.d
x86_64-pc-linux-gnu-gcc -I libfdt -I . -MM -MG -MT "tests/nopulate.o tests/nopulate.d" tests/nopulate.c > tests/nopulate.d
x86_64-pc-linux-gnu-gcc -I libfdt -I . -MM -MG -MT "tests/mangle-layout.o tests/mangle-layout.d" tests/mangle-layout.c > tests/mangle-layout.d
x86_64-pc-linux-gnu-gcc -I libfdt -I . -MM -MG -MT "tests/move_and_save.o tests/move_and_save.d" tests/move_and_save.c > tests/move_and_save.d
x86_64-pc-linux-gnu-gcc -I libfdt -I . -MM -MG -MT "tests/sw_states.o tests/sw_states.d" tests/sw_states.c > tests/sw_states.d
x86_64-pc-linux-gnu-gcc -I libfdt -I . -MM -MG -MT "tests/sw_tree1.o tests/sw_tree1.d" tests/sw_tree1.c > tests/sw_tree1.d
x86_64-pc-linux-gnu-gcc -I libfdt -I . -MM -MG -MT "tests/nop_node.o tests/nop_node.d" tests/nop_node.c > tests/nop_node.d
x86_64-pc-linux-gnu-gcc -I libfdt -I . -MM -MG -MT "tests/nop_property.o tests/nop_property.d" tests/nop_property.c > tests/nop_property.d
x86_64-pc-linux-gnu-gcc -I libfdt -I . -MM -MG -MT "tests/setprop_inplace.o tests/setprop_inplace.d" tests/setprop_inplace.c > tests/setprop_inplace.d
x86_64-pc-linux-gnu-gcc -I libfdt -I . -MM -MG -MT "tests/stringlist.o tests/stringlist.d" tests/stringlist.c > tests/stringlist.d
x86_64-pc-linux-gnu-gcc -I libfdt -I . -MM -MG -MT "tests/addr_size_cells2.o tests/addr_size_cells2.d" tests/addr_size_cells2.c > tests/addr_size_cells2.d
x86_64-pc-linux-gnu-gcc -I libfdt -I . -MM -MG -MT "tests/addr_size_cells.o tests/addr_size_cells.d" tests/addr_size_cells.c > tests/addr_size_cells.d
x86_64-pc-linux-gnu-gcc -I libfdt -I . -MM -MG -MT "tests/notfound.o tests/notfound.d" tests/notfound.c > tests/notfound.d
x86_64-pc-linux-gnu-gcc -I libfdt -I . -MM -MG -MT "tests/sized_cells.o tests/sized_cells.d" tests/sized_cells.c > tests/sized_cells.d
x86_64-pc-linux-gnu-gcc -I libfdt -I . -MM -MG -MT "tests/char_literal.o tests/char_literal.d" tests/char_literal.c > tests/char_literal.d
x86_64-pc-linux-gnu-gcc -I libfdt -I . -MM -MG -MT "tests/get_alias.o tests/get_alias.d" tests/get_alias.c > tests/get_alias.d
x86_64-pc-linux-gnu-gcc -I libfdt -I . -MM -MG -MT "tests/node_offset_by_compatible.o tests/node_offset_by_compatible.d" tests/node_offset_by_compatible.c > tests/node_offset_by_compatible.d
x86_64-pc-linux-gnu-gcc -I libfdt -I . -MM -MG -MT "tests/node_check_compatible.o tests/node_check_compatible.d" tests/node_check_compatible.c > tests/node_check_compatible.d
x86_64-pc-linux-gnu-gcc -I libfdt -I . -MM -MG -MT "tests/node_offset_by_phandle.o tests/node_offset_by_phandle.d" tests/node_offset_by_phandle.c > tests/node_offset_by_phandle.d
x86_64-pc-linux-gnu-gcc -I libfdt -I . -MM -MG -MT "tests/node_offset_by_prop_value.o tests/node_offset_by_prop_value.d" tests/node_offset_by_prop_value.c > tests/node_offset_by_prop_value.d
x86_64-pc-linux-gnu-gcc -I libfdt -I . -MM -MG -MT "tests/parent_offset.o tests/parent_offset.d" tests/parent_offset.c > tests/parent_offset.d
x86_64-pc-linux-gnu-gcc -I libfdt -I . -MM -MG -MT "tests/supernode_atdepth_offset.o tests/supernode_atdepth_offset.d" tests/supernode_atdepth_offset.c > tests/supernode_atdepth_offset.d
x86_64-pc-linux-gnu-gcc -I libfdt -I . -MM -MG -MT "tests/get_path.o tests/get_path.d" tests/get_path.c > tests/get_path.d
x86_64-pc-linux-gnu-gcc -I libfdt -I . -MM -MG -MT "tests/get_phandle.o tests/get_phandle.d" tests/get_phandle.c > tests/get_phandle.d
x86_64-pc-linux-gnu-gcc -I libfdt -I . -MM -MG -MT "tests/get_prop_offset.o tests/get_prop_offset.d" tests/get_prop_offset.c > tests/get_prop_offset.d
x86_64-pc-linux-gnu-gcc -I libfdt -I . -MM -MG -MT "tests/getprop.o tests/getprop.d" tests/getprop.c > tests/getprop.d
x86_64-pc-linux-gnu-gcc -I libfdt -I . -MM -MG -MT "tests/get_name.o tests/get_name.d" tests/get_name.c > tests/get_name.d
x86_64-pc-linux-gnu-gcc -I libfdt -I . -MM -MG -MT "tests/path_offset.o tests/path_offset.d" tests/path_offset.c > tests/path_offset.d
x86_64-pc-linux-gnu-gcc -I libfdt -I . -MM -MG -MT "tests/subnode_offset.o tests/subnode_offset.d" tests/subnode_offset.c > tests/subnode_offset.d
x86_64-pc-linux-gnu-gcc -I libfdt -I . -MM -MG -MT "tests/find_property.o tests/find_property.d" tests/find_property.c > tests/find_property.d
x86_64-pc-linux-gnu-gcc -I libfdt -I . -MM -MG -MT "tests/root_node.o tests/root_node.d" tests/root_node.c > tests/root_node.d
x86_64-pc-linux-gnu-gcc -I libfdt -I . -MM -MG -MT "tests/get_mem_rsv.o tests/get_mem_rsv.d" tests/get_mem_rsv.c > tests/get_mem_rsv.d
x86_64-pc-linux-gnu-gcc -I libfdt -I . -MM -MG -MT "libfdt/fdt_overlay.o libfdt/fdt_overlay.d" libfdt/fdt_overlay.c > libfdt/fdt_overlay.d
x86_64-pc-linux-gnu-gcc -I libfdt -I . -MM -MG -MT "libfdt/fdt_addresses.o libfdt/fdt_addresses.d" libfdt/fdt_addresses.c > libfdt/fdt_addresses.d
x86_64-pc-linux-gnu-gcc -I libfdt -I . -MM -MG -MT "libfdt/fdt_empty_tree.o libfdt/fdt_empty_tree.d" libfdt/fdt_empty_tree.c > libfdt/fdt_empty_tree.d
x86_64-pc-linux-gnu-gcc -I libfdt -I . -MM -MG -MT "libfdt/fdt_strerror.o libfdt/fdt_strerror.d" libfdt/fdt_strerror.c > libfdt/fdt_strerror.d
x86_64-pc-linux-gnu-gcc -I libfdt -I . -MM -MG -MT "libfdt/fdt_rw.o libfdt/fdt_rw.d" libfdt/fdt_rw.c > libfdt/fdt_rw.d
x86_64-pc-linux-gnu-gcc -I libfdt -I . -MM -MG -MT "libfdt/fdt_sw.o libfdt/fdt_sw.d" libfdt/fdt_sw.c > libfdt/fdt_sw.d
x86_64-pc-linux-gnu-gcc -I libfdt -I . -MM -MG -MT "libfdt/fdt_wip.o libfdt/fdt_wip.d" libfdt/fdt_wip.c > libfdt/fdt_wip.d
x86_64-pc-linux-gnu-gcc -I libfdt -I . -MM -MG -MT "libfdt/fdt_ro.o libfdt/fdt_ro.d" libfdt/fdt_ro.c > libfdt/fdt_ro.d
x86_64-pc-linux-gnu-gcc -I libfdt -I . -MM -MG -MT "libfdt/fdt.o libfdt/fdt.d" libfdt/fdt.c > libfdt/fdt.d
x86_64-pc-linux-gnu-gcc -I libfdt -I . -MM -MG -MT "util.o util.d" util.c > util.d
x86_64-pc-linux-gnu-gcc -I libfdt -I . -MM -MG -MT "fdtoverlay.o fdtoverlay.d" fdtoverlay.c > fdtoverlay.d
x86_64-pc-linux-gnu-gcc -I libfdt -I . -MM -MG -MT "fdtput.o fdtput.d" fdtput.c > fdtput.d
x86_64-pc-linux-gnu-gcc -I libfdt -I . -MM -MG -MT "fdtget.o fdtget.d" fdtget.c > fdtget.d
x86_64-pc-linux-gnu-gcc -I libfdt -I . -MM -MG -MT "fdtdump.o fdtdump.d" fdtdump.c > fdtdump.d
flex -oconvert-dtsv0-lexer.lex.c convert-dtsv0-lexer.l
x86_64-pc-linux-gnu-gcc -I libfdt -I . -MM -MG -MT "srcpos.o srcpos.d" srcpos.c > srcpos.d
bison -d dtc-parser.y
flex -odtc-lexer.lex.c dtc-lexer.l
x86_64-pc-linux-gnu-gcc -I libfdt -I . -MM -MG -MT "yamltree.o yamltree.d" yamltree.c > yamltree.d
x86_64-pc-linux-gnu-gcc -I libfdt -I . -MM -MG -MT "treesource.o treesource.d" treesource.c > treesource.d
x86_64-pc-linux-gnu-gcc -I libfdt -I . -MM -MG -MT "livetree.o livetree.d" livetree.c > livetree.d
x86_64-pc-linux-gnu-gcc -I libfdt -I . -MM -MG -MT "fstree.o fstree.d" fstree.c > fstree.d
x86_64-pc-linux-gnu-gcc -I libfdt -I . -MM -MG -MT "flattree.o flattree.d" flattree.c > flattree.d
x86_64-pc-linux-gnu-gcc -I libfdt -I . -MM -MG -MT "dtc.o dtc.d" dtc.c > dtc.d
x86_64-pc-linux-gnu-gcc -I libfdt -I . -MM -MG -MT "data.o data.d" data.c > data.d
x86_64-pc-linux-gnu-gcc -I libfdt -I . -MM -MG -MT "checks.o checks.d" checks.c > checks.d
x86_64-pc-linux-gnu-gcc -I libfdt -I . -MM -MG -MT "convert-dtsv0-lexer.lex.o convert-dtsv0-lexer.lex.d" convert-dtsv0-lexer.lex.c > convert-dtsv0-lexer.lex.d
x86_64-pc-linux-gnu-gcc -I libfdt -I . -MM -MG -MT "dtc-parser.tab.o dtc-parser.tab.d" dtc-parser.tab.c > dtc-parser.tab.d
x86_64-pc-linux-gnu-gcc -I libfdt -I . -MM -MG -MT "dtc-lexer.lex.o dtc-lexer.lex.d" dtc-lexer.lex.c > dtc-lexer.lex.d
set -e; echo '	CHK version_gen.h'; mkdir -p ./; 	(echo "#define DTC_VERSION \"DTC 1.5.0\""; ) < Makefile > version_gen.h.tmp; if [ -r version_gen.h ] && cmp -s version_gen.h version_gen.h.tmp; then rm -f version_gen.h.tmp; else echo '	UPD version_gen.h'; mv -f version_gen.h.tmp version_gen.h; fi;
	CHK version_gen.h
	UPD version_gen.h
x86_64-pc-linux-gnu-gcc -I libfdt -I . -MM -MG -MT "util.o util.d" util.c > util.d
set -e; echo '	CHK version_gen.h'; mkdir -p ./; 	(echo "#define DTC_VERSION \"DTC 1.5.0\""; ) < Makefile > version_gen.h.tmp; if [ -r version_gen.h ] && cmp -s version_gen.h version_gen.h.tmp; then rm -f version_gen.h.tmp; else echo '	UPD version_gen.h'; mv -f version_gen.h.tmp version_gen.h; fi;
	CHK version_gen.h
x86_64-pc-linux-gnu-gcc -I libfdt -I . -march=znver2 -O2 -pipe -fno-stack-protector -fno-stack-clash-protection -fstack-check=no -fno-stack-check -Wl,-O1 -Wl,--as-needed -fPIC  -Wall -Wpointer-arith -Wcast-qual -Wnested-externs -Wstrict-prototypes -Wmissing-prototypes -Wredundant-decls -Wshadow -DNO_VALGRIND -o srcpos.o -c srcpos.c
x86_64-pc-linux-gnu-gcc -I libfdt -I . -march=znver2 -O2 -pipe -fno-stack-protector -fno-stack-clash-protection -fstack-check=no -fno-stack-check -Wl,-O1 -Wl,--as-needed -fPIC  -Wall -Wpointer-arith -Wcast-qual -Wnested-externs -Wstrict-prototypes -Wmissing-prototypes -Wredundant-decls -Wshadow -DNO_VALGRIND -o util.o -c util.c
x86_64-pc-linux-gnu-gcc -I libfdt -I . -march=znver2 -O2 -pipe -fno-stack-protector -fno-stack-clash-protection -fstack-check=no -fno-stack-check -Wl,-O1 -Wl,--as-needed -fPIC  -Wall -Wpointer-arith -Wcast-qual -Wnested-externs -Wstrict-prototypes -Wmissing-prototypes -Wredundant-decls -Wshadow -DNO_VALGRIND -o convert-dtsv0-lexer.lex.o -c convert-dtsv0-lexer.lex.c
x86_64-pc-linux-gnu-gcc -I libfdt -I . -march=znver2 -O2 -pipe -fno-stack-protector -fno-stack-clash-protection -fstack-check=no -fno-stack-check -Wl,-O1 -Wl,--as-needed -fPIC  -Wall -Wpointer-arith -Wcast-qual -Wnested-externs -Wstrict-prototypes -Wmissing-prototypes -Wredundant-decls -Wshadow -DNO_VALGRIND -o dtc.o -c dtc.c
x86_64-pc-linux-gnu-gcc -I libfdt -I . -march=znver2 -O2 -pipe -fno-stack-protector -fno-stack-clash-protection -fstack-check=no -fno-stack-check -Wl,-O1 -Wl,--as-needed -fPIC  -Wall -Wpointer-arith -Wcast-qual -Wnested-externs -Wstrict-prototypes -Wmissing-prototypes -Wredundant-decls -Wshadow -DNO_VALGRIND -o checks.o -c checks.c
x86_64-pc-linux-gnu-gcc -I libfdt -I . -march=znver2 -O2 -pipe -fno-stack-protector -fno-stack-clash-protection -fstack-check=no -fno-stack-check -Wl,-O1 -Wl,--as-needed -fPIC  -Wall -Wpointer-arith -Wcast-qual -Wnested-externs -Wstrict-prototypes -Wmissing-prototypes -Wredundant-decls -Wshadow -DNO_VALGRIND -o data.o -c data.c
x86_64-pc-linux-gnu-gcc -I libfdt -I . -march=znver2 -O2 -pipe -fno-stack-protector -fno-stack-clash-protection -fstack-check=no -fno-stack-check -Wl,-O1 -Wl,--as-needed -fPIC  -Wall -Wpointer-arith -Wcast-qual -Wnested-externs -Wstrict-prototypes -Wmissing-prototypes -Wredundant-decls -Wshadow -DNO_VALGRIND -o flattree.o -c flattree.c
x86_64-pc-linux-gnu-gcc -I libfdt -I . -march=znver2 -O2 -pipe -fno-stack-protector -fno-stack-clash-protection -fstack-check=no -fno-stack-check -Wl,-O1 -Wl,--as-needed -fPIC  -Wall -Wpointer-arith -Wcast-qual -Wnested-externs -Wstrict-prototypes -Wmissing-prototypes -Wredundant-decls -Wshadow -DNO_VALGRIND -o fstree.o -c fstree.c
x86_64-pc-linux-gnu-gcc -I libfdt -I . -march=znver2 -O2 -pipe -fno-stack-protector -fno-stack-clash-protection -fstack-check=no -fno-stack-check -Wl,-O1 -Wl,--as-needed -fPIC  -Wall -Wpointer-arith -Wcast-qual -Wnested-externs -Wstrict-prototypes -Wmissing-prototypes -Wredundant-decls -Wshadow -DNO_VALGRIND -o livetree.o -c livetree.c
x86_64-pc-linux-gnu-gcc -I libfdt -I . -march=znver2 -O2 -pipe -fno-stack-protector -fno-stack-clash-protection -fstack-check=no -fno-stack-check -Wl,-O1 -Wl,--as-needed -fPIC  -Wall -Wpointer-arith -Wcast-qual -Wnested-externs -Wstrict-prototypes -Wmissing-prototypes -Wredundant-decls -Wshadow -DNO_VALGRIND -o treesource.o -c treesource.c
x86_64-pc-linux-gnu-gcc -I libfdt -I . -march=znver2 -O2 -pipe -fno-stack-protector -fno-stack-clash-protection -fstack-check=no -fno-stack-check -Wl,-O1 -Wl,--as-needed -fPIC  -Wall -Wpointer-arith -Wcast-qual -Wnested-externs -Wstrict-prototypes -Wmissing-prototypes -Wredundant-decls -Wshadow -DNO_VALGRIND -o yamltree.o -c yamltree.c
x86_64-pc-linux-gnu-gcc -I libfdt -I . -march=znver2 -O2 -pipe -fno-stack-protector -fno-stack-clash-protection -fstack-check=no -fno-stack-check -Wl,-O1 -Wl,--as-needed -fPIC  -Wall -Wpointer-arith -Wcast-qual -Wnested-externs -Wstrict-prototypes -Wmissing-prototypes -Wredundant-decls -Wshadow -DNO_VALGRIND -o dtc-lexer.lex.o -c dtc-lexer.lex.c
x86_64-pc-linux-gnu-gcc -I libfdt -I . -march=znver2 -O2 -pipe -fno-stack-protector -fno-stack-clash-protection -fstack-check=no -fno-stack-check -Wl,-O1 -Wl,--as-needed -fPIC  -Wall -Wpointer-arith -Wcast-qual -Wnested-externs -Wstrict-prototypes -Wmissing-prototypes -Wredundant-decls -Wshadow -DNO_VALGRIND -o dtc-parser.tab.o -c dtc-parser.tab.c
x86_64-pc-linux-gnu-gcc -I libfdt -I . -march=znver2 -O2 -pipe -fno-stack-protector -fno-stack-clash-protection -fstack-check=no -fno-stack-check -Wl,-O1 -Wl,--as-needed -fPIC  -Wall -Wpointer-arith -Wcast-qual -Wnested-externs -Wstrict-prototypes -Wmissing-prototypes -Wredundant-decls -Wshadow -DNO_VALGRIND -o fdtdump.o -c fdtdump.c
x86_64-pc-linux-gnu-gcc -I libfdt -I . -march=znver2 -O2 -pipe -fno-stack-protector -fno-stack-clash-protection -fstack-check=no -fno-stack-check -Wl,-O1 -Wl,--as-needed -fPIC  -Wall -Wpointer-arith -Wcast-qual -Wnested-externs -Wstrict-prototypes -Wmissing-prototypes -Wredundant-decls -Wshadow -DNO_VALGRIND -o fdtget.o -c fdtget.c
x86_64-pc-linux-gnu-gcc -I libfdt -I . -march=znver2 -O2 -pipe -fno-stack-protector -fno-stack-clash-protection -fstack-check=no -fno-stack-check -Wl,-O1 -Wl,--as-needed -fPIC  -Wall -Wpointer-arith -Wcast-qual -Wnested-externs -Wstrict-prototypes -Wmissing-prototypes -Wredundant-decls -Wshadow -DNO_VALGRIND -o libfdt/fdt.o -c libfdt/fdt.c
x86_64-pc-linux-gnu-gcc -I libfdt -I . -march=znver2 -O2 -pipe -fno-stack-protector -fno-stack-clash-protection -fstack-check=no -fno-stack-check -Wl,-O1 -Wl,--as-needed -fPIC  -Wall -Wpointer-arith -Wcast-qual -Wnested-externs -Wstrict-prototypes -Wmissing-prototypes -Wredundant-decls -Wshadow -DNO_VALGRIND -o libfdt/fdt_ro.o -c libfdt/fdt_ro.c
x86_64-pc-linux-gnu-gcc -I libfdt -I . -march=znver2 -O2 -pipe -fno-stack-protector -fno-stack-clash-protection -fstack-check=no -fno-stack-check -Wl,-O1 -Wl,--as-needed -fPIC  -Wall -Wpointer-arith -Wcast-qual -Wnested-externs -Wstrict-prototypes -Wmissing-prototypes -Wredundant-decls -Wshadow -DNO_VALGRIND -o libfdt/fdt_wip.o -c libfdt/fdt_wip.c
x86_64-pc-linux-gnu-gcc -I libfdt -I . -march=znver2 -O2 -pipe -fno-stack-protector -fno-stack-clash-protection -fstack-check=no -fno-stack-check -Wl,-O1 -Wl,--as-needed -fPIC  -Wall -Wpointer-arith -Wcast-qual -Wnested-externs -Wstrict-prototypes -Wmissing-prototypes -Wredundant-decls -Wshadow -DNO_VALGRIND -o libfdt/fdt_sw.o -c libfdt/fdt_sw.c
x86_64-pc-linux-gnu-gcc -I libfdt -I . -march=znver2 -O2 -pipe -fno-stack-protector -fno-stack-clash-protection -fstack-check=no -fno-stack-check -Wl,-O1 -Wl,--as-needed -fPIC  -Wall -Wpointer-arith -Wcast-qual -Wnested-externs -Wstrict-prototypes -Wmissing-prototypes -Wredundant-decls -Wshadow -DNO_VALGRIND -o libfdt/fdt_rw.o -c libfdt/fdt_rw.c
x86_64-pc-linux-gnu-gcc -I libfdt -I . -march=znver2 -O2 -pipe -fno-stack-protector -fno-stack-clash-protection -fstack-check=no -fno-stack-check -Wl,-O1 -Wl,--as-needed -fPIC  -Wall -Wpointer-arith -Wcast-qual -Wnested-externs -Wstrict-prototypes -Wmissing-prototypes -Wredundant-decls -Wshadow -DNO_VALGRIND -o libfdt/fdt_strerror.o -c libfdt/fdt_strerror.c
x86_64-pc-linux-gnu-gcc -I libfdt -I . -march=znver2 -O2 -pipe -fno-stack-protector -fno-stack-clash-protection -fstack-check=no -fno-stack-check -Wl,-O1 -Wl,--as-needed -fPIC  -Wall -Wpointer-arith -Wcast-qual -Wnested-externs -Wstrict-prototypes -Wmissing-prototypes -Wredundant-decls -Wshadow -DNO_VALGRIND -o libfdt/fdt_empty_tree.o -c libfdt/fdt_empty_tree.c
x86_64-pc-linux-gnu-gcc -I libfdt -I . -march=znver2 -O2 -pipe -fno-stack-protector -fno-stack-clash-protection -fstack-check=no -fno-stack-check -Wl,-O1 -Wl,--as-needed -fPIC  -Wall -Wpointer-arith -Wcast-qual -Wnested-externs -Wstrict-prototypes -Wmissing-prototypes -Wredundant-decls -Wshadow -DNO_VALGRIND -o libfdt/fdt_addresses.o -c libfdt/fdt_addresses.c
x86_64-pc-linux-gnu-gcc -I libfdt -I . -march=znver2 -O2 -pipe -fno-stack-protector -fno-stack-clash-protection -fstack-check=no -fno-stack-check -Wl,-O1 -Wl,--as-needed -fPIC  -Wall -Wpointer-arith -Wcast-qual -Wnested-externs -Wstrict-prototypes -Wmissing-prototypes -Wredundant-decls -Wshadow -DNO_VALGRIND -o libfdt/fdt_overlay.o -c libfdt/fdt_overlay.c
x86_64-pc-linux-gnu-gcc -I libfdt -I . -march=znver2 -O2 -pipe -fno-stack-protector -fno-stack-clash-protection -fstack-check=no -fno-stack-check -Wl,-O1 -Wl,--as-needed -fPIC  -Wall -Wpointer-arith -Wcast-qual -Wnested-externs -Wstrict-prototypes -Wmissing-prototypes -Wredundant-decls -Wshadow -DNO_VALGRIND -o fdtput.o -c fdtput.c
target=pylibfdt; if pkg-config --cflags python2 >/dev/null 2>&1; then if which swig >/dev/null 2>&1; then can_build=yes; fi; fi; if [ "${can_build}" = "yes" ]; then make ${target}; else echo "## Skipping pylibfdt (install python dev and swig to build)"; fi ;
x86_64-pc-linux-gnu-gcc -I libfdt -I . -march=znver2 -O2 -pipe -fno-stack-protector -fno-stack-clash-protection -fstack-check=no -fno-stack-check -Wl,-O1 -Wl,--as-needed -fPIC  -Wall -Wpointer-arith -Wcast-qual -Wnested-externs -Wstrict-prototypes -Wmissing-prototypes -Wredundant-decls -Wshadow -DNO_VALGRIND -o fdtoverlay.o -c fdtoverlay.c
## Skipping pylibfdt (install python dev and swig to build)
x86_64-pc-linux-gnu-gcc -march=znver2 -O2 -pipe -fno-stack-protector -fno-stack-clash-protection -fstack-check=no -fno-stack-check -Wl,-O1 -Wl,--as-needed -fPIC  -Wall -Wpointer-arith -Wcast-qual -Wnested-externs -Wstrict-prototypes -Wmissing-prototypes -Wredundant-decls -Wshadow -DNO_VALGRIND -I libfdt -I . -Wl,-O1 -Wl,--as-needed  -o convert-dtsv0 srcpos.o util.o convert-dtsv0-lexer.lex.o
x86_64-pc-linux-gnu-gcc -march=znver2 -O2 -pipe -fno-stack-protector -fno-stack-clash-protection -fstack-check=no -fno-stack-check -Wl,-O1 -Wl,--as-needed -fPIC  -Wall -Wpointer-arith -Wcast-qual -Wnested-externs -Wstrict-prototypes -Wmissing-prototypes -Wredundant-decls -Wshadow -DNO_VALGRIND -I libfdt -I . -Wl,-O1 -Wl,--as-needed  -o fdtdump fdtdump.o util.o -lyaml
x86_64-pc-linux-gnu-ar rv libfdt/libfdt.a libfdt/fdt.o libfdt/fdt_ro.o libfdt/fdt_wip.o libfdt/fdt_sw.o libfdt/fdt_rw.o libfdt/fdt_strerror.o libfdt/fdt_empty_tree.o libfdt/fdt_addresses.o libfdt/fdt_overlay.o
x86_64-pc-linux-gnu-gcc -Wl,-O1 -Wl,--as-needed -fPIC -shared -Wl,--version-script=libfdt/version.lds -Wl,-soname,libfdt.so.1 -o libfdt/libfdt-1.5.0.so libfdt/fdt.o libfdt/fdt_ro.o libfdt/fdt_wip.o libfdt/fdt_sw.o libfdt/fdt_rw.o libfdt/fdt_strerror.o libfdt/fdt_empty_tree.o libfdt/fdt_addresses.o libfdt/fdt_overlay.o
x86_64-pc-linux-gnu-ar: creating libfdt/libfdt.a
a - libfdt/fdt.o
a - libfdt/fdt_ro.o
a - libfdt/fdt_wip.o
a - libfdt/fdt_sw.o
a - libfdt/fdt_rw.o
a - libfdt/fdt_strerror.o
a - libfdt/fdt_empty_tree.o
a - libfdt/fdt_addresses.o
a - libfdt/fdt_overlay.o
x86_64-pc-linux-gnu-gcc -march=znver2 -O2 -pipe -fno-stack-protector -fno-stack-clash-protection -fstack-check=no -fno-stack-check -Wl,-O1 -Wl,--as-needed -fPIC  -Wall -Wpointer-arith -Wcast-qual -Wnested-externs -Wstrict-prototypes -Wmissing-prototypes -Wredundant-decls -Wshadow -DNO_VALGRIND -I libfdt -I . -Wl,-O1 -Wl,--as-needed  -o dtc dtc.o checks.o data.o flattree.o fstree.o livetree.o srcpos.o treesource.o util.o yamltree.o dtc-lexer.lex.o dtc-parser.tab.o -lyaml
x86_64-pc-linux-gnu-gcc -march=znver2 -O2 -pipe -fno-stack-protector -fno-stack-clash-protection -fstack-check=no -fno-stack-check -Wl,-O1 -Wl,--as-needed -fPIC  -Wall -Wpointer-arith -Wcast-qual -Wnested-externs -Wstrict-prototypes -Wmissing-prototypes -Wredundant-decls -Wshadow -DNO_VALGRIND -I libfdt -I . -Wl,-O1 -Wl,--as-needed  -o fdtget fdtget.o util.o libfdt/libfdt.a -lyaml
x86_64-pc-linux-gnu-gcc -march=znver2 -O2 -pipe -fno-stack-protector -fno-stack-clash-protection -fstack-check=no -fno-stack-check -Wl,-O1 -Wl,--as-needed -fPIC  -Wall -Wpointer-arith -Wcast-qual -Wnested-externs -Wstrict-prototypes -Wmissing-prototypes -Wredundant-decls -Wshadow -DNO_VALGRIND -I libfdt -I . -Wl,-O1 -Wl,--as-needed  -o fdtput fdtput.o util.o libfdt/libfdt.a -lyaml
x86_64-pc-linux-gnu-gcc -march=znver2 -O2 -pipe -fno-stack-protector -fno-stack-clash-protection -fstack-check=no -fno-stack-check -Wl,-O1 -Wl,--as-needed -fPIC  -Wall -Wpointer-arith -Wcast-qual -Wnested-externs -Wstrict-prototypes -Wmissing-prototypes -Wredundant-decls -Wshadow -DNO_VALGRIND -I libfdt -I . -Wl,-O1 -Wl,--as-needed  -o fdtoverlay fdtoverlay.o util.o libfdt/libfdt.a -lyaml
>>> Source compiled.
>>> Test phase [not enabled]: sys-apps/dtc-1.5.0

>>> Install sys-apps/dtc-1.5.0 into /tmp/portage/sys-apps/dtc-1.5.0/image/
make -j12 -l12 DESTDIR=/tmp/portage/sys-apps/dtc-1.5.0/image/ install 
set -e; echo '	CHK version_gen.h'; mkdir -p ./; 	(echo "#define DTC_VERSION \"DTC 1.5.0\""; ) < Makefile > version_gen.h.tmp; if [ -r version_gen.h ] && cmp -s version_gen.h version_gen.h.tmp; then rm -f version_gen.h.tmp; else echo '	UPD version_gen.h'; mv -f version_gen.h.tmp version_gen.h; fi;
	CHK version_gen.h
target=pylibfdt; if pkg-config --cflags python2 >/dev/null 2>&1; then if which swig >/dev/null 2>&1; then can_build=yes; fi; fi; if [ "${can_build}" = "yes" ]; then make ${target}; else echo "## Skipping pylibfdt (install python dev and swig to build)"; fi ;
target=install_pylibfdt; if pkg-config --cflags python2 >/dev/null 2>&1; then if which swig >/dev/null 2>&1; then can_build=yes; fi; fi; if [ "${can_build}" = "yes" ]; then make ${target}; else echo "## Skipping pylibfdt (install python dev and swig to build)"; fi ;
/usr/bin/install -d /tmp/portage/sys-apps/dtc-1.5.0/image//usr/include
/usr/bin/install -m 644 libfdt/fdt.h libfdt/libfdt.h libfdt/libfdt_env.h /tmp/portage/sys-apps/dtc-1.5.0/image//usr/include
## Skipping pylibfdt (install python dev and swig to build)
## Skipping pylibfdt (install python dev and swig to build)
/usr/bin/install -d /tmp/portage/sys-apps/dtc-1.5.0/image//usr/bin
/usr/bin/install convert-dtsv0 dtc fdtdump fdtget fdtput fdtoverlay /tmp/portage/sys-apps/dtc-1.5.0/image//usr/bin
/usr/bin/install -d /tmp/portage/sys-apps/dtc-1.5.0/image//usr/lib64
/usr/bin/install dtdiff /tmp/portage/sys-apps/dtc-1.5.0/image//usr/bin
/usr/bin/install libfdt/libfdt-1.5.0.so /tmp/portage/sys-apps/dtc-1.5.0/image//usr/lib64
ln -sf libfdt-1.5.0.so /tmp/portage/sys-apps/dtc-1.5.0/image//usr/lib64/libfdt.so.1
ln -sf libfdt.so.1 /tmp/portage/sys-apps/dtc-1.5.0/image//usr/lib64/libfdt.so
/usr/bin/install -m 644 libfdt/libfdt.a /tmp/portage/sys-apps/dtc-1.5.0/image//usr/lib64
>>> Completed installing sys-apps/dtc-1.5.0 into /tmp/portage/sys-apps/dtc-1.5.0/image/

 * Final size of build directory: 3208 KiB (3.1 MiB)
 * Final size of installed tree:   548 KiB

Parallel BZIP2 v1.1.13 [Dec 18, 2015]
By: Jeff Gilchrist [http://compression.ca]
Major contributions: Yavor Nikolov [http://javornikolov.wordpress.com]
Uses libbzip2 by Julian Seward

         # CPUs: 7
   Load Average: 4.57
 BWT Block Size: 200 KB
File Block Size: 900 KB
 Maximum Memory: 1024 MB
-------------------------------------------
         File #: 1 of 1
     Input Name: compressme
    Output Name: compressme.bz2

     Input Size: 3895 bytes
Compressing data (no threads)...
Completed: 100%                 Output Size: 918 bytes
-------------------------------------------

     Wall Clock: 0.000855 seconds
Parallel BZIP2 v1.1.13 [Dec 18, 2015]
By: Jeff Gilchrist [http://compression.ca]
Major contributions: Yavor Nikolov [http://javornikolov.wordpress.com]
Uses libbzip2 by Julian Seward

         # CPUs: 7
   Load Average: 4.57
 BWT Block Size: 200 KB
File Block Size: 900 KB
 Maximum Memory: 1024 MB
-------------------------------------------
         File #: 1 of 1
     Input Name: /tmp/portage/sys-apps/dtc-1.5.0/image/usr/share/doc/dtc-1.5.0/dt-object-internal.txt
    Output Name: /tmp/portage/sys-apps/dtc-1.5.0/image/usr/share/doc/dtc-1.5.0/dt-object-internal.txt.bz2

     Input Size: 8833 bytes
Compressing data (no threads)...
Completed: 100%                 Output Size: 2804 bytes
Parallel BZIP2 v1.1.13 [Dec 18, 2015]
By: Jeff Gilchrist [http://compression.ca]
Major contributions: Yavor Nikolov [http://javornikolov.wordpress.com]
Uses libbzip2 by Julian Seward
Parallel BZIP2 v1.1.13 [Dec 18, 2015]
By: Jeff Gilchrist [http://compression.ca]
Major contributions: Yavor Nikolov [http://javornikolov.wordpress.com]
Uses libbzip2 by Julian Seward

         # CPUs: 7

         # CPUs: 7
   Load Average: 4.57
 BWT Block Size: 200 KB
   Load Average: 4.57
File Block Size: 900 KB
 BWT Block Size: 200 KB
 Maximum Memory: 1024 MB
File Block Size: 900 KB
-------------------------------------------
-------------------------------------------
 Maximum Memory: 1024 MB
-------------------------------------------

     Wall Clock: 0.001916 seconds
         File #: 1 of 1
         File #: 1 of 1
     Input Name: /tmp/portage/sys-apps/dtc-1.5.0/image/usr/share/doc/dtc-1.5.0/dts-format.txt
     Input Name: /tmp/portage/sys-apps/dtc-1.5.0/image/usr/share/doc/dtc-1.5.0/manual.txt
    Output Name: /tmp/portage/sys-apps/dtc-1.5.0/image/usr/share/doc/dtc-1.5.0/dts-format.txt.bz2

    Output Name: /tmp/portage/sys-apps/dtc-1.5.0/image/usr/share/doc/dtc-1.5.0/manual.txt.bz2

     Input Size: 4264 bytes
     Input Size: 26793 bytes
Compressing data (no threads)...
Compressing data (no threads)...
Completed: 100%                 Output Size: 1970 bytes
-------------------------------------------

     Wall Clock: 0.001175 seconds
Completed: 100%                 Output Size: 8916 bytes
-------------------------------------------

     Wall Clock: 0.003049 seconds
strip: x86_64-pc-linux-gnu-strip --strip-unneeded -N __gentoo_check_ldflags__ -R .comment -R .GCC.command.line -R .note.gnu.gold-version
   /usr/bin/fdtdump
   /usr/bin/dtc
   /usr/bin/fdtget
   /usr/bin/convert-dtsv0
   /usr/bin/fdtput
   /usr/bin/fdtoverlay
   /usr/lib64/libfdt-1.5.0.so
./
./usr/
./usr/bin/
./usr/bin/dtc
./usr/bin/dtdiff
./usr/bin/fdtdump
./usr/bin/fdtoverlay
./usr/bin/convert-dtsv0
./usr/bin/fdtput
./usr/bin/fdtget
./usr/include/
./usr/include/libfdt_env.h
./usr/include/fdt.h
./usr/include/libfdt.h
./usr/share/
./usr/share/doc/
./usr/share/doc/dtc-1.5.0/
./usr/share/doc/dtc-1.5.0/dts-format.txt
./usr/share/doc/dtc-1.5.0/dts-format.txt.bz2
./usr/share/doc/dtc-1.5.0/dt-object-internal.txt.bz2
./usr/share/doc/dtc-1.5.0/manual.txt
./usr/share/doc/dtc-1.5.0/manual.txt.bz2
./usr/share/doc/dtc-1.5.0/dt-object-internal.txt
./usr/lib64/
./usr/lib64/libfdt-1.5.0.so
./usr/lib64/libfdt.so
./usr/lib64/libfdt.so.1
>>> Done.
 * checking 13 files for package collisions
>>> Merging sys-apps/dtc-1.5.0 to /
 * removing unneeded *.la files
--- /usr/
--- /usr/lib64/
>>> /usr/lib64/libfdt.so.1 -> libfdt-1.5.0.so
>>> /usr/lib64/libfdt.so -> libfdt.so.1
>>> /usr/lib64/libfdt-1.5.0.so
--- /usr/include/
>>> /usr/include/libfdt.h
>>> /usr/include/fdt.h
>>> /usr/include/libfdt_env.h
--- /usr/bin/
>>> /usr/bin/fdtget
>>> /usr/bin/fdtput
>>> /usr/bin/convert-dtsv0
>>> /usr/bin/fdtoverlay
>>> /usr/bin/fdtdump
>>> /usr/bin/dtdiff
>>> /usr/bin/dtc
>>> Safely unmerging already-installed instance...
!!! File Not Found: '/etc/env.d/99lcdfilter'
>>> Original instance of package unmerged safely.
>>> sys-apps/dtc-1.5.0 merged.
!!! File Not Found: '/etc/env.d/99lcdfilter'
>>> Regenerating /etc/ld.so.cache...
