No package files given... Grabbing a set.
--- replaced obj /usr/lib64/libdb-5.3.so
--- replaced obj /usr/lib64/libdb-5.3.a
--- replaced dir /usr/lib64
--- replaced obj /usr/include/x86_64-pc-linux-gnu/db5.3/db.h
--- replaced dir /usr/include/x86_64-pc-linux-gnu/db5.3
--- replaced dir /usr/include/x86_64-pc-linux-gnu
--- replaced obj /usr/include/db5.3/db_cxx.h
--- replaced obj /usr/include/db5.3/db_185.h
--- replaced obj /usr/include/db5.3/db.h
--- replaced dir /usr/include/db5.3
--- replaced dir /usr/include
--- replaced obj /usr/bin/db5.3_verify
--- replaced obj /usr/bin/db5.3_upgrade
--- replaced obj /usr/bin/db5.3_tuner
--- replaced obj /usr/bin/db5.3_stat
--- replaced obj /usr/bin/db5.3_replicate
--- replaced obj /usr/bin/db5.3_recover
--- replaced obj /usr/bin/db5.3_printlog
--- replaced obj /usr/bin/db5.3_log_verify
--- replaced obj /usr/bin/db5.3_load
--- replaced obj /usr/bin/db5.3_hotbackup
--- replaced obj /usr/bin/db5.3_dump
--- replaced obj /usr/bin/db5.3_deadlock
--- replaced obj /usr/bin/db5.3_checkpoint
--- replaced obj /usr/bin/db5.3_archive
--- replaced dir /usr/bin
--- replaced dir /usr
 * abi_x86_64.amd64: running db_fix_so
 * Creating db.h symlinks to db6.0
>>> Regenerating /etc/ld.so.cache...
