No package files given... Grabbing a set.
--- replaced obj /usr/share/man/man8/vipw.8.bz2
--- replaced obj /usr/share/man/man8/vigr.8
--- replaced obj /usr/share/man/man8/usermod.8.bz2
--- replaced obj /usr/share/man/man8/userdel.8.bz2
--- replaced obj /usr/share/man/man8/useradd.8.bz2
--- replaced obj /usr/share/man/man8/pwunconv.8
--- replaced obj /usr/share/man/man8/pwconv.8.bz2
--- replaced obj /usr/share/man/man8/pwck.8.bz2
--- replaced obj /usr/share/man/man8/nologin.8.bz2
--- replaced obj /usr/share/man/man8/newusers.8.bz2
--- replaced obj /usr/share/man/man8/logoutd.8.bz2
--- replaced obj /usr/share/man/man8/lastlog.8.bz2
--- replaced obj /usr/share/man/man8/grpunconv.8
--- replaced obj /usr/share/man/man8/grpconv.8
--- replaced obj /usr/share/man/man8/grpck.8.bz2
--- replaced obj /usr/share/man/man8/groupmod.8.bz2
--- replaced obj /usr/share/man/man8/groupmems.8.bz2
--- replaced obj /usr/share/man/man8/groupdel.8.bz2
--- replaced obj /usr/share/man/man8/groupadd.8.bz2
--- replaced obj /usr/share/man/man8/faillog.8.bz2
--- replaced obj /usr/share/man/man8/chpasswd.8.bz2
--- replaced obj /usr/share/man/man8/chgpasswd.8.bz2
--- replaced dir /usr/share/man/man8
--- replaced obj /usr/share/man/man5/subuid.5.bz2
--- replaced obj /usr/share/man/man5/subgid.5.bz2
--- replaced obj /usr/share/man/man5/shadow.5.bz2
--- replaced obj /usr/share/man/man5/login.defs.5.bz2
--- replaced obj /usr/share/man/man5/gshadow.5.bz2
--- replaced obj /usr/share/man/man5/faillog.5.bz2
--- replaced dir /usr/share/man/man5
--- replaced obj /usr/share/man/man3/shadow.3.bz2
--- replaced dir /usr/share/man/man3
--- replaced obj /usr/share/man/man1/su.1.bz2
--- replaced obj /usr/share/man/man1/sg.1.bz2
--- replaced obj /usr/share/man/man1/passwd.1.bz2
--- replaced obj /usr/share/man/man1/newuidmap.1.bz2
--- replaced obj /usr/share/man/man1/newgrp.1.bz2
--- replaced obj /usr/share/man/man1/newgidmap.1.bz2
--- replaced obj /usr/share/man/man1/login.1.bz2
--- replaced obj /usr/share/man/man1/groups.1.bz2
--- replaced obj /usr/share/man/man1/gpasswd.1.bz2
--- replaced obj /usr/share/man/man1/expiry.1.bz2
--- replaced obj /usr/share/man/man1/chsh.1.bz2
--- replaced obj /usr/share/man/man1/chfn.1.bz2
--- replaced obj /usr/share/man/man1/chage.1.bz2
--- replaced dir /usr/share/man/man1
--- replaced dir /usr/share/man
--- replaced dir /usr/share
--- replaced obj /usr/sbin/vipw
--- replaced sym /usr/sbin/vigr
--- replaced obj /usr/sbin/usermod
--- replaced obj /usr/sbin/userdel
--- replaced obj /usr/sbin/useradd
--- replaced obj /usr/sbin/pwunconv
--- replaced obj /usr/sbin/pwconv
--- replaced obj /usr/sbin/pwck
--- replaced obj /usr/sbin/newusers
--- replaced obj /usr/sbin/logoutd
--- replaced obj /usr/sbin/grpunconv
--- replaced obj /usr/sbin/grpconv
--- replaced obj /usr/sbin/grpck
--- replaced obj /usr/sbin/groupmod
--- replaced obj /usr/sbin/groupmems
--- replaced obj /usr/sbin/groupdel
--- replaced obj /usr/sbin/groupadd
--- replaced obj /usr/sbin/chpasswd
--- replaced obj /usr/sbin/chgpasswd
--- replaced dir /usr/sbin
--- replaced sym /usr/bin/sg
--- replaced sym /usr/bin/passwd
--- replaced obj /usr/bin/newuidmap
--- replaced obj /usr/bin/newgrp
--- replaced obj /usr/bin/newgidmap
--- replaced obj /usr/bin/lastlog
--- replaced obj /usr/bin/gpasswd
--- replaced obj /usr/bin/faillog
--- replaced obj /usr/bin/expiry
--- replaced obj /usr/bin/chsh
--- replaced obj /usr/bin/chfn
--- replaced obj /usr/bin/chage
--- replaced dir /usr/bin
--- replaced dir /usr
--- replaced obj /sbin/nologin
--- replaced dir /sbin
--- replaced obj /etc/pam.d/shfn
--- replaced obj /etc/pam.d/shadow
--- replaced obj /etc/pam.d/newusers
--- replaced obj /etc/pam.d/groupmems
--- replaced obj /etc/pam.d/chsh
--- replaced obj /etc/pam.d/chpasswd
--- replaced obj /etc/pam.d/chfn
--- replaced dir /etc/pam.d
--- replaced obj /etc/login.defs
--- replaced obj /etc/default/useradd
--- replaced dir /etc/default
--- replaced dir /etc
--- replaced obj /bin/su
--- replaced obj /bin/passwd
--- replaced obj /bin/login
--- replaced obj /bin/groups
--- replaced dir /bin
>>> Regenerating /etc/ld.so.cache...
