>>> Extracting info
 * Package:    sys-devel/gettext-0.20.2
 * Repository: gentoo
 * USE:        acl amd64 ncurses abi_x86_64 elibc_glibc kernel_linux openmp userland_GNU git cxx
 * FEATURES:   ccache network-sandbox preserve-libs sandbox userpriv usersandbox
 * /etc/portage/package.cflags/ltoworkarounds.conf -> sys-devel/gettext: *FLAGS-=-flto*
 * /etc/portage/package.cflags/ltoworkarounds.conf -> sys-devel/gettext: *FLAGS+=-lm # needed for linker to resolve libm's log10 -- only needed for LTO
 * FEATURES='assume-digests binpkg-docompress binpkg-dostrip binpkg-logs binpkg-multi-instance buildpkg ccache cgroup compress-index config-protect-if-modified distlocks downgrade-backup fixlafiles ipc-sandbox merge-sync multilib-strict network-sandbox news nodoc parallel-fetch parallel-install pid-sandbox preserve-libs qa-unresolved-soname-deps sandbox sfperms strict unknown-features-warn unmerge-backup unmerge-logs unmerge-orphans userfetch userpriv usersandbox usersync xattr'
 * CFLAGS='-march=native -O3 -fdevirtualize-at-ltrans -fipa-pta -fno-semantic-interposition -fno-math-errno -fno-trapping-math -fno-plt -fuse-linker-plugin -pipe -g0 -fno-stack-protector -fno-stack-clash-protection -fstack-check=no -fno-stack-check -lm -Wl,-O4,--hash-style=gnu,--sort-common,--as-needed,-z,relro,-z,now,-lgomp,-lpthread'
 * CXXFLAGS='-march=native -O3 -fdevirtualize-at-ltrans -fipa-pta -fno-semantic-interposition -fno-math-errno -fno-trapping-math -fno-plt -fuse-linker-plugin -pipe -g0 -fno-stack-protector -fno-stack-clash-protection -fstack-check=no -fno-stack-check -lm -Wl,-O4,--hash-style=gnu,--sort-common,--as-needed,-z,relro,-z,now,-lgomp,-lpthread'
 * FFLAGS='-march=native -O3 -fdevirtualize-at-ltrans -fipa-pta -fno-semantic-interposition -fno-math-errno -fno-trapping-math -fno-plt -fuse-linker-plugin -pipe -g0 -fno-stack-protector -fno-stack-clash-protection -fstack-check=no -fno-stack-check -lm -Wl,-O4,--hash-style=gnu,--sort-common,--as-needed,-z,relro,-z,now,-lgomp,-lpthread'
 * FCFLAGS='-march=native -O3 -fdevirtualize-at-ltrans -fipa-pta -fno-semantic-interposition -fno-math-errno -fno-trapping-math -fno-plt -fuse-linker-plugin -pipe -g0 -fno-stack-protector -fno-stack-clash-protection -fstack-check=no -fno-stack-check -lm -Wl,-O4,--hash-style=gnu,--sort-common,--as-needed,-z,relro,-z,now,-lgomp,-lpthread'
 * F77FLAGS='-march=native -O3 -fdevirtualize-at-ltrans -fipa-pta -fno-semantic-interposition -fno-math-errno -fno-trapping-math -fno-plt -fuse-linker-plugin -pipe -g0 -fno-stack-protector -fno-stack-clash-protection -fstack-check=no -fno-stack-check -lm -Wl,-O4,--hash-style=gnu,--sort-common,--as-needed,-z,relro,-z,now,-lgomp,-lpthread'
 * LDFLAGS='-Wl,-O4,--hash-style=gnu,--sort-common,--as-needed,-z,relro,-z,now,-lgomp,-lpthread'
 * MAKEOPTS='-j12'
 * gcc (Gentoo 10.1.0 p1) 10.1.0
 * g++ (Gentoo 10.1.0 p1) 10.1.0
 * GNU ld (Gentoo 2.34 p1) 2.34.0
 * Linux ryzen.gnum.org 5.4.36 #1 SMP Thu Apr 30 04:38:28 UTC 2020 x86_64 AMD Ryzen 5 3600 6-Core Processor AuthenticAMD GNU/Linux
sys-devel/gettext: 1 minute, 51 seconds average for 2 merges
2020-05-16T16:04:37 >>> sys-devel/gettext: 3 minutes, 37 seconds
2020-05-19T23:50:55 >>> sys-devel/gettext: 5 seconds
]0;emerge 01:27:39 26|371 gettext 01:51 (root@ryzen.gnum.org)>>> Extracting sys-devel/gettext-0.20.2
 * checking 143 files for package collisions
>>> Merging sys-devel/gettext-0.20.2 to /
 * removing unneeded *.la files
--- /usr/
--- /usr/lib64/
>>> /usr/lib64/libgettextsrc.so -> libgettextsrc-0.20.2.so
>>> /usr/lib64/libasprintf.so -> libasprintf.so.0.0.0
>>> /usr/lib64/libtextstyle.so -> libtextstyle.so.0.0.1
>>> /usr/lib64/libgettextpo.so.0 -> libgettextpo.so.0.5.6
>>> /usr/lib64/libtextstyle.so.0 -> libtextstyle.so.0.0.1
>>> /usr/lib64/libtextstyle.so.0.0.1
>>> /usr/lib64/libgettextlib-0.20.2.so
>>> /usr/lib64/libgettextsrc-0.20.2.so
>>> /usr/lib64/libgettextlib.so -> libgettextlib-0.20.2.so
--- /usr/lib64/gettext/
>>> /usr/lib64/gettext/project-id
>>> /usr/lib64/gettext/msgunfmt.net.exe
>>> /usr/lib64/gettext/user-email
>>> /usr/lib64/gettext/cldr-plurals
>>> /usr/lib64/gettext/urlget
>>> /usr/lib64/gettext/hostname
>>> /usr/lib64/gettext/msgfmt.net.exe
>>> /usr/lib64/preloadable_libintl.so
>>> /usr/lib64/libasprintf.so.0 -> libasprintf.so.0.0.0
>>> /usr/lib64/libgettextpo.so -> libgettextpo.so.0.5.6
>>> /usr/lib64/libasprintf.so.0.0.0
>>> /usr/lib64/libgettextpo.so.0.5.6
>>> /usr/lib64/GNU.Gettext.dll
--- /usr/share/
--- /usr/share/aclocal/
>>> /usr/share/aclocal/po.m4
>>> /usr/share/aclocal/progtest.m4
>>> /usr/share/aclocal/intlmacosx.m4
>>> /usr/share/aclocal/iconv.m4
>>> /usr/share/aclocal/nls.m4
>>> /usr/share/aclocal/lib-link.m4
>>> /usr/share/aclocal/lib-ld.m4
>>> /usr/share/aclocal/lib-prefix.m4
>>> /usr/share/aclocal/gettext.m4
>>> /usr/share/aclocal/host-cpu-c-abi.m4
--- /usr/share/gettext-0.20.2/
--- /usr/share/gettext-0.20.2/its/
>>> /usr/share/gettext-0.20.2/its/gtkbuilder.its
>>> /usr/share/gettext-0.20.2/its/glade1.its
>>> /usr/share/gettext-0.20.2/its/metainfo.its
>>> /usr/share/gettext-0.20.2/its/metainfo.loc
>>> /usr/share/gettext-0.20.2/its/gsettings.loc
>>> /usr/share/gettext-0.20.2/its/glade.loc
>>> /usr/share/gettext-0.20.2/its/glade2.its
>>> /usr/share/gettext-0.20.2/its/gsettings.its
--- /usr/share/man/
--- /usr/share/man/man3/
>>> /usr/share/man/man3/ngettext.3.bz2
>>> /usr/share/man/man3/dngettext.3
>>> /usr/share/man/man3/bindtextdomain.3.bz2
>>> /usr/share/man/man3/dgettext.3
>>> /usr/share/man/man3/dcgettext.3
>>> /usr/share/man/man3/gettext.3.bz2
>>> /usr/share/man/man3/bind_textdomain_codeset.3.bz2
>>> /usr/share/man/man3/textdomain.3.bz2
>>> /usr/share/man/man3/dcngettext.3
--- /usr/share/man/man1/
>>> /usr/share/man/man1/msginit.1.bz2
>>> /usr/share/man/man1/msguniq.1.bz2
>>> /usr/share/man/man1/gettext.1.bz2
>>> /usr/share/man/man1/msgcmp.1.bz2
>>> /usr/share/man/man1/msgcomm.1.bz2
>>> /usr/share/man/man1/msgmerge.1.bz2
>>> /usr/share/man/man1/ngettext.1.bz2
>>> /usr/share/man/man1/msgen.1.bz2
>>> /usr/share/man/man1/msgattrib.1.bz2
>>> /usr/share/man/man1/msgcat.1.bz2
>>> /usr/share/man/man1/recode-sr-latin.1.bz2
>>> /usr/share/man/man1/gettextize.1.bz2
>>> /usr/share/man/man1/envsubst.1.bz2
>>> /usr/share/man/man1/msgexec.1.bz2
>>> /usr/share/man/man1/msgunfmt.1.bz2
>>> /usr/share/man/man1/autopoint.1.bz2
>>> /usr/share/man/man1/msggrep.1.bz2
>>> /usr/share/man/man1/xgettext.1.bz2
>>> /usr/share/man/man1/msgconv.1.bz2
>>> /usr/share/man/man1/msgfmt.1.bz2
>>> /usr/share/man/man1/msgfilter.1.bz2
--- /usr/share/gettext/
>>> /usr/share/gettext/javaversion.class
>>> /usr/share/gettext/ABOUT-NLS
>>> /usr/share/gettext/msgunfmt.tcl
>>> /usr/share/gettext/gettext.h
--- /usr/share/gettext/po/
>>> /usr/share/gettext/po/remove-potcdate.sin
>>> /usr/share/gettext/po/Makevars.template
>>> /usr/share/gettext/po/Rules-quot
>>> /usr/share/gettext/po/insert-header.sin
>>> /usr/share/gettext/po/Makefile.in.in
>>> /usr/share/gettext/po/en@quot.header
>>> /usr/share/gettext/po/boldquot.sed
>>> /usr/share/gettext/po/quot.sed
>>> /usr/share/gettext/po/en@boldquot.header
--- /usr/share/gettext/projects/
--- /usr/share/gettext/projects/GNOME/
>>> /usr/share/gettext/projects/GNOME/team-address
>>> /usr/share/gettext/projects/GNOME/teams.html
>>> /usr/share/gettext/projects/GNOME/teams.url
>>> /usr/share/gettext/projects/GNOME/trigger
>>> /usr/share/gettext/projects/team-address
>>> /usr/share/gettext/projects/index
--- /usr/share/gettext/projects/TP/
>>> /usr/share/gettext/projects/TP/team-address
>>> /usr/share/gettext/projects/TP/teams.html
>>> /usr/share/gettext/projects/TP/teams.url
>>> /usr/share/gettext/projects/TP/trigger
--- /usr/share/gettext/projects/KDE/
>>> /usr/share/gettext/projects/KDE/team-address
>>> /usr/share/gettext/projects/KDE/teams.html
>>> /usr/share/gettext/projects/KDE/teams.url
>>> /usr/share/gettext/projects/KDE/trigger
--- /usr/share/gettext/styles/
>>> /usr/share/gettext/styles/po-default.css
>>> /usr/share/gettext/styles/po-emacs-xterm.css
>>> /usr/share/gettext/styles/po-emacs-xterm16.css
>>> /usr/share/gettext/styles/po-emacs-x.css
>>> /usr/share/gettext/styles/po-emacs-xterm256.css
>>> /usr/share/gettext/styles/po-vim.css
>>> /usr/share/gettext/archive.git.tar.gz
>>> /usr/share/gettext/config.rpath
--- /usr/share/info/
>>> /usr/share/info/libtextstyle.info.bz2
>>> /usr/share/info/autosprintf.info.bz2
>>> /usr/share/info/gettext.info.bz2
--- /usr/include/
--- /usr/include/textstyle/
>>> /usr/include/textstyle/version.h
>>> /usr/include/textstyle/stdbool.h
>>> /usr/include/textstyle/woe32dll.h
>>> /usr/include/gettext-po.h
--- /usr/include/x86_64-pc-linux-gnu/
--- /usr/include/x86_64-pc-linux-gnu/textstyle/
>>> /usr/include/x86_64-pc-linux-gnu/textstyle/version.h
>>> /usr/include/x86_64-pc-linux-gnu/textstyle/stdbool.h
>>> /usr/include/x86_64-pc-linux-gnu/textstyle/woe32dll.h
>>> /usr/include/x86_64-pc-linux-gnu/gettext-po.h
>>> /usr/include/x86_64-pc-linux-gnu/autosprintf.h
>>> /usr/include/x86_64-pc-linux-gnu/textstyle.h
>>> /usr/include/autosprintf.h
>>> /usr/include/textstyle.h
--- /usr/bin/
>>> /usr/bin/ngettext
>>> /usr/bin/gettext.sh
>>> /usr/bin/msgmerge
>>> /usr/bin/gmsgfmt -> msgfmt
>>> /usr/bin/recode-sr-latin
>>> /usr/bin/msgattrib
>>> /usr/bin/gettextize
>>> /usr/bin/autopoint
>>> /usr/bin/msgcat
>>> /usr/bin/envsubst
>>> /usr/bin/gettext
>>> /usr/bin/msginit
>>> /usr/bin/msgfmt
>>> /usr/bin/msgen
>>> /usr/bin/msgcomm
>>> /usr/bin/msgconv
>>> /usr/bin/msgexec
>>> /usr/bin/xgettext
>>> /usr/bin/msgunfmt
>>> /usr/bin/msggrep
>>> /usr/bin/msguniq
>>> /usr/bin/msgcmp
>>> /usr/bin/msgfilter
>>> Safely unmerging already-installed instance...
>>> Original instance of package unmerged safely.
>>> sys-devel/gettext-0.20.2 merged.
>>> Regenerating /etc/ld.so.cache...
