 * Package:    virtual/os-headers-0-r2
 * Repository: gentoo
 * Maintainer: toolchain@gentoo.org
 * USE:        abi_x86_64 amd64 elibc_glibc kernel_linux userland_GNU
 * FEATURES:   ccache network-sandbox preserve-libs userpriv
 * /etc/portage/package.cflags/ltoworkarounds.conf -> */*: *FLAGS+=-Wl,-O4 *FLAGS-=-Wl,-O1
 * FEATURES='assume-digests binpkg-docompress binpkg-dostrip binpkg-logs buildpkg ccache cgroup compress-index config-protect-if-modified distlocks ebuild-locks fixlafiles merge-sync multilib-strict network-sandbox news nodoc parallel-fetch preserve-libs qa-unresolved-soname-deps sfperms strict strict-keepdir unknown-features-warn unmerge-logs unmerge-orphans userfetch userpriv usersync xattr'
 * CFLAGS='-O2 -pipe -Wl,-O4 -Wl,-O4,--sort-common,--as-needed,-z,norelro,-z,now'
 * CXXFLAGS='-O2 -pipe -Wl,-O4 -Wl,-O4,--sort-common,--as-needed,-z,norelro,-z,now'
 * FFLAGS='-O2 -pipe -Wl,-O4 -Wl,-O4,--sort-common,--as-needed,-z,norelro,-z,now'
 * FCFLAGS='-O2 -pipe -Wl,-O4 -Wl,-O4,--sort-common,--as-needed,-z,norelro,-z,now'
 * F77FLAGS='-O2 -pipe -Wl,-O4 -Wl,-O4,--sort-common,--as-needed,-z,norelro,-z,now'
 * LDFLAGS='-Wl,-O4,--sort-common,--as-needed,-z,norelro,-z,now'
 * MAKEOPTS='-j12 -l12'
 * gcc (Gentoo 11.0.0_pre9999 p1, commit 184c21bf1cd04a108ed9bd04635e7d57ac39f616) 11.0.0 20200611 (experimental)
 * g++ (Gentoo 11.0.0_pre9999 p1, commit 184c21bf1cd04a108ed9bd04635e7d57ac39f616) 11.0.0 20200611 (experimental)
 * GNU ld (Gentoo 2.34 p4) 2.34.0
 * Linux rescue 5.4.36 #1 SMP Thu Apr 30 04:38:28 UTC 2020 x86_64 AMD Ryzen 5 3600 6-Core Processor AuthenticAMD GNU/Linux
virtual/os-headers: 11 seconds average for 18 merges
2020-05-16T21:23:35 >>> virtual/os-headers: 8 seconds
2020-05-20T01:05:54 >>> virtual/os-headers: 6 seconds
2020-05-21T06:05:19 >>> virtual/os-headers: 5 seconds
2020-05-23T11:37:13 >>> virtual/os-headers: 9 seconds
2020-05-24T23:59:02 >>> virtual/os-headers: 13 seconds
2020-05-25T03:11:00 >>> virtual/os-headers: 6 seconds
2020-05-25T18:34:24 >>> virtual/os-headers: 9 seconds
2020-05-25T20:15:40 >>> virtual/os-headers: 9 seconds
2020-05-26T13:56:52 >>> virtual/os-headers: 6 seconds
2020-05-27T01:36:43 >>> virtual/os-headers: 6 seconds
2020-05-27T03:31:19 >>> virtual/os-headers: 12 seconds
2020-05-28T14:22:25 >>> virtual/os-headers: 6 seconds
2020-05-29T01:44:12 >>> virtual/os-headers: 9 seconds
2020-05-30T12:45:18 >>> virtual/os-headers: 1 minute, 22 seconds
2020-05-30T21:42:05 >>> virtual/os-headers: 6 seconds
2020-06-01T02:15:09 >>> virtual/os-headers: 10 seconds
2020-06-09T04:03:13 >>> virtual/os-headers: 6 seconds
2020-06-12T01:29:23 >>> virtual/os-headers: 4 seconds
]0;emerge 03:43:25 259|907 os-headers 00:07 (root@rescue)kemerge 03:43:25 259|907 os-headers 00:07 (root@rescue)\>>> Unpacking source...
>>> Source unpacked in /tmp/portage/virtual/os-headers-0-r2/work
>>> Preparing source in /tmp/portage/virtual/os-headers-0-r2/work ...
>>> Source prepared.
>>> Configuring source in /tmp/portage/virtual/os-headers-0-r2/work ...
>>> Source configured.
>>> Compiling source in /tmp/portage/virtual/os-headers-0-r2/work ...
>>> Source compiled.
>>> Test phase [not enabled]: virtual/os-headers-0-r2

>>> Install virtual/os-headers-0-r2 into /tmp/portage/virtual/os-headers-0-r2/image
>>> Completed installing virtual/os-headers-0-r2 into /tmp/portage/virtual/os-headers-0-r2/image

 * Final size of build directory: 4 KiB
 * Final size of installed tree:  4 KiB

 * checking 0 files for package collisions
>>> Merging virtual/os-headers-0-r2 to /
 * removing unneeded *.la files
>>> Safely unmerging already-installed instance...
>>> Original instance of package unmerged safely.
>>> virtual/os-headers-0-r2 merged.
