 * Package:    virtual/fortran-0
 * Repository: gentoo
 * Maintainer: sci@gentoo.org
 * USE:        abi_x86_64 amd64 elibc_glibc kernel_linux openmp userland_GNU
 * FEATURES:   ccache network-sandbox preserve-libs sandbox userpriv usersandbox
 * FEATURES='assume-digests binpkg-docompress binpkg-dostrip binpkg-logs buildpkg ccache cgroup compress-index config-protect-if-modified distlocks ebuild-locks fixlafiles ipc-sandbox merge-sync multilib-strict network-sandbox news nodoc parallel-fetch pid-sandbox preserve-libs qa-unresolved-soname-deps sandbox sfperms strict strict-keepdir unknown-features-warn unmerge-logs unmerge-orphans userfetch userpriv usersandbox usersync xattr'
 * CFLAGS='-march=znver2 -O2 -pipe -g0 -falign-functions=32 -fno-stack-protector -fno-stack-clash-protection -fstack-check=no -fno-stack-check -Wl,-O1,--sort-common,--as-needed,-z,norelro,-z,now'
 * CXXFLAGS='-march=znver2 -O2 -pipe -g0 -falign-functions=32 -fno-stack-protector -fno-stack-clash-protection -fstack-check=no -fno-stack-check -Wl,-O1,--sort-common,--as-needed,-z,norelro,-z,now'
 * FFLAGS='-march=znver2 -O2 -pipe -g0 -falign-functions=32 -fno-stack-protector -fno-stack-clash-protection -fstack-check=no -fno-stack-check -Wl,-O1,--sort-common,--as-needed,-z,norelro,-z,now'
 * FCFLAGS='-march=znver2 -O2 -pipe -g0 -falign-functions=32 -fno-stack-protector -fno-stack-clash-protection -fstack-check=no -fno-stack-check -Wl,-O1,--sort-common,--as-needed,-z,norelro,-z,now'
 * F77FLAGS='-march=znver2 -O2 -pipe -g0 -falign-functions=32 -fno-stack-protector -fno-stack-clash-protection -fstack-check=no -fno-stack-check -Wl,-O1,--sort-common,--as-needed,-z,norelro,-z,now'
 * LDFLAGS='-Wl,-O1,--sort-common,--as-needed,-z,norelro,-z,now'
 * MAKEOPTS='-j12 -l12'
 * gcc (Gentoo 11.0.0_pre9999 p1, commit 184c21bf1cd04a108ed9bd04635e7d57ac39f616) 11.0.0 20200611 (experimental)
 * g++ (Gentoo 11.0.0_pre9999 p1, commit 184c21bf1cd04a108ed9bd04635e7d57ac39f616) 11.0.0 20200611 (experimental)
 * GNU ld (Gentoo 2.34 p4) 2.34.0
 * Linux rescue 5.4.36 #1 SMP Thu Apr 30 04:38:28 UTC 2020 x86_64 AMD Ryzen 5 3600 6-Core Processor AuthenticAMD GNU/Linux
virtual/fortran: 8 seconds average for 9 merges
2020-05-20T01:10:45 >>> virtual/fortran: 3 seconds
2020-05-23T11:40:21 >>> virtual/fortran: 18 seconds
2020-05-25T18:34:51 >>> virtual/fortran: 10 seconds
2020-05-26T14:08:26 >>> virtual/fortran: 6 seconds
2020-05-27T03:26:38 >>> virtual/fortran: 10 seconds
2020-06-02T13:39:46 >>> virtual/fortran: 9 seconds
2020-06-12T01:37:39 >>> virtual/fortran: 5 seconds
2020-06-13T03:35:12 >>> virtual/fortran: 6 seconds
2020-06-13T20:15:56 >>> virtual/fortran: 5 seconds
]0;emerge 04:55:23 229|887 fortran 00:05 (root@rescue)>>> Unpacking source...
>>> Source unpacked in /tmp/portage/virtual/fortran-0/work
>>> Preparing source in /tmp/portage/virtual/fortran-0/work ...
>>> Source prepared.
>>> Configuring source in /tmp/portage/virtual/fortran-0/work ...
>>> Source configured.
>>> Compiling source in /tmp/portage/virtual/fortran-0/work ...
>>> Source compiled.
>>> Test phase [not enabled]: virtual/fortran-0

>>> Install virtual/fortran-0 into /tmp/portage/virtual/fortran-0/image/
>>> Completed installing virtual/fortran-0 into /tmp/portage/virtual/fortran-0/image/

 * Final size of build directory: 4 KiB
 * Final size of installed tree:  4 KiB

Parallel BZIP2 v1.1.13 [Dec 18, 2015]
By: Jeff Gilchrist [http://compression.ca]
Major contributions: Yavor Nikolov [http://javornikolov.wordpress.com]
Uses libbzip2 by Julian Seward

         # CPUs: 8
   Load Average: 3.66
 BWT Block Size: 200 KB
File Block Size: 900 KB
 Maximum Memory: 1024 MB
-------------------------------------------
         File #: 1 of 1
     Input Name: compressme
    Output Name: compressme.bz2

     Input Size: 3895 bytes
Compressing data (no threads)...
Completed: 100%                 Output Size: 918 bytes
-------------------------------------------

     Wall Clock: 0.001445 seconds
 * checking 0 files for package collisions
>>> Merging virtual/fortran-0 to /
 * removing unneeded *.la files
>>> Safely unmerging already-installed instance...
!!! File Not Found: '/etc/env.d/99lcdfilter'
>>> Original instance of package unmerged safely.
>>> virtual/fortran-0 merged.
!!! File Not Found: '/etc/env.d/99lcdfilter'
