 * Package:    virtual/opengl-7.0-r2
 * Repository: gentoo
 * Maintainer: x11@gentoo.org
 * USE:        abi_x86_64 amd64 elibc_glibc kernel_linux userland_GNU
 * FEATURES:   network-sandbox preserve-libs sandbox userpriv usersandbox
 * FEATURES='assume-digests binpkg-docompress binpkg-dostrip binpkg-logs buildpkg cgroup compress-index config-protect-if-modified distlocks ebuild-locks fixlafiles ipc-sandbox merge-sync multilib-strict network-sandbox news nodoc parallel-fetch pid-sandbox preserve-libs qa-unresolved-soname-deps sandbox sfperms strict strict-keepdir unknown-features-warn unmerge-logs unmerge-orphans userfetch userpriv usersandbox usersync xattr'
 * CFLAGS='-march=znver2 -O2 -pipe -fno-stack-protector -fno-stack-clash-protection -fstack-check=no -fno-stack-check -Wl,-O1 -Wl,--as-needed'
 * CXXFLAGS='-march=znver2 -O2 -pipe -fno-stack-protector -fno-stack-clash-protection -fstack-check=no -fno-stack-check -Wl,-O1 -Wl,--as-needed'
 * FFLAGS='-march=znver2 -O2 -pipe -fno-stack-protector -fno-stack-clash-protection -fstack-check=no -fno-stack-check -Wl,-O1 -Wl,--as-needed'
 * FCFLAGS='-march=znver2 -O2 -pipe -fno-stack-protector -fno-stack-clash-protection -fstack-check=no -fno-stack-check -Wl,-O1 -Wl,--as-needed'
 * F77FLAGS='-march=znver2 -O2 -pipe -fno-stack-protector -fno-stack-clash-protection -fstack-check=no -fno-stack-check -Wl,-O1 -Wl,--as-needed'
 * LDFLAGS='-Wl,-O1 -Wl,--as-needed'
 * MAKEOPTS='-j12 -l12'
 * gcc (Gentoo 10.1.0-r1 p2) 10.1.0
 * g++ (Gentoo 10.1.0-r1 p2) 10.1.0
 * GNU gold (Gentoo 2.34 p4 2.34.0) 1.16
 * Linux rescue 5.4.36 #1 SMP Thu Apr 30 04:38:28 UTC 2020 x86_64 AMD Ryzen 5 3600 6-Core Processor AuthenticAMD GNU/Linux
virtual/opengl: 7 seconds average for 17 merges
2020-05-16T01:01:44 >>> virtual/opengl: 5 seconds
2020-05-16T21:09:49 >>> virtual/opengl: 8 seconds
2020-05-20T01:45:07 >>> virtual/opengl: 5 seconds
2020-05-23T11:32:34 >>> virtual/opengl: 9 seconds
2020-05-25T18:46:18 >>> virtual/opengl: 9 seconds
2020-05-25T20:08:26 >>> virtual/opengl: 9 seconds
2020-05-26T14:31:28 >>> virtual/opengl: 6 seconds
2020-05-27T02:08:00 >>> virtual/opengl: 6 seconds
2020-05-27T03:30:58 >>> virtual/opengl: 16 seconds
2020-05-29T02:14:53 >>> virtual/opengl: 9 seconds
2020-05-30T12:46:47 >>> virtual/opengl: 10 seconds
2020-06-01T02:03:45 >>> virtual/opengl: 10 seconds
2020-06-12T01:59:58 >>> virtual/opengl: 5 seconds
2020-06-13T03:34:49 >>> virtual/opengl: 7 seconds
2020-06-13T20:38:50 >>> virtual/opengl: 6 seconds
2020-06-14T04:50:48 >>> virtual/opengl: 8 seconds
2020-06-15T14:15:58 >>> virtual/opengl: 4 seconds
]0;emerge 13:52:03 193|895 opengl 00:06 (root@rescue)>>> Unpacking source...
>>> Source unpacked in /tmp/portage/virtual/opengl-7.0-r2/work
>>> Preparing source in /tmp/portage/virtual/opengl-7.0-r2/work ...
>>> Source prepared.
>>> Configuring source in /tmp/portage/virtual/opengl-7.0-r2/work ...
>>> Source configured.
>>> Compiling source in /tmp/portage/virtual/opengl-7.0-r2/work ...
>>> Source compiled.
>>> Test phase [not enabled]: virtual/opengl-7.0-r2

>>> Install virtual/opengl-7.0-r2 into /tmp/portage/virtual/opengl-7.0-r2/image/
>>> Completed installing virtual/opengl-7.0-r2 into /tmp/portage/virtual/opengl-7.0-r2/image/

 * Final size of build directory: 4 KiB
 * Final size of installed tree:  4 KiB

Parallel BZIP2 v1.1.13 [Dec 18, 2015]
By: Jeff Gilchrist [http://compression.ca]
Major contributions: Yavor Nikolov [http://javornikolov.wordpress.com]
Uses libbzip2 by Julian Seward

         # CPUs: 10
   Load Average: 2.10
 BWT Block Size: 200 KB
File Block Size: 900 KB
 Maximum Memory: 1024 MB
-------------------------------------------
         File #: 1 of 1
     Input Name: compressme
    Output Name: compressme.bz2

     Input Size: 3895 bytes
Compressing data (no threads)...
Completed: 100%                 Output Size: 918 bytes
-------------------------------------------

     Wall Clock: 0.001014 seconds
 * checking 0 files for package collisions
>>> Merging virtual/opengl-7.0-r2 to /
 * removing unneeded *.la files
>>> Safely unmerging already-installed instance...
!!! File Not Found: '/etc/env.d/99lcdfilter'
>>> Original instance of package unmerged safely.
>>> virtual/opengl-7.0-r2 merged.
!!! File Not Found: '/etc/env.d/99lcdfilter'
