 * Package:    virtual/perl-Sys-Syslog-0.350.0-r3
 * Repository: gentoo
 * Maintainer: perl@gentoo.org
 * USE:        abi_x86_64 amd64 elibc_glibc kernel_linux userland_GNU
 * FEATURES:   network-sandbox preserve-libs sandbox userpriv usersandbox
 * FEATURES='assume-digests binpkg-docompress binpkg-dostrip binpkg-logs buildpkg cgroup compress-index config-protect-if-modified distlocks ebuild-locks fixlafiles ipc-sandbox merge-sync multilib-strict network-sandbox news nodoc parallel-fetch pid-sandbox preserve-libs qa-unresolved-soname-deps sandbox sfperms strict strict-keepdir unknown-features-warn unmerge-logs unmerge-orphans userfetch userpriv usersandbox usersync xattr'
 * CFLAGS='-march=znver2 -Ofast -pipe -g0 -fno-common -fgraphite-identity -floop-interchange -floop-nest-optimize -floop-parallelize-all -ftree-parallelize-loops=12 -ftree-vectorize -fdevirtualize-at-ltrans -fipa-pta -fno-semantic-interposition -flto=12 -fno-plt -falign-functions=32 -fno-stack-protector -fno-stack-clash-protection -fstack-check=no -fno-stack-check -fuse-linker-plugin -Wl,-O4,--sort-common,--as-needed,-z,norelro,-z,now,-lgomp,-lpthread -s'
 * CXXFLAGS='-march=znver2 -Ofast -pipe -g0 -fno-common -fgraphite-identity -floop-interchange -floop-nest-optimize -floop-parallelize-all -ftree-parallelize-loops=12 -ftree-vectorize -fdevirtualize-at-ltrans -fipa-pta -fno-semantic-interposition -flto=12 -fno-plt -falign-functions=32 -fno-stack-protector -fno-stack-clash-protection -fstack-check=no -fno-stack-check -fuse-linker-plugin -Wl,-O4,--sort-common,--as-needed,-z,norelro,-z,now,-lgomp,-lpthread -s'
 * FFLAGS='-march=znver2 -Ofast -pipe -g0 -fno-common -fgraphite-identity -floop-interchange -floop-nest-optimize -floop-parallelize-all -ftree-parallelize-loops=12 -ftree-vectorize -fdevirtualize-at-ltrans -fipa-pta -fno-semantic-interposition -flto=12 -fno-plt -falign-functions=32 -fno-stack-protector -fno-stack-clash-protection -fstack-check=no -fno-stack-check -fuse-linker-plugin -Wl,-O4,--sort-common,--as-needed,-z,norelro,-z,now,-lgomp,-lpthread -s'
 * FCFLAGS='-march=znver2 -Ofast -pipe -g0 -fno-common -fgraphite-identity -floop-interchange -floop-nest-optimize -floop-parallelize-all -ftree-parallelize-loops=12 -ftree-vectorize -fdevirtualize-at-ltrans -fipa-pta -fno-semantic-interposition -flto=12 -fno-plt -falign-functions=32 -fno-stack-protector -fno-stack-clash-protection -fstack-check=no -fno-stack-check -fuse-linker-plugin -Wl,-O4,--sort-common,--as-needed,-z,norelro,-z,now,-lgomp,-lpthread -s'
 * F77FLAGS='-march=znver2 -Ofast -pipe -g0 -fno-common -fgraphite-identity -floop-interchange -floop-nest-optimize -floop-parallelize-all -ftree-parallelize-loops=12 -ftree-vectorize -fdevirtualize-at-ltrans -fipa-pta -fno-semantic-interposition -flto=12 -fno-plt -falign-functions=32 -fno-stack-protector -fno-stack-clash-protection -fstack-check=no -fno-stack-check -fuse-linker-plugin -Wl,-O4,--sort-common,--as-needed,-z,norelro,-z,now,-lgomp,-lpthread -s'
 * LDFLAGS='-Wl,-O4,--sort-common,--as-needed,-z,norelro,-z,now,-lgomp,-lpthread -s -march=znver2 -Ofast -pipe -g0 -fno-common -fgraphite-identity -floop-interchange -floop-nest-optimize -floop-parallelize-all -ftree-parallelize-loops=12 -ftree-vectorize -fdevirtualize-at-ltrans -fipa-pta -fno-semantic-interposition -flto=12 -fno-plt -falign-functions=32 -fno-stack-protector -fno-stack-clash-protection -fstack-check=no -fno-stack-check -fuse-linker-plugin'
 * MAKEOPTS='-j12 -l12'
 * gcc () 11.0.0 20200616 (experimental)
 * g++ () 11.0.0 20200616 (experimental)
 * GNU ld (Gentoo 2.34 p4) 2.34.0
 * Linux rescue 5.4.36 #1 SMP Thu Apr 30 04:38:28 UTC 2020 x86_64 AMD Ryzen 5 3600 6-Core Processor AuthenticAMD GNU/Linux
virtual/perl-Sys-Syslog: 7 seconds average for 20 merges
2020-05-20T07:35:29 >>> virtual/perl-Sys-Syslog: 4 seconds
2020-05-21T06:42:14 >>> virtual/perl-Sys-Syslog: 5 seconds
2020-05-23T11:37:58 >>> virtual/perl-Sys-Syslog: 8 seconds
2020-05-24T05:16:07 >>> virtual/perl-Sys-Syslog: 5 seconds
2020-05-24T16:41:16 >>> virtual/perl-Sys-Syslog: 5 seconds
2020-05-24T23:59:56 >>> virtual/perl-Sys-Syslog: 9 seconds
2020-05-25T18:40:24 >>> virtual/perl-Sys-Syslog: 9 seconds
2020-05-25T20:13:22 >>> virtual/perl-Sys-Syslog: 9 seconds
2020-05-26T14:17:11 >>> virtual/perl-Sys-Syslog: 6 seconds
2020-05-27T01:54:48 >>> virtual/perl-Sys-Syslog: 5 seconds
2020-05-27T03:18:42 >>> virtual/perl-Sys-Syslog: 9 seconds
2020-05-29T01:58:32 >>> virtual/perl-Sys-Syslog: 9 seconds
2020-05-30T13:04:37 >>> virtual/perl-Sys-Syslog: 13 seconds
2020-06-01T02:07:40 >>> virtual/perl-Sys-Syslog: 12 seconds
2020-06-12T01:45:35 >>> virtual/perl-Sys-Syslog: 5 seconds
2020-06-13T03:40:01 >>> virtual/perl-Sys-Syslog: 6 seconds
2020-06-13T20:24:41 >>> virtual/perl-Sys-Syslog: 5 seconds
2020-06-14T05:06:00 >>> virtual/perl-Sys-Syslog: 14 seconds
2020-06-15T14:03:18 >>> virtual/perl-Sys-Syslog: 5 seconds
2020-06-16T14:01:32 >>> virtual/perl-Sys-Syslog: 7 seconds
]0;emerge 03:23:56 142|566 perl-Sys-Syslog 00:09 (root@rescue)>>> Unpacking source...
>>> Source unpacked in /tmp/portage/virtual/perl-Sys-Syslog-0.350.0-r3/work
>>> Preparing source in /tmp/portage/virtual/perl-Sys-Syslog-0.350.0-r3/work ...
>>> Source prepared.
>>> Configuring source in /tmp/portage/virtual/perl-Sys-Syslog-0.350.0-r3/work ...
>>> Source configured.
>>> Compiling source in /tmp/portage/virtual/perl-Sys-Syslog-0.350.0-r3/work ...
>>> Source compiled.
>>> Test phase [not enabled]: virtual/perl-Sys-Syslog-0.350.0-r3

>>> Install virtual/perl-Sys-Syslog-0.350.0-r3 into /tmp/portage/virtual/perl-Sys-Syslog-0.350.0-r3/image/
>>> Completed installing virtual/perl-Sys-Syslog-0.350.0-r3 into /tmp/portage/virtual/perl-Sys-Syslog-0.350.0-r3/image/

 * Final size of build directory: 4 KiB
 * Final size of installed tree:  4 KiB

Parallel BZIP2 v1.1.13 [Dec 18, 2015]
By: Jeff Gilchrist [http://compression.ca]
Major contributions: Yavor Nikolov [http://javornikolov.wordpress.com]
Uses libbzip2 by Julian Seward

         # CPUs: 11
   Load Average: 1.44
 BWT Block Size: 200 KB
File Block Size: 900 KB
 Maximum Memory: 1024 MB
-------------------------------------------
         File #: 1 of 1
     Input Name: compressme
    Output Name: compressme.bz2

     Input Size: 3895 bytes
Compressing data (no threads)...
Completed: 100%                 Output Size: 918 bytes
-------------------------------------------

     Wall Clock: 0.000871 seconds
 * checking 0 files for package collisions
>>> Merging virtual/perl-Sys-Syslog-0.350.0-r3 to /
 * removing unneeded *.la files
>>> Safely unmerging already-installed instance...
>>> Original instance of package unmerged safely.
>>> virtual/perl-Sys-Syslog-0.350.0-r3 merged.
