 * Package:    virtual/perl-Module-Metadata-1.0.36
 * Repository: gentoo
 * Maintainer: perl@gentoo.org
 * USE:        abi_x86_64 amd64 elibc_glibc kernel_linux userland_GNU
 * FEATURES:   ccache network-sandbox preserve-libs userpriv
 * /etc/portage/package.cflags/ltoworkarounds.conf -> */*: *FLAGS+=-Wl,-O4 *FLAGS-=-Wl,-O1
 * FEATURES='assume-digests binpkg-docompress binpkg-dostrip binpkg-logs buildpkg ccache cgroup compress-index config-protect-if-modified distlocks ebuild-locks fixlafiles merge-sync multilib-strict network-sandbox news nodoc parallel-fetch preserve-libs qa-unresolved-soname-deps sfperms strict strict-keepdir unknown-features-warn unmerge-logs unmerge-orphans userfetch userpriv usersync xattr'
 * CFLAGS='-O2 -pipe -Wl,-O4 -Wl,-O4,--sort-common,--as-needed,-z,norelro,-z,now'
 * CXXFLAGS='-O2 -pipe -Wl,-O4 -Wl,-O4,--sort-common,--as-needed,-z,norelro,-z,now'
 * FFLAGS='-O2 -pipe -Wl,-O4 -Wl,-O4,--sort-common,--as-needed,-z,norelro,-z,now'
 * FCFLAGS='-O2 -pipe -Wl,-O4 -Wl,-O4,--sort-common,--as-needed,-z,norelro,-z,now'
 * F77FLAGS='-O2 -pipe -Wl,-O4 -Wl,-O4,--sort-common,--as-needed,-z,norelro,-z,now'
 * LDFLAGS='-Wl,-O4,--sort-common,--as-needed,-z,norelro,-z,now'
 * MAKEOPTS='-j12 -l12'
 * gcc (Gentoo 11.0.0_pre9999 p1, commit 184c21bf1cd04a108ed9bd04635e7d57ac39f616) 11.0.0 20200611 (experimental)
 * g++ (Gentoo 11.0.0_pre9999 p1, commit 184c21bf1cd04a108ed9bd04635e7d57ac39f616) 11.0.0 20200611 (experimental)
 * GNU ld (Gentoo 2.34 p4) 2.34.0
 * Linux rescue 5.4.36 #1 SMP Thu Apr 30 04:38:28 UTC 2020 x86_64 AMD Ryzen 5 3600 6-Core Processor AuthenticAMD GNU/Linux
virtual/perl-Module-Metadata: 7 seconds average for 15 merges
2020-05-15T03:41:41 >>> virtual/perl-Module-Metadata: 5 seconds
2020-05-16T21:23:00 >>> virtual/perl-Module-Metadata: 7 seconds
2020-05-20T01:20:01 >>> virtual/perl-Module-Metadata: 6 seconds
2020-05-21T06:32:21 >>> virtual/perl-Module-Metadata: 5 seconds
2020-05-23T11:37:44 >>> virtual/perl-Module-Metadata: 9 seconds
2020-05-24T23:53:38 >>> virtual/perl-Module-Metadata: 9 seconds
2020-05-25T18:32:30 >>> virtual/perl-Module-Metadata: 10 seconds
2020-05-25T20:17:21 >>> virtual/perl-Module-Metadata: 10 seconds
2020-05-26T14:16:53 >>> virtual/perl-Module-Metadata: 5 seconds
2020-05-27T01:55:00 >>> virtual/perl-Module-Metadata: 6 seconds
2020-05-27T03:38:01 >>> virtual/perl-Module-Metadata: 9 seconds
2020-05-29T02:19:00 >>> virtual/perl-Module-Metadata: 8 seconds
2020-05-30T13:02:32 >>> virtual/perl-Module-Metadata: 9 seconds
2020-06-01T02:11:29 >>> virtual/perl-Module-Metadata: 12 seconds
2020-06-12T01:48:07 >>> virtual/perl-Module-Metadata: 5 seconds
]0;emerge 03:34:43 195|907 perl-Module-Metadata 00:09 (root@rescue)kemerge 03:34:43 195|907 perl-Module-Metadata 00:09 (root@rescue)\>>> Unpacking source...
>>> Source unpacked in /tmp/portage/virtual/perl-Module-Metadata-1.0.36/work
>>> Preparing source in /tmp/portage/virtual/perl-Module-Metadata-1.0.36/work ...
>>> Source prepared.
>>> Configuring source in /tmp/portage/virtual/perl-Module-Metadata-1.0.36/work ...
>>> Source configured.
>>> Compiling source in /tmp/portage/virtual/perl-Module-Metadata-1.0.36/work ...
>>> Source compiled.
>>> Test phase [not enabled]: virtual/perl-Module-Metadata-1.0.36

>>> Install virtual/perl-Module-Metadata-1.0.36 into /tmp/portage/virtual/perl-Module-Metadata-1.0.36/image/
>>> Completed installing virtual/perl-Module-Metadata-1.0.36 into /tmp/portage/virtual/perl-Module-Metadata-1.0.36/image/

 * Final size of build directory: 4 KiB
 * Final size of installed tree:  4 KiB

 * checking 0 files for package collisions
>>> Merging virtual/perl-Module-Metadata-1.0.36 to /
 * removing unneeded *.la files
>>> Safely unmerging already-installed instance...
>>> Original instance of package unmerged safely.
>>> virtual/perl-Module-Metadata-1.0.36 merged.
