 * Package:    virtual/perl-ExtUtils-Install-2.140.0-r2
 * Repository: gentoo
 * Maintainer: perl@gentoo.org
 * USE:        abi_x86_64 amd64 elibc_glibc kernel_linux userland_GNU
 * FEATURES:   ccache network-sandbox preserve-libs sandbox userpriv usersandbox
 * FEATURES='assume-digests binpkg-docompress binpkg-dostrip binpkg-logs buildpkg ccache cgroup compress-index config-protect-if-modified distlocks ebuild-locks fixlafiles ipc-sandbox merge-sync multilib-strict network-sandbox news nodoc parallel-fetch pid-sandbox preserve-libs qa-unresolved-soname-deps sandbox sfperms strict strict-keepdir unknown-features-warn unmerge-logs unmerge-orphans userfetch userpriv usersandbox usersync xattr'
 * CFLAGS='-march=znver2 -O2 -pipe -g0 -falign-functions=32 -fno-stack-protector -fno-stack-clash-protection -fstack-check=no -fno-stack-check -Wl,-O1,--sort-common,--as-needed,-z,norelro,-z,now'
 * CXXFLAGS='-march=znver2 -O2 -pipe -g0 -falign-functions=32 -fno-stack-protector -fno-stack-clash-protection -fstack-check=no -fno-stack-check -Wl,-O1,--sort-common,--as-needed,-z,norelro,-z,now'
 * FFLAGS='-march=znver2 -O2 -pipe -g0 -falign-functions=32 -fno-stack-protector -fno-stack-clash-protection -fstack-check=no -fno-stack-check -Wl,-O1,--sort-common,--as-needed,-z,norelro,-z,now'
 * FCFLAGS='-march=znver2 -O2 -pipe -g0 -falign-functions=32 -fno-stack-protector -fno-stack-clash-protection -fstack-check=no -fno-stack-check -Wl,-O1,--sort-common,--as-needed,-z,norelro,-z,now'
 * F77FLAGS='-march=znver2 -O2 -pipe -g0 -falign-functions=32 -fno-stack-protector -fno-stack-clash-protection -fstack-check=no -fno-stack-check -Wl,-O1,--sort-common,--as-needed,-z,norelro,-z,now'
 * LDFLAGS='-Wl,-O1,--sort-common,--as-needed,-z,norelro,-z,now'
 * MAKEOPTS='-j12 -l12'
 * gcc (Gentoo 11.0.0_pre9999 p1, commit 184c21bf1cd04a108ed9bd04635e7d57ac39f616) 11.0.0 20200611 (experimental)
 * g++ (Gentoo 11.0.0_pre9999 p1, commit 184c21bf1cd04a108ed9bd04635e7d57ac39f616) 11.0.0 20200611 (experimental)
 * GNU ld (Gentoo 2.34 p4) 2.34.0
 * Linux rescue 5.4.36 #1 SMP Thu Apr 30 04:38:28 UTC 2020 x86_64 AMD Ryzen 5 3600 6-Core Processor AuthenticAMD GNU/Linux
virtual/perl-ExtUtils-Install: 7 seconds average for 17 merges
2020-05-15T03:39:44 >>> virtual/perl-ExtUtils-Install: 5 seconds
2020-05-16T21:24:45 >>> virtual/perl-ExtUtils-Install: 8 seconds
2020-05-20T01:19:15 >>> virtual/perl-ExtUtils-Install: 6 seconds
2020-05-21T06:41:30 >>> virtual/perl-ExtUtils-Install: 4 seconds
2020-05-23T11:32:07 >>> virtual/perl-ExtUtils-Install: 9 seconds
2020-05-24T23:55:40 >>> virtual/perl-ExtUtils-Install: 10 seconds
2020-05-25T18:31:01 >>> virtual/perl-ExtUtils-Install: 10 seconds
2020-05-25T20:13:31 >>> virtual/perl-ExtUtils-Install: 9 seconds
2020-05-26T14:15:02 >>> virtual/perl-ExtUtils-Install: 6 seconds
2020-05-27T01:53:01 >>> virtual/perl-ExtUtils-Install: 5 seconds
2020-05-27T03:25:33 >>> virtual/perl-ExtUtils-Install: 9 seconds
2020-05-29T02:14:45 >>> virtual/perl-ExtUtils-Install: 8 seconds
2020-05-30T12:55:18 >>> virtual/perl-ExtUtils-Install: 11 seconds
2020-06-01T01:56:00 >>> virtual/perl-ExtUtils-Install: 11 seconds
2020-06-12T01:47:28 >>> virtual/perl-ExtUtils-Install: 5 seconds
2020-06-13T03:37:33 >>> virtual/perl-ExtUtils-Install: 6 seconds
2020-06-13T20:25:33 >>> virtual/perl-ExtUtils-Install: 5 seconds
]0;emerge 05:02:41 255|887 perl-ExtUtils-Install 00:05 (root@rescue)>>> Unpacking source...
>>> Source unpacked in /tmp/portage/virtual/perl-ExtUtils-Install-2.140.0-r2/work
>>> Preparing source in /tmp/portage/virtual/perl-ExtUtils-Install-2.140.0-r2/work ...
>>> Source prepared.
>>> Configuring source in /tmp/portage/virtual/perl-ExtUtils-Install-2.140.0-r2/work ...
>>> Source configured.
>>> Compiling source in /tmp/portage/virtual/perl-ExtUtils-Install-2.140.0-r2/work ...
>>> Source compiled.
>>> Test phase [not enabled]: virtual/perl-ExtUtils-Install-2.140.0-r2

>>> Install virtual/perl-ExtUtils-Install-2.140.0-r2 into /tmp/portage/virtual/perl-ExtUtils-Install-2.140.0-r2/image/
>>> Completed installing virtual/perl-ExtUtils-Install-2.140.0-r2 into /tmp/portage/virtual/perl-ExtUtils-Install-2.140.0-r2/image/

 * Final size of build directory: 4 KiB
 * Final size of installed tree:  4 KiB

Parallel BZIP2 v1.1.13 [Dec 18, 2015]
By: Jeff Gilchrist [http://compression.ca]
Major contributions: Yavor Nikolov [http://javornikolov.wordpress.com]
Uses libbzip2 by Julian Seward

         # CPUs: 9
   Load Average: 2.50
 BWT Block Size: 200 KB
File Block Size: 900 KB
 Maximum Memory: 1024 MB
-------------------------------------------
         File #: 1 of 1
     Input Name: compressme
    Output Name: compressme.bz2

     Input Size: 3895 bytes
Compressing data (no threads)...
Completed: 100%                 Output Size: 918 bytes
-------------------------------------------

     Wall Clock: 0.000785 seconds
 * checking 0 files for package collisions
>>> Merging virtual/perl-ExtUtils-Install-2.140.0-r2 to /
 * removing unneeded *.la files
>>> Safely unmerging already-installed instance...
!!! File Not Found: '/etc/env.d/99lcdfilter'
>>> Original instance of package unmerged safely.
>>> virtual/perl-ExtUtils-Install-2.140.0-r2 merged.
!!! File Not Found: '/etc/env.d/99lcdfilter'
