 * Package:    virtual/libintl-0-r2
 * Repository: gentoo
 * Maintainer: prefix@gentoo.org
 * USE:        abi_x86_64 amd64 elibc_glibc kernel_linux userland_GNU
 * FEATURES:   network-sandbox preserve-libs sandbox userpriv usersandbox
 * FEATURES='assume-digests binpkg-docompress binpkg-dostrip binpkg-logs binpkg-multi-instance buildpkg cgroup compress-index config-protect-if-modified distlocks downgrade-backup fixlafiles ipc-sandbox merge-sync multilib-strict network-sandbox news nodoc parallel-fetch parallel-install pid-sandbox preserve-libs qa-unresolved-soname-deps sandbox sfperms strict strict-keepdir unknown-features-warn unmerge-backup unmerge-logs unmerge-orphans userfetch userpriv usersandbox usersync xattr'
 * CFLAGS='-march=native -O3 -fgraphite-identity -floop-nest-optimize -fdevirtualize-at-ltrans -fipa-pta -fno-semantic-interposition -flto=12 -fno-plt -fno-math-errno -fno-trapping-math -fuse-linker-plugin -pipe -g0 -falign-functions=32 -Wl,-O1 -Wl,--as-needed -Wl,--hash-style=gnu,-z,norelro,--as-needed'
 * CXXFLAGS='-march=native -O3 -fgraphite-identity -floop-nest-optimize -fdevirtualize-at-ltrans -fipa-pta -fno-semantic-interposition -flto=12 -fno-plt -fno-math-errno -fno-trapping-math -fuse-linker-plugin -pipe -g0 -falign-functions=32 -Wl,-O1 -Wl,--as-needed -Wl,--hash-style=gnu,-z,norelro,--as-needed'
 * FFLAGS='-march=native -O3 -fgraphite-identity -floop-nest-optimize -fdevirtualize-at-ltrans -fipa-pta -fno-semantic-interposition -flto=12 -fno-plt -fno-math-errno -fno-trapping-math -fuse-linker-plugin -pipe -g0 -falign-functions=32 -Wl,-O1 -Wl,--as-needed -Wl,--hash-style=gnu,-z,norelro,--as-needed'
 * FCFLAGS='-march=native -O3 -fgraphite-identity -floop-nest-optimize -fdevirtualize-at-ltrans -fipa-pta -fno-semantic-interposition -flto=12 -fno-plt -fno-math-errno -fno-trapping-math -fuse-linker-plugin -pipe -g0 -falign-functions=32 -Wl,-O1 -Wl,--as-needed -Wl,--hash-style=gnu,-z,norelro,--as-needed'
 * F77FLAGS='-march=native -O3 -fgraphite-identity -floop-nest-optimize -fdevirtualize-at-ltrans -fipa-pta -fno-semantic-interposition -flto=12 -fno-plt -fno-math-errno -fno-trapping-math -fuse-linker-plugin -pipe -g0 -falign-functions=32 -Wl,-O1 -Wl,--as-needed -Wl,--hash-style=gnu,-z,norelro,--as-needed'
 * LDFLAGS='-Wl,-O1 -Wl,--as-needed -Wl,--hash-style=gnu,-z,norelro,--as-needed -march=native -O3 -fgraphite-identity -floop-nest-optimize -fdevirtualize-at-ltrans -fipa-pta -fno-semantic-interposition -flto=12 -fno-plt -fno-math-errno -fno-trapping-math -fuse-linker-plugin -pipe -g0 -falign-functions=32'
 * MAKEOPTS='-j12 -l12'
 * gcc (Gentoo 11.0.0_pre9999 p1, commit 584d52b088f9fcf78704b504c3f1f07e17c1cded) 11.0.0 20200523 (experimental)
 * g++ (Gentoo 11.0.0_pre9999 p1, commit 584d52b088f9fcf78704b504c3f1f07e17c1cded) 11.0.0 20200523 (experimental)
 * GNU ld (Gentoo 2.34 p4) 2.34.0
 * Linux ryzen.gnum.org 5.4.36 #1 SMP Thu Apr 30 04:38:28 UTC 2020 x86_64 AMD Ryzen 5 3600 6-Core Processor AuthenticAMD GNU/Linux
virtual/libintl: 2 minutes, 13 seconds average for 15 merges
2020-05-15T03:26:36 >>> virtual/libintl: 6 seconds
2020-05-16T18:57:33 >>> virtual/libintl: 7 seconds
2020-05-16T20:33:15 >>> virtual/libintl: 7 seconds
2020-05-20T00:55:54 >>> virtual/libintl: 1 minute, 39 seconds
2020-05-21T05:46:06 >>> virtual/libintl: 6 seconds
2020-05-22T01:52:49 >>> virtual/libintl: 5 minutes, 54 seconds
2020-05-22T02:39:06 >>> virtual/libintl: 2 minutes, 22 seconds
2020-05-22T02:58:43 >>> virtual/libintl: 2 minutes, 10 seconds
2020-05-22T03:03:56 >>> virtual/libintl: 6 minutes, 39 seconds
2020-05-24T05:06:52 >>> virtual/libintl: 10 seconds
2020-05-24T21:07:08 >>> virtual/libintl: 7 seconds
2020-05-24T22:10:21 >>> virtual/libintl: 8 seconds
2020-05-24T23:19:26 >>> virtual/libintl: 9 minutes
2020-05-25T03:01:16 >>> virtual/libintl: 1 minute, 13 seconds
2020-05-25T14:37:18 >>> virtual/libintl: 3 minutes, 33 seconds
]0;emerge 18:11:16 6|980 libintl 04:35 (root@ryzen.gnum.org)kemerge 18:11:16 6|980 libintl 04:35 (root@ryzen.gnum.org)\>>> Unpacking source...
>>> Source unpacked in /tmp/portage/virtual/libintl-0-r2/work
>>> Preparing source in /tmp/portage/virtual/libintl-0-r2/work ...
>>> Source prepared.
>>> Configuring source in /tmp/portage/virtual/libintl-0-r2/work ...
>>> Source configured.
>>> Compiling source in /tmp/portage/virtual/libintl-0-r2/work ...
>>> Source compiled.
>>> Test phase [not enabled]: virtual/libintl-0-r2

>>> Install virtual/libintl-0-r2 into /tmp/portage/virtual/libintl-0-r2/image/
>>> Completed installing virtual/libintl-0-r2 into /tmp/portage/virtual/libintl-0-r2/image/

 * Final size of build directory: 4 KiB
 * Final size of installed tree:  4 KiB

./
>>> Done.
 * checking 0 files for package collisions
>>> Merging virtual/libintl-0-r2 to /
 * removing unneeded *.la files
>>> Safely unmerging already-installed instance...
>>> Original instance of package unmerged safely.
>>> virtual/libintl-0-r2 merged.
