 * Package:    virtual/perl-Parse-CPAN-Meta-2.150.10-r3
 * Repository: gentoo
 * Maintainer: perl@gentoo.org
 * USE:        abi_x86_64 amd64 elibc_glibc kernel_linux userland_GNU
 * FEATURES:   ccache network-sandbox preserve-libs sandbox userpriv usersandbox
 * FEATURES='assume-digests binpkg-docompress binpkg-dostrip binpkg-logs buildpkg ccache cgroup compress-index config-protect-if-modified distlocks ebuild-locks fixlafiles ipc-sandbox merge-sync multilib-strict network-sandbox news nodoc parallel-fetch pid-sandbox preserve-libs qa-unresolved-soname-deps sandbox sfperms strict strict-keepdir unknown-features-warn unmerge-logs unmerge-orphans userfetch userpriv usersandbox usersync xattr'
 * CFLAGS='-march=znver2 -O2 -pipe -g0 -falign-functions=32 -fno-stack-protector -fno-stack-clash-protection -fstack-check=no -fno-stack-check -Wl,-O1,--sort-common,--as-needed,-z,norelro,-z,now'
 * CXXFLAGS='-march=znver2 -O2 -pipe -g0 -falign-functions=32 -fno-stack-protector -fno-stack-clash-protection -fstack-check=no -fno-stack-check -Wl,-O1,--sort-common,--as-needed,-z,norelro,-z,now'
 * FFLAGS='-march=znver2 -O2 -pipe -g0 -falign-functions=32 -fno-stack-protector -fno-stack-clash-protection -fstack-check=no -fno-stack-check -Wl,-O1,--sort-common,--as-needed,-z,norelro,-z,now'
 * FCFLAGS='-march=znver2 -O2 -pipe -g0 -falign-functions=32 -fno-stack-protector -fno-stack-clash-protection -fstack-check=no -fno-stack-check -Wl,-O1,--sort-common,--as-needed,-z,norelro,-z,now'
 * F77FLAGS='-march=znver2 -O2 -pipe -g0 -falign-functions=32 -fno-stack-protector -fno-stack-clash-protection -fstack-check=no -fno-stack-check -Wl,-O1,--sort-common,--as-needed,-z,norelro,-z,now'
 * LDFLAGS='-Wl,-O1,--sort-common,--as-needed,-z,norelro,-z,now'
 * MAKEOPTS='-j12 -l12'
 * gcc (Gentoo 11.0.0_pre9999 p1, commit 184c21bf1cd04a108ed9bd04635e7d57ac39f616) 11.0.0 20200611 (experimental)
 * g++ (Gentoo 11.0.0_pre9999 p1, commit 184c21bf1cd04a108ed9bd04635e7d57ac39f616) 11.0.0 20200611 (experimental)
 * GNU ld (Gentoo 2.34 p4) 2.34.0
 * Linux rescue 5.4.36 #1 SMP Thu Apr 30 04:38:28 UTC 2020 x86_64 AMD Ryzen 5 3600 6-Core Processor AuthenticAMD GNU/Linux
virtual/perl-Parse-CPAN-Meta: 7 seconds average for 17 merges
2020-05-15T03:38:50 >>> virtual/perl-Parse-CPAN-Meta: 5 seconds
2020-05-16T20:55:59 >>> virtual/perl-Parse-CPAN-Meta: 8 seconds
2020-05-20T01:19:43 >>> virtual/perl-Parse-CPAN-Meta: 6 seconds
2020-05-21T06:41:39 >>> virtual/perl-Parse-CPAN-Meta: 5 seconds
2020-05-23T11:34:08 >>> virtual/perl-Parse-CPAN-Meta: 10 seconds
2020-05-24T23:51:46 >>> virtual/perl-Parse-CPAN-Meta: 9 seconds
2020-05-25T18:38:23 >>> virtual/perl-Parse-CPAN-Meta: 11 seconds
2020-05-25T20:12:09 >>> virtual/perl-Parse-CPAN-Meta: 9 seconds
2020-05-26T14:15:32 >>> virtual/perl-Parse-CPAN-Meta: 6 seconds
2020-05-27T01:53:30 >>> virtual/perl-Parse-CPAN-Meta: 6 seconds
2020-05-27T03:30:27 >>> virtual/perl-Parse-CPAN-Meta: 10 seconds
2020-05-29T02:19:08 >>> virtual/perl-Parse-CPAN-Meta: 8 seconds
2020-05-30T12:58:45 >>> virtual/perl-Parse-CPAN-Meta: 10 seconds
2020-06-01T02:05:08 >>> virtual/perl-Parse-CPAN-Meta: 10 seconds
2020-06-12T01:47:48 >>> virtual/perl-Parse-CPAN-Meta: 4 seconds
2020-06-13T03:34:27 >>> virtual/perl-Parse-CPAN-Meta: 9 seconds
2020-06-13T20:25:52 >>> virtual/perl-Parse-CPAN-Meta: 5 seconds
]0;emerge 04:52:36 200|887 perl-Parse-CPAN-Meta 00:06 (root@rescue)>>> Unpacking source...
>>> Source unpacked in /tmp/portage/virtual/perl-Parse-CPAN-Meta-2.150.10-r3/work
>>> Preparing source in /tmp/portage/virtual/perl-Parse-CPAN-Meta-2.150.10-r3/work ...
>>> Source prepared.
>>> Configuring source in /tmp/portage/virtual/perl-Parse-CPAN-Meta-2.150.10-r3/work ...
>>> Source configured.
>>> Compiling source in /tmp/portage/virtual/perl-Parse-CPAN-Meta-2.150.10-r3/work ...
>>> Source compiled.
>>> Test phase [not enabled]: virtual/perl-Parse-CPAN-Meta-2.150.10-r3

>>> Install virtual/perl-Parse-CPAN-Meta-2.150.10-r3 into /tmp/portage/virtual/perl-Parse-CPAN-Meta-2.150.10-r3/image/
>>> Completed installing virtual/perl-Parse-CPAN-Meta-2.150.10-r3 into /tmp/portage/virtual/perl-Parse-CPAN-Meta-2.150.10-r3/image/

 * Final size of build directory: 4 KiB
 * Final size of installed tree:  4 KiB

Parallel BZIP2 v1.1.13 [Dec 18, 2015]
By: Jeff Gilchrist [http://compression.ca]
Major contributions: Yavor Nikolov [http://javornikolov.wordpress.com]
Uses libbzip2 by Julian Seward

         # CPUs: 10
   Load Average: 1.66
 BWT Block Size: 200 KB
File Block Size: 900 KB
 Maximum Memory: 1024 MB
-------------------------------------------
         File #: 1 of 1
     Input Name: compressme
    Output Name: compressme.bz2

     Input Size: 3895 bytes
Compressing data (no threads)...
Completed: 100%                 Output Size: 918 bytes
-------------------------------------------

     Wall Clock: 0.000998 seconds
 * checking 0 files for package collisions
>>> Merging virtual/perl-Parse-CPAN-Meta-2.150.10-r3 to /
 * removing unneeded *.la files
>>> Safely unmerging already-installed instance...
!!! File Not Found: '/etc/env.d/99lcdfilter'
>>> Original instance of package unmerged safely.
>>> virtual/perl-Parse-CPAN-Meta-2.150.10-r3 merged.
!!! File Not Found: '/etc/env.d/99lcdfilter'
