 * Package:    virtual/perl-ExtUtils-ParseXS-3.400.0
 * Repository: gentoo
 * Maintainer: perl@gentoo.org
 * USE:        abi_x86_64 amd64 elibc_glibc kernel_linux userland_GNU
 * FEATURES:   network-sandbox preserve-libs sandbox userpriv usersandbox
 * FEATURES='assume-digests binpkg-docompress binpkg-dostrip binpkg-logs buildpkg cgroup compress-index config-protect-if-modified distlocks ebuild-locks fixlafiles ipc-sandbox merge-sync multilib-strict network-sandbox news nodoc parallel-fetch pid-sandbox preserve-libs qa-unresolved-soname-deps sandbox sfperms strict strict-keepdir unknown-features-warn unmerge-logs unmerge-orphans userfetch userpriv usersandbox usersync xattr'
 * CFLAGS='-march=znver2 -O2 -pipe -fno-stack-protector -fno-stack-clash-protection -fstack-check=no -fno-stack-check -Wl,-O1 -Wl,--as-needed'
 * CXXFLAGS='-march=znver2 -O2 -pipe -fno-stack-protector -fno-stack-clash-protection -fstack-check=no -fno-stack-check -Wl,-O1 -Wl,--as-needed'
 * FFLAGS='-march=znver2 -O2 -pipe -fno-stack-protector -fno-stack-clash-protection -fstack-check=no -fno-stack-check -Wl,-O1 -Wl,--as-needed'
 * FCFLAGS='-march=znver2 -O2 -pipe -fno-stack-protector -fno-stack-clash-protection -fstack-check=no -fno-stack-check -Wl,-O1 -Wl,--as-needed'
 * F77FLAGS='-march=znver2 -O2 -pipe -fno-stack-protector -fno-stack-clash-protection -fstack-check=no -fno-stack-check -Wl,-O1 -Wl,--as-needed'
 * LDFLAGS='-Wl,-O1 -Wl,--as-needed'
 * MAKEOPTS='-j12 -l12'
 * gcc (Gentoo 10.1.0-r1 p2) 10.1.0
 * g++ (Gentoo 10.1.0-r1 p2) 10.1.0
 * GNU gold (Gentoo 2.34 p4 2.34.0) 1.16
 * Linux rescue 5.4.36 #1 SMP Thu Apr 30 04:38:28 UTC 2020 x86_64 AMD Ryzen 5 3600 6-Core Processor AuthenticAMD GNU/Linux
virtual/perl-ExtUtils-ParseXS: 7 seconds average for 19 merges
2020-05-15T03:40:19 >>> virtual/perl-ExtUtils-ParseXS: 5 seconds
2020-05-16T21:10:35 >>> virtual/perl-ExtUtils-ParseXS: 7 seconds
2020-05-20T01:19:21 >>> virtual/perl-ExtUtils-ParseXS: 5 seconds
2020-05-21T06:41:34 >>> virtual/perl-ExtUtils-ParseXS: 5 seconds
2020-05-23T11:44:54 >>> virtual/perl-ExtUtils-ParseXS: 9 seconds
2020-05-24T23:55:50 >>> virtual/perl-ExtUtils-ParseXS: 9 seconds
2020-05-25T18:44:44 >>> virtual/perl-ExtUtils-ParseXS: 9 seconds
2020-05-25T20:07:05 >>> virtual/perl-ExtUtils-ParseXS: 9 seconds
2020-05-26T14:15:08 >>> virtual/perl-ExtUtils-ParseXS: 6 seconds
2020-05-27T01:53:06 >>> virtual/perl-ExtUtils-ParseXS: 6 seconds
2020-05-27T03:31:45 >>> virtual/perl-ExtUtils-ParseXS: 9 seconds
2020-05-29T02:00:41 >>> virtual/perl-ExtUtils-ParseXS: 9 seconds
2020-05-30T12:54:55 >>> virtual/perl-ExtUtils-ParseXS: 9 seconds
2020-06-01T02:18:07 >>> virtual/perl-ExtUtils-ParseXS: 10 seconds
2020-06-12T01:47:33 >>> virtual/perl-ExtUtils-ParseXS: 5 seconds
2020-06-13T03:43:57 >>> virtual/perl-ExtUtils-ParseXS: 6 seconds
2020-06-13T20:25:38 >>> virtual/perl-ExtUtils-ParseXS: 5 seconds
2020-06-14T04:49:59 >>> virtual/perl-ExtUtils-ParseXS: 8 seconds
2020-06-15T14:04:05 >>> virtual/perl-ExtUtils-ParseXS: 5 seconds
]0;emerge 13:57:49 233|895 perl-ExtUtils-ParseXS 00:06 (root@rescue)>>> Unpacking source...
>>> Source unpacked in /tmp/portage/virtual/perl-ExtUtils-ParseXS-3.400.0/work
>>> Preparing source in /tmp/portage/virtual/perl-ExtUtils-ParseXS-3.400.0/work ...
>>> Source prepared.
>>> Configuring source in /tmp/portage/virtual/perl-ExtUtils-ParseXS-3.400.0/work ...
>>> Source configured.
>>> Compiling source in /tmp/portage/virtual/perl-ExtUtils-ParseXS-3.400.0/work ...
>>> Source compiled.
>>> Test phase [not enabled]: virtual/perl-ExtUtils-ParseXS-3.400.0

>>> Install virtual/perl-ExtUtils-ParseXS-3.400.0 into /tmp/portage/virtual/perl-ExtUtils-ParseXS-3.400.0/image/
>>> Completed installing virtual/perl-ExtUtils-ParseXS-3.400.0 into /tmp/portage/virtual/perl-ExtUtils-ParseXS-3.400.0/image/

 * Final size of build directory: 4 KiB
 * Final size of installed tree:  4 KiB

Parallel BZIP2 v1.1.13 [Dec 18, 2015]
By: Jeff Gilchrist [http://compression.ca]
Major contributions: Yavor Nikolov [http://javornikolov.wordpress.com]
Uses libbzip2 by Julian Seward

         # CPUs: 7
   Load Average: 5.22
 BWT Block Size: 200 KB
File Block Size: 900 KB
 Maximum Memory: 1024 MB
-------------------------------------------
         File #: 1 of 1
     Input Name: compressme
    Output Name: compressme.bz2

     Input Size: 3895 bytes
Compressing data (no threads)...
Completed: 100%                 Output Size: 918 bytes
-------------------------------------------

     Wall Clock: 0.001088 seconds
 * checking 0 files for package collisions
>>> Merging virtual/perl-ExtUtils-ParseXS-3.400.0 to /
 * removing unneeded *.la files
>>> Safely unmerging already-installed instance...
!!! File Not Found: '/etc/env.d/99lcdfilter'
>>> Original instance of package unmerged safely.
>>> virtual/perl-ExtUtils-ParseXS-3.400.0 merged.
!!! File Not Found: '/etc/env.d/99lcdfilter'
