 * Package:    x11-misc/notification-daemon-3.20.0
 * Repository: gentoo
 * Maintainer: freedesktop-bugs@gentoo.org
 * USE:        abi_x86_64 amd64 elibc_glibc kernel_linux userland_GNU
 * FEATURES:   network-sandbox preserve-libs sandbox userpriv usersandbox
 * FEATURES='assume-digests binpkg-docompress binpkg-dostrip binpkg-logs buildpkg cgroup compress-index config-protect-if-modified distlocks ebuild-locks fixlafiles ipc-sandbox merge-sync multilib-strict network-sandbox news nodoc parallel-fetch pid-sandbox preserve-libs qa-unresolved-soname-deps sandbox sfperms strict strict-keepdir unknown-features-warn unmerge-logs unmerge-orphans userfetch userpriv usersandbox usersync xattr'
 * CFLAGS='-march=znver2 -Ofast -pipe -g0 -fno-common -fgraphite-identity -floop-interchange -floop-nest-optimize -floop-parallelize-all -ftree-parallelize-loops=12 -ftree-vectorize -fdevirtualize-at-ltrans -fipa-pta -fno-semantic-interposition -flto=12 -fno-plt -falign-functions=32 -fno-stack-protector -fno-stack-clash-protection -fstack-check=no -fno-stack-check -fuse-linker-plugin -Wl,-O1,--sort-common,--as-needed,-z,norelro,-z,now,-lgomp,-lpthread'
 * CXXFLAGS='-march=znver2 -Ofast -pipe -g0 -fno-common -fgraphite-identity -floop-interchange -floop-nest-optimize -floop-parallelize-all -ftree-parallelize-loops=12 -ftree-vectorize -fdevirtualize-at-ltrans -fipa-pta -fno-semantic-interposition -flto=12 -fno-plt -falign-functions=32 -fno-stack-protector -fno-stack-clash-protection -fstack-check=no -fno-stack-check -fuse-linker-plugin -Wl,-O1,--sort-common,--as-needed,-z,norelro,-z,now,-lgomp,-lpthread'
 * FFLAGS='-march=znver2 -Ofast -pipe -g0 -fno-common -fgraphite-identity -floop-interchange -floop-nest-optimize -floop-parallelize-all -ftree-parallelize-loops=12 -ftree-vectorize -fdevirtualize-at-ltrans -fipa-pta -fno-semantic-interposition -flto=12 -fno-plt -falign-functions=32 -fno-stack-protector -fno-stack-clash-protection -fstack-check=no -fno-stack-check -fuse-linker-plugin -Wl,-O1,--sort-common,--as-needed,-z,norelro,-z,now,-lgomp,-lpthread'
 * FCFLAGS='-march=znver2 -Ofast -pipe -g0 -fno-common -fgraphite-identity -floop-interchange -floop-nest-optimize -floop-parallelize-all -ftree-parallelize-loops=12 -ftree-vectorize -fdevirtualize-at-ltrans -fipa-pta -fno-semantic-interposition -flto=12 -fno-plt -falign-functions=32 -fno-stack-protector -fno-stack-clash-protection -fstack-check=no -fno-stack-check -fuse-linker-plugin -Wl,-O1,--sort-common,--as-needed,-z,norelro,-z,now,-lgomp,-lpthread'
 * F77FLAGS='-march=znver2 -Ofast -pipe -g0 -fno-common -fgraphite-identity -floop-interchange -floop-nest-optimize -floop-parallelize-all -ftree-parallelize-loops=12 -ftree-vectorize -fdevirtualize-at-ltrans -fipa-pta -fno-semantic-interposition -flto=12 -fno-plt -falign-functions=32 -fno-stack-protector -fno-stack-clash-protection -fstack-check=no -fno-stack-check -fuse-linker-plugin -Wl,-O1,--sort-common,--as-needed,-z,norelro,-z,now,-lgomp,-lpthread'
 * LDFLAGS='-Wl,-O1,--sort-common,--as-needed,-z,norelro,-z,now,-lgomp,-lpthread -march=znver2 -Ofast -pipe -g0 -fno-common -fgraphite-identity -floop-interchange -floop-nest-optimize -floop-parallelize-all -ftree-parallelize-loops=12 -ftree-vectorize -fdevirtualize-at-ltrans -fipa-pta -fno-semantic-interposition -flto=12 -fno-plt -falign-functions=32 -fno-stack-protector -fno-stack-clash-protection -fstack-check=no -fno-stack-check -fuse-linker-plugin'
 * MAKEOPTS='-j12 -l12'
 * gcc () 11.0.0 20200616 (experimental)
 * g++ () 11.0.0 20200616 (experimental)
 * GNU ld (Gentoo 2.34 p4) 2.34.0
 * Linux rescue 5.4.36 #1 SMP Thu Apr 30 04:38:28 UTC 2020 x86_64 AMD Ryzen 5 3600 6-Core Processor AuthenticAMD GNU/Linux
x11-misc/notification-daemon: 23 seconds average for 6 merges
2020-05-20T02:25:09 >>> x11-misc/notification-daemon: 18 seconds
2020-05-25T15:24:44 >>> x11-misc/notification-daemon: 5 seconds
2020-05-31T00:21:57 >>> x11-misc/notification-daemon: 33 seconds
2020-06-01T08:22:25 >>> x11-misc/notification-daemon: 20 seconds
2020-06-13T21:11:41 >>> x11-misc/notification-daemon: 24 seconds
2020-06-16T18:18:36 >>> x11-misc/notification-daemon: 39 seconds
]0;emerge 18:15:30 169|194 notification-daemon 00:28 (root@rescue)>>> Unpacking source...
>>> Unpacking notification-daemon-3.20.0.tar.xz to /tmp/portage/x11-misc/notification-daemon-3.20.0/work
>>> Source unpacked in /tmp/portage/x11-misc/notification-daemon-3.20.0/work
>>> Preparing source in /tmp/portage/x11-misc/notification-daemon-3.20.0/work/notification-daemon-3.20.0 ...
>>> Source prepared.
>>> Configuring source in /tmp/portage/x11-misc/notification-daemon-3.20.0/work/notification-daemon-3.20.0 ...
 * econf: updating notification-daemon-3.20.0/build-aux/config.guess with /usr/share/gnuconfig/config.guess
 * econf: updating notification-daemon-3.20.0/build-aux/config.sub with /usr/share/gnuconfig/config.sub
./configure --prefix=/usr --build=x86_64-pc-linux-gnu --host=x86_64-pc-linux-gnu --mandir=/usr/share/man --infodir=/usr/share/info --datadir=/usr/share --sysconfdir=/etc --localstatedir=/var/lib --disable-dependency-tracking --disable-silent-rules --docdir=/usr/share/doc/notification-daemon-3.20.0 --htmldir=/usr/share/doc/notification-daemon-3.20.0/html --libdir=/usr/lib64
checking whether to enable debugging... no
checking for a sed that does not truncate output... /bin/sed
checking for x86_64-pc-linux-gnu-gcc... x86_64-pc-linux-gnu-gcc
checking whether the C compiler works... yes
checking for C compiler default output file name... a.out
checking for suffix of executables... 
checking whether we are cross compiling... no
checking for suffix of object files... o
checking whether we are using the GNU C compiler... yes
checking whether x86_64-pc-linux-gnu-gcc accepts -g... yes
checking for x86_64-pc-linux-gnu-gcc option to accept ISO C89... none needed
checking whether x86_64-pc-linux-gnu-gcc understands -c and -o together... yes
checking whether C compiler accepts -Werror=unknown-warning-option... no
checking whether C compiler accepts -fno-strict-aliasing... yes
checking whether C compiler accepts -Wall... yes
checking whether C compiler accepts -Wextra... yes
checking whether C compiler accepts -Wundef... yes
checking whether C compiler accepts -Wnested-externs... yes
checking whether C compiler accepts -Wwrite-strings... yes
checking whether C compiler accepts -Wpointer-arith... yes
checking whether C compiler accepts -Wmissing-declarations... yes
checking whether C compiler accepts -Wmissing-prototypes... yes
checking whether C compiler accepts -Wstrict-prototypes... yes
checking whether C compiler accepts -Wredundant-decls... yes
checking whether C compiler accepts -Wno-unused-parameter... yes
checking whether C compiler accepts -Wno-missing-field-initializers... yes
checking whether C compiler accepts -Wdeclaration-after-statement... yes
checking whether C compiler accepts -Wformat=2... yes
checking whether C compiler accepts -Wold-style-definition... yes
checking whether C compiler accepts -Wcast-align... yes
checking whether C compiler accepts -Wformat-nonliteral... yes
checking whether C compiler accepts -Wformat-security... yes
checking whether C compiler accepts -Wsign-compare... yes
checking whether C compiler accepts -Wstrict-aliasing... yes
checking whether C compiler accepts -Wshadow... yes
checking whether C compiler accepts -Winline... yes
checking whether C compiler accepts -Wpacked... yes
checking whether C compiler accepts -Wmissing-format-attribute... yes
checking whether C compiler accepts -Wmissing-noreturn... yes
checking whether C compiler accepts -Winit-self... yes
checking whether C compiler accepts -Wredundant-decls... (cached) yes
checking whether C compiler accepts -Wmissing-include-dirs... yes
checking whether C compiler accepts -Wunused-but-set-variable... yes
checking whether C compiler accepts -Warray-bounds... yes
checking whether C compiler accepts -Wimplicit-function-declaration... yes
checking whether C compiler accepts -Wreturn-type... yes
checking whether C compiler accepts -Wswitch-enum... yes
checking whether C compiler accepts -Wswitch-default... yes
checking whether C compiler accepts -Wno-error=unused-parameter... yes
checking whether C compiler accepts -Wno-error=missing-field-initializers... yes
checking whether C compiler accepts -Werror=unknown-warning-option... (cached) no
checking whether the linker accepts -Wl,--no-as-needed... yes
checking for a BSD-compatible install... /tmp/portage/._portage_reinstall_.z8sq2nh6/bin/ebuild-helpers/xattr/install -c
checking whether build environment is sane... yes
checking for a thread-safe mkdir -p... /bin/mkdir -p
checking for gawk... gawk
checking whether make sets $(MAKE)... yes
checking for style of include used by make... GNU
checking whether make supports nested variables... yes
checking whether UID '250' is supported by ustar format... yes
checking whether GID '250' is supported by ustar format... yes
checking how to create a ustar tar archive... gnutar
checking dependency style of x86_64-pc-linux-gnu-gcc... none
checking whether to enable maintainer-specific portions of Makefiles... yes
checking whether make supports nested variables... (cached) yes
checking for x86_64-pc-linux-gnu-gcc... (cached) x86_64-pc-linux-gnu-gcc
checking whether we are using the GNU C compiler... (cached) yes
checking whether x86_64-pc-linux-gnu-gcc accepts -g... (cached) yes
checking for x86_64-pc-linux-gnu-gcc option to accept ISO C89... (cached) none needed
checking whether x86_64-pc-linux-gnu-gcc understands -c and -o together... (cached) yes
checking build system type... x86_64-pc-linux-gnu
checking host system type... x86_64-pc-linux-gnu
checking how to print strings... printf
checking for a sed that does not truncate output... (cached) /bin/sed
checking for grep that handles long lines and -e... /bin/grep
checking for egrep... /bin/grep -E
checking for fgrep... /bin/grep -F
checking for ld used by x86_64-pc-linux-gnu-gcc... /usr/x86_64-pc-linux-gnu/bin/ld
checking if the linker (/usr/x86_64-pc-linux-gnu/bin/ld) is GNU ld... yes
checking for BSD- or MS-compatible name lister (nm)... /usr/bin/x86_64-pc-linux-gnu-nm -B
checking the name lister (/usr/bin/x86_64-pc-linux-gnu-nm -B) interface... BSD nm
checking whether ln -s works... yes
checking the maximum length of command line arguments... 1572864
checking how to convert x86_64-pc-linux-gnu file names to x86_64-pc-linux-gnu format... func_convert_file_noop
checking how to convert x86_64-pc-linux-gnu file names to toolchain format... func_convert_file_noop
checking for /usr/x86_64-pc-linux-gnu/bin/ld option to reload object files... -r
checking for x86_64-pc-linux-gnu-objdump... x86_64-pc-linux-gnu-objdump
checking how to recognize dependent libraries... pass_all
checking for x86_64-pc-linux-gnu-dlltool... x86_64-pc-linux-gnu-dlltool
checking how to associate runtime and link libraries... printf %s\n
checking for x86_64-pc-linux-gnu-ar... x86_64-pc-linux-gnu-ar
checking for archiver @FILE support... @
checking for x86_64-pc-linux-gnu-strip... x86_64-pc-linux-gnu-strip
checking for x86_64-pc-linux-gnu-ranlib... x86_64-pc-linux-gnu-ranlib
checking command to parse /usr/bin/x86_64-pc-linux-gnu-nm -B output from x86_64-pc-linux-gnu-gcc object... ok
checking for sysroot... no
checking for a working dd... /bin/dd
checking how to truncate binary pipes... /bin/dd bs=4096 count=1
checking for x86_64-pc-linux-gnu-mt... no
checking for mt... no
checking if : is a manifest tool... no
checking how to run the C preprocessor... x86_64-pc-linux-gnu-gcc -E
checking for ANSI C header files... yes
checking for sys/types.h... yes
checking for sys/stat.h... yes
checking for stdlib.h... yes
checking for string.h... yes
checking for memory.h... yes
checking for strings.h... yes
checking for inttypes.h... yes
checking for stdint.h... yes
checking for unistd.h... yes
checking for dlfcn.h... yes
checking for objdir... .libs
checking if x86_64-pc-linux-gnu-gcc supports -fno-rtti -fno-exceptions... no
checking for x86_64-pc-linux-gnu-gcc option to produce PIC... -fPIC -DPIC
checking if x86_64-pc-linux-gnu-gcc PIC flag -fPIC -DPIC works... yes
checking if x86_64-pc-linux-gnu-gcc static flag -static works... yes
checking if x86_64-pc-linux-gnu-gcc supports -c -o file.o... yes
checking if x86_64-pc-linux-gnu-gcc supports -c -o file.o... (cached) yes
checking whether the x86_64-pc-linux-gnu-gcc linker (/usr/x86_64-pc-linux-gnu/bin/ld -m elf_x86_64) supports shared libraries... yes
checking whether -lc should be explicitly linked in... no
checking dynamic linker characteristics... GNU/Linux ld.so
checking how to hardcode library paths into programs... immediate
checking whether stripping libraries is possible... yes
checking if libtool supports shared libraries... yes
checking whether to build shared libraries... yes
checking whether to build static libraries... yes
checking whether NLS is requested... yes
checking for msgfmt... /usr/bin/msgfmt
checking for gmsgfmt... /usr/bin/gmsgfmt
checking for xgettext... /usr/bin/xgettext
checking for msgmerge... /usr/bin/msgmerge
checking for ld used by x86_64-pc-linux-gnu-gcc... /usr/x86_64-pc-linux-gnu/bin/ld -m elf_x86_64
checking if the linker (/usr/x86_64-pc-linux-gnu/bin/ld -m elf_x86_64) is GNU ld... yes
checking for shared library run path origin... done
checking for CFPreferencesCopyAppValue... no
checking for CFLocaleCopyCurrent... no
checking for GNU gettext in libc... yes
checking whether to use NLS... yes
checking where the gettext function comes from... libc
checking for x86_64-pc-linux-gnu-pkg-config... /usr/bin/x86_64-pc-linux-gnu-pkg-config
checking pkg-config is at least version 0.9.0... yes
checking for NOTIFICATION_DAEMON... yes
checking that generated files are newer than configure... done
configure: creating ./config.status
config.status: creating Makefile
config.status: creating data/Makefile
config.status: creating po/Makefile.in
config.status: creating src/Makefile
config.status: creating config.h
config.status: executing depfiles commands
config.status: executing libtool commands
config.status: executing po-directories commands
config.status: creating po/POTFILES
config.status: creating po/Makefile

  Notification Daemon 3.20.0
  ==========================

  srcdir ......................: .

  compiler ....................: x86_64-pc-linux-gnu-gcc
  cflags ......................: -march=znver2 -Ofast -pipe -g0 -fno-common -fgraphite-identity -floop-interchange -floop-nest-optimize -floop-parallelize-all -ftree-parallelize-loops=12 -ftree-vectorize -fdevirtualize-at-ltrans -fipa-pta -fno-semantic-interposition -flto=12 -fno-plt -falign-functions=32 -fno-stack-protector -fno-stack-clash-protection -fstack-check=no -fno-stack-check -fuse-linker-plugin -Wl,-O1,--sort-common,--as-needed,-z,norelro,-z,now,-lgomp,-lpthread

  prefix ......................: /usr
  exec_prefix .................: ${prefix}
  bindir ......................: ${exec_prefix}/bin
  datadir .....................: /usr/share

>>> Source configured.
>>> Compiling source in /tmp/portage/x11-misc/notification-daemon-3.20.0/work/notification-daemon-3.20.0 ...
make -j12 -l12 
make  all-recursive
make[1]: Entering directory '/tmp/portage/x11-misc/notification-daemon-3.20.0/work/notification-daemon-3.20.0'
Making all in data
make[2]: Entering directory '/tmp/portage/x11-misc/notification-daemon-3.20.0/work/notification-daemon-3.20.0/data'
sed -e 's,[@]libexecdir[@],/usr/libexec,g' < notification-daemon.desktop.in.in > notification-daemon.desktop.in
/usr/bin/msgfmt --desktop --template notification-daemon.desktop.in -o notification-daemon.desktop-t \
	-d ../po && mv notification-daemon.desktop-t notification-daemon.desktop
rm notification-daemon.desktop.in
make[2]: Leaving directory '/tmp/portage/x11-misc/notification-daemon-3.20.0/work/notification-daemon-3.20.0/data'
Making all in src
make[2]: Entering directory '/tmp/portage/x11-misc/notification-daemon-3.20.0/work/notification-daemon-3.20.0/src'
make  all-am
make[3]: Entering directory '/tmp/portage/x11-misc/notification-daemon-3.20.0/work/notification-daemon-3.20.0/src'
x86_64-pc-linux-gnu-gcc -DHAVE_CONFIG_H -I. -I..    -DLOCALE_DIR=\""/usr/share/locale"\" -I../src -pthread -I/usr/include/gtk-3.0 -I/usr/include/gio-unix-2.0 -I/usr/include/cairo -I/usr/include/pango-1.0 -I/usr/include/fribidi -I/usr/include/atk-1.0 -I/usr/include/cairo -I/usr/include/pixman-1 -I/usr/include/uuid -I/usr/include/freetype2 -I/usr/include/harfbuzz -I/usr/include/libpng16 -I/usr/include/gdk-pixbuf-2.0 -I/usr/include/libmount -I/usr/include/blkid -I/usr/lib64/libffi/include -I/usr/include/glib-2.0 -I/usr/lib64/glib-2.0/include -fno-strict-aliasing -Wall -Wextra -Wundef -Wnested-externs -Wwrite-strings -Wpointer-arith -Wmissing-declarations -Wmissing-prototypes -Wstrict-prototypes -Wredundant-decls -Wno-unused-parameter -Wno-missing-field-initializers -Wdeclaration-after-statement -Wformat=2 -Wold-style-definition -Wcast-align -Wformat-nonliteral -Wformat-security -Wsign-compare -Wstrict-aliasing -Wshadow -Winline -Wpacked -Wmissing-format-attribute -Wmissing-noreturn -Winit-self -Wmissing-include-dirs -Wunused-but-set-variable -Warray-bounds -Wimplicit-function-declaration -Wreturn-type -Wswitch-enum -Wswitch-default -Wno-error=unused-parameter -Wno-error=missing-field-initializers   -march=znver2 -Ofast -pipe -g0 -fno-common -fgraphite-identity -floop-interchange -floop-nest-optimize -floop-parallelize-all -ftree-parallelize-loops=12 -ftree-vectorize -fdevirtualize-at-ltrans -fipa-pta -fno-semantic-interposition -flto=12 -fno-plt -falign-functions=32 -fno-stack-protector -fno-stack-clash-protection -fstack-check=no -fno-stack-check -fuse-linker-plugin -Wl,-O1,--sort-common,--as-needed,-z,norelro,-z,now,-lgomp,-lpthread -c -o notification_daemon-nd-bubble.o `test -f 'nd-bubble.c' || echo './'`nd-bubble.c
x86_64-pc-linux-gnu-gcc -DHAVE_CONFIG_H -I. -I..    -DLOCALE_DIR=\""/usr/share/locale"\" -I../src -pthread -I/usr/include/gtk-3.0 -I/usr/include/gio-unix-2.0 -I/usr/include/cairo -I/usr/include/pango-1.0 -I/usr/include/fribidi -I/usr/include/atk-1.0 -I/usr/include/cairo -I/usr/include/pixman-1 -I/usr/include/uuid -I/usr/include/freetype2 -I/usr/include/harfbuzz -I/usr/include/libpng16 -I/usr/include/gdk-pixbuf-2.0 -I/usr/include/libmount -I/usr/include/blkid -I/usr/lib64/libffi/include -I/usr/include/glib-2.0 -I/usr/lib64/glib-2.0/include -fno-strict-aliasing -Wall -Wextra -Wundef -Wnested-externs -Wwrite-strings -Wpointer-arith -Wmissing-declarations -Wmissing-prototypes -Wstrict-prototypes -Wredundant-decls -Wno-unused-parameter -Wno-missing-field-initializers -Wdeclaration-after-statement -Wformat=2 -Wold-style-definition -Wcast-align -Wformat-nonliteral -Wformat-security -Wsign-compare -Wstrict-aliasing -Wshadow -Winline -Wpacked -Wmissing-format-attribute -Wmissing-noreturn -Winit-self -Wmissing-include-dirs -Wunused-but-set-variable -Warray-bounds -Wimplicit-function-declaration -Wreturn-type -Wswitch-enum -Wswitch-default -Wno-error=unused-parameter -Wno-error=missing-field-initializers   -march=znver2 -Ofast -pipe -g0 -fno-common -fgraphite-identity -floop-interchange -floop-nest-optimize -floop-parallelize-all -ftree-parallelize-loops=12 -ftree-vectorize -fdevirtualize-at-ltrans -fipa-pta -fno-semantic-interposition -flto=12 -fno-plt -falign-functions=32 -fno-stack-protector -fno-stack-clash-protection -fstack-check=no -fno-stack-check -fuse-linker-plugin -Wl,-O1,--sort-common,--as-needed,-z,norelro,-z,now,-lgomp,-lpthread -c -o notification_daemon-nd-daemon.o `test -f 'nd-daemon.c' || echo './'`nd-daemon.c
x86_64-pc-linux-gnu-gcc -DHAVE_CONFIG_H -I. -I..    -DLOCALE_DIR=\""/usr/share/locale"\" -I../src -pthread -I/usr/include/gtk-3.0 -I/usr/include/gio-unix-2.0 -I/usr/include/cairo -I/usr/include/pango-1.0 -I/usr/include/fribidi -I/usr/include/atk-1.0 -I/usr/include/cairo -I/usr/include/pixman-1 -I/usr/include/uuid -I/usr/include/freetype2 -I/usr/include/harfbuzz -I/usr/include/libpng16 -I/usr/include/gdk-pixbuf-2.0 -I/usr/include/libmount -I/usr/include/blkid -I/usr/lib64/libffi/include -I/usr/include/glib-2.0 -I/usr/lib64/glib-2.0/include -fno-strict-aliasing -Wall -Wextra -Wundef -Wnested-externs -Wwrite-strings -Wpointer-arith -Wmissing-declarations -Wmissing-prototypes -Wstrict-prototypes -Wredundant-decls -Wno-unused-parameter -Wno-missing-field-initializers -Wdeclaration-after-statement -Wformat=2 -Wold-style-definition -Wcast-align -Wformat-nonliteral -Wformat-security -Wsign-compare -Wstrict-aliasing -Wshadow -Winline -Wpacked -Wmissing-format-attribute -Wmissing-noreturn -Winit-self -Wmissing-include-dirs -Wunused-but-set-variable -Warray-bounds -Wimplicit-function-declaration -Wreturn-type -Wswitch-enum -Wswitch-default -Wno-error=unused-parameter -Wno-error=missing-field-initializers   -march=znver2 -Ofast -pipe -g0 -fno-common -fgraphite-identity -floop-interchange -floop-nest-optimize -floop-parallelize-all -ftree-parallelize-loops=12 -ftree-vectorize -fdevirtualize-at-ltrans -fipa-pta -fno-semantic-interposition -flto=12 -fno-plt -falign-functions=32 -fno-stack-protector -fno-stack-clash-protection -fstack-check=no -fno-stack-check -fuse-linker-plugin -Wl,-O1,--sort-common,--as-needed,-z,norelro,-z,now,-lgomp,-lpthread -c -o notification_daemon-nd-main.o `test -f 'nd-main.c' || echo './'`nd-main.c
x86_64-pc-linux-gnu-gcc -DHAVE_CONFIG_H -I. -I..    -DLOCALE_DIR=\""/usr/share/locale"\" -I../src -pthread -I/usr/include/gtk-3.0 -I/usr/include/gio-unix-2.0 -I/usr/include/cairo -I/usr/include/pango-1.0 -I/usr/include/fribidi -I/usr/include/atk-1.0 -I/usr/include/cairo -I/usr/include/pixman-1 -I/usr/include/uuid -I/usr/include/freetype2 -I/usr/include/harfbuzz -I/usr/include/libpng16 -I/usr/include/gdk-pixbuf-2.0 -I/usr/include/libmount -I/usr/include/blkid -I/usr/lib64/libffi/include -I/usr/include/glib-2.0 -I/usr/lib64/glib-2.0/include -fno-strict-aliasing -Wall -Wextra -Wundef -Wnested-externs -Wwrite-strings -Wpointer-arith -Wmissing-declarations -Wmissing-prototypes -Wstrict-prototypes -Wredundant-decls -Wno-unused-parameter -Wno-missing-field-initializers -Wdeclaration-after-statement -Wformat=2 -Wold-style-definition -Wcast-align -Wformat-nonliteral -Wformat-security -Wsign-compare -Wstrict-aliasing -Wshadow -Winline -Wpacked -Wmissing-format-attribute -Wmissing-noreturn -Winit-self -Wmissing-include-dirs -Wunused-but-set-variable -Warray-bounds -Wimplicit-function-declaration -Wreturn-type -Wswitch-enum -Wswitch-default -Wno-error=unused-parameter -Wno-error=missing-field-initializers   -march=znver2 -Ofast -pipe -g0 -fno-common -fgraphite-identity -floop-interchange -floop-nest-optimize -floop-parallelize-all -ftree-parallelize-loops=12 -ftree-vectorize -fdevirtualize-at-ltrans -fipa-pta -fno-semantic-interposition -flto=12 -fno-plt -falign-functions=32 -fno-stack-protector -fno-stack-clash-protection -fstack-check=no -fno-stack-check -fuse-linker-plugin -Wl,-O1,--sort-common,--as-needed,-z,norelro,-z,now,-lgomp,-lpthread -c -o notification_daemon-nd-notification.o `test -f 'nd-notification.c' || echo './'`nd-notification.c
x86_64-pc-linux-gnu-gcc -DHAVE_CONFIG_H -I. -I..    -DLOCALE_DIR=\""/usr/share/locale"\" -I../src -pthread -I/usr/include/gtk-3.0 -I/usr/include/gio-unix-2.0 -I/usr/include/cairo -I/usr/include/pango-1.0 -I/usr/include/fribidi -I/usr/include/atk-1.0 -I/usr/include/cairo -I/usr/include/pixman-1 -I/usr/include/uuid -I/usr/include/freetype2 -I/usr/include/harfbuzz -I/usr/include/libpng16 -I/usr/include/gdk-pixbuf-2.0 -I/usr/include/libmount -I/usr/include/blkid -I/usr/lib64/libffi/include -I/usr/include/glib-2.0 -I/usr/lib64/glib-2.0/include -fno-strict-aliasing -Wall -Wextra -Wundef -Wnested-externs -Wwrite-strings -Wpointer-arith -Wmissing-declarations -Wmissing-prototypes -Wstrict-prototypes -Wredundant-decls -Wno-unused-parameter -Wno-missing-field-initializers -Wdeclaration-after-statement -Wformat=2 -Wold-style-definition -Wcast-align -Wformat-nonliteral -Wformat-security -Wsign-compare -Wstrict-aliasing -Wshadow -Winline -Wpacked -Wmissing-format-attribute -Wmissing-noreturn -Winit-self -Wmissing-include-dirs -Wunused-but-set-variable -Warray-bounds -Wimplicit-function-declaration -Wreturn-type -Wswitch-enum -Wswitch-default -Wno-error=unused-parameter -Wno-error=missing-field-initializers   -march=znver2 -Ofast -pipe -g0 -fno-common -fgraphite-identity -floop-interchange -floop-nest-optimize -floop-parallelize-all -ftree-parallelize-loops=12 -ftree-vectorize -fdevirtualize-at-ltrans -fipa-pta -fno-semantic-interposition -flto=12 -fno-plt -falign-functions=32 -fno-stack-protector -fno-stack-clash-protection -fstack-check=no -fno-stack-check -fuse-linker-plugin -Wl,-O1,--sort-common,--as-needed,-z,norelro,-z,now,-lgomp,-lpthread -c -o notification_daemon-nd-notification-box.o `test -f 'nd-notification-box.c' || echo './'`nd-notification-box.c
x86_64-pc-linux-gnu-gcc -DHAVE_CONFIG_H -I. -I..    -DLOCALE_DIR=\""/usr/share/locale"\" -I../src -pthread -I/usr/include/gtk-3.0 -I/usr/include/gio-unix-2.0 -I/usr/include/cairo -I/usr/include/pango-1.0 -I/usr/include/fribidi -I/usr/include/atk-1.0 -I/usr/include/cairo -I/usr/include/pixman-1 -I/usr/include/uuid -I/usr/include/freetype2 -I/usr/include/harfbuzz -I/usr/include/libpng16 -I/usr/include/gdk-pixbuf-2.0 -I/usr/include/libmount -I/usr/include/blkid -I/usr/lib64/libffi/include -I/usr/include/glib-2.0 -I/usr/lib64/glib-2.0/include -fno-strict-aliasing -Wall -Wextra -Wundef -Wnested-externs -Wwrite-strings -Wpointer-arith -Wmissing-declarations -Wmissing-prototypes -Wstrict-prototypes -Wredundant-decls -Wno-unused-parameter -Wno-missing-field-initializers -Wdeclaration-after-statement -Wformat=2 -Wold-style-definition -Wcast-align -Wformat-nonliteral -Wformat-security -Wsign-compare -Wstrict-aliasing -Wshadow -Winline -Wpacked -Wmissing-format-attribute -Wmissing-noreturn -Winit-self -Wmissing-include-dirs -Wunused-but-set-variable -Warray-bounds -Wimplicit-function-declaration -Wreturn-type -Wswitch-enum -Wswitch-default -Wno-error=unused-parameter -Wno-error=missing-field-initializers   -march=znver2 -Ofast -pipe -g0 -fno-common -fgraphite-identity -floop-interchange -floop-nest-optimize -floop-parallelize-all -ftree-parallelize-loops=12 -ftree-vectorize -fdevirtualize-at-ltrans -fipa-pta -fno-semantic-interposition -flto=12 -fno-plt -falign-functions=32 -fno-stack-protector -fno-stack-clash-protection -fstack-check=no -fno-stack-check -fuse-linker-plugin -Wl,-O1,--sort-common,--as-needed,-z,norelro,-z,now,-lgomp,-lpthread -c -o notification_daemon-nd-queue.o `test -f 'nd-queue.c' || echo './'`nd-queue.c
x86_64-pc-linux-gnu-gcc -DHAVE_CONFIG_H -I. -I..    -DLOCALE_DIR=\""/usr/share/locale"\" -I../src -pthread -I/usr/include/gtk-3.0 -I/usr/include/gio-unix-2.0 -I/usr/include/cairo -I/usr/include/pango-1.0 -I/usr/include/fribidi -I/usr/include/atk-1.0 -I/usr/include/cairo -I/usr/include/pixman-1 -I/usr/include/uuid -I/usr/include/freetype2 -I/usr/include/harfbuzz -I/usr/include/libpng16 -I/usr/include/gdk-pixbuf-2.0 -I/usr/include/libmount -I/usr/include/blkid -I/usr/lib64/libffi/include -I/usr/include/glib-2.0 -I/usr/lib64/glib-2.0/include -fno-strict-aliasing -Wall -Wextra -Wundef -Wnested-externs -Wwrite-strings -Wpointer-arith -Wmissing-declarations -Wmissing-prototypes -Wstrict-prototypes -Wredundant-decls -Wno-unused-parameter -Wno-missing-field-initializers -Wdeclaration-after-statement -Wformat=2 -Wold-style-definition -Wcast-align -Wformat-nonliteral -Wformat-security -Wsign-compare -Wstrict-aliasing -Wshadow -Winline -Wpacked -Wmissing-format-attribute -Wmissing-noreturn -Winit-self -Wmissing-include-dirs -Wunused-but-set-variable -Warray-bounds -Wimplicit-function-declaration -Wreturn-type -Wswitch-enum -Wswitch-default -Wno-error=unused-parameter -Wno-error=missing-field-initializers   -march=znver2 -Ofast -pipe -g0 -fno-common -fgraphite-identity -floop-interchange -floop-nest-optimize -floop-parallelize-all -ftree-parallelize-loops=12 -ftree-vectorize -fdevirtualize-at-ltrans -fipa-pta -fno-semantic-interposition -flto=12 -fno-plt -falign-functions=32 -fno-stack-protector -fno-stack-clash-protection -fstack-check=no -fno-stack-check -fuse-linker-plugin -Wl,-O1,--sort-common,--as-needed,-z,norelro,-z,now,-lgomp,-lpthread -c -o notification_daemon-nd-stack.o `test -f 'nd-stack.c' || echo './'`nd-stack.c
x86_64-pc-linux-gnu-gcc -DHAVE_CONFIG_H -I. -I..    -DLOCALE_DIR=\""/usr/share/locale"\" -I../src -pthread -I/usr/include/gtk-3.0 -I/usr/include/gio-unix-2.0 -I/usr/include/cairo -I/usr/include/pango-1.0 -I/usr/include/fribidi -I/usr/include/atk-1.0 -I/usr/include/cairo -I/usr/include/pixman-1 -I/usr/include/uuid -I/usr/include/freetype2 -I/usr/include/harfbuzz -I/usr/include/libpng16 -I/usr/include/gdk-pixbuf-2.0 -I/usr/include/libmount -I/usr/include/blkid -I/usr/lib64/libffi/include -I/usr/include/glib-2.0 -I/usr/lib64/glib-2.0/include -fno-strict-aliasing -Wall -Wextra -Wundef -Wnested-externs -Wwrite-strings -Wpointer-arith -Wmissing-declarations -Wmissing-prototypes -Wstrict-prototypes -Wredundant-decls -Wno-unused-parameter -Wno-missing-field-initializers -Wdeclaration-after-statement -Wformat=2 -Wold-style-definition -Wcast-align -Wformat-nonliteral -Wformat-security -Wsign-compare -Wstrict-aliasing -Wshadow -Winline -Wpacked -Wmissing-format-attribute -Wmissing-noreturn -Winit-self -Wmissing-include-dirs -Wunused-but-set-variable -Warray-bounds -Wimplicit-function-declaration -Wreturn-type -Wswitch-enum -Wswitch-default -Wno-error=unused-parameter -Wno-error=missing-field-initializers   -march=znver2 -Ofast -pipe -g0 -fno-common -fgraphite-identity -floop-interchange -floop-nest-optimize -floop-parallelize-all -ftree-parallelize-loops=12 -ftree-vectorize -fdevirtualize-at-ltrans -fipa-pta -fno-semantic-interposition -flto=12 -fno-plt -falign-functions=32 -fno-stack-protector -fno-stack-clash-protection -fstack-check=no -fno-stack-check -fuse-linker-plugin -Wl,-O1,--sort-common,--as-needed,-z,norelro,-z,now,-lgomp,-lpthread -c -o notification_daemon-nd-fd-notifications.o `test -f 'nd-fd-notifications.c' || echo './'`nd-fd-notifications.c
In file included from [01m[Knd-bubble.c:28[m[K:
[01m[Knd-notification.h:65:60:[m[K [01;35m[Kwarning: [m[K‘[01m[KGTimeVal[m[K’ is deprecated: Use 'GDateTime' instead [[01;35m[K]8;;https://gcc.gnu.org/onlinedocs/gcc/Warning-Options.html#index-Wdeprecated-declarations-Wdeprecated-declarations]8;;[m[K]
   65 |                                                            [01;35m[KGTimeVal[m[K       *timeval);
      |                                                            [01;35m[K^~~~~~~~[m[K
In file included from [01m[K/usr/include/glib-2.0/glib/galloca.h:32[m[K,
                 from [01m[K/usr/include/glib-2.0/glib.h:30[m[K,
                 from [01m[Knd-bubble.c:25[m[K:
[01m[K/usr/include/glib-2.0/glib/gtypes.h:547:8:[m[K [01;36m[Knote: [m[Kdeclared here
  547 | struct [01;36m[K_GTimeVal[m[K
      |        [01;36m[K^~~~~~~~~[m[K
In file included from [01m[Knd-notification-box.c:28[m[K:
[01m[Knd-notification.h:65:60:[m[K [01;35m[Kwarning: [m[K‘[01m[KGTimeVal[m[K’ is deprecated: Use 'GDateTime' instead [[01;35m[K]8;;https://gcc.gnu.org/onlinedocs/gcc/Warning-Options.html#index-Wdeprecated-declarations-Wdeprecated-declarations]8;;[m[K]
   65 |                                                            [01;35m[KGTimeVal[m[K       *timeval);
      |                                                            [01;35m[K^~~~~~~~[m[K
In file included from [01m[K/usr/include/glib-2.0/glib/galloca.h:32[m[K,
                 from [01m[K/usr/include/glib-2.0/glib.h:30[m[K,
                 from [01m[Knd-notification-box.c:25[m[K:
[01m[K/usr/include/glib-2.0/glib/gtypes.h:547:8:[m[K [01;36m[Knote: [m[Kdeclared here
  547 | struct [01;36m[K_GTimeVal[m[K
      |        [01;36m[K^~~~~~~~~[m[K
In file included from [01m[Knd-notification.c:26[m[K:
[01m[Knd-notification.h:65:60:[m[K [01;35m[Kwarning: [m[K‘[01m[KGTimeVal[m[K’ is deprecated: Use 'GDateTime' instead [[01;35m[K]8;;https://gcc.gnu.org/onlinedocs/gcc/Warning-Options.html#index-Wdeprecated-declarations-Wdeprecated-declarations]8;;[m[K]
   65 |                                                            [01;35m[KGTimeVal[m[K       *timeval);
      |                                                            [01;35m[K^~~~~~~~[m[K
In file included from [01m[K/usr/include/glib-2.0/glib/galloca.h:32[m[K,
                 from [01m[K/usr/include/glib-2.0/glib.h:30[m[K,
                 from [01m[K/usr/include/gtk-3.0/gdk/gdkconfig.h:13[m[K,
                 from [01m[K/usr/include/gtk-3.0/gdk/gdk.h:30[m[K,
                 from [01m[K/usr/include/gtk-3.0/gtk/gtk.h:30[m[K,
                 from [01m[Knd-notification.c:24[m[K:
[01m[K/usr/include/glib-2.0/glib/gtypes.h:547:8:[m[K [01;36m[Knote: [m[Kdeclared here
  547 | struct [01;36m[K_GTimeVal[m[K
      |        [01;36m[K^~~~~~~~~[m[K
[01m[Knd-notification.c:45:9:[m[K [01;35m[Kwarning: [m[K‘[01m[KGTimeVal[m[K’ is deprecated: Use 'GDateTime' instead [[01;35m[K]8;;https://gcc.gnu.org/onlinedocs/gcc/Warning-Options.html#index-Wdeprecated-declarations-Wdeprecated-declarations]8;;[m[K]
   45 |         [01;35m[KGTimeVal[m[K      update_time;
      |         [01;35m[K^~~~~~~~[m[K
In file included from [01m[K/usr/include/glib-2.0/glib/galloca.h:32[m[K,
                 from [01m[K/usr/include/glib-2.0/glib.h:30[m[K,
                 from [01m[K/usr/include/gtk-3.0/gdk/gdkconfig.h:13[m[K,
                 from [01m[K/usr/include/gtk-3.0/gdk/gdk.h:30[m[K,
                 from [01m[K/usr/include/gtk-3.0/gtk/gtk.h:30[m[K,
                 from [01m[Knd-notification.c:24[m[K:
[01m[K/usr/include/glib-2.0/glib/gtypes.h:547:8:[m[K [01;36m[Knote: [m[Kdeclared here
  547 | struct [01;36m[K_GTimeVal[m[K
      |        [01;36m[K^~~~~~~~~[m[K
[01m[Knd-notification.c:[m[K In function ‘[01m[Knd_notification_update[m[K’:
[01m[Knd-notification.c:204:9:[m[K [01;35m[Kwarning: [m[K‘[01m[Kg_get_current_time[m[K’ is deprecated: Use 'g_get_real_time' instead [[01;35m[K]8;;https://gcc.gnu.org/onlinedocs/gcc/Warning-Options.html#index-Wdeprecated-declarations-Wdeprecated-declarations]8;;[m[K]
  204 |         [01;35m[Kg_get_current_time[m[K (&notification->update_time);
      |         [01;35m[K^~~~~~~~~~~~~~~~~~[m[K
In file included from [01m[K/usr/include/glib-2.0/glib/giochannel.h:33[m[K,
                 from [01m[K/usr/include/glib-2.0/glib.h:54[m[K,
                 from [01m[K/usr/include/gtk-3.0/gdk/gdkconfig.h:13[m[K,
                 from [01m[K/usr/include/gtk-3.0/gdk/gdk.h:30[m[K,
                 from [01m[K/usr/include/gtk-3.0/gtk/gtk.h:30[m[K,
                 from [01m[Knd-notification.c:24[m[K:
[01m[K/usr/include/glib-2.0/glib/gmain.h:679:8:[m[K [01;36m[Knote: [m[Kdeclared here
  679 | void   [01;36m[Kg_get_current_time[m[K                 (GTimeVal       *result);
      |        [01;36m[K^~~~~~~~~~~~~~~~~~[m[K
[01m[Knd-notification.c:[m[K At top level:
[01m[Knd-notification.c:211:34:[m[K [01;35m[Kwarning: [m[K‘[01m[KGTimeVal[m[K’ is deprecated: Use 'GDateTime' instead [[01;35m[K]8;;https://gcc.gnu.org/onlinedocs/gcc/Warning-Options.html#index-Wdeprecated-declarations-Wdeprecated-declarations]8;;[m[K]
  211 |                                  [01;35m[KGTimeVal[m[K       *tvp)
      |                                  [01;35m[K^~~~~~~~[m[K
In file included from [01m[K/usr/include/glib-2.0/glib/galloca.h:32[m[K,
                 from [01m[K/usr/include/glib-2.0/glib.h:30[m[K,
                 from [01m[K/usr/include/gtk-3.0/gdk/gdkconfig.h:13[m[K,
                 from [01m[K/usr/include/gtk-3.0/gdk/gdk.h:30[m[K,
                 from [01m[K/usr/include/gtk-3.0/gtk/gtk.h:30[m[K,
                 from [01m[Knd-notification.c:24[m[K:
[01m[K/usr/include/glib-2.0/glib/gtypes.h:547:8:[m[K [01;36m[Knote: [m[Kdeclared here
  547 | struct [01;36m[K_GTimeVal[m[K
      |        [01;36m[K^~~~~~~~~[m[K
In file included from [01m[Knd-daemon.c:28[m[K:
[01m[Knd-notification.h:65:60:[m[K [01;35m[Kwarning: [m[K‘[01m[KGTimeVal[m[K’ is deprecated: Use 'GDateTime' instead [[01;35m[K]8;;https://gcc.gnu.org/onlinedocs/gcc/Warning-Options.html#index-Wdeprecated-declarations-Wdeprecated-declarations]8;;[m[K]
   65 |                                                            [01;35m[KGTimeVal[m[K       *timeval);
      |                                                            [01;35m[K^~~~~~~~[m[K
In file included from [01m[K/usr/include/glib-2.0/glib/galloca.h:32[m[K,
                 from [01m[K/usr/include/glib-2.0/glib.h:30[m[K,
                 from [01m[K/usr/include/glib-2.0/glib/gi18n.h:21[m[K,
                 from [01m[Knd-daemon.c:23[m[K:
[01m[K/usr/include/glib-2.0/glib/gtypes.h:547:8:[m[K [01;36m[Knote: [m[Kdeclared here
  547 | struct [01;36m[K_GTimeVal[m[K
      |        [01;36m[K^~~~~~~~~[m[K
[01m[Knd-notification.c:[m[K In function ‘[01m[K_notify_daemon_pixbuf_from_data_hint[m[K’:
[01m[Knd-notification.c:446:44:[m[K [01;35m[Kwarning: [m[Kcast between incompatible function types from ‘[01m[Kvoid (*)(void *)[m[K’ to ‘[01m[Kvoid (*)(guchar *, void *)[m[K’ {aka ‘[01m[Kvoid (*)(unsigned char *, void *)[m[K’} [[01;35m[K]8;;https://gcc.gnu.org/onlinedocs/gcc/Warning-Options.html#index-Wcast-function-type-Wcast-function-type]8;;[m[K]
  446 |                                            [01;35m[K([m[KGdkPixbufDestroyNotify) g_free,
      |                                            [01;35m[K^[m[K
[01m[Knd-bubble.c:[m[K In function ‘[01m[Knd_bubble_class_init[m[K’:
[01m[Knd-bubble.c:405:9:[m[K [01;35m[Kwarning: [m[K‘[01m[Kg_type_class_add_private[m[K’ is deprecated [[01;35m[K]8;;https://gcc.gnu.org/onlinedocs/gcc/Warning-Options.html#index-Wdeprecated-declarations-Wdeprecated-declarations]8;;[m[K]
  405 |         [01;35m[Kg_type_class_add_private[m[K (klass, sizeof (NdBubblePrivate));
      |         [01;35m[K^~~~~~~~~~~~~~~~~~~~~~~~[m[K
In file included from [01m[K/usr/include/glib-2.0/gobject/gobject.h:24[m[K,
                 from [01m[K/usr/include/glib-2.0/gobject/gbinding.h:29[m[K,
                 from [01m[K/usr/include/glib-2.0/glib-object.h:22[m[K,
                 from [01m[Knd-notification.h:23[m[K,
                 from [01m[Knd-bubble.c:28[m[K:
[01m[K/usr/include/glib-2.0/gobject/gtype.h:1308:10:[m[K [01;36m[Knote: [m[Kdeclared here
 1308 | void     [01;36m[Kg_type_class_add_private[m[K       (gpointer                    g_class,
      |          [01;36m[K^~~~~~~~~~~~~~~~~~~~~~~~[m[K
[01m[Knd-bubble.c:[m[K In function ‘[01m[Knd_bubble_init[m[K’:
[01m[Knd-bubble.c:462:13:[m[K [01;35m[Kwarning: [m[KDeprecated pre-processor symbol, replace with 
  462 |         bubb[01;35m[Kle->priv = ND_BUBBLE_GET_PRIVATE (bubble);[m[K
      |             [01;35m[K^~~~~~~~~~~~~~~~~~~~~~~~~~~~~~~~~~~~~~~~~~[m[K      
In file included from [01m[Knd-bubble.h:26[m[K,
                 from [01m[Knd-stack.h:26[m[K,
                 from [01m[Knd-stack.c:33[m[K:
[01m[Knd-notification.h:65:60:[m[K [01;35m[Kwarning: [m[K‘[01m[KGTimeVal[m[K’ is deprecated: Use 'GDateTime' instead [[01;35m[K]8;;https://gcc.gnu.org/onlinedocs/gcc/Warning-Options.html#index-Wdeprecated-declarations-Wdeprecated-declarations]8;;[m[K]
   65 |                                                            [01;35m[KGTimeVal[m[K       *timeval);
      |                                                            [01;35m[K^~~~~~~~[m[K
In file included from [01m[K/usr/include/glib-2.0/glib/galloca.h:32[m[K,
                 from [01m[K/usr/include/glib-2.0/glib.h:30[m[K,
                 from [01m[Knd-stack.c:25[m[K:
[01m[K/usr/include/glib-2.0/glib/gtypes.h:547:8:[m[K [01;36m[Knote: [m[Kdeclared here
  547 | struct [01;36m[K_GTimeVal[m[K
      |        [01;36m[K^~~~~~~~~[m[K
[01m[Knd-bubble.c:[m[K In function ‘[01m[Kclear_actions[m[K’:
[01m[Knd-bubble.c:833:32:[m[K [01;35m[Kwarning: [m[Kcast between incompatible function types from ‘[01m[Kvoid (*)(GtkWidget *)[m[K’ {aka ‘[01m[Kvoid (*)(struct _GtkWidget *)[m[K’} to ‘[01m[Kvoid (*)(GtkWidget *, void *)[m[K’ {aka ‘[01m[Kvoid (*)(struct _GtkWidget *, void *)[m[K’} [[01;35m[K]8;;https://gcc.gnu.org/onlinedocs/gcc/Warning-Options.html#index-Wcast-function-type-Wcast-function-type]8;;[m[K]
  833 |                                [01;35m[K([m[KGtkCallback)gtk_widget_destroy,
      |                                [01;35m[K^[m[K
[01m[Knd-stack.c:[m[K In function ‘[01m[Kget_work_area[m[K’:
[01m[Knd-stack.c:117:9:[m[K [01;35m[Kwarning: [m[K‘[01m[Kgdk_screen_get_width[m[K’ is deprecated [[01;35m[K]8;;https://gcc.gnu.org/onlinedocs/gcc/Warning-Options.html#index-Wdeprecated-declarations-Wdeprecated-declarations]8;;[m[K]
  117 |         [01;35m[Krect[m[K->width = gdk_screen_get_width (stack->priv->screen);
      |         [01;35m[K^~~~[m[K
In file included from [01m[K/usr/include/gtk-3.0/gdk/gdkapplaunchcontext.h:31[m[K,
                 from [01m[K/usr/include/gtk-3.0/gdk/gdk.h:32[m[K,
                 from [01m[K/usr/include/gtk-3.0/gdk/gdkx.h:28[m[K,
                 from [01m[Knd-stack.c:31[m[K:
[01m[K/usr/include/gtk-3.0/gdk/gdkscreen.h:58:14:[m[K [01;36m[Knote: [m[Kdeclared here
   58 | gint         [01;36m[Kgdk_screen_get_width[m[K             (GdkScreen   *screen);
      |              [01;36m[K^~~~~~~~~~~~~~~~~~~~[m[K
[01m[Knd-stack.c:118:9:[m[K [01;35m[Kwarning: [m[K‘[01m[Kgdk_screen_get_height[m[K’ is deprecated [[01;35m[K]8;;https://gcc.gnu.org/onlinedocs/gcc/Warning-Options.html#index-Wdeprecated-declarations-Wdeprecated-declarations]8;;[m[K]
  118 |         [01;35m[Krect[m[K->height = gdk_screen_get_height (stack->priv->screen);
      |         [01;35m[K^~~~[m[K
In file included from [01m[K/usr/include/gtk-3.0/gdk/gdkapplaunchcontext.h:31[m[K,
                 from [01m[K/usr/include/gtk-3.0/gdk/gdk.h:32[m[K,
                 from [01m[K/usr/include/gtk-3.0/gdk/gdkx.h:28[m[K,
                 from [01m[Knd-stack.c:31[m[K:
[01m[K/usr/include/gtk-3.0/gdk/gdkscreen.h:60:14:[m[K [01;36m[Knote: [m[Kdeclared here
   60 | gint         [01;36m[Kgdk_screen_get_height[m[K            (GdkScreen   *screen);
      |              [01;36m[K^~~~~~~~~~~~~~~~~~~~~[m[K
In file included from [01m[Knd-queue.h:26[m[K,
                 from [01m[Knd-queue.c:32[m[K:
[01m[Knd-notification.h:65:60:[m[K [01;35m[Kwarning: [m[K‘[01m[KGTimeVal[m[K’ is deprecated: Use 'GDateTime' instead [[01;35m[K]8;;https://gcc.gnu.org/onlinedocs/gcc/Warning-Options.html#index-Wdeprecated-declarations-Wdeprecated-declarations]8;;[m[K]
   65 |                                                            [01;35m[KGTimeVal[m[K       *timeval);
      |                                                            [01;35m[K^~~~~~~~[m[K
[01m[Knd-stack.c:[m[K In function ‘[01m[Knd_stack_class_init[m[K’:
In file included from [01m[K/usr/include/glib-2.0/glib/galloca.h:32[m[K,
                 from [01m[K/usr/include/glib-2.0/glib.h:30[m[K,
                 from [01m[K/usr/include/glib-2.0/glib/gi18n.h:21[m[K,
                 from [01m[Knd-queue.c:23[m[K:
[01m[K/usr/include/glib-2.0/glib/gtypes.h:547:8:[m[K [01;36m[Knote: [m[Kdeclared here
  547 | struct [01;36m[K_GTimeVal[m[K
      |        [01;36m[K^~~~~~~~~[m[K
[01m[Knd-stack.c:243:9:[m[K [01;35m[Kwarning: [m[K‘[01m[Kg_type_class_add_private[m[K’ is deprecated [[01;35m[K]8;;https://gcc.gnu.org/onlinedocs/gcc/Warning-Options.html#index-Wdeprecated-declarations-Wdeprecated-declarations]8;;[m[K]
  243 |         [01;35m[Kg_type_class_add_private[m[K (klass, sizeof (NdStackPrivate));
      |         [01;35m[K^~~~~~~~~~~~~~~~~~~~~~~~[m[K
In file included from [01m[K/usr/include/glib-2.0/gobject/gobject.h:24[m[K,
                 from [01m[K/usr/include/glib-2.0/gobject/gbinding.h:29[m[K,
                 from [01m[K/usr/include/glib-2.0/glib-object.h:22[m[K,
                 from [01m[K/usr/include/glib-2.0/gio/gioenums.h:28[m[K,
                 from [01m[K/usr/include/glib-2.0/gio/giotypes.h:28[m[K,
                 from [01m[K/usr/include/glib-2.0/gio/gio.h:26[m[K,
                 from [01m[K/usr/include/gtk-3.0/gdk/gdkapplaunchcontext.h:28[m[K,
                 from [01m[K/usr/include/gtk-3.0/gdk/gdk.h:32[m[K,
                 from [01m[K/usr/include/gtk-3.0/gdk/gdkx.h:28[m[K,
                 from [01m[Knd-stack.c:31[m[K:
[01m[K/usr/include/glib-2.0/gobject/gtype.h:1308:10:[m[K [01;36m[Knote: [m[Kdeclared here
 1308 | void     [01;36m[Kg_type_class_add_private[m[K       (gpointer                    g_class,
      |          [01;36m[K^~~~~~~~~~~~~~~~~~~~~~~~[m[K
[01m[Knd-stack.c:[m[K In function ‘[01m[Knd_stack_init[m[K’:
[01m[Knd-stack.c:249:13:[m[K [01;35m[Kwarning: [m[KDeprecated pre-processor symbol, replace with 
  249 |         stac[01;35m[Kk->priv = ND_STACK_GET_PRIVATE (stack);[m[K
      |             [01;35m[K^~~~~~~~~~~~~~~~~~~~~~~~~~~~~~~~~~~~~~~[m[K         
[01m[Knd-queue.c:[m[K In function ‘[01m[Kon_screen_monitors_changed[m[K’:
[01m[Knd-queue.c:105:9:[m[K [01;35m[Kwarning: [m[K‘[01m[Kgdk_screen_get_n_monitors[m[K’ is deprecated: Use 'gdk_display_get_n_monitors' instead [[01;35m[K]8;;https://gcc.gnu.org/onlinedocs/gcc/Warning-Options.html#index-Wdeprecated-declarations-Wdeprecated-declarations]8;;[m[K]
  105 |         [01;35m[Kn_monitors[m[K = gdk_screen_get_n_monitors (screen);
      |         [01;35m[K^~~~~~~~~~[m[K
In file included from [01m[K/usr/include/gtk-3.0/gdk/gdkapplaunchcontext.h:31[m[K,
                 from [01m[K/usr/include/gtk-3.0/gdk/gdk.h:32[m[K,
                 from [01m[K/usr/include/gtk-3.0/gtk/gtk.h:30[m[K,
                 from [01m[Knd-queue.c:24[m[K:
[01m[K/usr/include/gtk-3.0/gdk/gdkscreen.h:74:14:[m[K [01;36m[Knote: [m[Kdeclared here
   74 | gint         [01;36m[Kgdk_screen_get_n_monitors[m[K        (GdkScreen    *screen);
      |              [01;36m[K^~~~~~~~~~~~~~~~~~~~~~~~~[m[K
[01m[Knd-stack.c:[m[K In function ‘[01m[Knd_stack_new[m[K’:
[01m[Knd-stack.c:290:9:[m[K [01;35m[Kwarning: [m[K‘[01m[Kgdk_screen_get_n_monitors[m[K’ is deprecated: Use 'gdk_display_get_n_monitors' instead [[01;35m[K]8;;https://gcc.gnu.org/onlinedocs/gcc/Warning-Options.html#index-Wdeprecated-declarations-Wdeprecated-declarations]8;;[m[K]
  290 |         [01;35m[Kg_assert[m[K (monitor < (guint)gdk_screen_get_n_monitors (screen));
      |         [01;35m[K^~~~~~~~[m[K
[01m[Knd-queue.c:[m[K In function ‘[01m[Kcreate_stacks_for_screen[m[K’:
[01m[Knd-queue.c:161:9:[m[K [01;35m[Kwarning: [m[K‘[01m[Kgdk_screen_get_n_monitors[m[K’ is deprecated: Use 'gdk_display_get_n_monitors' instead [[01;35m[K]8;;https://gcc.gnu.org/onlinedocs/gcc/Warning-Options.html#index-Wdeprecated-declarations-Wdeprecated-declarations]8;;[m[K]
  161 |         [01;35m[Knscreen[m[K->n_stacks = gdk_screen_get_n_monitors (screen);
      |         [01;35m[K^~~~~~~[m[K
In file included from [01m[K/usr/include/gtk-3.0/gdk/gdkapplaunchcontext.h:31[m[K,
                 from [01m[K/usr/include/gtk-3.0/gdk/gdk.h:32[m[K,
                 from [01m[K/usr/include/gtk-3.0/gtk/gtk.h:30[m[K,
                 from [01m[Knd-queue.c:24[m[K:
[01m[K/usr/include/gtk-3.0/gdk/gdkscreen.h:74:14:[m[K [01;36m[Knote: [m[Kdeclared here
   74 | gint         [01;36m[Kgdk_screen_get_n_monitors[m[K        (GdkScreen    *screen);
      |              [01;36m[K^~~~~~~~~~~~~~~~~~~~~~~~~[m[K
In file included from [01m[K/usr/include/gtk-3.0/gdk/gdkapplaunchcontext.h:31[m[K,
                 from [01m[K/usr/include/gtk-3.0/gdk/gdk.h:32[m[K,
                 from [01m[K/usr/include/gtk-3.0/gdk/gdkx.h:28[m[K,
                 from [01m[Knd-stack.c:31[m[K:
[01m[K/usr/include/gtk-3.0/gdk/gdkscreen.h:74:14:[m[K [01;36m[Knote: [m[Kdeclared here
   74 | gint         [01;36m[Kgdk_screen_get_n_monitors[m[K        (GdkScreen    *screen);
      |              [01;36m[K^~~~~~~~~~~~~~~~~~~~~~~~~[m[K
[01m[Knd-stack.c:[m[K In function ‘[01m[Knd_stack_shift_notifications[m[K’:
[01m[Knd-stack.c:334:9:[m[K [01;35m[Kwarning: [m[K‘[01m[Kgdk_screen_get_monitor_geometry[m[K’ is deprecated: Use 'gdk_monitor_get_geometry' instead [[01;35m[K]8;;https://gcc.gnu.org/onlinedocs/gcc/Warning-Options.html#index-Wdeprecated-declarations-Wdeprecated-declarations]8;;[m[K]
  334 |         [01;35m[Kgdk_screen_get_monitor_geometry[m[K (stack->priv->screen,
      |         [01;35m[K^~~~~~~~~~~~~~~~~~~~~~~~~~~~~~~[m[K
In file included from [01m[K/usr/include/gtk-3.0/gdk/gdkapplaunchcontext.h:31[m[K,
                 from [01m[K/usr/include/gtk-3.0/gdk/gdk.h:32[m[K,
                 from [01m[K/usr/include/gtk-3.0/gdk/gdkx.h:28[m[K,
                 from [01m[Knd-stack.c:31[m[K:
[01m[K/usr/include/gtk-3.0/gdk/gdkscreen.h:78:14:[m[K [01;36m[Knote: [m[Kdeclared here
   78 | void         [01;36m[Kgdk_screen_get_monitor_geometry[m[K  (GdkScreen    *screen,
      |              [01;36m[K^~~~~~~~~~~~~~~~~~~~~~~~~~~~~~~[m[K
[01m[Knd-queue.c:[m[K In function ‘[01m[Knd_queue_class_init[m[K’:
[01m[Knd-queue.c:238:9:[m[K [01;35m[Kwarning: [m[K‘[01m[Kg_type_class_add_private[m[K’ is deprecated [[01;35m[K]8;;https://gcc.gnu.org/onlinedocs/gcc/Warning-Options.html#index-Wdeprecated-declarations-Wdeprecated-declarations]8;;[m[K]
  238 |         [01;35m[Kg_type_class_add_private[m[K (klass, sizeof (NdQueuePrivate));
      |         [01;35m[K^~~~~~~~~~~~~~~~~~~~~~~~[m[K
In file included from [01m[K/usr/include/glib-2.0/gobject/gobject.h:24[m[K,
                 from [01m[K/usr/include/glib-2.0/gobject/gbinding.h:29[m[K,
                 from [01m[K/usr/include/glib-2.0/glib-object.h:22[m[K,
                 from [01m[K/usr/include/glib-2.0/gio/gioenums.h:28[m[K,
                 from [01m[K/usr/include/glib-2.0/gio/giotypes.h:28[m[K,
                 from [01m[K/usr/include/glib-2.0/gio/gio.h:26[m[K,
                 from [01m[K/usr/include/gtk-3.0/gdk/gdkapplaunchcontext.h:28[m[K,
                 from [01m[K/usr/include/gtk-3.0/gdk/gdk.h:32[m[K,
                 from [01m[K/usr/include/gtk-3.0/gtk/gtk.h:30[m[K,
                 from [01m[Knd-queue.c:24[m[K:
[01m[K/usr/include/glib-2.0/gobject/gtype.h:1308:10:[m[K [01;36m[Knote: [m[Kdeclared here
 1308 | void     [01;36m[Kg_type_class_add_private[m[K       (gpointer                    g_class,
      |          [01;36m[K^~~~~~~~~~~~~~~~~~~~~~~~[m[K
[01m[Knd-stack.c:[m[K In function ‘[01m[Knd_stack_remove_all[m[K’:
[01m[Knd-stack.c:481:34:[m[K [01;35m[Kwarning: [m[Kcast between incompatible function types from ‘[01m[Kvoid (*)(GtkWidget *)[m[K’ {aka ‘[01m[Kvoid (*)(struct _GtkWidget *)[m[K’} to ‘[01m[Kvoid (*)(void *, void *)[m[K’ [[01;35m[K]8;;https://gcc.gnu.org/onlinedocs/gcc/Warning-Options.html#index-Wcast-function-type-Wcast-function-type]8;;[m[K]
  481 |         g_list_foreach (bubbles, [01;35m[K([m[KGFunc)gtk_widget_destroy, NULL);
      |                                  [01;35m[K^[m[K
[01m[Knd-queue.c:[m[K In function ‘[01m[Knd_queue_init[m[K’:
[01m[Knd-queue.c:460:13:[m[K [01;35m[Kwarning: [m[KDeprecated pre-processor symbol, replace with 
  460 |         queu[01;35m[Ke->priv = ND_QUEUE_GET_PRIVATE (queue);[m[K
      |             [01;35m[K^~~~~~~~~~~~~~~~~~~~~~~~~~~~~~~~~~~~~~~[m[K         
[01m[Knd-queue.c:[m[K In function ‘[01m[Kget_stack_with_pointer[m[K’:
[01m[Knd-queue.c:562:9:[m[K [01;35m[Kwarning: [m[K‘[01m[Kgdk_screen_get_monitor_at_point[m[K’ is deprecated: Use 'gdk_display_get_monitor_at_point' instead [[01;35m[K]8;;https://gcc.gnu.org/onlinedocs/gcc/Warning-Options.html#index-Wdeprecated-declarations-Wdeprecated-declarations]8;;[m[K]
  562 |         [01;35m[Kmonitor_num[m[K = gdk_screen_get_monitor_at_point (screen, x, y);
      |         [01;35m[K^~~~~~~~~~~[m[K
In file included from [01m[K/usr/include/gtk-3.0/gdk/gdkapplaunchcontext.h:31[m[K,
                 from [01m[K/usr/include/gtk-3.0/gdk/gdk.h:32[m[K,
                 from [01m[K/usr/include/gtk-3.0/gtk/gtk.h:30[m[K,
                 from [01m[Knd-queue.c:24[m[K:
[01m[K/usr/include/gtk-3.0/gdk/gdkscreen.h:87:15:[m[K [01;36m[Knote: [m[Kdeclared here
   87 | gint          [01;36m[Kgdk_screen_get_monitor_at_point[m[K  (GdkScreen *screen,
      |               [01;36m[K^~~~~~~~~~~~~~~~~~~~~~~~~~~~~~~[m[K
[01m[Knd-notification-box.c:[m[K In function ‘[01m[Knd_notification_box_class_init[m[K’:
[01m[Knd-notification-box.c:84:9:[m[K [01;35m[Kwarning: [m[K‘[01m[Kg_type_class_add_private[m[K’ is deprecated [[01;35m[K]8;;https://gcc.gnu.org/onlinedocs/gcc/Warning-Options.html#index-Wdeprecated-declarations-Wdeprecated-declarations]8;;[m[K]
   84 |         [01;35m[Kg_type_class_add_private[m[K (klass, sizeof (NdNotificationBoxPrivate));
      |         [01;35m[K^~~~~~~~~~~~~~~~~~~~~~~~[m[K
In file included from [01m[K/usr/include/glib-2.0/gobject/gobject.h:24[m[K,
                 from [01m[K/usr/include/glib-2.0/gobject/gbinding.h:29[m[K,
                 from [01m[K/usr/include/glib-2.0/glib-object.h:22[m[K,
                 from [01m[Knd-notification.h:23[m[K,
                 from [01m[Knd-notification-box.c:28[m[K:
[01m[K/usr/include/glib-2.0/gobject/gtype.h:1308:10:[m[K [01;36m[Knote: [m[Kdeclared here
 1308 | void     [01;36m[Kg_type_class_add_private[m[K       (gpointer                    g_class,
      |          [01;36m[K^~~~~~~~~~~~~~~~~~~~~~~~[m[K
[01m[Knd-queue.c:[m[K In function ‘[01m[Kcollate_notifications[m[K’:
[01m[Knd-queue.c:637:9:[m[K [01;35m[Kwarning: [m[K‘[01m[KGTimeVal[m[K’ is deprecated: Use 'GDateTime' instead [[01;35m[K]8;;https://gcc.gnu.org/onlinedocs/gcc/Warning-Options.html#index-Wdeprecated-declarations-Wdeprecated-declarations]8;;[m[K]
  637 |         [01;35m[KGTimeVal[m[K tva;
      |         [01;35m[K^~~~~~~~[m[K
In file included from [01m[K/usr/include/glib-2.0/glib/galloca.h:32[m[K,
                 from [01m[K/usr/include/glib-2.0/glib.h:30[m[K,
                 from [01m[K/usr/include/glib-2.0/glib/gi18n.h:21[m[K,
                 from [01m[Knd-queue.c:23[m[K:
[01m[K/usr/include/glib-2.0/glib/gtypes.h:547:8:[m[K [01;36m[Knote: [m[Kdeclared here
  547 | struct [01;36m[K_GTimeVal[m[K
      |        [01;36m[K^~~~~~~~~[m[K
[01m[Knd-queue.c:638:9:[m[K [01;35m[Kwarning: [m[K‘[01m[KGTimeVal[m[K’ is deprecated: Use 'GDateTime' instead [[01;35m[K]8;;https://gcc.gnu.org/onlinedocs/gcc/Warning-Options.html#index-Wdeprecated-declarations-Wdeprecated-declarations]8;;[m[K]
  638 |         [01;35m[KGTimeVal[m[K tvb;
      |         [01;35m[K^~~~~~~~[m[K
In file included from [01m[K/usr/include/glib-2.0/glib/galloca.h:32[m[K,
                 from [01m[K/usr/include/glib-2.0/glib.h:30[m[K,
                 from [01m[K/usr/include/glib-2.0/glib/gi18n.h:21[m[K,
                 from [01m[Knd-queue.c:23[m[K:
[01m[K/usr/include/glib-2.0/glib/gtypes.h:547:8:[m[K [01;36m[Knote: [m[Kdeclared here
  547 | struct [01;36m[K_GTimeVal[m[K
      |        [01;36m[K^~~~~~~~~[m[K
[01m[Knd-queue.c:[m[K In function ‘[01m[Kupdate_dock[m[K’:
[01m[Knd-queue.c:712:17:[m[K [01;35m[Kwarning: [m[K‘[01m[Kgdk_screen_get_monitor_at_point[m[K’ is deprecated: Use 'gdk_display_get_monitor_at_point' instead [[01;35m[K]8;;https://gcc.gnu.org/onlinedocs/gcc/Warning-Options.html#index-Wdeprecated-declarations-Wdeprecated-declarations]8;;[m[K]
  712 |                 [01;35m[Kmonitor_num[m[K = gdk_screen_get_monitor_at_point (screen, area.x, area.y);
      |                 [01;35m[K^~~~~~~~~~~[m[K
In file included from [01m[K/usr/include/gtk-3.0/gdk/gdkapplaunchcontext.h:31[m[K,
                 from [01m[K/usr/include/gtk-3.0/gdk/gdk.h:32[m[K,
                 from [01m[K/usr/include/gtk-3.0/gtk/gtk.h:30[m[K,
                 from [01m[Knd-queue.c:24[m[K:
[01m[K/usr/include/gtk-3.0/gdk/gdkscreen.h:87:15:[m[K [01;36m[Knote: [m[Kdeclared here
   87 | gint          [01;36m[Kgdk_screen_get_monitor_at_point[m[K  (GdkScreen *screen,
      |               [01;36m[K^~~~~~~~~~~~~~~~~~~~~~~~~~~~~~~[m[K
[01m[Knd-queue.c:713:17:[m[K [01;35m[Kwarning: [m[K‘[01m[Kgdk_screen_get_monitor_geometry[m[K’ is deprecated: Use 'gdk_monitor_get_geometry' instead [[01;35m[K]8;;https://gcc.gnu.org/onlinedocs/gcc/Warning-Options.html#index-Wdeprecated-declarations-Wdeprecated-declarations]8;;[m[K]
  713 |                 [01;35m[Kgdk_screen_get_monitor_geometry[m[K (screen, monitor_num, &area);
      |                 [01;35m[K^~~~~~~~~~~~~~~~~~~~~~~~~~~~~~~[m[K
In file included from [01m[K/usr/include/gtk-3.0/gdk/gdkapplaunchcontext.h:31[m[K,
                 from [01m[K/usr/include/gtk-3.0/gdk/gdk.h:32[m[K,
                 from [01m[K/usr/include/gtk-3.0/gtk/gtk.h:30[m[K,
                 from [01m[Knd-queue.c:24[m[K:
[01m[K/usr/include/gtk-3.0/gdk/gdkscreen.h:78:14:[m[K [01;36m[Knote: [m[Kdeclared here
   78 | void         [01;36m[Kgdk_screen_get_monitor_geometry[m[K  (GdkScreen    *screen,
      |              [01;36m[K^~~~~~~~~~~~~~~~~~~~~~~~~~~~~~~[m[K
[01m[Knd-queue.c:[m[K In function ‘[01m[Kpopup_dock[m[K’:
[01m[Knd-queue.c:759:9:[m[K [01;35m[Kwarning: [m[K‘[01m[Kgdk_screen_get_monitor_at_point[m[K’ is deprecated: Use 'gdk_display_get_monitor_at_point' instead [[01;35m[K]8;;https://gcc.gnu.org/onlinedocs/gcc/Warning-Options.html#index-Wdeprecated-declarations-Wdeprecated-declarations]8;;[m[K]
  759 |         [01;35m[Kmonitor_num[m[K = gdk_screen_get_monitor_at_point (screen, area.x, area.y);
      |         [01;35m[K^~~~~~~~~~~[m[K
In file included from [01m[K/usr/include/gtk-3.0/gdk/gdkapplaunchcontext.h:31[m[K,
                 from [01m[K/usr/include/gtk-3.0/gdk/gdk.h:32[m[K,
                 from [01m[K/usr/include/gtk-3.0/gtk/gtk.h:30[m[K,
                 from [01m[Knd-queue.c:24[m[K:
[01m[K/usr/include/gtk-3.0/gdk/gdkscreen.h:87:15:[m[K [01;36m[Knote: [m[Kdeclared here
   87 | gint          [01;36m[Kgdk_screen_get_monitor_at_point[m[K  (GdkScreen *screen,
      |               [01;36m[K^~~~~~~~~~~~~~~~~~~~~~~~~~~~~~~[m[K
[01m[Knd-queue.c:760:9:[m[K [01;35m[Kwarning: [m[K‘[01m[Kgdk_screen_get_monitor_geometry[m[K’ is deprecated: Use 'gdk_monitor_get_geometry' instead [[01;35m[K]8;;https://gcc.gnu.org/onlinedocs/gcc/Warning-Options.html#index-Wdeprecated-declarations-Wdeprecated-declarations]8;;[m[K]
  760 |         [01;35m[Kgdk_screen_get_monitor_geometry[m[K (screen, monitor_num, &monitor);
      |         [01;35m[K^~~~~~~~~~~~~~~~~~~~~~~~~~~~~~~[m[K
In file included from [01m[K/usr/include/gtk-3.0/gdk/gdkapplaunchcontext.h:31[m[K,
                 from [01m[K/usr/include/gtk-3.0/gdk/gdk.h:32[m[K,
                 from [01m[K/usr/include/gtk-3.0/gtk/gtk.h:30[m[K,
                 from [01m[Knd-queue.c:24[m[K:
[01m[K/usr/include/gtk-3.0/gdk/gdkscreen.h:78:14:[m[K [01;36m[Knote: [m[Kdeclared here
   78 | void         [01;36m[Kgdk_screen_get_monitor_geometry[m[K  (GdkScreen    *screen,
      |              [01;36m[K^~~~~~~~~~~~~~~~~~~~~~~~~~~~~~~[m[K
[01m[Knd-queue.c:763:32:[m[K [01;35m[Kwarning: [m[Kcast between incompatible function types from ‘[01m[Kvoid (*)(GtkWidget *)[m[K’ {aka ‘[01m[Kvoid (*)(struct _GtkWidget *)[m[K’} to ‘[01m[Kvoid (*)(GtkWidget *, void *)[m[K’ {aka ‘[01m[Kvoid (*)(struct _GtkWidget *, void *)[m[K’} [[01;35m[K]8;;https://gcc.gnu.org/onlinedocs/gcc/Warning-Options.html#index-Wcast-function-type-Wcast-function-type]8;;[m[K]
  763 |                                [01;35m[K([m[KGtkCallback) gtk_widget_show_all, NULL);
      |                                [01;35m[K^[m[K
[01m[Knd-notification-box.c:[m[K In function ‘[01m[Knd_notification_box_init[m[K’:
[01m[Knd-notification-box.c:285:13:[m[K [01;35m[Kwarning: [m[KDeprecated pre-processor symbol, replace with 
  285 |         noti[01;35m[Kfication_box->priv = ND_NOTIFICATION_BOX_GET_PRI[m[KVATE (notification_box);
      |             [01;35m[K^~~~~~~~~~~~~~~~~~~~~~~~~~~~~~~~~~~~~~~~~~~~~~~~[m[K
/bin/sh ../libtool  --tag=CC   --mode=link x86_64-pc-linux-gnu-gcc -DLOCALE_DIR=\""/usr/share/locale"\" -I../src -pthread -I/usr/include/gtk-3.0 -I/usr/include/gio-unix-2.0 -I/usr/include/cairo -I/usr/include/pango-1.0 -I/usr/include/fribidi -I/usr/include/atk-1.0 -I/usr/include/cairo -I/usr/include/pixman-1 -I/usr/include/uuid -I/usr/include/freetype2 -I/usr/include/harfbuzz -I/usr/include/libpng16 -I/usr/include/gdk-pixbuf-2.0 -I/usr/include/libmount -I/usr/include/blkid -I/usr/lib64/libffi/include -I/usr/include/glib-2.0 -I/usr/lib64/glib-2.0/include -fno-strict-aliasing -Wall -Wextra -Wundef -Wnested-externs -Wwrite-strings -Wpointer-arith -Wmissing-declarations -Wmissing-prototypes -Wstrict-prototypes -Wredundant-decls -Wno-unused-parameter -Wno-missing-field-initializers -Wdeclaration-after-statement -Wformat=2 -Wold-style-definition -Wcast-align -Wformat-nonliteral -Wformat-security -Wsign-compare -Wstrict-aliasing -Wshadow -Winline -Wpacked -Wmissing-format-attribute -Wmissing-noreturn -Winit-self -Wmissing-include-dirs -Wunused-but-set-variable -Warray-bounds -Wimplicit-function-declaration -Wreturn-type -Wswitch-enum -Wswitch-default -Wno-error=unused-parameter -Wno-error=missing-field-initializers   -march=znver2 -Ofast -pipe -g0 -fno-common -fgraphite-identity -floop-interchange -floop-nest-optimize -floop-parallelize-all -ftree-parallelize-loops=12 -ftree-vectorize -fdevirtualize-at-ltrans -fipa-pta -fno-semantic-interposition -flto=12 -fno-plt -falign-functions=32 -fno-stack-protector -fno-stack-clash-protection -fstack-check=no -fno-stack-check -fuse-linker-plugin -Wl,-O1,--sort-common,--as-needed,-z,norelro,-z,now,-lgomp,-lpthread -Wl,--no-as-needed   -Wl,-O1,--sort-common,--as-needed,-z,norelro,-z,now,-lgomp,-lpthread -march=znver2 -Ofast -pipe -g0 -fno-common -fgraphite-identity -floop-interchange -floop-nest-optimize -floop-parallelize-all -ftree-parallelize-loops=12 -ftree-vectorize -fdevirtualize-at-ltrans -fipa-pta -fno-semantic-interposition -flto=12 -fno-plt -falign-functions=32 -fno-stack-protector -fno-stack-clash-protection -fstack-check=no -fno-stack-check -fuse-linker-plugin -o notification-daemon notification_daemon-nd-bubble.o notification_daemon-nd-daemon.o notification_daemon-nd-main.o notification_daemon-nd-notification.o notification_daemon-nd-notification-box.o notification_daemon-nd-queue.o notification_daemon-nd-stack.o notification_daemon-nd-fd-notifications.o   -lgtk-3 -lgdk-3 -lpangocairo-1.0 -lpango-1.0 -latk-1.0 -lcairo-gobject -lcairo -lgdk_pixbuf-2.0 -lgio-2.0 -lgobject-2.0 -lglib-2.0 -lX11  
libtool: link: x86_64-pc-linux-gnu-gcc -DLOCALE_DIR=\"/usr/share/locale\" -I../src -pthread -I/usr/include/gtk-3.0 -I/usr/include/gio-unix-2.0 -I/usr/include/cairo -I/usr/include/pango-1.0 -I/usr/include/fribidi -I/usr/include/atk-1.0 -I/usr/include/cairo -I/usr/include/pixman-1 -I/usr/include/uuid -I/usr/include/freetype2 -I/usr/include/harfbuzz -I/usr/include/libpng16 -I/usr/include/gdk-pixbuf-2.0 -I/usr/include/libmount -I/usr/include/blkid -I/usr/lib64/libffi/include -I/usr/include/glib-2.0 -I/usr/lib64/glib-2.0/include -fno-strict-aliasing -Wall -Wextra -Wundef -Wnested-externs -Wwrite-strings -Wpointer-arith -Wmissing-declarations -Wmissing-prototypes -Wstrict-prototypes -Wredundant-decls -Wno-unused-parameter -Wno-missing-field-initializers -Wdeclaration-after-statement -Wformat=2 -Wold-style-definition -Wcast-align -Wformat-nonliteral -Wformat-security -Wsign-compare -Wstrict-aliasing -Wshadow -Winline -Wpacked -Wmissing-format-attribute -Wmissing-noreturn -Winit-self -Wmissing-include-dirs -Wunused-but-set-variable -Warray-bounds -Wimplicit-function-declaration -Wreturn-type -Wswitch-enum -Wswitch-default -Wno-error=unused-parameter -Wno-error=missing-field-initializers -march=znver2 -Ofast -pipe -g0 -fno-common -fgraphite-identity -floop-interchange -floop-nest-optimize -floop-parallelize-all -ftree-parallelize-loops=12 -ftree-vectorize -fdevirtualize-at-ltrans -fipa-pta -fno-semantic-interposition -flto=12 -fno-plt -falign-functions=32 -fno-stack-protector -fno-stack-clash-protection -fstack-check=no -fno-stack-check -fuse-linker-plugin -Wl,-O1 -Wl,--sort-common -Wl,--as-needed -Wl,-z -Wl,norelro -Wl,-z -Wl,now -Wl,-lgomp -Wl,-lpthread -Wl,--no-as-needed -Wl,-O1 -Wl,--sort-common -Wl,--as-needed -Wl,-z -Wl,norelro -Wl,-z -Wl,now -Wl,-lgomp -Wl,-lpthread -march=znver2 -Ofast -pipe -g0 -fno-common -fgraphite-identity -floop-interchange -floop-nest-optimize -floop-parallelize-all -ftree-parallelize-loops=12 -ftree-vectorize -fdevirtualize-at-ltrans -fipa-pta -fno-semantic-interposition -flto=12 -fno-plt -falign-functions=32 -fno-stack-protector -fno-stack-clash-protection -fstack-check=no -fno-stack-check -fuse-linker-plugin -o notification-daemon notification_daemon-nd-bubble.o notification_daemon-nd-daemon.o notification_daemon-nd-main.o notification_daemon-nd-notification.o notification_daemon-nd-notification-box.o notification_daemon-nd-queue.o notification_daemon-nd-stack.o notification_daemon-nd-fd-notifications.o  -lgtk-3 -lgdk-3 -lpangocairo-1.0 -lpango-1.0 -latk-1.0 -lcairo-gobject -lcairo -lgdk_pixbuf-2.0 -lgio-2.0 -lgobject-2.0 -lglib-2.0 -lX11 -pthread
[01m[Knd-queue.c:[m[K In function '[01m[Kcollate_notifications[m[K':
[01m[Knd-queue.c:642:12:[m[K [01;35m[Kwarning: [m[K'[01m[Ktvb.tv_sec[m[K' may be used uninitialized in this function [[01;35m[K]8;;https://gcc.gnu.org/onlinedocs/gcc/Warning-Options.html#index-Wmaybe-uninitialized-Wmaybe-uninitialized]8;;[m[K]
  642 |         if (tva.tv_sec > tvb.tv_sec) {
      |            [01;35m[K^[m[K
[01m[Knd-queue.c:638:18:[m[K [01;36m[Knote: [m[K'[01m[Ktvb.tv_sec[m[K' was declared here
  638 |         GTimeVal tvb;
      |                  [01;36m[K^[m[K
[01m[Knd-queue.c:642:12:[m[K [01;35m[Kwarning: [m[K'[01m[Ktva.tv_sec[m[K' may be used uninitialized in this function [[01;35m[K]8;;https://gcc.gnu.org/onlinedocs/gcc/Warning-Options.html#index-Wmaybe-uninitialized-Wmaybe-uninitialized]8;;[m[K]
  642 |         if (tva.tv_sec > tvb.tv_sec) {
      |            [01;35m[K^[m[K
[01m[Knd-queue.c:637:18:[m[K [01;36m[Knote: [m[K'[01m[Ktva.tv_sec[m[K' was declared here
  637 |         GTimeVal tva;
      |                  [01;36m[K^[m[K
[01m[Knd-bubble.c:[m[K In function '[01m[Knd_bubble_draw[m[K':
[01m[Knd-bubble.c:255:9:[m[K [01;35m[Kwarning: [m[K'[01m[Kbg.blue[m[K' may be used uninitialized in this function [[01;35m[K]8;;https://gcc.gnu.org/onlinedocs/gcc/Warning-Options.html#index-Wmaybe-uninitialized-Wmaybe-uninitialized]8;;[m[K]
  255 |         cairo_set_source_rgba (cr2, bg.red, bg.green, bg.blue,
      |         [01;35m[K^[m[K
[01m[Knd-bubble.c:213:26:[m[K [01;36m[Knote: [m[K'[01m[Kbg.blue[m[K' was declared here
  213 |         GdkRGBA          bg;
      |                          [01;36m[K^[m[K
[01m[Knd-bubble.c:255:9:[m[K [01;35m[Kwarning: [m[K'[01m[Kbg.green[m[K' may be used uninitialized in this function [[01;35m[K]8;;https://gcc.gnu.org/onlinedocs/gcc/Warning-Options.html#index-Wmaybe-uninitialized-Wmaybe-uninitialized]8;;[m[K]
  255 |         cairo_set_source_rgba (cr2, bg.red, bg.green, bg.blue,
      |         [01;35m[K^[m[K
[01m[Knd-bubble.c:213:26:[m[K [01;36m[Knote: [m[K'[01m[Kbg.green[m[K' was declared here
  213 |         GdkRGBA          bg;
      |                          [01;36m[K^[m[K
[01m[Knd-bubble.c:255:9:[m[K [01;35m[Kwarning: [m[K'[01m[Kbg.red[m[K' may be used uninitialized in this function [[01;35m[K]8;;https://gcc.gnu.org/onlinedocs/gcc/Warning-Options.html#index-Wmaybe-uninitialized-Wmaybe-uninitialized]8;;[m[K]
  255 |         cairo_set_source_rgba (cr2, bg.red, bg.green, bg.blue,
      |         [01;35m[K^[m[K
[01m[Knd-bubble.c:213:26:[m[K [01;36m[Knote: [m[K'[01m[Kbg.red[m[K' was declared here
  213 |         GdkRGBA          bg;
      |                          [01;36m[K^[m[K
make[3]: Leaving directory '/tmp/portage/x11-misc/notification-daemon-3.20.0/work/notification-daemon-3.20.0/src'
make[2]: Leaving directory '/tmp/portage/x11-misc/notification-daemon-3.20.0/work/notification-daemon-3.20.0/src'
Making all in po
make[2]: Entering directory '/tmp/portage/x11-misc/notification-daemon-3.20.0/work/notification-daemon-3.20.0/po'
make[2]: Nothing to be done for 'all'.
make[2]: Leaving directory '/tmp/portage/x11-misc/notification-daemon-3.20.0/work/notification-daemon-3.20.0/po'
make[2]: Entering directory '/tmp/portage/x11-misc/notification-daemon-3.20.0/work/notification-daemon-3.20.0'
make[2]: Leaving directory '/tmp/portage/x11-misc/notification-daemon-3.20.0/work/notification-daemon-3.20.0'
make[1]: Leaving directory '/tmp/portage/x11-misc/notification-daemon-3.20.0/work/notification-daemon-3.20.0'
>>> Source compiled.
>>> Test phase [not enabled]: x11-misc/notification-daemon-3.20.0

>>> Install x11-misc/notification-daemon-3.20.0 into /tmp/portage/x11-misc/notification-daemon-3.20.0/image/
make -j12 -l12 DESTDIR=/tmp/portage/x11-misc/notification-daemon-3.20.0/image/ install 
Making install in data
make[1]: Entering directory '/tmp/portage/x11-misc/notification-daemon-3.20.0/work/notification-daemon-3.20.0/data'
make[2]: Entering directory '/tmp/portage/x11-misc/notification-daemon-3.20.0/work/notification-daemon-3.20.0/data'
make[2]: Nothing to be done for 'install-exec-am'.
 /bin/mkdir -p '/tmp/portage/x11-misc/notification-daemon-3.20.0/image//usr/share/applications'
 /tmp/portage/._portage_reinstall_.z8sq2nh6/bin/ebuild-helpers/xattr/install -c -m 644 notification-daemon.desktop '/tmp/portage/x11-misc/notification-daemon-3.20.0/image//usr/share/applications'
make[2]: Leaving directory '/tmp/portage/x11-misc/notification-daemon-3.20.0/work/notification-daemon-3.20.0/data'
make[1]: Leaving directory '/tmp/portage/x11-misc/notification-daemon-3.20.0/work/notification-daemon-3.20.0/data'
Making install in src
make[1]: Entering directory '/tmp/portage/x11-misc/notification-daemon-3.20.0/work/notification-daemon-3.20.0/src'
make  install-am
make[2]: Entering directory '/tmp/portage/x11-misc/notification-daemon-3.20.0/work/notification-daemon-3.20.0/src'
make[3]: Entering directory '/tmp/portage/x11-misc/notification-daemon-3.20.0/work/notification-daemon-3.20.0/src'
make[3]: Nothing to be done for 'install-data-am'.
 /bin/mkdir -p '/tmp/portage/x11-misc/notification-daemon-3.20.0/image//usr/libexec'
  /bin/sh ../libtool   --mode=install /tmp/portage/._portage_reinstall_.z8sq2nh6/bin/ebuild-helpers/xattr/install -c notification-daemon '/tmp/portage/x11-misc/notification-daemon-3.20.0/image//usr/libexec'
libtool: install: /tmp/portage/._portage_reinstall_.z8sq2nh6/bin/ebuild-helpers/xattr/install -c notification-daemon /tmp/portage/x11-misc/notification-daemon-3.20.0/image//usr/libexec/notification-daemon
make[3]: Leaving directory '/tmp/portage/x11-misc/notification-daemon-3.20.0/work/notification-daemon-3.20.0/src'
make[2]: Leaving directory '/tmp/portage/x11-misc/notification-daemon-3.20.0/work/notification-daemon-3.20.0/src'
make[1]: Leaving directory '/tmp/portage/x11-misc/notification-daemon-3.20.0/work/notification-daemon-3.20.0/src'
Making install in po
make[1]: Entering directory '/tmp/portage/x11-misc/notification-daemon-3.20.0/work/notification-daemon-3.20.0/po'
if test "notification-daemon" = "gettext-tools"; then \
  /bin/mkdir -p /tmp/portage/x11-misc/notification-daemon-3.20.0/image//usr/share/gettext/po; \
  for file in Makefile.in.in remove-potcdate.sin quot.sed boldquot.sed en@quot.header en@boldquot.header insert-header.sin Rules-quot   Makevars.template; do \
    /tmp/portage/._portage_reinstall_.z8sq2nh6/bin/ebuild-helpers/xattr/install -c -m 644 ./$file \
		    /tmp/portage/x11-misc/notification-daemon-3.20.0/image//usr/share/gettext/po/$file; \
  done; \
  for file in Makevars; do \
    rm -f /tmp/portage/x11-misc/notification-daemon-3.20.0/image//usr/share/gettext/po/$file; \
  done; \
else \
  : ; \
fi
make[1]: Leaving directory '/tmp/portage/x11-misc/notification-daemon-3.20.0/work/notification-daemon-3.20.0/po'
make[1]: Entering directory '/tmp/portage/x11-misc/notification-daemon-3.20.0/work/notification-daemon-3.20.0'
make[2]: Entering directory '/tmp/portage/x11-misc/notification-daemon-3.20.0/work/notification-daemon-3.20.0'
make[2]: Nothing to be done for 'install-exec-am'.
make[2]: Nothing to be done for 'install-data-am'.
make[2]: Leaving directory '/tmp/portage/x11-misc/notification-daemon-3.20.0/work/notification-daemon-3.20.0'
make[1]: Leaving directory '/tmp/portage/x11-misc/notification-daemon-3.20.0/work/notification-daemon-3.20.0'
>>> Completed installing x11-misc/notification-daemon-3.20.0 into /tmp/portage/x11-misc/notification-daemon-3.20.0/image/

 * Final size of build directory: 4052 KiB (3.9 MiB)
 * Final size of installed tree:   180 KiB

Parallel BZIP2 v1.1.13 [Dec 18, 2015]
By: Jeff Gilchrist [http://compression.ca]
Major contributions: Yavor Nikolov [http://javornikolov.wordpress.com]
Uses libbzip2 by Julian Seward

         # CPUs: 6
   Load Average: 6.04
 BWT Block Size: 200 KB
File Block Size: 900 KB
 Maximum Memory: 1024 MB
-------------------------------------------
         File #: 1 of 1
     Input Name: compressme
    Output Name: compressme.bz2

     Input Size: 3895 bytes
Compressing data (no threads)...
Completed: 100%                 Output Size: 918 bytes
-------------------------------------------

     Wall Clock: 0.000807 seconds
Parallel BZIP2 v1.1.13 [Dec 18, 2015]
By: Jeff Gilchrist [http://compression.ca]
Major contributions: Yavor Nikolov [http://javornikolov.wordpress.com]
Uses libbzip2 by Julian Seward

         # CPUs: 6
   Load Average: 6.04
 BWT Block Size: 200 KB
File Block Size: 900 KB
 Maximum Memory: 1024 MB
-------------------------------------------
         File #: 1 of 1
     Input Name: /tmp/portage/x11-misc/notification-daemon-3.20.0/image/usr/share/doc/notification-daemon-3.20.0/ChangeLog
    Output Name: /tmp/portage/x11-misc/notification-daemon-3.20.0/image/usr/share/doc/notification-daemon-3.20.0/ChangeLog.bz2

     Input Size: 2257 bytes
Compressing data (no threads)...
Completed: 100%                 Output Size: 1175 bytes
-------------------------------------------

     Wall Clock: 0.000769 seconds
Parallel BZIP2 v1.1.13 [Dec 18, 2015]
By: Jeff Gilchrist [http://compression.ca]
Major contributions: Yavor Nikolov [http://javornikolov.wordpress.com]
Uses libbzip2 by Julian Seward

         # CPUs: 6
   Load Average: 6.04
 BWT Block Size: 200 KB
File Block Size: 900 KB
 Maximum Memory: 1024 MB
-------------------------------------------
         File #: 1 of 1
     Input Name: /tmp/portage/x11-misc/notification-daemon-3.20.0/image/usr/share/doc/notification-daemon-3.20.0/AUTHORS
    Output Name: /tmp/portage/x11-misc/notification-daemon-3.20.0/image/usr/share/doc/notification-daemon-3.20.0/AUTHORS.bz2

     Input Size: 845 bytes
Compressing data (no threads)...
Completed: 100%                 Output Size: 600 bytes
-------------------------------------------

     Wall Clock: 0.000546 seconds
Parallel BZIP2 v1.1.13 [Dec 18, 2015]
By: Jeff Gilchrist [http://compression.ca]
Major contributions: Yavor Nikolov [http://javornikolov.wordpress.com]
Uses libbzip2 by Julian Seward

         # CPUs: 6
   Load Average: 6.04
 BWT Block Size: 200 KB
File Block Size: 900 KB
 Maximum Memory: 1024 MB
-------------------------------------------
         File #: 1 of 1
     Input Name: /tmp/portage/x11-misc/notification-daemon-3.20.0/image/usr/share/doc/notification-daemon-3.20.0/NEWS
    Output Name: /tmp/portage/x11-misc/notification-daemon-3.20.0/image/usr/share/doc/notification-daemon-3.20.0/NEWS.bz2

     Input Size: 14620 bytes
Compressing data (no threads)...
Completed: 100%                 Output Size: 5569 bytes
-------------------------------------------

     Wall Clock: 0.002381 seconds
strip: x86_64-pc-linux-gnu-strip --strip-unneeded -N __gentoo_check_ldflags__ -R .comment -R .GCC.command.line -R .note.gnu.gold-version
   /usr/libexec/notification-daemon
./
./usr/
./usr/libexec/
./usr/libexec/notification-daemon
./usr/share/
./usr/share/dbus-1/
./usr/share/dbus-1/services/
./usr/share/dbus-1/services/org.freedesktop.Notifications.service
./usr/share/applications/
./usr/share/applications/notification-daemon.desktop
./usr/share/doc/
./usr/share/doc/notification-daemon-3.20.0/
./usr/share/doc/notification-daemon-3.20.0/ChangeLog
./usr/share/doc/notification-daemon-3.20.0/ChangeLog.bz2
./usr/share/doc/notification-daemon-3.20.0/NEWS
./usr/share/doc/notification-daemon-3.20.0/AUTHORS
./usr/share/doc/notification-daemon-3.20.0/AUTHORS.bz2
./usr/share/doc/notification-daemon-3.20.0/NEWS.bz2
>>> Done.
 * checking 3 files for package collisions
>>> Merging x11-misc/notification-daemon-3.20.0 to /
 * removing unneeded *.la files
--- /usr/
--- /usr/share/
--- /usr/share/applications/
>>> /usr/share/applications/notification-daemon.desktop
--- /usr/share/dbus-1/
--- /usr/share/dbus-1/services/
>>> /usr/share/dbus-1/services/org.freedesktop.Notifications.service
--- /usr/libexec/
>>> /usr/libexec/notification-daemon
>>> Safely unmerging already-installed instance...
>>> Original instance of package unmerged safely.
>>> x11-misc/notification-daemon-3.20.0 merged.
