[32;01m * [39;49;00mPackage:    x11-drivers/xf86-input-evdev-2.10.6
[32;01m * [39;49;00mRepository: gentoo
[32;01m * [39;49;00mMaintainer: x11@gentoo.org
[32;01m * [39;49;00mUSE:        abi_x86_64 amd64 elibc_glibc kernel_linux userland_GNU
[32;01m * [39;49;00mFEATURES:   ccache network-sandbox preserve-libs sandbox userpriv usersandbox
 [32;01m*[0m Determining the location of the kernel source code
 [32;01m*[0m Found kernel source directory:
 [32;01m*[0m     /usr/src/linux
 [32;01m*[0m Found sources for kernel version:
 [32;01m*[0m     5.6.12-xanmod1gnum.org
 [32;01m*[0m Checking for suitable kernel configuration options...
[A[263C [34;01m[ [32;01mok[34;01m ][0m
