>>> Extracting info
 * Package:    x11-misc/shared-mime-info-1.15
 * Repository: gentoo
 * USE:        kernel_linux userland_GNU elibc_glibc amd64 abi_x86_64
 * FEATURES:   network-sandbox preserve-libs sandbox userpriv usersandbox
 * FEATURES='assume-digests binpkg-docompress binpkg-dostrip binpkg-logs buildpkg cgroup compress-index config-protect-if-modified distlocks ebuild-locks fixlafiles ipc-sandbox merge-sync multilib-strict network-sandbox news nodoc parallel-fetch pid-sandbox preserve-libs qa-unresolved-soname-deps sandbox sfperms strict strict-keepdir unknown-features-warn unmerge-logs unmerge-orphans userfetch userpriv usersandbox usersync xattr'
 * CFLAGS='-march=znver2 -O2 -pipe -fno-stack-protector -fno-stack-clash-protection -fstack-check=no -fno-stack-check -Wl,-O1 -Wl,--as-needed'
 * CXXFLAGS='-march=znver2 -O2 -pipe -fno-stack-protector -fno-stack-clash-protection -fstack-check=no -fno-stack-check -Wl,-O1 -Wl,--as-needed'
 * FFLAGS='-march=znver2 -O2 -pipe -fno-stack-protector -fno-stack-clash-protection -fstack-check=no -fno-stack-check -Wl,-O1 -Wl,--as-needed'
 * FCFLAGS='-march=znver2 -O2 -pipe -fno-stack-protector -fno-stack-clash-protection -fstack-check=no -fno-stack-check -Wl,-O1 -Wl,--as-needed'
 * F77FLAGS='-march=znver2 -O2 -pipe -fno-stack-protector -fno-stack-clash-protection -fstack-check=no -fno-stack-check -Wl,-O1 -Wl,--as-needed'
 * LDFLAGS='-Wl,-O1 -Wl,--as-needed'
 * MAKEOPTS='-j12 -l12'
 * gcc (Gentoo 10.1.0-r1 p2) 10.1.0
 * g++ (Gentoo 10.1.0-r1 p2) 10.1.0
 * GNU gold (Gentoo 2.34 p4 2.34.0) 1.16
 * Linux rescue 5.4.36 #1 SMP Thu Apr 30 04:38:28 UTC 2020 x86_64 AMD Ryzen 5 3600 6-Core Processor AuthenticAMD GNU/Linux
x11-misc/shared-mime-info: 15 seconds average for 12 merges
2020-05-16T00:56:34 >>> x11-misc/shared-mime-info: 17 seconds
2020-05-20T02:17:09 >>> x11-misc/shared-mime-info: 5 seconds
2020-05-23T12:35:23 >>> x11-misc/shared-mime-info: 19 seconds
2020-05-25T19:11:21 >>> x11-misc/shared-mime-info: 19 seconds
2020-05-25T20:25:44 >>> x11-misc/shared-mime-info: 19 seconds
2020-05-26T14:30:17 >>> x11-misc/shared-mime-info: 7 seconds
2020-05-27T02:06:30 >>> x11-misc/shared-mime-info: 6 seconds
2020-05-27T04:35:30 >>> x11-misc/shared-mime-info: 19 seconds
2020-05-30T13:12:32 >>> x11-misc/shared-mime-info: 23 seconds
2020-06-01T02:31:19 >>> x11-misc/shared-mime-info: 20 seconds
2020-06-12T01:58:42 >>> x11-misc/shared-mime-info: 5 seconds
2020-06-13T20:50:27 >>> x11-misc/shared-mime-info: 21 seconds
]0;emerge 14:24:08 475|565 shared-mime-info 00:15 (root@rescue)>>> Extracting x11-misc/shared-mime-info-1.15
 * checking 5 files for package collisions
>>> Merging x11-misc/shared-mime-info-1.15 to /
 * removing unneeded *.la files
--- /usr/
--- /usr/share/
--- /usr/share/pkgconfig/
>>> /usr/share/pkgconfig/shared-mime-info.pc
--- /usr/share/man/
--- /usr/share/man/man1/
>>> /usr/share/man/man1/update-mime-database.1
>>> /usr/share/man/man1/update-mime-database.1.bz2
--- /usr/share/mime/
--- /usr/share/mime/packages/
>>> /usr/share/mime/packages/freedesktop.org.xml
--- /usr/bin/
>>> /usr/bin/update-mime-database
>>> Safely unmerging already-installed instance...
!!! File Not Found: '/etc/env.d/99lcdfilter'
>>> Original instance of package unmerged safely.
 * Updating shared mime info database ...
 [ ok ]
>>> x11-misc/shared-mime-info-1.15 merged.
!!! File Not Found: '/etc/env.d/99lcdfilter'
