>>> Extracting info
 * Package:    x11-libs/libXmu-1.1.3
 * Repository: gentoo
 * USE:        elibc_glibc userland_GNU amd64 abi_x86_64 kernel_linux
 * FEATURES:   ccache network-sandbox preserve-libs sandbox userpriv usersandbox
 * FEATURES='assume-digests binpkg-docompress binpkg-dostrip binpkg-logs binpkg-multi-instance buildpkg ccache cgroup compress-index config-protect-if-modified distlocks downgrade-backup fixlafiles ipc-sandbox merge-sync multilib-strict network-sandbox news nodoc parallel-fetch parallel-install pid-sandbox preserve-libs qa-unresolved-soname-deps sandbox sfperms strict strict-keepdir unknown-features-warn unmerge-backup unmerge-logs unmerge-orphans userfetch userpriv usersandbox usersync xattr'
 * CFLAGS='-march=native -O3 -fdevirtualize-at-ltrans -fipa-pta -fno-semantic-interposition -fno-math-errno -fno-trapping-math -fno-plt -fuse-linker-plugin -pipe -g0 -fno-stack-protector -fno-stack-clash-protection -fstack-check=no -fno-stack-check -Wl,-O4,--hash-style=gnu,--sort-common,--as-needed,-z,relro,-z,now,-lgomp,-lpthread'
 * CXXFLAGS='-march=native -O3 -fdevirtualize-at-ltrans -fipa-pta -fno-semantic-interposition -fno-math-errno -fno-trapping-math -fno-plt -fuse-linker-plugin -pipe -g0 -fno-stack-protector -fno-stack-clash-protection -fstack-check=no -fno-stack-check -Wl,-O4,--hash-style=gnu,--sort-common,--as-needed,-z,relro,-z,now,-lgomp,-lpthread'
 * FFLAGS='-march=native -O3 -fdevirtualize-at-ltrans -fipa-pta -fno-semantic-interposition -fno-math-errno -fno-trapping-math -fno-plt -fuse-linker-plugin -pipe -g0 -fno-stack-protector -fno-stack-clash-protection -fstack-check=no -fno-stack-check -Wl,-O4,--hash-style=gnu,--sort-common,--as-needed,-z,relro,-z,now,-lgomp,-lpthread'
 * FCFLAGS='-march=native -O3 -fdevirtualize-at-ltrans -fipa-pta -fno-semantic-interposition -fno-math-errno -fno-trapping-math -fno-plt -fuse-linker-plugin -pipe -g0 -fno-stack-protector -fno-stack-clash-protection -fstack-check=no -fno-stack-check -Wl,-O4,--hash-style=gnu,--sort-common,--as-needed,-z,relro,-z,now,-lgomp,-lpthread'
 * F77FLAGS='-march=native -O3 -fdevirtualize-at-ltrans -fipa-pta -fno-semantic-interposition -fno-math-errno -fno-trapping-math -fno-plt -fuse-linker-plugin -pipe -g0 -fno-stack-protector -fno-stack-clash-protection -fstack-check=no -fno-stack-check -Wl,-O4,--hash-style=gnu,--sort-common,--as-needed,-z,relro,-z,now,-lgomp,-lpthread'
 * LDFLAGS='-Wl,-O4,--hash-style=gnu,--sort-common,--as-needed,-z,relro,-z,now,-lgomp,-lpthread'
 * MAKEOPTS='-j12'
 * gcc (Gentoo 11.0.0_pre9999 p1, commit 584d52b088f9fcf78704b504c3f1f07e17c1cded) 11.0.0 20200523 (experimental)
 * g++ (Gentoo 11.0.0_pre9999 p1, commit 584d52b088f9fcf78704b504c3f1f07e17c1cded) 11.0.0 20200523 (experimental)
 * GNU ld (Gentoo 2.34 p4) 2.34.0
 * Linux ryzen.gnum.org 5.4.36 #1 SMP Thu Apr 30 04:38:28 UTC 2020 x86_64 AMD Ryzen 5 3600 6-Core Processor AuthenticAMD GNU/Linux
x11-libs/libXmu: 9 seconds average for 4 merges
2020-05-15T07:42:38 >>> x11-libs/libXmu: 14 seconds
2020-05-16T14:54:46 >>> x11-libs/libXmu: 15 seconds
2020-05-19T23:51:00 >>> x11-libs/libXmu: 5 seconds
2020-05-20T01:34:33 >>> x11-libs/libXmu: 5 seconds
]0;emerge 14:56:13 106|229 libXmu 00:08 (root@ryzen.gnum.org)kemerge 14:56:13 106|229 libXmu 00:08 (root@ryzen.gnum.org)\>>> Extracting x11-libs/libXmu-1.1.3
 * checking 31 files for package collisions
>>> Merging x11-libs/libXmu-1.1.3 to /
 * removing unneeded *.la files
--- /usr/
--- /usr/lib64/
--- /usr/lib64/pkgconfig/
>>> /usr/lib64/pkgconfig/xmuu.pc
>>> /usr/lib64/pkgconfig/xmu.pc
>>> /usr/lib64/libXmuu.so.1.0.0
>>> /usr/lib64/libXmuu.so.1 -> libXmuu.so.1.0.0
>>> /usr/lib64/libXmuu.so -> libXmuu.so.1.0.0
>>> /usr/lib64/libXmu.so.6.2.0
--- /usr/include/
--- /usr/include/X11/
>>> /usr/include/X11/Xmu/
>>> /usr/include/X11/Xmu/ExtAgent.h
>>> /usr/include/X11/Xmu/DisplayQue.h
>>> /usr/include/X11/Xmu/Initer.h
>>> /usr/include/X11/Xmu/CurUtil.h
>>> /usr/include/X11/Xmu/Error.h
>>> /usr/include/X11/Xmu/StdSel.h
>>> /usr/include/X11/Xmu/Editres.h
>>> /usr/include/X11/Xmu/WinUtil.h
>>> /usr/include/X11/Xmu/EditresP.h
>>> /usr/include/X11/Xmu/WidgetNode.h
>>> /usr/include/X11/Xmu/Xmu.h
>>> /usr/include/X11/Xmu/Drawing.h
>>> /usr/include/X11/Xmu/Converters.h
>>> /usr/include/X11/Xmu/WhitePoint.h
>>> /usr/include/X11/Xmu/SysUtil.h
>>> /usr/include/X11/Xmu/CharSet.h
>>> /usr/include/X11/Xmu/Xct.h
>>> /usr/include/X11/Xmu/Atoms.h
>>> /usr/include/X11/Xmu/CloseHook.h
>>> /usr/include/X11/Xmu/CvtCache.h
>>> /usr/include/X11/Xmu/StdCmap.h
>>> /usr/include/X11/Xmu/Misc.h
>>> /usr/include/X11/Xmu/Lookup.h
>>> /usr/lib64/libXmu.so -> libXmu.so.6.2.0
>>> /usr/lib64/libXmu.so.6 -> libXmu.so.6.2.0
>>> x11-libs/libXmu-1.1.3 merged.
>>> Regenerating /etc/ld.so.cache...
