No package files given... Grabbing a set.
--- replaced obj /usr/share/man/man3/Xfixes.3.bz2
--- replaced dir /usr/share/man/man3
--- replaced dir /usr/share/man
--- replaced dir /usr/share
--- replaced obj /usr/lib64/pkgconfig/xfixes.pc
--- replaced dir /usr/lib64/pkgconfig
--- replaced obj /usr/lib64/libXfixes.so.3.1.0
--- replaced sym /usr/lib64/libXfixes.so.3
--- replaced sym /usr/lib64/libXfixes.so
--- replaced dir /usr/lib64
--- replaced obj /usr/include/X11/extensions/Xfixes.h
--- replaced dir /usr/include/X11/extensions
--- replaced dir /usr/include/X11
--- replaced dir /usr/include
--- replaced dir /usr
>>> Regenerating /etc/ld.so.cache...
