[32;01m * [39;49;00mPackage:    x11-misc/colord-1.3.5
[32;01m * [39;49;00mRepository: gentoo
[32;01m * [39;49;00mMaintainer: gnome@gentoo.org
[32;01m * [39;49;00mUSE:        abi_x86_64 amd64 elibc_glibc examples gusb introspection kernel_linux policykit systemd udev userland_GNU
[32;01m * [39;49;00mFEATURES:   network-sandbox preserve-libs sandbox userpriv usersandbox
