No package files given... Grabbing a set.
--- replaced obj /usr/share/pkgconfig/xbitmaps.pc
--- replaced dir /usr/share/pkgconfig
--- replaced dir /usr/share
--- replaced obj /usr/include/X11/bitmaps/xsnow
--- replaced obj /usr/include/X11/bitmaps/xlogo64
--- replaced obj /usr/include/X11/bitmaps/xlogo32
--- replaced obj /usr/include/X11/bitmaps/xlogo16
--- replaced obj /usr/include/X11/bitmaps/xlogo11
--- replaced obj /usr/include/X11/bitmaps/xfd_icon
--- replaced obj /usr/include/X11/bitmaps/woman
--- replaced obj /usr/include/X11/bitmaps/wingdogs
--- replaced obj /usr/include/X11/bitmaps/wide_weave
--- replaced obj /usr/include/X11/bitmaps/weird_size
--- replaced obj /usr/include/X11/bitmaps/vlines3
--- replaced obj /usr/include/X11/bitmaps/vlines2
--- replaced obj /usr/include/X11/bitmaps/tie_fighter
--- replaced obj /usr/include/X11/bitmaps/terminal
--- replaced obj /usr/include/X11/bitmaps/target
--- replaced obj /usr/include/X11/bitmaps/stipple
--- replaced obj /usr/include/X11/bitmaps/starMask
--- replaced obj /usr/include/X11/bitmaps/star
--- replaced obj /usr/include/X11/bitmaps/sipb
--- replaced obj /usr/include/X11/bitmaps/scales
--- replaced obj /usr/include/X11/bitmaps/root_weave
--- replaced obj /usr/include/X11/bitmaps/right_ptrmsk
--- replaced obj /usr/include/X11/bitmaps/right_ptr
--- replaced obj /usr/include/X11/bitmaps/plaid
--- replaced obj /usr/include/X11/bitmaps/opendotMask
--- replaced obj /usr/include/X11/bitmaps/opendot
--- replaced obj /usr/include/X11/bitmaps/noletters
--- replaced obj /usr/include/X11/bitmaps/menu8
--- replaced obj /usr/include/X11/bitmaps/menu6
--- replaced obj /usr/include/X11/bitmaps/menu16
--- replaced obj /usr/include/X11/bitmaps/menu12
--- replaced obj /usr/include/X11/bitmaps/menu10
--- replaced obj /usr/include/X11/bitmaps/mensetmanus
--- replaced obj /usr/include/X11/bitmaps/mailfullmsk
--- replaced obj /usr/include/X11/bitmaps/mailfull
--- replaced obj /usr/include/X11/bitmaps/mailemptymsk
--- replaced obj /usr/include/X11/bitmaps/mailempty
--- replaced obj /usr/include/X11/bitmaps/light_gray
--- replaced obj /usr/include/X11/bitmaps/letters
--- replaced obj /usr/include/X11/bitmaps/left_ptrmsk
--- replaced obj /usr/include/X11/bitmaps/left_ptr
--- replaced obj /usr/include/X11/bitmaps/keyboard16
--- replaced obj /usr/include/X11/bitmaps/icon
--- replaced obj /usr/include/X11/bitmaps/hlines3
--- replaced obj /usr/include/X11/bitmaps/hlines2
--- replaced obj /usr/include/X11/bitmaps/grid8
--- replaced obj /usr/include/X11/bitmaps/grid4
--- replaced obj /usr/include/X11/bitmaps/grid2
--- replaced obj /usr/include/X11/bitmaps/grid16
--- replaced obj /usr/include/X11/bitmaps/gray3
--- replaced obj /usr/include/X11/bitmaps/gray1
--- replaced obj /usr/include/X11/bitmaps/gray
--- replaced obj /usr/include/X11/bitmaps/flipped_gray
--- replaced obj /usr/include/X11/bitmaps/flagup
--- replaced obj /usr/include/X11/bitmaps/flagdown
--- replaced obj /usr/include/X11/bitmaps/escherknot
--- replaced obj /usr/include/X11/bitmaps/dropbar8
--- replaced obj /usr/include/X11/bitmaps/dropbar7
--- replaced obj /usr/include/X11/bitmaps/dot
--- replaced obj /usr/include/X11/bitmaps/dimple3
--- replaced obj /usr/include/X11/bitmaps/dimple1
--- replaced obj /usr/include/X11/bitmaps/cross_weave
--- replaced obj /usr/include/X11/bitmaps/cntr_ptrmsk
--- replaced obj /usr/include/X11/bitmaps/cntr_ptr
--- replaced obj /usr/include/X11/bitmaps/calculator
--- replaced obj /usr/include/X11/bitmaps/boxes
--- replaced obj /usr/include/X11/bitmaps/box6
--- replaced obj /usr/include/X11/bitmaps/black6
--- replaced obj /usr/include/X11/bitmaps/black
--- replaced obj /usr/include/X11/bitmaps/2x2
--- replaced obj /usr/include/X11/bitmaps/1x1
--- replaced dir /usr/include/X11/bitmaps
--- replaced dir /usr/include/X11
--- replaced dir /usr/include
--- replaced dir /usr
>>> Regenerating /etc/ld.so.cache...
