No package files given... Grabbing a set.
--- replaced obj /usr/lib64/pkgconfig/xcb-keysyms.pc
--- replaced dir /usr/lib64/pkgconfig
--- replaced obj /usr/lib64/libxcb-keysyms.so.1.0.0
--- replaced sym /usr/lib64/libxcb-keysyms.so.1
--- replaced sym /usr/lib64/libxcb-keysyms.so
--- replaced dir /usr/lib64
--- replaced obj /usr/include/xcb/xcb_keysyms.h
--- replaced dir /usr/include/xcb
--- replaced dir /usr/include
--- replaced dir /usr
>>> Regenerating /etc/ld.so.cache...
