No package files given... Grabbing a set.
--- replaced obj /usr/lib64/pkgconfig/sm.pc
--- replaced dir /usr/lib64/pkgconfig
--- replaced obj /usr/lib64/libSM.so.6.0.1
--- replaced sym /usr/lib64/libSM.so.6
--- replaced sym /usr/lib64/libSM.so
--- replaced dir /usr/lib64
--- replaced obj /usr/include/X11/SM/SMproto.h
--- replaced obj /usr/include/X11/SM/SMlib.h
--- replaced obj /usr/include/X11/SM/SM.h
--- replaced dir /usr/include/X11/SM
--- replaced dir /usr/include/X11
--- replaced dir /usr/include
--- replaced dir /usr
>>> Regenerating /etc/ld.so.cache...
