No package files given... Grabbing a set.
--- replaced obj /usr/lib64/pkgconfig/xt.pc
--- replaced dir /usr/lib64/pkgconfig
--- replaced obj /usr/lib64/libXt.so.6.0.0
--- replaced sym /usr/lib64/libXt.so.6
--- replaced sym /usr/lib64/libXt.so
--- replaced dir /usr/lib64
--- replaced obj /usr/include/X11/Xtos.h
--- replaced obj /usr/include/X11/VendorP.h
--- replaced obj /usr/include/X11/Vendor.h
--- replaced obj /usr/include/X11/VarargsI.h
--- replaced obj /usr/include/X11/TranslateI.h
--- replaced obj /usr/include/X11/ThreadsI.h
--- replaced obj /usr/include/X11/StringDefs.h
--- replaced obj /usr/include/X11/ShellP.h
--- replaced obj /usr/include/X11/ShellI.h
--- replaced obj /usr/include/X11/Shell.h
--- replaced obj /usr/include/X11/SelectionI.h
--- replaced obj /usr/include/X11/ResourceI.h
--- replaced obj /usr/include/X11/ResConfigP.h
--- replaced obj /usr/include/X11/RectObjP.h
--- replaced obj /usr/include/X11/RectObj.h
--- replaced obj /usr/include/X11/PassivGraI.h
--- replaced obj /usr/include/X11/ObjectP.h
--- replaced obj /usr/include/X11/Object.h
--- replaced obj /usr/include/X11/IntrinsicP.h
--- replaced obj /usr/include/X11/IntrinsicI.h
--- replaced obj /usr/include/X11/Intrinsic.h
--- replaced obj /usr/include/X11/InitialI.h
--- replaced obj /usr/include/X11/HookObjI.h
--- replaced obj /usr/include/X11/EventI.h
--- replaced obj /usr/include/X11/CreateI.h
--- replaced obj /usr/include/X11/CoreP.h
--- replaced obj /usr/include/X11/Core.h
--- replaced obj /usr/include/X11/ConvertI.h
--- replaced obj /usr/include/X11/Constraint.h
--- replaced obj /usr/include/X11/ConstrainP.h
--- replaced obj /usr/include/X11/CompositeP.h
--- replaced obj /usr/include/X11/Composite.h
--- replaced obj /usr/include/X11/CallbackI.h
--- replaced dir /usr/include/X11
--- replaced dir /usr/include
--- replaced dir /usr
>>> Regenerating /etc/ld.so.cache...
