No package files given... Grabbing a set.
--- replaced obj /usr/lib64/pkgconfig/xkbcommon.pc
--- replaced obj /usr/lib64/pkgconfig/xkbcommon-x11.pc
--- replaced dir /usr/lib64/pkgconfig
--- replaced obj /usr/lib64/libxkbcommon.so.0.0.0
--- replaced sym /usr/lib64/libxkbcommon.so.0
--- replaced sym /usr/lib64/libxkbcommon.so
--- replaced obj /usr/lib64/libxkbcommon-x11.so.0.0.0
--- replaced sym /usr/lib64/libxkbcommon-x11.so.0
--- replaced sym /usr/lib64/libxkbcommon-x11.so
--- replaced dir /usr/lib64
--- replaced obj /usr/include/xkbcommon/xkbcommon.h
--- replaced obj /usr/include/xkbcommon/xkbcommon-x11.h
--- replaced obj /usr/include/xkbcommon/xkbcommon-names.h
--- replaced obj /usr/include/xkbcommon/xkbcommon-keysyms.h
--- replaced obj /usr/include/xkbcommon/xkbcommon-compose.h
--- replaced obj /usr/include/xkbcommon/xkbcommon-compat.h
--- replaced dir /usr/include/xkbcommon
--- replaced dir /usr/include
--- replaced dir /usr
>>> Regenerating /etc/ld.so.cache...
