No package files given... Grabbing a set.
--- replaced obj /usr/share/man/man1/sxpm.1.bz2
--- replaced obj /usr/share/man/man1/cxpm.1.bz2
--- replaced dir /usr/share/man/man1
--- replaced dir /usr/share/man
--- replaced dir /usr/share
--- replaced obj /usr/lib64/pkgconfig/xpm.pc
--- replaced dir /usr/lib64/pkgconfig
--- replaced obj /usr/lib64/libXpm.so.4.11.0
--- replaced sym /usr/lib64/libXpm.so.4
--- replaced sym /usr/lib64/libXpm.so
--- replaced dir /usr/lib64
--- replaced obj /usr/include/X11/xpm.h
--- replaced dir /usr/include/X11
--- replaced dir /usr/include
--- replaced obj /usr/bin/sxpm
--- replaced obj /usr/bin/cxpm
--- replaced dir /usr/bin
--- replaced dir /usr
>>> Regenerating /etc/ld.so.cache...
