No package files given... Grabbing a set.
<<<          obj /usr/share/man/man1/xset.1.bz2
<<<          obj /usr/bin/xset
--- !empty   dir /usr/share/man/man1
--- !empty   dir /usr/share/man
--- !empty   dir /usr/share
--- !empty   dir /usr/bin
--- !empty   dir /usr
