No package files given... Grabbing a set.
--- replaced obj /usr/share/util-macros/INSTALL
--- replaced dir /usr/share/util-macros
--- replaced obj /usr/share/pkgconfig/xorg-macros.pc
--- replaced dir /usr/share/pkgconfig
--- replaced obj /usr/share/aclocal/xorg-macros.m4
--- replaced dir /usr/share/aclocal
--- replaced dir /usr/share
--- replaced dir /usr
>>> Regenerating /etc/ld.so.cache...
