 * Package:    x11-base/xcb-proto-1.14-r1
 * Repository: gentoo
 * Maintainer: x11@gentoo.org
 * USE:        abi_x86_64 amd64 elibc_glibc kernel_linux python_targets_python3_6 python_targets_python3_7 python_targets_python3_8 userland_GNU
 * FEATURES:   ccache network-sandbox preserve-libs sandbox userpriv usersandbox
 * /etc/portage/package.cflags/ltoworkarounds.conf -> */*: *FLAGS+=-Wl,-O4 *FLAGS-=-Wl,-O1
 * FEATURES='assume-digests binpkg-docompress binpkg-dostrip binpkg-logs binpkg-multi-instance buildpkg ccache cgroup compress-index config-protect-if-modified distlocks fixlafiles ipc-sandbox merge-sync multilib-strict network-sandbox news nodoc parallel-fetch parallel-install pid-sandbox preserve-libs qa-unresolved-soname-deps sandbox sfperms strict strict-keepdir unknown-features-warn unmerge-logs unmerge-orphans userfetch userpriv usersandbox usersync xattr'
 * CFLAGS='-march=znver2 -pipe -g0 -O3 -fgraphite-identity -floop-nest-optimize -fdevirtualize-at-ltrans -fipa-pta -fno-semantic-interposition -flto=12 -fno-plt -fno-signed-zeros -fno-trapping-math -fassociative-math -freciprocal-math -fno-math-errno -ffinite-math-only -fno-rounding-math -fno-signaling-nans -fcx-limited-range -fexcess-precision=fast -falign-functions=32 -fno-stack-protector -fno-stack-clash-protection -fstack-check=no -fno-stack-check -fuse-linker-plugin -Wl,-O4 -Wl,--as-needed -Wl,-lpthread -Wl,-lgomp -Wl,-z,norelro -Wl,-z,now -Wl,--sort-common -s'
 * CXXFLAGS='-march=znver2 -pipe -g0 -O3 -fgraphite-identity -floop-nest-optimize -fdevirtualize-at-ltrans -fipa-pta -fno-semantic-interposition -flto=12 -fno-plt -fno-signed-zeros -fno-trapping-math -fassociative-math -freciprocal-math -fno-math-errno -ffinite-math-only -fno-rounding-math -fno-signaling-nans -fcx-limited-range -fexcess-precision=fast -falign-functions=32 -fno-stack-protector -fno-stack-clash-protection -fstack-check=no -fno-stack-check -fuse-linker-plugin -Wl,-O4 -Wl,--as-needed -Wl,-lpthread -Wl,-lgomp -Wl,-z,norelro -Wl,-z,now -Wl,--sort-common -s'
 * FFLAGS='-march=znver2 -pipe -g0 -O3 -fgraphite-identity -floop-nest-optimize -fdevirtualize-at-ltrans -fipa-pta -fno-semantic-interposition -flto=12 -fno-plt -fno-signed-zeros -fno-trapping-math -fassociative-math -freciprocal-math -fno-math-errno -ffinite-math-only -fno-rounding-math -fno-signaling-nans -fcx-limited-range -fexcess-precision=fast -falign-functions=32 -fno-stack-protector -fno-stack-clash-protection -fstack-check=no -fno-stack-check -fuse-linker-plugin -Wl,-O4 -Wl,--as-needed -Wl,-lpthread -Wl,-lgomp -Wl,-z,norelro -Wl,-z,now -Wl,--sort-common -s'
 * FCFLAGS='-march=znver2 -pipe -g0 -O3 -fgraphite-identity -floop-nest-optimize -fdevirtualize-at-ltrans -fipa-pta -fno-semantic-interposition -flto=12 -fno-plt -fno-signed-zeros -fno-trapping-math -fassociative-math -freciprocal-math -fno-math-errno -ffinite-math-only -fno-rounding-math -fno-signaling-nans -fcx-limited-range -fexcess-precision=fast -falign-functions=32 -fno-stack-protector -fno-stack-clash-protection -fstack-check=no -fno-stack-check -fuse-linker-plugin -Wl,-O4 -Wl,--as-needed -Wl,-lpthread -Wl,-lgomp -Wl,-z,norelro -Wl,-z,now -Wl,--sort-common -s'
 * F77FLAGS='-march=znver2 -pipe -g0 -O3 -fgraphite-identity -floop-nest-optimize -fdevirtualize-at-ltrans -fipa-pta -fno-semantic-interposition -flto=12 -fno-plt -fno-signed-zeros -fno-trapping-math -fassociative-math -freciprocal-math -fno-math-errno -ffinite-math-only -fno-rounding-math -fno-signaling-nans -fcx-limited-range -fexcess-precision=fast -falign-functions=32 -fno-stack-protector -fno-stack-clash-protection -fstack-check=no -fno-stack-check -fuse-linker-plugin -Wl,-O4 -Wl,--as-needed -Wl,-lpthread -Wl,-lgomp -Wl,-z,norelro -Wl,-z,now -Wl,--sort-common -s'
 * LDFLAGS='-march=znver2 -pipe -g0 -O3 -fgraphite-identity -floop-nest-optimize -fdevirtualize-at-ltrans -fipa-pta -fno-semantic-interposition -flto=12 -fno-plt -fno-signed-zeros -fno-trapping-math -fassociative-math -freciprocal-math -fno-math-errno -ffinite-math-only -fno-rounding-math -fno-signaling-nans -fcx-limited-range -fexcess-precision=fast -falign-functions=32 -fno-stack-protector -fno-stack-clash-protection -fstack-check=no -fno-stack-check -fuse-linker-plugin -Wl,-O4 -Wl,--as-needed -Wl,-lpthread -Wl,-lgomp -Wl,-z,norelro -Wl,-z,now -Wl,--sort-common -s'
 * MAKEOPTS='-j12 -l12'
 * gcc () 11.0.0 20200601 (experimental)
 * g++ () 11.0.0 20200601 (experimental)
 * GNU ld (Gentoo 2.34 p4) 2.34.0
 * Linux ryzen.gnum.org 5.4.36 #1 SMP Thu Apr 30 04:38:28 UTC 2020 x86_64 AMD Ryzen 5 3600 6-Core Processor AuthenticAMD GNU/Linux
x11-base/xcb-proto: 10 seconds average for 13 merges
2020-05-15T07:23:38 >>> x11-base/xcb-proto: 12 seconds
2020-05-19T23:59:26 >>> x11-base/xcb-proto: 6 seconds
2020-05-24T05:03:32 >>> x11-base/xcb-proto: 14 seconds
2020-05-24T21:09:53 >>> x11-base/xcb-proto: 13 seconds
2020-05-24T21:36:03 >>> x11-base/xcb-proto: 6 seconds
2020-05-24T21:38:10 >>> x11-base/xcb-proto: 7 seconds
2020-05-25T12:21:06 >>> x11-base/xcb-proto: 6 seconds
2020-05-25T14:50:51 >>> x11-base/xcb-proto: 14 seconds
2020-05-26T00:43:31 >>> x11-base/xcb-proto: 14 seconds
2020-05-26T14:39:42 >>> x11-base/xcb-proto: 6 seconds
2020-05-27T02:15:55 >>> x11-base/xcb-proto: 6 seconds
2020-05-30T14:25:33 >>> x11-base/xcb-proto: 15 seconds
2020-06-01T03:47:43 >>> x11-base/xcb-proto: 15 seconds
]0;emerge 03:37:54 8|418 xcb-proto 00:12 (root@ryzen.gnum.org)kemerge 03:37:54 8|418 xcb-proto 00:12 (root@ryzen.gnum.org)\>>> Unpacking source...
>>> Unpacking xcb-proto-1.14.tar.xz to /tmp/portage/x11-base/xcb-proto-1.14-r1/work
>>> Source unpacked in /tmp/portage/x11-base/xcb-proto-1.14-r1/work
>>> Preparing source in /tmp/portage/x11-base/xcb-proto-1.14-r1/work/xcb-proto-1.14 ...
 * Running elibtoolize in: xcb-proto-1.14/
>>> Source prepared.
>>> Configuring source in /tmp/portage/x11-base/xcb-proto-1.14-r1/work/xcb-proto-1.14 ...
 * abi_x86_64.amd64: running multilib-minimal_abi_src_configure
/tmp/portage/x11-base/xcb-proto-1.14-r1/work/xcb-proto-1.14/configure --prefix=/usr --build=x86_64-pc-linux-gnu --host=x86_64-pc-linux-gnu --mandir=/usr/share/man --infodir=/usr/share/info --datadir=/usr/share --sysconfdir=/etc --localstatedir=/var/lib --disable-silent-rules --docdir=/usr/share/doc/xcb-proto-1.14-r1 --htmldir=/usr/share/doc/xcb-proto-1.14-r1/html --libdir=/usr/lib64
checking for a BSD-compatible install... /tmp/portage/._portage_reinstall_.p03se11l/bin/ebuild-helpers/xattr/install -c
checking whether build environment is sane... yes
checking for a thread-safe mkdir -p... /bin/mkdir -p
checking for gawk... gawk
checking whether make sets $(MAKE)... yes
checking whether make supports nested variables... yes
checking for xmllint... /usr/bin/xmllint
checking whether true version is >= 2.5... yes
checking for true version... 
checking for true platform... 
checking for true script directory... 
checking for true extension module directory... 
checking that generated files are newer than configure... done
configure: creating ./config.status
config.status: creating Makefile
config.status: creating src/Makefile
config.status: creating xcbgen/Makefile
config.status: creating xcb-proto.pc
>>> Source configured.
>>> Compiling source in /tmp/portage/x11-base/xcb-proto-1.14-r1/work/xcb-proto-1.14 ...
>>> Source compiled.
>>> Test phase [not enabled]: x11-base/xcb-proto-1.14-r1

>>> Install x11-base/xcb-proto-1.14-r1 into /tmp/portage/x11-base/xcb-proto-1.14-r1/image
 * abi_x86_64.amd64: running multilib-minimal_abi_src_install
make -j12 -l12 install DESTDIR=/tmp/portage/x11-base/xcb-proto-1.14-r1/image SUBDIRS=src 
Making install in src
make[1]: Entering directory '/tmp/portage/x11-base/xcb-proto-1.14-r1/work/xcb-proto-1.14-abi_x86_64.amd64/src'
make[2]: Entering directory '/tmp/portage/x11-base/xcb-proto-1.14-r1/work/xcb-proto-1.14-abi_x86_64.amd64/src'
make[2]: Nothing to be done for 'install-exec-am'.
 /bin/mkdir -p '/tmp/portage/x11-base/xcb-proto-1.14-r1/image/usr/share/xcb'
 /tmp/portage/._portage_reinstall_.p03se11l/bin/ebuild-helpers/xattr/install -c -m 644 /tmp/portage/x11-base/xcb-proto-1.14-r1/work/xcb-proto-1.14/src/xcb.xsd /tmp/portage/x11-base/xcb-proto-1.14-r1/work/xcb-proto-1.14/src/xproto.xml /tmp/portage/x11-base/xcb-proto-1.14-r1/work/xcb-proto-1.14/src/bigreq.xml /tmp/portage/x11-base/xcb-proto-1.14-r1/work/xcb-proto-1.14/src/composite.xml /tmp/portage/x11-base/xcb-proto-1.14-r1/work/xcb-proto-1.14/src/damage.xml /tmp/portage/x11-base/xcb-proto-1.14-r1/work/xcb-proto-1.14/src/dpms.xml /tmp/portage/x11-base/xcb-proto-1.14-r1/work/xcb-proto-1.14/src/dri2.xml /tmp/portage/x11-base/xcb-proto-1.14-r1/work/xcb-proto-1.14/src/dri3.xml /tmp/portage/x11-base/xcb-proto-1.14-r1/work/xcb-proto-1.14/src/ge.xml /tmp/portage/x11-base/xcb-proto-1.14-r1/work/xcb-proto-1.14/src/glx.xml /tmp/portage/x11-base/xcb-proto-1.14-r1/work/xcb-proto-1.14/src/present.xml /tmp/portage/x11-base/xcb-proto-1.14-r1/work/xcb-proto-1.14/src/randr.xml /tmp/portage/x11-base/xcb-proto-1.14-r1/work/xcb-proto-1.14/src/record.xml /tmp/portage/x11-base/xcb-proto-1.14-r1/work/xcb-proto-1.14/src/render.xml /tmp/portage/x11-base/xcb-proto-1.14-r1/work/xcb-proto-1.14/src/res.xml /tmp/portage/x11-base/xcb-proto-1.14-r1/work/xcb-proto-1.14/src/screensaver.xml /tmp/portage/x11-base/xcb-proto-1.14-r1/work/xcb-proto-1.14/src/shape.xml /tmp/portage/x11-base/xcb-proto-1.14-r1/work/xcb-proto-1.14/src/shm.xml /tmp/portage/x11-base/xcb-proto-1.14-r1/work/xcb-proto-1.14/src/sync.xml /tmp/portage/x11-base/xcb-proto-1.14-r1/work/xcb-proto-1.14/src/xc_misc.xml /tmp/portage/x11-base/xcb-proto-1.14-r1/work/xcb-proto-1.14/src/xevie.xml /tmp/portage/x11-base/xcb-proto-1.14-r1/work/xcb-proto-1.14/src/xf86dri.xml /tmp/portage/x11-base/xcb-proto-1.14-r1/work/xcb-proto-1.14/src/xf86vidmode.xml /tmp/portage/x11-base/xcb-proto-1.14-r1/work/xcb-proto-1.14/src/xfixes.xml /tmp/portage/x11-base/xcb-proto-1.14-r1/work/xcb-proto-1.14/src/xinerama.xml /tmp/portage/x11-base/xcb-proto-1.14-r1/work/xcb-proto-1.14/src/xinput.xml /tmp/portage/x11-base/xcb-proto-1.14-r1/work/xcb-proto-1.14/src/xkb.xml /tmp/portage/x11-base/xcb-proto-1.14-r1/work/xcb-proto-1.14/src/xprint.xml /tmp/portage/x11-base/xcb-proto-1.14-r1/work/xcb-proto-1.14/src/xselinux.xml /tmp/portage/x11-base/xcb-proto-1.14-r1/work/xcb-proto-1.14/src/xtest.xml /tmp/portage/x11-base/xcb-proto-1.14-r1/work/xcb-proto-1.14/src/xv.xml /tmp/portage/x11-base/xcb-proto-1.14-r1/work/xcb-proto-1.14/src/xvmc.xml '/tmp/portage/x11-base/xcb-proto-1.14-r1/image/usr/share/xcb'
make[2]: Leaving directory '/tmp/portage/x11-base/xcb-proto-1.14-r1/work/xcb-proto-1.14-abi_x86_64.amd64/src'
make[1]: Leaving directory '/tmp/portage/x11-base/xcb-proto-1.14-r1/work/xcb-proto-1.14-abi_x86_64.amd64/src'
make[1]: Entering directory '/tmp/portage/x11-base/xcb-proto-1.14-r1/work/xcb-proto-1.14-abi_x86_64.amd64'
make[2]: Entering directory '/tmp/portage/x11-base/xcb-proto-1.14-r1/work/xcb-proto-1.14-abi_x86_64.amd64'
make[2]: Nothing to be done for 'install-exec-am'.
 /bin/mkdir -p '/tmp/portage/x11-base/xcb-proto-1.14-r1/image/usr/lib64/pkgconfig'
 /tmp/portage/._portage_reinstall_.p03se11l/bin/ebuild-helpers/xattr/install -c -m 644 xcb-proto.pc '/tmp/portage/x11-base/xcb-proto-1.14-r1/image/usr/lib64/pkgconfig'
make[2]: Leaving directory '/tmp/portage/x11-base/xcb-proto-1.14-r1/work/xcb-proto-1.14-abi_x86_64.amd64'
make[1]: Leaving directory '/tmp/portage/x11-base/xcb-proto-1.14-r1/work/xcb-proto-1.14-abi_x86_64.amd64'
 * python3_6: running xcbgen_install
make -j12 -l12 -C xcbgen install DESTDIR=/tmp/portage/x11-base/xcb-proto-1.14-r1/image pythondir=/usr/lib64/python3.6/site-packages 
make: Entering directory '/tmp/portage/x11-base/xcb-proto-1.14-r1/work/xcb-proto-1.14-abi_x86_64.amd64/xcbgen'
make[1]: Entering directory '/tmp/portage/x11-base/xcb-proto-1.14-r1/work/xcb-proto-1.14-abi_x86_64.amd64/xcbgen'
make[1]: Nothing to be done for 'install-exec-am'.
 /bin/mkdir -p '/tmp/portage/x11-base/xcb-proto-1.14-r1/image/usr/lib64/python3.6/site-packages/xcbgen'
 /tmp/portage/._portage_reinstall_.p03se11l/bin/ebuild-helpers/xattr/install -c -m 644 /tmp/portage/x11-base/xcb-proto-1.14-r1/work/xcb-proto-1.14/xcbgen/__init__.py /tmp/portage/x11-base/xcb-proto-1.14-r1/work/xcb-proto-1.14/xcbgen/error.py /tmp/portage/x11-base/xcb-proto-1.14-r1/work/xcb-proto-1.14/xcbgen/expr.py /tmp/portage/x11-base/xcb-proto-1.14-r1/work/xcb-proto-1.14/xcbgen/align.py /tmp/portage/x11-base/xcb-proto-1.14-r1/work/xcb-proto-1.14/xcbgen/matcher.py /tmp/portage/x11-base/xcb-proto-1.14-r1/work/xcb-proto-1.14/xcbgen/state.py /tmp/portage/x11-base/xcb-proto-1.14-r1/work/xcb-proto-1.14/xcbgen/xtypes.py '/tmp/portage/x11-base/xcb-proto-1.14-r1/image/usr/lib64/python3.6/site-packages/xcbgen'
make[1]: Leaving directory '/tmp/portage/x11-base/xcb-proto-1.14-r1/work/xcb-proto-1.14-abi_x86_64.amd64/xcbgen'
make: Leaving directory '/tmp/portage/x11-base/xcb-proto-1.14-r1/work/xcb-proto-1.14-abi_x86_64.amd64/xcbgen'
 * python3_7: running xcbgen_install
make -j12 -l12 -C xcbgen install DESTDIR=/tmp/portage/x11-base/xcb-proto-1.14-r1/image pythondir=/usr/lib/python3.7/site-packages 
make: Entering directory '/tmp/portage/x11-base/xcb-proto-1.14-r1/work/xcb-proto-1.14-abi_x86_64.amd64/xcbgen'
make[1]: Entering directory '/tmp/portage/x11-base/xcb-proto-1.14-r1/work/xcb-proto-1.14-abi_x86_64.amd64/xcbgen'
make[1]: Nothing to be done for 'install-exec-am'.
 /bin/mkdir -p '/tmp/portage/x11-base/xcb-proto-1.14-r1/image/usr/lib/python3.7/site-packages/xcbgen'
 /tmp/portage/._portage_reinstall_.p03se11l/bin/ebuild-helpers/xattr/install -c -m 644 /tmp/portage/x11-base/xcb-proto-1.14-r1/work/xcb-proto-1.14/xcbgen/__init__.py /tmp/portage/x11-base/xcb-proto-1.14-r1/work/xcb-proto-1.14/xcbgen/error.py /tmp/portage/x11-base/xcb-proto-1.14-r1/work/xcb-proto-1.14/xcbgen/expr.py /tmp/portage/x11-base/xcb-proto-1.14-r1/work/xcb-proto-1.14/xcbgen/align.py /tmp/portage/x11-base/xcb-proto-1.14-r1/work/xcb-proto-1.14/xcbgen/matcher.py /tmp/portage/x11-base/xcb-proto-1.14-r1/work/xcb-proto-1.14/xcbgen/state.py /tmp/portage/x11-base/xcb-proto-1.14-r1/work/xcb-proto-1.14/xcbgen/xtypes.py '/tmp/portage/x11-base/xcb-proto-1.14-r1/image/usr/lib/python3.7/site-packages/xcbgen'
make[1]: Leaving directory '/tmp/portage/x11-base/xcb-proto-1.14-r1/work/xcb-proto-1.14-abi_x86_64.amd64/xcbgen'
make: Leaving directory '/tmp/portage/x11-base/xcb-proto-1.14-r1/work/xcb-proto-1.14-abi_x86_64.amd64/xcbgen'
 * python3_8: running xcbgen_install
make -j12 -l12 -C xcbgen install DESTDIR=/tmp/portage/x11-base/xcb-proto-1.14-r1/image pythondir=/usr/lib/python3.8/site-packages 
make: Entering directory '/tmp/portage/x11-base/xcb-proto-1.14-r1/work/xcb-proto-1.14-abi_x86_64.amd64/xcbgen'
make[1]: Entering directory '/tmp/portage/x11-base/xcb-proto-1.14-r1/work/xcb-proto-1.14-abi_x86_64.amd64/xcbgen'
make[1]: Nothing to be done for 'install-exec-am'.
 /bin/mkdir -p '/tmp/portage/x11-base/xcb-proto-1.14-r1/image/usr/lib/python3.8/site-packages/xcbgen'
 /tmp/portage/._portage_reinstall_.p03se11l/bin/ebuild-helpers/xattr/install -c -m 644 /tmp/portage/x11-base/xcb-proto-1.14-r1/work/xcb-proto-1.14/xcbgen/__init__.py /tmp/portage/x11-base/xcb-proto-1.14-r1/work/xcb-proto-1.14/xcbgen/error.py /tmp/portage/x11-base/xcb-proto-1.14-r1/work/xcb-proto-1.14/xcbgen/expr.py /tmp/portage/x11-base/xcb-proto-1.14-r1/work/xcb-proto-1.14/xcbgen/align.py /tmp/portage/x11-base/xcb-proto-1.14-r1/work/xcb-proto-1.14/xcbgen/matcher.py /tmp/portage/x11-base/xcb-proto-1.14-r1/work/xcb-proto-1.14/xcbgen/state.py /tmp/portage/x11-base/xcb-proto-1.14-r1/work/xcb-proto-1.14/xcbgen/xtypes.py '/tmp/portage/x11-base/xcb-proto-1.14-r1/image/usr/lib/python3.8/site-packages/xcbgen'
make[1]: Leaving directory '/tmp/portage/x11-base/xcb-proto-1.14-r1/work/xcb-proto-1.14-abi_x86_64.amd64/xcbgen'
make: Leaving directory '/tmp/portage/x11-base/xcb-proto-1.14-r1/work/xcb-proto-1.14-abi_x86_64.amd64/xcbgen'
>>> Completed installing x11-base/xcb-proto-1.14-r1 into /tmp/portage/x11-base/xcb-proto-1.14-r1/image

 * Final size of build directory: 1276 KiB (1.2 MiB)
 * Final size of installed tree:  1732 KiB (1.6 MiB)

 * Verifying compiled files in /usr/lib64/python3.6/site-packages
 * Verifying compiled files in /usr/lib/python3.7/site-packages
 * Verifying compiled files in /usr/lib/python3.8/site-packages
./
./usr/
./usr/lib/
./usr/lib/python3.8/
./usr/lib/python3.8/site-packages/
./usr/lib/python3.8/site-packages/xcbgen/
./usr/lib/python3.8/site-packages/xcbgen/matcher.py
./usr/lib/python3.8/site-packages/xcbgen/__init__.py
./usr/lib/python3.8/site-packages/xcbgen/error.py
./usr/lib/python3.8/site-packages/xcbgen/xtypes.py
./usr/lib/python3.8/site-packages/xcbgen/expr.py
./usr/lib/python3.8/site-packages/xcbgen/__pycache__/
./usr/lib/python3.8/site-packages/xcbgen/__pycache__/expr.cpython-38.pyc
./usr/lib/python3.8/site-packages/xcbgen/__pycache__/expr.cpython-38.opt-1.pyc
./usr/lib/python3.8/site-packages/xcbgen/__pycache__/xtypes.cpython-38.opt-1.pyc
./usr/lib/python3.8/site-packages/xcbgen/__pycache__/xtypes.cpython-38.pyc
./usr/lib/python3.8/site-packages/xcbgen/__pycache__/__init__.cpython-38.opt-1.pyc
./usr/lib/python3.8/site-packages/xcbgen/__pycache__/error.cpython-38.pyc
./usr/lib/python3.8/site-packages/xcbgen/__pycache__/state.cpython-38.opt-2.pyc
./usr/lib/python3.8/site-packages/xcbgen/__pycache__/__init__.cpython-38.pyc
./usr/lib/python3.8/site-packages/xcbgen/__pycache__/align.cpython-38.opt-2.pyc
./usr/lib/python3.8/site-packages/xcbgen/__pycache__/align.cpython-38.pyc
./usr/lib/python3.8/site-packages/xcbgen/__pycache__/__init__.cpython-38.opt-2.pyc
./usr/lib/python3.8/site-packages/xcbgen/__pycache__/error.cpython-38.opt-1.pyc
./usr/lib/python3.8/site-packages/xcbgen/__pycache__/matcher.cpython-38.opt-1.pyc
./usr/lib/python3.8/site-packages/xcbgen/__pycache__/matcher.cpython-38.opt-2.pyc
./usr/lib/python3.8/site-packages/xcbgen/__pycache__/align.cpython-38.opt-1.pyc
./usr/lib/python3.8/site-packages/xcbgen/__pycache__/xtypes.cpython-38.opt-2.pyc
./usr/lib/python3.8/site-packages/xcbgen/__pycache__/state.cpython-38.opt-1.pyc
./usr/lib/python3.8/site-packages/xcbgen/__pycache__/state.cpython-38.pyc
./usr/lib/python3.8/site-packages/xcbgen/__pycache__/matcher.cpython-38.pyc
./usr/lib/python3.8/site-packages/xcbgen/__pycache__/error.cpython-38.opt-2.pyc
./usr/lib/python3.8/site-packages/xcbgen/__pycache__/expr.cpython-38.opt-2.pyc
./usr/lib/python3.8/site-packages/xcbgen/state.py
./usr/lib/python3.8/site-packages/xcbgen/align.py
./usr/lib/python3.7/
./usr/lib/python3.7/site-packages/
./usr/lib/python3.7/site-packages/xcbgen/
./usr/lib/python3.7/site-packages/xcbgen/matcher.py
./usr/lib/python3.7/site-packages/xcbgen/__init__.py
./usr/lib/python3.7/site-packages/xcbgen/error.py
./usr/lib/python3.7/site-packages/xcbgen/xtypes.py
./usr/lib/python3.7/site-packages/xcbgen/expr.py
./usr/lib/python3.7/site-packages/xcbgen/__pycache__/
./usr/lib/python3.7/site-packages/xcbgen/__pycache__/align.cpython-37.pyc
./usr/lib/python3.7/site-packages/xcbgen/__pycache__/state.cpython-37.opt-2.pyc
./usr/lib/python3.7/site-packages/xcbgen/__pycache__/error.cpython-37.opt-2.pyc
./usr/lib/python3.7/site-packages/xcbgen/__pycache__/matcher.cpython-37.opt-1.pyc
./usr/lib/python3.7/site-packages/xcbgen/__pycache__/error.cpython-37.opt-1.pyc
./usr/lib/python3.7/site-packages/xcbgen/__pycache__/state.cpython-37.pyc
./usr/lib/python3.7/site-packages/xcbgen/__pycache__/expr.cpython-37.opt-2.pyc
./usr/lib/python3.7/site-packages/xcbgen/__pycache__/__init__.cpython-37.opt-1.pyc
./usr/lib/python3.7/site-packages/xcbgen/__pycache__/__init__.cpython-37.opt-2.pyc
./usr/lib/python3.7/site-packages/xcbgen/__pycache__/xtypes.cpython-37.opt-1.pyc
./usr/lib/python3.7/site-packages/xcbgen/__pycache__/expr.cpython-37.pyc
./usr/lib/python3.7/site-packages/xcbgen/__pycache__/error.cpython-37.pyc
./usr/lib/python3.7/site-packages/xcbgen/__pycache__/xtypes.cpython-37.pyc
./usr/lib/python3.7/site-packages/xcbgen/__pycache__/state.cpython-37.opt-1.pyc
./usr/lib/python3.7/site-packages/xcbgen/__pycache__/__init__.cpython-37.pyc
./usr/lib/python3.7/site-packages/xcbgen/__pycache__/expr.cpython-37.opt-1.pyc
./usr/lib/python3.7/site-packages/xcbgen/__pycache__/xtypes.cpython-37.opt-2.pyc
./usr/lib/python3.7/site-packages/xcbgen/__pycache__/align.cpython-37.opt-2.pyc
./usr/lib/python3.7/site-packages/xcbgen/__pycache__/align.cpython-37.opt-1.pyc
./usr/lib/python3.7/site-packages/xcbgen/__pycache__/matcher.cpython-37.opt-2.pyc
./usr/lib/python3.7/site-packages/xcbgen/__pycache__/matcher.cpython-37.pyc
./usr/lib/python3.7/site-packages/xcbgen/state.py
./usr/lib/python3.7/site-packages/xcbgen/align.py
./usr/share/
./usr/share/xcb/
./usr/share/xcb/res.xml
./usr/share/xcb/xkb.xml
./usr/share/xcb/xf86vidmode.xml
./usr/share/xcb/xinput.xml
./usr/share/xcb/xevie.xml
./usr/share/xcb/xproto.xml
./usr/share/xcb/xselinux.xml
./usr/share/xcb/xprint.xml
./usr/share/xcb/dpms.xml
./usr/share/xcb/xf86dri.xml
./usr/share/xcb/present.xml
./usr/share/xcb/record.xml
./usr/share/xcb/render.xml
./usr/share/xcb/dri3.xml
./usr/share/xcb/damage.xml
./usr/share/xcb/ge.xml
./usr/share/xcb/xfixes.xml
./usr/share/xcb/xc_misc.xml
./usr/share/xcb/sync.xml
./usr/share/xcb/composite.xml
./usr/share/xcb/glx.xml
./usr/share/xcb/screensaver.xml
./usr/share/xcb/xvmc.xml
./usr/share/xcb/shm.xml
./usr/share/xcb/xcb.xsd
./usr/share/xcb/dri2.xml
./usr/share/xcb/randr.xml
./usr/share/xcb/bigreq.xml
./usr/share/xcb/xinerama.xml
./usr/share/xcb/xv.xml
./usr/share/xcb/xtest.xml
./usr/share/xcb/shape.xml
./usr/share/doc/
./usr/share/doc/xcb-proto-1.14-r1/
./usr/share/doc/xcb-proto-1.14-r1/TODO.bz2
./usr/share/doc/xcb-proto-1.14-r1/README.md.bz2
./usr/share/doc/xcb-proto-1.14-r1/NEWS.bz2
./usr/lib64/
./usr/lib64/python3.6/
./usr/lib64/python3.6/site-packages/
./usr/lib64/python3.6/site-packages/xcbgen/
./usr/lib64/python3.6/site-packages/xcbgen/matcher.py
./usr/lib64/python3.6/site-packages/xcbgen/__init__.py
./usr/lib64/python3.6/site-packages/xcbgen/error.py
./usr/lib64/python3.6/site-packages/xcbgen/xtypes.py
./usr/lib64/python3.6/site-packages/xcbgen/expr.py
./usr/lib64/python3.6/site-packages/xcbgen/__pycache__/
./usr/lib64/python3.6/site-packages/xcbgen/__pycache__/align.cpython-36.opt-2.pyc
./usr/lib64/python3.6/site-packages/xcbgen/__pycache__/state.cpython-36.opt-1.pyc
./usr/lib64/python3.6/site-packages/xcbgen/__pycache__/matcher.cpython-36.opt-2.pyc
./usr/lib64/python3.6/site-packages/xcbgen/__pycache__/align.cpython-36.pyc
./usr/lib64/python3.6/site-packages/xcbgen/__pycache__/align.cpython-36.opt-1.pyc
./usr/lib64/python3.6/site-packages/xcbgen/__pycache__/state.cpython-36.pyc
./usr/lib64/python3.6/site-packages/xcbgen/__pycache__/expr.cpython-36.pyc
./usr/lib64/python3.6/site-packages/xcbgen/__pycache__/error.cpython-36.opt-2.pyc
./usr/lib64/python3.6/site-packages/xcbgen/__pycache__/__init__.cpython-36.opt-2.pyc
./usr/lib64/python3.6/site-packages/xcbgen/__pycache__/xtypes.cpython-36.opt-1.pyc
./usr/lib64/python3.6/site-packages/xcbgen/__pycache__/expr.cpython-36.opt-2.pyc
./usr/lib64/python3.6/site-packages/xcbgen/__pycache__/xtypes.cpython-36.pyc
./usr/lib64/python3.6/site-packages/xcbgen/__pycache__/xtypes.cpython-36.opt-2.pyc
./usr/lib64/python3.6/site-packages/xcbgen/__pycache__/error.cpython-36.pyc
./usr/lib64/python3.6/site-packages/xcbgen/__pycache__/state.cpython-36.opt-2.pyc
./usr/lib64/python3.6/site-packages/xcbgen/__pycache__/matcher.cpython-36.opt-1.pyc
./usr/lib64/python3.6/site-packages/xcbgen/__pycache__/expr.cpython-36.opt-1.pyc
./usr/lib64/python3.6/site-packages/xcbgen/__pycache__/__init__.cpython-36.opt-1.pyc
./usr/lib64/python3.6/site-packages/xcbgen/__pycache__/__init__.cpython-36.pyc
./usr/lib64/python3.6/site-packages/xcbgen/__pycache__/error.cpython-36.opt-1.pyc
./usr/lib64/python3.6/site-packages/xcbgen/__pycache__/matcher.cpython-36.pyc
./usr/lib64/python3.6/site-packages/xcbgen/state.py
./usr/lib64/python3.6/site-packages/xcbgen/align.py
./usr/lib64/pkgconfig/
./usr/lib64/pkgconfig/xcb-proto.pc
>>> Done.
 * checking 117 files for package collisions
>>> Merging x11-base/xcb-proto-1.14-r1 to /
 * removing unneeded *.la files
--- /usr/
--- /usr/lib64/
--- /usr/lib64/pkgconfig/
>>> /usr/lib64/pkgconfig/xcb-proto.pc
--- /usr/lib64/python3.6/
--- /usr/lib64/python3.6/site-packages/
>>> /usr/lib64/python3.6/site-packages/xcbgen/
>>> /usr/lib64/python3.6/site-packages/xcbgen/align.py
>>> /usr/lib64/python3.6/site-packages/xcbgen/state.py
>>> /usr/lib64/python3.6/site-packages/xcbgen/__pycache__/
>>> /usr/lib64/python3.6/site-packages/xcbgen/__pycache__/matcher.cpython-36.pyc
>>> /usr/lib64/python3.6/site-packages/xcbgen/__pycache__/error.cpython-36.opt-1.pyc
>>> /usr/lib64/python3.6/site-packages/xcbgen/__pycache__/__init__.cpython-36.pyc
>>> /usr/lib64/python3.6/site-packages/xcbgen/__pycache__/__init__.cpython-36.opt-1.pyc
>>> /usr/lib64/python3.6/site-packages/xcbgen/__pycache__/expr.cpython-36.opt-1.pyc
>>> /usr/lib64/python3.6/site-packages/xcbgen/__pycache__/matcher.cpython-36.opt-1.pyc
>>> /usr/lib64/python3.6/site-packages/xcbgen/__pycache__/state.cpython-36.opt-2.pyc
>>> /usr/lib64/python3.6/site-packages/xcbgen/__pycache__/error.cpython-36.pyc
>>> /usr/lib64/python3.6/site-packages/xcbgen/__pycache__/xtypes.cpython-36.opt-2.pyc
>>> /usr/lib64/python3.6/site-packages/xcbgen/__pycache__/xtypes.cpython-36.pyc
>>> /usr/lib64/python3.6/site-packages/xcbgen/__pycache__/expr.cpython-36.opt-2.pyc
>>> /usr/lib64/python3.6/site-packages/xcbgen/__pycache__/xtypes.cpython-36.opt-1.pyc
>>> /usr/lib64/python3.6/site-packages/xcbgen/__pycache__/__init__.cpython-36.opt-2.pyc
>>> /usr/lib64/python3.6/site-packages/xcbgen/__pycache__/error.cpython-36.opt-2.pyc
>>> /usr/lib64/python3.6/site-packages/xcbgen/__pycache__/expr.cpython-36.pyc
>>> /usr/lib64/python3.6/site-packages/xcbgen/__pycache__/state.cpython-36.pyc
>>> /usr/lib64/python3.6/site-packages/xcbgen/__pycache__/align.cpython-36.opt-1.pyc
>>> /usr/lib64/python3.6/site-packages/xcbgen/__pycache__/align.cpython-36.pyc
>>> /usr/lib64/python3.6/site-packages/xcbgen/__pycache__/matcher.cpython-36.opt-2.pyc
>>> /usr/lib64/python3.6/site-packages/xcbgen/__pycache__/state.cpython-36.opt-1.pyc
>>> /usr/lib64/python3.6/site-packages/xcbgen/__pycache__/align.cpython-36.opt-2.pyc
>>> /usr/lib64/python3.6/site-packages/xcbgen/expr.py
>>> /usr/lib64/python3.6/site-packages/xcbgen/xtypes.py
>>> /usr/lib64/python3.6/site-packages/xcbgen/error.py
>>> /usr/lib64/python3.6/site-packages/xcbgen/__init__.py
>>> /usr/lib64/python3.6/site-packages/xcbgen/matcher.py
--- /usr/share/
--- /usr/share/xcb/
>>> /usr/share/xcb/shape.xml
>>> /usr/share/xcb/xtest.xml
>>> /usr/share/xcb/xv.xml
>>> /usr/share/xcb/xinerama.xml
>>> /usr/share/xcb/bigreq.xml
>>> /usr/share/xcb/randr.xml
>>> /usr/share/xcb/dri2.xml
>>> /usr/share/xcb/xcb.xsd
>>> /usr/share/xcb/shm.xml
>>> /usr/share/xcb/xvmc.xml
>>> /usr/share/xcb/screensaver.xml
>>> /usr/share/xcb/glx.xml
>>> /usr/share/xcb/composite.xml
>>> /usr/share/xcb/sync.xml
>>> /usr/share/xcb/xc_misc.xml
>>> /usr/share/xcb/xfixes.xml
>>> /usr/share/xcb/ge.xml
>>> /usr/share/xcb/damage.xml
>>> /usr/share/xcb/dri3.xml
>>> /usr/share/xcb/render.xml
>>> /usr/share/xcb/record.xml
>>> /usr/share/xcb/present.xml
>>> /usr/share/xcb/xf86dri.xml
>>> /usr/share/xcb/dpms.xml
>>> /usr/share/xcb/xprint.xml
>>> /usr/share/xcb/xselinux.xml
>>> /usr/share/xcb/xproto.xml
>>> /usr/share/xcb/xevie.xml
>>> /usr/share/xcb/xinput.xml
>>> /usr/share/xcb/xf86vidmode.xml
>>> /usr/share/xcb/xkb.xml
>>> /usr/share/xcb/res.xml
--- /usr/lib/
--- /usr/lib/python3.7/
--- /usr/lib/python3.7/site-packages/
--- /usr/lib/python3.7/site-packages/xcbgen/
>>> /usr/lib/python3.7/site-packages/xcbgen/align.py
>>> /usr/lib/python3.7/site-packages/xcbgen/state.py
--- /usr/lib/python3.7/site-packages/xcbgen/__pycache__/
>>> /usr/lib/python3.7/site-packages/xcbgen/__pycache__/matcher.cpython-37.pyc
>>> /usr/lib/python3.7/site-packages/xcbgen/__pycache__/matcher.cpython-37.opt-2.pyc
>>> /usr/lib/python3.7/site-packages/xcbgen/__pycache__/align.cpython-37.opt-1.pyc
>>> /usr/lib/python3.7/site-packages/xcbgen/__pycache__/align.cpython-37.opt-2.pyc
>>> /usr/lib/python3.7/site-packages/xcbgen/__pycache__/xtypes.cpython-37.opt-2.pyc
>>> /usr/lib/python3.7/site-packages/xcbgen/__pycache__/expr.cpython-37.opt-1.pyc
>>> /usr/lib/python3.7/site-packages/xcbgen/__pycache__/__init__.cpython-37.pyc
>>> /usr/lib/python3.7/site-packages/xcbgen/__pycache__/state.cpython-37.opt-1.pyc
>>> /usr/lib/python3.7/site-packages/xcbgen/__pycache__/xtypes.cpython-37.pyc
>>> /usr/lib/python3.7/site-packages/xcbgen/__pycache__/error.cpython-37.pyc
>>> /usr/lib/python3.7/site-packages/xcbgen/__pycache__/expr.cpython-37.pyc
>>> /usr/lib/python3.7/site-packages/xcbgen/__pycache__/xtypes.cpython-37.opt-1.pyc
>>> /usr/lib/python3.7/site-packages/xcbgen/__pycache__/__init__.cpython-37.opt-2.pyc
>>> /usr/lib/python3.7/site-packages/xcbgen/__pycache__/__init__.cpython-37.opt-1.pyc
>>> /usr/lib/python3.7/site-packages/xcbgen/__pycache__/expr.cpython-37.opt-2.pyc
>>> /usr/lib/python3.7/site-packages/xcbgen/__pycache__/state.cpython-37.pyc
>>> /usr/lib/python3.7/site-packages/xcbgen/__pycache__/error.cpython-37.opt-1.pyc
>>> /usr/lib/python3.7/site-packages/xcbgen/__pycache__/matcher.cpython-37.opt-1.pyc
>>> /usr/lib/python3.7/site-packages/xcbgen/__pycache__/error.cpython-37.opt-2.pyc
>>> /usr/lib/python3.7/site-packages/xcbgen/__pycache__/state.cpython-37.opt-2.pyc
>>> /usr/lib/python3.7/site-packages/xcbgen/__pycache__/align.cpython-37.pyc
>>> /usr/lib/python3.7/site-packages/xcbgen/expr.py
>>> /usr/lib/python3.7/site-packages/xcbgen/xtypes.py
>>> /usr/lib/python3.7/site-packages/xcbgen/error.py
>>> /usr/lib/python3.7/site-packages/xcbgen/__init__.py
>>> /usr/lib/python3.7/site-packages/xcbgen/matcher.py
--- /usr/lib/python3.8/
--- /usr/lib/python3.8/site-packages/
--- /usr/lib/python3.8/site-packages/xcbgen/
>>> /usr/lib/python3.8/site-packages/xcbgen/align.py
>>> /usr/lib/python3.8/site-packages/xcbgen/state.py
--- /usr/lib/python3.8/site-packages/xcbgen/__pycache__/
>>> /usr/lib/python3.8/site-packages/xcbgen/__pycache__/expr.cpython-38.opt-2.pyc
>>> /usr/lib/python3.8/site-packages/xcbgen/__pycache__/error.cpython-38.opt-2.pyc
>>> /usr/lib/python3.8/site-packages/xcbgen/__pycache__/matcher.cpython-38.pyc
>>> /usr/lib/python3.8/site-packages/xcbgen/__pycache__/state.cpython-38.pyc
>>> /usr/lib/python3.8/site-packages/xcbgen/__pycache__/state.cpython-38.opt-1.pyc
>>> /usr/lib/python3.8/site-packages/xcbgen/__pycache__/xtypes.cpython-38.opt-2.pyc
>>> /usr/lib/python3.8/site-packages/xcbgen/__pycache__/align.cpython-38.opt-1.pyc
>>> /usr/lib/python3.8/site-packages/xcbgen/__pycache__/matcher.cpython-38.opt-2.pyc
>>> /usr/lib/python3.8/site-packages/xcbgen/__pycache__/matcher.cpython-38.opt-1.pyc
>>> /usr/lib/python3.8/site-packages/xcbgen/__pycache__/error.cpython-38.opt-1.pyc
>>> /usr/lib/python3.8/site-packages/xcbgen/__pycache__/__init__.cpython-38.opt-2.pyc
>>> /usr/lib/python3.8/site-packages/xcbgen/__pycache__/align.cpython-38.pyc
>>> /usr/lib/python3.8/site-packages/xcbgen/__pycache__/align.cpython-38.opt-2.pyc
>>> /usr/lib/python3.8/site-packages/xcbgen/__pycache__/__init__.cpython-38.pyc
>>> /usr/lib/python3.8/site-packages/xcbgen/__pycache__/state.cpython-38.opt-2.pyc
>>> /usr/lib/python3.8/site-packages/xcbgen/__pycache__/error.cpython-38.pyc
>>> /usr/lib/python3.8/site-packages/xcbgen/__pycache__/__init__.cpython-38.opt-1.pyc
>>> /usr/lib/python3.8/site-packages/xcbgen/__pycache__/xtypes.cpython-38.pyc
>>> /usr/lib/python3.8/site-packages/xcbgen/__pycache__/xtypes.cpython-38.opt-1.pyc
>>> /usr/lib/python3.8/site-packages/xcbgen/__pycache__/expr.cpython-38.opt-1.pyc
>>> /usr/lib/python3.8/site-packages/xcbgen/__pycache__/expr.cpython-38.pyc
>>> /usr/lib/python3.8/site-packages/xcbgen/expr.py
>>> /usr/lib/python3.8/site-packages/xcbgen/xtypes.py
>>> /usr/lib/python3.8/site-packages/xcbgen/error.py
>>> /usr/lib/python3.8/site-packages/xcbgen/__init__.py
>>> /usr/lib/python3.8/site-packages/xcbgen/matcher.py
>>> Safely unmerging already-installed instance...
>>> Original instance of package unmerged safely.
>>> x11-base/xcb-proto-1.14-r1 merged.
