No package files given... Grabbing a set.
--- replaced obj /usr/share/man/man5/XCompose.5
--- replaced obj /usr/share/man/man5/Compose.5.bz2
--- replaced dir /usr/share/man/man5
--- replaced dir /usr/share/man
--- replaced obj /usr/share/X11/locale/zh_TW/XLC_LOCALE
--- replaced obj /usr/share/X11/locale/zh_TW/XI18N_OBJS
--- replaced obj /usr/share/X11/locale/zh_TW/Compose
--- replaced obj /usr/share/X11/locale/zh_TW.big5/XLC_LOCALE
--- replaced obj /usr/share/X11/locale/zh_TW.big5/XI18N_OBJS
--- replaced obj /usr/share/X11/locale/zh_TW.big5/Compose
--- replaced dir /usr/share/X11/locale/zh_TW.big5
--- replaced obj /usr/share/X11/locale/zh_TW.UTF-8/XLC_LOCALE
--- replaced obj /usr/share/X11/locale/zh_TW.UTF-8/XI18N_OBJS
--- replaced obj /usr/share/X11/locale/zh_TW.UTF-8/Compose
--- replaced dir /usr/share/X11/locale/zh_TW.UTF-8
--- replaced dir /usr/share/X11/locale/zh_TW
--- replaced obj /usr/share/X11/locale/zh_HK.big5hkscs/XLC_LOCALE
--- replaced obj /usr/share/X11/locale/zh_HK.big5hkscs/XI18N_OBJS
--- replaced obj /usr/share/X11/locale/zh_HK.big5hkscs/Compose
--- replaced dir /usr/share/X11/locale/zh_HK.big5hkscs
--- replaced obj /usr/share/X11/locale/zh_HK.big5/XLC_LOCALE
--- replaced obj /usr/share/X11/locale/zh_HK.big5/XI18N_OBJS
--- replaced obj /usr/share/X11/locale/zh_HK.big5/Compose
--- replaced dir /usr/share/X11/locale/zh_HK.big5
--- replaced obj /usr/share/X11/locale/zh_HK.UTF-8/XLC_LOCALE
--- replaced obj /usr/share/X11/locale/zh_HK.UTF-8/XI18N_OBJS
--- replaced obj /usr/share/X11/locale/zh_HK.UTF-8/Compose
--- replaced dir /usr/share/X11/locale/zh_HK.UTF-8
--- replaced obj /usr/share/X11/locale/zh_CN/XLC_LOCALE
--- replaced obj /usr/share/X11/locale/zh_CN/XI18N_OBJS
--- replaced obj /usr/share/X11/locale/zh_CN/Compose
--- replaced obj /usr/share/X11/locale/zh_CN.gbk/XLC_LOCALE
--- replaced obj /usr/share/X11/locale/zh_CN.gbk/XI18N_OBJS
--- replaced obj /usr/share/X11/locale/zh_CN.gbk/Compose
--- replaced dir /usr/share/X11/locale/zh_CN.gbk
--- replaced obj /usr/share/X11/locale/zh_CN.gb18030/XLC_LOCALE
--- replaced obj /usr/share/X11/locale/zh_CN.gb18030/XI18N_OBJS
--- replaced obj /usr/share/X11/locale/zh_CN.gb18030/Compose
--- replaced dir /usr/share/X11/locale/zh_CN.gb18030
--- replaced obj /usr/share/X11/locale/zh_CN.UTF-8/XLC_LOCALE
--- replaced obj /usr/share/X11/locale/zh_CN.UTF-8/XI18N_OBJS
--- replaced obj /usr/share/X11/locale/zh_CN.UTF-8/Compose
--- replaced dir /usr/share/X11/locale/zh_CN.UTF-8
--- replaced dir /usr/share/X11/locale/zh_CN
--- replaced obj /usr/share/X11/locale/vi_VN.viscii/XLC_LOCALE
--- replaced obj /usr/share/X11/locale/vi_VN.viscii/XI18N_OBJS
--- replaced obj /usr/share/X11/locale/vi_VN.viscii/Compose
--- replaced dir /usr/share/X11/locale/vi_VN.viscii
--- replaced obj /usr/share/X11/locale/vi_VN.tcvn/XLC_LOCALE
--- replaced obj /usr/share/X11/locale/vi_VN.tcvn/XI18N_OBJS
--- replaced obj /usr/share/X11/locale/vi_VN.tcvn/Compose
--- replaced dir /usr/share/X11/locale/vi_VN.tcvn
--- replaced obj /usr/share/X11/locale/tscii-0/XLC_LOCALE
--- replaced obj /usr/share/X11/locale/tscii-0/XI18N_OBJS
--- replaced obj /usr/share/X11/locale/tscii-0/Compose
--- replaced dir /usr/share/X11/locale/tscii-0
--- replaced obj /usr/share/X11/locale/th_TH/XLC_LOCALE
--- replaced obj /usr/share/X11/locale/th_TH/XI18N_OBJS
--- replaced obj /usr/share/X11/locale/th_TH/Compose
--- replaced obj /usr/share/X11/locale/th_TH.UTF-8/XLC_LOCALE
--- replaced obj /usr/share/X11/locale/th_TH.UTF-8/XI18N_OBJS
--- replaced obj /usr/share/X11/locale/th_TH.UTF-8/Compose
--- replaced dir /usr/share/X11/locale/th_TH.UTF-8
--- replaced dir /usr/share/X11/locale/th_TH
--- replaced obj /usr/share/X11/locale/tatar-cyr/XLC_LOCALE
--- replaced obj /usr/share/X11/locale/tatar-cyr/XI18N_OBJS
--- replaced obj /usr/share/X11/locale/tatar-cyr/Compose
--- replaced dir /usr/share/X11/locale/tatar-cyr
--- replaced obj /usr/share/X11/locale/sr_CS.UTF-8/XLC_LOCALE
--- replaced obj /usr/share/X11/locale/sr_CS.UTF-8/XI18N_OBJS
--- replaced obj /usr/share/X11/locale/sr_CS.UTF-8/Compose
--- replaced dir /usr/share/X11/locale/sr_CS.UTF-8
--- replaced obj /usr/share/X11/locale/ru_RU.UTF-8/XLC_LOCALE
--- replaced obj /usr/share/X11/locale/ru_RU.UTF-8/XI18N_OBJS
--- replaced obj /usr/share/X11/locale/ru_RU.UTF-8/Compose
--- replaced dir /usr/share/X11/locale/ru_RU.UTF-8
--- replaced obj /usr/share/X11/locale/pt_PT.UTF-8/XLC_LOCALE
--- replaced obj /usr/share/X11/locale/pt_PT.UTF-8/XI18N_OBJS
--- replaced obj /usr/share/X11/locale/pt_PT.UTF-8/Compose
--- replaced dir /usr/share/X11/locale/pt_PT.UTF-8
--- replaced obj /usr/share/X11/locale/pt_BR.UTF-8/XLC_LOCALE
--- replaced obj /usr/share/X11/locale/pt_BR.UTF-8/XI18N_OBJS
--- replaced obj /usr/share/X11/locale/pt_BR.UTF-8/Compose
--- replaced dir /usr/share/X11/locale/pt_BR.UTF-8
--- replaced obj /usr/share/X11/locale/nokhchi-1/XLC_LOCALE
--- replaced obj /usr/share/X11/locale/nokhchi-1/XI18N_OBJS
--- replaced obj /usr/share/X11/locale/nokhchi-1/Compose
--- replaced dir /usr/share/X11/locale/nokhchi-1
--- replaced obj /usr/share/X11/locale/mulelao-1/XLC_LOCALE
--- replaced obj /usr/share/X11/locale/mulelao-1/XI18N_OBJS
--- replaced obj /usr/share/X11/locale/mulelao-1/Compose
--- replaced dir /usr/share/X11/locale/mulelao-1
--- replaced obj /usr/share/X11/locale/microsoft-cp1256/XLC_LOCALE
--- replaced obj /usr/share/X11/locale/microsoft-cp1256/XI18N_OBJS
--- replaced obj /usr/share/X11/locale/microsoft-cp1256/Compose
--- replaced dir /usr/share/X11/locale/microsoft-cp1256
--- replaced obj /usr/share/X11/locale/microsoft-cp1255/XLC_LOCALE
--- replaced obj /usr/share/X11/locale/microsoft-cp1255/XI18N_OBJS
--- replaced obj /usr/share/X11/locale/microsoft-cp1255/Compose
--- replaced dir /usr/share/X11/locale/microsoft-cp1255
--- replaced obj /usr/share/X11/locale/microsoft-cp1251/XLC_LOCALE
--- replaced obj /usr/share/X11/locale/microsoft-cp1251/XI18N_OBJS
--- replaced obj /usr/share/X11/locale/microsoft-cp1251/Compose
--- replaced dir /usr/share/X11/locale/microsoft-cp1251
--- replaced obj /usr/share/X11/locale/locale.dir
--- replaced obj /usr/share/X11/locale/locale.alias
--- replaced obj /usr/share/X11/locale/koi8-u/XLC_LOCALE
--- replaced obj /usr/share/X11/locale/koi8-u/XI18N_OBJS
--- replaced obj /usr/share/X11/locale/koi8-u/Compose
--- replaced dir /usr/share/X11/locale/koi8-u
--- replaced obj /usr/share/X11/locale/koi8-r/XLC_LOCALE
--- replaced obj /usr/share/X11/locale/koi8-r/XI18N_OBJS
--- replaced obj /usr/share/X11/locale/koi8-r/Compose
--- replaced dir /usr/share/X11/locale/koi8-r
--- replaced obj /usr/share/X11/locale/koi8-c/XLC_LOCALE
--- replaced obj /usr/share/X11/locale/koi8-c/XI18N_OBJS
--- replaced obj /usr/share/X11/locale/koi8-c/Compose
--- replaced dir /usr/share/X11/locale/koi8-c
--- replaced obj /usr/share/X11/locale/ko_KR.UTF-8/XLC_LOCALE
--- replaced obj /usr/share/X11/locale/ko_KR.UTF-8/XI18N_OBJS
--- replaced obj /usr/share/X11/locale/ko_KR.UTF-8/Compose
--- replaced dir /usr/share/X11/locale/ko_KR.UTF-8
--- replaced obj /usr/share/X11/locale/ko/XLC_LOCALE
--- replaced obj /usr/share/X11/locale/ko/XI18N_OBJS
--- replaced obj /usr/share/X11/locale/ko/Compose
--- replaced dir /usr/share/X11/locale/ko
--- replaced obj /usr/share/X11/locale/km_KH.UTF-8/XLC_LOCALE
--- replaced obj /usr/share/X11/locale/km_KH.UTF-8/XI18N_OBJS
--- replaced obj /usr/share/X11/locale/km_KH.UTF-8/Compose
--- replaced dir /usr/share/X11/locale/km_KH.UTF-8
--- replaced obj /usr/share/X11/locale/ja_JP.UTF-8/XLC_LOCALE
--- replaced obj /usr/share/X11/locale/ja_JP.UTF-8/XI18N_OBJS
--- replaced obj /usr/share/X11/locale/ja_JP.UTF-8/Compose
--- replaced dir /usr/share/X11/locale/ja_JP.UTF-8
--- replaced obj /usr/share/X11/locale/ja/XLC_LOCALE
--- replaced obj /usr/share/X11/locale/ja/XI18N_OBJS
--- replaced obj /usr/share/X11/locale/ja/Compose
--- replaced obj /usr/share/X11/locale/ja.SJIS/XLC_LOCALE
--- replaced obj /usr/share/X11/locale/ja.SJIS/XI18N_OBJS
--- replaced obj /usr/share/X11/locale/ja.SJIS/Compose
--- replaced dir /usr/share/X11/locale/ja.SJIS
--- replaced obj /usr/share/X11/locale/ja.JIS/XLC_LOCALE
--- replaced obj /usr/share/X11/locale/ja.JIS/XI18N_OBJS
--- replaced obj /usr/share/X11/locale/ja.JIS/Compose
--- replaced dir /usr/share/X11/locale/ja.JIS
--- replaced dir /usr/share/X11/locale/ja
--- replaced obj /usr/share/X11/locale/iso8859-9e/XLC_LOCALE
--- replaced obj /usr/share/X11/locale/iso8859-9e/XI18N_OBJS
--- replaced obj /usr/share/X11/locale/iso8859-9e/Compose
--- replaced dir /usr/share/X11/locale/iso8859-9e
--- replaced obj /usr/share/X11/locale/iso8859-9/XLC_LOCALE
--- replaced obj /usr/share/X11/locale/iso8859-9/XI18N_OBJS
--- replaced obj /usr/share/X11/locale/iso8859-9/Compose
--- replaced dir /usr/share/X11/locale/iso8859-9
--- replaced obj /usr/share/X11/locale/iso8859-8/XLC_LOCALE
--- replaced obj /usr/share/X11/locale/iso8859-8/XI18N_OBJS
--- replaced obj /usr/share/X11/locale/iso8859-8/Compose
--- replaced dir /usr/share/X11/locale/iso8859-8
--- replaced obj /usr/share/X11/locale/iso8859-7/XLC_LOCALE
--- replaced obj /usr/share/X11/locale/iso8859-7/XI18N_OBJS
--- replaced obj /usr/share/X11/locale/iso8859-7/Compose
--- replaced dir /usr/share/X11/locale/iso8859-7
--- replaced obj /usr/share/X11/locale/iso8859-6/XLC_LOCALE
--- replaced obj /usr/share/X11/locale/iso8859-6/XI18N_OBJS
--- replaced obj /usr/share/X11/locale/iso8859-6/Compose
--- replaced dir /usr/share/X11/locale/iso8859-6
--- replaced obj /usr/share/X11/locale/iso8859-5/XLC_LOCALE
--- replaced obj /usr/share/X11/locale/iso8859-5/XI18N_OBJS
--- replaced obj /usr/share/X11/locale/iso8859-5/Compose
--- replaced dir /usr/share/X11/locale/iso8859-5
--- replaced obj /usr/share/X11/locale/iso8859-4/XLC_LOCALE
--- replaced obj /usr/share/X11/locale/iso8859-4/XI18N_OBJS
--- replaced obj /usr/share/X11/locale/iso8859-4/Compose
--- replaced dir /usr/share/X11/locale/iso8859-4
--- replaced obj /usr/share/X11/locale/iso8859-3/XLC_LOCALE
--- replaced obj /usr/share/X11/locale/iso8859-3/XI18N_OBJS
--- replaced obj /usr/share/X11/locale/iso8859-3/Compose
--- replaced dir /usr/share/X11/locale/iso8859-3
--- replaced obj /usr/share/X11/locale/iso8859-2/XLC_LOCALE
--- replaced obj /usr/share/X11/locale/iso8859-2/XI18N_OBJS
--- replaced obj /usr/share/X11/locale/iso8859-2/Compose
--- replaced dir /usr/share/X11/locale/iso8859-2
--- replaced obj /usr/share/X11/locale/iso8859-15/XLC_LOCALE
--- replaced obj /usr/share/X11/locale/iso8859-15/XI18N_OBJS
--- replaced obj /usr/share/X11/locale/iso8859-15/Compose
--- replaced dir /usr/share/X11/locale/iso8859-15
--- replaced obj /usr/share/X11/locale/iso8859-14/XLC_LOCALE
--- replaced obj /usr/share/X11/locale/iso8859-14/XI18N_OBJS
--- replaced obj /usr/share/X11/locale/iso8859-14/Compose
--- replaced dir /usr/share/X11/locale/iso8859-14
--- replaced obj /usr/share/X11/locale/iso8859-13/XLC_LOCALE
--- replaced obj /usr/share/X11/locale/iso8859-13/XI18N_OBJS
--- replaced obj /usr/share/X11/locale/iso8859-13/Compose
--- replaced dir /usr/share/X11/locale/iso8859-13
--- replaced obj /usr/share/X11/locale/iso8859-11/XLC_LOCALE
--- replaced obj /usr/share/X11/locale/iso8859-11/XI18N_OBJS
--- replaced obj /usr/share/X11/locale/iso8859-11/Compose
--- replaced dir /usr/share/X11/locale/iso8859-11
--- replaced obj /usr/share/X11/locale/iso8859-10/XLC_LOCALE
--- replaced obj /usr/share/X11/locale/iso8859-10/XI18N_OBJS
--- replaced obj /usr/share/X11/locale/iso8859-10/Compose
--- replaced dir /usr/share/X11/locale/iso8859-10
--- replaced obj /usr/share/X11/locale/iso8859-1/XLC_LOCALE
--- replaced obj /usr/share/X11/locale/iso8859-1/XI18N_OBJS
--- replaced obj /usr/share/X11/locale/iso8859-1/Compose
--- replaced dir /usr/share/X11/locale/iso8859-1
--- replaced obj /usr/share/X11/locale/isiri-3342/XLC_LOCALE
--- replaced obj /usr/share/X11/locale/isiri-3342/XI18N_OBJS
--- replaced obj /usr/share/X11/locale/isiri-3342/Compose
--- replaced dir /usr/share/X11/locale/isiri-3342
--- replaced obj /usr/share/X11/locale/iscii-dev/XLC_LOCALE
--- replaced obj /usr/share/X11/locale/iscii-dev/XI18N_OBJS
--- replaced obj /usr/share/X11/locale/iscii-dev/Compose
--- replaced dir /usr/share/X11/locale/iscii-dev
--- replaced obj /usr/share/X11/locale/ibm-cp1133/XLC_LOCALE
--- replaced obj /usr/share/X11/locale/ibm-cp1133/XI18N_OBJS
--- replaced obj /usr/share/X11/locale/ibm-cp1133/Compose
--- replaced dir /usr/share/X11/locale/ibm-cp1133
--- replaced obj /usr/share/X11/locale/georgian-ps/XLC_LOCALE
--- replaced obj /usr/share/X11/locale/georgian-ps/XI18N_OBJS
--- replaced obj /usr/share/X11/locale/georgian-ps/Compose
--- replaced dir /usr/share/X11/locale/georgian-ps
--- replaced obj /usr/share/X11/locale/georgian-academy/XLC_LOCALE
--- replaced obj /usr/share/X11/locale/georgian-academy/XI18N_OBJS
--- replaced obj /usr/share/X11/locale/georgian-academy/Compose
--- replaced dir /usr/share/X11/locale/georgian-academy
--- replaced obj /usr/share/X11/locale/fi_FI.UTF-8/XLC_LOCALE
--- replaced obj /usr/share/X11/locale/fi_FI.UTF-8/XI18N_OBJS
--- replaced obj /usr/share/X11/locale/fi_FI.UTF-8/Compose
--- replaced dir /usr/share/X11/locale/fi_FI.UTF-8
--- replaced obj /usr/share/X11/locale/en_US.UTF-8/XLC_LOCALE
--- replaced obj /usr/share/X11/locale/en_US.UTF-8/XI18N_OBJS
--- replaced obj /usr/share/X11/locale/en_US.UTF-8/Compose
--- replaced dir /usr/share/X11/locale/en_US.UTF-8
--- replaced obj /usr/share/X11/locale/el_GR.UTF-8/XLC_LOCALE
--- replaced obj /usr/share/X11/locale/el_GR.UTF-8/XI18N_OBJS
--- replaced obj /usr/share/X11/locale/el_GR.UTF-8/Compose
--- replaced dir /usr/share/X11/locale/el_GR.UTF-8
--- replaced obj /usr/share/X11/locale/cs_CZ.UTF-8/XLC_LOCALE
--- replaced obj /usr/share/X11/locale/cs_CZ.UTF-8/XI18N_OBJS
--- replaced obj /usr/share/X11/locale/cs_CZ.UTF-8/Compose
--- replaced dir /usr/share/X11/locale/cs_CZ.UTF-8
--- replaced obj /usr/share/X11/locale/compose.dir
--- replaced obj /usr/share/X11/locale/armscii-8/XLC_LOCALE
--- replaced obj /usr/share/X11/locale/armscii-8/XI18N_OBJS
--- replaced obj /usr/share/X11/locale/armscii-8/Compose
--- replaced dir /usr/share/X11/locale/armscii-8
--- replaced obj /usr/share/X11/locale/am_ET.UTF-8/XLC_LOCALE
--- replaced obj /usr/share/X11/locale/am_ET.UTF-8/XI18N_OBJS
--- replaced obj /usr/share/X11/locale/am_ET.UTF-8/Compose
--- replaced dir /usr/share/X11/locale/am_ET.UTF-8
--- replaced obj /usr/share/X11/locale/C/XLC_LOCALE
--- replaced obj /usr/share/X11/locale/C/XI18N_OBJS
--- replaced obj /usr/share/X11/locale/C/Compose
--- replaced dir /usr/share/X11/locale/C
--- replaced dir /usr/share/X11/locale
--- replaced obj /usr/share/X11/Xcms.txt
--- replaced obj /usr/share/X11/XErrorDB
--- replaced dir /usr/share/X11
--- replaced dir /usr/share
--- replaced obj /usr/lib64/pkgconfig/x11.pc
--- replaced obj /usr/lib64/pkgconfig/x11-xcb.pc
--- replaced dir /usr/lib64/pkgconfig
--- replaced obj /usr/lib64/libX11.so.6.3.0
--- replaced sym /usr/lib64/libX11.so.6
--- replaced sym /usr/lib64/libX11.so
--- replaced obj /usr/lib64/libX11-xcb.so.1.0.0
--- replaced sym /usr/lib64/libX11-xcb.so.1
--- replaced sym /usr/lib64/libX11-xcb.so
--- replaced dir /usr/lib64
--- replaced obj /usr/include/X11/extensions/XKBgeom.h
--- replaced dir /usr/include/X11/extensions
--- replaced obj /usr/include/X11/cursorfont.h
--- replaced obj /usr/include/X11/Xutil.h
--- replaced obj /usr/include/X11/Xresource.h
--- replaced obj /usr/include/X11/Xregion.h
--- replaced obj /usr/include/X11/Xlocale.h
--- replaced obj /usr/include/X11/Xlibint.h
--- replaced obj /usr/include/X11/XlibConf.h
--- replaced obj /usr/include/X11/Xlib.h
--- replaced obj /usr/include/X11/Xlib-xcb.h
--- replaced obj /usr/include/X11/Xcms.h
--- replaced obj /usr/include/X11/XKBlib.h
--- replaced obj /usr/include/X11/ImUtil.h
--- replaced dir /usr/include/X11
--- replaced dir /usr/include
--- replaced dir /usr
>>> Regenerating /etc/ld.so.cache...
