No package files given... Grabbing a set.
--- replaced obj /usr/lib64/pkgconfig/xft.pc
--- replaced dir /usr/lib64/pkgconfig
--- replaced obj /usr/lib64/libXft.so.2.3.3
--- replaced sym /usr/lib64/libXft.so.2
--- replaced sym /usr/lib64/libXft.so
--- replaced dir /usr/lib64
--- replaced obj /usr/include/X11/Xft/XftCompat.h
--- replaced obj /usr/include/X11/Xft/Xft.h
--- replaced dir /usr/include/X11/Xft
--- replaced dir /usr/include/X11
--- replaced dir /usr/include
--- replaced dir /usr
>>> Regenerating /etc/ld.so.cache...
