No package files given... Grabbing a set.
--- replaced obj /usr/share/gtk-doc/html/cairo/up.png
--- replaced obj /usr/share/gtk-doc/html/cairo/up-insensitive.png
--- replaced obj /usr/share/gtk-doc/html/cairo/style.css
--- replaced obj /usr/share/gtk-doc/html/cairo/right.png
--- replaced obj /usr/share/gtk-doc/html/cairo/right-insensitive.png
--- replaced obj /usr/share/gtk-doc/html/cairo/left.png
--- replaced obj /usr/share/gtk-doc/html/cairo/left-insensitive.png
--- replaced obj /usr/share/gtk-doc/html/cairo/language-bindings.html
--- replaced obj /usr/share/gtk-doc/html/cairo/index.html
--- replaced obj /usr/share/gtk-doc/html/cairo/index-all.html
--- replaced obj /usr/share/gtk-doc/html/cairo/index-1.8.html
--- replaced obj /usr/share/gtk-doc/html/cairo/index-1.6.html
--- replaced obj /usr/share/gtk-doc/html/cairo/index-1.4.html
--- replaced obj /usr/share/gtk-doc/html/cairo/index-1.2.html
--- replaced obj /usr/share/gtk-doc/html/cairo/index-1.16.html
--- replaced obj /usr/share/gtk-doc/html/cairo/index-1.14.html
--- replaced obj /usr/share/gtk-doc/html/cairo/index-1.12.html
--- replaced obj /usr/share/gtk-doc/html/cairo/index-1.10.html
--- replaced obj /usr/share/gtk-doc/html/cairo/home.png
--- replaced obj /usr/share/gtk-doc/html/cairo/cairo.devhelp2
--- replaced obj /usr/share/gtk-doc/html/cairo/cairo-text.html
--- replaced obj /usr/share/gtk-doc/html/cairo/cairo-surfaces.html
--- replaced obj /usr/share/gtk-doc/html/cairo/cairo-support.html
--- replaced obj /usr/share/gtk-doc/html/cairo/cairo-fonts.html
--- replaced obj /usr/share/gtk-doc/html/cairo/cairo-drawing.html
--- replaced obj /usr/share/gtk-doc/html/cairo/cairo-cairo-t.html
--- replaced obj /usr/share/gtk-doc/html/cairo/cairo-cairo-surface-t.html
--- replaced obj /usr/share/gtk-doc/html/cairo/cairo-cairo-scaled-font-t.html
--- replaced obj /usr/share/gtk-doc/html/cairo/cairo-cairo-pattern-t.html
--- replaced obj /usr/share/gtk-doc/html/cairo/cairo-cairo-matrix-t.html
--- replaced obj /usr/share/gtk-doc/html/cairo/cairo-cairo-font-options-t.html
--- replaced obj /usr/share/gtk-doc/html/cairo/cairo-cairo-font-face-t.html
--- replaced obj /usr/share/gtk-doc/html/cairo/cairo-cairo-device-t.html
--- replaced obj /usr/share/gtk-doc/html/cairo/cairo-XLib-XRender-Backend.html
--- replaced obj /usr/share/gtk-doc/html/cairo/cairo-XLib-Surfaces.html
--- replaced obj /usr/share/gtk-doc/html/cairo/cairo-XCB-Surfaces.html
--- replaced obj /usr/share/gtk-doc/html/cairo/cairo-Win32-Surfaces.html
--- replaced obj /usr/share/gtk-doc/html/cairo/cairo-Win32-Fonts.html
--- replaced obj /usr/share/gtk-doc/html/cairo/cairo-Version-Information.html
--- replaced obj /usr/share/gtk-doc/html/cairo/cairo-User-Fonts.html
--- replaced obj /usr/share/gtk-doc/html/cairo/cairo-Types.html
--- replaced obj /usr/share/gtk-doc/html/cairo/cairo-Transformations.html
--- replaced obj /usr/share/gtk-doc/html/cairo/cairo-Tags-and-Links.html
--- replaced obj /usr/share/gtk-doc/html/cairo/cairo-Script-Surfaces.html
--- replaced obj /usr/share/gtk-doc/html/cairo/cairo-SVG-Surfaces.html
--- replaced obj /usr/share/gtk-doc/html/cairo/cairo-Regions.html
--- replaced obj /usr/share/gtk-doc/html/cairo/cairo-Recording-Surfaces.html
--- replaced obj /usr/share/gtk-doc/html/cairo/cairo-Raster-Sources.html
--- replaced obj /usr/share/gtk-doc/html/cairo/cairo-Quartz-Surfaces.html
--- replaced obj /usr/share/gtk-doc/html/cairo/cairo-Quartz-(CGFont)-Fonts.html
--- replaced obj /usr/share/gtk-doc/html/cairo/cairo-PostScript-Surfaces.html
--- replaced obj /usr/share/gtk-doc/html/cairo/cairo-Paths.html
--- replaced obj /usr/share/gtk-doc/html/cairo/cairo-PNG-Support.html
--- replaced obj /usr/share/gtk-doc/html/cairo/cairo-PDF-Surfaces.html
--- replaced obj /usr/share/gtk-doc/html/cairo/cairo-Image-Surfaces.html
--- replaced obj /usr/share/gtk-doc/html/cairo/cairo-FreeType-Fonts.html
--- replaced obj /usr/share/gtk-doc/html/cairo/cairo-Error-handling.html
--- replaced obj /usr/share/gtk-doc/html/cairo/bindings-surfaces.html
--- replaced obj /usr/share/gtk-doc/html/cairo/bindings-streams.html
--- replaced obj /usr/share/gtk-doc/html/cairo/bindings-return-values.html
--- replaced obj /usr/share/gtk-doc/html/cairo/bindings-patterns.html
--- replaced obj /usr/share/gtk-doc/html/cairo/bindings-path.html
--- replaced obj /usr/share/gtk-doc/html/cairo/bindings-overloading.html
--- replaced obj /usr/share/gtk-doc/html/cairo/bindings-memory.html
--- replaced obj /usr/share/gtk-doc/html/cairo/bindings-fonts.html
--- replaced obj /usr/share/gtk-doc/html/cairo/bindings-errors.html
--- replaced dir /usr/share/gtk-doc/html/cairo
--- replaced dir /usr/share/gtk-doc/html
--- replaced dir /usr/share/gtk-doc
--- replaced dir /usr/share
--- replaced obj /usr/lib64/pkgconfig/cairo.pc
--- replaced obj /usr/lib64/pkgconfig/cairo-xlib.pc
--- replaced obj /usr/lib64/pkgconfig/cairo-xlib-xrender.pc
--- replaced obj /usr/lib64/pkgconfig/cairo-xcb.pc
--- replaced obj /usr/lib64/pkgconfig/cairo-xcb-shm.pc
--- replaced obj /usr/lib64/pkgconfig/cairo-tee.pc
--- replaced obj /usr/lib64/pkgconfig/cairo-svg.pc
--- replaced obj /usr/lib64/pkgconfig/cairo-script.pc
--- replaced obj /usr/lib64/pkgconfig/cairo-ps.pc
--- replaced obj /usr/lib64/pkgconfig/cairo-png.pc
--- replaced obj /usr/lib64/pkgconfig/cairo-pdf.pc
--- replaced obj /usr/lib64/pkgconfig/cairo-gobject.pc
--- replaced obj /usr/lib64/pkgconfig/cairo-glx.pc
--- replaced obj /usr/lib64/pkgconfig/cairo-gl.pc
--- replaced obj /usr/lib64/pkgconfig/cairo-ft.pc
--- replaced obj /usr/lib64/pkgconfig/cairo-fc.pc
--- replaced obj /usr/lib64/pkgconfig/cairo-egl.pc
--- replaced dir /usr/lib64/pkgconfig
--- replaced obj /usr/lib64/libcairo.so.2.11600.0
--- replaced sym /usr/lib64/libcairo.so.2
--- replaced sym /usr/lib64/libcairo.so
--- replaced obj /usr/lib64/libcairo-script-interpreter.so.2.11600.0
--- replaced sym /usr/lib64/libcairo-script-interpreter.so.2
--- replaced sym /usr/lib64/libcairo-script-interpreter.so
--- replaced obj /usr/lib64/libcairo-gobject.so.2.11600.0
--- replaced sym /usr/lib64/libcairo-gobject.so.2
--- replaced sym /usr/lib64/libcairo-gobject.so
--- replaced obj /usr/lib64/cairo/libcairo-trace.so
--- replaced obj /usr/lib64/cairo/cairo-sphinx.so
--- replaced obj /usr/lib64/cairo/cairo-fdr.so
--- replaced dir /usr/lib64/cairo
--- replaced dir /usr/lib64
--- replaced obj /usr/include/cairo/cairo.h
--- replaced obj /usr/include/cairo/cairo-xlib.h
--- replaced obj /usr/include/cairo/cairo-xlib-xrender.h
--- replaced obj /usr/include/cairo/cairo-xcb.h
--- replaced obj /usr/include/cairo/cairo-version.h
--- replaced obj /usr/include/cairo/cairo-tee.h
--- replaced obj /usr/include/cairo/cairo-svg.h
--- replaced obj /usr/include/cairo/cairo-script.h
--- replaced obj /usr/include/cairo/cairo-script-interpreter.h
--- replaced obj /usr/include/cairo/cairo-ps.h
--- replaced obj /usr/include/cairo/cairo-pdf.h
--- replaced obj /usr/include/cairo/cairo-gobject.h
--- replaced obj /usr/include/cairo/cairo-gl.h
--- replaced obj /usr/include/cairo/cairo-ft.h
--- replaced obj /usr/include/cairo/cairo-features.h
--- replaced obj /usr/include/cairo/cairo-deprecated.h
--- replaced dir /usr/include/cairo
--- replaced dir /usr/include
--- replaced obj /usr/bin/cairo-trace
--- replaced obj /usr/bin/cairo-sphinx
--- replaced dir /usr/bin
--- replaced dir /usr
>>> Regenerating /etc/ld.so.cache...
