>>> Extracting info
 * Package:    x11-misc/colord-1.3.5
 * Repository: gentoo
 * USE:        abi_x86_64 gusb policykit userland_GNU examples introspection amd64 udev systemd kernel_linux elibc_glibc
 * FEATURES:   network-sandbox preserve-libs sandbox userpriv usersandbox
 * FEATURES='assume-digests binpkg-docompress binpkg-dostrip binpkg-logs binpkg-multi-instance buildpkg cgroup compress-index config-protect-if-modified distlocks downgrade-backup fixlafiles ipc-sandbox merge-sync multilib-strict network-sandbox news nodoc parallel-fetch parallel-install pid-sandbox preserve-libs qa-unresolved-soname-deps sandbox sfperms strict strict-keepdir unknown-features-warn unmerge-backup unmerge-logs unmerge-orphans userfetch userpriv usersandbox usersync xattr'
 * CFLAGS='-march=native -O3 -fgraphite-identity -floop-nest-optimize -fdevirtualize-at-ltrans -fipa-pta -fno-semantic-interposition -flto=12 -fno-plt -fno-math-errno -fno-trapping-math -fuse-linker-plugin -pipe -g0 -falign-functions=32 -Wl,-O1 -Wl,--as-needed -Wl,--hash-style=gnu,-z,norelro,--as-needed'
 * CXXFLAGS='-march=native -O3 -fgraphite-identity -floop-nest-optimize -fdevirtualize-at-ltrans -fipa-pta -fno-semantic-interposition -flto=12 -fno-plt -fno-math-errno -fno-trapping-math -fuse-linker-plugin -pipe -g0 -falign-functions=32 -Wl,-O1 -Wl,--as-needed -Wl,--hash-style=gnu,-z,norelro,--as-needed'
 * FFLAGS='-march=native -O3 -fgraphite-identity -floop-nest-optimize -fdevirtualize-at-ltrans -fipa-pta -fno-semantic-interposition -flto=12 -fno-plt -fno-math-errno -fno-trapping-math -fuse-linker-plugin -pipe -g0 -falign-functions=32 -Wl,-O1 -Wl,--as-needed -Wl,--hash-style=gnu,-z,norelro,--as-needed'
 * FCFLAGS='-march=native -O3 -fgraphite-identity -floop-nest-optimize -fdevirtualize-at-ltrans -fipa-pta -fno-semantic-interposition -flto=12 -fno-plt -fno-math-errno -fno-trapping-math -fuse-linker-plugin -pipe -g0 -falign-functions=32 -Wl,-O1 -Wl,--as-needed -Wl,--hash-style=gnu,-z,norelro,--as-needed'
 * F77FLAGS='-march=native -O3 -fgraphite-identity -floop-nest-optimize -fdevirtualize-at-ltrans -fipa-pta -fno-semantic-interposition -flto=12 -fno-plt -fno-math-errno -fno-trapping-math -fuse-linker-plugin -pipe -g0 -falign-functions=32 -Wl,-O1 -Wl,--as-needed -Wl,--hash-style=gnu,-z,norelro,--as-needed'
 * LDFLAGS='-Wl,-O1 -Wl,--as-needed -Wl,--hash-style=gnu,-z,norelro,--as-needed -march=native -O3 -fgraphite-identity -floop-nest-optimize -fdevirtualize-at-ltrans -fipa-pta -fno-semantic-interposition -flto=12 -fno-plt -fno-math-errno -fno-trapping-math -fuse-linker-plugin -pipe -g0 -falign-functions=32'
 * MAKEOPTS='-j12 -l12'
 * gcc () 11.0.0 20200526 (experimental)
 * g++ () 11.0.0 20200526 (experimental)
 * GNU ld (Gentoo 2.34 p4) 2.34.0
 * Linux ryzen.gnum.org 5.4.36 #1 SMP Thu Apr 30 04:38:28 UTC 2020 x86_64 AMD Ryzen 5 3600 6-Core Processor AuthenticAMD GNU/Linux
x11-misc/colord: 46 seconds average for 6 merges
2020-05-20T02:21:26 >>> x11-misc/colord: 1 minute, 50 seconds
2020-05-21T13:25:53 >>> x11-misc/colord: 1 minute, 1 second
2020-05-24T17:04:08 >>> x11-misc/colord: 33 seconds
2020-05-24T17:21:17 >>> x11-misc/colord: 13 seconds
2020-05-26T04:43:54 >>> x11-misc/colord: 57 seconds
2020-05-26T14:36:35 >>> x11-misc/colord: 7 seconds
]0;emerge 02:12:52 465|647 colord 00:26 (root@ryzen.gnum.org)kemerge 02:12:52 465|647 colord 00:26 (root@ryzen.gnum.org)\>>> Extracting x11-misc/colord-1.3.5
 * checking 162 files for package collisions
>>> Merging x11-misc/colord-1.3.5 to /
 * removing unneeded *.la files
--- /etc/
--- /etc/dbus-1/
--- /etc/dbus-1/system.d/
>>> /etc/dbus-1/system.d/org.freedesktop.ColorManager.conf
--- /var/
--- /var/lib/
--- /var/lib/colord/
--- /var/lib/colord/icc/
>>> /var/lib/colord/icc/.keep_x11-misc_colord-0
--- /var/lib/color/
--- /var/lib/color/icc/
>>> /var/lib/color/icc/.keep_x11-misc_colord-0
--- /usr/
--- /usr/lib64/
>>> /usr/lib64/libcolord.so.2 -> libcolord.so.2.0.5
>>> /usr/lib64/libcolordprivate.so.2 -> libcolordprivate.so.2.0.5
--- /usr/lib64/pkgconfig/
>>> /usr/lib64/pkgconfig/colorhug.pc
>>> /usr/lib64/pkgconfig/colord.pc
--- /usr/lib64/colord-sensors/
>>> /usr/lib64/colord-sensors/libcolord_sensor_dummy.so
>>> /usr/lib64/colord-sensors/libcolord_sensor_colorhug.so
>>> /usr/lib64/colord-sensors/libhuey-private.so
>>> /usr/lib64/colord-sensors/libcolord_sensor_huey.so
>>> /usr/lib64/colord-sensors/libcolord_sensor_spark.so
>>> /usr/lib64/colord-sensors/libdtp94-private.so
>>> /usr/lib64/colord-sensors/libospark-private.so
>>> /usr/lib64/colord-sensors/libmunki-private.so
>>> /usr/lib64/colord-sensors/libcolord_sensor_dtp94.so
>>> /usr/lib64/libcolord.so -> libcolord.so.2.0.5
>>> /usr/lib64/libcolord.so.2.0.5
>>> /usr/lib64/libcolorhug.so.2 -> libcolorhug.so.2.0.5
--- /usr/lib64/girepository-1.0/
>>> /usr/lib64/girepository-1.0/ColorHug-1.0.typelib
>>> /usr/lib64/girepository-1.0/Colord-1.0.typelib
>>> /usr/lib64/libcolordprivate.so.2.0.5
>>> /usr/lib64/libcolordprivate.so -> libcolordprivate.so.2.0.5
>>> /usr/lib64/libcolordcompat.so
>>> /usr/lib64/libcolorhug.so.2.0.5
--- /usr/lib64/colord-plugins/
>>> /usr/lib64/colord-plugins/libcd_plugin_camera.so
>>> /usr/lib64/colord-plugins/libcd_plugin_scanner.so
>>> /usr/lib64/libcolorhug.so -> libcolorhug.so.2.0.5
--- /usr/share/
--- /usr/share/colord/
--- /usr/share/colord/ref/
>>> /usr/share/colord/ref/CIE-1986-daylight-SPD.cmf
>>> /usr/share/colord/ref/CIE-TCS.sp
--- /usr/share/colord/cmf/
>>> /usr/share/colord/cmf/CIE1931-2deg-XYZ.cmf
>>> /usr/share/colord/cmf/CIE1964-10deg-XYZ.cmf
--- /usr/share/colord/ti1/
>>> /usr/share/colord/ti1/printer-short.ti1
>>> /usr/share/colord/ti1/printer-normal.ti1
>>> /usr/share/colord/ti1/printer-long.ti1
>>> /usr/share/colord/ti1/display-short.ti1
>>> /usr/share/colord/ti1/display-normal.ti1
>>> /usr/share/colord/ti1/display-long.ti1
--- /usr/share/colord/illuminant/
>>> /usr/share/colord/illuminant/CIE-F9.sp
>>> /usr/share/colord/illuminant/CIE-F12.sp
>>> /usr/share/colord/illuminant/CIE-D93.sp
>>> /usr/share/colord/illuminant/CIE-F5.sp
>>> /usr/share/colord/illuminant/CIE-F1.sp
>>> /usr/share/colord/illuminant/CIE-B.sp
>>> /usr/share/colord/illuminant/CIE-F10.sp
>>> /usr/share/colord/illuminant/CIE-F4.sp
>>> /usr/share/colord/illuminant/CIE-F7.sp
>>> /usr/share/colord/illuminant/CIE-F8.sp
>>> /usr/share/colord/illuminant/CIE-A.sp
>>> /usr/share/colord/illuminant/CIE-F2.sp
>>> /usr/share/colord/illuminant/CIE-F6.sp
>>> /usr/share/colord/illuminant/CIE-C.sp
>>> /usr/share/colord/illuminant/CIE-F3.sp
>>> /usr/share/colord/illuminant/CIE-E.sp
>>> /usr/share/colord/illuminant/CIE-D65.sp
>>> /usr/share/colord/illuminant/CIE-D55.sp
>>> /usr/share/colord/illuminant/CIE-D50.sp
>>> /usr/share/colord/illuminant/CIE-F11.sp
--- /usr/share/colord/icons/
>>> /usr/share/colord/icons/hcfr-attach.svg
>>> /usr/share/colord/icons/spyder5-attach.svg
>>> /usr/share/colord/icons/color-munki-photo-ambient.svg
>>> /usr/share/colord/icons/color-munki-photo-screen.svg
>>> /usr/share/colord/icons/colorhug2-attach.svg
>>> /usr/share/colord/icons/i1-display3-attach.svg
>>> /usr/share/colord/icons/color-munki-photo-attach.svg
>>> /usr/share/colord/icons/color-munki-photo-projector.svg
>>> /usr/share/colord/icons/i1-pro-attach.svg
>>> /usr/share/colord/icons/color-munki-smile-attach.svg
>>> /usr/share/colord/icons/huey-attach.svg
>>> /usr/share/colord/icons/color-munki-photo-calibrate.svg
>>> /usr/share/colord/icons/spyder2-attach.svg
>>> /usr/share/colord/icons/dtp94-attach.svg
>>> /usr/share/colord/icons/colorhug-attach.svg
>>> /usr/share/colord/icons/spyder4-attach.svg
>>> /usr/share/colord/icons/i1-monitor-attach.svg
>>> /usr/share/colord/icons/spyder3-attach.svg
--- /usr/share/glib-2.0/
--- /usr/share/glib-2.0/schemas/
>>> /usr/share/glib-2.0/schemas/org.freedesktop.ColorHelper.gschema.xml
--- /usr/share/dbus-1/
--- /usr/share/dbus-1/services/
>>> /usr/share/dbus-1/services/org.freedesktop.ColorHelper.service
--- /usr/share/dbus-1/interfaces/
>>> /usr/share/dbus-1/interfaces/org.freedesktop.ColorManager.Device.xml
>>> /usr/share/dbus-1/interfaces/org.freedesktop.ColorManager.Profile.xml
>>> /usr/share/dbus-1/interfaces/org.freedesktop.ColorManager.xml
>>> /usr/share/dbus-1/interfaces/org.freedesktop.ColorManager.Sensor.xml
>>> /usr/share/dbus-1/interfaces/org.freedesktop.ColorHelper.xml
--- /usr/share/dbus-1/system-services/
>>> /usr/share/dbus-1/system-services/org.freedesktop.ColorManager.service
--- /usr/share/color/
--- /usr/share/color/icc/
--- /usr/share/color/icc/colord/
>>> /usr/share/color/icc/colord/Gamma5000K.icc
>>> /usr/share/color/icc/colord/ECI-RGBv1.icc
>>> /usr/share/color/icc/colord/ProPhotoRGB.icc
>>> /usr/share/color/icc/colord/SMPTE-C-RGB.icc
>>> /usr/share/color/icc/colord/Gamma5500K.icc
>>> /usr/share/color/icc/colord/CIE-RGB.icc
>>> /usr/share/color/icc/colord/sRGB.icc
>>> /usr/share/color/icc/colord/PAL-RGB.icc
>>> /usr/share/color/icc/colord/NTSC-RGB.icc
>>> /usr/share/color/icc/colord/BestRGB.icc
>>> /usr/share/color/icc/colord/ECI-RGBv2.icc
>>> /usr/share/color/icc/colord/BruceRGB.icc
>>> /usr/share/color/icc/colord/x11-colors.icc
>>> /usr/share/color/icc/colord/SwappedRedAndGreen.icc
>>> /usr/share/color/icc/colord/DonRGB4.icc
>>> /usr/share/color/icc/colord/EktaSpacePS5.icc
>>> /usr/share/color/icc/colord/Bluish.icc
>>> /usr/share/color/icc/colord/Gamma6500K.icc
>>> /usr/share/color/icc/colord/ColorMatchRGB.icc
>>> /usr/share/color/icc/colord/AppleRGB.icc
>>> /usr/share/color/icc/colord/Crayons.icc
>>> /usr/share/color/icc/colord/AdobeRGB1998.icc
>>> /usr/share/color/icc/colord/WideGamutRGB.icc
>>> /usr/share/color/icc/colord/BetaRGB.icc
--- /usr/share/gir-1.0/
>>> /usr/share/gir-1.0/ColorHug-1.0.gir
>>> /usr/share/gir-1.0/Colord-1.0.gir
--- /usr/share/bash-completion/
--- /usr/share/bash-completion/completions/
>>> /usr/share/bash-completion/completions/colormgr
--- /usr/share/polkit-1/
--- /usr/share/polkit-1/actions/
>>> /usr/share/polkit-1/actions/org.freedesktop.color.policy
--- /usr/include/
--- /usr/include/colord-1/
--- /usr/include/colord-1/colord/
>>> /usr/include/colord-1/colord/cd-edid.h
>>> /usr/include/colord-1/colord/cd-profile-sync.h
>>> /usr/include/colord-1/colord/cd-version.h
>>> /usr/include/colord-1/colord/cd-enum.h
>>> /usr/include/colord-1/colord/cd-quirk.h
>>> /usr/include/colord-1/colord/cd-profile.h
>>> /usr/include/colord-1/colord/cd-spectrum.h
>>> /usr/include/colord-1/colord/cd-client-sync.h
>>> /usr/include/colord-1/colord/cd-interp.h
>>> /usr/include/colord-1/colord/cd-icc.h
>>> /usr/include/colord-1/colord/cd-device.h
>>> /usr/include/colord-1/colord/cd-interp-linear.h
>>> /usr/include/colord-1/colord/cd-compat-edid.h
>>> /usr/include/colord-1/colord/cd-icc-utils.h
>>> /usr/include/colord-1/colord/cd-color.h
>>> /usr/include/colord-1/colord/cd-math.h
>>> /usr/include/colord-1/colord/cd-device-sync.h
>>> /usr/include/colord-1/colord/cd-buffer.h
>>> /usr/include/colord-1/colord/cd-client.h
>>> /usr/include/colord-1/colord/cd-transform.h
>>> /usr/include/colord-1/colord/cd-it8.h
>>> /usr/include/colord-1/colord/cd-dom.h
>>> /usr/include/colord-1/colord/cd-interp-akima.h
>>> /usr/include/colord-1/colord/cd-sensor-sync.h
>>> /usr/include/colord-1/colord/cd-it8-utils.h
>>> /usr/include/colord-1/colord/cd-sensor.h
>>> /usr/include/colord-1/colord/cd-icc-store.h
>>> /usr/include/colord-1/colord-private.h
--- /usr/include/colord-1/colorhug/
>>> /usr/include/colord-1/colorhug/ch-hash.h
>>> /usr/include/colord-1/colorhug/ch-inhx32.h
>>> /usr/include/colord-1/colorhug/colorhug.h
>>> /usr/include/colord-1/colorhug/ch-version.h
>>> /usr/include/colord-1/colorhug/ch-common.h
>>> /usr/include/colord-1/colorhug/ch-device-queue.h
>>> /usr/include/colord-1/colorhug/ch-math.h
>>> /usr/include/colord-1/colorhug/ch-device.h
--- /usr/include/colord-1/colord-session/
>>> /usr/include/colord-1/colord-session/cd-session.h
>>> /usr/include/colord-1/colord.h
--- /usr/bin/
>>> /usr/bin/cd-create-profile
>>> /usr/bin/colormgr
>>> /usr/bin/cd-fix-profile
>>> /usr/bin/cd-iccdump
>>> /usr/bin/cd-it8
--- /usr/libexec/
>>> /usr/libexec/colord
>>> /usr/libexec/colord-session
--- /usr/lib/
--- /usr/lib/tmpfiles.d/
>>> /usr/lib/tmpfiles.d/colord.conf
--- /usr/lib/systemd/
--- /usr/lib/systemd/user/
>>> /usr/lib/systemd/user/colord-session.service
--- /lib/
--- /lib/udev/
--- /lib/udev/rules.d/
>>> /lib/udev/rules.d/95-cd-devices.rules
>>> /lib/udev/rules.d/69-cd-sensors.rules
--- /lib/systemd/
--- /lib/systemd/system/
>>> /lib/systemd/system/colord.service
>>> Safely unmerging already-installed instance...
>>> Original instance of package unmerged safely.
 * Updating GSettings schemas ...
 [ ok ]
>>> x11-misc/colord-1.3.5 merged.
>>> Regenerating /etc/ld.so.cache...
