 * Package:    x11-misc/util-macros-1.19.2-r1
 * Repository: gentoo
 * Maintainer: x11@gentoo.org
 * USE:        abi_x86_64 amd64 elibc_glibc kernel_linux userland_GNU
 * FEATURES:   ccache network-sandbox preserve-libs sandbox userpriv usersandbox
 * FEATURES='assume-digests binpkg-docompress binpkg-dostrip binpkg-logs binpkg-multi-instance buildpkg ccache cgroup collision-protect compress-index config-protect-if-modified distlocks downgrade-backup fixlafiles ipc-sandbox merge-sync multilib-strict network-sandbox news nodoc parallel-fetch parallel-install pid-sandbox preserve-libs protect-owned qa-unresolved-soname-deps sandbox sfperms strict strict-keepdir unknown-features-warn unmerge-backup unmerge-logs unmerge-orphans userfetch userpriv usersandbox usersync xattr'
 * CFLAGS='-march=native -O3 -fgraphite-identity -floop-nest-optimize -fdevirtualize-at-ltrans -fipa-pta -fno-semantic-interposition -flto=12 -fno-plt -fno-math-errno -fno-trapping-math -fuse-linker-plugin -pipe -g0 -Wl,-O1 -Wl,--as-needed -Wl,--hash-style=gnu,-z,norelro,--as-needed'
 * CXXFLAGS='-march=native -O3 -fgraphite-identity -floop-nest-optimize -fdevirtualize-at-ltrans -fipa-pta -fno-semantic-interposition -flto=12 -fno-plt -fno-math-errno -fno-trapping-math -fuse-linker-plugin -pipe -g0 -Wl,-O1 -Wl,--as-needed -Wl,--hash-style=gnu,-z,norelro,--as-needed'
 * FFLAGS='-march=native -O3 -fgraphite-identity -floop-nest-optimize -fdevirtualize-at-ltrans -fipa-pta -fno-semantic-interposition -flto=12 -fno-plt -fno-math-errno -fno-trapping-math -fuse-linker-plugin -pipe -g0 -Wl,-O1 -Wl,--as-needed -Wl,--hash-style=gnu,-z,norelro,--as-needed'
 * FCFLAGS='-march=native -O3 -fgraphite-identity -floop-nest-optimize -fdevirtualize-at-ltrans -fipa-pta -fno-semantic-interposition -flto=12 -fno-plt -fno-math-errno -fno-trapping-math -fuse-linker-plugin -pipe -g0 -Wl,-O1 -Wl,--as-needed -Wl,--hash-style=gnu,-z,norelro,--as-needed'
 * F77FLAGS='-march=native -O3 -fgraphite-identity -floop-nest-optimize -fdevirtualize-at-ltrans -fipa-pta -fno-semantic-interposition -flto=12 -fno-plt -fno-math-errno -fno-trapping-math -fuse-linker-plugin -pipe -g0 -Wl,-O1 -Wl,--as-needed -Wl,--hash-style=gnu,-z,norelro,--as-needed'
 * LDFLAGS='-Wl,-O1 -Wl,--as-needed -Wl,--hash-style=gnu,-z,norelro,--as-needed -march=native -O3 -fgraphite-identity -floop-nest-optimize -fdevirtualize-at-ltrans -fipa-pta -fno-semantic-interposition -flto=12 -fno-plt -fno-math-errno -fno-trapping-math -fuse-linker-plugin -pipe -g0'
 * MAKEOPTS='-j12 -l12'
 * gcc (Gentoo 11.0.0_pre9999 p1, commit 584d52b088f9fcf78704b504c3f1f07e17c1cded) 11.0.0 20200523 (experimental)
 * g++ (Gentoo 11.0.0_pre9999 p1, commit 584d52b088f9fcf78704b504c3f1f07e17c1cded) 11.0.0 20200523 (experimental)
 * GNU ld (Gentoo 2.34 p4) 2.34.0
 * Linux ryzen.gnum.org 5.4.36 #1 SMP Thu Apr 30 04:38:28 UTC 2020 x86_64 AMD Ryzen 5 3600 6-Core Processor AuthenticAMD GNU/Linux
x11-misc/util-macros: 14 seconds average for 7 merges
2020-05-15T03:28:50 >>> x11-misc/util-macros: 7 seconds
2020-05-20T00:56:39 >>> x11-misc/util-macros: 14 seconds
2020-05-21T05:54:47 >>> x11-misc/util-macros: 4 seconds
2020-05-22T01:56:53 >>> x11-misc/util-macros: 18 seconds
2020-05-22T03:08:29 >>> x11-misc/util-macros: 20 seconds
2020-05-22T12:27:42 >>> x11-misc/util-macros: 18 seconds
2020-05-23T03:29:51 >>> x11-misc/util-macros: 20 seconds
]0;emerge 23:23:25 1590355404:  === Unmerging... (dev-util/gperf-3.1) util-macros 00:19 (root@ryzen.gnum.org)>>> Unpacking source...
>>> Unpacking util-macros-1.19.2.tar.bz2 to /tmp/portage/x11-misc/util-macros-1.19.2-r1/work
>>> Source unpacked in /tmp/portage/x11-misc/util-macros-1.19.2-r1/work
>>> Preparing source in /tmp/portage/x11-misc/util-macros-1.19.2-r1/work/util-macros-1.19.2 ...
>>> Source prepared.
>>> Configuring source in /tmp/portage/x11-misc/util-macros-1.19.2-r1/work/util-macros-1.19.2 ...
./configure --prefix=/usr --build=x86_64-pc-linux-gnu --host=x86_64-pc-linux-gnu --mandir=/usr/share/man --infodir=/usr/share/info --datadir=/usr/share --sysconfdir=/etc --localstatedir=/var/lib --disable-silent-rules --docdir=/usr/share/doc/util-macros-1.19.2-r1 --htmldir=/usr/share/doc/util-macros-1.19.2-r1/html --libdir=/usr/lib64
checking for a BSD-compatible install... /tmp/portage/._portage_reinstall_.6ppk808x/bin/ebuild-helpers/xattr/install -c
checking whether build environment is sane... yes
checking for a thread-safe mkdir -p... /bin/mkdir -p
checking for gawk... gawk
checking whether make sets $(MAKE)... yes
checking whether make supports nested variables... yes
checking that generated files are newer than configure... done
configure: creating ./config.status
config.status: creating xorg-macros.pc
config.status: creating Makefile
config.status: creating xorg-macros.m4
>>> Source configured.
>>> Compiling source in /tmp/portage/x11-misc/util-macros-1.19.2-r1/work/util-macros-1.19.2 ...
>>> Source compiled.
>>> Test phase [not enabled]: x11-misc/util-macros-1.19.2-r1

>>> Install x11-misc/util-macros-1.19.2-r1 into /tmp/portage/x11-misc/util-macros-1.19.2-r1/image
make -j12 -l12 DESTDIR=/tmp/portage/x11-misc/util-macros-1.19.2-r1/image install 
make[1]: Entering directory '/tmp/portage/x11-misc/util-macros-1.19.2-r1/work/util-macros-1.19.2'
make[1]: Nothing to be done for 'install-exec-am'.
 /bin/mkdir -p '/tmp/portage/x11-misc/util-macros-1.19.2-r1/image/usr/share/aclocal'
 /bin/mkdir -p '/tmp/portage/x11-misc/util-macros-1.19.2-r1/image/usr/share/util-macros'
 /bin/mkdir -p '/tmp/portage/x11-misc/util-macros-1.19.2-r1/image/usr/share/pkgconfig'
 /tmp/portage/._portage_reinstall_.6ppk808x/bin/ebuild-helpers/xattr/install -c -m 644 xorg-macros.m4 '/tmp/portage/x11-misc/util-macros-1.19.2-r1/image/usr/share/aclocal'
 /tmp/portage/._portage_reinstall_.6ppk808x/bin/ebuild-helpers/xattr/install -c -m 644 INSTALL '/tmp/portage/x11-misc/util-macros-1.19.2-r1/image/usr/share/util-macros'
 /tmp/portage/._portage_reinstall_.6ppk808x/bin/ebuild-helpers/xattr/install -c -m 644 xorg-macros.pc '/tmp/portage/x11-misc/util-macros-1.19.2-r1/image/usr/share/pkgconfig'
make  install-data-hook
make[2]: Entering directory '/tmp/portage/x11-misc/util-macros-1.19.2-r1/work/util-macros-1.19.2'
rm -f /tmp/portage/x11-misc/util-macros-1.19.2-r1/image/usr/share/aclocal/xorgversion.m4
make[2]: Leaving directory '/tmp/portage/x11-misc/util-macros-1.19.2-r1/work/util-macros-1.19.2'
make[1]: Leaving directory '/tmp/portage/x11-misc/util-macros-1.19.2-r1/work/util-macros-1.19.2'
>>> Completed installing x11-misc/util-macros-1.19.2-r1 into /tmp/portage/x11-misc/util-macros-1.19.2-r1/image

 * Final size of build directory: 516 KiB
 * Final size of installed tree:  208 KiB

./
./usr/
./usr/share/
./usr/share/util-macros/
./usr/share/util-macros/INSTALL
./usr/share/aclocal/
./usr/share/aclocal/xorg-macros.m4
./usr/share/pkgconfig/
./usr/share/pkgconfig/xorg-macros.pc
./usr/share/doc/
./usr/share/doc/util-macros-1.19.2-r1/
./usr/share/doc/util-macros-1.19.2-r1/README.bz2
./usr/share/doc/util-macros-1.19.2-r1/ChangeLog.bz2
>>> Done.
 * checking 3 files for package collisions
>>> Merging x11-misc/util-macros-1.19.2-r1 to /
 * removing unneeded *.la files
--- /usr/
--- /usr/share/
--- /usr/share/pkgconfig/
>>> /usr/share/pkgconfig/xorg-macros.pc
--- /usr/share/aclocal/
>>> /usr/share/aclocal/xorg-macros.m4
--- /usr/share/util-macros/
>>> /usr/share/util-macros/INSTALL
>>> Safely unmerging already-installed instance...
>>> Original instance of package unmerged safely.
>>> x11-misc/util-macros-1.19.2-r1 merged.
