No package files given... Grabbing a set.
--- replaced obj /usr/bin/xdg-user-dirs-gtk-update
--- replaced dir /usr/bin
--- replaced dir /usr
--- replaced obj /etc/xdg/autostart/user-dirs-update-gtk.desktop
--- replaced dir /etc/xdg/autostart
--- replaced dir /etc/xdg
--- replaced dir /etc
>>> Regenerating /etc/ld.so.cache...
