 * Package:    x11-base/xorg-proto-2020.1
 * Repository: gentoo
 * Maintainer: x11@gentoo.org
 * USE:        abi_x86_64 amd64 elibc_glibc kernel_linux userland_GNU
 * FEATURES:   network-sandbox preserve-libs sandbox userpriv usersandbox
 * FEATURES='assume-digests binpkg-docompress binpkg-dostrip binpkg-logs binpkg-multi-instance buildpkg cgroup compress-index config-protect-if-modified distlocks downgrade-backup fixlafiles ipc-sandbox merge-sync multilib-strict network-sandbox news nodoc parallel-fetch parallel-install pid-sandbox preserve-libs qa-unresolved-soname-deps sandbox sfperms strict strict-keepdir unknown-features-warn unmerge-backup unmerge-logs unmerge-orphans userfetch userpriv usersandbox usersync xattr'
 * CFLAGS='-march=native -O3 -fgraphite-identity -floop-nest-optimize -fdevirtualize-at-ltrans -fipa-pta -fno-semantic-interposition -flto=12 -fno-plt -fno-math-errno -fno-trapping-math -fuse-linker-plugin -pipe -g0 -falign-functions=32 -Wl,-O1 -Wl,--as-needed -Wl,--hash-style=gnu,-z,norelro,--as-needed'
 * CXXFLAGS='-march=native -O3 -fgraphite-identity -floop-nest-optimize -fdevirtualize-at-ltrans -fipa-pta -fno-semantic-interposition -flto=12 -fno-plt -fno-math-errno -fno-trapping-math -fuse-linker-plugin -pipe -g0 -falign-functions=32 -Wl,-O1 -Wl,--as-needed -Wl,--hash-style=gnu,-z,norelro,--as-needed'
 * FFLAGS='-march=native -O3 -fgraphite-identity -floop-nest-optimize -fdevirtualize-at-ltrans -fipa-pta -fno-semantic-interposition -flto=12 -fno-plt -fno-math-errno -fno-trapping-math -fuse-linker-plugin -pipe -g0 -falign-functions=32 -Wl,-O1 -Wl,--as-needed -Wl,--hash-style=gnu,-z,norelro,--as-needed'
 * FCFLAGS='-march=native -O3 -fgraphite-identity -floop-nest-optimize -fdevirtualize-at-ltrans -fipa-pta -fno-semantic-interposition -flto=12 -fno-plt -fno-math-errno -fno-trapping-math -fuse-linker-plugin -pipe -g0 -falign-functions=32 -Wl,-O1 -Wl,--as-needed -Wl,--hash-style=gnu,-z,norelro,--as-needed'
 * F77FLAGS='-march=native -O3 -fgraphite-identity -floop-nest-optimize -fdevirtualize-at-ltrans -fipa-pta -fno-semantic-interposition -flto=12 -fno-plt -fno-math-errno -fno-trapping-math -fuse-linker-plugin -pipe -g0 -falign-functions=32 -Wl,-O1 -Wl,--as-needed -Wl,--hash-style=gnu,-z,norelro,--as-needed'
 * LDFLAGS='-Wl,-O1 -Wl,--as-needed -Wl,--hash-style=gnu,-z,norelro,--as-needed -march=native -O3 -fgraphite-identity -floop-nest-optimize -fdevirtualize-at-ltrans -fipa-pta -fno-semantic-interposition -flto=12 -fno-plt -fno-math-errno -fno-trapping-math -fuse-linker-plugin -pipe -g0 -falign-functions=32'
 * MAKEOPTS='-j12 -l12'
 * gcc (Gentoo 11.0.0_pre9999 p1, commit 584d52b088f9fcf78704b504c3f1f07e17c1cded) 11.0.0 20200523 (experimental)
 * g++ (Gentoo 11.0.0_pre9999 p1, commit 584d52b088f9fcf78704b504c3f1f07e17c1cded) 11.0.0 20200523 (experimental)
 * GNU ld (Gentoo 2.34 p4) 2.34.0
 * Linux ryzen.gnum.org 5.4.36 #1 SMP Thu Apr 30 04:38:28 UTC 2020 x86_64 AMD Ryzen 5 3600 6-Core Processor AuthenticAMD GNU/Linux
x11-base/xorg-proto: 11 seconds average for 2 merges
2020-05-15T07:01:32 >>> x11-base/xorg-proto: 8 seconds
2020-05-20T01:03:18 >>> x11-base/xorg-proto: 15 seconds
]0;emerge 19:10:28 17|690 xorg-proto 00:12 (root@ryzen.gnum.org)kemerge 19:10:28 17|690 xorg-proto 00:12 (root@ryzen.gnum.org)\>>> Unpacking source...
>>> Unpacking xorgproto-2020.1.tar.gz to /tmp/portage/x11-base/xorg-proto-2020.1/work
>>> Source unpacked in /tmp/portage/x11-base/xorg-proto-2020.1/work
>>> Preparing source in /tmp/portage/x11-base/xorg-proto-2020.1/work/xorgproto-2020.1 ...
>>> Source prepared.
>>> Configuring source in /tmp/portage/x11-base/xorg-proto-2020.1/work/xorgproto-2020.1 ...
meson setup --buildtype plain --libdir lib64 --localstatedir /var/lib --prefix /usr --sysconfdir /etc --wrap-mode nodownload --build.pkg-config-path /usr/share/pkgconfig --pkg-config-path /usr/share/pkgconfig --native-file /tmp/portage/x11-base/xorg-proto-2020.1/temp/meson.x86_64-pc-linux-gnu.amd64.ini /tmp/portage/x11-base/xorg-proto-2020.1/work/xorgproto-2020.1 /tmp/portage/x11-base/xorg-proto-2020.1/work/xorg-proto-2020.1-build
[1mThe Meson build system[0m
Version: 0.54.2
Source dir: [1m/tmp/portage/x11-base/xorg-proto-2020.1/work/xorgproto-2020.1[0m
Build dir: [1m/tmp/portage/x11-base/xorg-proto-2020.1/work/xorg-proto-2020.1-build[0m
Build type: [1mnative build[0m
Project name: [1mxorgproto[0m
Project version: [1m2020.1[0m
C compiler for the host machine: [1mx86_64-pc-linux-gnu-gcc[0m (gcc 11.0.0 "x86_64-pc-linux-gnu-gcc (Gentoo 11.0.0_pre9999 p1, commit 584d52b088f9fcf78704b504c3f1f07e17c1cded) 11.0.0 20200523 (experimental)")
C linker for the host machine: [1mx86_64-pc-linux-gnu-gcc[0m ld.bfd 2.34
Host machine cpu family: [1mx86_64[0m
Host machine cpu: [1mx86_64[0m
Program [1msed[0m found: [1;32mYES[0m (/bin/sed)
Has header "[1msys/param.h[0m" : [1;32mYES[0m 
Has header "[1msys/types.h[0m" : [1;32mYES[0m 
Has header "[1msys/time.h[0m" : [1;32mYES[0m 
Has header "[1msys/select.h[0m" : [1;32mYES[0m 
Checking whether type "[1mfd_set[0m" has member "[1mfds_bits[0m" : [1;31mNO[0m 
Checking whether type "[1mfd_set[0m" has member "[1m__fds_bits[0m" : [1;32mYES[0m 
Build targets in project: [1m1[0m

Found ninja-1.10.0 at /usr/bin/ninja
>>> Source configured.
>>> Compiling source in /tmp/portage/x11-base/xorg-proto-2020.1/work/xorgproto-2020.1 ...
ninja -v -j12 -l12 -C /tmp/portage/x11-base/xorg-proto-2020.1/work/xorg-proto-2020.1-build
ninja: Entering directory `/tmp/portage/x11-base/xorg-proto-2020.1/work/xorg-proto-2020.1-build'
[1/1] /usr/lib/python-exec/python3.8/meson --internal exe --capture include/X11/Xpoll.h -- /bin/sed s/@USE_FDS_BITS@/__fds_bits/g ../xorgproto-2020.1/include/X11/Xpoll.h.in
>>> Source compiled.
>>> Test phase [not enabled]: x11-base/xorg-proto-2020.1

>>> Install x11-base/xorg-proto-2020.1 into /tmp/portage/x11-base/xorg-proto-2020.1/image
ninja -v -j12 -l12 -C /tmp/portage/x11-base/xorg-proto-2020.1/work/xorg-proto-2020.1-build install
ninja: Entering directory `/tmp/portage/x11-base/xorg-proto-2020.1/work/xorg-proto-2020.1-build'
[0/1] /usr/lib/python-exec/python3.8/meson install --no-rebuild
Installing include/X11/Xpoll.h to /tmp/portage/x11-base/xorg-proto-2020.1/image/usr/include/X11
Installing /tmp/portage/x11-base/xorg-proto-2020.1/work/xorgproto-2020.1/include/GL/glxint.h to /tmp/portage/x11-base/xorg-proto-2020.1/image/usr/include/GL
Installing /tmp/portage/x11-base/xorg-proto-2020.1/work/xorgproto-2020.1/include/GL/glxmd.h to /tmp/portage/x11-base/xorg-proto-2020.1/image/usr/include/GL
Installing /tmp/portage/x11-base/xorg-proto-2020.1/work/xorgproto-2020.1/include/GL/glxproto.h to /tmp/portage/x11-base/xorg-proto-2020.1/image/usr/include/GL
Installing /tmp/portage/x11-base/xorg-proto-2020.1/work/xorgproto-2020.1/include/GL/glxtokens.h to /tmp/portage/x11-base/xorg-proto-2020.1/image/usr/include/GL
Installing /tmp/portage/x11-base/xorg-proto-2020.1/work/xorgproto-2020.1/include/GL/internal/glcore.h to /tmp/portage/x11-base/xorg-proto-2020.1/image/usr/include/GL/internal
Installing /tmp/portage/x11-base/xorg-proto-2020.1/work/xorgproto-2020.1/include/X11/ap_keysym.h to /tmp/portage/x11-base/xorg-proto-2020.1/image/usr/include/X11
Installing /tmp/portage/x11-base/xorg-proto-2020.1/work/xorgproto-2020.1/include/X11/DECkeysym.h to /tmp/portage/x11-base/xorg-proto-2020.1/image/usr/include/X11
Installing /tmp/portage/x11-base/xorg-proto-2020.1/work/xorgproto-2020.1/include/X11/HPkeysym.h to /tmp/portage/x11-base/xorg-proto-2020.1/image/usr/include/X11
Installing /tmp/portage/x11-base/xorg-proto-2020.1/work/xorgproto-2020.1/include/X11/keysymdef.h to /tmp/portage/x11-base/xorg-proto-2020.1/image/usr/include/X11
Installing /tmp/portage/x11-base/xorg-proto-2020.1/work/xorgproto-2020.1/include/X11/keysym.h to /tmp/portage/x11-base/xorg-proto-2020.1/image/usr/include/X11
Installing /tmp/portage/x11-base/xorg-proto-2020.1/work/xorgproto-2020.1/include/X11/Sunkeysym.h to /tmp/portage/x11-base/xorg-proto-2020.1/image/usr/include/X11
Installing /tmp/portage/x11-base/xorg-proto-2020.1/work/xorgproto-2020.1/include/X11/Xalloca.h to /tmp/portage/x11-base/xorg-proto-2020.1/image/usr/include/X11
Installing /tmp/portage/x11-base/xorg-proto-2020.1/work/xorgproto-2020.1/include/X11/Xarch.h to /tmp/portage/x11-base/xorg-proto-2020.1/image/usr/include/X11
Installing /tmp/portage/x11-base/xorg-proto-2020.1/work/xorgproto-2020.1/include/X11/Xatom.h to /tmp/portage/x11-base/xorg-proto-2020.1/image/usr/include/X11
Installing /tmp/portage/x11-base/xorg-proto-2020.1/work/xorgproto-2020.1/include/X11/Xdefs.h to /tmp/portage/x11-base/xorg-proto-2020.1/image/usr/include/X11
Installing /tmp/portage/x11-base/xorg-proto-2020.1/work/xorgproto-2020.1/include/X11/XF86keysym.h to /tmp/portage/x11-base/xorg-proto-2020.1/image/usr/include/X11
Installing /tmp/portage/x11-base/xorg-proto-2020.1/work/xorgproto-2020.1/include/X11/Xfuncs.h to /tmp/portage/x11-base/xorg-proto-2020.1/image/usr/include/X11
Installing /tmp/portage/x11-base/xorg-proto-2020.1/work/xorgproto-2020.1/include/X11/Xfuncproto.h to /tmp/portage/x11-base/xorg-proto-2020.1/image/usr/include/X11
Installing /tmp/portage/x11-base/xorg-proto-2020.1/work/xorgproto-2020.1/include/X11/X.h to /tmp/portage/x11-base/xorg-proto-2020.1/image/usr/include/X11
Installing /tmp/portage/x11-base/xorg-proto-2020.1/work/xorgproto-2020.1/include/X11/Xmd.h to /tmp/portage/x11-base/xorg-proto-2020.1/image/usr/include/X11
Installing /tmp/portage/x11-base/xorg-proto-2020.1/work/xorgproto-2020.1/include/X11/Xosdefs.h to /tmp/portage/x11-base/xorg-proto-2020.1/image/usr/include/X11
Installing /tmp/portage/x11-base/xorg-proto-2020.1/work/xorgproto-2020.1/include/X11/Xos.h to /tmp/portage/x11-base/xorg-proto-2020.1/image/usr/include/X11
Installing /tmp/portage/x11-base/xorg-proto-2020.1/work/xorgproto-2020.1/include/X11/Xos_r.h to /tmp/portage/x11-base/xorg-proto-2020.1/image/usr/include/X11
Installing /tmp/portage/x11-base/xorg-proto-2020.1/work/xorgproto-2020.1/include/X11/Xproto.h to /tmp/portage/x11-base/xorg-proto-2020.1/image/usr/include/X11
Installing /tmp/portage/x11-base/xorg-proto-2020.1/work/xorgproto-2020.1/include/X11/Xprotostr.h to /tmp/portage/x11-base/xorg-proto-2020.1/image/usr/include/X11
Installing /tmp/portage/x11-base/xorg-proto-2020.1/work/xorgproto-2020.1/include/X11/Xthreads.h to /tmp/portage/x11-base/xorg-proto-2020.1/image/usr/include/X11
Installing /tmp/portage/x11-base/xorg-proto-2020.1/work/xorgproto-2020.1/include/X11/Xw32defs.h to /tmp/portage/x11-base/xorg-proto-2020.1/image/usr/include/X11
Installing /tmp/portage/x11-base/xorg-proto-2020.1/work/xorgproto-2020.1/include/X11/XWDFile.h to /tmp/portage/x11-base/xorg-proto-2020.1/image/usr/include/X11
Installing /tmp/portage/x11-base/xorg-proto-2020.1/work/xorgproto-2020.1/include/X11/Xwindows.h to /tmp/portage/x11-base/xorg-proto-2020.1/image/usr/include/X11
Installing /tmp/portage/x11-base/xorg-proto-2020.1/work/xorgproto-2020.1/include/X11/Xwinsock.h to /tmp/portage/x11-base/xorg-proto-2020.1/image/usr/include/X11
Installing /tmp/portage/x11-base/xorg-proto-2020.1/work/xorgproto-2020.1/include/X11/dri/xf86dri.h to /tmp/portage/x11-base/xorg-proto-2020.1/image/usr/include/X11/dri
Installing /tmp/portage/x11-base/xorg-proto-2020.1/work/xorgproto-2020.1/include/X11/dri/xf86driproto.h to /tmp/portage/x11-base/xorg-proto-2020.1/image/usr/include/X11/dri
Installing /tmp/portage/x11-base/xorg-proto-2020.1/work/xorgproto-2020.1/include/X11/dri/xf86dristr.h to /tmp/portage/x11-base/xorg-proto-2020.1/image/usr/include/X11/dri
Installing /tmp/portage/x11-base/xorg-proto-2020.1/work/xorgproto-2020.1/include/X11/extensions/ag.h to /tmp/portage/x11-base/xorg-proto-2020.1/image/usr/include/X11/extensions
Installing /tmp/portage/x11-base/xorg-proto-2020.1/work/xorgproto-2020.1/include/X11/extensions/agproto.h to /tmp/portage/x11-base/xorg-proto-2020.1/image/usr/include/X11/extensions
Installing /tmp/portage/x11-base/xorg-proto-2020.1/work/xorgproto-2020.1/include/X11/extensions/applewmconst.h to /tmp/portage/x11-base/xorg-proto-2020.1/image/usr/include/X11/extensions
Installing /tmp/portage/x11-base/xorg-proto-2020.1/work/xorgproto-2020.1/include/X11/extensions/applewmproto.h to /tmp/portage/x11-base/xorg-proto-2020.1/image/usr/include/X11/extensions
Installing /tmp/portage/x11-base/xorg-proto-2020.1/work/xorgproto-2020.1/include/X11/extensions/bigreqsproto.h to /tmp/portage/x11-base/xorg-proto-2020.1/image/usr/include/X11/extensions
Installing /tmp/portage/x11-base/xorg-proto-2020.1/work/xorgproto-2020.1/include/X11/extensions/bigreqstr.h to /tmp/portage/x11-base/xorg-proto-2020.1/image/usr/include/X11/extensions
Installing /tmp/portage/x11-base/xorg-proto-2020.1/work/xorgproto-2020.1/include/X11/extensions/composite.h to /tmp/portage/x11-base/xorg-proto-2020.1/image/usr/include/X11/extensions
Installing /tmp/portage/x11-base/xorg-proto-2020.1/work/xorgproto-2020.1/include/X11/extensions/compositeproto.h to /tmp/portage/x11-base/xorg-proto-2020.1/image/usr/include/X11/extensions
Installing /tmp/portage/x11-base/xorg-proto-2020.1/work/xorgproto-2020.1/include/X11/extensions/cup.h to /tmp/portage/x11-base/xorg-proto-2020.1/image/usr/include/X11/extensions
Installing /tmp/portage/x11-base/xorg-proto-2020.1/work/xorgproto-2020.1/include/X11/extensions/cupproto.h to /tmp/portage/x11-base/xorg-proto-2020.1/image/usr/include/X11/extensions
Installing /tmp/portage/x11-base/xorg-proto-2020.1/work/xorgproto-2020.1/include/X11/extensions/damageproto.h to /tmp/portage/x11-base/xorg-proto-2020.1/image/usr/include/X11/extensions
Installing /tmp/portage/x11-base/xorg-proto-2020.1/work/xorgproto-2020.1/include/X11/extensions/damagewire.h to /tmp/portage/x11-base/xorg-proto-2020.1/image/usr/include/X11/extensions
Installing /tmp/portage/x11-base/xorg-proto-2020.1/work/xorgproto-2020.1/include/X11/extensions/dbe.h to /tmp/portage/x11-base/xorg-proto-2020.1/image/usr/include/X11/extensions
Installing /tmp/portage/x11-base/xorg-proto-2020.1/work/xorgproto-2020.1/include/X11/extensions/dbeproto.h to /tmp/portage/x11-base/xorg-proto-2020.1/image/usr/include/X11/extensions
Installing /tmp/portage/x11-base/xorg-proto-2020.1/work/xorgproto-2020.1/include/X11/extensions/dmx.h to /tmp/portage/x11-base/xorg-proto-2020.1/image/usr/include/X11/extensions
Installing /tmp/portage/x11-base/xorg-proto-2020.1/work/xorgproto-2020.1/include/X11/extensions/dmxproto.h to /tmp/portage/x11-base/xorg-proto-2020.1/image/usr/include/X11/extensions
Installing /tmp/portage/x11-base/xorg-proto-2020.1/work/xorgproto-2020.1/include/X11/extensions/dpmsconst.h to /tmp/portage/x11-base/xorg-proto-2020.1/image/usr/include/X11/extensions
Installing /tmp/portage/x11-base/xorg-proto-2020.1/work/xorgproto-2020.1/include/X11/extensions/dpmsproto.h to /tmp/portage/x11-base/xorg-proto-2020.1/image/usr/include/X11/extensions
Installing /tmp/portage/x11-base/xorg-proto-2020.1/work/xorgproto-2020.1/include/X11/extensions/dri2proto.h to /tmp/portage/x11-base/xorg-proto-2020.1/image/usr/include/X11/extensions
Installing /tmp/portage/x11-base/xorg-proto-2020.1/work/xorgproto-2020.1/include/X11/extensions/dri2tokens.h to /tmp/portage/x11-base/xorg-proto-2020.1/image/usr/include/X11/extensions
Installing /tmp/portage/x11-base/xorg-proto-2020.1/work/xorgproto-2020.1/include/X11/extensions/dri3proto.h to /tmp/portage/x11-base/xorg-proto-2020.1/image/usr/include/X11/extensions
Installing /tmp/portage/x11-base/xorg-proto-2020.1/work/xorgproto-2020.1/include/X11/extensions/EVI.h to /tmp/portage/x11-base/xorg-proto-2020.1/image/usr/include/X11/extensions
Installing /tmp/portage/x11-base/xorg-proto-2020.1/work/xorgproto-2020.1/include/X11/extensions/EVIproto.h to /tmp/portage/x11-base/xorg-proto-2020.1/image/usr/include/X11/extensions
Installing /tmp/portage/x11-base/xorg-proto-2020.1/work/xorgproto-2020.1/include/X11/extensions/ge.h to /tmp/portage/x11-base/xorg-proto-2020.1/image/usr/include/X11/extensions
Installing /tmp/portage/x11-base/xorg-proto-2020.1/work/xorgproto-2020.1/include/X11/extensions/geproto.h to /tmp/portage/x11-base/xorg-proto-2020.1/image/usr/include/X11/extensions
Installing /tmp/portage/x11-base/xorg-proto-2020.1/work/xorgproto-2020.1/include/X11/extensions/lbx.h to /tmp/portage/x11-base/xorg-proto-2020.1/image/usr/include/X11/extensions
Installing /tmp/portage/x11-base/xorg-proto-2020.1/work/xorgproto-2020.1/include/X11/extensions/lbxproto.h to /tmp/portage/x11-base/xorg-proto-2020.1/image/usr/include/X11/extensions
Installing /tmp/portage/x11-base/xorg-proto-2020.1/work/xorgproto-2020.1/include/X11/extensions/mitmiscconst.h to /tmp/portage/x11-base/xorg-proto-2020.1/image/usr/include/X11/extensions
Installing /tmp/portage/x11-base/xorg-proto-2020.1/work/xorgproto-2020.1/include/X11/extensions/mitmiscproto.h to /tmp/portage/x11-base/xorg-proto-2020.1/image/usr/include/X11/extensions
Installing /tmp/portage/x11-base/xorg-proto-2020.1/work/xorgproto-2020.1/include/X11/extensions/multibufconst.h to /tmp/portage/x11-base/xorg-proto-2020.1/image/usr/include/X11/extensions
Installing /tmp/portage/x11-base/xorg-proto-2020.1/work/xorgproto-2020.1/include/X11/extensions/multibufproto.h to /tmp/portage/x11-base/xorg-proto-2020.1/image/usr/include/X11/extensions
Installing /tmp/portage/x11-base/xorg-proto-2020.1/work/xorgproto-2020.1/include/X11/extensions/panoramiXproto.h to /tmp/portage/x11-base/xorg-proto-2020.1/image/usr/include/X11/extensions
Installing /tmp/portage/x11-base/xorg-proto-2020.1/work/xorgproto-2020.1/include/X11/extensions/presentproto.h to /tmp/portage/x11-base/xorg-proto-2020.1/image/usr/include/X11/extensions
Installing /tmp/portage/x11-base/xorg-proto-2020.1/work/xorgproto-2020.1/include/X11/extensions/presenttokens.h to /tmp/portage/x11-base/xorg-proto-2020.1/image/usr/include/X11/extensions
Installing /tmp/portage/x11-base/xorg-proto-2020.1/work/xorgproto-2020.1/include/X11/extensions/randr.h to /tmp/portage/x11-base/xorg-proto-2020.1/image/usr/include/X11/extensions
Installing /tmp/portage/x11-base/xorg-proto-2020.1/work/xorgproto-2020.1/include/X11/extensions/randrproto.h to /tmp/portage/x11-base/xorg-proto-2020.1/image/usr/include/X11/extensions
Installing /tmp/portage/x11-base/xorg-proto-2020.1/work/xorgproto-2020.1/include/X11/extensions/recordconst.h to /tmp/portage/x11-base/xorg-proto-2020.1/image/usr/include/X11/extensions
Installing /tmp/portage/x11-base/xorg-proto-2020.1/work/xorgproto-2020.1/include/X11/extensions/recordproto.h to /tmp/portage/x11-base/xorg-proto-2020.1/image/usr/include/X11/extensions
Installing /tmp/portage/x11-base/xorg-proto-2020.1/work/xorgproto-2020.1/include/X11/extensions/recordstr.h to /tmp/portage/x11-base/xorg-proto-2020.1/image/usr/include/X11/extensions
Installing /tmp/portage/x11-base/xorg-proto-2020.1/work/xorgproto-2020.1/include/X11/extensions/render.h to /tmp/portage/x11-base/xorg-proto-2020.1/image/usr/include/X11/extensions
Installing /tmp/portage/x11-base/xorg-proto-2020.1/work/xorgproto-2020.1/include/X11/extensions/renderproto.h to /tmp/portage/x11-base/xorg-proto-2020.1/image/usr/include/X11/extensions
Installing /tmp/portage/x11-base/xorg-proto-2020.1/work/xorgproto-2020.1/include/X11/extensions/saver.h to /tmp/portage/x11-base/xorg-proto-2020.1/image/usr/include/X11/extensions
Installing /tmp/portage/x11-base/xorg-proto-2020.1/work/xorgproto-2020.1/include/X11/extensions/saverproto.h to /tmp/portage/x11-base/xorg-proto-2020.1/image/usr/include/X11/extensions
Installing /tmp/portage/x11-base/xorg-proto-2020.1/work/xorgproto-2020.1/include/X11/extensions/secur.h to /tmp/portage/x11-base/xorg-proto-2020.1/image/usr/include/X11/extensions
Installing /tmp/portage/x11-base/xorg-proto-2020.1/work/xorgproto-2020.1/include/X11/extensions/securproto.h to /tmp/portage/x11-base/xorg-proto-2020.1/image/usr/include/X11/extensions
Installing /tmp/portage/x11-base/xorg-proto-2020.1/work/xorgproto-2020.1/include/X11/extensions/shapeconst.h to /tmp/portage/x11-base/xorg-proto-2020.1/image/usr/include/X11/extensions
Installing /tmp/portage/x11-base/xorg-proto-2020.1/work/xorgproto-2020.1/include/X11/extensions/shapeproto.h to /tmp/portage/x11-base/xorg-proto-2020.1/image/usr/include/X11/extensions
Installing /tmp/portage/x11-base/xorg-proto-2020.1/work/xorgproto-2020.1/include/X11/extensions/shapestr.h to /tmp/portage/x11-base/xorg-proto-2020.1/image/usr/include/X11/extensions
Installing /tmp/portage/x11-base/xorg-proto-2020.1/work/xorgproto-2020.1/include/X11/extensions/shm.h to /tmp/portage/x11-base/xorg-proto-2020.1/image/usr/include/X11/extensions
Installing /tmp/portage/x11-base/xorg-proto-2020.1/work/xorgproto-2020.1/include/X11/extensions/shmproto.h to /tmp/portage/x11-base/xorg-proto-2020.1/image/usr/include/X11/extensions
Installing /tmp/portage/x11-base/xorg-proto-2020.1/work/xorgproto-2020.1/include/X11/extensions/shmstr.h to /tmp/portage/x11-base/xorg-proto-2020.1/image/usr/include/X11/extensions
Installing /tmp/portage/x11-base/xorg-proto-2020.1/work/xorgproto-2020.1/include/X11/extensions/syncconst.h to /tmp/portage/x11-base/xorg-proto-2020.1/image/usr/include/X11/extensions
Installing /tmp/portage/x11-base/xorg-proto-2020.1/work/xorgproto-2020.1/include/X11/extensions/syncproto.h to /tmp/portage/x11-base/xorg-proto-2020.1/image/usr/include/X11/extensions
Installing /tmp/portage/x11-base/xorg-proto-2020.1/work/xorgproto-2020.1/include/X11/extensions/syncstr.h to /tmp/portage/x11-base/xorg-proto-2020.1/image/usr/include/X11/extensions
Installing /tmp/portage/x11-base/xorg-proto-2020.1/work/xorgproto-2020.1/include/X11/extensions/xcmiscproto.h to /tmp/portage/x11-base/xorg-proto-2020.1/image/usr/include/X11/extensions
Installing /tmp/portage/x11-base/xorg-proto-2020.1/work/xorgproto-2020.1/include/X11/extensions/xcmiscstr.h to /tmp/portage/x11-base/xorg-proto-2020.1/image/usr/include/X11/extensions
Installing /tmp/portage/x11-base/xorg-proto-2020.1/work/xorgproto-2020.1/include/X11/extensions/xf86bigfont.h to /tmp/portage/x11-base/xorg-proto-2020.1/image/usr/include/X11/extensions
Installing /tmp/portage/x11-base/xorg-proto-2020.1/work/xorgproto-2020.1/include/X11/extensions/xf86bigfproto.h to /tmp/portage/x11-base/xorg-proto-2020.1/image/usr/include/X11/extensions
Installing /tmp/portage/x11-base/xorg-proto-2020.1/work/xorgproto-2020.1/include/X11/extensions/xf86bigfstr.h to /tmp/portage/x11-base/xorg-proto-2020.1/image/usr/include/X11/extensions
Installing /tmp/portage/x11-base/xorg-proto-2020.1/work/xorgproto-2020.1/include/X11/extensions/xf86dga1const.h to /tmp/portage/x11-base/xorg-proto-2020.1/image/usr/include/X11/extensions
Installing /tmp/portage/x11-base/xorg-proto-2020.1/work/xorgproto-2020.1/include/X11/extensions/xf86dga1proto.h to /tmp/portage/x11-base/xorg-proto-2020.1/image/usr/include/X11/extensions
Installing /tmp/portage/x11-base/xorg-proto-2020.1/work/xorgproto-2020.1/include/X11/extensions/xf86dga1str.h to /tmp/portage/x11-base/xorg-proto-2020.1/image/usr/include/X11/extensions
Installing /tmp/portage/x11-base/xorg-proto-2020.1/work/xorgproto-2020.1/include/X11/extensions/xf86dgaconst.h to /tmp/portage/x11-base/xorg-proto-2020.1/image/usr/include/X11/extensions
Installing /tmp/portage/x11-base/xorg-proto-2020.1/work/xorgproto-2020.1/include/X11/extensions/xf86dga.h to /tmp/portage/x11-base/xorg-proto-2020.1/image/usr/include/X11/extensions
Installing /tmp/portage/x11-base/xorg-proto-2020.1/work/xorgproto-2020.1/include/X11/extensions/xf86dgaproto.h to /tmp/portage/x11-base/xorg-proto-2020.1/image/usr/include/X11/extensions
Installing /tmp/portage/x11-base/xorg-proto-2020.1/work/xorgproto-2020.1/include/X11/extensions/xf86dgastr.h to /tmp/portage/x11-base/xorg-proto-2020.1/image/usr/include/X11/extensions
Installing /tmp/portage/x11-base/xorg-proto-2020.1/work/xorgproto-2020.1/include/X11/extensions/xf86vm.h to /tmp/portage/x11-base/xorg-proto-2020.1/image/usr/include/X11/extensions
Installing /tmp/portage/x11-base/xorg-proto-2020.1/work/xorgproto-2020.1/include/X11/extensions/xf86vmproto.h to /tmp/portage/x11-base/xorg-proto-2020.1/image/usr/include/X11/extensions
Installing /tmp/portage/x11-base/xorg-proto-2020.1/work/xorgproto-2020.1/include/X11/extensions/xf86vmstr.h to /tmp/portage/x11-base/xorg-proto-2020.1/image/usr/include/X11/extensions
Installing /tmp/portage/x11-base/xorg-proto-2020.1/work/xorgproto-2020.1/include/X11/extensions/xfixesproto.h to /tmp/portage/x11-base/xorg-proto-2020.1/image/usr/include/X11/extensions
Installing /tmp/portage/x11-base/xorg-proto-2020.1/work/xorgproto-2020.1/include/X11/extensions/xfixeswire.h to /tmp/portage/x11-base/xorg-proto-2020.1/image/usr/include/X11/extensions
Installing /tmp/portage/x11-base/xorg-proto-2020.1/work/xorgproto-2020.1/include/X11/extensions/XI2.h to /tmp/portage/x11-base/xorg-proto-2020.1/image/usr/include/X11/extensions
Installing /tmp/portage/x11-base/xorg-proto-2020.1/work/xorgproto-2020.1/include/X11/extensions/XI2proto.h to /tmp/portage/x11-base/xorg-proto-2020.1/image/usr/include/X11/extensions
Installing /tmp/portage/x11-base/xorg-proto-2020.1/work/xorgproto-2020.1/include/X11/extensions/XI.h to /tmp/portage/x11-base/xorg-proto-2020.1/image/usr/include/X11/extensions
Installing /tmp/portage/x11-base/xorg-proto-2020.1/work/xorgproto-2020.1/include/X11/extensions/XIproto.h to /tmp/portage/x11-base/xorg-proto-2020.1/image/usr/include/X11/extensions
Installing /tmp/portage/x11-base/xorg-proto-2020.1/work/xorgproto-2020.1/include/X11/extensions/XKB.h to /tmp/portage/x11-base/xorg-proto-2020.1/image/usr/include/X11/extensions
Installing /tmp/portage/x11-base/xorg-proto-2020.1/work/xorgproto-2020.1/include/X11/extensions/XKBproto.h to /tmp/portage/x11-base/xorg-proto-2020.1/image/usr/include/X11/extensions
Installing /tmp/portage/x11-base/xorg-proto-2020.1/work/xorgproto-2020.1/include/X11/extensions/XKBsrv.h to /tmp/portage/x11-base/xorg-proto-2020.1/image/usr/include/X11/extensions
Installing /tmp/portage/x11-base/xorg-proto-2020.1/work/xorgproto-2020.1/include/X11/extensions/XKBstr.h to /tmp/portage/x11-base/xorg-proto-2020.1/image/usr/include/X11/extensions
Installing /tmp/portage/x11-base/xorg-proto-2020.1/work/xorgproto-2020.1/include/X11/extensions/XResproto.h to /tmp/portage/x11-base/xorg-proto-2020.1/image/usr/include/X11/extensions
Installing /tmp/portage/x11-base/xorg-proto-2020.1/work/xorgproto-2020.1/include/X11/extensions/xtestconst.h to /tmp/portage/x11-base/xorg-proto-2020.1/image/usr/include/X11/extensions
Installing /tmp/portage/x11-base/xorg-proto-2020.1/work/xorgproto-2020.1/include/X11/extensions/xtestext1const.h to /tmp/portage/x11-base/xorg-proto-2020.1/image/usr/include/X11/extensions
Installing /tmp/portage/x11-base/xorg-proto-2020.1/work/xorgproto-2020.1/include/X11/extensions/xtestext1proto.h to /tmp/portage/x11-base/xorg-proto-2020.1/image/usr/include/X11/extensions
Installing /tmp/portage/x11-base/xorg-proto-2020.1/work/xorgproto-2020.1/include/X11/extensions/xtestproto.h to /tmp/portage/x11-base/xorg-proto-2020.1/image/usr/include/X11/extensions
Installing /tmp/portage/x11-base/xorg-proto-2020.1/work/xorgproto-2020.1/include/X11/extensions/Xv.h to /tmp/portage/x11-base/xorg-proto-2020.1/image/usr/include/X11/extensions
Installing /tmp/portage/x11-base/xorg-proto-2020.1/work/xorgproto-2020.1/include/X11/extensions/XvMC.h to /tmp/portage/x11-base/xorg-proto-2020.1/image/usr/include/X11/extensions
Installing /tmp/portage/x11-base/xorg-proto-2020.1/work/xorgproto-2020.1/include/X11/extensions/XvMCproto.h to /tmp/portage/x11-base/xorg-proto-2020.1/image/usr/include/X11/extensions
Installing /tmp/portage/x11-base/xorg-proto-2020.1/work/xorgproto-2020.1/include/X11/extensions/Xvproto.h to /tmp/portage/x11-base/xorg-proto-2020.1/image/usr/include/X11/extensions
Installing /tmp/portage/x11-base/xorg-proto-2020.1/work/xorgproto-2020.1/include/X11/fonts/font.h to /tmp/portage/x11-base/xorg-proto-2020.1/image/usr/include/X11/fonts
Installing /tmp/portage/x11-base/xorg-proto-2020.1/work/xorgproto-2020.1/include/X11/fonts/fontproto.h to /tmp/portage/x11-base/xorg-proto-2020.1/image/usr/include/X11/fonts
Installing /tmp/portage/x11-base/xorg-proto-2020.1/work/xorgproto-2020.1/include/X11/fonts/fontstruct.h to /tmp/portage/x11-base/xorg-proto-2020.1/image/usr/include/X11/fonts
Installing /tmp/portage/x11-base/xorg-proto-2020.1/work/xorgproto-2020.1/include/X11/fonts/FS.h to /tmp/portage/x11-base/xorg-proto-2020.1/image/usr/include/X11/fonts
Installing /tmp/portage/x11-base/xorg-proto-2020.1/work/xorgproto-2020.1/include/X11/fonts/fsmasks.h to /tmp/portage/x11-base/xorg-proto-2020.1/image/usr/include/X11/fonts
Installing /tmp/portage/x11-base/xorg-proto-2020.1/work/xorgproto-2020.1/include/X11/fonts/FSproto.h to /tmp/portage/x11-base/xorg-proto-2020.1/image/usr/include/X11/fonts
Installing /tmp/portage/x11-base/xorg-proto-2020.1/work/xorg-proto-2020.1-build/meson-private/applewmproto.pc to /tmp/portage/x11-base/xorg-proto-2020.1/image/usr/share/pkgconfig
Installing /tmp/portage/x11-base/xorg-proto-2020.1/work/xorg-proto-2020.1-build/meson-private/bigreqsproto.pc to /tmp/portage/x11-base/xorg-proto-2020.1/image/usr/share/pkgconfig
Installing /tmp/portage/x11-base/xorg-proto-2020.1/work/xorg-proto-2020.1-build/meson-private/compositeproto.pc to /tmp/portage/x11-base/xorg-proto-2020.1/image/usr/share/pkgconfig
Installing /tmp/portage/x11-base/xorg-proto-2020.1/work/xorg-proto-2020.1-build/meson-private/damageproto.pc to /tmp/portage/x11-base/xorg-proto-2020.1/image/usr/share/pkgconfig
Installing /tmp/portage/x11-base/xorg-proto-2020.1/work/xorg-proto-2020.1-build/meson-private/dmxproto.pc to /tmp/portage/x11-base/xorg-proto-2020.1/image/usr/share/pkgconfig
Installing /tmp/portage/x11-base/xorg-proto-2020.1/work/xorg-proto-2020.1-build/meson-private/dpmsproto.pc to /tmp/portage/x11-base/xorg-proto-2020.1/image/usr/share/pkgconfig
Installing /tmp/portage/x11-base/xorg-proto-2020.1/work/xorg-proto-2020.1-build/meson-private/dri2proto.pc to /tmp/portage/x11-base/xorg-proto-2020.1/image/usr/share/pkgconfig
Installing /tmp/portage/x11-base/xorg-proto-2020.1/work/xorg-proto-2020.1-build/meson-private/dri3proto.pc to /tmp/portage/x11-base/xorg-proto-2020.1/image/usr/share/pkgconfig
Installing /tmp/portage/x11-base/xorg-proto-2020.1/work/xorg-proto-2020.1-build/meson-private/fixesproto.pc to /tmp/portage/x11-base/xorg-proto-2020.1/image/usr/share/pkgconfig
Installing /tmp/portage/x11-base/xorg-proto-2020.1/work/xorg-proto-2020.1-build/meson-private/fontsproto.pc to /tmp/portage/x11-base/xorg-proto-2020.1/image/usr/share/pkgconfig
Installing /tmp/portage/x11-base/xorg-proto-2020.1/work/xorg-proto-2020.1-build/meson-private/glproto.pc to /tmp/portage/x11-base/xorg-proto-2020.1/image/usr/share/pkgconfig
Installing /tmp/portage/x11-base/xorg-proto-2020.1/work/xorg-proto-2020.1-build/meson-private/inputproto.pc to /tmp/portage/x11-base/xorg-proto-2020.1/image/usr/share/pkgconfig
Installing /tmp/portage/x11-base/xorg-proto-2020.1/work/xorg-proto-2020.1-build/meson-private/kbproto.pc to /tmp/portage/x11-base/xorg-proto-2020.1/image/usr/share/pkgconfig
Installing /tmp/portage/x11-base/xorg-proto-2020.1/work/xorg-proto-2020.1-build/meson-private/presentproto.pc to /tmp/portage/x11-base/xorg-proto-2020.1/image/usr/share/pkgconfig
Installing /tmp/portage/x11-base/xorg-proto-2020.1/work/xorg-proto-2020.1-build/meson-private/randrproto.pc to /tmp/portage/x11-base/xorg-proto-2020.1/image/usr/share/pkgconfig
Installing /tmp/portage/x11-base/xorg-proto-2020.1/work/xorg-proto-2020.1-build/meson-private/recordproto.pc to /tmp/portage/x11-base/xorg-proto-2020.1/image/usr/share/pkgconfig
Installing /tmp/portage/x11-base/xorg-proto-2020.1/work/xorg-proto-2020.1-build/meson-private/renderproto.pc to /tmp/portage/x11-base/xorg-proto-2020.1/image/usr/share/pkgconfig
Installing /tmp/portage/x11-base/xorg-proto-2020.1/work/xorg-proto-2020.1-build/meson-private/resourceproto.pc to /tmp/portage/x11-base/xorg-proto-2020.1/image/usr/share/pkgconfig
Installing /tmp/portage/x11-base/xorg-proto-2020.1/work/xorg-proto-2020.1-build/meson-private/scrnsaverproto.pc to /tmp/portage/x11-base/xorg-proto-2020.1/image/usr/share/pkgconfig
Installing /tmp/portage/x11-base/xorg-proto-2020.1/work/xorg-proto-2020.1-build/meson-private/videoproto.pc to /tmp/portage/x11-base/xorg-proto-2020.1/image/usr/share/pkgconfig
Installing /tmp/portage/x11-base/xorg-proto-2020.1/work/xorg-proto-2020.1-build/meson-private/xcmiscproto.pc to /tmp/portage/x11-base/xorg-proto-2020.1/image/usr/share/pkgconfig
Installing /tmp/portage/x11-base/xorg-proto-2020.1/work/xorg-proto-2020.1-build/meson-private/xextproto.pc to /tmp/portage/x11-base/xorg-proto-2020.1/image/usr/share/pkgconfig
Installing /tmp/portage/x11-base/xorg-proto-2020.1/work/xorg-proto-2020.1-build/meson-private/xf86bigfontproto.pc to /tmp/portage/x11-base/xorg-proto-2020.1/image/usr/share/pkgconfig
Installing /tmp/portage/x11-base/xorg-proto-2020.1/work/xorg-proto-2020.1-build/meson-private/xf86dgaproto.pc to /tmp/portage/x11-base/xorg-proto-2020.1/image/usr/share/pkgconfig
Installing /tmp/portage/x11-base/xorg-proto-2020.1/work/xorg-proto-2020.1-build/meson-private/xf86driproto.pc to /tmp/portage/x11-base/xorg-proto-2020.1/image/usr/share/pkgconfig
Installing /tmp/portage/x11-base/xorg-proto-2020.1/work/xorg-proto-2020.1-build/meson-private/xf86vidmodeproto.pc to /tmp/portage/x11-base/xorg-proto-2020.1/image/usr/share/pkgconfig
Installing /tmp/portage/x11-base/xorg-proto-2020.1/work/xorg-proto-2020.1-build/meson-private/xineramaproto.pc to /tmp/portage/x11-base/xorg-proto-2020.1/image/usr/share/pkgconfig
Installing /tmp/portage/x11-base/xorg-proto-2020.1/work/xorg-proto-2020.1-build/meson-private/xproto.pc to /tmp/portage/x11-base/xorg-proto-2020.1/image/usr/share/pkgconfig
>>> Completed installing x11-base/xorg-proto-2020.1 into /tmp/portage/x11-base/xorg-proto-2020.1/image

 * Final size of build directory: 8528 KiB (8.3 MiB)
 * Final size of installed tree:  1528 KiB (1.4 MiB)

./
./usr/
./usr/include/
./usr/include/GL/
./usr/include/GL/glxint.h
./usr/include/GL/glxtokens.h
./usr/include/GL/glxproto.h
./usr/include/GL/internal/
./usr/include/GL/internal/glcore.h
./usr/include/GL/glxmd.h
./usr/include/X11/
./usr/include/X11/Xwinsock.h
./usr/include/X11/Xw32defs.h
./usr/include/X11/Xprotostr.h
./usr/include/X11/Xdefs.h
./usr/include/X11/Xalloca.h
./usr/include/X11/Xosdefs.h
./usr/include/X11/XF86keysym.h
./usr/include/X11/XWDFile.h
./usr/include/X11/keysymdef.h
./usr/include/X11/Xfuncs.h
./usr/include/X11/fonts/
./usr/include/X11/fonts/fontstruct.h
./usr/include/X11/fonts/font.h
./usr/include/X11/fonts/fsmasks.h
./usr/include/X11/fonts/FS.h
./usr/include/X11/fonts/FSproto.h
./usr/include/X11/fonts/fontproto.h
./usr/include/X11/Xos.h
./usr/include/X11/extensions/
./usr/include/X11/extensions/lbx.h
./usr/include/X11/extensions/XKB.h
./usr/include/X11/extensions/saverproto.h
./usr/include/X11/extensions/xfixeswire.h
./usr/include/X11/extensions/xf86dga1str.h
./usr/include/X11/extensions/damageproto.h
./usr/include/X11/extensions/XvMCproto.h
./usr/include/X11/extensions/shm.h
./usr/include/X11/extensions/shapestr.h
./usr/include/X11/extensions/secur.h
./usr/include/X11/extensions/cup.h
./usr/include/X11/extensions/shmproto.h
./usr/include/X11/extensions/xf86dgastr.h
./usr/include/X11/extensions/xf86bigfproto.h
./usr/include/X11/extensions/dbe.h
./usr/include/X11/extensions/randr.h
./usr/include/X11/extensions/dpmsconst.h
./usr/include/X11/extensions/bigreqstr.h
./usr/include/X11/extensions/xcmiscstr.h
./usr/include/X11/extensions/dmx.h
./usr/include/X11/extensions/recordproto.h
./usr/include/X11/extensions/xf86dga.h
./usr/include/X11/extensions/shapeproto.h
./usr/include/X11/extensions/panoramiXproto.h
./usr/include/X11/extensions/xf86bigfstr.h
./usr/include/X11/extensions/XKBsrv.h
./usr/include/X11/extensions/XIproto.h
./usr/include/X11/extensions/randrproto.h
./usr/include/X11/extensions/syncproto.h
./usr/include/X11/extensions/compositeproto.h
./usr/include/X11/extensions/XI.h
./usr/include/X11/extensions/mitmiscconst.h
./usr/include/X11/extensions/securproto.h
./usr/include/X11/extensions/dmxproto.h
./usr/include/X11/extensions/mitmiscproto.h
./usr/include/X11/extensions/xf86vmstr.h
./usr/include/X11/extensions/xtestext1proto.h
./usr/include/X11/extensions/xtestconst.h
./usr/include/X11/extensions/Xv.h
./usr/include/X11/extensions/saver.h
./usr/include/X11/extensions/xf86dgaproto.h
./usr/include/X11/extensions/recordconst.h
./usr/include/X11/extensions/presentproto.h
./usr/include/X11/extensions/xtestproto.h
./usr/include/X11/extensions/dpmsproto.h
./usr/include/X11/extensions/xtestext1const.h
./usr/include/X11/extensions/damagewire.h
./usr/include/X11/extensions/dri3proto.h
./usr/include/X11/extensions/applewmconst.h
./usr/include/X11/extensions/ge.h
./usr/include/X11/extensions/dri2tokens.h
./usr/include/X11/extensions/agproto.h
./usr/include/X11/extensions/lbxproto.h
./usr/include/X11/extensions/presenttokens.h
./usr/include/X11/extensions/syncstr.h
./usr/include/X11/extensions/XvMC.h
./usr/include/X11/extensions/XResproto.h
./usr/include/X11/extensions/EVI.h
./usr/include/X11/extensions/xf86dgaconst.h
./usr/include/X11/extensions/geproto.h
./usr/include/X11/extensions/multibufconst.h
./usr/include/X11/extensions/cupproto.h
./usr/include/X11/extensions/ag.h
./usr/include/X11/extensions/applewmproto.h
./usr/include/X11/extensions/dri2proto.h
./usr/include/X11/extensions/render.h
./usr/include/X11/extensions/multibufproto.h
./usr/include/X11/extensions/xf86vm.h
./usr/include/X11/extensions/shmstr.h
./usr/include/X11/extensions/xfixesproto.h
./usr/include/X11/extensions/xf86dga1proto.h
./usr/include/X11/extensions/bigreqsproto.h
./usr/include/X11/extensions/xf86vmproto.h
./usr/include/X11/extensions/dbeproto.h
./usr/include/X11/extensions/XKBstr.h
./usr/include/X11/extensions/renderproto.h
./usr/include/X11/extensions/xf86dga1const.h
./usr/include/X11/extensions/xf86bigfont.h
./usr/include/X11/extensions/shapeconst.h
./usr/include/X11/extensions/composite.h
./usr/include/X11/extensions/XI2proto.h
./usr/include/X11/extensions/EVIproto.h
./usr/include/X11/extensions/XKBproto.h
./usr/include/X11/extensions/Xvproto.h
./usr/include/X11/extensions/xcmiscproto.h
./usr/include/X11/extensions/XI2.h
./usr/include/X11/extensions/recordstr.h
./usr/include/X11/extensions/syncconst.h
./usr/include/X11/keysym.h
./usr/include/X11/Xproto.h
./usr/include/X11/ap_keysym.h
./usr/include/X11/Xfuncproto.h
./usr/include/X11/Xatom.h
./usr/include/X11/Xos_r.h
./usr/include/X11/Xarch.h
./usr/include/X11/HPkeysym.h
./usr/include/X11/Xpoll.h
./usr/include/X11/Xthreads.h
./usr/include/X11/Xmd.h
./usr/include/X11/DECkeysym.h
./usr/include/X11/Sunkeysym.h
./usr/include/X11/dri/
./usr/include/X11/dri/xf86dristr.h
./usr/include/X11/dri/xf86driproto.h
./usr/include/X11/dri/xf86dri.h
./usr/include/X11/Xwindows.h
./usr/include/X11/X.h
./usr/share/
./usr/share/pkgconfig/
./usr/share/pkgconfig/fixesproto.pc
./usr/share/pkgconfig/recordproto.pc
./usr/share/pkgconfig/xf86driproto.pc
./usr/share/pkgconfig/dri3proto.pc
./usr/share/pkgconfig/xineramaproto.pc
./usr/share/pkgconfig/compositeproto.pc
./usr/share/pkgconfig/resourceproto.pc
./usr/share/pkgconfig/dmxproto.pc
./usr/share/pkgconfig/randrproto.pc
./usr/share/pkgconfig/xextproto.pc
./usr/share/pkgconfig/dri2proto.pc
./usr/share/pkgconfig/dpmsproto.pc
./usr/share/pkgconfig/kbproto.pc
./usr/share/pkgconfig/xcmiscproto.pc
./usr/share/pkgconfig/presentproto.pc
./usr/share/pkgconfig/bigreqsproto.pc
./usr/share/pkgconfig/fontsproto.pc
./usr/share/pkgconfig/xf86dgaproto.pc
./usr/share/pkgconfig/glproto.pc
./usr/share/pkgconfig/scrnsaverproto.pc
./usr/share/pkgconfig/inputproto.pc
./usr/share/pkgconfig/renderproto.pc
./usr/share/pkgconfig/xf86bigfontproto.pc
./usr/share/pkgconfig/xproto.pc
./usr/share/pkgconfig/damageproto.pc
./usr/share/pkgconfig/videoproto.pc
./usr/share/pkgconfig/xf86vidmodeproto.pc
./usr/share/pkgconfig/applewmproto.pc
./usr/share/doc/
./usr/share/doc/xorg-proto-2020.1/
./usr/share/doc/xorg-proto-2020.1/README.md.bz2
./usr/share/doc/xorg-proto-2020.1/AUTHORS.bz2
>>> Done.
 * checking 156 files for package collisions
>>> Merging x11-base/xorg-proto-2020.1 to /
 * removing unneeded *.la files
--- /usr/
--- /usr/share/
--- /usr/share/pkgconfig/
>>> /usr/share/pkgconfig/applewmproto.pc
>>> /usr/share/pkgconfig/xf86vidmodeproto.pc
>>> /usr/share/pkgconfig/videoproto.pc
>>> /usr/share/pkgconfig/damageproto.pc
>>> /usr/share/pkgconfig/xproto.pc
>>> /usr/share/pkgconfig/xf86bigfontproto.pc
>>> /usr/share/pkgconfig/renderproto.pc
>>> /usr/share/pkgconfig/inputproto.pc
>>> /usr/share/pkgconfig/scrnsaverproto.pc
>>> /usr/share/pkgconfig/glproto.pc
>>> /usr/share/pkgconfig/xf86dgaproto.pc
>>> /usr/share/pkgconfig/fontsproto.pc
>>> /usr/share/pkgconfig/bigreqsproto.pc
>>> /usr/share/pkgconfig/presentproto.pc
>>> /usr/share/pkgconfig/xcmiscproto.pc
>>> /usr/share/pkgconfig/kbproto.pc
>>> /usr/share/pkgconfig/dpmsproto.pc
>>> /usr/share/pkgconfig/dri2proto.pc
>>> /usr/share/pkgconfig/xextproto.pc
>>> /usr/share/pkgconfig/randrproto.pc
>>> /usr/share/pkgconfig/dmxproto.pc
>>> /usr/share/pkgconfig/resourceproto.pc
>>> /usr/share/pkgconfig/compositeproto.pc
>>> /usr/share/pkgconfig/xineramaproto.pc
>>> /usr/share/pkgconfig/dri3proto.pc
>>> /usr/share/pkgconfig/xf86driproto.pc
>>> /usr/share/pkgconfig/recordproto.pc
>>> /usr/share/pkgconfig/fixesproto.pc
--- /usr/include/
--- /usr/include/X11/
>>> /usr/include/X11/X.h
>>> /usr/include/X11/Xwindows.h
--- /usr/include/X11/dri/
>>> /usr/include/X11/dri/xf86dri.h
>>> /usr/include/X11/dri/xf86driproto.h
>>> /usr/include/X11/dri/xf86dristr.h
>>> /usr/include/X11/Sunkeysym.h
>>> /usr/include/X11/DECkeysym.h
>>> /usr/include/X11/Xmd.h
>>> /usr/include/X11/Xthreads.h
>>> /usr/include/X11/Xpoll.h
>>> /usr/include/X11/HPkeysym.h
>>> /usr/include/X11/Xarch.h
>>> /usr/include/X11/Xos_r.h
>>> /usr/include/X11/Xatom.h
>>> /usr/include/X11/Xfuncproto.h
>>> /usr/include/X11/ap_keysym.h
>>> /usr/include/X11/Xproto.h
>>> /usr/include/X11/keysym.h
--- /usr/include/X11/extensions/
>>> /usr/include/X11/extensions/syncconst.h
>>> /usr/include/X11/extensions/recordstr.h
>>> /usr/include/X11/extensions/XI2.h
>>> /usr/include/X11/extensions/xcmiscproto.h
>>> /usr/include/X11/extensions/Xvproto.h
>>> /usr/include/X11/extensions/XKBproto.h
>>> /usr/include/X11/extensions/EVIproto.h
>>> /usr/include/X11/extensions/XI2proto.h
>>> /usr/include/X11/extensions/composite.h
>>> /usr/include/X11/extensions/shapeconst.h
>>> /usr/include/X11/extensions/xf86bigfont.h
>>> /usr/include/X11/extensions/xf86dga1const.h
>>> /usr/include/X11/extensions/renderproto.h
>>> /usr/include/X11/extensions/XKBstr.h
>>> /usr/include/X11/extensions/dbeproto.h
>>> /usr/include/X11/extensions/xf86vmproto.h
>>> /usr/include/X11/extensions/bigreqsproto.h
>>> /usr/include/X11/extensions/xf86dga1proto.h
>>> /usr/include/X11/extensions/xfixesproto.h
>>> /usr/include/X11/extensions/shmstr.h
>>> /usr/include/X11/extensions/xf86vm.h
>>> /usr/include/X11/extensions/multibufproto.h
>>> /usr/include/X11/extensions/render.h
>>> /usr/include/X11/extensions/dri2proto.h
>>> /usr/include/X11/extensions/applewmproto.h
>>> /usr/include/X11/extensions/ag.h
>>> /usr/include/X11/extensions/cupproto.h
>>> /usr/include/X11/extensions/multibufconst.h
>>> /usr/include/X11/extensions/geproto.h
>>> /usr/include/X11/extensions/xf86dgaconst.h
>>> /usr/include/X11/extensions/EVI.h
>>> /usr/include/X11/extensions/XResproto.h
>>> /usr/include/X11/extensions/XvMC.h
>>> /usr/include/X11/extensions/syncstr.h
>>> /usr/include/X11/extensions/presenttokens.h
>>> /usr/include/X11/extensions/lbxproto.h
>>> /usr/include/X11/extensions/agproto.h
>>> /usr/include/X11/extensions/dri2tokens.h
>>> /usr/include/X11/extensions/ge.h
>>> /usr/include/X11/extensions/applewmconst.h
>>> /usr/include/X11/extensions/dri3proto.h
>>> /usr/include/X11/extensions/damagewire.h
>>> /usr/include/X11/extensions/xtestext1const.h
>>> /usr/include/X11/extensions/dpmsproto.h
>>> /usr/include/X11/extensions/xtestproto.h
>>> /usr/include/X11/extensions/presentproto.h
>>> /usr/include/X11/extensions/recordconst.h
>>> /usr/include/X11/extensions/xf86dgaproto.h
>>> /usr/include/X11/extensions/saver.h
>>> /usr/include/X11/extensions/Xv.h
>>> /usr/include/X11/extensions/xtestconst.h
>>> /usr/include/X11/extensions/xtestext1proto.h
>>> /usr/include/X11/extensions/xf86vmstr.h
>>> /usr/include/X11/extensions/mitmiscproto.h
>>> /usr/include/X11/extensions/dmxproto.h
>>> /usr/include/X11/extensions/securproto.h
>>> /usr/include/X11/extensions/mitmiscconst.h
>>> /usr/include/X11/extensions/XI.h
>>> /usr/include/X11/extensions/compositeproto.h
>>> /usr/include/X11/extensions/syncproto.h
>>> /usr/include/X11/extensions/randrproto.h
>>> /usr/include/X11/extensions/XIproto.h
>>> /usr/include/X11/extensions/XKBsrv.h
>>> /usr/include/X11/extensions/xf86bigfstr.h
>>> /usr/include/X11/extensions/panoramiXproto.h
>>> /usr/include/X11/extensions/shapeproto.h
>>> /usr/include/X11/extensions/xf86dga.h
>>> /usr/include/X11/extensions/recordproto.h
>>> /usr/include/X11/extensions/dmx.h
>>> /usr/include/X11/extensions/xcmiscstr.h
>>> /usr/include/X11/extensions/bigreqstr.h
>>> /usr/include/X11/extensions/dpmsconst.h
>>> /usr/include/X11/extensions/randr.h
>>> /usr/include/X11/extensions/dbe.h
>>> /usr/include/X11/extensions/xf86bigfproto.h
>>> /usr/include/X11/extensions/xf86dgastr.h
>>> /usr/include/X11/extensions/shmproto.h
>>> /usr/include/X11/extensions/cup.h
>>> /usr/include/X11/extensions/secur.h
>>> /usr/include/X11/extensions/shapestr.h
>>> /usr/include/X11/extensions/shm.h
>>> /usr/include/X11/extensions/XvMCproto.h
>>> /usr/include/X11/extensions/damageproto.h
>>> /usr/include/X11/extensions/xf86dga1str.h
>>> /usr/include/X11/extensions/xfixeswire.h
>>> /usr/include/X11/extensions/saverproto.h
>>> /usr/include/X11/extensions/XKB.h
>>> /usr/include/X11/extensions/lbx.h
>>> /usr/include/X11/Xos.h
--- /usr/include/X11/fonts/
>>> /usr/include/X11/fonts/fontproto.h
>>> /usr/include/X11/fonts/FSproto.h
>>> /usr/include/X11/fonts/FS.h
>>> /usr/include/X11/fonts/fsmasks.h
>>> /usr/include/X11/fonts/font.h
>>> /usr/include/X11/fonts/fontstruct.h
>>> /usr/include/X11/Xfuncs.h
>>> /usr/include/X11/keysymdef.h
>>> /usr/include/X11/XWDFile.h
>>> /usr/include/X11/XF86keysym.h
>>> /usr/include/X11/Xosdefs.h
>>> /usr/include/X11/Xalloca.h
>>> /usr/include/X11/Xdefs.h
>>> /usr/include/X11/Xprotostr.h
>>> /usr/include/X11/Xw32defs.h
>>> /usr/include/X11/Xwinsock.h
--- /usr/include/GL/
>>> /usr/include/GL/glxmd.h
--- /usr/include/GL/internal/
>>> /usr/include/GL/internal/glcore.h
>>> /usr/include/GL/glxproto.h
>>> /usr/include/GL/glxtokens.h
>>> /usr/include/GL/glxint.h
>>> Safely unmerging already-installed instance...
>>> Original instance of package unmerged safely.
>>> x11-base/xorg-proto-2020.1 merged.
