>>> Extracting info
 * Package:    x11-libs/libXv-1.0.11-r1
 * Repository: gentoo
 * USE:        elibc_glibc amd64 userland_GNU kernel_linux abi_x86_64
 * FEATURES:   preserve-libs
 * /etc/portage/package.cflags/ltoworkarounds.conf -> */*: *FLAGS+=-Wl,-O4 *FLAGS-=-Wl,-O1
 * FEATURES='assume-digests binpkg-dostrip binpkg-logs buildpkg config-protect-if-modified distlocks ebuild-locks fixlafiles merge-sync multilib-strict news nodoc parallel-fetch preserve-libs qa-unresolved-soname-deps sfperms strict strict-keepdir unknown-features-warn unmerge-logs unmerge-orphans xattr'
 * CFLAGS='-march=znver2 -O2 -pipe -g0 -fno-semantic-interposition -fno-plt -falign-functions=32 -fno-stack-protector -fno-stack-clash-protection -fstack-check=no -fno-stack-check -Wl,-O4 -Wl,-O4,--sort-common,--as-needed,-z,norelro,-z,now,-lgomp,-lpthread'
 * CXXFLAGS='-march=znver2 -O2 -pipe -g0 -fno-semantic-interposition -fno-plt -falign-functions=32 -fno-stack-protector -fno-stack-clash-protection -fstack-check=no -fno-stack-check -Wl,-O4 -Wl,-O4,--sort-common,--as-needed,-z,norelro,-z,now,-lgomp,-lpthread'
 * FFLAGS='-march=znver2 -O2 -pipe -g0 -fno-semantic-interposition -fno-plt -falign-functions=32 -fno-stack-protector -fno-stack-clash-protection -fstack-check=no -fno-stack-check -Wl,-O4 -Wl,-O4,--sort-common,--as-needed,-z,norelro,-z,now,-lgomp,-lpthread'
 * FCFLAGS='-march=znver2 -O2 -pipe -g0 -fno-semantic-interposition -fno-plt -falign-functions=32 -fno-stack-protector -fno-stack-clash-protection -fstack-check=no -fno-stack-check -Wl,-O4 -Wl,-O4,--sort-common,--as-needed,-z,norelro,-z,now,-lgomp,-lpthread'
 * F77FLAGS='-march=znver2 -O2 -pipe -g0 -fno-semantic-interposition -fno-plt -falign-functions=32 -fno-stack-protector -fno-stack-clash-protection -fstack-check=no -fno-stack-check -Wl,-O4 -Wl,-O4,--sort-common,--as-needed,-z,norelro,-z,now,-lgomp,-lpthread'
 * LDFLAGS='-march=znver2 -O2 -pipe -g0 -fno-semantic-interposition -fno-plt -falign-functions=32 -fno-stack-protector -fno-stack-clash-protection -fstack-check=no -fno-stack-check -Wl,-O4,--sort-common,--as-needed,-z,norelro,-z,now,-lgomp,-lpthread'
 * MAKEOPTS='-j12 -l12'
 * gcc () 11.0.0 20200606 (experimental)
 * g++ () 11.0.0 20200606 (experimental)
 * GNU ld (Gentoo 2.34 p4) 2.34.0
 * Linux rescue 5.4.36 #1 SMP Thu Apr 30 04:38:28 UTC 2020 x86_64 AMD Ryzen 5 3600 6-Core Processor AuthenticAMD GNU/Linux
x11-libs/libXv: 14 seconds average for 11 merges
2020-05-15T10:33:18 >>> x11-libs/libXv: 14 seconds
2020-05-20T01:11:52 >>> x11-libs/libXv: 11 seconds
2020-05-25T12:22:24 >>> x11-libs/libXv: 31 seconds
2020-05-25T14:55:13 >>> x11-libs/libXv: 6 seconds
2020-05-25T22:43:40 >>> x11-libs/libXv: 21 seconds
2020-05-26T14:01:33 >>> x11-libs/libXv: 6 seconds
2020-05-27T01:41:09 >>> x11-libs/libXv: 6 seconds
2020-05-28T14:27:46 >>> x11-libs/libXv: 7 seconds
2020-05-29T01:49:03 >>> x11-libs/libXv: 6 seconds
2020-05-30T17:42:48 >>> x11-libs/libXv: 23 seconds
2020-06-01T02:57:35 >>> x11-libs/libXv: 23 seconds
]0;emerge 01:32:49 125|626 libXv 00:17 (root@rescue)>>> Extracting x11-libs/libXv-1.0.11-r1
 * One or more compressed files were found in docompress-ed directories.
 * Please fix the ebuild not to install compressed files (manpages,
 * documentation) when automatic compression is used:
 * 
 *   /usr/share/man/man3/XvVideoNotify.3.bz2
 *   /usr/share/man/man3/XvUngrabPort.3.bz2
 *   /usr/share/man/man3/XvStopVideo.3.bz2
 *   /usr/share/man/man3/XvSetPortAttribute.3.bz2
 *   /usr/share/man/man3/XvSelectVideoNotify.3.bz2
 *   /usr/share/man/man3/XvSelectPortNotify.3.bz2
 *   /usr/share/man/man3/XvQueryPortAttributes.3.bz2
 *   /usr/share/man/man3/XvQueryExtension.3.bz2
 *   /usr/share/man/man3/XvQueryEncodings.3.bz2
 *   /usr/share/man/man3/XvQueryBestSize.3.bz2
 *   /usr/share/man/man3/XvQueryAdaptors.3.bz2
 *   ...
 * checking 31 files for package collisions
>>> Merging x11-libs/libXv-1.0.11-r1 to /
 * removing unneeded *.la files
--- /usr/
--- /usr/include/
--- /usr/include/X11/
--- /usr/include/X11/extensions/
>>> /usr/include/X11/extensions/Xvlib.h
--- /usr/lib64/
>>> /usr/lib64/libXv.so -> libXv.so.1.0.0
>>> /usr/lib64/libXv.so.1 -> libXv.so.1.0.0
>>> /usr/lib64/libXv.so.1.0.0
--- /usr/lib64/pkgconfig/
>>> /usr/lib64/pkgconfig/xv.pc
--- /usr/share/
--- /usr/share/man/
--- /usr/share/man/man3/
>>> /usr/share/man/man3/XvShmCreateImage.3
>>> /usr/share/man/man3/XvShmPutImage.3
>>> /usr/share/man/man3/XvFreeAdaptorInfo.3.bz2
>>> /usr/share/man/man3/XvGetStill.3.bz2
>>> /usr/share/man/man3/XvFreeEncodingInfo.3.bz2
>>> /usr/share/man/man3/XvGetPortAttribute.3.bz2
>>> /usr/share/man/man3/XvCreateImage.3.bz2
>>> /usr/share/man/man3/Xv.3.bz2
>>> /usr/share/man/man3/XvPutImage.3.bz2
>>> /usr/share/man/man3/XvListImageFormats.3.bz2
>>> /usr/share/man/man3/XvPortNotify.3.bz2
>>> /usr/share/man/man3/XvGrabPort.3.bz2
>>> /usr/share/man/man3/XvGetVideo.3.bz2
>>> /usr/share/man/man3/XvPutStill.3.bz2
>>> /usr/share/man/man3/XvQueryExtension.3.bz2
>>> /usr/share/man/man3/XvQueryBestSize.3.bz2
>>> /usr/share/man/man3/XvQueryAdaptors.3.bz2
>>> /usr/share/man/man3/XvQueryEncodings.3.bz2
>>> /usr/share/man/man3/XvPutVideo.3.bz2
>>> /usr/share/man/man3/XvSelectPortNotify.3.bz2
>>> /usr/share/man/man3/XvQueryPortAttributes.3.bz2
>>> /usr/share/man/man3/XvSelectVideoNotify.3.bz2
>>> /usr/share/man/man3/XvUngrabPort.3.bz2
>>> /usr/share/man/man3/XvStopVideo.3.bz2
>>> /usr/share/man/man3/XvSetPortAttribute.3.bz2
>>> /usr/share/man/man3/XvVideoNotify.3.bz2
>>> Safely unmerging already-installed instance...
>>> Original instance of package unmerged safely.
>>> x11-libs/libXv-1.0.11-r1 merged.
>>> Regenerating /etc/ld.so.cache...
