[32;01m * [39;49;00mPackage:    x11-drivers/xf86-video-vesa-2.4.0
[32;01m * [39;49;00mRepository: gentoo
[32;01m * [39;49;00mUSE:        userland_GNU kernel_linux elibc_glibc abi_x86_64 amd64
[32;01m * [39;49;00mFEATURES:   network-sandbox preserve-libs sandbox userpriv usersandbox
