No package files given... Grabbing a set.
--- replaced obj /usr/lib64/pkgconfig/xshmfence.pc
--- replaced dir /usr/lib64/pkgconfig
--- replaced obj /usr/lib64/libxshmfence.so.1.0.0
--- replaced sym /usr/lib64/libxshmfence.so.1
--- replaced sym /usr/lib64/libxshmfence.so
--- replaced dir /usr/lib64
--- replaced obj /usr/include/X11/xshmfence.h
--- replaced dir /usr/include/X11
--- replaced dir /usr/include
--- replaced dir /usr
>>> Regenerating /etc/ld.so.cache...
