No package files given... Grabbing a set.
--- replaced obj /usr/share/icons/hicolor/index.theme
--- replaced dir /usr/share/icons/hicolor
--- replaced dir /usr/share/icons
--- replaced dir /usr/share
--- replaced dir /usr
 * Updating icons cache ...
 [ ok ]
>>> Regenerating /etc/ld.so.cache...
