No package files given... Grabbing a set.
--- replaced sym /usr/share/sounds/freedesktop/stereo/window-question.oga
--- replaced sym /usr/share/sounds/freedesktop/stereo/window-attention.oga
--- replaced obj /usr/share/sounds/freedesktop/stereo/trash-empty.oga
--- replaced obj /usr/share/sounds/freedesktop/stereo/suspend-error.oga
--- replaced obj /usr/share/sounds/freedesktop/stereo/service-logout.oga
--- replaced obj /usr/share/sounds/freedesktop/stereo/service-login.oga
--- replaced sym /usr/share/sounds/freedesktop/stereo/screen-capture.oga
--- replaced sym /usr/share/sounds/freedesktop/stereo/power-unplug.oga
--- replaced sym /usr/share/sounds/freedesktop/stereo/power-plug.oga
--- replaced obj /usr/share/sounds/freedesktop/stereo/phone-outgoing-calling.oga
--- replaced obj /usr/share/sounds/freedesktop/stereo/phone-outgoing-busy.oga
--- replaced obj /usr/share/sounds/freedesktop/stereo/phone-incoming-call.oga
--- replaced sym /usr/share/sounds/freedesktop/stereo/network-connectivity-lost.oga
--- replaced sym /usr/share/sounds/freedesktop/stereo/network-connectivity-established.oga
--- replaced obj /usr/share/sounds/freedesktop/stereo/message.oga
--- replaced obj /usr/share/sounds/freedesktop/stereo/message-new-instant.oga
--- replaced obj /usr/share/sounds/freedesktop/stereo/dialog-warning.oga
--- replaced obj /usr/share/sounds/freedesktop/stereo/dialog-information.oga
--- replaced sym /usr/share/sounds/freedesktop/stereo/dialog-error.oga
--- replaced obj /usr/share/sounds/freedesktop/stereo/device-removed.oga
--- replaced obj /usr/share/sounds/freedesktop/stereo/device-added.oga
--- replaced obj /usr/share/sounds/freedesktop/stereo/complete.oga
--- replaced obj /usr/share/sounds/freedesktop/stereo/camera-shutter.oga
--- replaced obj /usr/share/sounds/freedesktop/stereo/bell.oga
--- replaced obj /usr/share/sounds/freedesktop/stereo/audio-volume-change.oga
--- replaced obj /usr/share/sounds/freedesktop/stereo/audio-test-signal.oga
--- replaced obj /usr/share/sounds/freedesktop/stereo/audio-channel-side-right.oga
--- replaced obj /usr/share/sounds/freedesktop/stereo/audio-channel-side-left.oga
--- replaced obj /usr/share/sounds/freedesktop/stereo/audio-channel-rear-right.oga
--- replaced obj /usr/share/sounds/freedesktop/stereo/audio-channel-rear-left.oga
--- replaced obj /usr/share/sounds/freedesktop/stereo/audio-channel-rear-center.oga
--- replaced obj /usr/share/sounds/freedesktop/stereo/audio-channel-front-right.oga
--- replaced obj /usr/share/sounds/freedesktop/stereo/audio-channel-front-left.oga
--- replaced obj /usr/share/sounds/freedesktop/stereo/audio-channel-front-center.oga
--- replaced obj /usr/share/sounds/freedesktop/stereo/alarm-clock-elapsed.oga
--- replaced dir /usr/share/sounds/freedesktop/stereo
--- replaced obj /usr/share/sounds/freedesktop/index.theme
--- replaced dir /usr/share/sounds/freedesktop
--- replaced dir /usr/share/sounds
--- replaced dir /usr/share
--- replaced dir /usr
>>> Regenerating /etc/ld.so.cache...
