No package files given... Grabbing a set.
--- replaced obj /usr/share/pkgconfig/xproto.pc
--- replaced obj /usr/share/pkgconfig/xineramaproto.pc
--- replaced obj /usr/share/pkgconfig/xf86vidmodeproto.pc
--- replaced obj /usr/share/pkgconfig/xf86driproto.pc
--- replaced obj /usr/share/pkgconfig/xf86dgaproto.pc
--- replaced obj /usr/share/pkgconfig/xf86bigfontproto.pc
--- replaced obj /usr/share/pkgconfig/xextproto.pc
--- replaced obj /usr/share/pkgconfig/xcmiscproto.pc
--- replaced obj /usr/share/pkgconfig/videoproto.pc
--- replaced obj /usr/share/pkgconfig/scrnsaverproto.pc
--- replaced obj /usr/share/pkgconfig/resourceproto.pc
--- replaced obj /usr/share/pkgconfig/renderproto.pc
--- replaced obj /usr/share/pkgconfig/recordproto.pc
--- replaced obj /usr/share/pkgconfig/randrproto.pc
--- replaced obj /usr/share/pkgconfig/presentproto.pc
--- replaced obj /usr/share/pkgconfig/kbproto.pc
--- replaced obj /usr/share/pkgconfig/inputproto.pc
--- replaced obj /usr/share/pkgconfig/glproto.pc
--- replaced obj /usr/share/pkgconfig/fontsproto.pc
--- replaced obj /usr/share/pkgconfig/fixesproto.pc
--- replaced obj /usr/share/pkgconfig/dri3proto.pc
--- replaced obj /usr/share/pkgconfig/dri2proto.pc
--- replaced obj /usr/share/pkgconfig/dpmsproto.pc
--- replaced obj /usr/share/pkgconfig/dmxproto.pc
--- replaced obj /usr/share/pkgconfig/damageproto.pc
--- replaced obj /usr/share/pkgconfig/compositeproto.pc
--- replaced obj /usr/share/pkgconfig/bigreqsproto.pc
--- replaced obj /usr/share/pkgconfig/applewmproto.pc
--- replaced dir /usr/share/pkgconfig
--- replaced dir /usr/share
--- replaced obj /usr/include/X11/keysymdef.h
--- replaced obj /usr/include/X11/keysym.h
--- replaced obj /usr/include/X11/fonts/fsmasks.h
--- replaced obj /usr/include/X11/fonts/fontstruct.h
--- replaced obj /usr/include/X11/fonts/fontproto.h
--- replaced obj /usr/include/X11/fonts/font.h
--- replaced obj /usr/include/X11/fonts/FSproto.h
--- replaced obj /usr/include/X11/fonts/FS.h
--- replaced dir /usr/include/X11/fonts
--- replaced obj /usr/include/X11/extensions/xtestproto.h
--- replaced obj /usr/include/X11/extensions/xtestext1proto.h
--- replaced obj /usr/include/X11/extensions/xtestext1const.h
--- replaced obj /usr/include/X11/extensions/xtestconst.h
--- replaced obj /usr/include/X11/extensions/xfixeswire.h
--- replaced obj /usr/include/X11/extensions/xfixesproto.h
--- replaced obj /usr/include/X11/extensions/xf86vmstr.h
--- replaced obj /usr/include/X11/extensions/xf86vmproto.h
--- replaced obj /usr/include/X11/extensions/xf86vm.h
--- replaced obj /usr/include/X11/extensions/xf86dgastr.h
--- replaced obj /usr/include/X11/extensions/xf86dgaproto.h
--- replaced obj /usr/include/X11/extensions/xf86dgaconst.h
--- replaced obj /usr/include/X11/extensions/xf86dga1str.h
--- replaced obj /usr/include/X11/extensions/xf86dga1proto.h
--- replaced obj /usr/include/X11/extensions/xf86dga1const.h
--- replaced obj /usr/include/X11/extensions/xf86dga.h
--- replaced obj /usr/include/X11/extensions/xf86bigfstr.h
--- replaced obj /usr/include/X11/extensions/xf86bigfproto.h
--- replaced obj /usr/include/X11/extensions/xf86bigfont.h
--- replaced obj /usr/include/X11/extensions/xcmiscstr.h
--- replaced obj /usr/include/X11/extensions/xcmiscproto.h
--- replaced obj /usr/include/X11/extensions/syncstr.h
--- replaced obj /usr/include/X11/extensions/syncproto.h
--- replaced obj /usr/include/X11/extensions/syncconst.h
--- replaced obj /usr/include/X11/extensions/shmstr.h
--- replaced obj /usr/include/X11/extensions/shmproto.h
--- replaced obj /usr/include/X11/extensions/shm.h
--- replaced obj /usr/include/X11/extensions/shapestr.h
--- replaced obj /usr/include/X11/extensions/shapeproto.h
--- replaced obj /usr/include/X11/extensions/shapeconst.h
--- replaced obj /usr/include/X11/extensions/securproto.h
--- replaced obj /usr/include/X11/extensions/secur.h
--- replaced obj /usr/include/X11/extensions/saverproto.h
--- replaced obj /usr/include/X11/extensions/saver.h
--- replaced obj /usr/include/X11/extensions/renderproto.h
--- replaced obj /usr/include/X11/extensions/render.h
--- replaced obj /usr/include/X11/extensions/recordstr.h
--- replaced obj /usr/include/X11/extensions/recordproto.h
--- replaced obj /usr/include/X11/extensions/recordconst.h
--- replaced obj /usr/include/X11/extensions/randrproto.h
--- replaced obj /usr/include/X11/extensions/randr.h
--- replaced obj /usr/include/X11/extensions/presenttokens.h
--- replaced obj /usr/include/X11/extensions/presentproto.h
--- replaced obj /usr/include/X11/extensions/panoramiXproto.h
--- replaced obj /usr/include/X11/extensions/multibufproto.h
--- replaced obj /usr/include/X11/extensions/multibufconst.h
--- replaced obj /usr/include/X11/extensions/mitmiscproto.h
--- replaced obj /usr/include/X11/extensions/mitmiscconst.h
--- replaced obj /usr/include/X11/extensions/lbxproto.h
--- replaced obj /usr/include/X11/extensions/lbx.h
--- replaced obj /usr/include/X11/extensions/geproto.h
--- replaced obj /usr/include/X11/extensions/ge.h
--- replaced obj /usr/include/X11/extensions/dri3proto.h
--- replaced obj /usr/include/X11/extensions/dri2tokens.h
--- replaced obj /usr/include/X11/extensions/dri2proto.h
--- replaced obj /usr/include/X11/extensions/dpmsproto.h
--- replaced obj /usr/include/X11/extensions/dpmsconst.h
--- replaced obj /usr/include/X11/extensions/dmxproto.h
--- replaced obj /usr/include/X11/extensions/dmx.h
--- replaced obj /usr/include/X11/extensions/dbeproto.h
--- replaced obj /usr/include/X11/extensions/dbe.h
--- replaced obj /usr/include/X11/extensions/damagewire.h
--- replaced obj /usr/include/X11/extensions/damageproto.h
--- replaced obj /usr/include/X11/extensions/cupproto.h
--- replaced obj /usr/include/X11/extensions/cup.h
--- replaced obj /usr/include/X11/extensions/compositeproto.h
--- replaced obj /usr/include/X11/extensions/composite.h
--- replaced obj /usr/include/X11/extensions/bigreqstr.h
--- replaced obj /usr/include/X11/extensions/bigreqsproto.h
--- replaced obj /usr/include/X11/extensions/applewmproto.h
--- replaced obj /usr/include/X11/extensions/applewmconst.h
--- replaced obj /usr/include/X11/extensions/agproto.h
--- replaced obj /usr/include/X11/extensions/ag.h
--- replaced obj /usr/include/X11/extensions/Xvproto.h
--- replaced obj /usr/include/X11/extensions/XvMCproto.h
--- replaced obj /usr/include/X11/extensions/XvMC.h
--- replaced obj /usr/include/X11/extensions/Xv.h
--- replaced obj /usr/include/X11/extensions/XResproto.h
--- replaced obj /usr/include/X11/extensions/XKBstr.h
--- replaced obj /usr/include/X11/extensions/XKBsrv.h
--- replaced obj /usr/include/X11/extensions/XKBproto.h
--- replaced obj /usr/include/X11/extensions/XKB.h
--- replaced obj /usr/include/X11/extensions/XIproto.h
--- replaced obj /usr/include/X11/extensions/XI2proto.h
--- replaced obj /usr/include/X11/extensions/XI2.h
--- replaced obj /usr/include/X11/extensions/XI.h
--- replaced obj /usr/include/X11/extensions/EVIproto.h
--- replaced obj /usr/include/X11/extensions/EVI.h
--- replaced dir /usr/include/X11/extensions
--- replaced obj /usr/include/X11/dri/xf86dristr.h
--- replaced obj /usr/include/X11/dri/xf86driproto.h
--- replaced obj /usr/include/X11/dri/xf86dri.h
--- replaced dir /usr/include/X11/dri
--- replaced obj /usr/include/X11/ap_keysym.h
--- replaced obj /usr/include/X11/Xwinsock.h
--- replaced obj /usr/include/X11/Xwindows.h
--- replaced obj /usr/include/X11/Xw32defs.h
--- replaced obj /usr/include/X11/Xthreads.h
--- replaced obj /usr/include/X11/Xprotostr.h
--- replaced obj /usr/include/X11/Xproto.h
--- replaced obj /usr/include/X11/Xpoll.h
--- replaced obj /usr/include/X11/Xosdefs.h
--- replaced obj /usr/include/X11/Xos_r.h
--- replaced obj /usr/include/X11/Xos.h
--- replaced obj /usr/include/X11/Xmd.h
--- replaced obj /usr/include/X11/Xfuncs.h
--- replaced obj /usr/include/X11/Xfuncproto.h
--- replaced obj /usr/include/X11/Xdefs.h
--- replaced obj /usr/include/X11/Xatom.h
--- replaced obj /usr/include/X11/Xarch.h
--- replaced obj /usr/include/X11/Xalloca.h
--- replaced obj /usr/include/X11/XWDFile.h
--- replaced obj /usr/include/X11/XF86keysym.h
--- replaced obj /usr/include/X11/X.h
--- replaced obj /usr/include/X11/Sunkeysym.h
--- replaced obj /usr/include/X11/HPkeysym.h
--- replaced obj /usr/include/X11/DECkeysym.h
--- replaced dir /usr/include/X11
--- replaced obj /usr/include/GL/internal/glcore.h
--- replaced dir /usr/include/GL/internal
--- replaced obj /usr/include/GL/glxtokens.h
--- replaced obj /usr/include/GL/glxproto.h
--- replaced obj /usr/include/GL/glxmd.h
--- replaced obj /usr/include/GL/glxint.h
--- replaced dir /usr/include/GL
--- replaced dir /usr/include
--- replaced dir /usr
>>> Regenerating /etc/ld.so.cache...
