 * Package:    x11-libs/xcb-util-0.4.0-r1
 * Repository: gentoo
 * Maintainer: x11@gentoo.org
 * USE:        abi_x86_64 amd64 elibc_glibc kernel_linux test userland_GNU
 * FEATURES:   ccache network-sandbox preserve-libs sandbox userpriv usersandbox
 * FEATURES='assume-digests binpkg-docompress binpkg-dostrip binpkg-logs binpkg-multi-instance buildpkg ccache compress-index config-protect-if-modified distlocks downgrade-backup fixlafiles ipc-sandbox merge-sync multilib-strict network-sandbox news nodoc parallel-fetch parallel-install pid-sandbox preserve-libs qa-unresolved-soname-deps sandbox sfperms strict unknown-features-warn unmerge-backup unmerge-logs unmerge-orphans userfetch userpriv usersandbox usersync xattr'
 * CFLAGS='-march=znver2 -O3 -fgraphite-identity -floop-nest-optimize -fdevirtualize-at-ltrans -fipa-pta -fno-semantic-interposition -flto=12 -fno-plt -fno-signed-zeros -fno-trapping-math -fassociative-math -freciprocal-math -fno-math-errno -ffinite-math-only -fno-rounding-math -fno-signaling-nans -fcx-limited-range -fexcess-precision=fast -falign-functions=32 -fno-stack-protector -fno-stack-clash-protection -fstack-check=no -fno-stack-check -fuse-linker-plugin -pipe -g0 -Wl,-O1 -Wl,--as-needed -Wl,-z,norelro -Wl,-z,now -Wl,--sort-common -s'
 * CXXFLAGS='-march=znver2 -O3 -fgraphite-identity -floop-nest-optimize -fdevirtualize-at-ltrans -fipa-pta -fno-semantic-interposition -flto=12 -fno-plt -fno-signed-zeros -fno-trapping-math -fassociative-math -freciprocal-math -fno-math-errno -ffinite-math-only -fno-rounding-math -fno-signaling-nans -fcx-limited-range -fexcess-precision=fast -falign-functions=32 -fno-stack-protector -fno-stack-clash-protection -fstack-check=no -fno-stack-check -fuse-linker-plugin -pipe -g0 -Wl,-O1 -Wl,--as-needed -Wl,-z,norelro -Wl,-z,now -Wl,--sort-common -s'
 * FFLAGS='-march=znver2 -O3 -fgraphite-identity -floop-nest-optimize -fdevirtualize-at-ltrans -fipa-pta -fno-semantic-interposition -flto=12 -fno-plt -fno-signed-zeros -fno-trapping-math -fassociative-math -freciprocal-math -fno-math-errno -ffinite-math-only -fno-rounding-math -fno-signaling-nans -fcx-limited-range -fexcess-precision=fast -falign-functions=32 -fno-stack-protector -fno-stack-clash-protection -fstack-check=no -fno-stack-check -fuse-linker-plugin -pipe -g0 -Wl,-O1 -Wl,--as-needed -Wl,-z,norelro -Wl,-z,now -Wl,--sort-common -s'
 * FCFLAGS='-march=znver2 -O3 -fgraphite-identity -floop-nest-optimize -fdevirtualize-at-ltrans -fipa-pta -fno-semantic-interposition -flto=12 -fno-plt -fno-signed-zeros -fno-trapping-math -fassociative-math -freciprocal-math -fno-math-errno -ffinite-math-only -fno-rounding-math -fno-signaling-nans -fcx-limited-range -fexcess-precision=fast -falign-functions=32 -fno-stack-protector -fno-stack-clash-protection -fstack-check=no -fno-stack-check -fuse-linker-plugin -pipe -g0 -Wl,-O1 -Wl,--as-needed -Wl,-z,norelro -Wl,-z,now -Wl,--sort-common -s'
 * F77FLAGS='-march=znver2 -O3 -fgraphite-identity -floop-nest-optimize -fdevirtualize-at-ltrans -fipa-pta -fno-semantic-interposition -flto=12 -fno-plt -fno-signed-zeros -fno-trapping-math -fassociative-math -freciprocal-math -fno-math-errno -ffinite-math-only -fno-rounding-math -fno-signaling-nans -fcx-limited-range -fexcess-precision=fast -falign-functions=32 -fno-stack-protector -fno-stack-clash-protection -fstack-check=no -fno-stack-check -fuse-linker-plugin -pipe -g0 -Wl,-O1 -Wl,--as-needed -Wl,-z,norelro -Wl,-z,now -Wl,--sort-common -s'
 * LDFLAGS='-Wl,-O1 -Wl,--as-needed -Wl,-z,norelro -Wl,-z,now -Wl,--sort-common -s -march=znver2 -O3 -fgraphite-identity -floop-nest-optimize -fdevirtualize-at-ltrans -fipa-pta -fno-semantic-interposition -flto=12 -fno-plt -fno-signed-zeros -fno-trapping-math -fassociative-math -freciprocal-math -fno-math-errno -ffinite-math-only -fno-rounding-math -fno-signaling-nans -fcx-limited-range -fexcess-precision=fast -falign-functions=32 -fno-stack-protector -fno-stack-clash-protection -fstack-check=no -fno-stack-check -fuse-linker-plugin -pipe -g0'
 * MAKEOPTS='-j12 -l12'
 * gcc () 11.0.0 20200530 (experimental)
 * g++ () 11.0.0 20200530 (experimental)
 * GNU ld (Gentoo 2.34 p4) 2.34.0
 * Linux ryzen.gnum.org 5.4.36 #1 SMP Thu Apr 30 04:38:28 UTC 2020 x86_64 AMD Ryzen 5 3600 6-Core Processor AuthenticAMD GNU/Linux
x11-libs/xcb-util: 11 seconds average for 10 merges
2020-05-15T12:49:00 >>> x11-libs/xcb-util: 13 seconds
2020-05-20T01:13:35 >>> x11-libs/xcb-util: 5 seconds
2020-05-25T14:57:25 >>> x11-libs/xcb-util: 4 seconds
2020-05-25T23:19:12 >>> x11-libs/xcb-util: 21 seconds
2020-05-26T14:27:10 >>> x11-libs/xcb-util: 14 seconds
2020-05-27T02:04:02 >>> x11-libs/xcb-util: 9 seconds
2020-05-28T03:38:14 >>> x11-libs/xcb-util: 10 seconds
2020-05-28T14:36:56 >>> x11-libs/xcb-util: 9 seconds
2020-05-29T01:55:40 >>> x11-libs/xcb-util: 6 seconds
2020-05-29T12:45:57 >>> x11-libs/xcb-util: 21 seconds
]0;emerge 23:52:49 1590875568:  === Unmerging... (media-libs/speexdsp-1.2_rc3-r2) xcb-util 00:12 (root@ryzen.gnum.org)kemerge 23:52:49 1590875568:  === Unmerging... (media-libs/speexdsp-1.2_rc3-r2) xcb-util 00:12 (root@ryzen.gnum.org)\>>> Unpacking source...
>>> Unpacking xcb-util-0.4.0.tar.bz2 to /tmp/portage/x11-libs/xcb-util-0.4.0-r1/work
>>> Source unpacked in /tmp/portage/x11-libs/xcb-util-0.4.0-r1/work
>>> Preparing source in /tmp/portage/x11-libs/xcb-util-0.4.0-r1/work/xcb-util-0.4.0 ...
 * Running elibtoolize in: xcb-util-0.4.0/
 *   Applying portage/1.2.0 patch ...
 *   Applying sed/1.5.6 patch ...
 *   Applying as-needed/2.4.2 patch ...
 *   Applying target-nm/2.4.2 patch ...
>>> Source prepared.
>>> Configuring source in /tmp/portage/x11-libs/xcb-util-0.4.0-r1/work/xcb-util-0.4.0 ...
 * abi_x86_64.amd64: running multilib-minimal_abi_src_configure
>>> Working in BUILD_DIR: "/tmp/portage/x11-libs/xcb-util-0.4.0-r1/work/xcb-util-0.4.0-abi_x86_64.amd64"
 * econf: updating xcb-util-0.4.0/config.guess with /usr/share/gnuconfig/config.guess
 * econf: updating xcb-util-0.4.0/config.sub with /usr/share/gnuconfig/config.sub
/tmp/portage/x11-libs/xcb-util-0.4.0-r1/work/xcb-util-0.4.0/configure --prefix=/usr --build=x86_64-pc-linux-gnu --host=x86_64-pc-linux-gnu --mandir=/usr/share/man --infodir=/usr/share/info --datadir=/usr/share --sysconfdir=/etc --localstatedir=/var/lib --disable-dependency-tracking --disable-silent-rules --libdir=/usr/lib64 --docdir=/usr/share/doc/xcb-util-0.4.0-r1 --enable-shared --disable-static --disable-selective-werror --without-doxygen
checking for a BSD-compatible install... /usr/lib/portage/python3.8/ebuild-helpers/xattr/install -c
checking whether build environment is sane... yes
checking for a thread-safe mkdir -p... /bin/mkdir -p
checking for gawk... gawk
checking whether make sets $(MAKE)... yes
checking whether make supports nested variables... yes
checking build system type... x86_64-pc-linux-gnu
checking host system type... x86_64-pc-linux-gnu
checking how to print strings... printf
checking for style of include used by make... GNU
checking for x86_64-pc-linux-gnu-gcc... x86_64-pc-linux-gnu-gcc
checking whether the C compiler works... yes
checking for C compiler default output file name... a.out
checking for suffix of executables... 
checking whether we are cross compiling... no
checking for suffix of object files... o
checking whether we are using the GNU C compiler... yes
checking whether x86_64-pc-linux-gnu-gcc accepts -g... yes
checking for x86_64-pc-linux-gnu-gcc option to accept ISO C89... none needed
checking whether x86_64-pc-linux-gnu-gcc understands -c and -o together... yes
checking dependency style of x86_64-pc-linux-gnu-gcc... none
checking for a sed that does not truncate output... /bin/sed
checking for grep that handles long lines and -e... /bin/grep
checking for egrep... /bin/grep -E
checking for fgrep... /bin/grep -F
checking for ld used by x86_64-pc-linux-gnu-gcc... /usr/x86_64-pc-linux-gnu/bin/ld
checking if the linker (/usr/x86_64-pc-linux-gnu/bin/ld) is GNU ld... yes
checking for BSD- or MS-compatible name lister (nm)... /usr/bin/x86_64-pc-linux-gnu-nm -B
checking the name lister (/usr/bin/x86_64-pc-linux-gnu-nm -B) interface... BSD nm
checking whether ln -s works... yes
checking the maximum length of command line arguments... 1572864
checking whether the shell understands some XSI constructs... yes
checking whether the shell understands "+="... yes
checking how to convert x86_64-pc-linux-gnu file names to x86_64-pc-linux-gnu format... func_convert_file_noop
checking how to convert x86_64-pc-linux-gnu file names to toolchain format... func_convert_file_noop
checking for /usr/x86_64-pc-linux-gnu/bin/ld option to reload object files... -r
checking for x86_64-pc-linux-gnu-objdump... x86_64-pc-linux-gnu-objdump
checking how to recognize dependent libraries... pass_all
checking for x86_64-pc-linux-gnu-dlltool... x86_64-pc-linux-gnu-dlltool
checking how to associate runtime and link libraries... printf %s\n
checking for x86_64-pc-linux-gnu-ar... x86_64-pc-linux-gnu-ar
checking for archiver @FILE support... @
checking for x86_64-pc-linux-gnu-strip... x86_64-pc-linux-gnu-strip
checking for x86_64-pc-linux-gnu-ranlib... x86_64-pc-linux-gnu-ranlib
checking command to parse /usr/bin/x86_64-pc-linux-gnu-nm -B output from x86_64-pc-linux-gnu-gcc object... ok
checking for sysroot... no
checking for x86_64-pc-linux-gnu-mt... no
checking for mt... no
checking if : is a manifest tool... no
checking how to run the C preprocessor... x86_64-pc-linux-gnu-gcc -E
checking for ANSI C header files... yes
checking for sys/types.h... yes
checking for sys/stat.h... yes
checking for stdlib.h... yes
checking for string.h... yes
checking for memory.h... yes
checking for strings.h... yes
checking for inttypes.h... yes
checking for stdint.h... yes
checking for unistd.h... yes
checking for dlfcn.h... yes
checking for objdir... .libs
checking if x86_64-pc-linux-gnu-gcc supports -fno-rtti -fno-exceptions... no
checking for x86_64-pc-linux-gnu-gcc option to produce PIC... -fPIC -DPIC
checking if x86_64-pc-linux-gnu-gcc PIC flag -fPIC -DPIC works... yes
checking if x86_64-pc-linux-gnu-gcc static flag -static works... yes
checking if x86_64-pc-linux-gnu-gcc supports -c -o file.o... yes
checking if x86_64-pc-linux-gnu-gcc supports -c -o file.o... (cached) yes
checking whether the x86_64-pc-linux-gnu-gcc linker (/usr/x86_64-pc-linux-gnu/bin/ld -m elf_x86_64) supports shared libraries... yes
checking whether -lc should be explicitly linked in... no
checking dynamic linker characteristics... GNU/Linux ld.so
checking how to hardcode library paths into programs... immediate
checking whether stripping libraries is possible... yes
checking if libtool supports shared libraries... yes
checking whether to build shared libraries... yes
checking whether to build static libraries... no
checking for x86_64-pc-linux-gnu-pkg-config... /usr/bin/x86_64-pc-linux-gnu-pkg-config
checking pkg-config is at least version 0.9.0... yes
checking for x86_64-pc-linux-gnu-gcc option to accept ISO C99... none needed
checking whether __clang__ is declared... no
checking whether __INTEL_COMPILER is declared... no
checking whether __SUNPRO_C is declared... no
checking for XCB... yes
checking whether libxcb was compiled against xcb-proto >= 1.6... checking for gawk... (cached) gawk
yes
checking if x86_64-pc-linux-gnu-gcc supports -Werror=unknown-warning-option... no
checking if x86_64-pc-linux-gnu-gcc supports -Werror=unused-command-line-argument... no
checking if x86_64-pc-linux-gnu-gcc supports -Wall... yes
checking if x86_64-pc-linux-gnu-gcc supports -Wpointer-arith... yes
checking if x86_64-pc-linux-gnu-gcc supports -Wmissing-declarations... yes
checking if x86_64-pc-linux-gnu-gcc supports -Wformat=2... yes
checking if x86_64-pc-linux-gnu-gcc supports -Wstrict-prototypes... yes
checking if x86_64-pc-linux-gnu-gcc supports -Wmissing-prototypes... yes
checking if x86_64-pc-linux-gnu-gcc supports -Wnested-externs... yes
checking if x86_64-pc-linux-gnu-gcc supports -Wbad-function-cast... yes
checking if x86_64-pc-linux-gnu-gcc supports -Wold-style-definition... yes
checking if x86_64-pc-linux-gnu-gcc supports -Wdeclaration-after-statement... yes
checking if x86_64-pc-linux-gnu-gcc supports -Wunused... yes
checking if x86_64-pc-linux-gnu-gcc supports -Wuninitialized... yes
checking if x86_64-pc-linux-gnu-gcc supports -Wshadow... yes
checking if x86_64-pc-linux-gnu-gcc supports -Wmissing-noreturn... yes
checking if x86_64-pc-linux-gnu-gcc supports -Wmissing-format-attribute... yes
checking if x86_64-pc-linux-gnu-gcc supports -Wredundant-decls... yes
checking if x86_64-pc-linux-gnu-gcc supports -Wlogical-op... yes
configure: WARNING: You have chosen not to turn some select compiler warnings into errors.  This should not be necessary.  Please report why you needed to do so in a bug report at https://bugs.freedesktop.org/enter_bug.cgi?product=xcb&component=Utils
checking if x86_64-pc-linux-gnu-gcc supports -Wimplicit... yes
checking if x86_64-pc-linux-gnu-gcc supports -Wnonnull... yes
checking if x86_64-pc-linux-gnu-gcc supports -Winit-self... yes
checking if x86_64-pc-linux-gnu-gcc supports -Wmain... yes
checking if x86_64-pc-linux-gnu-gcc supports -Wmissing-braces... yes
checking if x86_64-pc-linux-gnu-gcc supports -Wsequence-point... yes
checking if x86_64-pc-linux-gnu-gcc supports -Wreturn-type... yes
checking if x86_64-pc-linux-gnu-gcc supports -Wtrigraphs... yes
checking if x86_64-pc-linux-gnu-gcc supports -Warray-bounds... yes
checking if x86_64-pc-linux-gnu-gcc supports -Wwrite-strings... yes
checking if x86_64-pc-linux-gnu-gcc supports -Waddress... yes
checking if x86_64-pc-linux-gnu-gcc supports -Wint-to-pointer-cast... yes
checking if x86_64-pc-linux-gnu-gcc supports -Wpointer-to-int-cast... yes
checking if x86_64-pc-linux-gnu-gcc supports -pedantic... yes
checking if x86_64-pc-linux-gnu-gcc supports -Werror... yes
checking if x86_64-pc-linux-gnu-gcc supports -Werror=attributes... yes
checking whether make supports nested variables... (cached) yes
checking whether to build developer documentation... yes
checking for vasprintf... yes
checking that generated files are newer than configure... done
configure: creating ./config.status
config.status: creating Makefile
config.status: creating src/Makefile
config.status: creating xcb-atom.pc
config.status: creating xcb-aux.pc
config.status: creating xcb-event.pc
config.status: creating xcb-util.pc
config.status: creating config.h
config.status: executing depfiles commands
config.status: executing libtool commands
>>> Source configured.
>>> Compiling source in /tmp/portage/x11-libs/xcb-util-0.4.0-r1/work/xcb-util-0.4.0 ...
 * abi_x86_64.amd64: running multilib-minimal_abi_src_compile
make -j12 -l12 
make  all-recursive
make[1]: Entering directory '/tmp/portage/x11-libs/xcb-util-0.4.0-r1/work/xcb-util-0.4.0-abi_x86_64.amd64'
Making all in src
make[2]: Entering directory '/tmp/portage/x11-libs/xcb-util-0.4.0-r1/work/xcb-util-0.4.0-abi_x86_64.amd64/src'
/bin/sh ../libtool  --tag=CC   --mode=compile x86_64-pc-linux-gnu-gcc -DHAVE_CONFIG_H -I. -I/tmp/portage/x11-libs/xcb-util-0.4.0-r1/work/xcb-util-0.4.0/src -I..    -Wall -Wpointer-arith -Wmissing-declarations -Wformat=2 -Wstrict-prototypes -Wmissing-prototypes -Wnested-externs -Wbad-function-cast -Wold-style-definition -Wdeclaration-after-statement -Wunused -Wuninitialized -Wshadow -Wmissing-noreturn -Wmissing-format-attribute -Wredundant-decls -Wlogical-op -Wimplicit -Wnonnull -Winit-self -Wmain -Wmissing-braces -Wsequence-point -Wreturn-type -Wtrigraphs -Warray-bounds -Wwrite-strings -Waddress -Wint-to-pointer-cast -Wpointer-to-int-cast -fno-strict-aliasing -march=znver2 -O3 -fgraphite-identity -floop-nest-optimize -fdevirtualize-at-ltrans -fipa-pta -fno-semantic-interposition -flto=12 -fno-plt -fno-signed-zeros -fno-trapping-math -fassociative-math -freciprocal-math -fno-math-errno -ffinite-math-only -fno-rounding-math -fno-signaling-nans -fcx-limited-range -fexcess-precision=fast -falign-functions=32 -fno-stack-protector -fno-stack-clash-protection -fstack-check=no -fno-stack-check -fuse-linker-plugin -pipe -g0 -Wl,-O1 -Wl,--as-needed -Wl,-z,norelro -Wl,-z,now -Wl,--sort-common -s -c -o atoms.lo /tmp/portage/x11-libs/xcb-util-0.4.0-r1/work/xcb-util-0.4.0/src/atoms.c
/bin/sh ../libtool  --tag=CC   --mode=compile x86_64-pc-linux-gnu-gcc -DHAVE_CONFIG_H -I. -I/tmp/portage/x11-libs/xcb-util-0.4.0-r1/work/xcb-util-0.4.0/src -I..    -Wall -Wpointer-arith -Wmissing-declarations -Wformat=2 -Wstrict-prototypes -Wmissing-prototypes -Wnested-externs -Wbad-function-cast -Wold-style-definition -Wdeclaration-after-statement -Wunused -Wuninitialized -Wshadow -Wmissing-noreturn -Wmissing-format-attribute -Wredundant-decls -Wlogical-op -Wimplicit -Wnonnull -Winit-self -Wmain -Wmissing-braces -Wsequence-point -Wreturn-type -Wtrigraphs -Warray-bounds -Wwrite-strings -Waddress -Wint-to-pointer-cast -Wpointer-to-int-cast -fno-strict-aliasing -march=znver2 -O3 -fgraphite-identity -floop-nest-optimize -fdevirtualize-at-ltrans -fipa-pta -fno-semantic-interposition -flto=12 -fno-plt -fno-signed-zeros -fno-trapping-math -fassociative-math -freciprocal-math -fno-math-errno -ffinite-math-only -fno-rounding-math -fno-signaling-nans -fcx-limited-range -fexcess-precision=fast -falign-functions=32 -fno-stack-protector -fno-stack-clash-protection -fstack-check=no -fno-stack-check -fuse-linker-plugin -pipe -g0 -Wl,-O1 -Wl,--as-needed -Wl,-z,norelro -Wl,-z,now -Wl,--sort-common -s -c -o event.lo /tmp/portage/x11-libs/xcb-util-0.4.0-r1/work/xcb-util-0.4.0/src/event.c
/bin/sh ../libtool  --tag=CC   --mode=compile x86_64-pc-linux-gnu-gcc -DHAVE_CONFIG_H -I. -I/tmp/portage/x11-libs/xcb-util-0.4.0-r1/work/xcb-util-0.4.0/src -I..    -Wall -Wpointer-arith -Wmissing-declarations -Wformat=2 -Wstrict-prototypes -Wmissing-prototypes -Wnested-externs -Wbad-function-cast -Wold-style-definition -Wdeclaration-after-statement -Wunused -Wuninitialized -Wshadow -Wmissing-noreturn -Wmissing-format-attribute -Wredundant-decls -Wlogical-op -Wimplicit -Wnonnull -Winit-self -Wmain -Wmissing-braces -Wsequence-point -Wreturn-type -Wtrigraphs -Warray-bounds -Wwrite-strings -Waddress -Wint-to-pointer-cast -Wpointer-to-int-cast -fno-strict-aliasing -march=znver2 -O3 -fgraphite-identity -floop-nest-optimize -fdevirtualize-at-ltrans -fipa-pta -fno-semantic-interposition -flto=12 -fno-plt -fno-signed-zeros -fno-trapping-math -fassociative-math -freciprocal-math -fno-math-errno -ffinite-math-only -fno-rounding-math -fno-signaling-nans -fcx-limited-range -fexcess-precision=fast -falign-functions=32 -fno-stack-protector -fno-stack-clash-protection -fstack-check=no -fno-stack-check -fuse-linker-plugin -pipe -g0 -Wl,-O1 -Wl,--as-needed -Wl,-z,norelro -Wl,-z,now -Wl,--sort-common -s -c -o xcb_aux.lo /tmp/portage/x11-libs/xcb-util-0.4.0-r1/work/xcb-util-0.4.0/src/xcb_aux.c
libtool: compile:  x86_64-pc-linux-gnu-gcc -DHAVE_CONFIG_H -I. -I/tmp/portage/x11-libs/xcb-util-0.4.0-r1/work/xcb-util-0.4.0/src -I.. -Wall -Wpointer-arith -Wmissing-declarations -Wformat=2 -Wstrict-prototypes -Wmissing-prototypes -Wnested-externs -Wbad-function-cast -Wold-style-definition -Wdeclaration-after-statement -Wunused -Wuninitialized -Wshadow -Wmissing-noreturn -Wmissing-format-attribute -Wredundant-decls -Wlogical-op -Wimplicit -Wnonnull -Winit-self -Wmain -Wmissing-braces -Wsequence-point -Wreturn-type -Wtrigraphs -Warray-bounds -Wwrite-strings -Waddress -Wint-to-pointer-cast -Wpointer-to-int-cast -fno-strict-aliasing -march=znver2 -O3 -fgraphite-identity -floop-nest-optimize -fdevirtualize-at-ltrans -fipa-pta -fno-semantic-interposition -flto=12 -fno-plt -fno-signed-zeros -fno-trapping-math -fassociative-math -freciprocal-math -fno-math-errno -ffinite-math-only -fno-rounding-math -fno-signaling-nans -fcx-limited-range -fexcess-precision=fast -falign-functions=32 -fno-stack-protector -fno-stack-clash-protection -fstack-check=no -fno-stack-check -fuse-linker-plugin -pipe -g0 -Wl,-O1 -Wl,--as-needed -Wl,-z,norelro -Wl,-z,now -Wl,--sort-common -s -c /tmp/portage/x11-libs/xcb-util-0.4.0-r1/work/xcb-util-0.4.0/src/xcb_aux.c  -fPIC -DPIC -o .libs/xcb_aux.o
libtool: compile:  x86_64-pc-linux-gnu-gcc -DHAVE_CONFIG_H -I. -I/tmp/portage/x11-libs/xcb-util-0.4.0-r1/work/xcb-util-0.4.0/src -I.. -Wall -Wpointer-arith -Wmissing-declarations -Wformat=2 -Wstrict-prototypes -Wmissing-prototypes -Wnested-externs -Wbad-function-cast -Wold-style-definition -Wdeclaration-after-statement -Wunused -Wuninitialized -Wshadow -Wmissing-noreturn -Wmissing-format-attribute -Wredundant-decls -Wlogical-op -Wimplicit -Wnonnull -Winit-self -Wmain -Wmissing-braces -Wsequence-point -Wreturn-type -Wtrigraphs -Warray-bounds -Wwrite-strings -Waddress -Wint-to-pointer-cast -Wpointer-to-int-cast -fno-strict-aliasing -march=znver2 -O3 -fgraphite-identity -floop-nest-optimize -fdevirtualize-at-ltrans -fipa-pta -fno-semantic-interposition -flto=12 -fno-plt -fno-signed-zeros -fno-trapping-math -fassociative-math -freciprocal-math -fno-math-errno -ffinite-math-only -fno-rounding-math -fno-signaling-nans -fcx-limited-range -fexcess-precision=fast -falign-functions=32 -fno-stack-protector -fno-stack-clash-protection -fstack-check=no -fno-stack-check -fuse-linker-plugin -pipe -g0 -Wl,-O1 -Wl,--as-needed -Wl,-z,norelro -Wl,-z,now -Wl,--sort-common -s -c /tmp/portage/x11-libs/xcb-util-0.4.0-r1/work/xcb-util-0.4.0/src/event.c  -fPIC -DPIC -o .libs/event.o
libtool: compile:  x86_64-pc-linux-gnu-gcc -DHAVE_CONFIG_H -I. -I/tmp/portage/x11-libs/xcb-util-0.4.0-r1/work/xcb-util-0.4.0/src -I.. -Wall -Wpointer-arith -Wmissing-declarations -Wformat=2 -Wstrict-prototypes -Wmissing-prototypes -Wnested-externs -Wbad-function-cast -Wold-style-definition -Wdeclaration-after-statement -Wunused -Wuninitialized -Wshadow -Wmissing-noreturn -Wmissing-format-attribute -Wredundant-decls -Wlogical-op -Wimplicit -Wnonnull -Winit-self -Wmain -Wmissing-braces -Wsequence-point -Wreturn-type -Wtrigraphs -Warray-bounds -Wwrite-strings -Waddress -Wint-to-pointer-cast -Wpointer-to-int-cast -fno-strict-aliasing -march=znver2 -O3 -fgraphite-identity -floop-nest-optimize -fdevirtualize-at-ltrans -fipa-pta -fno-semantic-interposition -flto=12 -fno-plt -fno-signed-zeros -fno-trapping-math -fassociative-math -freciprocal-math -fno-math-errno -ffinite-math-only -fno-rounding-math -fno-signaling-nans -fcx-limited-range -fexcess-precision=fast -falign-functions=32 -fno-stack-protector -fno-stack-clash-protection -fstack-check=no -fno-stack-check -fuse-linker-plugin -pipe -g0 -Wl,-O1 -Wl,--as-needed -Wl,-z,norelro -Wl,-z,now -Wl,--sort-common -s -c /tmp/portage/x11-libs/xcb-util-0.4.0-r1/work/xcb-util-0.4.0/src/atoms.c  -fPIC -DPIC -o .libs/atoms.o
../../xcb-util-0.4.0/src/atoms.c: In function 'makename':
../../xcb-util-0.4.0/src/atoms.c:53:2: warning: function 'makename' might be a candidate for 'gnu_printf' format attribute [-Wsuggest-attribute=format]
   53 |  n = vasprintf(&ret, fmt, ap);
      |  ^
/bin/sh ../libtool  --tag=CC   --mode=link x86_64-pc-linux-gnu-gcc -Wall -Wpointer-arith -Wmissing-declarations -Wformat=2 -Wstrict-prototypes -Wmissing-prototypes -Wnested-externs -Wbad-function-cast -Wold-style-definition -Wdeclaration-after-statement -Wunused -Wuninitialized -Wshadow -Wmissing-noreturn -Wmissing-format-attribute -Wredundant-decls -Wlogical-op -Wimplicit -Wnonnull -Winit-self -Wmain -Wmissing-braces -Wsequence-point -Wreturn-type -Wtrigraphs -Warray-bounds -Wwrite-strings -Waddress -Wint-to-pointer-cast -Wpointer-to-int-cast -fno-strict-aliasing -march=znver2 -O3 -fgraphite-identity -floop-nest-optimize -fdevirtualize-at-ltrans -fipa-pta -fno-semantic-interposition -flto=12 -fno-plt -fno-signed-zeros -fno-trapping-math -fassociative-math -freciprocal-math -fno-math-errno -ffinite-math-only -fno-rounding-math -fno-signaling-nans -fcx-limited-range -fexcess-precision=fast -falign-functions=32 -fno-stack-protector -fno-stack-clash-protection -fstack-check=no -fno-stack-check -fuse-linker-plugin -pipe -g0 -Wl,-O1 -Wl,--as-needed -Wl,-z,norelro -Wl,-z,now -Wl,--sort-common -s -version-info 1:0:0 -no-undefined -Wl,-O1 -Wl,--as-needed -Wl,-z,norelro -Wl,-z,now -Wl,--sort-common -s -march=znver2 -O3 -fgraphite-identity -floop-nest-optimize -fdevirtualize-at-ltrans -fipa-pta -fno-semantic-interposition -flto=12 -fno-plt -fno-signed-zeros -fno-trapping-math -fassociative-math -freciprocal-math -fno-math-errno -ffinite-math-only -fno-rounding-math -fno-signaling-nans -fcx-limited-range -fexcess-precision=fast -falign-functions=32 -fno-stack-protector -fno-stack-clash-protection -fstack-check=no -fno-stack-check -fuse-linker-plugin -pipe -g0 -o libxcb-util.la -rpath /usr/lib64 atoms.lo event.lo xcb_aux.lo -lxcb 
libtool: link: x86_64-pc-linux-gnu-gcc -shared  -fPIC -DPIC  .libs/atoms.o .libs/event.o .libs/xcb_aux.o   -Wl,--as-needed -lxcb  -march=znver2 -O3 -flto=12 -fuse-linker-plugin -Wl,-O1 -Wl,-z -Wl,norelro -Wl,-z -Wl,now -Wl,--sort-common -Wl,-O1 -Wl,-z -Wl,norelro -Wl,-z -Wl,now -Wl,--sort-common -march=znver2 -O3 -flto=12 -fuse-linker-plugin   -Wl,-soname -Wl,libxcb-util.so.1 -o .libs/libxcb-util.so.1.0.0
libtool: link: (cd ".libs" && rm -f "libxcb-util.so.1" && ln -s "libxcb-util.so.1.0.0" "libxcb-util.so.1")
libtool: link: (cd ".libs" && rm -f "libxcb-util.so" && ln -s "libxcb-util.so.1.0.0" "libxcb-util.so")
libtool: link: ( cd ".libs" && rm -f "libxcb-util.la" && ln -s "../libxcb-util.la" "libxcb-util.la" )
make[2]: Leaving directory '/tmp/portage/x11-libs/xcb-util-0.4.0-r1/work/xcb-util-0.4.0-abi_x86_64.amd64/src'
make[2]: Entering directory '/tmp/portage/x11-libs/xcb-util-0.4.0-r1/work/xcb-util-0.4.0-abi_x86_64.amd64'
make[2]: Leaving directory '/tmp/portage/x11-libs/xcb-util-0.4.0-r1/work/xcb-util-0.4.0-abi_x86_64.amd64'
make[1]: Leaving directory '/tmp/portage/x11-libs/xcb-util-0.4.0-r1/work/xcb-util-0.4.0-abi_x86_64.amd64'
>>> Source compiled.
>>> Test phase [not enabled]: x11-libs/xcb-util-0.4.0-r1

>>> Install x11-libs/xcb-util-0.4.0-r1 into /tmp/portage/x11-libs/xcb-util-0.4.0-r1/image/
 * abi_x86_64.amd64: running multilib-minimal_abi_src_install
make -j12 -l12 DESTDIR=/tmp/portage/x11-libs/xcb-util-0.4.0-r1/image/ docdir=/usr/share/doc/xcb-util-0.4.0-r1 install 
Making install in src
make[1]: Entering directory '/tmp/portage/x11-libs/xcb-util-0.4.0-r1/work/xcb-util-0.4.0-abi_x86_64.amd64/src'
make[2]: Entering directory '/tmp/portage/x11-libs/xcb-util-0.4.0-r1/work/xcb-util-0.4.0-abi_x86_64.amd64/src'
 /bin/mkdir -p '/tmp/portage/x11-libs/xcb-util-0.4.0-r1/image//usr/lib64'
 /bin/mkdir -p '/tmp/portage/x11-libs/xcb-util-0.4.0-r1/image//usr/include/xcb'
 /bin/sh ../libtool   --mode=install /usr/lib/portage/python3.8/ebuild-helpers/xattr/install -c   libxcb-util.la '/tmp/portage/x11-libs/xcb-util-0.4.0-r1/image//usr/lib64'
 /usr/lib/portage/python3.8/ebuild-helpers/xattr/install -c -m 644 /tmp/portage/x11-libs/xcb-util-0.4.0-r1/work/xcb-util-0.4.0/src/xcb_util.h /tmp/portage/x11-libs/xcb-util-0.4.0-r1/work/xcb-util-0.4.0/src/xcb_atom.h /tmp/portage/x11-libs/xcb-util-0.4.0-r1/work/xcb-util-0.4.0/src/xcb_aux.h /tmp/portage/x11-libs/xcb-util-0.4.0-r1/work/xcb-util-0.4.0/src/xcb_event.h '/tmp/portage/x11-libs/xcb-util-0.4.0-r1/image//usr/include/xcb'
libtool: install: /usr/lib/portage/python3.8/ebuild-helpers/xattr/install -c .libs/libxcb-util.so.1.0.0 /tmp/portage/x11-libs/xcb-util-0.4.0-r1/image//usr/lib64/libxcb-util.so.1.0.0
libtool: install: (cd /tmp/portage/x11-libs/xcb-util-0.4.0-r1/image//usr/lib64 && { ln -s -f libxcb-util.so.1.0.0 libxcb-util.so.1 || { rm -f libxcb-util.so.1 && ln -s libxcb-util.so.1.0.0 libxcb-util.so.1; }; })
libtool: install: (cd /tmp/portage/x11-libs/xcb-util-0.4.0-r1/image//usr/lib64 && { ln -s -f libxcb-util.so.1.0.0 libxcb-util.so || { rm -f libxcb-util.so && ln -s libxcb-util.so.1.0.0 libxcb-util.so; }; })
libtool: install: /usr/lib/portage/python3.8/ebuild-helpers/xattr/install -c .libs/libxcb-util.lai /tmp/portage/x11-libs/xcb-util-0.4.0-r1/image//usr/lib64/libxcb-util.la
libtool: install: warning: remember to run `libtool --finish /usr/lib64'
make[2]: Leaving directory '/tmp/portage/x11-libs/xcb-util-0.4.0-r1/work/xcb-util-0.4.0-abi_x86_64.amd64/src'
make[1]: Leaving directory '/tmp/portage/x11-libs/xcb-util-0.4.0-r1/work/xcb-util-0.4.0-abi_x86_64.amd64/src'
make[1]: Entering directory '/tmp/portage/x11-libs/xcb-util-0.4.0-r1/work/xcb-util-0.4.0-abi_x86_64.amd64'
make[2]: Entering directory '/tmp/portage/x11-libs/xcb-util-0.4.0-r1/work/xcb-util-0.4.0-abi_x86_64.amd64'
make[2]: Nothing to be done for 'install-exec-am'.
 /bin/mkdir -p '/tmp/portage/x11-libs/xcb-util-0.4.0-r1/image//usr/lib64/pkgconfig'
 /usr/lib/portage/python3.8/ebuild-helpers/xattr/install -c -m 644 xcb-atom.pc xcb-aux.pc xcb-event.pc xcb-util.pc '/tmp/portage/x11-libs/xcb-util-0.4.0-r1/image//usr/lib64/pkgconfig'
make[2]: Leaving directory '/tmp/portage/x11-libs/xcb-util-0.4.0-r1/work/xcb-util-0.4.0-abi_x86_64.amd64'
make[1]: Leaving directory '/tmp/portage/x11-libs/xcb-util-0.4.0-r1/work/xcb-util-0.4.0-abi_x86_64.amd64'
 * Removing unnecessary /usr/lib64/libxcb-util.la (no static archive)
>>> Completed installing x11-libs/xcb-util-0.4.0-r1 into /tmp/portage/x11-libs/xcb-util-0.4.0-r1/image/

 * Final size of build directory: 2356 KiB (2.3 MiB)
 * Final size of installed tree:   144 KiB

strip: x86_64-pc-linux-gnu-strip --strip-unneeded -N __gentoo_check_ldflags__ -R .comment -R .GCC.command.line -R .note.gnu.gold-version
   /usr/lib64/libxcb-util.so.1.0.0
./
./usr/
./usr/include/
./usr/include/xcb/
./usr/include/xcb/xcb_util.h
./usr/include/xcb/xcb_event.h
./usr/include/xcb/xcb_aux.h
./usr/include/xcb/xcb_atom.h
./usr/share/
./usr/share/doc/
./usr/share/doc/xcb-util-0.4.0-r1/
./usr/share/doc/xcb-util-0.4.0-r1/README.bz2
./usr/share/doc/xcb-util-0.4.0-r1/ChangeLog.bz2
./usr/share/doc/xcb-util-0.4.0-r1/NEWS.bz2
./usr/lib64/
./usr/lib64/libxcb-util.so
./usr/lib64/libxcb-util.so.1.0.0
./usr/lib64/libxcb-util.so.1
./usr/lib64/pkgconfig/
./usr/lib64/pkgconfig/xcb-atom.pc
./usr/lib64/pkgconfig/xcb-aux.pc
./usr/lib64/pkgconfig/xcb-event.pc
./usr/lib64/pkgconfig/xcb-util.pc
>>> Done.
 * checking 11 files for package collisions
[32;01m * [39;49;00mBuilding package for x11-libs/xcb-util-0.4.0-r1 ...                   [34;01m[ [39;49;00m[32;01mok[39;49;00m[34;01m ][39;49;00m
[32;01m * [39;49;00mPackages now in '/usr/portage/packages':
[32;01m * [39;49;00mx11-libs/xcb-util-0.4.0-r1: 52.5K

>>> Merging x11-libs/xcb-util-0.4.0-r1 to /
 * removing unneeded *.la files
--- /usr/
--- /usr/lib64/
--- /usr/lib64/pkgconfig/
>>> /usr/lib64/pkgconfig/xcb-util.pc
>>> /usr/lib64/pkgconfig/xcb-event.pc
>>> /usr/lib64/pkgconfig/xcb-aux.pc
>>> /usr/lib64/pkgconfig/xcb-atom.pc
>>> /usr/lib64/libxcb-util.so.1 -> libxcb-util.so.1.0.0
>>> /usr/lib64/libxcb-util.so.1.0.0
>>> /usr/lib64/libxcb-util.so -> libxcb-util.so.1.0.0
--- /usr/include/
--- /usr/include/xcb/
>>> /usr/include/xcb/xcb_atom.h
>>> /usr/include/xcb/xcb_aux.h
>>> /usr/include/xcb/xcb_event.h
>>> /usr/include/xcb/xcb_util.h
>>> Safely unmerging already-installed instance...
>>> Original instance of package unmerged safely.
>>> x11-libs/xcb-util-0.4.0-r1 merged.
>>> Regenerating /etc/ld.so.cache...
