>>> Extracting info
 * Package:    x11-libs/libXaw-1.0.13-r1
 * Repository: gentoo
 * USE:        kernel_linux userland_GNU elibc_glibc amd64 abi_x86_64
 * FEATURES:   network-sandbox preserve-libs sandbox userpriv usersandbox
 * FEATURES='assume-digests binpkg-docompress binpkg-dostrip binpkg-logs buildpkg cgroup compress-index config-protect-if-modified distlocks ebuild-locks fixlafiles ipc-sandbox merge-sync multilib-strict network-sandbox news nodoc parallel-fetch pid-sandbox preserve-libs qa-unresolved-soname-deps sandbox sfperms strict strict-keepdir unknown-features-warn unmerge-logs unmerge-orphans userfetch userpriv usersandbox usersync xattr'
 * CFLAGS='-march=znver2 -O2 -pipe -fno-stack-protector -fno-stack-clash-protection -fstack-check=no -fno-stack-check -Wl,-O1 -Wl,--as-needed'
 * CXXFLAGS='-march=znver2 -O2 -pipe -fno-stack-protector -fno-stack-clash-protection -fstack-check=no -fno-stack-check -Wl,-O1 -Wl,--as-needed'
 * FFLAGS='-march=znver2 -O2 -pipe -fno-stack-protector -fno-stack-clash-protection -fstack-check=no -fno-stack-check -Wl,-O1 -Wl,--as-needed'
 * FCFLAGS='-march=znver2 -O2 -pipe -fno-stack-protector -fno-stack-clash-protection -fstack-check=no -fno-stack-check -Wl,-O1 -Wl,--as-needed'
 * F77FLAGS='-march=znver2 -O2 -pipe -fno-stack-protector -fno-stack-clash-protection -fstack-check=no -fno-stack-check -Wl,-O1 -Wl,--as-needed'
 * LDFLAGS='-Wl,-O1 -Wl,--as-needed'
 * MAKEOPTS='-j12 -l12'
 * gcc (Gentoo 10.1.0-r1 p2) 10.1.0
 * g++ (Gentoo 10.1.0-r1 p2) 10.1.0
 * GNU gold (Gentoo 2.34 p4 2.34.0) 1.16
 * Linux rescue 5.4.36 #1 SMP Thu Apr 30 04:38:28 UTC 2020 x86_64 AMD Ryzen 5 3600 6-Core Processor AuthenticAMD GNU/Linux
x11-libs/libXaw: 12 seconds average for 10 merges
2020-05-15T10:31:17 >>> x11-libs/libXaw: 16 seconds
2020-05-20T02:00:07 >>> x11-libs/libXaw: 6 seconds
2020-05-25T15:03:22 >>> x11-libs/libXaw: 5 seconds
2020-05-26T00:22:43 >>> x11-libs/libXaw: 23 seconds
2020-05-27T02:16:55 >>> x11-libs/libXaw: 6 seconds
2020-05-29T02:24:41 >>> x11-libs/libXaw: 6 seconds
2020-05-30T13:51:32 >>> x11-libs/libXaw: 25 seconds
2020-06-01T03:12:26 >>> x11-libs/libXaw: 25 seconds
2020-06-12T02:07:20 >>> x11-libs/libXaw: 7 seconds
2020-06-13T20:47:01 >>> x11-libs/libXaw: 6 seconds
]0;emerge 14:22:48 462|565 libXaw 00:13 (root@rescue)>>> Extracting x11-libs/libXaw-1.0.13-r1
 * checking 79 files for package collisions
>>> Merging x11-libs/libXaw-1.0.13-r1 to /
 * removing unneeded *.la files
--- /usr/
--- /usr/lib64/
--- /usr/lib64/pkgconfig/
>>> /usr/lib64/pkgconfig/xaw7.pc
>>> /usr/lib64/libXaw.so -> libXaw7.so
>>> /usr/lib64/libXaw7.so -> libXaw7.so.7.0.0
>>> /usr/lib64/libXaw7.so.7 -> libXaw7.so.7.0.0
>>> /usr/lib64/libXaw.so.7 -> libXaw7.so.7
>>> /usr/lib64/libXaw7.so.7.0.0
--- /usr/share/
--- /usr/share/man/
--- /usr/share/man/man3/
>>> /usr/share/man/man3/Xaw.3.bz2
>>> /usr/share/man/man3/Xaw.3
--- /usr/include/
--- /usr/include/X11/
--- /usr/include/X11/Xaw/
>>> /usr/include/X11/Xaw/Dialog.h
>>> /usr/include/X11/Xaw/GripP.h
>>> /usr/include/X11/Xaw/TreeP.h
>>> /usr/include/X11/Xaw/Command.h
>>> /usr/include/X11/Xaw/PannerP.h
>>> /usr/include/X11/Xaw/Reports.h
>>> /usr/include/X11/Xaw/ToggleP.h
>>> /usr/include/X11/Xaw/AsciiSrc.h
>>> /usr/include/X11/Xaw/CommandP.h
>>> /usr/include/X11/Xaw/Scrollbar.h
>>> /usr/include/X11/Xaw/TextSrc.h
>>> /usr/include/X11/Xaw/SmeLine.h
>>> /usr/include/X11/Xaw/Form.h
>>> /usr/include/X11/Xaw/VendorEP.h
>>> /usr/include/X11/Xaw/Porthole.h
>>> /usr/include/X11/Xaw/TemplateP.h
>>> /usr/include/X11/Xaw/AsciiSink.h
>>> /usr/include/X11/Xaw/TextP.h
>>> /usr/include/X11/Xaw/Sme.h
>>> /usr/include/X11/Xaw/Repeater.h
>>> /usr/include/X11/Xaw/MultiSink.h
>>> /usr/include/X11/Xaw/SimpleMenu.h
>>> /usr/include/X11/Xaw/AsciiSinkP.h
>>> /usr/include/X11/Xaw/XawImP.h
>>> /usr/include/X11/Xaw/StripChart.h
>>> /usr/include/X11/Xaw/Text.h
>>> /usr/include/X11/Xaw/SmeBSBP.h
>>> /usr/include/X11/Xaw/Viewport.h
>>> /usr/include/X11/Xaw/SmeBSB.h
>>> /usr/include/X11/Xaw/AsciiSrcP.h
>>> /usr/include/X11/Xaw/TipP.h
>>> /usr/include/X11/Xaw/Template.c
>>> /usr/include/X11/Xaw/Tip.h
>>> /usr/include/X11/Xaw/Panner.h
>>> /usr/include/X11/Xaw/ScrollbarP.h
>>> /usr/include/X11/Xaw/Box.h
>>> /usr/include/X11/Xaw/RepeaterP.h
>>> /usr/include/X11/Xaw/AsciiTextP.h
>>> /usr/include/X11/Xaw/PortholeP.h
>>> /usr/include/X11/Xaw/Simple.h
>>> /usr/include/X11/Xaw/MenuButtoP.h
>>> /usr/include/X11/Xaw/Paned.h
>>> /usr/include/X11/Xaw/MultiSrcP.h
>>> /usr/include/X11/Xaw/TextSink.h
>>> /usr/include/X11/Xaw/SmeLineP.h
>>> /usr/include/X11/Xaw/PanedP.h
>>> /usr/include/X11/Xaw/MultiSinkP.h
>>> /usr/include/X11/Xaw/Grip.h
>>> /usr/include/X11/Xaw/ViewportP.h
>>> /usr/include/X11/Xaw/SimpleP.h
>>> /usr/include/X11/Xaw/MenuButton.h
>>> /usr/include/X11/Xaw/Toggle.h
>>> /usr/include/X11/Xaw/XawInit.h
>>> /usr/include/X11/Xaw/AsciiText.h
>>> /usr/include/X11/Xaw/Template.h
>>> /usr/include/X11/Xaw/TextSinkP.h
>>> /usr/include/X11/Xaw/SimpleMenP.h
>>> /usr/include/X11/Xaw/DialogP.h
>>> /usr/include/X11/Xaw/LabelP.h
>>> /usr/include/X11/Xaw/Tree.h
>>> /usr/include/X11/Xaw/SmeP.h
>>> /usr/include/X11/Xaw/TextSrcP.h
>>> /usr/include/X11/Xaw/Cardinals.h
>>> /usr/include/X11/Xaw/MultiSrc.h
>>> /usr/include/X11/Xaw/List.h
>>> /usr/include/X11/Xaw/ListP.h
>>> /usr/include/X11/Xaw/Label.h
>>> /usr/include/X11/Xaw/StripCharP.h
>>> /usr/include/X11/Xaw/FormP.h
>>> /usr/include/X11/Xaw/BoxP.h
>>> /usr/include/X11/Xaw/AllWidgets.h
>>> Safely unmerging already-installed instance...
!!! File Not Found: '/etc/env.d/99lcdfilter'
>>> Original instance of package unmerged safely.
>>> x11-libs/libXaw-1.0.13-r1 merged.
!!! File Not Found: '/etc/env.d/99lcdfilter'
>>> Regenerating /etc/ld.so.cache...
