>>> Extracting info
 * Package:    x11-libs/libva-2.7.1
 * Repository: FireBurn
 * USE:        kernel_linux opengl userland_GNU elibc_glibc drm video_cards_nvidia amd64 abi_x86_64 video_cards_nouveau X utils vdpau
 * FEATURES:   network-sandbox preserve-libs sandbox userpriv usersandbox
 * FEATURES='assume-digests binpkg-docompress binpkg-dostrip binpkg-logs buildpkg cgroup compress-index config-protect-if-modified distlocks ebuild-locks fixlafiles ipc-sandbox merge-sync multilib-strict network-sandbox news nodoc parallel-fetch pid-sandbox preserve-libs qa-unresolved-soname-deps sandbox sfperms strict strict-keepdir unknown-features-warn unmerge-logs unmerge-orphans userfetch userpriv usersandbox usersync xattr'
 * CFLAGS='-march=znver2 -O2 -pipe -fno-stack-protector -fno-stack-clash-protection -fstack-check=no -fno-stack-check -Wl,-O1 -Wl,--as-needed'
 * CXXFLAGS='-march=znver2 -O2 -pipe -fno-stack-protector -fno-stack-clash-protection -fstack-check=no -fno-stack-check -Wl,-O1 -Wl,--as-needed'
 * FFLAGS='-march=znver2 -O2 -pipe -fno-stack-protector -fno-stack-clash-protection -fstack-check=no -fno-stack-check -Wl,-O1 -Wl,--as-needed'
 * FCFLAGS='-march=znver2 -O2 -pipe -fno-stack-protector -fno-stack-clash-protection -fstack-check=no -fno-stack-check -Wl,-O1 -Wl,--as-needed'
 * F77FLAGS='-march=znver2 -O2 -pipe -fno-stack-protector -fno-stack-clash-protection -fstack-check=no -fno-stack-check -Wl,-O1 -Wl,--as-needed'
 * LDFLAGS='-Wl,-O1 -Wl,--as-needed'
 * MAKEOPTS='-j12 -l12'
 * gcc (Gentoo 10.1.0-r1 p2) 10.1.0
 * g++ (Gentoo 10.1.0-r1 p2) 10.1.0
 * GNU gold (Gentoo 2.34 p4 2.34.0) 1.16
 * Linux rescue 5.4.36 #1 SMP Thu Apr 30 04:38:28 UTC 2020 x86_64 AMD Ryzen 5 3600 6-Core Processor AuthenticAMD GNU/Linux
x11-libs/libva: 34 seconds average for 13 merges
2020-05-21T12:27:37 >>> x11-libs/libva: 21 seconds
2020-05-24T13:34:24 >>> x11-libs/libva: 5 seconds
2020-05-25T14:57:37 >>> x11-libs/libva: 4 seconds
2020-05-26T00:12:48 >>> x11-libs/libva: 27 seconds
2020-05-27T02:28:22 >>> x11-libs/libva: 6 seconds
2020-05-28T04:10:25 >>> x11-libs/libva: 23 seconds
2020-05-29T02:15:02 >>> x11-libs/libva: 25 seconds
2020-05-31T00:11:57 >>> x11-libs/libva: 42 seconds
2020-06-01T10:38:00 >>> x11-libs/libva: 31 seconds
2020-06-04T14:24:49 >>> x11-libs/libva: 23 seconds
2020-06-12T02:20:21 >>> x11-libs/libva: 5 seconds
2020-06-13T03:55:06 >>> x11-libs/libva: 3 minutes, 45 seconds
2020-06-13T20:40:22 >>> x11-libs/libva: 5 seconds
]0;emerge 14:16:57 410|565 libva 01:18 (root@rescue)>>> Extracting x11-libs/libva-2.7.1
 * checking 51 files for package collisions
>>> Merging x11-libs/libva-2.7.1 to /
 * removing unneeded *.la files
--- /usr/
--- /usr/lib64/
>>> /usr/lib64/libva-x11.so.2.700.0
>>> /usr/lib64/libva-glx.so.2 -> libva-glx.so.2.700.0
>>> /usr/lib64/libva.so -> libva.so.2.700.0
--- /usr/lib64/pkgconfig/
>>> /usr/lib64/pkgconfig/libva-x11.pc
>>> /usr/lib64/pkgconfig/libva-drm.pc
>>> /usr/lib64/pkgconfig/libva-glx.pc
>>> /usr/lib64/pkgconfig/libva.pc
>>> /usr/lib64/libva-drm.so -> libva-drm.so.2.700.0
>>> /usr/lib64/libva-x11.so -> libva-x11.so.2.700.0
>>> /usr/lib64/libva-drm.so.2.700.0
>>> /usr/lib64/libva-x11.so.2 -> libva-x11.so.2.700.0
>>> /usr/lib64/libva.so.2.700.0
>>> /usr/lib64/libva.so.2 -> libva.so.2.700.0
>>> /usr/lib64/libva-glx.so.2.700.0
>>> /usr/lib64/libva-glx.so -> libva-glx.so.2.700.0
>>> /usr/lib64/libva-drm.so.2 -> libva-drm.so.2.700.0
--- /usr/include/
--- /usr/include/x86_64-pc-linux-gnu/
--- /usr/include/x86_64-pc-linux-gnu/va/
>>> /usr/include/x86_64-pc-linux-gnu/va/va_dri2.h
>>> /usr/include/x86_64-pc-linux-gnu/va/va_glx.h
>>> /usr/include/x86_64-pc-linux-gnu/va/va_x11.h
>>> /usr/include/x86_64-pc-linux-gnu/va/va_backend_glx.h
>>> /usr/include/x86_64-pc-linux-gnu/va/va_dricommon.h
--- /usr/include/va/
>>> /usr/include/va/va_fei_hevc.h
>>> /usr/include/va/va_dri2.h
>>> /usr/include/va/va_tpi.h
>>> /usr/include/va/va_glx.h
>>> /usr/include/va/va_dec_hevc.h
>>> /usr/include/va/va_fei.h
>>> /usr/include/va/va_backend_vpp.h
>>> /usr/include/va/va_str.h
>>> /usr/include/va/va_vpp.h
>>> /usr/include/va/va_enc_vp9.h
>>> /usr/include/va/va_backend.h
>>> /usr/include/va/va_dec_av1.h
>>> /usr/include/va/va_drmcommon.h
>>> /usr/include/va/va_egl.h
>>> /usr/include/va/va_fei_h264.h
>>> /usr/include/va/va_enc_jpeg.h
>>> /usr/include/va/va_enc_mpeg2.h
>>> /usr/include/va/va_enc_h264.h
>>> /usr/include/va/va_version.h
>>> /usr/include/va/va_x11.h
>>> /usr/include/va/va_dec_vp9.h
>>> /usr/include/va/va_enc_hevc.h
>>> /usr/include/va/va_drm.h
>>> /usr/include/va/va_backend_glx.h
>>> /usr/include/va/va_dricommon.h
>>> /usr/include/va/va_enc_vp8.h
>>> /usr/include/va/va_dec_vp8.h
>>> /usr/include/va/va.h
>>> /usr/include/va/va_dec_jpeg.h
>>> /usr/include/va/va_compat.h
>>> Safely unmerging already-installed instance...
!!! File Not Found: '/etc/env.d/99lcdfilter'
>>> Original instance of package unmerged safely.
>>> x11-libs/libva-2.7.1 merged.
!!! File Not Found: '/etc/env.d/99lcdfilter'
>>> Regenerating /etc/ld.so.cache...
