No package files given... Grabbing a set.
--- replaced obj /usr/share/man/man3/XF86VidModeValidateModeLine.3
--- replaced obj /usr/share/man/man3/XF86VidModeSwitchToMode.3
--- replaced obj /usr/share/man/man3/XF86VidModeSwitchMode.3
--- replaced obj /usr/share/man/man3/XF86VidModeSetViewPort.3
--- replaced obj /usr/share/man/man3/XF86VidModeSetGammaRamp.3
--- replaced obj /usr/share/man/man3/XF86VidModeSetGamma.3
--- replaced obj /usr/share/man/man3/XF86VidModeSetClientVersion.3
--- replaced obj /usr/share/man/man3/XF86VidModeQueryVersion.3
--- replaced obj /usr/share/man/man3/XF86VidModeQueryExtension.3
--- replaced obj /usr/share/man/man3/XF86VidModeModModeLine.3
--- replaced obj /usr/share/man/man3/XF86VidModeLockModeSwitch.3
--- replaced obj /usr/share/man/man3/XF86VidModeGetViewPort.3
--- replaced obj /usr/share/man/man3/XF86VidModeGetPermissions.3
--- replaced obj /usr/share/man/man3/XF86VidModeGetMonitor.3
--- replaced obj /usr/share/man/man3/XF86VidModeGetModeLine.3
--- replaced obj /usr/share/man/man3/XF86VidModeGetGammaRampSize.3
--- replaced obj /usr/share/man/man3/XF86VidModeGetGammaRamp.3
--- replaced obj /usr/share/man/man3/XF86VidModeGetGamma.3
--- replaced obj /usr/share/man/man3/XF86VidModeGetDotClocks.3
--- replaced obj /usr/share/man/man3/XF86VidModeGetAllModeLines.3
--- replaced obj /usr/share/man/man3/XF86VidModeDeleteModeLine.3
--- replaced obj /usr/share/man/man3/XF86VidModeAddModeLine.3
--- replaced obj /usr/share/man/man3/XF86VM.3.bz2
--- replaced dir /usr/share/man/man3
--- replaced dir /usr/share/man
--- replaced dir /usr/share
--- replaced obj /usr/lib64/pkgconfig/xxf86vm.pc
--- replaced dir /usr/lib64/pkgconfig
--- replaced obj /usr/lib64/libXxf86vm.so.1.0.0
--- replaced sym /usr/lib64/libXxf86vm.so.1
--- replaced sym /usr/lib64/libXxf86vm.so
--- replaced dir /usr/lib64
--- replaced obj /usr/include/X11/extensions/xf86vmode.h
--- replaced dir /usr/include/X11/extensions
--- replaced dir /usr/include/X11
--- replaced dir /usr/include
--- replaced dir /usr
>>> Regenerating /etc/ld.so.cache...
