>>> Extracting info
 * Package:    x11-libs/libxkbfile-1.1.0
 * Repository: gentoo
 * USE:        elibc_glibc amd64 userland_GNU kernel_linux abi_x86_64
 * FEATURES:   preserve-libs
 * /etc/portage/package.cflags/ltoworkarounds.conf -> */*: *FLAGS+=-Wl,-O4 *FLAGS-=-Wl,-O1
 * FEATURES='assume-digests binpkg-dostrip binpkg-logs buildpkg config-protect-if-modified distlocks ebuild-locks fixlafiles merge-sync multilib-strict news nodoc parallel-fetch preserve-libs qa-unresolved-soname-deps sfperms strict strict-keepdir unknown-features-warn unmerge-logs unmerge-orphans xattr'
 * CFLAGS='-march=znver2 -O2 -pipe -g0 -fno-semantic-interposition -fno-plt -falign-functions=32 -fno-stack-protector -fno-stack-clash-protection -fstack-check=no -fno-stack-check -Wl,-O4 -Wl,-O4,--sort-common,--as-needed,-z,norelro,-z,now,-lgomp,-lpthread'
 * CXXFLAGS='-march=znver2 -O2 -pipe -g0 -fno-semantic-interposition -fno-plt -falign-functions=32 -fno-stack-protector -fno-stack-clash-protection -fstack-check=no -fno-stack-check -Wl,-O4 -Wl,-O4,--sort-common,--as-needed,-z,norelro,-z,now,-lgomp,-lpthread'
 * FFLAGS='-march=znver2 -O2 -pipe -g0 -fno-semantic-interposition -fno-plt -falign-functions=32 -fno-stack-protector -fno-stack-clash-protection -fstack-check=no -fno-stack-check -Wl,-O4 -Wl,-O4,--sort-common,--as-needed,-z,norelro,-z,now,-lgomp,-lpthread'
 * FCFLAGS='-march=znver2 -O2 -pipe -g0 -fno-semantic-interposition -fno-plt -falign-functions=32 -fno-stack-protector -fno-stack-clash-protection -fstack-check=no -fno-stack-check -Wl,-O4 -Wl,-O4,--sort-common,--as-needed,-z,norelro,-z,now,-lgomp,-lpthread'
 * F77FLAGS='-march=znver2 -O2 -pipe -g0 -fno-semantic-interposition -fno-plt -falign-functions=32 -fno-stack-protector -fno-stack-clash-protection -fstack-check=no -fno-stack-check -Wl,-O4 -Wl,-O4,--sort-common,--as-needed,-z,norelro,-z,now,-lgomp,-lpthread'
 * LDFLAGS='-march=znver2 -O2 -pipe -g0 -fno-semantic-interposition -fno-plt -falign-functions=32 -fno-stack-protector -fno-stack-clash-protection -fstack-check=no -fno-stack-check -Wl,-O4,--sort-common,--as-needed,-z,norelro,-z,now,-lgomp,-lpthread'
 * MAKEOPTS='-j12 -l12'
 * gcc () 11.0.0 20200606 (experimental)
 * g++ () 11.0.0 20200606 (experimental)
 * GNU ld (Gentoo 2.34 p4) 2.34.0
 * Linux rescue 5.4.36 #1 SMP Thu Apr 30 04:38:28 UTC 2020 x86_64 AMD Ryzen 5 3600 6-Core Processor AuthenticAMD GNU/Linux
x11-libs/libxkbfile: 12 seconds average for 12 merges
2020-05-15T07:40:02 >>> x11-libs/libxkbfile: 13 seconds
2020-05-20T01:12:11 >>> x11-libs/libxkbfile: 6 seconds
2020-05-21T06:33:35 >>> x11-libs/libxkbfile: 6 seconds
2020-05-25T12:22:55 >>> x11-libs/libxkbfile: 32 seconds
2020-05-25T14:56:35 >>> x11-libs/libxkbfile: 5 seconds
2020-05-25T22:33:57 >>> x11-libs/libxkbfile: 21 seconds
2020-05-26T14:02:47 >>> x11-libs/libxkbfile: 7 seconds
2020-05-27T01:42:16 >>> x11-libs/libxkbfile: 6 seconds
2020-05-28T14:29:08 >>> x11-libs/libxkbfile: 6 seconds
2020-05-29T01:50:54 >>> x11-libs/libxkbfile: 6 seconds
2020-05-30T14:15:24 >>> x11-libs/libxkbfile: 23 seconds
2020-06-01T03:46:58 >>> x11-libs/libxkbfile: 23 seconds
]0;emerge 01:35:30 153|626 libxkbfile 00:17 (root@rescue)>>> Extracting x11-libs/libxkbfile-1.1.0
 * checking 10 files for package collisions
>>> Merging x11-libs/libxkbfile-1.1.0 to /
 * removing unneeded *.la files
--- /usr/
--- /usr/include/
--- /usr/include/X11/
--- /usr/include/X11/extensions/
>>> /usr/include/X11/extensions/XKBbells.h
>>> /usr/include/X11/extensions/XKBconfig.h
>>> /usr/include/X11/extensions/XKBfile.h
>>> /usr/include/X11/extensions/XKBrules.h
>>> /usr/include/X11/extensions/XKM.h
>>> /usr/include/X11/extensions/XKMformat.h
--- /usr/lib64/
>>> /usr/lib64/libxkbfile.so -> libxkbfile.so.1.0.2
>>> /usr/lib64/libxkbfile.so.1 -> libxkbfile.so.1.0.2
>>> /usr/lib64/libxkbfile.so.1.0.2
--- /usr/lib64/pkgconfig/
>>> /usr/lib64/pkgconfig/xkbfile.pc
>>> Safely unmerging already-installed instance...
>>> Original instance of package unmerged safely.
>>> x11-libs/libxkbfile-1.1.0 merged.
>>> Regenerating /etc/ld.so.cache...
