[32;01m * [39;49;00mPackage:    x11-libs/libfontenc-1.1.4
[32;01m * [39;49;00mRepository: gentoo
[32;01m * [39;49;00mMaintainer: x11@gentoo.org
[32;01m * [39;49;00mUSE:        abi_x86_64 amd64 elibc_glibc kernel_linux userland_GNU
[32;01m * [39;49;00mFEATURES:   network-sandbox preserve-libs sandbox splitdebug test userpriv usersandbox
>>> Unpacking source...
>>> Unpacking libfontenc-1.1.4.tar.bz2 to /tmp/portage/x11-libs/libfontenc-1.1.4/work
>>> Source unpacked in /tmp/portage/x11-libs/libfontenc-1.1.4/work
>>> Preparing source in /tmp/portage/x11-libs/libfontenc-1.1.4/work/libfontenc-1.1.4 ...
 * Running elibtoolize in: libfontenc-1.1.4/
 *   Applying portage/1.2.0 patch ...
 *   Applying sed/1.5.6 patch ...
 *   Applying as-needed/2.4.3 patch ...
 *   Applying ppc64le/2.4.4 patch ...
>>> Source prepared.
>>> Configuring source in /tmp/portage/x11-libs/libfontenc-1.1.4/work/libfontenc-1.1.4 ...
 * econf: updating libfontenc-1.1.4/config.guess with /usr/share/gnuconfig/config.guess
 * econf: updating libfontenc-1.1.4/config.sub with /usr/share/gnuconfig/config.sub
./configure --prefix=/usr --build=x86_64-pc-linux-gnu --host=x86_64-pc-linux-gnu --mandir=/usr/share/man --infodir=/usr/share/info --datadir=/usr/share --sysconfdir=/etc --localstatedir=/var/lib --disable-dependency-tracking --disable-silent-rules --docdir=/usr/share/doc/libfontenc-1.1.4 --htmldir=/usr/share/doc/libfontenc-1.1.4/html --with-sysroot=/ --libdir=/usr/lib64 --disable-selective-werror --with-encodingsdir=/usr/share/fonts/encodings --enable-shared --disable-static
checking for a BSD-compatible install... /tmp/portage/._portage_reinstall_.mi8935l4/bin/ebuild-helpers/xattr/install -c
checking whether build environment is sane... yes
checking for a thread-safe mkdir -p... /bin/mkdir -p
checking for gawk... gawk
checking whether make sets $(MAKE)... yes
checking whether make supports nested variables... yes
checking build system type... x86_64-pc-linux-gnu
checking host system type... x86_64-pc-linux-gnu
checking how to print strings... printf
checking for style of include used by make... GNU
checking for x86_64-pc-linux-gnu-gcc... x86_64-pc-linux-gnu-gcc
checking whether the C compiler works... yes
checking for C compiler default output file name... a.out
checking for suffix of executables... 
checking whether we are cross compiling... no
checking for suffix of object files... o
checking whether we are using the GNU C compiler... yes
checking whether x86_64-pc-linux-gnu-gcc accepts -g... yes
checking for x86_64-pc-linux-gnu-gcc option to accept ISO C89... none needed
checking whether x86_64-pc-linux-gnu-gcc understands -c and -o together... yes
checking dependency style of x86_64-pc-linux-gnu-gcc... none
checking for a sed that does not truncate output... /bin/sed
checking for grep that handles long lines and -e... /bin/grep
checking for egrep... /bin/grep -E
checking for fgrep... /bin/grep -F
checking for ld used by x86_64-pc-linux-gnu-gcc... /usr/x86_64-pc-linux-gnu/bin/ld
checking if the linker (/usr/x86_64-pc-linux-gnu/bin/ld) is GNU ld... yes
checking for BSD- or MS-compatible name lister (nm)... /usr/bin/x86_64-pc-linux-gnu-nm -B
checking the name lister (/usr/bin/x86_64-pc-linux-gnu-nm -B) interface... BSD nm
checking whether ln -s works... yes
checking the maximum length of command line arguments... 1572864
checking how to convert x86_64-pc-linux-gnu file names to x86_64-pc-linux-gnu format... func_convert_file_noop
checking how to convert x86_64-pc-linux-gnu file names to toolchain format... func_convert_file_noop
checking for /usr/x86_64-pc-linux-gnu/bin/ld option to reload object files... -r
checking for x86_64-pc-linux-gnu-objdump... x86_64-pc-linux-gnu-objdump
checking how to recognize dependent libraries... pass_all
checking for x86_64-pc-linux-gnu-dlltool... no
checking for dlltool... no
checking how to associate runtime and link libraries... printf %s\n
checking for x86_64-pc-linux-gnu-ar... x86_64-pc-linux-gnu-ar
checking for archiver @FILE support... @
checking for x86_64-pc-linux-gnu-strip... x86_64-pc-linux-gnu-strip
checking for x86_64-pc-linux-gnu-ranlib... x86_64-pc-linux-gnu-ranlib
checking command to parse /usr/bin/x86_64-pc-linux-gnu-nm -B output from x86_64-pc-linux-gnu-gcc object... ok
checking for sysroot... /
checking for a working dd... /bin/dd
checking how to truncate binary pipes... /bin/dd bs=4096 count=1
checking for x86_64-pc-linux-gnu-mt... no
checking for mt... no
checking if : is a manifest tool... no
checking how to run the C preprocessor... x86_64-pc-linux-gnu-gcc -E
checking for ANSI C header files... yes
checking for sys/types.h... yes
checking for sys/stat.h... yes
checking for stdlib.h... yes
checking for string.h... yes
checking for memory.h... yes
checking for strings.h... yes
checking for inttypes.h... yes
checking for stdint.h... yes
checking for unistd.h... yes
checking for dlfcn.h... yes
checking for objdir... .libs
checking if x86_64-pc-linux-gnu-gcc supports -fno-rtti -fno-exceptions... no
checking for x86_64-pc-linux-gnu-gcc option to produce PIC... -fPIC -DPIC
checking if x86_64-pc-linux-gnu-gcc PIC flag -fPIC -DPIC works... yes
checking if x86_64-pc-linux-gnu-gcc static flag -static works... yes
checking if x86_64-pc-linux-gnu-gcc supports -c -o file.o... yes
checking if x86_64-pc-linux-gnu-gcc supports -c -o file.o... (cached) yes
checking whether the x86_64-pc-linux-gnu-gcc linker (/usr/x86_64-pc-linux-gnu/bin/ld -m elf_x86_64) supports shared libraries... yes
checking whether -lc should be explicitly linked in... no
checking dynamic linker characteristics... GNU/Linux ld.so
checking how to hardcode library paths into programs... immediate
checking whether stripping libraries is possible... yes
checking if libtool supports shared libraries... yes
checking whether to build shared libraries... yes
checking whether to build static libraries... no
checking for x86_64-pc-linux-gnu-gcc option to accept ISO C99... none needed
checking whether __clang__ is declared... no
checking whether __INTEL_COMPILER is declared... no
checking whether __SUNPRO_C is declared... no
checking for x86_64-pc-linux-gnu-pkg-config... /usr/bin/x86_64-pc-linux-gnu-pkg-config
checking pkg-config is at least version 0.9.0... yes
checking if x86_64-pc-linux-gnu-gcc supports -Werror=unknown-warning-option... no
checking if x86_64-pc-linux-gnu-gcc supports -Werror=unused-command-line-argument... no
checking if x86_64-pc-linux-gnu-gcc supports -Wall... yes
checking if x86_64-pc-linux-gnu-gcc supports -Wpointer-arith... yes
checking if x86_64-pc-linux-gnu-gcc supports -Wmissing-declarations... yes
checking if x86_64-pc-linux-gnu-gcc supports -Wformat=2... yes
checking if x86_64-pc-linux-gnu-gcc supports -Wstrict-prototypes... yes
checking if x86_64-pc-linux-gnu-gcc supports -Wmissing-prototypes... yes
checking if x86_64-pc-linux-gnu-gcc supports -Wnested-externs... yes
checking if x86_64-pc-linux-gnu-gcc supports -Wbad-function-cast... yes
checking if x86_64-pc-linux-gnu-gcc supports -Wold-style-definition... yes
checking if x86_64-pc-linux-gnu-gcc supports -Wdeclaration-after-statement... yes
checking if x86_64-pc-linux-gnu-gcc supports -Wunused... yes
checking if x86_64-pc-linux-gnu-gcc supports -Wuninitialized... yes
checking if x86_64-pc-linux-gnu-gcc supports -Wshadow... yes
checking if x86_64-pc-linux-gnu-gcc supports -Wmissing-noreturn... yes
checking if x86_64-pc-linux-gnu-gcc supports -Wmissing-format-attribute... yes
checking if x86_64-pc-linux-gnu-gcc supports -Wredundant-decls... yes
checking if x86_64-pc-linux-gnu-gcc supports -Wlogical-op... yes
configure: WARNING: You have chosen not to turn some select compiler warnings into errors.  This should not be necessary.  Please report why you needed to do so in a bug report at https://gitlab.freedesktop.org/xorg/lib/libfontenc/issues
checking if x86_64-pc-linux-gnu-gcc supports -Wimplicit... yes
checking if x86_64-pc-linux-gnu-gcc supports -Wnonnull... yes
checking if x86_64-pc-linux-gnu-gcc supports -Winit-self... yes
checking if x86_64-pc-linux-gnu-gcc supports -Wmain... yes
checking if x86_64-pc-linux-gnu-gcc supports -Wmissing-braces... yes
checking if x86_64-pc-linux-gnu-gcc supports -Wsequence-point... yes
checking if x86_64-pc-linux-gnu-gcc supports -Wreturn-type... yes
checking if x86_64-pc-linux-gnu-gcc supports -Wtrigraphs... yes
checking if x86_64-pc-linux-gnu-gcc supports -Warray-bounds... yes
checking if x86_64-pc-linux-gnu-gcc supports -Wwrite-strings... yes
checking if x86_64-pc-linux-gnu-gcc supports -Waddress... yes
checking if x86_64-pc-linux-gnu-gcc supports -Wint-to-pointer-cast... yes
checking if x86_64-pc-linux-gnu-gcc supports -Wpointer-to-int-cast... yes
checking if x86_64-pc-linux-gnu-gcc supports -pedantic... yes
checking if x86_64-pc-linux-gnu-gcc supports -Werror... yes
checking if x86_64-pc-linux-gnu-gcc supports -Werror=attributes... yes
checking whether make supports nested variables... (cached) yes
checking for root directory for font files... /usr/share/fonts
checking for directory for encodings files... /usr/share/fonts/encodings
checking zlib.h usability... yes
checking zlib.h presence... yes
checking for zlib.h... yes
checking for gzclose in -lz... yes
checking for FONTENC... yes
checking that generated files are newer than configure... done
configure: creating ./config.status
config.status: creating Makefile
config.status: creating src/Makefile
config.status: creating fontenc.pc
config.status: creating config.h
config.status: executing depfiles commands
config.status: executing libtool commands
>>> Source configured.
>>> Compiling source in /tmp/portage/x11-libs/libfontenc-1.1.4/work/libfontenc-1.1.4 ...
make -j12 
make  all-recursive
make[1]: Entering directory '/tmp/portage/x11-libs/libfontenc-1.1.4/work/libfontenc-1.1.4'
Making all in src
make[2]: Entering directory '/tmp/portage/x11-libs/libfontenc-1.1.4/work/libfontenc-1.1.4/src'
/bin/sh ../libtool  --tag=CC   --mode=compile x86_64-pc-linux-gnu-gcc -DHAVE_CONFIG_H -I. -I..  -I../include -DFONT_ENCODINGS_DIRECTORY=\"/usr/share/fonts/encodings/encodings.dir\"   -Wall -Wpointer-arith -Wmissing-declarations -Wformat=2 -Wstrict-prototypes -Wmissing-prototypes -Wnested-externs -Wbad-function-cast -Wold-style-definition -Wdeclaration-after-statement -Wunused -Wuninitialized -Wshadow -Wmissing-noreturn -Wmissing-format-attribute -Wredundant-decls -Wlogical-op -Wimplicit -Wnonnull -Winit-self -Wmain -Wmissing-braces -Wsequence-point -Wreturn-type -Wtrigraphs -Warray-bounds -Wwrite-strings -Waddress -Wint-to-pointer-cast -Wpointer-to-int-cast -fno-strict-aliasing -O3 -march=native -pipe -g0 -fno-stack-protector -fno-stack-clash-protection -fstack-check=no -fno-stack-check -c -o encparse.lo encparse.c
/bin/sh ../libtool  --tag=CC   --mode=compile x86_64-pc-linux-gnu-gcc -DHAVE_CONFIG_H -I. -I..  -I../include -DFONT_ENCODINGS_DIRECTORY=\"/usr/share/fonts/encodings/encodings.dir\"   -Wall -Wpointer-arith -Wmissing-declarations -Wformat=2 -Wstrict-prototypes -Wmissing-prototypes -Wnested-externs -Wbad-function-cast -Wold-style-definition -Wdeclaration-after-statement -Wunused -Wuninitialized -Wshadow -Wmissing-noreturn -Wmissing-format-attribute -Wredundant-decls -Wlogical-op -Wimplicit -Wnonnull -Winit-self -Wmain -Wmissing-braces -Wsequence-point -Wreturn-type -Wtrigraphs -Warray-bounds -Wwrite-strings -Waddress -Wint-to-pointer-cast -Wpointer-to-int-cast -fno-strict-aliasing -O3 -march=native -pipe -g0 -fno-stack-protector -fno-stack-clash-protection -fstack-check=no -fno-stack-check -c -o fontenc.lo fontenc.c
libtool: compile:  x86_64-pc-linux-gnu-gcc -DHAVE_CONFIG_H -I. -I.. -I../include -DFONT_ENCODINGS_DIRECTORY=\"/usr/share/fonts/encodings/encodings.dir\" -Wall -Wpointer-arith -Wmissing-declarations -Wformat=2 -Wstrict-prototypes -Wmissing-prototypes -Wnested-externs -Wbad-function-cast -Wold-style-definition -Wdeclaration-after-statement -Wunused -Wuninitialized -Wshadow -Wmissing-noreturn -Wmissing-format-attribute -Wredundant-decls -Wlogical-op -Wimplicit -Wnonnull -Winit-self -Wmain -Wmissing-braces -Wsequence-point -Wreturn-type -Wtrigraphs -Warray-bounds -Wwrite-strings -Waddress -Wint-to-pointer-cast -Wpointer-to-int-cast -fno-strict-aliasing -O3 -march=native -pipe -g0 -fno-stack-protector -fno-stack-clash-protection -fstack-check=no -fno-stack-check -c encparse.c  -fPIC -DPIC -o .libs/encparse.o
libtool: compile:  x86_64-pc-linux-gnu-gcc -DHAVE_CONFIG_H -I. -I.. -I../include -DFONT_ENCODINGS_DIRECTORY=\"/usr/share/fonts/encodings/encodings.dir\" -Wall -Wpointer-arith -Wmissing-declarations -Wformat=2 -Wstrict-prototypes -Wmissing-prototypes -Wnested-externs -Wbad-function-cast -Wold-style-definition -Wdeclaration-after-statement -Wunused -Wuninitialized -Wshadow -Wmissing-noreturn -Wmissing-format-attribute -Wredundant-decls -Wlogical-op -Wimplicit -Wnonnull -Winit-self -Wmain -Wmissing-braces -Wsequence-point -Wreturn-type -Wtrigraphs -Warray-bounds -Wwrite-strings -Waddress -Wint-to-pointer-cast -Wpointer-to-int-cast -fno-strict-aliasing -O3 -march=native -pipe -g0 -fno-stack-protector -fno-stack-clash-protection -fstack-check=no -fno-stack-check -c fontenc.c  -fPIC -DPIC -o .libs/fontenc.o
[01m[Kencparse.c:[m[K In function '[01m[KFontEncReallyReallyLoad[m[K':
[01m[Kencparse.c:903:30:[m[K [01;35m[Kwarning: [m[Kformat not a string literal, argument types not checked [[01;35m[K-Wformat-nonliteral[m[K]
  903 |         count = fscanf(file, [01;35m[Kformat[m[K, encoding_name, file_name);
      |                              [01;35m[K^~~~~~[m[K
[01m[Kfontenc.c:581:40:[m[K [01;35m[Kwarning: [m[Kinitialization discards '[01m[Kconst[m[K' qualifier from pointer target type [[01;35m[K-Wdiscarded-qualifiers[m[K]
  581 | static char *iso8859_15_aliases[2] = { [01;35m[K"fcd8859-15"[m[K, NULL };
      |                                        [01;35m[K^~~~~~~~~~~~[m[K
[01m[Kfontenc.c:584:6:[m[K [01;35m[Kwarning: [m[Kinitialization discards '[01m[Kconst[m[K' qualifier from pointer target type [[01;35m[K-Wdiscarded-qualifiers[m[K]
  584 |     {[01;35m[K"iso10646-1"[m[K, NULL, 256 * 256, 0, iso10646, NULL, 0, 0},   /* Unicode */
      |      [01;35m[K^~~~~~~~~~~~[m[K
[01m[Kfontenc.c:585:6:[m[K [01;35m[Kwarning: [m[Kinitialization discards '[01m[Kconst[m[K' qualifier from pointer target type [[01;35m[K-Wdiscarded-qualifiers[m[K]
  585 |     {[01;35m[K"iso8859-1"[m[K, NULL, 256, 0, iso8859_1, NULL, 0, 0}, /* Latin 1 (West European) */
      |      [01;35m[K^~~~~~~~~~~[m[K
[01m[Kfontenc.c:586:6:[m[K [01;35m[Kwarning: [m[Kinitialization discards '[01m[Kconst[m[K' qualifier from pointer target type [[01;35m[K-Wdiscarded-qualifiers[m[K]
  586 |     {[01;35m[K"iso8859-2"[m[K, NULL, 256, 0, iso8859_2, NULL, 0, 0}, /* Latin 2 (East European) */
      |      [01;35m[K^~~~~~~~~~~[m[K
[01m[Kfontenc.c:587:6:[m[K [01;35m[Kwarning: [m[Kinitialization discards '[01m[Kconst[m[K' qualifier from pointer target type [[01;35m[K-Wdiscarded-qualifiers[m[K]
  587 |     {[01;35m[K"iso8859-3"[m[K, NULL, 256, 0, iso8859_3, NULL, 0, 0}, /* Latin 3 (South European) */
      |      [01;35m[K^~~~~~~~~~~[m[K
[01m[Kfontenc.c:588:6:[m[K [01;35m[Kwarning: [m[Kinitialization discards '[01m[Kconst[m[K' qualifier from pointer target type [[01;35m[K-Wdiscarded-qualifiers[m[K]
  588 |     {[01;35m[K"iso8859-4"[m[K, NULL, 256, 0, iso8859_4, NULL, 0, 0}, /* Latin 4 (North European) */
      |      [01;35m[K^~~~~~~~~~~[m[K
[01m[Kfontenc.c:589:6:[m[K [01;35m[Kwarning: [m[Kinitialization discards '[01m[Kconst[m[K' qualifier from pointer target type [[01;35m[K-Wdiscarded-qualifiers[m[K]
  589 |     {[01;35m[K"iso8859-5"[m[K, NULL, 256, 0, iso8859_5, NULL, 0, 0}, /* Cyrillic */
      |      [01;35m[K^~~~~~~~~~~[m[K
[01m[Kfontenc.c:590:6:[m[K [01;35m[Kwarning: [m[Kinitialization discards '[01m[Kconst[m[K' qualifier from pointer target type [[01;35m[K-Wdiscarded-qualifiers[m[K]
  590 |     {[01;35m[K"iso8859-6"[m[K, NULL, 256, 0, iso8859_6, NULL, 0, 0}, /* Arabic */
      |      [01;35m[K^~~~~~~~~~~[m[K
[01m[Kfontenc.c:591:6:[m[K [01;35m[Kwarning: [m[Kinitialization discards '[01m[Kconst[m[K' qualifier from pointer target type [[01;35m[K-Wdiscarded-qualifiers[m[K]
  591 |     {[01;35m[K"iso8859-7"[m[K, NULL, 256, 0, iso8859_7, NULL, 0, 0}, /* Greek */
      |      [01;35m[K^~~~~~~~~~~[m[K
[01m[Kfontenc.c:592:6:[m[K [01;35m[Kwarning: [m[Kinitialization discards '[01m[Kconst[m[K' qualifier from pointer target type [[01;35m[K-Wdiscarded-qualifiers[m[K]
  592 |     {[01;35m[K"iso8859-8"[m[K, NULL, 256, 0, iso8859_8, NULL, 0, 0}, /* Hebrew */
      |      [01;35m[K^~~~~~~~~~~[m[K
[01m[Kfontenc.c:593:6:[m[K [01;35m[Kwarning: [m[Kinitialization discards '[01m[Kconst[m[K' qualifier from pointer target type [[01;35m[K-Wdiscarded-qualifiers[m[K]
  593 |     {[01;35m[K"iso8859-9"[m[K, NULL, 256, 0, iso8859_9, NULL, 0, 0}, /* Latin 5 (Turkish) */
      |      [01;35m[K^~~~~~~~~~~[m[K
[01m[Kfontenc.c:594:6:[m[K [01;35m[Kwarning: [m[Kinitialization discards '[01m[Kconst[m[K' qualifier from pointer target type [[01;35m[K-Wdiscarded-qualifiers[m[K]
  594 |     {[01;35m[K"iso8859-10"[m[K, NULL, 256, 0, iso8859_10, NULL, 0, 0},       /* Latin 6 (Nordic) */
      |      [01;35m[K^~~~~~~~~~~~[m[K
[01m[Kfontenc.c:595:6:[m[K [01;35m[Kwarning: [m[Kinitialization discards '[01m[Kconst[m[K' qualifier from pointer target type [[01;35m[K-Wdiscarded-qualifiers[m[K]
  595 |     {[01;35m[K"iso8859-15"[m[K, iso8859_15_aliases, 256, 0, iso8859_15, NULL, 0, 0}, /* Latin 9 */
      |      [01;35m[K^~~~~~~~~~~~[m[K
[01m[Kfontenc.c:596:6:[m[K [01;35m[Kwarning: [m[Kinitialization discards '[01m[Kconst[m[K' qualifier from pointer target type [[01;35m[K-Wdiscarded-qualifiers[m[K]
  596 |     {[01;35m[K"koi8-r"[m[K, NULL, 256, 0, koi8_r, NULL, 0, 0},       /* Russian */
      |      [01;35m[K^~~~~~~~[m[K
[01m[Kfontenc.c:597:6:[m[K [01;35m[Kwarning: [m[Kinitialization discards '[01m[Kconst[m[K' qualifier from pointer target type [[01;35m[K-Wdiscarded-qualifiers[m[K]
  597 |     {[01;35m[K"koi8-ru"[m[K, NULL, 256, 0, koi8_ru, NULL, 0, 0},     /* Ukrainian */
      |      [01;35m[K^~~~~~~~~[m[K
[01m[Kfontenc.c:598:6:[m[K [01;35m[Kwarning: [m[Kinitialization discards '[01m[Kconst[m[K' qualifier from pointer target type [[01;35m[K-Wdiscarded-qualifiers[m[K]
  598 |     {[01;35m[K"koi8-uni"[m[K, NULL, 256, 0, koi8_uni, NULL, 0, 0},   /* Russian/Ukrainian/Bielorussian */
      |      [01;35m[K^~~~~~~~~~[m[K
[01m[Kfontenc.c:599:6:[m[K [01;35m[Kwarning: [m[Kinitialization discards '[01m[Kconst[m[K' qualifier from pointer target type [[01;35m[K-Wdiscarded-qualifiers[m[K]
  599 |     {[01;35m[K"koi8-e"[m[K, NULL, 256, 0, koi8_e, NULL, 0, 0},       /* ``European'' */
      |      [01;35m[K^~~~~~~~[m[K
[01m[Kfontenc.c:600:6:[m[K [01;35m[Kwarning: [m[Kinitialization discards '[01m[Kconst[m[K' qualifier from pointer target type [[01;35m[K-Wdiscarded-qualifiers[m[K]
  600 |     {[01;35m[K"koi8-u"[m[K, NULL, 256, 0, koi8_u, NULL, 0, 0},       /* Ukrainian too */
      |      [01;35m[K^~~~~~~~[m[K
[01m[Kfontenc.c:601:6:[m[K [01;35m[Kwarning: [m[Kinitialization discards '[01m[Kconst[m[K' qualifier from pointer target type [[01;35m[K-Wdiscarded-qualifiers[m[K]
  601 |     {[01;35m[K"microsoft-symbol"[m[K, NULL, 256, 0, microsoft_symbol, NULL, 0, 0},
      |      [01;35m[K^~~~~~~~~~~~~~~~~~[m[K
[01m[Kfontenc.c:602:6:[m[K [01;35m[Kwarning: [m[Kinitialization discards '[01m[Kconst[m[K' qualifier from pointer target type [[01;35m[K-Wdiscarded-qualifiers[m[K]
  602 |     {[01;35m[K"apple-roman"[m[K, NULL, 256, 0, apple_roman, NULL, 0, 0},
      |      [01;35m[K^~~~~~~~~~~~~[m[K
[01m[Kencparse.c:[m[K In function '[01m[KFontEncReallyLoad[m[K':
[01m[Kencparse.c:868:46:[m[K [01;35m[Kwarning: [m[K'[01m[K%s[m[K' directive output may be truncated writing 13 bytes into a region of size between 1 and 1024 [[01;35m[K-Wformat-truncation=[m[K]
  868 |         snprintf(buf, MAXFONTFILENAMELEN, "%s[01;35m[K%s[m[K", dir, [32m[K"encodings.dir"[m[K);
      |                                              [01;35m[K^~[m[K        [32m[K~~~~~~~~~~~~~~~[m[K
In file included from [01m[K/usr/include/stdio.h:867[m[K,
                 from [01m[Kencparse.c:32[m[K:
[01m[K/usr/include/bits/stdio2.h:67:10:[m[K [01;36m[Knote: [m[K'[01m[K__builtin___snprintf_chk[m[K' output between 14 and 1037 bytes into a destination of size 1024
   67 |   return [01;36m[K__builtin___snprintf_chk (__s, __n, __USE_FORTIFY_LEVEL - 1,[m[K
      |          [01;36m[K^~~~~~~~~~~~~~~~~~~~~~~~~~~~~~~~~~~~~~~~~~~~~~~~~~~~~~~~~~~~[m[K
   68 | [01;36m[K       __bos (__s), __fmt, __va_arg_pack ())[m[K;
      |        [01;36m[K~~~~~~~~~~~~~~~~~~~~~~~~~~~~~~~~~~~~~[m[K
/bin/sh ../libtool  --tag=CC   --mode=link x86_64-pc-linux-gnu-gcc  -Wall -Wpointer-arith -Wmissing-declarations -Wformat=2 -Wstrict-prototypes -Wmissing-prototypes -Wnested-externs -Wbad-function-cast -Wold-style-definition -Wdeclaration-after-statement -Wunused -Wuninitialized -Wshadow -Wmissing-noreturn -Wmissing-format-attribute -Wredundant-decls -Wlogical-op -Wimplicit -Wnonnull -Winit-self -Wmain -Wmissing-braces -Wsequence-point -Wreturn-type -Wtrigraphs -Warray-bounds -Wwrite-strings -Waddress -Wint-to-pointer-cast -Wpointer-to-int-cast -fno-strict-aliasing -O3 -march=native -pipe -g0 -fno-stack-protector -fno-stack-clash-protection -fstack-check=no -fno-stack-check -version-number 1:0:0 -no-undefined -Wl,-O1 -Wl,--as-needed -Wl,--defsym=__gentoo_check_ldflags__=0 -Wl,--hash-style=gnu -Wl,-z,norelro -o libfontenc.la -rpath /usr/lib64 encparse.lo fontenc.lo  -lz 
libtool: link: x86_64-pc-linux-gnu-gcc -shared  -fPIC -DPIC  .libs/encparse.o .libs/fontenc.o   -Wl,--as-needed -lz  -O3 -march=native -g0 -Wl,-O1 -Wl,--defsym=__gentoo_check_ldflags__=0 -Wl,--hash-style=gnu -Wl,-z -Wl,norelro   -Wl,-soname -Wl,libfontenc.so.1 -o .libs/libfontenc.so.1.0.0
libtool: link: (cd ".libs" && rm -f "libfontenc.so.1" && ln -s "libfontenc.so.1.0.0" "libfontenc.so.1")
libtool: link: (cd ".libs" && rm -f "libfontenc.so" && ln -s "libfontenc.so.1.0.0" "libfontenc.so")
libtool: link: ( cd ".libs" && rm -f "libfontenc.la" && ln -s "../libfontenc.la" "libfontenc.la" )
make[2]: Leaving directory '/tmp/portage/x11-libs/libfontenc-1.1.4/work/libfontenc-1.1.4/src'
make[2]: Entering directory '/tmp/portage/x11-libs/libfontenc-1.1.4/work/libfontenc-1.1.4'
make[2]: Leaving directory '/tmp/portage/x11-libs/libfontenc-1.1.4/work/libfontenc-1.1.4'
make[1]: Leaving directory '/tmp/portage/x11-libs/libfontenc-1.1.4/work/libfontenc-1.1.4'
>>> Source compiled.
>>> Test phase: x11-libs/libfontenc-1.1.4
make -j12   check
Making check in src
make[1]: Entering directory '/tmp/portage/x11-libs/libfontenc-1.1.4/work/libfontenc-1.1.4/src'
make[1]: Nothing to be done for 'check'.
make[1]: Leaving directory '/tmp/portage/x11-libs/libfontenc-1.1.4/work/libfontenc-1.1.4/src'
make[1]: Entering directory '/tmp/portage/x11-libs/libfontenc-1.1.4/work/libfontenc-1.1.4'
make[1]: Leaving directory '/tmp/portage/x11-libs/libfontenc-1.1.4/work/libfontenc-1.1.4'
>>> Completed testing x11-libs/libfontenc-1.1.4

>>> Install x11-libs/libfontenc-1.1.4 into /tmp/portage/x11-libs/libfontenc-1.1.4/image
make -j12 DESTDIR=/tmp/portage/x11-libs/libfontenc-1.1.4/image docdir=/usr/share/doc/libfontenc-1.1.4 install 
Making install in src
make[1]: Entering directory '/tmp/portage/x11-libs/libfontenc-1.1.4/work/libfontenc-1.1.4/src'
make[2]: Entering directory '/tmp/portage/x11-libs/libfontenc-1.1.4/work/libfontenc-1.1.4/src'
 /bin/mkdir -p '/tmp/portage/x11-libs/libfontenc-1.1.4/image/usr/lib64'
 /bin/mkdir -p '/tmp/portage/x11-libs/libfontenc-1.1.4/image/usr/include/X11/fonts'
 /bin/sh ../libtool   --mode=install /tmp/portage/._portage_reinstall_.mi8935l4/bin/ebuild-helpers/xattr/install -c   libfontenc.la '/tmp/portage/x11-libs/libfontenc-1.1.4/image/usr/lib64'
 /tmp/portage/._portage_reinstall_.mi8935l4/bin/ebuild-helpers/xattr/install -c -m 644 ../include/X11/fonts/fontenc.h '/tmp/portage/x11-libs/libfontenc-1.1.4/image/usr/include/X11/fonts'
libtool: install: /tmp/portage/._portage_reinstall_.mi8935l4/bin/ebuild-helpers/xattr/install -c .libs/libfontenc.so.1.0.0 /tmp/portage/x11-libs/libfontenc-1.1.4/image/usr/lib64/libfontenc.so.1.0.0
libtool: install: (cd /tmp/portage/x11-libs/libfontenc-1.1.4/image/usr/lib64 && { ln -s -f libfontenc.so.1.0.0 libfontenc.so.1 || { rm -f libfontenc.so.1 && ln -s libfontenc.so.1.0.0 libfontenc.so.1; }; })
libtool: install: (cd /tmp/portage/x11-libs/libfontenc-1.1.4/image/usr/lib64 && { ln -s -f libfontenc.so.1.0.0 libfontenc.so || { rm -f libfontenc.so && ln -s libfontenc.so.1.0.0 libfontenc.so; }; })
libtool: install: /tmp/portage/._portage_reinstall_.mi8935l4/bin/ebuild-helpers/xattr/install -c .libs/libfontenc.lai /tmp/portage/x11-libs/libfontenc-1.1.4/image/usr/lib64/libfontenc.la
libtool: [31mwarning(B[m: [1mremember to run 'libtool --finish /usr/lib64'(B[m
make[2]: Leaving directory '/tmp/portage/x11-libs/libfontenc-1.1.4/work/libfontenc-1.1.4/src'
make[1]: Leaving directory '/tmp/portage/x11-libs/libfontenc-1.1.4/work/libfontenc-1.1.4/src'
make[1]: Entering directory '/tmp/portage/x11-libs/libfontenc-1.1.4/work/libfontenc-1.1.4'
make[2]: Entering directory '/tmp/portage/x11-libs/libfontenc-1.1.4/work/libfontenc-1.1.4'
make[2]: Nothing to be done for 'install-exec-am'.
 /bin/mkdir -p '/tmp/portage/x11-libs/libfontenc-1.1.4/image/usr/lib64/pkgconfig'
 /tmp/portage/._portage_reinstall_.mi8935l4/bin/ebuild-helpers/xattr/install -c -m 644 fontenc.pc '/tmp/portage/x11-libs/libfontenc-1.1.4/image/usr/lib64/pkgconfig'
make[2]: Leaving directory '/tmp/portage/x11-libs/libfontenc-1.1.4/work/libfontenc-1.1.4'
make[1]: Leaving directory '/tmp/portage/x11-libs/libfontenc-1.1.4/work/libfontenc-1.1.4'
>>> Completed installing x11-libs/libfontenc-1.1.4 into /tmp/portage/x11-libs/libfontenc-1.1.4/image

 [32;01m*[0m Final size of build directory: 2396 KiB (2.3 MiB)
 [32;01m*[0m Final size of installed tree:    84 KiB

strip: x86_64-pc-linux-gnu-strip --strip-unneeded -N __gentoo_check_ldflags__ -R .comment -R .GCC.command.line -R .note.gnu.gold-version
   /usr/lib64/libfontenc.so.1.0.0
./
./usr/
./usr/lib/
./usr/lib/debug/
./usr/lib/debug/usr/
./usr/lib/debug/usr/lib64/
./usr/lib/debug/usr/lib64/libfontenc.so.1.0.0.debug
./usr/include/
./usr/include/X11/
./usr/include/X11/fonts/
./usr/include/X11/fonts/fontenc.h
./usr/lib64/
./usr/lib64/libfontenc.so
./usr/lib64/libfontenc.so.1
./usr/lib64/libfontenc.so.1.0.0
./usr/lib64/pkgconfig/
./usr/lib64/pkgconfig/fontenc.pc
>>> Done.
 [32;01m*[39;49;00m checking 6 files for package collisions
>>> Merging x11-libs/libfontenc-1.1.4 to /
--- /usr/
--- /usr/lib64/
--- /usr/lib64/pkgconfig/
>>> /usr/lib64/pkgconfig/fontenc.pc
>>> /usr/lib64/libfontenc.so.1.0.0
>>> /usr/lib64/libfontenc.so.1 -> libfontenc.so.1.0.0
>>> /usr/lib64/libfontenc.so -> libfontenc.so.1.0.0
--- /usr/include/
--- /usr/include/X11/
--- /usr/include/X11/fonts/
>>> /usr/include/X11/fonts/fontenc.h
--- /usr/lib/
--- /usr/lib/debug/
--- /usr/lib/debug/usr/
--- /usr/lib/debug/usr/lib64/
>>> /usr/lib/debug/usr/lib64/libfontenc.so.1.0.0.debug
>>> x11-libs/libfontenc-1.1.4 merged.
>>> Regenerating /etc/ld.so.cache...
