No package files given... Grabbing a set.
--- replaced obj /usr/share/pkgconfig/xkeyboard-config.pc
--- replaced dir /usr/share/pkgconfig
--- replaced obj /usr/share/man/man7/xkeyboard-config.7.bz2
--- replaced dir /usr/share/man/man7
--- replaced dir /usr/share/man
--- replaced obj /usr/share/X11/xkb/types/pc
--- replaced obj /usr/share/X11/xkb/types/numpad
--- replaced obj /usr/share/X11/xkb/types/nokia
--- replaced obj /usr/share/X11/xkb/types/mousekeys
--- replaced obj /usr/share/X11/xkb/types/level5
--- replaced obj /usr/share/X11/xkb/types/iso9995
--- replaced obj /usr/share/X11/xkb/types/extra
--- replaced obj /usr/share/X11/xkb/types/default
--- replaced obj /usr/share/X11/xkb/types/complete
--- replaced obj /usr/share/X11/xkb/types/caps
--- replaced obj /usr/share/X11/xkb/types/cancel
--- replaced obj /usr/share/X11/xkb/types/basic
--- replaced obj /usr/share/X11/xkb/types/README
--- replaced dir /usr/share/X11/xkb/types
--- replaced obj /usr/share/X11/xkb/symbols/za
--- replaced obj /usr/share/X11/xkb/symbols/xfree68_vndr/ataritt
--- replaced obj /usr/share/X11/xkb/symbols/xfree68_vndr/amiga
--- replaced dir /usr/share/X11/xkb/symbols/xfree68_vndr
--- replaced obj /usr/share/X11/xkb/symbols/vn
--- replaced obj /usr/share/X11/xkb/symbols/uz
--- replaced obj /usr/share/X11/xkb/symbols/us
--- replaced obj /usr/share/X11/xkb/symbols/ua
--- replaced obj /usr/share/X11/xkb/symbols/tz
--- replaced obj /usr/share/X11/xkb/symbols/typo
--- replaced obj /usr/share/X11/xkb/symbols/tw
--- replaced obj /usr/share/X11/xkb/symbols/trans
--- replaced obj /usr/share/X11/xkb/symbols/tr
--- replaced obj /usr/share/X11/xkb/symbols/tm
--- replaced obj /usr/share/X11/xkb/symbols/tj
--- replaced obj /usr/share/X11/xkb/symbols/th
--- replaced obj /usr/share/X11/xkb/symbols/tg
--- replaced obj /usr/share/X11/xkb/symbols/terminate
--- replaced obj /usr/share/X11/xkb/symbols/sy
--- replaced obj /usr/share/X11/xkb/symbols/sun_vndr/us
--- replaced obj /usr/share/X11/xkb/symbols/sun_vndr/ua
--- replaced obj /usr/share/X11/xkb/symbols/sun_vndr/tw
--- replaced obj /usr/share/X11/xkb/symbols/sun_vndr/tr
--- replaced obj /usr/share/X11/xkb/symbols/sun_vndr/solaris
--- replaced obj /usr/share/X11/xkb/symbols/sun_vndr/sk
--- replaced obj /usr/share/X11/xkb/symbols/sun_vndr/se
--- replaced obj /usr/share/X11/xkb/symbols/sun_vndr/ru
--- replaced obj /usr/share/X11/xkb/symbols/sun_vndr/ro
--- replaced obj /usr/share/X11/xkb/symbols/sun_vndr/pt
--- replaced obj /usr/share/X11/xkb/symbols/sun_vndr/pl
--- replaced obj /usr/share/X11/xkb/symbols/sun_vndr/no
--- replaced obj /usr/share/X11/xkb/symbols/sun_vndr/nl
--- replaced obj /usr/share/X11/xkb/symbols/sun_vndr/lv
--- replaced obj /usr/share/X11/xkb/symbols/sun_vndr/lt
--- replaced obj /usr/share/X11/xkb/symbols/sun_vndr/kr
--- replaced obj /usr/share/X11/xkb/symbols/sun_vndr/jp
--- replaced obj /usr/share/X11/xkb/symbols/sun_vndr/it
--- replaced obj /usr/share/X11/xkb/symbols/sun_vndr/gr
--- replaced obj /usr/share/X11/xkb/symbols/sun_vndr/gb
--- replaced obj /usr/share/X11/xkb/symbols/sun_vndr/fr
--- replaced obj /usr/share/X11/xkb/symbols/sun_vndr/fi
--- replaced obj /usr/share/X11/xkb/symbols/sun_vndr/es
--- replaced obj /usr/share/X11/xkb/symbols/sun_vndr/ee
--- replaced obj /usr/share/X11/xkb/symbols/sun_vndr/dk
--- replaced obj /usr/share/X11/xkb/symbols/sun_vndr/de
--- replaced obj /usr/share/X11/xkb/symbols/sun_vndr/cz
--- replaced obj /usr/share/X11/xkb/symbols/sun_vndr/ch
--- replaced obj /usr/share/X11/xkb/symbols/sun_vndr/ca
--- replaced obj /usr/share/X11/xkb/symbols/sun_vndr/br
--- replaced obj /usr/share/X11/xkb/symbols/sun_vndr/be
--- replaced obj /usr/share/X11/xkb/symbols/sun_vndr/ara
--- replaced dir /usr/share/X11/xkb/symbols/sun_vndr
--- replaced obj /usr/share/X11/xkb/symbols/srvr_ctrl
--- replaced obj /usr/share/X11/xkb/symbols/sony_vndr/us
--- replaced dir /usr/share/X11/xkb/symbols/sony_vndr
--- replaced obj /usr/share/X11/xkb/symbols/sn
--- replaced obj /usr/share/X11/xkb/symbols/sk
--- replaced obj /usr/share/X11/xkb/symbols/si
--- replaced obj /usr/share/X11/xkb/symbols/shift
--- replaced obj /usr/share/X11/xkb/symbols/sharp_vndr/ws020sh
--- replaced obj /usr/share/X11/xkb/symbols/sharp_vndr/ws011sh
--- replaced obj /usr/share/X11/xkb/symbols/sharp_vndr/ws007sh
--- replaced obj /usr/share/X11/xkb/symbols/sharp_vndr/ws003sh
--- replaced obj /usr/share/X11/xkb/symbols/sharp_vndr/sl-c3x00
--- replaced dir /usr/share/X11/xkb/symbols/sharp_vndr
--- replaced obj /usr/share/X11/xkb/symbols/sgi_vndr/jp
--- replaced dir /usr/share/X11/xkb/symbols/sgi_vndr
--- replaced obj /usr/share/X11/xkb/symbols/se
--- replaced obj /usr/share/X11/xkb/symbols/rupeesign
--- replaced obj /usr/share/X11/xkb/symbols/ru
--- replaced obj /usr/share/X11/xkb/symbols/rs
--- replaced obj /usr/share/X11/xkb/symbols/ro
--- replaced obj /usr/share/X11/xkb/symbols/pt
--- replaced obj /usr/share/X11/xkb/symbols/pl
--- replaced obj /usr/share/X11/xkb/symbols/pk
--- replaced obj /usr/share/X11/xkb/symbols/ph
--- replaced obj /usr/share/X11/xkb/symbols/pc
--- replaced obj /usr/share/X11/xkb/symbols/parens
--- replaced obj /usr/share/X11/xkb/symbols/olpc
--- replaced obj /usr/share/X11/xkb/symbols/np
--- replaced obj /usr/share/X11/xkb/symbols/nokia_vndr/su-8w
--- replaced obj /usr/share/X11/xkb/symbols/nokia_vndr/rx-51
--- replaced obj /usr/share/X11/xkb/symbols/nokia_vndr/rx-44
--- replaced dir /usr/share/X11/xkb/symbols/nokia_vndr
--- replaced obj /usr/share/X11/xkb/symbols/no
--- replaced obj /usr/share/X11/xkb/symbols/nl
--- replaced obj /usr/share/X11/xkb/symbols/ng
--- replaced obj /usr/share/X11/xkb/symbols/nec_vndr/jp
--- replaced dir /usr/share/X11/xkb/symbols/nec_vndr
--- replaced obj /usr/share/X11/xkb/symbols/nbsp
--- replaced obj /usr/share/X11/xkb/symbols/my
--- replaced obj /usr/share/X11/xkb/symbols/mv
--- replaced obj /usr/share/X11/xkb/symbols/mt
--- replaced obj /usr/share/X11/xkb/symbols/mn
--- replaced obj /usr/share/X11/xkb/symbols/mm
--- replaced obj /usr/share/X11/xkb/symbols/ml
--- replaced obj /usr/share/X11/xkb/symbols/mk
--- replaced obj /usr/share/X11/xkb/symbols/me
--- replaced obj /usr/share/X11/xkb/symbols/md
--- replaced obj /usr/share/X11/xkb/symbols/mao
--- replaced obj /usr/share/X11/xkb/symbols/macintosh_vndr/us
--- replaced obj /usr/share/X11/xkb/symbols/macintosh_vndr/se
--- replaced obj /usr/share/X11/xkb/symbols/macintosh_vndr/pt
--- replaced obj /usr/share/X11/xkb/symbols/macintosh_vndr/no
--- replaced obj /usr/share/X11/xkb/symbols/macintosh_vndr/nl
--- replaced obj /usr/share/X11/xkb/symbols/macintosh_vndr/latam
--- replaced obj /usr/share/X11/xkb/symbols/macintosh_vndr/jp
--- replaced obj /usr/share/X11/xkb/symbols/macintosh_vndr/it
--- replaced obj /usr/share/X11/xkb/symbols/macintosh_vndr/is
--- replaced obj /usr/share/X11/xkb/symbols/macintosh_vndr/gb
--- replaced obj /usr/share/X11/xkb/symbols/macintosh_vndr/fr
--- replaced obj /usr/share/X11/xkb/symbols/macintosh_vndr/fi
--- replaced obj /usr/share/X11/xkb/symbols/macintosh_vndr/dk
--- replaced obj /usr/share/X11/xkb/symbols/macintosh_vndr/de
--- replaced obj /usr/share/X11/xkb/symbols/macintosh_vndr/ch
--- replaced obj /usr/share/X11/xkb/symbols/macintosh_vndr/apple
--- replaced dir /usr/share/X11/xkb/symbols/macintosh_vndr
--- replaced obj /usr/share/X11/xkb/symbols/ma
--- replaced obj /usr/share/X11/xkb/symbols/lv
--- replaced obj /usr/share/X11/xkb/symbols/lt
--- replaced obj /usr/share/X11/xkb/symbols/lk
--- replaced obj /usr/share/X11/xkb/symbols/level5
--- replaced obj /usr/share/X11/xkb/symbols/level3
--- replaced obj /usr/share/X11/xkb/symbols/latin
--- replaced obj /usr/share/X11/xkb/symbols/latam
--- replaced obj /usr/share/X11/xkb/symbols/la
--- replaced obj /usr/share/X11/xkb/symbols/kz
--- replaced obj /usr/share/X11/xkb/symbols/kr
--- replaced obj /usr/share/X11/xkb/symbols/kpdl
--- replaced obj /usr/share/X11/xkb/symbols/kh
--- replaced obj /usr/share/X11/xkb/symbols/kg
--- replaced obj /usr/share/X11/xkb/symbols/keypad
--- replaced obj /usr/share/X11/xkb/symbols/ke
--- replaced obj /usr/share/X11/xkb/symbols/jv
--- replaced obj /usr/share/X11/xkb/symbols/jp
--- replaced obj /usr/share/X11/xkb/symbols/jolla_vndr/sbj
--- replaced dir /usr/share/X11/xkb/symbols/jolla_vndr
--- replaced obj /usr/share/X11/xkb/symbols/it
--- replaced obj /usr/share/X11/xkb/symbols/is
--- replaced obj /usr/share/X11/xkb/symbols/ir
--- replaced obj /usr/share/X11/xkb/symbols/iq
--- replaced obj /usr/share/X11/xkb/symbols/inet
--- replaced obj /usr/share/X11/xkb/symbols/in
--- replaced obj /usr/share/X11/xkb/symbols/il
--- replaced obj /usr/share/X11/xkb/symbols/ie
--- replaced obj /usr/share/X11/xkb/symbols/id
--- replaced obj /usr/share/X11/xkb/symbols/hu
--- replaced obj /usr/share/X11/xkb/symbols/hr
--- replaced obj /usr/share/X11/xkb/symbols/hp_vndr/us
--- replaced dir /usr/share/X11/xkb/symbols/hp_vndr
--- replaced obj /usr/share/X11/xkb/symbols/group
--- replaced obj /usr/share/X11/xkb/symbols/gr
--- replaced obj /usr/share/X11/xkb/symbols/gn
--- replaced obj /usr/share/X11/xkb/symbols/gh
--- replaced obj /usr/share/X11/xkb/symbols/ge
--- replaced obj /usr/share/X11/xkb/symbols/gb
--- replaced obj /usr/share/X11/xkb/symbols/fujitsu_vndr/us
--- replaced obj /usr/share/X11/xkb/symbols/fujitsu_vndr/jp
--- replaced dir /usr/share/X11/xkb/symbols/fujitsu_vndr
--- replaced obj /usr/share/X11/xkb/symbols/fr
--- replaced obj /usr/share/X11/xkb/symbols/fo
--- replaced obj /usr/share/X11/xkb/symbols/fi
--- replaced obj /usr/share/X11/xkb/symbols/eurosign
--- replaced obj /usr/share/X11/xkb/symbols/eu
--- replaced obj /usr/share/X11/xkb/symbols/et
--- replaced obj /usr/share/X11/xkb/symbols/es
--- replaced obj /usr/share/X11/xkb/symbols/epo
--- replaced obj /usr/share/X11/xkb/symbols/empty
--- replaced obj /usr/share/X11/xkb/symbols/ee
--- replaced obj /usr/share/X11/xkb/symbols/dz
--- replaced obj /usr/share/X11/xkb/symbols/dk
--- replaced obj /usr/share/X11/xkb/symbols/digital_vndr/vt
--- replaced obj /usr/share/X11/xkb/symbols/digital_vndr/us
--- replaced obj /usr/share/X11/xkb/symbols/digital_vndr/pc
--- replaced obj /usr/share/X11/xkb/symbols/digital_vndr/lk
--- replaced dir /usr/share/X11/xkb/symbols/digital_vndr
--- replaced obj /usr/share/X11/xkb/symbols/de
--- replaced obj /usr/share/X11/xkb/symbols/cz
--- replaced obj /usr/share/X11/xkb/symbols/ctrl
--- replaced obj /usr/share/X11/xkb/symbols/compose
--- replaced obj /usr/share/X11/xkb/symbols/cn
--- replaced obj /usr/share/X11/xkb/symbols/cm
--- replaced obj /usr/share/X11/xkb/symbols/ch
--- replaced obj /usr/share/X11/xkb/symbols/cd
--- replaced obj /usr/share/X11/xkb/symbols/capslock
--- replaced obj /usr/share/X11/xkb/symbols/ca
--- replaced obj /usr/share/X11/xkb/symbols/by
--- replaced obj /usr/share/X11/xkb/symbols/bw
--- replaced obj /usr/share/X11/xkb/symbols/bt
--- replaced obj /usr/share/X11/xkb/symbols/brai
--- replaced obj /usr/share/X11/xkb/symbols/br
--- replaced obj /usr/share/X11/xkb/symbols/bg
--- replaced obj /usr/share/X11/xkb/symbols/be
--- replaced obj /usr/share/X11/xkb/symbols/bd
--- replaced obj /usr/share/X11/xkb/symbols/ba
--- replaced obj /usr/share/X11/xkb/symbols/az
--- replaced obj /usr/share/X11/xkb/symbols/au
--- replaced obj /usr/share/X11/xkb/symbols/at
--- replaced obj /usr/share/X11/xkb/symbols/ara
--- replaced obj /usr/share/X11/xkb/symbols/apl
--- replaced obj /usr/share/X11/xkb/symbols/am
--- replaced obj /usr/share/X11/xkb/symbols/altwin
--- replaced obj /usr/share/X11/xkb/symbols/al
--- replaced obj /usr/share/X11/xkb/symbols/af
--- replaced dir /usr/share/X11/xkb/symbols
--- replaced sym /usr/share/X11/xkb/rules/xorg.xml
--- replaced sym /usr/share/X11/xkb/rules/xorg.lst
--- replaced sym /usr/share/X11/xkb/rules/xorg
--- replaced obj /usr/share/X11/xkb/rules/xkb.dtd
--- replaced obj /usr/share/X11/xkb/rules/xfree98
--- replaced obj /usr/share/X11/xkb/rules/evdev.xml
--- replaced obj /usr/share/X11/xkb/rules/evdev.lst
--- replaced obj /usr/share/X11/xkb/rules/evdev.extras.xml
--- replaced obj /usr/share/X11/xkb/rules/evdev
--- replaced obj /usr/share/X11/xkb/rules/base.xml
--- replaced obj /usr/share/X11/xkb/rules/base.lst
--- replaced obj /usr/share/X11/xkb/rules/base.extras.xml
--- replaced obj /usr/share/X11/xkb/rules/base
--- replaced obj /usr/share/X11/xkb/rules/README
--- replaced dir /usr/share/X11/xkb/rules
--- replaced obj /usr/share/X11/xkb/keycodes/xfree98
--- replaced obj /usr/share/X11/xkb/keycodes/xfree86
--- replaced obj /usr/share/X11/xkb/keycodes/sun
--- replaced obj /usr/share/X11/xkb/keycodes/sony
--- replaced obj /usr/share/X11/xkb/keycodes/sgi_vndr/iris
--- replaced obj /usr/share/X11/xkb/keycodes/sgi_vndr/indy
--- replaced obj /usr/share/X11/xkb/keycodes/sgi_vndr/indigo
--- replaced dir /usr/share/X11/xkb/keycodes/sgi_vndr
--- replaced obj /usr/share/X11/xkb/keycodes/olpc
--- replaced obj /usr/share/X11/xkb/keycodes/macintosh
--- replaced obj /usr/share/X11/xkb/keycodes/jolla
--- replaced obj /usr/share/X11/xkb/keycodes/ibm
--- replaced obj /usr/share/X11/xkb/keycodes/hp
--- replaced obj /usr/share/X11/xkb/keycodes/fujitsu
--- replaced obj /usr/share/X11/xkb/keycodes/evdev
--- replaced obj /usr/share/X11/xkb/keycodes/empty
--- replaced obj /usr/share/X11/xkb/keycodes/digital_vndr/pc
--- replaced obj /usr/share/X11/xkb/keycodes/digital_vndr/lk
--- replaced dir /usr/share/X11/xkb/keycodes/digital_vndr
--- replaced obj /usr/share/X11/xkb/keycodes/ataritt
--- replaced obj /usr/share/X11/xkb/keycodes/amiga
--- replaced obj /usr/share/X11/xkb/keycodes/aliases
--- replaced obj /usr/share/X11/xkb/keycodes/README
--- replaced dir /usr/share/X11/xkb/keycodes
--- replaced obj /usr/share/X11/xkb/geometry/winbook
--- replaced obj /usr/share/X11/xkb/geometry/typematrix
--- replaced obj /usr/share/X11/xkb/geometry/thinkpad
--- replaced obj /usr/share/X11/xkb/geometry/teck
--- replaced obj /usr/share/X11/xkb/geometry/sun
--- replaced obj /usr/share/X11/xkb/geometry/steelseries
--- replaced obj /usr/share/X11/xkb/geometry/sony
--- replaced obj /usr/share/X11/xkb/geometry/sgi_vndr/indy
--- replaced obj /usr/share/X11/xkb/geometry/sgi_vndr/indigo
--- replaced obj /usr/share/X11/xkb/geometry/sgi_vndr/O2
--- replaced dir /usr/share/X11/xkb/geometry/sgi_vndr
--- replaced obj /usr/share/X11/xkb/geometry/sanwa
--- replaced obj /usr/share/X11/xkb/geometry/pc
--- replaced obj /usr/share/X11/xkb/geometry/northgate
--- replaced obj /usr/share/X11/xkb/geometry/nokia
--- replaced obj /usr/share/X11/xkb/geometry/nec
--- replaced obj /usr/share/X11/xkb/geometry/microsoft
--- replaced obj /usr/share/X11/xkb/geometry/macintosh
--- replaced obj /usr/share/X11/xkb/geometry/kinesis
--- replaced obj /usr/share/X11/xkb/geometry/keytronic
--- replaced obj /usr/share/X11/xkb/geometry/hp
--- replaced obj /usr/share/X11/xkb/geometry/hhk
--- replaced obj /usr/share/X11/xkb/geometry/fujitsu
--- replaced obj /usr/share/X11/xkb/geometry/everex
--- replaced obj /usr/share/X11/xkb/geometry/digital_vndr/unix
--- replaced obj /usr/share/X11/xkb/geometry/digital_vndr/pc
--- replaced obj /usr/share/X11/xkb/geometry/digital_vndr/lk
--- replaced dir /usr/share/X11/xkb/geometry/digital_vndr
--- replaced obj /usr/share/X11/xkb/geometry/dell
--- replaced obj /usr/share/X11/xkb/geometry/chicony
--- replaced obj /usr/share/X11/xkb/geometry/ataritt
--- replaced obj /usr/share/X11/xkb/geometry/amiga
--- replaced obj /usr/share/X11/xkb/geometry/README
--- replaced dir /usr/share/X11/xkb/geometry
--- replaced obj /usr/share/X11/xkb/compat/xtest
--- replaced obj /usr/share/X11/xkb/compat/xfree86
--- replaced obj /usr/share/X11/xkb/compat/pc98
--- replaced obj /usr/share/X11/xkb/compat/pc
--- replaced obj /usr/share/X11/xkb/compat/olpc
--- replaced obj /usr/share/X11/xkb/compat/mousekeys
--- replaced obj /usr/share/X11/xkb/compat/misc
--- replaced obj /usr/share/X11/xkb/compat/level5
--- replaced obj /usr/share/X11/xkb/compat/ledscroll
--- replaced obj /usr/share/X11/xkb/compat/lednum
--- replaced obj /usr/share/X11/xkb/compat/ledcompose
--- replaced obj /usr/share/X11/xkb/compat/ledcaps
--- replaced obj /usr/share/X11/xkb/compat/japan
--- replaced obj /usr/share/X11/xkb/compat/iso9995
--- replaced obj /usr/share/X11/xkb/compat/complete
--- replaced obj /usr/share/X11/xkb/compat/caps
--- replaced obj /usr/share/X11/xkb/compat/basic
--- replaced obj /usr/share/X11/xkb/compat/accessx
--- replaced obj /usr/share/X11/xkb/compat/README
--- replaced dir /usr/share/X11/xkb/compat
--- replaced dir /usr/share/X11/xkb
--- replaced dir /usr/share/X11
--- replaced dir /usr/share
--- replaced dir /usr
>>> Regenerating /etc/ld.so.cache...
